20/09/2021 21:07:58[DEBUG] pflow_file:  ../test_networks/20210910-223922_29/net.pflow  
20/09/2021 21:07:58[DEBUG] output_folder:  ../test_networks/20210910-223922_29/  
20/09/2021 21:07:58[DEBUG] html_path:  ../test_networks/20210910-223922_29/  
20/09/2021 21:07:58[DEBUG] txt_path:  ../test_networks/20210910-223922_29/txt_info  

--------------------------------------------------------------------------   
20/09/2021 21:07:58[INFO] Ejecutando petrinator para conocer estado de la red...   
--------------------------------------------------------------------------
   
20/09/2021 21:08:29[INFO] SIFONES   
+----+-----+-------------------------------------------------+
| ID | Nro |                      Plazas                     |
+----+-----+-------------------------------------------------+
| 0  |  3  | ['P2', 'P9', 'P17', 'P21', 'P34', 'P38', 'P39'] |
| 1  |  48 |     ['P2', 'P9', 'P16', 'P21', 'P34', 'P39']    |
+----+-----+-------------------------------------------------+ 

20/09/2021 21:08:29[INFO] T INVARIANTES   
+----+----+----+----+----+----+----+----+----+----+-----+-----+-----+-----+-----+-----+-----+-----+-----+-----+
| T0 | T1 | T2 | T3 | T4 | T5 | T6 | T7 | T8 | T9 | T10 | T11 | T12 | T13 | T14 | T15 | T16 | T17 | T18 | T19 |
+----+----+----+----+----+----+----+----+----+----+-----+-----+-----+-----+-----+-----+-----+-----+-----+-----+
| 1  | 1  | 1  | 1  | 1  | 0  | 0  | 0  | 1  | 1  |  0  |  0  |  0  |  0  |  0  |  0  |  0  |  0  |  0  |  0  |
| 0  | 0  | 0  | 0  | 0  | 1  | 1  | 1  | 1  | 1  |  0  |  0  |  0  |  0  |  0  |  0  |  0  |  0  |  0  |  0  |
| 0  | 0  | 0  | 0  | 0  | 0  | 0  | 0  | 0  | 0  |  1  |  1  |  1  |  1  |  0  |  0  |  0  |  0  |  1  |  1  |
| 0  | 0  | 0  | 0  | 0  | 0  | 0  | 0  | 0  | 0  |  0  |  0  |  0  |  0  |  1  |  1  |  1  |  1  |  1  |  1  |
+----+----+----+----+----+----+----+----+----+----+-----+-----+-----+-----+-----+-----+-----+-----+-----+-----+ 

20/09/2021 21:08:29[INFO] Supervisores para agregar   
+-----+---------+----------------------------+----------------------------+-------------------------------------------------+
|  ID | Marcado |        T - Entrada         |         T - Salida         |                Sifon a controlar                |
+-----+---------+----------------------------+----------------------------+-------------------------------------------------+
| P40 |    2    | ['T2', 'T7', 'T13', 'T17'] | ['T1', 'T6', 'T12', 'T15'] | ['P2', 'P9', 'P17', 'P21', 'P34', 'P38', 'P39'] |
| P40 |    1    |       ['T2', 'T17']        |       ['T1', 'T16']        |     ['P2', 'P9', 'P16', 'P21', 'P34', 'P39']    |
+-----+---------+----------------------------+----------------------------+-------------------------------------------------+ 

20/09/2021 21:08:29[INFO] Supervisores agregados   
+-----+-------+---------+-------------+------------+----------------+
| Nro | Plaza | Marcado | T - Entrada | T - Salida | MAL supervisor |
+-----+-------+---------+-------------+------------+----------------+
+-----+-------+---------+-------------+------------+----------------+ 

20/09/2021 21:08:29[INFO] Supervisores eliminados   
+-----+-------+---------+-------------+------------+----------------+
| Nro | Plaza | Marcado | T - Entrada | T - Salida | MAL supervisor |
+-----+-------+---------+-------------+------------+----------------+
+-----+-------+---------+-------------+------------+----------------+ 

20/09/2021 21:08:29[INFO] Ejecutando accion...   
20/09/2021 21:08:29[ACTION] Agrego supervisor con menor numero de arcos de salida (MNAS)   
20/09/2021 21:08:29[INFO] Supervisor con menor cantidad de arcos de salida agregado 1   

--------------------------------------------------------------------------   
20/09/2021 21:08:29[INFO] Ejecutando petrinator para conocer estado de la red...   
--------------------------------------------------------------------------
   
--------------------------------------------------------------------------
   
20/09/2021 21:09:05[INFO] Calculando recompensa..   
20/09/2021 21:09:05[REWARD] No hay mas deadlock, recompensa 100   

--------------------------------------------------------------------------
   
20/09/2021 21:09:05[STATE] Se llego al estado deseado, NO HAY MAS DEADLOCK   

--------------------------------------------------------------------------
   
+--------+---------+-------------------+----------------+---------+---------+------------------------+
| Plazas | Estados | Tokens trabajando | Sifones vacios | Sifones | Trampas | Supervisores agregados |
+--------+---------+-------------------+----------------+---------+---------+------------------------+
|   40   |   1511  |        6034       |       0        |   129   |   205   |           1            |
+--------+---------+-------------------+----------------+---------+---------+------------------------+ 
+------------------------------+------------+-----------------+--------------------+-----------------------+
|       Estados/Acciones       | + sup MNAS | + sup aleatorio | - sup MAL agregado | - ultimo sup agregado |
+------------------------------+------------+-----------------+--------------------+-----------------------+
|            Start             |   100.0    |       0.0       |        0.0         |          0.0          |
| + sifónes vacíos en deadlock |    0.0     |       0.0       |        0.0         |          0.0          |
| - sifónes vacíos en deadlock |    0.0     |       0.0       |        0.0         |          0.0          |
| = sifónes vacíos en deadlock |    0.0     |       0.0       |        0.0         |          0.0          |
|             End              |    0.0     |       0.0       |        0.0         |          0.0          |
+------------------------------+------------+-----------------+--------------------+-----------------------+ 

20/09/2021 21:09:05[INFO] Comienza proceso de eliminacion de supervisores redundantes   
20/09/2021 21:09:05[INFO] Supervisor a eliminar   
+-----+-------+---------+---------------+---------------+----------------+
| Nro | Plaza | Marcado |  T - Entrada  |   T - Salida  | MAL supervisor |
+-----+-------+---------+---------------+---------------+----------------+
|  1  |  P40  |    1    | ['T2', 'T17'] | ['T1', 'T16'] |     False      |
+-----+-------+---------+---------------+---------------+----------------+ 
20/09/2021 21:09:05[INFO] Eliminando supervisor ...   

--------------------------------------------------------------------------   
20/09/2021 21:09:05[INFO] Ejecutando petrinator para conocer estado de la red...   
--------------------------------------------------------------------------
   
20/09/2021 21:09:31[INFO] El supervisor eliminado no era redundante, volviendo a agregar supervisor   
20/09/2021 21:09:31[INFO] Se volvio a agregar correctamente el supervisor eliminado   

--------------------------------------------------------------------------   
20/09/2021 21:09:31[INFO] Ejecutando petrinator para conocer estado de la red...   
--------------------------------------------------------------------------
   
20/09/2021 21:10:10[INFO] Se eliminaron todos los supervisores redundantes   
+--------+---------+-------------------+----------------+---------+---------+------------------------+-------------------------+
| Plazas | Estados | Tokens trabajando | Sifones vacios | Sifones | Trampas | Supervisores agregados | Supervisores eliminados |
+--------+---------+-------------------+----------------+---------+---------+------------------------+-------------------------+
|   40   |   1511  |        6034       |       0        |   129   |   205   |           1            |            0            |
+--------+---------+-------------------+----------------+---------+---------+------------------------+-------------------------+ 
