21/06/2021 17:56:17[DEBUG] pflow_file:  ../analisis_5_21062021/gen_nets/20210621-175514_10/net.pflow  
21/06/2021 17:56:17[DEBUG] output_folder:  ../analisis_5_21062021/gen_nets/20210621-175514_10/  
21/06/2021 17:56:17[DEBUG] html_path:  ../analisis_5_21062021/gen_nets/20210621-175514_10/  
21/06/2021 17:56:17[DEBUG] txt_path:  ../analisis_5_21062021/gen_nets/20210621-175514_10/txt_info  

--------------------------------------------------------------------------   
21/06/2021 17:56:17[INFO] Ejecutando petrinator para conocer estado de la red...   
--------------------------------------------------------------------------
   
21/06/2021 17:56:20[ERROR] La red ingresada no es S3PR, cerrando analisis 
  
