19/06/2021 18:02:03[DEBUG] pflow_file:  ../Prueba/gen_nets/20210619-175223_2/net.pflow  
19/06/2021 18:02:03[DEBUG] output_folder:  ../Prueba/gen_nets/20210619-175223_2/  
19/06/2021 18:02:03[DEBUG] html_path:  ../Prueba/gen_nets/20210619-175223_2/  
19/06/2021 18:02:03[DEBUG] txt_path:  ../Prueba/gen_nets/20210619-175223_2/txt_info  

--------------------------------------------------------------------------   
19/06/2021 18:02:03[INFO] Ejecutando petrinator para conocer estado de la red...   
--------------------------------------------------------------------------
   
19/06/2021 18:02:04[ERROR] La red ingresada no es S3PR, cerrando analisis 
  
