19/07/2021 23:19:28[DEBUG] pflow_file:  ../analysis/analisis_11_19072021/gen_nets/20210719-224351_16/net.pflow  
19/07/2021 23:19:28[DEBUG] output_folder:  ../analysis/analisis_11_19072021/gen_nets/20210719-224351_16/  
19/07/2021 23:19:28[DEBUG] html_path:  ../analysis/analisis_11_19072021/gen_nets/20210719-224351_16/  
19/07/2021 23:19:28[DEBUG] txt_path:  ../analysis/analisis_11_19072021/gen_nets/20210719-224351_16/txt_info  

--------------------------------------------------------------------------   
19/07/2021 23:19:28[INFO] Ejecutando petrinator para conocer estado de la red...   
--------------------------------------------------------------------------
   
19/07/2021 23:21:04[INFO] Leyendo archivos...   
19/07/2021 23:21:05[INFO] Cantidad de estados: 971  
19/07/2021 23:21:05[INFO] Cantidad de transiciones: 23  
19/07/2021 23:21:05[INFO] Cantidad de plazas: 40  
19/07/2021 23:21:05[INFO] Cantidad de sifones: 529  
19/07/2021 23:21:05[INFO] Cantidad de trampas: 655  

--------------------------------------------------------------------------
   
19/07/2021 23:21:05[INFO] Cantidad de entrenamientos a realizar:  1  
19/07/2021 23:21:05[INFO] Entrenamiento numero: 0 
 
19/07/2021 23:21:05[INFO] Q-TABLE   
+-----------------------------------------------------+--------------------+------------------------+
|                   Estados/Acciones                  | Agregar supervisor | Agregar o quitar arcos |
+-----------------------------------------------------+--------------------+------------------------+
|                        Start                        |        0.0         |          0.0           |
|        Más sifónes vacíos en estado deadlock        |        0.0         |          0.0           |
|       Menos sifónes vacíos en estado deadlock       |        0.0         |          0.0           |
| Igual cantidad de sifónes vacíos en estado deadlock |        0.0         |          0.0           |
|                         End                         |        0.0         |          0.0           |
+-----------------------------------------------------+--------------------+------------------------+

--------------------------------------------------------------------------   
19/07/2021 23:21:05[INFO] Ejecutando petrinator para conocer estado de la red...   
--------------------------------------------------------------------------
   
19/07/2021 23:22:33[INFO] Importando datos desde html...   
19/07/2021 23:22:34[INFO] Analizando cantidad de supervisores que se pueden agregar...   
19/07/2021 23:22:34[INFO] Cantidad de transiciones: 23  
19/07/2021 23:22:34[INFO] Estados de deadlock: [77]  
19/07/2021 23:22:34[INFO] Cantidad de sifones: 529  
19/07/2021 23:22:34[INFO] Cantidad de sifones vacios en estado de deadlock: 1 
 
19/07/2021 23:22:34[INFO] SIFONES   
+----+-----+-------------------------------------------+
| ID | Nro |                   Plazas                  |
+----+-----+-------------------------------------------+
| 0  | 250 | ['P3', 'P10', 'P13', 'P31', 'P33', 'P35'] |
+----+-----+-------------------------------------------+
19/07/2021 23:22:34[INFO] T INVARIANTES   
+----+----+----+----+----+----+----+----+----+----+-----+-----+-----+-----+-----+-----+-----+-----+-----+-----+-----+-----+-----+
| T0 | T1 | T2 | T3 | T4 | T5 | T6 | T7 | T8 | T9 | T10 | T11 | T12 | T13 | T14 | T15 | T16 | T17 | T18 | T19 | T20 | T21 | T22 |
+----+----+----+----+----+----+----+----+----+----+-----+-----+-----+-----+-----+-----+-----+-----+-----+-----+-----+-----+-----+
| 1  | 1  | 1  | 1  | 0  | 0  | 0  | 0  | 0  | 0  |  0  |  0  |  0  |  0  |  0  |  0  |  0  |  0  |  0  |  0  |  0  |  0  |  0  |
| 0  | 0  | 0  | 0  | 1  | 1  | 1  | 0  | 0  | 0  |  0  |  0  |  0  |  0  |  0  |  0  |  0  |  0  |  0  |  0  |  0  |  0  |  0  |
| 0  | 0  | 0  | 0  | 0  | 0  | 0  | 1  | 1  | 1  |  1  |  0  |  0  |  0  |  0  |  0  |  0  |  0  |  0  |  0  |  0  |  0  |  0  |
| 0  | 0  | 0  | 0  | 0  | 0  | 0  | 0  | 0  | 0  |  0  |  1  |  1  |  1  |  0  |  0  |  0  |  0  |  0  |  0  |  0  |  0  |  0  |
| 0  | 0  | 0  | 0  | 0  | 0  | 0  | 0  | 0  | 0  |  0  |  0  |  0  |  0  |  1  |  1  |  1  |  1  |  1  |  0  |  0  |  0  |  0  |
| 0  | 0  | 0  | 0  | 0  | 0  | 0  | 0  | 0  | 0  |  0  |  0  |  0  |  0  |  0  |  0  |  0  |  0  |  0  |  1  |  1  |  1  |  1  |
+----+----+----+----+----+----+----+----+----+----+-----+-----+-----+-----+-----+-----+-----+-----+-----+-----+-----+-----+-----+
19/07/2021 23:22:34[INFO] POSIBLES SUPERVISORES A AGREGAR   
+-----+---------+----------------------+-----------------------------------------+-------------------------------------------+
|  ID | Marcado |     T - Entrada      |                T - Salida               |             Sifon a controlar             |
+-----+---------+----------------------+-----------------------------------------+-------------------------------------------+
| P41 |    2    | ['T3', 'T10', 'T13'] | ['T1', 'T5', 'T8', 'T12', 'T15', 'T20'] | ['P3', 'P10', 'P13', 'P31', 'P33', 'P35'] |
+-----+---------+----------------------+-----------------------------------------+-------------------------------------------+

--------------------------------------------------------------------------
   
19/07/2021 23:22:34[INFO] Ejecutando accion...   
19/07/2021 23:22:34[ACTION] Agregar supervisor    
19/07/2021 23:22:34[ACTION] Agrego supervisor Numero: 0   

--------------------------------------------------------------------------   
19/07/2021 23:22:34[INFO] Ejecutando petrinator para conocer estado de la red...   
--------------------------------------------------------------------------
   
19/07/2021 23:24:39[INFO] Importando datos desde html...   
19/07/2021 23:24:39[INFO] Analizando cantidad de supervisores que se pueden agregar...   
19/07/2021 23:24:39[INFO] Cantidad de sifones vacios en estado de deadlock ANTES: 1  
19/07/2021 23:24:39[INFO] Cantidad de sifones vacioes en estado de deadlock AHORA: 10  
19/07/2021 23:24:39[INFO] Cantidad de transiciones: 23  
19/07/2021 23:24:39[INFO] Estados de deadlock: [16]  
19/07/2021 23:24:39[INFO] Cantidad de sifones: 1643  
19/07/2021 23:24:39[INFO] Cantidad de sifones vacios en estado de deadlock: 10 
 
19/07/2021 23:24:39[INFO] SIFONES   
+----+-----+---------------------------------------------------------------------------------+
| ID | Nro |                                      Plazas                                     |
+----+-----+---------------------------------------------------------------------------------+
| 1  |  12 |                      ['P1', 'P2', 'P8', 'P9', 'P12', 'P41']                     |
| 2  |  15 |                  ['P1', 'P2', 'P8', 'P9', 'P12', 'P13', 'P41']                  |
| 3  |  18 |        ['P1', 'P2', 'P8', 'P9', 'P12', 'P13', 'P16', 'P17', 'P18', 'P41']       |
| 4  |  20 |    ['P1', 'P2', 'P8', 'P9', 'P12', 'P13', 'P16', 'P17', 'P18', 'P19', 'P41']    |
| 5  |  27 |                   ['P1', 'P2', 'P3', 'P8', 'P9', 'P12', 'P41']                  |
| 6  |  32 |               ['P1', 'P2', 'P3', 'P8', 'P9', 'P12', 'P16', 'P41']               |
| 7  |  33 |            ['P1', 'P2', 'P3', 'P8', 'P9', 'P12', 'P13', 'P16', 'P41']           |
| 8  |  35 |     ['P1', 'P2', 'P3', 'P8', 'P9', 'P12', 'P13', 'P16', 'P17', 'P18', 'P41']    |
| 9  |  39 |     ['P1', 'P2', 'P3', 'P8', 'P9', 'P12', 'P16', 'P17', 'P18', 'P19', 'P41']    |
| 10 |  42 | ['P1', 'P2', 'P3', 'P8', 'P9', 'P12', 'P13', 'P16', 'P17', 'P18', 'P19', 'P41'] |
+----+-----+---------------------------------------------------------------------------------+
19/07/2021 23:24:39[INFO] T INVARIANTES   
+----+----+----+----+----+----+----+----+----+----+-----+-----+-----+-----+-----+-----+-----+-----+-----+-----+-----+-----+-----+
| T0 | T1 | T2 | T3 | T4 | T5 | T6 | T7 | T8 | T9 | T10 | T11 | T12 | T13 | T14 | T15 | T16 | T17 | T18 | T19 | T20 | T21 | T22 |
+----+----+----+----+----+----+----+----+----+----+-----+-----+-----+-----+-----+-----+-----+-----+-----+-----+-----+-----+-----+
| 1  | 1  | 1  | 1  | 0  | 0  | 0  | 0  | 0  | 0  |  0  |  0  |  0  |  0  |  0  |  0  |  0  |  0  |  0  |  0  |  0  |  0  |  0  |
| 0  | 0  | 0  | 0  | 0  | 0  | 0  | 1  | 1  | 1  |  1  |  0  |  0  |  0  |  0  |  0  |  0  |  0  |  0  |  0  |  0  |  0  |  0  |
| 0  | 0  | 0  | 0  | 0  | 0  | 0  | 0  | 0  | 0  |  0  |  1  |  1  |  1  |  0  |  0  |  0  |  0  |  0  |  0  |  0  |  0  |  0  |
+----+----+----+----+----+----+----+----+----+----+-----+-----+-----+-----+-----+-----+-----+-----+-----+-----+-----+-----+-----+
19/07/2021 23:24:39[INFO] POSIBLES SUPERVISORES A AGREGAR   
+-----+---------+---------------+-----------------------------------------+---------------------------------------------------------------------------------+
|  ID | Marcado |  T - Entrada  |                T - Salida               |                                Sifon a controlar                                |
+-----+---------+---------------+-----------------------------------------+---------------------------------------------------------------------------------+
| P42 |    1    |    ['T13']    | ['T1', 'T5', 'T8', 'T12', 'T15', 'T20'] |                  ['P1', 'P2', 'P8', 'P9', 'P12', 'P13', 'P41']                  |
| P42 |    1    |    ['T13']    | ['T1', 'T5', 'T8', 'T12', 'T15', 'T20'] |        ['P1', 'P2', 'P8', 'P9', 'P12', 'P13', 'P16', 'P17', 'P18', 'P41']       |
| P42 |    1    |    ['T13']    | ['T1', 'T5', 'T8', 'T12', 'T15', 'T20'] |    ['P1', 'P2', 'P8', 'P9', 'P12', 'P13', 'P16', 'P17', 'P18', 'P19', 'P41']    |
| P42 |    1    |     ['T3']    | ['T1', 'T5', 'T8', 'T12', 'T15', 'T20'] |                   ['P1', 'P2', 'P3', 'P8', 'P9', 'P12', 'P41']                  |
| P42 |    1    |     ['T3']    | ['T1', 'T5', 'T8', 'T12', 'T15', 'T20'] |               ['P1', 'P2', 'P3', 'P8', 'P9', 'P12', 'P16', 'P41']               |
| P42 |    1    | ['T3', 'T13'] | ['T1', 'T5', 'T8', 'T12', 'T15', 'T20'] |            ['P1', 'P2', 'P3', 'P8', 'P9', 'P12', 'P13', 'P16', 'P41']           |
| P42 |    1    | ['T3', 'T13'] | ['T1', 'T5', 'T8', 'T12', 'T15', 'T20'] |     ['P1', 'P2', 'P3', 'P8', 'P9', 'P12', 'P13', 'P16', 'P17', 'P18', 'P41']    |
| P42 |    1    |     ['T3']    | ['T1', 'T5', 'T8', 'T12', 'T15', 'T20'] |     ['P1', 'P2', 'P3', 'P8', 'P9', 'P12', 'P16', 'P17', 'P18', 'P19', 'P41']    |
| P42 |    1    | ['T3', 'T13'] | ['T1', 'T5', 'T8', 'T12', 'T15', 'T20'] | ['P1', 'P2', 'P3', 'P8', 'P9', 'P12', 'P13', 'P16', 'P17', 'P18', 'P19', 'P41'] |
+-----+---------+---------------+-----------------------------------------+---------------------------------------------------------------------------------+
19/07/2021 23:24:39[INFO] Actualizando estado de la red..   
19/07/2021 23:24:39[STATE] Cambie al estado 1: Hay mas sifones vacios en deadlock   

--------------------------------------------------------------------------
   
19/07/2021 23:24:39[INFO] Calculando recompensa..   
19/07/2021 23:24:39[REWARD] El sifon se controlo correctamente, recompensa -1   

--------------------------------------------------------------------------
   
19/07/2021 23:24:39[INFO] NEW Q-TABLE   
+-----------------------------------------------------+--------------------+------------------------+
|                   Estados/Acciones                  | Agregar supervisor | Agregar o quitar arcos |
+-----------------------------------------------------+--------------------+------------------------+
|                        Start                        |        -0.9        |          0.0           |
|        Más sifónes vacíos en estado deadlock        |        0.0         |          0.0           |
|       Menos sifónes vacíos en estado deadlock       |        0.0         |          0.0           |
| Igual cantidad de sifónes vacíos en estado deadlock |        0.0         |          0.0           |
|                         End                         |        0.0         |          0.0           |
+-----------------------------------------------------+--------------------+------------------------+

--------------------------------------------------------------------------
   
19/07/2021 23:24:39[INFO] Ejecutando accion...   
19/07/2021 23:24:39[ACTION] Agregar o quitar arcos   
19/07/2021 23:24:39[ACTION] Eliminar arco desde P41 hasta T5   
19/07/2021 23:24:39[INFO] Se elimino el arco desde P41 hasta T5   
19/07/2021 23:24:39[ACTION] Eliminar arco desde P41 hasta T15   
19/07/2021 23:24:39[INFO] Se elimino el arco desde P41 hasta T15   
19/07/2021 23:24:39[ACTION] Eliminar arco desde P41 hasta T20   
19/07/2021 23:24:39[INFO] Se elimino el arco desde P41 hasta T20   

--------------------------------------------------------------------------   
19/07/2021 23:24:39[INFO] Ejecutando petrinator para conocer estado de la red...   
--------------------------------------------------------------------------
   
19/07/2021 23:26:33[INFO] Importando datos desde html...   
19/07/2021 23:26:34[INFO] Analizando cantidad de supervisores que se pueden agregar...   
19/07/2021 23:26:34[INFO] Cantidad de sifones vacios en estado de deadlock ANTES: 10  
19/07/2021 23:26:34[INFO] Cantidad de sifones vacioes en estado de deadlock AHORA: 0  
19/07/2021 23:26:34[INFO] Cantidad de transiciones: 23  
19/07/2021 23:26:34[INFO] Estados de deadlock: []  
19/07/2021 23:26:34[INFO] Cantidad de sifones: 712  
19/07/2021 23:26:34[INFO] Cantidad de sifones vacios en estado de deadlock: 0 
 
19/07/2021 23:26:34[INFO] SIFONES   
+----+-----+--------+
| ID | Nro | Plazas |
+----+-----+--------+
+----+-----+--------+
19/07/2021 23:26:34[INFO] T INVARIANTES   
+----+----+----+----+----+----+----+----+----+----+-----+-----+-----+-----+-----+-----+-----+-----+-----+-----+-----+-----+-----+
| T0 | T1 | T2 | T3 | T4 | T5 | T6 | T7 | T8 | T9 | T10 | T11 | T12 | T13 | T14 | T15 | T16 | T17 | T18 | T19 | T20 | T21 | T22 |
+----+----+----+----+----+----+----+----+----+----+-----+-----+-----+-----+-----+-----+-----+-----+-----+-----+-----+-----+-----+
| 1  | 1  | 1  | 1  | 0  | 0  | 0  | 0  | 0  | 0  |  0  |  0  |  0  |  0  |  0  |  0  |  0  |  0  |  0  |  0  |  0  |  0  |  0  |
| 0  | 0  | 0  | 0  | 1  | 1  | 1  | 0  | 0  | 0  |  0  |  0  |  0  |  0  |  0  |  0  |  0  |  0  |  0  |  0  |  0  |  0  |  0  |
| 0  | 0  | 0  | 0  | 0  | 0  | 0  | 1  | 1  | 1  |  1  |  0  |  0  |  0  |  0  |  0  |  0  |  0  |  0  |  0  |  0  |  0  |  0  |
| 0  | 0  | 0  | 0  | 0  | 0  | 0  | 0  | 0  | 0  |  0  |  1  |  1  |  1  |  0  |  0  |  0  |  0  |  0  |  0  |  0  |  0  |  0  |
| 0  | 0  | 0  | 0  | 0  | 0  | 0  | 0  | 0  | 0  |  0  |  0  |  0  |  0  |  1  |  1  |  1  |  1  |  1  |  0  |  0  |  0  |  0  |
| 0  | 0  | 0  | 0  | 0  | 0  | 0  | 0  | 0  | 0  |  0  |  0  |  0  |  0  |  0  |  0  |  0  |  0  |  0  |  1  |  1  |  1  |  1  |
+----+----+----+----+----+----+----+----+----+----+-----+-----+-----+-----+-----+-----+-----+-----+-----+-----+-----+-----+-----+
19/07/2021 23:26:34[INFO] POSIBLES SUPERVISORES A AGREGAR   
+----+---------+-------------+------------+-------------------+
| ID | Marcado | T - Entrada | T - Salida | Sifon a controlar |
+----+---------+-------------+------------+-------------------+
+----+---------+-------------+------------+-------------------+
19/07/2021 23:26:34[INFO] Actualizando estado de la red..   
19/07/2021 23:26:34[STATE] Cambie al estado 2: Hay menos sifones vacios en deadlock   

--------------------------------------------------------------------------
   
19/07/2021 23:26:34[INFO] Calculando recompensa..   
19/07/2021 23:26:34[REWARD] No hay mas deadlock, recompensa 100   

--------------------------------------------------------------------------
   
19/07/2021 23:26:34[INFO] NEW Q-TABLE   
+-----------------------------------------------------+--------------------+------------------------+
|                   Estados/Acciones                  | Agregar supervisor | Agregar o quitar arcos |
+-----------------------------------------------------+--------------------+------------------------+
|                        Start                        |        -0.9        |          0.0           |
|        Más sifónes vacíos en estado deadlock        |        0.0         |          90.0          |
|       Menos sifónes vacíos en estado deadlock       |        0.0         |          0.0           |
| Igual cantidad de sifónes vacíos en estado deadlock |        0.0         |          0.0           |
|                         End                         |        0.0         |          0.0           |
+-----------------------------------------------------+--------------------+------------------------+

--------------------------------------------------------------------------
   
19/07/2021 23:26:34[STATE] Se llego al estado deseado, NO HAY MAS DEADLOCK   

--------------------------------------------------------------------------
   
19/07/2021 23:26:34[INFO] Training complete! 
  
