 Minimal siphons 
4 10 15 16 17 26 28 30
3 10 15 26
2 10 29
15 18
14 16
13 17
8 9 10 11
1 5
12 13 14 15 19 20 21 22 23 24 25
2 9 15 30
1 2 5
2 8 12 22 31
2 10 27
1 2 3 5
1 32 2 3 8 9 12 13 14 15 23
2 3 10 29
2 3 10 27
32 2 3 8 10 12 13 14 15 19 20 21 22 23 27
32 2 3 8 10 12 13 14 15 19 20 21 22 23 29
4 6
4 8 12 28
4 8 12 13 14 15 28
1 2 4 6 7
1 2 3 4 7
1 2 3 4 5
1 2 4 5 6
1 32 2 4 8 9 12 13 14 15 19 20 21 22 23 28
2 4 6 10 29
2 3 4 10 29
2 3 4 10 27
2 4 6 10 27
4 10 12 15 26 28 30
4 8 9 10 12 13 14 15 28
32 2 3 4 8 10 12 13 14 15 19 20 21 22 23 27
32 2 3 4 8 10 12 13 14 15 19 20 21 22 23 29
1 32 2 4 6 8 9 10 12 13 14 15 19 20 21 22 23
32 2 4 6 8 10 12 13 14 15 19 20 21 22 23 27
32 2 4 6 8 10 12 13 14 15 19 20 21 22 23 29
1 32 2 4 8 9 10 12 13 14 15 19 20 21 22 23 28
4 8 10 15 16 17 26 28
 Minimal traps 
1 5
2 8 12 22 31
3 8 10 12 16 17 26 28
4 8 12 28
13 17
14 16
15 18
8 9 10 11
12 13 14 15 19 20 21 22 23 24 25
4 6
4 6 8 9 10 11
3 4 6
3 10 15 26
3 10 13 14 15 26
3 8 9 10 12 13 14 15 26
2 10 29
2 3 4 6
2 10 27
2 3 10 13 14 15 26
2 9 15 30
2 9 10 29
2 9 10 27
2 9 13 14 15 30
2 8 9 10 29
2 8 9 10 27
2 8 12 16 17 26 28 30
2 8 12 15 26 28 30
1 2 10 29
1 2 3 4 7
1 2 3 4 6
1 2 10 27
1 2 3 10 13 14 15 26
1 2 9 13 14 15 30
1 32 2 8 12 16 17 23 28 30
1 32 2 8 12 15 23 28 30
1 32 2 8 12 23 28 29
1 32 2 8 12 23 27 28
1 32 2 3 8 12 23 28
1 32 2 8 9 12 13 14 15 23 29
1 32 2 8 9 12 13 14 15 23 27
1 32 2 3 8 9 12 13 14 15 23
 Analysis time: 3.133s