18/07/2021 14:21:53[DEBUG] pflow_file:  ../analysis/analisis_8_08072021/gen_nets/20210708-094213_34/net.pflow  
18/07/2021 14:21:53[DEBUG] output_folder:  ../analysis/analisis_8_08072021/gen_nets/20210708-094213_34/  
18/07/2021 14:21:53[DEBUG] html_path:  ../analysis/analisis_8_08072021/gen_nets/20210708-094213_34/  
18/07/2021 14:21:53[DEBUG] txt_path:  ../analysis/analisis_8_08072021/gen_nets/20210708-094213_34/txt_info  

--------------------------------------------------------------------------   
18/07/2021 14:21:53[INFO] Ejecutando petrinator para conocer estado de la red...   
--------------------------------------------------------------------------
   
+----+-----+---------------------------------------------------------------+
| ID | Nro |                             Plazas                            |
+----+-----+---------------------------------------------------------------+
| 0  |  21 |     ['P2', 'P9', 'P12', 'P14', 'P16', 'P22', 'P34', 'P37']    |
| 1  |  87 |     ['P2', 'P9', 'P11', 'P14', 'P17', 'P23', 'P33', 'P37']    |
| 2  | 417 | ['P3', 'P9', 'P11', 'P14', 'P17', 'P23', 'P30', 'P33', 'P37'] |
| 3  |  3  |    ['P2', 'P11', 'P14', 'P17', 'P23', 'P33', 'P36', 'P37']    |
| 4  |  86 |    ['P2', 'P11', 'P14', 'P17', 'P23', 'P31', 'P33', 'P37']    |
+----+-----+---------------------------------------------------------------+
+----+----+----+----+----+----+----+----+----+----+-----+-----+-----+-----+-----+-----+-----+-----+-----+-----+-----+
| T0 | T1 | T2 | T3 | T4 | T5 | T6 | T7 | T8 | T9 | T10 | T11 | T12 | T13 | T14 | T15 | T16 | T17 | T18 | T19 | T20 |
+----+----+----+----+----+----+----+----+----+----+-----+-----+-----+-----+-----+-----+-----+-----+-----+-----+-----+
| 1  | 1  | 1  | 1  | 0  | 0  | 0  | 0  | 0  | 0  |  0  |  0  |  0  |  0  |  0  |  0  |  0  |  0  |  0  |  0  |  0  |
| 0  | 0  | 0  | 0  | 1  | 1  | 1  | 1  | 1  | 1  |  1  |  1  |  1  |  0  |  0  |  0  |  1  |  1  |  1  |  1  |  1  |
| 0  | 0  | 0  | 0  | 1  | 1  | 1  | 1  | 1  | 0  |  0  |  0  |  0  |  1  |  1  |  1  |  1  |  1  |  1  |  1  |  1  |
+----+----+----+----+----+----+----+----+----+----+-----+-----+-----+-----+-----+-----+-----+-----+-----+-----+-----+
18/07/2021 14:22:13[INFO] Supervisores para agregar   
+-----+---------+-----------------------------------+--------------+
|  ID | Marcado |            T - Entrada            |  T - Salida  |
+-----+---------+-----------------------------------+--------------+
| P38 |    1    |            ['T2', 'T6']           | ['T1', 'T5'] |
| P38 |    1    |           ['T2', 'T12']           | ['T1', 'T5'] |
| P38 |    2    | ['T3', 'T7', 'T12', 'T15', 'T19'] | ['T1', 'T5'] |
| P38 |    2    |        ['T3', 'T8', 'T12']        | ['T1', 'T5'] |
| P38 |    2    |        ['T3', 'T8', 'T12']        | ['T1', 'T5'] |
+-----+---------+-----------------------------------+--------------+
18/07/2021 14:22:13[INFO] Supervisores agregados   
+-----+---------+-------------+------------+
| Nro | Marcado | T - Entrada | T - Salida |
+-----+---------+-------------+------------+
+-----+---------+-------------+------------+
18/07/2021 14:22:13[INFO] Ejecutando accion...   
18/07/2021 14:22:13[INFO] Ejecutando accion...   
18/07/2021 14:22:13[ACTION] Agrego supervisor aleatorio Numero: 0  

--------------------------------------------------------------------------   
18/07/2021 14:22:13[INFO] Ejecutando petrinator para conocer estado de la red...   
--------------------------------------------------------------------------
   

--------------------------------------------------------------------------
   
18/07/2021 14:22:35[INFO] Calculando recompensa..   
18/07/2021 14:22:35[REWARD] El sifon se controlo correctamente, recompensa -1   

--------------------------------------------------------------------------
   
18/07/2021 14:22:35[STATE] Cambie al estado 2: Hay menos sifones vacios en deadlock   
+-----------------------------------------------------+--------------------+------------------------+
|                   Estados/Acciones                  | Agregar supervisor | Agregar o quitar arcos |
+-----------------------------------------------------+--------------------+------------------------+
|                        Start                        |        -1.0        |          0.0           |
|        Más sifónes vacíos en estado deadlock        |        0.0         |          0.0           |
|       Menos sifónes vacíos en estado deadlock       |        0.0         |          0.0           |
| Igual cantidad de sifónes vacíos en estado deadlock |        0.0         |          0.0           |
|                         End                         |        0.0         |          0.0           |
+-----------------------------------------------------+--------------------+------------------------+
+----+-----+---------------------------------------------------------------+
| ID | Nro |                             Plazas                            |
+----+-----+---------------------------------------------------------------+
| 5  | 150 |     ['P2', 'P9', 'P11', 'P14', 'P17', 'P23', 'P33', 'P37']    |
| 6  | 578 | ['P3', 'P9', 'P11', 'P14', 'P17', 'P23', 'P30', 'P33', 'P37'] |
| 7  |  3  |    ['P2', 'P11', 'P14', 'P17', 'P23', 'P33', 'P36', 'P37']    |
| 8  | 149 |    ['P2', 'P11', 'P14', 'P17', 'P23', 'P31', 'P33', 'P37']    |
+----+-----+---------------------------------------------------------------+
+----+----+----+----+----+----+----+----+----+----+-----+-----+-----+-----+-----+-----+-----+-----+-----+-----+-----+
| T0 | T1 | T2 | T3 | T4 | T5 | T6 | T7 | T8 | T9 | T10 | T11 | T12 | T13 | T14 | T15 | T16 | T17 | T18 | T19 | T20 |
+----+----+----+----+----+----+----+----+----+----+-----+-----+-----+-----+-----+-----+-----+-----+-----+-----+-----+
| 1  | 1  | 1  | 1  | 0  | 0  | 0  | 0  | 0  | 0  |  0  |  0  |  0  |  0  |  0  |  0  |  0  |  0  |  0  |  0  |  0  |
| 0  | 0  | 0  | 0  | 1  | 1  | 1  | 1  | 1  | 1  |  1  |  1  |  1  |  0  |  0  |  0  |  1  |  1  |  1  |  1  |  1  |
| 0  | 0  | 0  | 0  | 1  | 1  | 1  | 1  | 1  | 0  |  0  |  0  |  0  |  1  |  1  |  1  |  1  |  1  |  1  |  1  |  1  |
+----+----+----+----+----+----+----+----+----+----+-----+-----+-----+-----+-----+-----+-----+-----+-----+-----+-----+
18/07/2021 14:22:35[INFO] Supervisores para agregar   
+-----+---------+-----------------------------------+--------------+
|  ID | Marcado |            T - Entrada            |  T - Salida  |
+-----+---------+-----------------------------------+--------------+
| P39 |    1    |           ['T2', 'T12']           | ['T1', 'T5'] |
| P39 |    2    | ['T3', 'T7', 'T12', 'T15', 'T19'] | ['T1', 'T5'] |
| P39 |    2    |        ['T3', 'T8', 'T12']        | ['T1', 'T5'] |
| P39 |    2    |        ['T3', 'T8', 'T12']        | ['T1', 'T5'] |
+-----+---------+-----------------------------------+--------------+
18/07/2021 14:22:35[INFO] Supervisores agregados   
+-----+---------+--------------+--------------+
| Nro | Marcado | T - Entrada  |  T - Salida  |
+-----+---------+--------------+--------------+
|  1  |    1    | ['T2', 'T6'] | ['T1', 'T5'] |
+-----+---------+--------------+--------------+
18/07/2021 14:22:35[INFO] Ejecutando accion...   
18/07/2021 14:22:35[ACTION] Agregar o quitar arcos   

--------------------------------------------------------------------------   
18/07/2021 14:22:35[INFO] Ejecutando petrinator para conocer estado de la red...   
--------------------------------------------------------------------------
   

--------------------------------------------------------------------------
   
18/07/2021 14:22:58[INFO] Calculando recompensa..   
18/07/2021 14:22:58[REWARD] Hay menos o igual cantidad de sifones vacios que en el estado anterior, recompensa -1   

--------------------------------------------------------------------------
   
18/07/2021 14:22:58[STATE] Cambie al estado 3: Hay igual cantidad de sifones vacios en deadlock   
+-----------------------------------------------------+--------------------+------------------------+
|                   Estados/Acciones                  | Agregar supervisor | Agregar o quitar arcos |
+-----------------------------------------------------+--------------------+------------------------+
|                        Start                        |        -1.0        |          0.0           |
|        Más sifónes vacíos en estado deadlock        |        0.0         |          0.0           |
|       Menos sifónes vacíos en estado deadlock       |        0.0         |          -1.0          |
| Igual cantidad de sifónes vacíos en estado deadlock |        0.0         |          0.0           |
|                         End                         |        0.0         |          0.0           |
+-----------------------------------------------------+--------------------+------------------------+
+----+-----+---------------------------------------------------------------+
| ID | Nro |                             Plazas                            |
+----+-----+---------------------------------------------------------------+
| 9  | 150 |     ['P2', 'P9', 'P11', 'P14', 'P17', 'P23', 'P33', 'P37']    |
| 10 | 578 | ['P3', 'P9', 'P11', 'P14', 'P17', 'P23', 'P30', 'P33', 'P37'] |
| 11 |  3  |    ['P2', 'P11', 'P14', 'P17', 'P23', 'P33', 'P36', 'P37']    |
| 12 | 149 |    ['P2', 'P11', 'P14', 'P17', 'P23', 'P31', 'P33', 'P37']    |
+----+-----+---------------------------------------------------------------+
+----+----+----+----+----+----+----+----+----+----+-----+-----+-----+-----+-----+-----+-----+-----+-----+-----+-----+
| T0 | T1 | T2 | T3 | T4 | T5 | T6 | T7 | T8 | T9 | T10 | T11 | T12 | T13 | T14 | T15 | T16 | T17 | T18 | T19 | T20 |
+----+----+----+----+----+----+----+----+----+----+-----+-----+-----+-----+-----+-----+-----+-----+-----+-----+-----+
| 1  | 1  | 1  | 1  | 0  | 0  | 0  | 0  | 0  | 0  |  0  |  0  |  0  |  0  |  0  |  0  |  0  |  0  |  0  |  0  |  0  |
| 0  | 0  | 0  | 0  | 1  | 1  | 1  | 1  | 1  | 1  |  1  |  1  |  1  |  0  |  0  |  0  |  1  |  1  |  1  |  1  |  1  |
| 0  | 0  | 0  | 0  | 1  | 1  | 1  | 1  | 1  | 0  |  0  |  0  |  0  |  1  |  1  |  1  |  1  |  1  |  1  |  1  |  1  |
+----+----+----+----+----+----+----+----+----+----+-----+-----+-----+-----+-----+-----+-----+-----+-----+-----+-----+
18/07/2021 14:22:58[INFO] Supervisores para agregar   
+-----+---------+-----------------------------------+--------------+
|  ID | Marcado |            T - Entrada            |  T - Salida  |
+-----+---------+-----------------------------------+--------------+
| P39 |    1    |           ['T2', 'T12']           | ['T1', 'T5'] |
| P39 |    2    | ['T3', 'T7', 'T12', 'T15', 'T19'] | ['T1', 'T5'] |
| P39 |    2    |        ['T3', 'T8', 'T12']        | ['T1', 'T5'] |
| P39 |    2    |        ['T3', 'T8', 'T12']        | ['T1', 'T5'] |
+-----+---------+-----------------------------------+--------------+
18/07/2021 14:22:58[INFO] Supervisores agregados   
+-----+---------+--------------+--------------+
| Nro | Marcado | T - Entrada  |  T - Salida  |
+-----+---------+--------------+--------------+
|  1  |    1    | ['T2', 'T6'] | ['T1', 'T5'] |
+-----+---------+--------------+--------------+
18/07/2021 14:22:58[INFO] Ejecutando accion...   
18/07/2021 14:22:58[ACTION] Agregar o quitar arcos   

--------------------------------------------------------------------------   
18/07/2021 14:22:58[INFO] Ejecutando petrinator para conocer estado de la red...   
--------------------------------------------------------------------------
   

--------------------------------------------------------------------------
   
18/07/2021 14:23:21[INFO] Calculando recompensa..   
18/07/2021 14:23:21[REWARD] Hay menos o igual cantidad de sifones vacios que en el estado anterior, recompensa -1   

--------------------------------------------------------------------------
   
18/07/2021 14:23:21[STATE] Cambie al estado 3: Hay igual cantidad de sifones vacios en deadlock   
+-----------------------------------------------------+--------------------+------------------------+
|                   Estados/Acciones                  | Agregar supervisor | Agregar o quitar arcos |
+-----------------------------------------------------+--------------------+------------------------+
|                        Start                        |        -1.0        |          0.0           |
|        Más sifónes vacíos en estado deadlock        |        0.0         |          0.0           |
|       Menos sifónes vacíos en estado deadlock       |        0.0         |          -1.0          |
| Igual cantidad de sifónes vacíos en estado deadlock |        0.0         |          -1.0          |
|                         End                         |        0.0         |          0.0           |
+-----------------------------------------------------+--------------------+------------------------+
+----+-----+---------------------------------------------------------------+
| ID | Nro |                             Plazas                            |
+----+-----+---------------------------------------------------------------+
| 13 | 150 |     ['P2', 'P9', 'P11', 'P14', 'P17', 'P23', 'P33', 'P37']    |
| 14 | 578 | ['P3', 'P9', 'P11', 'P14', 'P17', 'P23', 'P30', 'P33', 'P37'] |
| 15 |  3  |    ['P2', 'P11', 'P14', 'P17', 'P23', 'P33', 'P36', 'P37']    |
| 16 | 149 |    ['P2', 'P11', 'P14', 'P17', 'P23', 'P31', 'P33', 'P37']    |
+----+-----+---------------------------------------------------------------+
+----+----+----+----+----+----+----+----+----+----+-----+-----+-----+-----+-----+-----+-----+-----+-----+-----+-----+
| T0 | T1 | T2 | T3 | T4 | T5 | T6 | T7 | T8 | T9 | T10 | T11 | T12 | T13 | T14 | T15 | T16 | T17 | T18 | T19 | T20 |
+----+----+----+----+----+----+----+----+----+----+-----+-----+-----+-----+-----+-----+-----+-----+-----+-----+-----+
| 1  | 1  | 1  | 1  | 0  | 0  | 0  | 0  | 0  | 0  |  0  |  0  |  0  |  0  |  0  |  0  |  0  |  0  |  0  |  0  |  0  |
| 0  | 0  | 0  | 0  | 1  | 1  | 1  | 1  | 1  | 1  |  1  |  1  |  1  |  0  |  0  |  0  |  1  |  1  |  1  |  1  |  1  |
| 0  | 0  | 0  | 0  | 1  | 1  | 1  | 1  | 1  | 0  |  0  |  0  |  0  |  1  |  1  |  1  |  1  |  1  |  1  |  1  |  1  |
+----+----+----+----+----+----+----+----+----+----+-----+-----+-----+-----+-----+-----+-----+-----+-----+-----+-----+
18/07/2021 14:23:21[INFO] Supervisores para agregar   
+-----+---------+-----------------------------------+--------------+
|  ID | Marcado |            T - Entrada            |  T - Salida  |
+-----+---------+-----------------------------------+--------------+
| P39 |    1    |           ['T2', 'T12']           | ['T1', 'T5'] |
| P39 |    2    | ['T3', 'T7', 'T12', 'T15', 'T19'] | ['T1', 'T5'] |
| P39 |    2    |        ['T3', 'T8', 'T12']        | ['T1', 'T5'] |
| P39 |    2    |        ['T3', 'T8', 'T12']        | ['T1', 'T5'] |
+-----+---------+-----------------------------------+--------------+
18/07/2021 14:23:21[INFO] Supervisores agregados   
+-----+---------+--------------+--------------+
| Nro | Marcado | T - Entrada  |  T - Salida  |
+-----+---------+--------------+--------------+
|  1  |    1    | ['T2', 'T6'] | ['T1', 'T5'] |
+-----+---------+--------------+--------------+
18/07/2021 14:23:21[INFO] Ejecutando accion...   
18/07/2021 14:23:21[INFO] Ejecutando accion...   
18/07/2021 14:23:21[ACTION] Agrego supervisor aleatorio Numero: 3  

--------------------------------------------------------------------------   
18/07/2021 14:23:21[INFO] Ejecutando petrinator para conocer estado de la red...   
--------------------------------------------------------------------------
   

--------------------------------------------------------------------------
   
18/07/2021 14:23:48[INFO] Calculando recompensa..   
18/07/2021 14:23:48[REWARD] El sifon se controlo correctamente, recompensa -1   

--------------------------------------------------------------------------
   
18/07/2021 14:23:48[STATE] Cambie al estado 3: Hay igual cantidad de sifones vacios en deadlock   
+-----------------------------------------------------+--------------------+------------------------+
|                   Estados/Acciones                  | Agregar supervisor | Agregar o quitar arcos |
+-----------------------------------------------------+--------------------+------------------------+
|                        Start                        |        -1.0        |          0.0           |
|        Más sifónes vacíos en estado deadlock        |        0.0         |          0.0           |
|       Menos sifónes vacíos en estado deadlock       |        0.0         |          -1.0          |
| Igual cantidad de sifónes vacíos en estado deadlock |        -1.0        |          -1.0          |
|                         End                         |        0.0         |          0.0           |
+-----------------------------------------------------+--------------------+------------------------+
+----+-----+---------------------------------------------------------------+
| ID | Nro |                             Plazas                            |
+----+-----+---------------------------------------------------------------+
| 17 | 194 |     ['P2', 'P9', 'P11', 'P14', 'P17', 'P23', 'P33', 'P37']    |
| 18 | 694 | ['P3', 'P9', 'P11', 'P14', 'P17', 'P23', 'P30', 'P33', 'P37'] |
| 19 |  3  |    ['P2', 'P11', 'P14', 'P17', 'P23', 'P33', 'P36', 'P37']    |
| 20 | 193 |    ['P2', 'P11', 'P14', 'P17', 'P23', 'P31', 'P33', 'P37']    |
+----+-----+---------------------------------------------------------------+
+----+----+----+----+----+----+----+----+----+----+-----+-----+-----+-----+-----+-----+-----+-----+-----+-----+-----+
| T0 | T1 | T2 | T3 | T4 | T5 | T6 | T7 | T8 | T9 | T10 | T11 | T12 | T13 | T14 | T15 | T16 | T17 | T18 | T19 | T20 |
+----+----+----+----+----+----+----+----+----+----+-----+-----+-----+-----+-----+-----+-----+-----+-----+-----+-----+
| 1  | 1  | 1  | 1  | 0  | 0  | 0  | 0  | 0  | 0  |  0  |  0  |  0  |  0  |  0  |  0  |  0  |  0  |  0  |  0  |  0  |
| 0  | 0  | 0  | 0  | 1  | 1  | 1  | 1  | 1  | 0  |  0  |  0  |  0  |  1  |  1  |  1  |  1  |  1  |  1  |  1  |  1  |
+----+----+----+----+----+----+----+----+----+----+-----+-----+-----+-----+-----+-----+-----+-----+-----+-----+-----+
18/07/2021 14:23:48[INFO] Supervisores para agregar   
+-----+---------+-----------------------------------+--------------+
|  ID | Marcado |            T - Entrada            |  T - Salida  |
+-----+---------+-----------------------------------+--------------+
| P40 |    1    |           ['T2', 'T12']           | ['T1', 'T5'] |
| P40 |    2    | ['T3', 'T7', 'T12', 'T15', 'T19'] | ['T1', 'T5'] |
| P40 |    2    |        ['T3', 'T8', 'T12']        | ['T1', 'T5'] |
| P40 |    2    |        ['T3', 'T8', 'T12']        | ['T1', 'T5'] |
+-----+---------+-----------------------------------+--------------+
18/07/2021 14:23:48[INFO] Supervisores agregados   
+-----+---------+---------------------+--------------+
| Nro | Marcado |     T - Entrada     |  T - Salida  |
+-----+---------+---------------------+--------------+
|  1  |    1    |     ['T2', 'T6']    | ['T1', 'T5'] |
|  2  |    2    | ['T3', 'T8', 'T12'] | ['T1', 'T5'] |
+-----+---------+---------------------+--------------+
18/07/2021 14:23:48[INFO] Ejecutando accion...   
18/07/2021 14:23:48[INFO] Ejecutando accion...   
18/07/2021 14:23:48[ACTION] Agrego supervisor aleatorio Numero: 3  

--------------------------------------------------------------------------   
18/07/2021 14:23:48[INFO] Ejecutando petrinator para conocer estado de la red...   
--------------------------------------------------------------------------
   

--------------------------------------------------------------------------
   
18/07/2021 14:24:20[INFO] Calculando recompensa..   
18/07/2021 14:24:20[REWARD] El sifon se controlo correctamente, recompensa -1   

--------------------------------------------------------------------------
   
18/07/2021 14:24:20[STATE] Cambie al estado 3: Hay igual cantidad de sifones vacios en deadlock   
+-----------------------------------------------------+--------------------+------------------------+
|                   Estados/Acciones                  | Agregar supervisor | Agregar o quitar arcos |
+-----------------------------------------------------+--------------------+------------------------+
|                        Start                        |        -1.0        |          0.0           |
|        Más sifónes vacíos en estado deadlock        |        0.0         |          0.0           |
|       Menos sifónes vacíos en estado deadlock       |        0.0         |          -1.0          |
| Igual cantidad de sifónes vacíos en estado deadlock |        -1.9        |          -1.0          |
|                         End                         |        0.0         |          0.0           |
+-----------------------------------------------------+--------------------+------------------------+
+----+-----+---------------------------------------------------------------+
| ID | Nro |                             Plazas                            |
+----+-----+---------------------------------------------------------------+
| 21 | 238 |     ['P2', 'P9', 'P11', 'P14', 'P17', 'P23', 'P33', 'P37']    |
| 22 | 810 | ['P3', 'P9', 'P11', 'P14', 'P17', 'P23', 'P30', 'P33', 'P37'] |
| 23 |  3  |    ['P2', 'P11', 'P14', 'P17', 'P23', 'P33', 'P36', 'P37']    |
| 24 | 237 |    ['P2', 'P11', 'P14', 'P17', 'P23', 'P31', 'P33', 'P37']    |
+----+-----+---------------------------------------------------------------+
+----+----+----+----+----+----+----+----+----+----+-----+-----+-----+-----+-----+-----+-----+-----+-----+-----+-----+
| T0 | T1 | T2 | T3 | T4 | T5 | T6 | T7 | T8 | T9 | T10 | T11 | T12 | T13 | T14 | T15 | T16 | T17 | T18 | T19 | T20 |
+----+----+----+----+----+----+----+----+----+----+-----+-----+-----+-----+-----+-----+-----+-----+-----+-----+-----+
| 1  | 1  | 1  | 1  | 0  | 0  | 0  | 0  | 0  | 0  |  0  |  0  |  0  |  0  |  0  |  0  |  0  |  0  |  0  |  0  |  0  |
| 0  | 0  | 0  | 0  | 1  | 1  | 1  | 1  | 1  | 0  |  0  |  0  |  0  |  1  |  1  |  1  |  1  |  1  |  1  |  1  |  1  |
+----+----+----+----+----+----+----+----+----+----+-----+-----+-----+-----+-----+-----+-----+-----+-----+-----+-----+
18/07/2021 14:24:20[INFO] Supervisores para agregar   
+-----+---------+-----------------------------------+--------------+
|  ID | Marcado |            T - Entrada            |  T - Salida  |
+-----+---------+-----------------------------------+--------------+
| P41 |    1    |           ['T2', 'T12']           | ['T1', 'T5'] |
| P41 |    2    | ['T3', 'T7', 'T12', 'T15', 'T19'] | ['T1', 'T5'] |
| P41 |    2    |        ['T3', 'T8', 'T12']        | ['T1', 'T5'] |
| P41 |    2    |        ['T3', 'T8', 'T12']        | ['T1', 'T5'] |
+-----+---------+-----------------------------------+--------------+
18/07/2021 14:24:20[INFO] Supervisores agregados   
+-----+---------+---------------------+--------------+
| Nro | Marcado |     T - Entrada     |  T - Salida  |
+-----+---------+---------------------+--------------+
|  1  |    1    |     ['T2', 'T6']    | ['T1', 'T5'] |
|  2  |    2    | ['T3', 'T8', 'T12'] | ['T1', 'T5'] |
|  3  |    2    | ['T3', 'T8', 'T12'] | ['T1', 'T5'] |
+-----+---------+---------------------+--------------+
18/07/2021 14:24:20[INFO] Ejecutando accion...   
18/07/2021 14:24:20[ACTION] Agregar o quitar arcos   
18/07/2021 14:24:20[ACTION] Eliminar arco desde T8 hasta P39   
18/07/2021 14:24:20[INFO] Se elimino el arco con metodo 2 desde T8 hasta P39   
18/07/2021 14:24:20[ACTION] Eliminar arco desde T8 hasta P40   
18/07/2021 14:24:20[INFO] Se elimino el arco con metodo 2 desde T8 hasta P40   
18/07/2021 14:24:20[ACTION] La transicion en conflicto T14 le tiene que devolver un token al supervisor P39   
18/07/2021 14:24:20[INFO] Se agrego un arco desde T14 hasta P39   
18/07/2021 14:24:20[ACTION] La transicion en conflicto T14 le tiene que devolver un token al supervisor P40   
18/07/2021 14:24:20[INFO] Se agrego un arco desde T14 hasta P40   

--------------------------------------------------------------------------   
18/07/2021 14:24:20[INFO] Ejecutando petrinator para conocer estado de la red...   
--------------------------------------------------------------------------
   

--------------------------------------------------------------------------
   
18/07/2021 14:24:49[INFO] Calculando recompensa..   
18/07/2021 14:24:49[REWARD] Hay menos o igual cantidad de sifones vacios que en el estado anterior, recompensa -1   

--------------------------------------------------------------------------
   
18/07/2021 14:24:49[STATE] Cambie al estado 2: Hay menos sifones vacios en deadlock   
+-----------------------------------------------------+--------------------+------------------------+
|                   Estados/Acciones                  | Agregar supervisor | Agregar o quitar arcos |
+-----------------------------------------------------+--------------------+------------------------+
|                        Start                        |        -1.0        |          0.0           |
|        Más sifónes vacíos en estado deadlock        |        0.0         |          0.0           |
|       Menos sifónes vacíos en estado deadlock       |        0.0         |          -1.0          |
| Igual cantidad de sifónes vacíos en estado deadlock |        -1.9        |          -1.0          |
|                         End                         |        0.0         |          0.0           |
+-----------------------------------------------------+--------------------+------------------------+
+----+-----+---------------------------------------------------------------+
| ID | Nro |                             Plazas                            |
+----+-----+---------------------------------------------------------------+
| 25 | 234 |     ['P2', 'P9', 'P11', 'P14', 'P17', 'P23', 'P33', 'P37']    |
| 26 | 796 | ['P3', 'P9', 'P11', 'P14', 'P17', 'P23', 'P30', 'P33', 'P37'] |
+----+-----+---------------------------------------------------------------+
+----+----+----+----+----+----+----+----+----+----+-----+-----+-----+-----+-----+-----+-----+-----+-----+-----+-----+
| T0 | T1 | T2 | T3 | T4 | T5 | T6 | T7 | T8 | T9 | T10 | T11 | T12 | T13 | T14 | T15 | T16 | T17 | T18 | T19 | T20 |
+----+----+----+----+----+----+----+----+----+----+-----+-----+-----+-----+-----+-----+-----+-----+-----+-----+-----+
| 1  | 1  | 1  | 1  | 0  | 0  | 0  | 0  | 0  | 0  |  0  |  0  |  0  |  0  |  0  |  0  |  0  |  0  |  0  |  0  |  0  |
| 0  | 0  | 0  | 0  | 1  | 1  | 1  | 1  | 1  | 1  |  1  |  1  |  1  |  0  |  0  |  0  |  1  |  1  |  1  |  1  |  1  |
| 0  | 0  | 0  | 0  | 1  | 1  | 1  | 1  | 1  | 0  |  0  |  0  |  0  |  1  |  1  |  1  |  1  |  1  |  1  |  1  |  1  |
+----+----+----+----+----+----+----+----+----+----+-----+-----+-----+-----+-----+-----+-----+-----+-----+-----+-----+
18/07/2021 14:24:49[INFO] Supervisores para agregar   
+-----+---------+-----------------------------------+--------------+
|  ID | Marcado |            T - Entrada            |  T - Salida  |
+-----+---------+-----------------------------------+--------------+
| P41 |    1    |           ['T2', 'T12']           | ['T1', 'T5'] |
| P41 |    2    | ['T3', 'T7', 'T12', 'T15', 'T19'] | ['T1', 'T5'] |
+-----+---------+-----------------------------------+--------------+
18/07/2021 14:24:49[INFO] Supervisores agregados   
+-----+---------+---------------------+--------------+
| Nro | Marcado |     T - Entrada     |  T - Salida  |
+-----+---------+---------------------+--------------+
|  1  |    1    |     ['T2', 'T6']    | ['T1', 'T5'] |
|  2  |    2    | ['T3', 'T8', 'T12'] | ['T1', 'T5'] |
|  3  |    2    | ['T3', 'T8', 'T12'] | ['T1', 'T5'] |
+-----+---------+---------------------+--------------+
18/07/2021 14:24:49[INFO] Ejecutando accion...   
18/07/2021 14:24:49[INFO] Ejecutando accion...   
18/07/2021 14:24:49[ACTION] Agrego supervisor aleatorio Numero: 1  

--------------------------------------------------------------------------   
18/07/2021 14:24:49[INFO] Ejecutando petrinator para conocer estado de la red...   
--------------------------------------------------------------------------
   

--------------------------------------------------------------------------
   
18/07/2021 14:25:24[INFO] Calculando recompensa..   
18/07/2021 14:25:24[REWARD] El sifon se controlo correctamente, recompensa -1   

--------------------------------------------------------------------------
   
18/07/2021 14:25:24[STATE] Cambie al estado 3: Hay igual cantidad de sifones vacios en deadlock   
+-----------------------------------------------------+--------------------+------------------------+
|                   Estados/Acciones                  | Agregar supervisor | Agregar o quitar arcos |
+-----------------------------------------------------+--------------------+------------------------+
|                        Start                        |        -1.0        |          0.0           |
|        Más sifónes vacíos en estado deadlock        |        0.0         |          0.0           |
|       Menos sifónes vacíos en estado deadlock       |        -1.9        |          -1.0          |
| Igual cantidad de sifónes vacíos en estado deadlock |        -1.9        |          -1.0          |
|                         End                         |        0.0         |          0.0           |
+-----------------------------------------------------+--------------------+------------------------+
+----+-----+---------------------------------------------------------------+
| ID | Nro |                             Plazas                            |
+----+-----+---------------------------------------------------------------+
| 27 | 235 |     ['P2', 'P9', 'P11', 'P14', 'P17', 'P23', 'P33', 'P37']    |
| 28 | 797 | ['P3', 'P9', 'P11', 'P14', 'P17', 'P23', 'P30', 'P33', 'P37'] |
+----+-----+---------------------------------------------------------------+
+----+----+----+----+----+----+----+----+----+----+-----+-----+-----+-----+-----+-----+-----+-----+-----+-----+-----+
| T0 | T1 | T2 | T3 | T4 | T5 | T6 | T7 | T8 | T9 | T10 | T11 | T12 | T13 | T14 | T15 | T16 | T17 | T18 | T19 | T20 |
+----+----+----+----+----+----+----+----+----+----+-----+-----+-----+-----+-----+-----+-----+-----+-----+-----+-----+
| 1  | 1  | 1  | 1  | 0  | 0  | 0  | 0  | 0  | 0  |  0  |  0  |  0  |  0  |  0  |  0  |  0  |  0  |  0  |  0  |  0  |
+----+----+----+----+----+----+----+----+----+----+-----+-----+-----+-----+-----+-----+-----+-----+-----+-----+-----+
18/07/2021 14:25:24[INFO] Supervisores para agregar   
+-----+---------+-----------------------------------+--------------+
|  ID | Marcado |            T - Entrada            |  T - Salida  |
+-----+---------+-----------------------------------+--------------+
| P42 |    1    |           ['T2', 'T12']           | ['T1', 'T5'] |
| P42 |    2    | ['T3', 'T7', 'T12', 'T15', 'T19'] | ['T1', 'T5'] |
+-----+---------+-----------------------------------+--------------+
18/07/2021 14:25:24[INFO] Supervisores agregados   
+-----+---------+-----------------------------------+--------------+
| Nro | Marcado |            T - Entrada            |  T - Salida  |
+-----+---------+-----------------------------------+--------------+
|  1  |    1    |            ['T2', 'T6']           | ['T1', 'T5'] |
|  2  |    2    |        ['T3', 'T8', 'T12']        | ['T1', 'T5'] |
|  3  |    2    |        ['T3', 'T8', 'T12']        | ['T1', 'T5'] |
|  4  |    2    | ['T3', 'T7', 'T12', 'T15', 'T19'] | ['T1', 'T5'] |
+-----+---------+-----------------------------------+--------------+
18/07/2021 14:25:24[INFO] Ejecutando accion...   
18/07/2021 14:25:24[ACTION] Agregar o quitar arcos   
18/07/2021 14:25:24[ACTION] Eliminar arco desde T7 hasta P41   
18/07/2021 14:25:24[INFO] Se elimino el arco con metodo 2 desde T7 hasta P41   
18/07/2021 14:25:24[ACTION] Eliminar arco desde T15 hasta P41   
18/07/2021 14:25:24[INFO] Se elimino el arco con metodo 2 desde T15 hasta P41   

--------------------------------------------------------------------------   
18/07/2021 14:25:24[INFO] Ejecutando petrinator para conocer estado de la red...   
--------------------------------------------------------------------------
   

--------------------------------------------------------------------------
   
18/07/2021 14:26:00[INFO] Calculando recompensa..   
18/07/2021 14:26:00[REWARD] Hay menos o igual cantidad de sifones vacios que en el estado anterior, recompensa -1   

--------------------------------------------------------------------------
   
18/07/2021 14:26:00[STATE] Cambie al estado 3: Hay igual cantidad de sifones vacios en deadlock   
+-----------------------------------------------------+--------------------+------------------------+
|                   Estados/Acciones                  | Agregar supervisor | Agregar o quitar arcos |
+-----------------------------------------------------+--------------------+------------------------+
|                        Start                        |        -1.0        |          0.0           |
|        Más sifónes vacíos en estado deadlock        |        0.0         |          0.0           |
|       Menos sifónes vacíos en estado deadlock       |        -1.9        |          -1.0          |
| Igual cantidad de sifónes vacíos en estado deadlock |        -1.9        |          -1.9          |
|                         End                         |        0.0         |          0.0           |
+-----------------------------------------------------+--------------------+------------------------+
+----+-----+---------------------------------------------------------------+
| ID | Nro |                             Plazas                            |
+----+-----+---------------------------------------------------------------+
| 29 | 235 |     ['P2', 'P9', 'P11', 'P14', 'P17', 'P23', 'P33', 'P37']    |
| 30 | 797 | ['P3', 'P9', 'P11', 'P14', 'P17', 'P23', 'P30', 'P33', 'P37'] |
+----+-----+---------------------------------------------------------------+
+----+----+----+----+----+----+----+----+----+----+-----+-----+-----+-----+-----+-----+-----+-----+-----+-----+-----+
| T0 | T1 | T2 | T3 | T4 | T5 | T6 | T7 | T8 | T9 | T10 | T11 | T12 | T13 | T14 | T15 | T16 | T17 | T18 | T19 | T20 |
+----+----+----+----+----+----+----+----+----+----+-----+-----+-----+-----+-----+-----+-----+-----+-----+-----+-----+
| 1  | 1  | 1  | 1  | 0  | 0  | 0  | 0  | 0  | 0  |  0  |  0  |  0  |  0  |  0  |  0  |  0  |  0  |  0  |  0  |  0  |
| 0  | 0  | 0  | 0  | 1  | 1  | 1  | 1  | 1  | 0  |  0  |  0  |  0  |  1  |  1  |  1  |  1  |  1  |  1  |  1  |  1  |
+----+----+----+----+----+----+----+----+----+----+-----+-----+-----+-----+-----+-----+-----+-----+-----+-----+-----+
18/07/2021 14:26:00[INFO] Supervisores para agregar   
+-----+---------+-----------------------------------+--------------+
|  ID | Marcado |            T - Entrada            |  T - Salida  |
+-----+---------+-----------------------------------+--------------+
| P42 |    1    |           ['T2', 'T12']           | ['T1', 'T5'] |
| P42 |    2    | ['T3', 'T7', 'T12', 'T15', 'T19'] | ['T1', 'T5'] |
+-----+---------+-----------------------------------+--------------+
18/07/2021 14:26:00[INFO] Supervisores agregados   
+-----+---------+-----------------------------------+--------------+
| Nro | Marcado |            T - Entrada            |  T - Salida  |
+-----+---------+-----------------------------------+--------------+
|  1  |    1    |            ['T2', 'T6']           | ['T1', 'T5'] |
|  2  |    2    |        ['T3', 'T8', 'T12']        | ['T1', 'T5'] |
|  3  |    2    |        ['T3', 'T8', 'T12']        | ['T1', 'T5'] |
|  4  |    2    | ['T3', 'T7', 'T12', 'T15', 'T19'] | ['T1', 'T5'] |
+-----+---------+-----------------------------------+--------------+
18/07/2021 14:26:00[INFO] Ejecutando accion...   
18/07/2021 14:26:00[ACTION] Agregar o quitar arcos   
18/07/2021 14:26:00[ACTION] Eliminar arco desde T12 hasta P41   
18/07/2021 14:26:00[INFO] Se elimino el arco con metodo 2 desde T12 hasta P41   

--------------------------------------------------------------------------   
18/07/2021 14:26:00[INFO] Ejecutando petrinator para conocer estado de la red...   
--------------------------------------------------------------------------
   

--------------------------------------------------------------------------
   
18/07/2021 14:26:35[INFO] Calculando recompensa..   
18/07/2021 14:26:35[REWARD] Hay menos o igual cantidad de sifones vacios que en el estado anterior, recompensa -1   

--------------------------------------------------------------------------
   
18/07/2021 14:26:35[STATE] Cambie al estado 2: Hay menos sifones vacios en deadlock   
+-----------------------------------------------------+--------------------+------------------------+
|                   Estados/Acciones                  | Agregar supervisor | Agregar o quitar arcos |
+-----------------------------------------------------+--------------------+------------------------+
|                        Start                        |        -1.0        |          0.0           |
|        Más sifónes vacíos en estado deadlock        |        0.0         |          0.0           |
|       Menos sifónes vacíos en estado deadlock       |        -1.9        |          -1.0          |
| Igual cantidad de sifónes vacíos en estado deadlock |        -1.9        |          -1.9          |
|                         End                         |        0.0         |          0.0           |
+-----------------------------------------------------+--------------------+------------------------+
+----+-----+--------------------------------------------------------+
| ID | Nro |                         Plazas                         |
+----+-----+--------------------------------------------------------+
| 31 | 235 | ['P2', 'P9', 'P11', 'P14', 'P17', 'P23', 'P33', 'P37'] |
+----+-----+--------------------------------------------------------+
+----+----+----+----+----+----+----+----+----+----+-----+-----+-----+-----+-----+-----+-----+-----+-----+-----+-----+
| T0 | T1 | T2 | T3 | T4 | T5 | T6 | T7 | T8 | T9 | T10 | T11 | T12 | T13 | T14 | T15 | T16 | T17 | T18 | T19 | T20 |
+----+----+----+----+----+----+----+----+----+----+-----+-----+-----+-----+-----+-----+-----+-----+-----+-----+-----+
| 1  | 1  | 1  | 1  | 0  | 0  | 0  | 0  | 0  | 0  |  0  |  0  |  0  |  0  |  0  |  0  |  0  |  0  |  0  |  0  |  0  |
| 0  | 0  | 0  | 0  | 1  | 1  | 1  | 1  | 1  | 1  |  1  |  1  |  1  |  0  |  0  |  0  |  1  |  1  |  1  |  1  |  1  |
| 0  | 0  | 0  | 0  | 1  | 1  | 1  | 1  | 1  | 0  |  0  |  0  |  0  |  1  |  1  |  1  |  1  |  1  |  1  |  1  |  1  |
+----+----+----+----+----+----+----+----+----+----+-----+-----+-----+-----+-----+-----+-----+-----+-----+-----+-----+
18/07/2021 14:26:35[INFO] Supervisores para agregar   
+-----+---------+---------------+--------------+
|  ID | Marcado |  T - Entrada  |  T - Salida  |
+-----+---------+---------------+--------------+
| P42 |    1    | ['T2', 'T12'] | ['T1', 'T5'] |
+-----+---------+---------------+--------------+
18/07/2021 14:26:35[INFO] Supervisores agregados   
+-----+---------+-----------------------------------+--------------+
| Nro | Marcado |            T - Entrada            |  T - Salida  |
+-----+---------+-----------------------------------+--------------+
|  1  |    1    |            ['T2', 'T6']           | ['T1', 'T5'] |
|  2  |    2    |        ['T3', 'T8', 'T12']        | ['T1', 'T5'] |
|  3  |    2    |        ['T3', 'T8', 'T12']        | ['T1', 'T5'] |
|  4  |    2    | ['T3', 'T7', 'T12', 'T15', 'T19'] | ['T1', 'T5'] |
+-----+---------+-----------------------------------+--------------+
18/07/2021 14:26:35[INFO] Ejecutando accion...   
18/07/2021 14:26:35[ACTION] Agregar o quitar arcos   

--------------------------------------------------------------------------   
18/07/2021 14:26:35[INFO] Ejecutando petrinator para conocer estado de la red...   
--------------------------------------------------------------------------
   

--------------------------------------------------------------------------
   
18/07/2021 14:27:05[INFO] Calculando recompensa..   
18/07/2021 14:27:05[REWARD] Hay menos o igual cantidad de sifones vacios que en el estado anterior, recompensa -1   

--------------------------------------------------------------------------
   
18/07/2021 14:27:05[STATE] Cambie al estado 3: Hay igual cantidad de sifones vacios en deadlock   
+-----------------------------------------------------+--------------------+------------------------+
|                   Estados/Acciones                  | Agregar supervisor | Agregar o quitar arcos |
+-----------------------------------------------------+--------------------+------------------------+
|                        Start                        |        -1.0        |          0.0           |
|        Más sifónes vacíos en estado deadlock        |        0.0         |          0.0           |
|       Menos sifónes vacíos en estado deadlock       |        -1.9        |         -2.71          |
| Igual cantidad de sifónes vacíos en estado deadlock |        -1.9        |          -1.9          |
|                         End                         |        0.0         |          0.0           |
+-----------------------------------------------------+--------------------+------------------------+
+----+-----+--------------------------------------------------------+
| ID | Nro |                         Plazas                         |
+----+-----+--------------------------------------------------------+
| 32 | 235 | ['P2', 'P9', 'P11', 'P14', 'P17', 'P23', 'P33', 'P37'] |
+----+-----+--------------------------------------------------------+
+----+----+----+----+----+----+----+----+----+----+-----+-----+-----+-----+-----+-----+-----+-----+-----+-----+-----+
| T0 | T1 | T2 | T3 | T4 | T5 | T6 | T7 | T8 | T9 | T10 | T11 | T12 | T13 | T14 | T15 | T16 | T17 | T18 | T19 | T20 |
+----+----+----+----+----+----+----+----+----+----+-----+-----+-----+-----+-----+-----+-----+-----+-----+-----+-----+
| 1  | 1  | 1  | 1  | 0  | 0  | 0  | 0  | 0  | 0  |  0  |  0  |  0  |  0  |  0  |  0  |  0  |  0  |  0  |  0  |  0  |
| 0  | 0  | 0  | 0  | 1  | 1  | 1  | 1  | 1  | 1  |  1  |  1  |  1  |  0  |  0  |  0  |  1  |  1  |  1  |  1  |  1  |
| 0  | 0  | 0  | 0  | 1  | 1  | 1  | 1  | 1  | 0  |  0  |  0  |  0  |  1  |  1  |  1  |  1  |  1  |  1  |  1  |  1  |
+----+----+----+----+----+----+----+----+----+----+-----+-----+-----+-----+-----+-----+-----+-----+-----+-----+-----+
18/07/2021 14:27:05[INFO] Supervisores para agregar   
+-----+---------+---------------+--------------+
|  ID | Marcado |  T - Entrada  |  T - Salida  |
+-----+---------+---------------+--------------+
| P42 |    1    | ['T2', 'T12'] | ['T1', 'T5'] |
+-----+---------+---------------+--------------+
18/07/2021 14:27:05[INFO] Supervisores agregados   
+-----+---------+-----------------------------------+--------------+
| Nro | Marcado |            T - Entrada            |  T - Salida  |
+-----+---------+-----------------------------------+--------------+
|  1  |    1    |            ['T2', 'T6']           | ['T1', 'T5'] |
|  2  |    2    |        ['T3', 'T8', 'T12']        | ['T1', 'T5'] |
|  3  |    2    |        ['T3', 'T8', 'T12']        | ['T1', 'T5'] |
|  4  |    2    | ['T3', 'T7', 'T12', 'T15', 'T19'] | ['T1', 'T5'] |
+-----+---------+-----------------------------------+--------------+
18/07/2021 14:27:05[INFO] Ejecutando accion...   
18/07/2021 14:27:05[ACTION] Agregar o quitar arcos   

--------------------------------------------------------------------------   
18/07/2021 14:27:05[INFO] Ejecutando petrinator para conocer estado de la red...   
--------------------------------------------------------------------------
   

--------------------------------------------------------------------------
   
18/07/2021 14:27:36[INFO] Calculando recompensa..   
18/07/2021 14:27:36[REWARD] Hay menos o igual cantidad de sifones vacios que en el estado anterior, recompensa -1   

--------------------------------------------------------------------------
   
18/07/2021 14:27:36[STATE] Cambie al estado 3: Hay igual cantidad de sifones vacios en deadlock   
+-----------------------------------------------------+--------------------+------------------------+
|                   Estados/Acciones                  | Agregar supervisor | Agregar o quitar arcos |
+-----------------------------------------------------+--------------------+------------------------+
|                        Start                        |        -1.0        |          0.0           |
|        Más sifónes vacíos en estado deadlock        |        0.0         |          0.0           |
|       Menos sifónes vacíos en estado deadlock       |        -1.9        |         -2.71          |
| Igual cantidad de sifónes vacíos en estado deadlock |        -1.9        |         -2.71          |
|                         End                         |        0.0         |          0.0           |
+-----------------------------------------------------+--------------------+------------------------+
+----+-----+--------------------------------------------------------+
| ID | Nro |                         Plazas                         |
+----+-----+--------------------------------------------------------+
| 33 | 235 | ['P2', 'P9', 'P11', 'P14', 'P17', 'P23', 'P33', 'P37'] |
+----+-----+--------------------------------------------------------+
+----+----+----+----+----+----+----+----+----+----+-----+-----+-----+-----+-----+-----+-----+-----+-----+-----+-----+
| T0 | T1 | T2 | T3 | T4 | T5 | T6 | T7 | T8 | T9 | T10 | T11 | T12 | T13 | T14 | T15 | T16 | T17 | T18 | T19 | T20 |
+----+----+----+----+----+----+----+----+----+----+-----+-----+-----+-----+-----+-----+-----+-----+-----+-----+-----+
| 1  | 1  | 1  | 1  | 0  | 0  | 0  | 0  | 0  | 0  |  0  |  0  |  0  |  0  |  0  |  0  |  0  |  0  |  0  |  0  |  0  |
| 0  | 0  | 0  | 0  | 1  | 1  | 1  | 1  | 1  | 1  |  1  |  1  |  1  |  0  |  0  |  0  |  1  |  1  |  1  |  1  |  1  |
| 0  | 0  | 0  | 0  | 1  | 1  | 1  | 1  | 1  | 0  |  0  |  0  |  0  |  1  |  1  |  1  |  1  |  1  |  1  |  1  |  1  |
+----+----+----+----+----+----+----+----+----+----+-----+-----+-----+-----+-----+-----+-----+-----+-----+-----+-----+
18/07/2021 14:27:36[INFO] Supervisores para agregar   
+-----+---------+---------------+--------------+
|  ID | Marcado |  T - Entrada  |  T - Salida  |
+-----+---------+---------------+--------------+
| P42 |    1    | ['T2', 'T12'] | ['T1', 'T5'] |
+-----+---------+---------------+--------------+
18/07/2021 14:27:36[INFO] Supervisores agregados   
+-----+---------+-----------------------------------+--------------+
| Nro | Marcado |            T - Entrada            |  T - Salida  |
+-----+---------+-----------------------------------+--------------+
|  1  |    1    |            ['T2', 'T6']           | ['T1', 'T5'] |
|  2  |    2    |        ['T3', 'T8', 'T12']        | ['T1', 'T5'] |
|  3  |    2    |        ['T3', 'T8', 'T12']        | ['T1', 'T5'] |
|  4  |    2    | ['T3', 'T7', 'T12', 'T15', 'T19'] | ['T1', 'T5'] |
+-----+---------+-----------------------------------+--------------+
18/07/2021 14:27:36[INFO] Ejecutando accion...   
18/07/2021 14:27:36[INFO] Ejecutando accion...   
18/07/2021 14:27:36[ACTION] Agrego supervisor Numero: 0   

--------------------------------------------------------------------------   
18/07/2021 14:27:36[INFO] Ejecutando petrinator para conocer estado de la red...   
--------------------------------------------------------------------------
   

--------------------------------------------------------------------------
   
18/07/2021 14:28:14[INFO] Calculando recompensa..   
18/07/2021 14:28:14[REWARD] El sifon se controlo correctamente, recompensa -1   

--------------------------------------------------------------------------
   
18/07/2021 14:28:14[STATE] Cambie al estado 1: Hay mas sifones vacios en deadlock   
+-----------------------------------------------------+--------------------+------------------------+
|                   Estados/Acciones                  | Agregar supervisor | Agregar o quitar arcos |
+-----------------------------------------------------+--------------------+------------------------+
|                        Start                        |        -1.0        |          0.0           |
|        Más sifónes vacíos en estado deadlock        |        0.0         |          0.0           |
|       Menos sifónes vacíos en estado deadlock       |        -1.9        |         -2.71          |
| Igual cantidad de sifónes vacíos en estado deadlock |        -1.0        |         -2.71          |
|                         End                         |        0.0         |          0.0           |
+-----------------------------------------------------+--------------------+------------------------+
+----+-----+-----------------------------------------------------------------------------------------------+
| ID | Nro |                                             Plazas                                            |
+----+-----+-----------------------------------------------------------------------------------------------+
| 34 |  12 |                  ['P1', 'P8', 'P9', 'P10', 'P11', 'P12', 'P13', 'P19', 'P42']                 |
| 35 |  68 |               ['P1', 'P2', 'P8', 'P9', 'P10', 'P11', 'P12', 'P13', 'P19', 'P42']              |
| 36 |  84 |           ['P1', 'P2', 'P8', 'P9', 'P10', 'P11', 'P12', 'P13', 'P16', 'P19', 'P42']           |
| 37 | 103 |        ['P1', 'P2', 'P8', 'P9', 'P10', 'P11', 'P12', 'P13', 'P16', 'P17', 'P19', 'P42']       |
| 38 | 144 |           ['P1', 'P2', 'P8', 'P9', 'P10', 'P11', 'P12', 'P13', 'P14', 'P19', 'P42']           |
| 39 | 165 |        ['P1', 'P2', 'P8', 'P9', 'P10', 'P11', 'P12', 'P13', 'P14', 'P16', 'P19', 'P42']       |
| 40 | 224 |    ['P1', 'P2', 'P8', 'P9', 'P10', 'P11', 'P12', 'P13', 'P14', 'P16', 'P17', 'P19', 'P42']    |
| 41 | 479 |            ['P1', 'P2', 'P3', 'P8', 'P9', 'P10', 'P11', 'P12', 'P13', 'P19', 'P42']           |
| 42 | 503 |        ['P1', 'P2', 'P3', 'P8', 'P9', 'P10', 'P11', 'P12', 'P13', 'P16', 'P19', 'P42']        |
| 43 | 523 |     ['P1', 'P2', 'P3', 'P8', 'P9', 'P10', 'P11', 'P12', 'P13', 'P16', 'P17', 'P19', 'P42']    |
| 44 | 602 |        ['P1', 'P2', 'P3', 'P8', 'P9', 'P10', 'P11', 'P12', 'P13', 'P14', 'P19', 'P42']        |
| 45 | 672 |     ['P1', 'P2', 'P3', 'P8', 'P9', 'P10', 'P11', 'P12', 'P13', 'P14', 'P16', 'P19', 'P42']    |
| 46 | 766 | ['P1', 'P2', 'P3', 'P8', 'P9', 'P10', 'P11', 'P12', 'P13', 'P14', 'P16', 'P17', 'P19', 'P42'] |
+----+-----+-----------------------------------------------------------------------------------------------+
+----+----+----+----+----+----+----+----+----+----+-----+-----+-----+-----+-----+-----+-----+-----+-----+-----+-----+
| T0 | T1 | T2 | T3 | T4 | T5 | T6 | T7 | T8 | T9 | T10 | T11 | T12 | T13 | T14 | T15 | T16 | T17 | T18 | T19 | T20 |
+----+----+----+----+----+----+----+----+----+----+-----+-----+-----+-----+-----+-----+-----+-----+-----+-----+-----+
| 1  | 1  | 1  | 1  | 0  | 0  | 0  | 0  | 0  | 0  |  0  |  0  |  0  |  0  |  0  |  0  |  0  |  0  |  0  |  0  |  0  |
| 0  | 0  | 0  | 0  | 1  | 1  | 1  | 1  | 1  | 1  |  1  |  1  |  1  |  0  |  0  |  0  |  1  |  1  |  1  |  1  |  1  |
+----+----+----+----+----+----+----+----+----+----+-----+-----+-----+-----+-----+-----+-----+-----+-----+-----+-----+
18/07/2021 14:28:14[INFO] Supervisores para agregar   
+----+---------+-------------+------------+
| ID | Marcado | T - Entrada | T - Salida |
+----+---------+-------------+------------+
+----+---------+-------------+------------+
18/07/2021 14:28:14[INFO] Supervisores agregados   
+-----+---------+-----------------------------------+--------------+
| Nro | Marcado |            T - Entrada            |  T - Salida  |
+-----+---------+-----------------------------------+--------------+
|  1  |    1    |            ['T2', 'T6']           | ['T1', 'T5'] |
|  2  |    2    |        ['T3', 'T8', 'T12']        | ['T1', 'T5'] |
|  3  |    2    |        ['T3', 'T8', 'T12']        | ['T1', 'T5'] |
|  4  |    2    | ['T3', 'T7', 'T12', 'T15', 'T19'] | ['T1', 'T5'] |
|  5  |    1    |           ['T2', 'T12']           | ['T1', 'T5'] |
+-----+---------+-----------------------------------+--------------+
18/07/2021 14:28:14[INFO] Ejecutando accion...   
18/07/2021 14:28:14[ACTION] Agregar o quitar arcos   
18/07/2021 14:28:14[ACTION] La transicion en conflicto T14 le tiene que devolver un token al supervisor P42   
18/07/2021 14:28:14[INFO] Se agrego un arco desde T14 hasta P42   

--------------------------------------------------------------------------   
18/07/2021 14:28:14[INFO] Ejecutando petrinator para conocer estado de la red...   
--------------------------------------------------------------------------
   

--------------------------------------------------------------------------
   
18/07/2021 14:28:52[INFO] Calculando recompensa..   
18/07/2021 14:28:52[REWARD] No hay mas deadlock, recompensa 100   

--------------------------------------------------------------------------
   
18/07/2021 14:28:52[STATE] Se llego al estado deseado, NO HAY MAS DEADLOCK   

--------------------------------------------------------------------------
   
18/07/2021 14:28:52[STATE] Cambie al estado 2: Hay menos sifones vacios en deadlock   
+-----------------------------------------------------+--------------------+------------------------+
|                   Estados/Acciones                  | Agregar supervisor | Agregar o quitar arcos |
+-----------------------------------------------------+--------------------+------------------------+
|                        Start                        |        -1.0        |          0.0           |
|        Más sifónes vacíos en estado deadlock        |        0.0         |         100.0          |
|       Menos sifónes vacíos en estado deadlock       |        -1.9        |         -2.71          |
| Igual cantidad de sifónes vacíos en estado deadlock |        -1.0        |         -2.71          |
|                         End                         |        0.0         |          0.0           |
+-----------------------------------------------------+--------------------+------------------------+
