21/06/2021 17:35:52[DEBUG] pflow_file:  ../analisis_4_21062021/gen_nets/20210621-134757_2/net.pflow  
21/06/2021 17:35:52[DEBUG] output_folder:  ../analisis_4_21062021/gen_nets/20210621-134757_2/  
21/06/2021 17:35:52[DEBUG] html_path:  ../analisis_4_21062021/gen_nets/20210621-134757_2/  
21/06/2021 17:35:52[DEBUG] txt_path:  ../analisis_4_21062021/gen_nets/20210621-134757_2/txt_info  

--------------------------------------------------------------------------   
21/06/2021 17:35:52[INFO] Ejecutando petrinator para conocer estado de la red...   
--------------------------------------------------------------------------
   
21/06/2021 17:36:35[INFO] Leyendo archivos...   
21/06/2021 17:36:39[INFO] Cantidad de estados: 5237  
21/06/2021 17:36:39[INFO] Cantidad de transiciones: 21  
21/06/2021 17:36:39[INFO] Cantidad de plazas: 33  
21/06/2021 17:36:39[INFO] Cantidad de sifones: 193  
21/06/2021 17:36:39[INFO] Cantidad de trampas: 30  

--------------------------------------------------------------------------
   
21/06/2021 17:36:39[INFO] Cantidad de entrenamientos a realizar:  1  
21/06/2021 17:36:39[INFO] Entrenamiento numero: 0 
 
21/06/2021 17:36:39[INFO] Q-TABLE   
+-----------------------------------------------------+--------------------+------------------------+
|                   Estados/Acciones                  | Agregar supervisor | Agregar o quitar arcos |
+-----------------------------------------------------+--------------------+------------------------+
|                        Start                        |        0.0         |          0.0           |
|        Más sifónes vacíos en estado deadlock        |        0.0         |          0.0           |
|       Menos sifónes vacíos en estado deadlock       |        0.0         |          0.0           |
| Igual cantidad de sifónes vacíos en estado deadlock |        0.0         |          0.0           |
|                         End                         |        0.0         |          0.0           |
+-----------------------------------------------------+--------------------+------------------------+

--------------------------------------------------------------------------   
21/06/2021 17:36:39[INFO] Ejecutando petrinator para conocer estado de la red...   
--------------------------------------------------------------------------
   
21/06/2021 17:36:52[INFO] Importando datos desde html...   
21/06/2021 17:36:55[INFO] Analizando cantidad de supervisores que se pueden agregar...   
21/06/2021 17:36:55[INFO] Cantidad de transiciones: 21  
21/06/2021 17:36:55[INFO] Estados de deadlock: [17, 24, 55, 228, 235, 266]  
21/06/2021 17:36:55[INFO] Cantidad de sifones: 193  
21/06/2021 17:36:55[INFO] Cantidad de sifones vacios en estado de deadlock: 1 
 
21/06/2021 17:36:55[INFO] SIFONES   
+----+-----+-------------------------------------------+
| ID | Nro |                   Plazas                  |
+----+-----+-------------------------------------------+
| 0  |  2  | ['P3', 'P10', 'P18', 'P24', 'P30', 'P31'] |
+----+-----+-------------------------------------------+
21/06/2021 17:36:55[INFO] T INVARIANTES   
+----+----+----+----+----+----+----+----+----+----+-----+-----+-----+-----+-----+-----+-----+-----+-----+-----+-----+
| T0 | T1 | T2 | T3 | T4 | T5 | T6 | T7 | T8 | T9 | T10 | T11 | T12 | T13 | T14 | T15 | T16 | T17 | T18 | T19 | T20 |
+----+----+----+----+----+----+----+----+----+----+-----+-----+-----+-----+-----+-----+-----+-----+-----+-----+-----+
| 1  | 1  | 1  | 1  | 1  | 0  | 0  | 0  | 0  | 0  |  0  |  0  |  0  |  0  |  0  |  0  |  0  |  0  |  0  |  0  |  0  |
| 0  | 0  | 0  | 0  | 0  | 1  | 1  | 1  | 1  | 1  |  0  |  0  |  0  |  0  |  0  |  0  |  0  |  0  |  0  |  0  |  0  |
| 0  | 0  | 0  | 0  | 0  | 0  | 0  | 0  | 0  | 0  |  1  |  1  |  1  |  1  |  0  |  0  |  0  |  0  |  0  |  1  |  1  |
| 0  | 0  | 0  | 0  | 0  | 0  | 0  | 0  | 0  | 0  |  0  |  0  |  0  |  0  |  1  |  1  |  1  |  1  |  1  |  1  |  1  |
+----+----+----+----+----+----+----+----+----+----+-----+-----+-----+-----+-----+-----+-----+-----+-----+-----+-----+
21/06/2021 17:36:55[INFO] POSIBLES SUPERVISORES A AGREGAR   
+-----+---------+--------------+---------------------+
|  ID | Marcado | T - Entrada  |      T - Salida     |
+-----+---------+--------------+---------------------+
| P34 |    1    | ['T3', 'T7'] | ['T1', 'T6', 'T20'] |
+-----+---------+--------------+---------------------+

--------------------------------------------------------------------------
   
21/06/2021 17:36:55[INFO] Ejecutando accion...   
21/06/2021 17:36:55[ACTION] Agregar supervisor    
21/06/2021 17:36:55[ACTION] Agrego supervisor Numero: 0   

--------------------------------------------------------------------------   
21/06/2021 17:36:55[INFO] Ejecutando petrinator para conocer estado de la red...   
--------------------------------------------------------------------------
   
21/06/2021 17:37:14[INFO] Importando datos desde html...   
21/06/2021 17:37:15[INFO] Analizando cantidad de supervisores que se pueden agregar...   
21/06/2021 17:37:15[INFO] Cantidad de sifones vacios en estado de deadlock ANTES: 1  
21/06/2021 17:37:15[INFO] Cantidad de sifones vacioes en estado de deadlock AHORA: 6  
21/06/2021 17:37:15[INFO] Cantidad de transiciones: 21  
21/06/2021 17:37:15[INFO] Estados de deadlock: [36]  
21/06/2021 17:37:15[INFO] Cantidad de sifones: 151  
21/06/2021 17:37:15[INFO] Cantidad de sifones vacios en estado de deadlock: 6 
 
21/06/2021 17:37:15[INFO] SIFONES   
+----+-----+----------------------------------------------+
| ID | Nro |                    Plazas                    |
+----+-----+----------------------------------------------+
| 1  |  16 |          ['P1', 'P2', 'P9', 'P34']           |
| 2  |  20 |       ['P1', 'P2', 'P9', 'P10', 'P34']       |
| 3  |  36 |       ['P1', 'P2', 'P3', 'P9', 'P34']        |
| 4  |  51 |    ['P1', 'P2', 'P3', 'P9', 'P10', 'P34']    |
| 5  |  90 |    ['P1', 'P2', 'P3', 'P4', 'P9', 'P34']     |
| 6  | 111 | ['P1', 'P2', 'P3', 'P4', 'P9', 'P10', 'P34'] |
+----+-----+----------------------------------------------+
21/06/2021 17:37:15[INFO] T INVARIANTES   
+----+----+----+----+----+----+----+----+----+----+-----+-----+-----+-----+-----+-----+-----+-----+-----+-----+-----+
| T0 | T1 | T2 | T3 | T4 | T5 | T6 | T7 | T8 | T9 | T10 | T11 | T12 | T13 | T14 | T15 | T16 | T17 | T18 | T19 | T20 |
+----+----+----+----+----+----+----+----+----+----+-----+-----+-----+-----+-----+-----+-----+-----+-----+-----+-----+
| 1  | 1  | 1  | 1  | 1  | 0  | 0  | 0  | 0  | 0  |  0  |  0  |  0  |  0  |  0  |  0  |  0  |  0  |  0  |  0  |  0  |
| 0  | 0  | 0  | 0  | 0  | 1  | 1  | 1  | 1  | 1  |  0  |  0  |  0  |  0  |  0  |  0  |  0  |  0  |  0  |  0  |  0  |
+----+----+----+----+----+----+----+----+----+----+-----+-----+-----+-----+-----+-----+-----+-----+-----+-----+-----+
21/06/2021 17:37:15[INFO] POSIBLES SUPERVISORES A AGREGAR   
+----+---------+-------------+------------+
| ID | Marcado | T - Entrada | T - Salida |
+----+---------+-------------+------------+
+----+---------+-------------+------------+
21/06/2021 17:37:15[INFO] Actualizando estado de la red..   
21/06/2021 17:37:15[STATE] Cambie al estado 1: Hay mas sifones vacios en deadlock   

--------------------------------------------------------------------------
   
21/06/2021 17:37:15[INFO] Calculando recompensa..   
21/06/2021 17:37:15[REWARD] El sifon se controlo correctamente, recompensa -1   

--------------------------------------------------------------------------
   
21/06/2021 17:37:15[INFO] NEW Q-TABLE   
+-----------------------------------------------------+--------------------+------------------------+
|                   Estados/Acciones                  | Agregar supervisor | Agregar o quitar arcos |
+-----------------------------------------------------+--------------------+------------------------+
|                        Start                        |        -0.9        |          0.0           |
|        Más sifónes vacíos en estado deadlock        |        0.0         |          0.0           |
|       Menos sifónes vacíos en estado deadlock       |        0.0         |          0.0           |
| Igual cantidad de sifónes vacíos en estado deadlock |        0.0         |          0.0           |
|                         End                         |        0.0         |          0.0           |
+-----------------------------------------------------+--------------------+------------------------+

--------------------------------------------------------------------------
   
21/06/2021 17:37:15[INFO] Ejecutando accion...   
21/06/2021 17:37:15[ACTION] Agregar o quitar arcos   
21/06/2021 17:37:15[ACTION] La transicion en conflicto T11 le tiene que devolver un token al supervisor P34   
21/06/2021 17:37:15[INFO] Se agrego un arco desde T11 hasta P34   
21/06/2021 17:37:15[ACTION] La transicion en conflicto T15 le tiene que devolver un token al supervisor P34   
21/06/2021 17:37:15[INFO] Se agrego un arco desde T15 hasta P34   

--------------------------------------------------------------------------   
21/06/2021 17:37:15[INFO] Ejecutando petrinator para conocer estado de la red...   
--------------------------------------------------------------------------
   
21/06/2021 17:37:47[INFO] Importando datos desde html...   
21/06/2021 17:37:50[INFO] Analizando cantidad de supervisores que se pueden agregar...   
21/06/2021 17:37:50[INFO] Cantidad de sifones vacios en estado de deadlock ANTES: 6  
21/06/2021 17:37:50[INFO] Cantidad de sifones vacioes en estado de deadlock AHORA: 0  
21/06/2021 17:37:50[INFO] Cantidad de transiciones: 21  
21/06/2021 17:37:50[INFO] Estados de deadlock: []  
21/06/2021 17:37:50[INFO] Cantidad de sifones: 151  
21/06/2021 17:37:50[INFO] Cantidad de sifones vacios en estado de deadlock: 0 
 
21/06/2021 17:37:50[INFO] SIFONES   
+----+-----+--------+
| ID | Nro | Plazas |
+----+-----+--------+
+----+-----+--------+
21/06/2021 17:37:50[INFO] T INVARIANTES   
+----+----+----+----+----+----+----+----+----+----+-----+-----+-----+-----+-----+-----+-----+-----+-----+-----+-----+
| T0 | T1 | T2 | T3 | T4 | T5 | T6 | T7 | T8 | T9 | T10 | T11 | T12 | T13 | T14 | T15 | T16 | T17 | T18 | T19 | T20 |
+----+----+----+----+----+----+----+----+----+----+-----+-----+-----+-----+-----+-----+-----+-----+-----+-----+-----+
| 1  | 1  | 1  | 1  | 1  | 0  | 0  | 0  | 0  | 0  |  0  |  0  |  0  |  0  |  0  |  0  |  0  |  0  |  0  |  0  |  0  |
| 0  | 0  | 0  | 0  | 0  | 1  | 1  | 1  | 1  | 1  |  0  |  0  |  0  |  0  |  0  |  0  |  0  |  0  |  0  |  0  |  0  |
| 0  | 0  | 0  | 0  | 0  | 0  | 0  | 0  | 0  | 0  |  1  |  1  |  1  |  1  |  0  |  0  |  0  |  0  |  0  |  1  |  1  |
| 0  | 0  | 0  | 0  | 0  | 0  | 0  | 0  | 0  | 0  |  0  |  0  |  0  |  0  |  1  |  1  |  1  |  1  |  1  |  1  |  1  |
+----+----+----+----+----+----+----+----+----+----+-----+-----+-----+-----+-----+-----+-----+-----+-----+-----+-----+
21/06/2021 17:37:50[INFO] POSIBLES SUPERVISORES A AGREGAR   
+----+---------+-------------+------------+
| ID | Marcado | T - Entrada | T - Salida |
+----+---------+-------------+------------+
+----+---------+-------------+------------+
21/06/2021 17:37:50[INFO] Actualizando estado de la red..   
21/06/2021 17:37:50[STATE] Cambie al estado 2: Hay menos sifones vacios en deadlock   

--------------------------------------------------------------------------
   
21/06/2021 17:37:50[INFO] Calculando recompensa..   
21/06/2021 17:37:50[REWARD] No hay mas deadlock, recompensa 100   

--------------------------------------------------------------------------
   
21/06/2021 17:37:50[INFO] NEW Q-TABLE   
+-----------------------------------------------------+--------------------+------------------------+
|                   Estados/Acciones                  | Agregar supervisor | Agregar o quitar arcos |
+-----------------------------------------------------+--------------------+------------------------+
|                        Start                        |        -0.9        |          0.0           |
|        Más sifónes vacíos en estado deadlock        |        0.0         |          90.0          |
|       Menos sifónes vacíos en estado deadlock       |        0.0         |          0.0           |
| Igual cantidad de sifónes vacíos en estado deadlock |        0.0         |          0.0           |
|                         End                         |        0.0         |          0.0           |
+-----------------------------------------------------+--------------------+------------------------+

--------------------------------------------------------------------------
   
21/06/2021 17:37:50[STATE] Se llego al estado deseado, NO HAY MAS DEADLOCK   

--------------------------------------------------------------------------
   
21/06/2021 17:37:50[INFO] Training complete! 
  
