+-----------------------------------------------------+--------------------+------------------------+
|                   Estados/Acciones                  | Agregar supervisor | Agregar o quitar arcos |
+-----------------------------------------------------+--------------------+------------------------+
|                        Start                        |        0.0         |          0.0           |
|        Más sifónes vacíos en estado deadlock        |        0.0         |          0.0           |
|       Menos sifónes vacíos en estado deadlock       |        0.0         |          0.0           |
| Igual cantidad de sifónes vacíos en estado deadlock |        0.0         |          0.0           |
|                         End                         |        0.0         |          0.0           |
+-----------------------------------------------------+--------------------+------------------------+
+----+-----+--------------------------------------------------------+
| ID | Nro |                         Plazas                         |
+----+-----+--------------------------------------------------------+
| 0  |  28 |           ['P4', 'P9', 'P14', 'P21', 'P24']            |
| 1  |  1  | ['P4', 'P9', 'P14', 'P20', 'P21', 'P23', 'P25', 'P26'] |
| 2  |  15 |    ['P4', 'P8', 'P14', 'P20', 'P21', 'P23', 'P25']     |
+----+-----+--------------------------------------------------------+
+----+----+----+----+----+----+----+----+----+----+-----+-----+-----+-----+-----+-----+-----+-----+-----+-----+
| T0 | T1 | T2 | T3 | T4 | T5 | T6 | T7 | T8 | T9 | T10 | T11 | T12 | T13 | T14 | T15 | T16 | T17 | T18 | T19 |
+----+----+----+----+----+----+----+----+----+----+-----+-----+-----+-----+-----+-----+-----+-----+-----+-----+
| 1  | 1  | 1  | 1  | 1  | 0  | 0  | 0  | 0  | 0  |  0  |  0  |  0  |  0  |  0  |  0  |  0  |  0  |  0  |  0  |
| 0  | 0  | 0  | 0  | 0  | 1  | 1  | 1  | 1  | 0  |  0  |  0  |  0  |  0  |  0  |  0  |  0  |  0  |  0  |  0  |
| 0  | 0  | 0  | 0  | 0  | 0  | 0  | 0  | 0  | 1  |  1  |  1  |  1  |  1  |  0  |  0  |  0  |  0  |  1  |  1  |
| 0  | 0  | 0  | 0  | 0  | 0  | 0  | 0  | 0  | 0  |  0  |  0  |  0  |  0  |  1  |  1  |  1  |  1  |  1  |  1  |
+----+----+----+----+----+----+----+----+----+----+-----+-----+-----+-----+-----+-----+-----+-----+-----+-----+
+-----+---------+------------------------------------------+---------------------+
|  ID | Marcado |               T - Entrada                |      T - Salida     |
+-----+---------+------------------------------------------+---------------------+
| P28 |    0    |                 ['T18']                  | ['T1', 'T6', 'T19'] |
| P28 |    2    | ['T4', 'T8', 'T10', 'T13', 'T15', 'T18'] | ['T1', 'T6', 'T19'] |
| P28 |    1    |           ['T4', 'T7', 'T13']            | ['T1', 'T6', 'T19'] |
+-----+---------+------------------------------------------+---------------------+
