S0
T1 S1
T6 S1813
T19 S2369
S1
T1 S2
T2 S1687
T6 S1806
T19 S2368
S2
T1 S3
T19 S18
T2 S108
T6 S1722
S3
T2 S4
T19 S19
T6 S87
S4
T3 S5
S5
T2 S6
T4 S16
T6 S2426
S6
T4 S7
S7
T3 S8
T5 S108
S8
T2 S9
T5 S14
S9
T5 S10
S10
T1 S6
T4 S11
S11
T1 S7
T3 S12
T5 S1687
S12
T1 S8
T5 S13
S13
T1 S14
T4 S2427
T6 S2429
S14
T1 S5
T2 S10
T4 S15
T6 S2425
S15
T5 S1
T2 S11
T1 S16
T19 S2424
S16
T5 S2
T2 S7
T19 S17
S17
T5 S18
T10 S33
T15 S254
S18
T1 S19
T10 S34
T15 S255
S19
T10 S20
T15 S256
S20
T2 S21
T6 S37
T11 S49
T19 S1923
S21
T3 S22
S22
T2 S23
T4 S33
T11 S99
T6 S2418
S23
T4 S24
S24
T3 S25
T5 S35
S25
T2 S26
T5 S31
T11 S2423
S26
T5 S27
S27
T1 S23
T4 S28
S28
T1 S24
T3 S29
T5 S1897
S29
T1 S25
T5 S30
T11 S2422
S30
T1 S31
T11 S1786
T4 S2419
T6 S2421
S31
T1 S22
T2 S27
T4 S32
T11 S1757
T6 S2417
S32
T2 S28
T1 S33
T11 S1758
T5 S1920
T19 S2416
S33
T2 S24
T5 S34
T11 S100
T19 S2415
S34
T1 S20
T2 S35
T6 S36
T11 S101
T19 S1922
S35
T1 S21
T3 S31
S36
T1 S37
T7 S1882
S37
T7 S38
S38
T2 S39
T6 S41
T11 S47
T8 S1890
S39
T8 S40
S40
T9 S21
S41
T8 S42
S42
T9 S37
T7 S43
S43
T9 S38
T2 S44
T6 S45
T11 S46
S44
T9 S39
S45
T9 S41
S46
T9 S47
S47
T8 S48
S48
T9 S49
S49
T12 S50
S50
T2 S51
T13 S66
S51
T13 S52
S52
T3 S53
T14 S90
S53
T2 S54
T4 S64
T14 S91
T6 S2411
S54
T4 S55
T14 S92
S55
T3 S56
T5 S104
S56
T2 S57
T5 S62
S57
T5 S58
S58
T1 S54
T4 S59
T14 S107
S59
T1 S55
T3 S60
T5 S1684
S60
T1 S56
T5 S61
S61
T1 S62
T14 S1686
T4 S2412
T6 S2414
S62
T1 S53
T2 S58
T4 S63
T14 S106
T6 S2410
S63
T2 S59
T1 S64
T5 S1748
T19 S2409
S64
T2 S55
T5 S65
T19 S2408
S65
T1 S66
T2 S104
T6 S1713
T14 S1750
T19 S1848
S66
T2 S52
T6 S67
T14 S89
T19 S1654
S67
T7 S68
S68
T2 S69
T6 S74
T8 S79
T14 S80
S69
T8 S70
T14 S71
S70
T9 S52
S71
T20 S72
S72
T8 S73
S73
T9 S4
S74
T8 S75
S75
T9 S67
T7 S76
S76
T9 S68
T2 S77
T6 S78
S77
T9 S69
S78
T9 S74
S79
T9 S66
T2 S70
T6 S75
S80
T2 S71
T20 S81
S81
T2 S72
T6 S82
T8 S88
S82
T8 S83
S83
T7 S84
T9 S87
S84
T9 S81
T2 S85
T6 S86
S85
T9 S72
S86
T9 S82
S87
T7 S81
S88
T9 S3
T2 S73
T6 S83
S89
T20 S3
T2 S90
T19 S93
S90
T20 S4
T3 S91
S91
T20 S5
T2 S92
S92
T20 S6
S93
T20 S19
T10 S94
T15 S658
S94
T20 S20
T2 S95
T11 S109
T19 S110
S95
T20 S21
T3 S96
S96
T20 S22
T2 S97
T11 S98
S97
T20 S23
S98
T20 S99
S99
T4 S100
S100
T5 S101
S101
T1 S49
T12 S102
S102
T1 S50
T13 S65
T2 S103
S103
T1 S51
T13 S104
S104
T1 S52
T3 S62
T14 S105
S105
T1 S90
T3 S106
T20 S108
S106
T20 S14
T1 S91
T2 S107
S107
T20 S10
T1 S92
S108
T1 S4
T3 S14
S109
T20 S49
S110
T10 S111
T15 S660
T20 S1923
S111
T2 S112
T20 S127
T11 S2103
S112
T3 S113
T20 S128
S113
T2 S114
T20 S124
T11 S1768
S114
T20 S115
S115
T4 S116
S116
T3 S117
T5 S1926
S117
T2 S118
T5 S123
T11 S2407
S118
T5 S119
S119
T1 S115
T4 S120
S120
T1 S116
T3 S121
T5 S1925
S121
T1 S117
T5 S122
T11 S2406
S122
T1 S123
T11 S1825
T4 S2403
T6 S2405
S123
T2 S119
T1 S124
T11 S1777
T4 S2400
T6 S2402
S124
T2 S115
T4 S125
T11 S1769
T6 S2399
S125
T2 S116
T5 S126
T11 S1770
T19 S2398
S126
T1 S127
T11 S1771
T2 S1926
T6 S1928
T19 S1955
S127
T2 S128
T6 S129
T11 S141
T19 S1956
S128
T3 S124
S129
T7 S130
S130
T2 S131
T6 S133
T11 S139
T8 S1941
S131
T8 S132
S132
T9 S128
S133
T8 S134
S134
T9 S129
T7 S135
S135
T9 S130
T2 S136
T6 S137
T11 S138
S136
T9 S131
S137
T9 S133
S138
T9 S139
S139
T8 S140
S140
T9 S141
S141
T12 S142
S142
T2 S143
T13 S158
T11 S1776
S143
T13 S144
S144
T14 S95
T3 S145
S145
T14 S96
T2 S146
T4 S156
T11 S212
T6 S2392
S146
T14 S97
T4 S147
S147
T3 S148
T5 S1774
S148
T2 S149
T5 S154
T11 S2397
S149
T5 S150
S150
T1 S146
T4 S151
T14 S1755
S151
T1 S147
T3 S152
T5 S1782
S152
T1 S148
T5 S153
T11 S2396
S153
T1 S154
T14 S1784
T11 S1854
T4 S2393
T6 S2395
S154
T1 S145
T2 S150
T4 S155
T11 S1676
T14 S1754
T6 S2391
S155
T2 S151
T1 S156
T11 S1677
T5 S1857
T19 S2390
S156
T2 S147
T5 S157
T11 S213
T19 S2389
S157
T1 S158
T11 S214
T14 S1752
T2 S1774
T6 S1859
T19 S2338
S158
T14 S94
T2 S144
T6 S159
T11 S172
T19 S2339
S159
T7 S160
S160
T2 S161
T6 S164
T11 S170
T8 S1879
T14 S1881
S161
T8 S162
T14 S163
S162
T9 S144
S163
T20 S39
S164
T8 S165
S165
T9 S159
T7 S166
S166
T9 S160
T2 S167
T6 S168
T11 S169
S167
T9 S161
S168
T9 S164
S169
T9 S170
S170
T8 S171
T14 S1875
S171
T9 S172
S172
T14 S109
T12 S173
S173
T2 S174
T13 S189
S174
T13 S175
S175
T3 S176
T14 S203
S176
T2 S177
T4 S187
T14 S204
T6 S2385
S177
T4 S178
T14 S205
S178
T3 S179
T5 S217
S179
T2 S180
T5 S185
S180
T5 S181
S181
T1 S177
T4 S182
T14 S220
S182
T1 S178
T3 S183
T5 S1681
S183
T1 S179
T5 S184
S184
T1 S185
T14 S1683
T4 S2386
T6 S2388
S185
T1 S176
T2 S181
T4 S186
T14 S219
T6 S2384
S186
T2 S182
T1 S187
T5 S1688
T19 S2383
S187
T2 S178
T5 S188
T19 S2382
S188
T1 S189
T2 S217
T6 S1690
T14 S1844
T19 S2367
S189
T2 S175
T6 S190
T14 S202
T19 S1655
S190
T7 S191
S191
T2 S192
T6 S195
T8 S200
T14 S201
S192
T8 S193
T14 S194
S193
T9 S175
S194
T20 S69
S195
T8 S196
S196
T9 S190
T7 S197
S197
T9 S191
T2 S198
T6 S199
S198
T9 S192
S199
T9 S195
S200
T9 S189
T2 S193
T6 S196
S201
T20 S68
T2 S194
S202
T20 S66
T2 S203
T19 S206
S203
T20 S52
T3 S204
S204
T20 S53
T2 S205
S205
T20 S54
S206
T10 S207
T15 S223
T20 S1654
S207
T20 S158
T2 S208
T11 S222
S208
T20 S144
T3 S209
S209
T20 S145
T2 S210
T11 S211
S210
T20 S146
S211
T20 S212
S212
T14 S98
T4 S213
S213
T5 S214
S214
T1 S172
T12 S215
T14 S221
S215
T1 S173
T13 S188
T2 S216
S216
T1 S174
T13 S217
S217
T1 S175
T3 S185
T14 S218
S218
T20 S104
T1 S203
T3 S219
S219
T20 S62
T1 S204
T2 S220
S220
T20 S58
T1 S205
S221
T20 S101
T1 S109
S222
T20 S172
S223
T2 S224
T20 S239
T16 S491
S224
T3 S225
T20 S240
S225
T2 S226
T20 S236
T16 S519
S226
T20 S227
S227
T4 S228
T14 S243
S228
T3 S229
T5 S347
S229
T2 S230
T5 S235
T16 S1653
S230
T5 S231
S231
T1 S227
T4 S232
T14 S350
S232
T1 S228
T3 S233
T5 S608
S233
T1 S229
T5 S234
T16 S1652
S234
T1 S235
T16 S592
T14 S610
T4 S1649
T6 S1651
S235
T2 S231
T1 S236
T14 S349
T16 S522
T4 S1646
T6 S1648
S236
T2 S227
T4 S237
T14 S242
T16 S520
T6 S1645
S237
T2 S228
T5 S238
T16 S521
T19 S1644
S238
T1 S239
T2 S347
T16 S373
T6 S573
T14 S657
T19 S1566
S239
T2 S240
T16 S312
T6 S511
T14 S658
T19 S1567
S240
T3 S236
T14 S241
S241
T3 S242
T20 S257
S242
T2 S243
T20 S253
T16 S352
S243
T20 S244
S244
T4 S245
S245
T3 S246
T5 S371
S246
T2 S247
T5 S252
T16 S1643
S247
T5 S248
S248
T1 S244
T4 S249
S249
T1 S245
T3 S250
T5 S611
S250
T1 S246
T5 S251
T16 S1642
S251
T1 S252
T16 S606
T4 S1639
T6 S1641
S252
T2 S248
T1 S253
T16 S362
T4 S1636
T6 S1638
S253
T2 S244
T4 S254
T16 S353
T6 S1635
S254
T2 S245
T5 S255
T16 S354
T19 S1634
S255
T1 S256
T16 S355
T2 S371
T6 S583
T19 S1234
S256
T2 S257
T6 S258
T16 S270
T19 S278
S257
T3 S253
S258
T7 S259
S259
T2 S260
T6 S262
T16 S268
T8 S277
S260
T8 S261
S261
T9 S257
S262
T8 S263
S263
T9 S258
T7 S264
S264
T9 S259
T2 S265
T6 S266
T16 S267
S265
T9 S260
S266
T9 S262
S267
T9 S268
S268
T8 S269
T17 S274
S269
T9 S270
S270
T17 S271
S271
T2 S272
T6 S273
S272
S273
T7 S274
S274
T2 S275
T6 S276
S275
S276
S277
T9 S256
T2 S261
T6 S263
T16 S269
S278
T10 S279
T15 S688
S279
T2 S280
T6 S296
T11 S308
T16 S323
T19 S395
S280
T3 S281
S281
T2 S282
T4 S292
T11 S665
T16 S668
T6 S1626
S282
T4 S283
S283
T3 S284
T5 S294
S284
T2 S285
T5 S290
T11 S1631
T16 S1633
S285
T5 S286
S286
T1 S282
T4 S287
S287
T1 S283
T3 S288
T5 S1272
S288
T1 S284
T5 S289
T11 S1630
T16 S1632
S289
T1 S290
T11 S1240
T16 S1570
T4 S1627
T6 S1629
S290
T1 S281
T2 S286
T4 S291
T11 S1214
T16 S1221
T6 S1625
S291
T2 S287
T1 S292
T11 S1215
T16 S1222
T5 S1271
T19 S1624
S292
T2 S283
T5 S293
T11 S666
T16 S669
T19 S1623
S293
T1 S279
T2 S294
T6 S295
T11 S344
T16 S384
T19 S394
S294
T1 S280
T3 S290
S295
T1 S296
T7 S333
S296
T7 S297
S297
T2 S298
T6 S300
T11 S306
T16 S321
T8 S332
S298
T8 S299
S299
T9 S280
S300
T8 S301
S301
T9 S296
T7 S302
S302
T9 S297
T2 S303
T6 S304
T11 S305
T16 S320
S303
T9 S298
S304
T9 S300
S305
T9 S306
S306
T8 S307
S307
T9 S308
S308
T12 S309
S309
T13 S239
T2 S310
T16 S311
S310
T13 S240
S311
T13 S312
S312
T14 S313
T17 S314
S313
T20 S270
S314
T2 S315
T6 S316
S315
S316
T7 S317
S317
T2 S318
T6 S319
S318
S319
S320
T9 S321
S321
T8 S322
T17 S327
S322
T9 S323
S323
T17 S324
S324
T2 S325
T6 S326
T11 S331
S325
S326
T7 S327
S327
T2 S328
T6 S329
T11 S330
S328
S329
S330
S331
S332
T9 S279
T2 S299
T6 S301
T11 S307
T16 S322
S333
T1 S297
T2 S334
T6 S336
T11 S342
T16 S382
T8 S393
S334
T1 S298
T8 S335
S335
T9 S294
T1 S299
S336
T1 S300
T8 S337
S337
T9 S295
T1 S301
T7 S338
S338
T1 S302
T9 S333
T2 S339
T6 S340
T11 S341
T16 S381
S339
T1 S303
T9 S334
S340
T1 S304
T9 S336
S341
T1 S305
T9 S342
S342
T1 S306
T8 S343
S343
T1 S307
T9 S344
S344
T1 S308
T12 S345
S345
T13 S238
T1 S309
T2 S346
T16 S372
S346
T1 S310
T13 S347
S347
T3 S235
T1 S240
T14 S348
S348
T1 S241
T3 S349
T20 S371
S349
T1 S242
T20 S252
T2 S350
T16 S351
S350
T1 S243
T20 S248
S351
T1 S352
T20 S362
S352
T20 S353
S353
T4 S354
S354
T5 S355
S355
T1 S270
T17 S356
S356
T1 S271
T2 S357
T6 S358
S357
T1 S272
S358
T1 S273
T7 S359
S359
T1 S274
T2 S360
T6 S361
S360
T1 S275
S361
T1 S276
S362
T1 S353
T4 S363
S363
T1 S354
T5 S364
S364
T1 S355
T17 S365
S365
T1 S356
T2 S366
T6 S367
S366
T1 S357
S367
T1 S358
T7 S368
S368
T1 S359
T2 S369
T6 S370
S369
T1 S360
S370
T1 S361
S371
T3 S252
T1 S257
S372
T1 S311
T13 S373
S373
T1 S312
T14 S374
T17 S375
S374
T1 S313
T20 S355
S375
T1 S314
T2 S376
T6 S377
S376
T1 S315
S377
T1 S316
T7 S378
S378
T1 S317
T2 S379
T6 S380
S379
T1 S318
S380
T1 S319
S381
T1 S320
T9 S382
S382
T1 S321
T8 S383
T17 S388
S383
T1 S322
T9 S384
S384
T1 S323
T17 S385
S385
T1 S324
T2 S386
T6 S387
T11 S392
S386
T1 S325
S387
T1 S326
T7 S388
S388
T1 S327
T2 S389
T6 S390
T11 S391
S389
T1 S328
S390
T1 S329
S391
T1 S330
S392
T1 S331
S393
T9 S293
T1 S332
T2 S335
T6 S337
T11 S343
T16 S383
S394
T1 S395
T10 S410
T15 S727
S395
T10 S396
T15 S713
S396
T2 S397
T6 S413
T11 S425
T16 S1340
S397
T3 S398
S398
T2 S399
T4 S409
T6 S1608
T11 S1610
T16 S1612
S399
T4 S400
S400
T3 S401
T5 S411
S401
T2 S402
T5 S407
T11 S1620
T16 S1622
S402
T5 S403
S403
T1 S399
T4 S404
S404
T1 S400
T3 S405
T5 S1291
S405
T1 S401
T5 S406
T11 S1619
T16 S1621
S406
T1 S407
T4 S1613
T6 S1616
T11 S1617
T16 S1618
S407
T1 S398
T2 S403
T4 S408
T6 S1607
T11 S1609
T16 S1611
S408
T2 S404
T1 S409
T5 S1290
T11 S1605
T16 S1606
S409
T2 S400
T5 S410
T11 S1603
T16 S1604
S410
T1 S396
T2 S411
T6 S412
T11 S1305
T16 S1351
S411
T1 S397
T3 S407
S412
T1 S413
T7 S1294
S413
T7 S414
S414
T2 S415
T6 S417
T11 S423
T16 S1338
T8 S1361
S415
T8 S416
S416
T9 S397
S417
T8 S418
S418
T9 S413
T7 S419
S419
T9 S414
T2 S420
T6 S421
T11 S422
T16 S1337
S420
T9 S415
S421
T9 S417
S422
T9 S423
S423
T8 S424
S424
T9 S425
S425
T12 S426
S426
T2 S427
T13 S442
T11 S1310
T16 S1317
S427
T13 S428
S428
T3 S429
T14 S661
S429
T2 S430
T4 S440
T14 S662
T6 S1588
T11 S1590
T16 S1592
S430
T4 S431
T14 S663
S431
T3 S432
T5 S1308
S432
T2 S433
T5 S438
T11 S1600
T16 S1602
S433
T5 S434
S434
T1 S430
T4 S435
T14 S1212
S435
T1 S431
T3 S436
T5 S1375
S436
T1 S432
T5 S437
T11 S1599
T16 S1601
S437
T1 S438
T14 S1238
T4 S1593
T6 S1596
T11 S1597
T16 S1598
S438
T1 S429
T2 S434
T4 S439
T14 S1211
T6 S1587
T11 S1589
T16 S1591
S439
T2 S435
T1 S440
T5 S1382
T11 S1585
T16 S1586
S440
T2 S431
T5 S441
T11 S1583
T16 S1584
S441
T1 S442
T14 S1209
T2 S1308
T11 S1311
T16 S1327
T6 S1384
S442
T2 S428
T6 S443
T11 S456
T14 S660
T16 S1318
S443
T7 S444
S444
T2 S445
T6 S448
T11 S454
T16 S1401
T8 S1408
T14 S1410
S445
T8 S446
T14 S447
S446
T9 S428
S447
T20 S298
S448
T8 S449
S449
T9 S443
T7 S450
S450
T9 S444
T2 S451
T6 S452
T11 S453
T16 S1400
S451
T9 S445
S452
T9 S448
S453
T9 S454
S454
T8 S455
T14 S1398
S455
T9 S456
S456
T12 S457
T14 S670
S457
T2 S458
T13 S473
T16 S1315
S458
T13 S459
S459
T14 S224
T3 S460
S460
T14 S225
T2 S461
T4 S471
T6 S1574
T16 S1576
S461
T14 S226
T4 S462
S462
T3 S463
T5 S514
S463
T2 S464
T5 S469
T16 S1582
S464
T5 S465
S465
T1 S461
T4 S466
T14 S517
S466
T1 S462
T3 S467
T5 S588
S467
T1 S463
T5 S468
T16 S1581
S468
T1 S469
T14 S590
T4 S1577
T6 S1579
T16 S1580
S469
T1 S460
T2 S465
T4 S470
T14 S516
T6 S1573
T16 S1575
S470
T2 S466
T1 S471
T5 S587
T16 S1572
S471
T2 S462
T5 S472
T16 S586
S472
T1 S473
T2 S514
T6 S532
T16 S550
T14 S585
S473
T14 S223
T2 S459
T6 S474
T16 S490
S474
T7 S475
S475
T2 S476
T6 S482
T16 S488
T8 S502
T14 S503
S476
T8 S477
T14 S478
S477
T9 S459
S478
T20 S479
S479
T8 S480
T14 S481
S480
T9 S240
S481
T20 S260
S482
T8 S483
S483
T9 S474
T7 S484
S484
T9 S475
T2 S485
T6 S486
T16 S487
S485
T9 S476
S486
T9 S482
S487
T9 S488
S488
T8 S489
T17 S495
T14 S498
S489
T9 S490
S490
T14 S491
T17 S492
S491
T20 S312
S492
T2 S493
T6 S494
S493
S494
T7 S495
S495
T2 S496
T6 S497
S496
S497
S498
T20 S499
S499
T17 S317
T8 S500
T14 S501
S500
T9 S312
S501
T20 S268
S502
T9 S473
T2 S477
T6 S483
T16 S489
S503
T2 S478
T16 S498
T20 S504
S504
T2 S479
T16 S499
T6 S505
T8 S512
T14 S513
S505
T8 S506
S506
T7 S507
T9 S511
S507
T9 S504
T2 S508
T6 S509
T16 S510
S508
T9 S479
S509
T9 S505
S510
T9 S499
S511
T7 S504
S512
T9 S239
T2 S480
T16 S500
T6 S506
S513
T20 S259
T2 S481
T16 S501
S514
T1 S459
T3 S469
T14 S515
S515
T1 S224
T20 S347
T3 S516
S516
T1 S225
T20 S235
T2 S517
T16 S518
S517
T1 S226
T20 S231
S518
T1 S519
T20 S522
S519
T20 S520
S520
T14 S352
T4 S521
S521
T5 S373
S522
T14 S351
T1 S520
T4 S523
S523
T1 S521
T5 S524
S524
T1 S373
T14 S525
T17 S526
S525
T20 S364
T1 S374
S526
T1 S375
T2 S527
T6 S528
S527
T1 S376
S528
T1 S377
T7 S529
S529
T1 S378
T2 S530
T6 S531
S530
T1 S379
S531
T1 S380
S532
T1 S474
T7 S533
S533
T1 S475
T2 S534
T6 S542
T16 S548
T8 S564
T14 S565
S534
T1 S476
T8 S535
T14 S536
S535
T1 S477
T9 S514
S536
T1 S478
T20 S537
S537
T1 S479
T8 S538
T14 S539
S538
T9 S347
T1 S480
S539
T1 S481
T20 S540
S540
T1 S260
T8 S541
S541
T1 S261
T9 S371
S542
T1 S482
T8 S543
S543
T1 S483
T9 S532
T7 S544
S544
T1 S484
T9 S533
T2 S545
T6 S546
T16 S547
S545
T1 S485
T9 S534
S546
T1 S486
T9 S542
S547
T1 S487
T9 S548
S548
T1 S488
T8 S549
T17 S555
T14 S558
S549
T1 S489
T9 S550
S550
T1 S490
T14 S551
T17 S552
S551
T20 S373
T1 S491
S552
T1 S492
T2 S553
T6 S554
S553
T1 S493
S554
T1 S494
T7 S555
S555
T1 S495
T2 S556
T6 S557
S556
T1 S496
S557
T1 S497
S558
T1 S498
T20 S559
S559
T17 S378
T1 S499
T8 S560
T14 S561
S560
T9 S373
T1 S500
S561
T1 S501
T20 S562
S562
T1 S268
T17 S359
T8 S563
S563
T1 S269
T9 S355
S564
T9 S472
T1 S502
T2 S535
T6 S543
T16 S549
S565
T1 S503
T2 S536
T16 S558
T20 S566
S566
T1 S504
T2 S537
T16 S559
T6 S567
T8 S574
T14 S575
S567
T1 S505
T8 S568
S568
T1 S506
T7 S569
T9 S573
S569
T1 S507
T9 S566
T2 S570
T6 S571
T16 S572
S570
T1 S508
T9 S537
S571
T1 S509
T9 S567
S572
T1 S510
T9 S559
S573
T1 S511
T7 S566
S574
T9 S238
T1 S512
T2 S538
T16 S560
T6 S568
S575
T1 S513
T2 S539
T16 S561
T20 S576
S576
T1 S259
T2 S540
T16 S562
T6 S577
T8 S584
S577
T1 S262
T8 S578
S578
T1 S263
T7 S579
T9 S583
S579
T1 S264
T9 S576
T2 S580
T6 S581
T16 S582
S580
T1 S265
T9 S540
S581
T1 S266
T9 S577
S582
T1 S267
T9 S562
S583
T1 S258
T7 S576
S584
T9 S255
T1 S277
T2 S541
T16 S563
T6 S578
S585
T1 S223
T20 S238
T2 S515
T16 S551
S586
T5 S550
S587
T1 S472
T2 S588
T6 S612
T16 S630
T14 S1521
S588
T3 S468
T1 S514
T14 S589
S589
T1 S515
T3 S590
T20 S608
S590
T20 S234
T1 S516
T16 S591
S591
T1 S518
T20 S592
S592
T1 S522
T4 S593
T14 S605
S593
T1 S523
T5 S594
S594
T1 S524
T14 S595
T17 S601
S595
T1 S525
T20 S596
S596
T1 S364
T17 S597
S597
T1 S365
T6 S598
S598
T1 S367
T7 S599
S599
T1 S368
T6 S600
S600
T1 S370
S601
T1 S526
T6 S602
S602
T1 S528
T7 S603
S603
T1 S529
T6 S604
S604
T1 S531
S605
T1 S351
T20 S606
S606
T1 S362
T4 S607
S607
T1 S363
T5 S596
S608
T3 S234
T1 S347
T14 S609
S609
T1 S348
T3 S610
T20 S611
S610
T20 S251
T1 S349
T16 S605
S611
T3 S251
T1 S371
S612
T1 S532
T7 S613
S613
T1 S533
T2 S614
T6 S622
T16 S628
T8 S644
T14 S645
S614
T1 S534
T8 S615
T14 S616
S615
T1 S535
T9 S588
S616
T1 S536
T20 S617
S617
T1 S537
T8 S618
T14 S619
S618
T1 S538
T9 S608
S619
T1 S539
T20 S620
S620
T1 S540
T8 S621
S621
T1 S541
T9 S611
S622
T1 S542
T8 S623
S623
T1 S543
T9 S612
T7 S624
S624
T1 S544
T9 S613
T2 S625
T6 S626
T16 S627
S625
T1 S545
T9 S614
S626
T1 S546
T9 S622
S627
T1 S547
T9 S628
S628
T1 S548
T8 S629
T17 S635
T14 S638
S629
T1 S549
T9 S630
S630
T1 S550
T14 S631
T17 S632
S631
T20 S524
T1 S551
S632
T1 S552
T2 S633
T6 S634
S633
T1 S553
S634
T1 S554
T7 S635
S635
T1 S555
T2 S636
T6 S637
S636
T1 S556
S637
T1 S557
S638
T1 S558
T20 S639
S639
T17 S529
T1 S559
T8 S640
T14 S641
S640
T9 S524
T1 S560
S641
T1 S561
T20 S642
S642
T17 S368
T1 S562
T8 S643
S643
T9 S364
T1 S563
S644
T1 S564
T9 S587
T2 S615
T6 S623
T16 S629
S645
T1 S565
T2 S616
T16 S638
T20 S646
S646
T1 S566
T2 S617
T16 S639
T6 S647
T8 S654
T14 S1259
S647
T1 S567
T8 S648
S648
T1 S568
T7 S649
T9 S653
S649
T1 S569
T9 S646
T2 S650
T6 S651
T16 S652
S650
T1 S570
T9 S617
S651
T1 S571
T9 S647
S652
T1 S572
T9 S639
S653
T1 S573
T7 S646
S654
T1 S574
T2 S618
T16 S640
T6 S648
T9 S655
S655
T1 S238
T16 S524
T2 S608
T6 S653
T14 S656
T19 S1565
S656
T16 S525
T2 S609
T1 S657
T19 S1235
T20 S1269
S657
T20 S255
T2 S348
T16 S374
T1 S658
T19 S1208
S658
T2 S241
T20 S256
T16 S313
T19 S659
S659
T20 S278
T10 S660
T15 S672
S660
T20 S279
T2 S661
T11 S670
T16 S671
S661
T20 S280
T3 S662
S662
T20 S281
T2 S663
T11 S664
T16 S667
S663
T20 S282
S664
T20 S665
S665
T4 S666
S666
T5 S344
S667
T20 S668
S668
T4 S669
S669
T5 S384
S670
T20 S308
S671
T20 S323
S672
T2 S673
T20 S688
T16 S774
S673
T3 S674
T20 S689
S674
T2 S675
T20 S685
T16 S791
S675
T20 S676
S676
T4 S677
S677
T3 S678
T5 S814
S678
T2 S679
T5 S684
T16 S1207
S679
T5 S680
S680
T1 S676
T4 S681
S681
T1 S677
T3 S682
T5 S870
S682
T1 S678
T5 S683
T16 S1206
S683
T1 S684
T16 S861
T4 S1203
T6 S1205
S684
T2 S680
T1 S685
T16 S803
T4 S1200
T6 S1202
S685
T2 S676
T4 S686
T16 S792
T6 S1199
S686
T2 S677
T5 S687
T16 S793
T19 S1198
S687
T1 S688
T16 S794
T2 S814
T6 S852
T19 S912
S688
T2 S689
T6 S690
T16 S702
T19 S712
S689
T3 S685
S690
T7 S691
S691
T2 S692
T6 S694
T16 S700
T8 S711
S692
T8 S693
S693
T9 S689
S694
T8 S695
S695
T9 S690
T7 S696
S696
T9 S691
T2 S697
T6 S698
T16 S699
S697
T9 S692
S698
T9 S694
S699
T9 S700
S700
T8 S701
T17 S706
S701
T9 S702
S702
T17 S703
S703
T2 S704
T6 S705
T16 S710
S704
S705
T7 S706
S706
T2 S707
T6 S708
T16 S709
S707
S708
S709
S710
S711
T9 S688
T2 S693
T6 S695
T16 S701
S712
T10 S713
T15 S914
S713
T2 S714
T6 S730
T11 S742
T16 S1051
S714
T3 S715
S715
T2 S716
T4 S726
T6 S1183
T11 S1185
T16 S1187
S716
T4 S717
S717
T3 S718
T5 S728
S718
T2 S719
T5 S724
T11 S1195
T16 S1197
S719
T5 S720
S720
T1 S716
T4 S721
S721
T1 S717
T3 S722
T5 S1028
S722
T1 S718
T5 S723
T11 S1194
T16 S1196
S723
T1 S724
T4 S1188
T6 S1191
T11 S1192
T16 S1193
S724
T1 S715
T2 S720
T4 S725
T6 S1182
T11 S1184
T16 S1186
S725
T2 S721
T1 S726
T5 S1027
T11 S1180
T16 S1181
S726
T2 S717
T5 S727
T11 S1178
T16 S1179
S727
T1 S713
T2 S728
T6 S729
T11 S1042
T16 S1064
S728
T1 S714
T3 S724
S729
T1 S730
T7 S1031
S730
T7 S731
S731
T2 S732
T6 S734
T11 S740
T16 S1049
T8 S1076
S732
T8 S733
S733
T9 S714
S734
T8 S735
S735
T9 S730
T7 S736
S736
T9 S731
T2 S737
T6 S738
T11 S739
T16 S1048
S737
T9 S732
S738
T9 S734
S739
T9 S740
S740
T8 S741
S741
T9 S742
S742
T12 S743
S743
T2 S744
T13 S759
T16 S1046
S744
T13 S745
S745
T14 S673
T3 S746
S746
T14 S674
T2 S747
T4 S757
T6 S1109
T16 S1111
S747
T14 S675
T4 S748
S748
T3 S749
T5 S786
S749
T2 S750
T5 S755
T16 S1177
S750
T5 S751
S751
T1 S747
T4 S752
T14 S789
S752
T1 S748
T3 S753
T5 S857
S753
T1 S749
T5 S754
T16 S1176
S754
T1 S755
T14 S859
T4 S1112
T6 S1174
T16 S1175
S755
T1 S746
T2 S751
T4 S756
T14 S788
T6 S1108
T16 S1110
S756
T2 S752
T1 S757
T5 S856
T16 S1107
S757
T2 S748
T5 S758
T16 S855
S758
T1 S759
T2 S786
T6 S815
T16 S830
T14 S854
S759
T14 S672
T2 S745
T6 S760
T16 S773
S760
T7 S761
S761
T2 S762
T6 S765
T16 S771
T8 S784
T14 S785
S762
T8 S763
T14 S764
S763
T9 S745
S764
T20 S692
S765
T8 S766
S766
T9 S760
T7 S767
S767
T9 S761
T2 S768
T6 S769
T16 S770
S768
T9 S762
S769
T9 S765
S770
T9 S771
S771
T8 S772
T17 S778
T14 S783
S772
T9 S773
S773
T14 S774
T17 S775
S774
T20 S702
S775
T2 S776
T6 S777
T16 S782
S776
S777
T7 S778
S778
T2 S779
T6 S780
T16 S781
S779
S780
S781
S782
S783
T20 S700
S784
T9 S759
T2 S763
T6 S766
T16 S772
S785
T20 S691
T2 S764
T16 S783
S786
T1 S745
T3 S755
T14 S787
S787
T1 S673
T3 S788
T20 S814
S788
T1 S674
T20 S684
T2 S789
T16 S790
S789
T1 S675
T20 S680
S790
T1 S791
T20 S803
S791
T20 S792
S792
T4 S793
S793
T5 S794
S794
T1 S702
T17 S795
S795
T1 S703
T2 S796
T6 S797
T16 S802
S796
T1 S704
S797
T1 S705
T7 S798
S798
T1 S706
T2 S799
T6 S800
T16 S801
S799
T1 S707
S800
T1 S708
S801
T1 S709
S802
T1 S710
S803
T1 S792
T4 S804
S804
T1 S793
T5 S805
S805
T1 S794
T17 S806
S806
T1 S795
T2 S807
T6 S808
T16 S813
S807
T1 S796
S808
T1 S797
T7 S809
S809
T1 S798
T2 S810
T6 S811
T16 S812
S810
T1 S799
S811
T1 S800
S812
T1 S801
S813
T1 S802
S814
T3 S684
T1 S689
S815
T1 S760
T7 S816
S816
T1 S761
T2 S817
T6 S822
T16 S828
T8 S843
T14 S844
S817
T1 S762
T8 S818
T14 S819
S818
T1 S763
T9 S786
S819
T1 S764
T20 S820
S820
T1 S692
T8 S821
S821
T1 S693
T9 S814
S822
T1 S765
T8 S823
S823
T1 S766
T9 S815
T7 S824
S824
T1 S767
T9 S816
T2 S825
T6 S826
T16 S827
S825
T1 S768
T9 S817
S826
T1 S769
T9 S822
S827
T1 S770
T9 S828
S828
T1 S771
T8 S829
T17 S835
T14 S840
S829
T1 S772
T9 S830
S830
T1 S773
T14 S831
T17 S832
S831
T1 S774
T20 S794
S832
T1 S775
T2 S833
T6 S834
T16 S839
S833
T1 S776
S834
T1 S777
T7 S835
S835
T1 S778
T2 S836
T6 S837
T16 S838
S836
T1 S779
S837
T1 S780
S838
T1 S781
S839
T1 S782
S840
T1 S783
T20 S841
S841
T1 S700
T17 S798
T8 S842
S842
T1 S701
T9 S794
S843
T9 S758
T1 S784
T2 S818
T6 S823
T16 S829
S844
T1 S785
T2 S819
T16 S840
T20 S845
S845
T1 S691
T2 S820
T16 S841
T6 S846
T8 S853
S846
T1 S694
T8 S847
S847
T1 S695
T7 S848
T9 S852
S848
T1 S696
T9 S845
T2 S849
T6 S850
T16 S851
S849
T1 S697
T9 S820
S850
T1 S698
T9 S846
S851
T1 S699
T9 S841
S852
T1 S690
T7 S845
S853
T9 S687
T1 S711
T2 S821
T16 S842
T6 S847
S854
T1 S672
T20 S687
T2 S787
T16 S831
S855
T5 S830
S856
T1 S758
T2 S857
T6 S871
T16 S886
T14 S1106
S857
T3 S754
T1 S786
T14 S858
S858
T1 S787
T3 S859
T20 S870
S859
T20 S683
T1 S788
T16 S860
S860
T1 S790
T20 S861
S861
T1 S803
T4 S862
S862
T1 S804
T5 S863
S863
T1 S805
T17 S864
S864
T1 S806
T6 S865
T16 S869
S865
T1 S808
T7 S866
S866
T1 S809
T6 S867
T16 S868
S867
T1 S811
S868
T1 S812
S869
T1 S813
S870
T3 S683
T1 S814
S871
T1 S815
T7 S872
S872
T1 S816
T2 S873
T6 S878
T16 S884
T8 S899
T14 S900
S873
T1 S817
T8 S874
T14 S875
S874
T1 S818
T9 S857
S875
T1 S819
T20 S876
S876
T1 S820
T8 S877
S877
T1 S821
T9 S870
S878
T1 S822
T8 S879
S879
T1 S823
T9 S871
T7 S880
S880
T1 S824
T9 S872
T2 S881
T6 S882
T16 S883
S881
T1 S825
T9 S873
S882
T1 S826
T9 S878
S883
T1 S827
T9 S884
S884
T1 S828
T8 S885
T17 S891
T14 S896
S885
T1 S829
T9 S886
S886
T1 S830
T14 S887
T17 S888
S887
T20 S805
T1 S831
S888
T1 S832
T2 S889
T6 S890
T16 S895
S889
T1 S833
S890
T1 S834
T7 S891
S891
T1 S835
T2 S892
T6 S893
T16 S894
S892
T1 S836
S893
T1 S837
S894
T1 S838
S895
T1 S839
S896
T1 S840
T20 S897
S897
T17 S809
T1 S841
T8 S898
S898
T9 S805
T1 S842
S899
T1 S843
T9 S856
T2 S874
T6 S879
T16 S885
S900
T1 S844
T2 S875
T16 S896
T20 S901
S901
T1 S845
T2 S876
T16 S897
T6 S902
T8 S909
S902
T1 S846
T8 S903
S903
T1 S847
T7 S904
T9 S908
S904
T1 S848
T9 S901
T2 S905
T6 S906
T16 S907
S905
T1 S849
T9 S876
S906
T1 S850
T9 S902
S907
T1 S851
T9 S897
S908
T1 S852
T7 S901
S909
T1 S853
T2 S877
T16 S898
T6 S903
T9 S910
S910
T1 S687
T16 S805
T2 S870
T6 S908
T19 S911
S911
T1 S912
T15 S947
T10 S1027
S912
T1 S712
T10 S727
T15 S913
S913
T1 S914
T16 S929
T2 S949
T6 S951
S914
T2 S915
T16 S930
T6 S952
S915
T3 S916
S916
T2 S917
T4 S927
T6 S1000
T16 S1002
S917
T4 S918
S918
T3 S919
T5 S949
S919
T2 S920
T5 S925
T16 S1026
S920
T5 S921
S921
T1 S917
T4 S922
S922
T1 S918
T3 S923
T5 S948
S923
T1 S919
T5 S924
T16 S1025
S924
T1 S925
T4 S1003
T6 S1023
T16 S1024
S925
T1 S916
T2 S921
T4 S926
T6 S999
T16 S1001
S926
T2 S922
T1 S927
T5 S947
T16 S998
S927
T5 S913
T2 S918
T16 S928
S928
T5 S929
S929
T1 S930
T17 S939
S930
T17 S931
S931
T2 S932
T6 S933
T16 S938
S932
S933
T7 S934
S934
T2 S935
T6 S936
T16 S937
S935
S936
S937
S938
S939
T1 S931
T2 S940
T6 S941
T16 S946
S940
T1 S932
S941
T1 S933
T7 S942
S942
T1 S934
T2 S943
T6 S944
T16 S945
S943
T1 S935
S944
T1 S936
S945
T1 S937
S946
T1 S938
S947
T1 S913
T2 S948
T6 S950
T16 S988
S948
T3 S924
T1 S949
S949
T1 S915
T3 S925
S950
T1 S951
T7 S977
S951
T1 S952
T7 S965
S952
T7 S953
S953
T2 S954
T6 S956
T16 S962
T8 S964
S954
T8 S955
S955
T9 S915
S956
T8 S957
S957
T9 S952
T7 S958
S958
T9 S953
T2 S959
T6 S960
T16 S961
S959
T9 S954
S960
T9 S956
S961
T9 S962
S962
T17 S934
T8 S963
S963
T9 S930
S964
T9 S914
T2 S955
T6 S957
T16 S963
S965
T1 S953
T2 S966
T6 S968
T16 S974
T8 S976
S966
T1 S954
T8 S967
S967
T9 S949
T1 S955
S968
T1 S956
T8 S969
S969
T9 S951
T1 S957
T7 S970
S970
T1 S958
T9 S965
T2 S971
T6 S972
T16 S973
S971
T1 S959
T9 S966
S972
T1 S960
T9 S968
S973
T1 S961
T9 S974
S974
T17 S942
T1 S962
T8 S975
S975
T9 S929
T1 S963
S976
T9 S913
T1 S964
T2 S967
T6 S969
T16 S975
S977
T1 S965
T2 S978
T6 S980
T16 S986
T8 S997
S978
T1 S966
T8 S979
S979
T9 S948
T1 S967
S980
T1 S968
T8 S981
S981
T9 S950
T1 S969
T7 S982
S982
T1 S970
T9 S977
T2 S983
T6 S984
T16 S985
S983
T1 S971
T9 S978
S984
T1 S972
T9 S980
S985
T1 S973
T9 S986
S986
T1 S974
T8 S987
T17 S992
S987
T1 S975
T9 S988
S988
T1 S929
T17 S989
S989
T1 S939
T2 S990
T6 S991
T16 S996
S990
T1 S940
S991
T1 S941
T7 S992
S992
T1 S942
T2 S993
T6 S994
T16 S995
S993
T1 S943
S994
T1 S944
S995
T1 S945
S996
T1 S946
S997
T9 S947
T1 S976
T2 S979
T6 S981
T16 S987
S998
T1 S928
T5 S988
S999
T1 S1000
S1000
S1001
T4 S998
T1 S1002
S1002
T4 S928
S1003
T1 S926
T5 S1004
T16 S1022
S1004
T1 S947
T6 S1005
T16 S1014
S1005
T1 S950
T7 S1006
S1006
T1 S977
T6 S1007
T16 S1012
T8 S1021
S1007
T1 S980
T8 S1008
S1008
T1 S981
T9 S1005
T7 S1009
S1009
T1 S982
T9 S1006
T6 S1010
T16 S1011
S1010
T1 S984
T9 S1007
S1011
T1 S985
T9 S1012
S1012
T1 S986
T8 S1013
T17 S1017
S1013
T1 S987
T9 S1014
S1014
T1 S988
T17 S1015
S1015
T1 S989
T6 S1016
T16 S1020
S1016
T1 S991
T7 S1017
S1017
T1 S992
T6 S1018
T16 S1019
S1018
T1 S994
S1019
T1 S995
S1020
T1 S996
S1021
T1 S997
T9 S1004
T6 S1008
T16 S1013
S1022
T1 S998
T5 S1014
S1023
T1 S999
S1024
T1 S1001
T4 S1022
S1025
T5 S1024
T1 S1026
S1026
T5 S1001
S1027
T1 S727
T2 S1028
T6 S1029
T11 S1087
T16 S1094
S1028
T3 S723
T1 S728
S1029
T1 S729
T7 S1030
S1030
T1 S1031
T2 S1077
T6 S1079
T11 S1085
T16 S1092
T8 S1105
S1031
T1 S731
T2 S1032
T6 S1034
T11 S1040
T16 S1062
T8 S1075
S1032
T1 S732
T8 S1033
S1033
T9 S728
T1 S733
S1034
T1 S734
T8 S1035
S1035
T9 S729
T1 S735
T7 S1036
S1036
T1 S736
T9 S1031
T2 S1037
T6 S1038
T11 S1039
T16 S1047
S1037
T1 S737
T9 S1032
S1038
T1 S738
T9 S1034
S1039
T1 S739
T9 S1040
S1040
T1 S740
T8 S1041
S1041
T1 S741
T9 S1042
S1042
T1 S742
T12 S1043
S1043
T1 S743
T13 S758
T2 S1044
T16 S1045
S1044
T1 S744
T13 S786
S1045
T13 S830
T1 S1046
S1046
T13 S773
S1047
T1 S1048
T9 S1062
S1048
T9 S1049
S1049
T8 S1050
T17 S1055
S1050
T9 S1051
S1051
T17 S1052
S1052
T2 S1053
T6 S1054
T11 S1060
T16 S1061
S1053
S1054
T7 S1055
S1055
T2 S1056
T6 S1057
T11 S1058
T16 S1059
S1056
S1057
S1058
S1059
S1060
S1061
S1062
T1 S1049
T8 S1063
T17 S1068
S1063
T1 S1050
T9 S1064
S1064
T1 S1051
T17 S1065
S1065
T1 S1052
T2 S1066
T6 S1067
T11 S1073
T16 S1074
S1066
T1 S1053
S1067
T1 S1054
T7 S1068
S1068
T1 S1055
T2 S1069
T6 S1070
T11 S1071
T16 S1072
S1069
T1 S1056
S1070
T1 S1057
S1071
T1 S1058
S1072
T1 S1059
S1073
T1 S1060
S1074
T1 S1061
S1075
T9 S727
T2 S1033
T6 S1035
T11 S1041
T16 S1063
T1 S1076
S1076
T9 S713
T2 S733
T6 S735
T11 S741
T16 S1050
S1077
T1 S1032
T8 S1078
S1078
T9 S1028
T1 S1033
S1079
T1 S1034
T8 S1080
S1080
T9 S1029
T1 S1035
T7 S1081
S1081
T9 S1030
T1 S1036
T2 S1082
T6 S1083
T11 S1084
T16 S1091
S1082
T1 S1037
T9 S1077
S1083
T1 S1038
T9 S1079
S1084
T1 S1039
T9 S1085
S1085
T1 S1040
T8 S1086
S1086
T1 S1041
T9 S1087
S1087
T1 S1042
T12 S1088
S1088
T13 S856
T1 S1043
T2 S1089
T16 S1090
S1089
T13 S857
T1 S1044
S1090
T13 S886
T1 S1045
S1091
T1 S1047
T9 S1092
S1092
T1 S1062
T8 S1093
T17 S1098
S1093
T1 S1063
T9 S1094
S1094
T1 S1064
T17 S1095
S1095
T1 S1065
T2 S1096
T6 S1097
T11 S1103
T16 S1104
S1096
T1 S1066
S1097
T1 S1067
T7 S1098
S1098
T1 S1068
T2 S1099
T6 S1100
T11 S1101
T16 S1102
S1099
T1 S1069
S1100
T1 S1070
S1101
T1 S1071
S1102
T1 S1072
S1103
T1 S1073
S1104
T1 S1074
S1105
T9 S1027
T1 S1075
T2 S1078
T6 S1080
T11 S1086
T16 S1093
S1106
T1 S854
T2 S858
T16 S887
T20 S910
S1107
T1 S855
T5 S886
S1108
T1 S1109
S1109
S1110
T14 S790
T4 S1107
T1 S1111
S1111
T14 S791
T4 S855
S1112
T1 S756
T5 S1113
T16 S1173
S1113
T1 S856
T6 S1114
T16 S1123
T14 S1172
S1114
T1 S871
T7 S1115
S1115
T1 S872
T6 S1116
T16 S1121
T8 S1134
T14 S1135
S1116
T1 S878
T8 S1117
S1117
T1 S879
T9 S1114
T7 S1118
S1118
T1 S880
T9 S1115
T6 S1119
T16 S1120
S1119
T1 S882
T9 S1116
S1120
T1 S883
T9 S1121
S1121
T1 S884
T8 S1122
T17 S1127
T14 S1131
S1122
T1 S885
T9 S1123
S1123
T1 S886
T14 S1124
T17 S1125
S1124
T20 S863
T1 S887
S1125
T1 S888
T6 S1126
T16 S1130
S1126
T1 S890
T7 S1127
S1127
T1 S891
T6 S1128
T16 S1129
S1128
T1 S893
S1129
T1 S894
S1130
T1 S895
S1131
T1 S896
T20 S1132
S1132
T17 S866
T1 S897
T8 S1133
S1133
T9 S863
T1 S898
S1134
T1 S899
T9 S1113
T6 S1117
T16 S1122
S1135
T1 S900
T16 S1131
T20 S1136
S1136
T1 S901
T16 S1132
T6 S1137
T8 S1143
S1137
T1 S902
T8 S1138
S1138
T1 S903
T7 S1139
T9 S1142
S1139
T1 S904
T9 S1136
T6 S1140
T16 S1141
S1140
T1 S906
T9 S1137
S1141
T1 S907
T9 S1132
S1142
T1 S908
T7 S1136
S1143
T1 S909
T16 S1133
T6 S1138
T9 S1144
S1144
T16 S863
T1 S910
T6 S1142
T19 S1145
S1145
T1 S911
T15 S1004
T10 S1146
S1146
T1 S1027
T6 S1147
T11 S1156
T16 S1162
S1147
T1 S1029
T7 S1148
S1148
T1 S1030
T6 S1149
T11 S1154
T16 S1160
T8 S1171
S1149
T1 S1079
T8 S1150
S1150
T1 S1080
T9 S1147
T7 S1151
S1151
T1 S1081
T9 S1148
T6 S1152
T11 S1153
T16 S1159
S1152
T1 S1083
T9 S1149
S1153
T1 S1084
T9 S1154
S1154
T1 S1085
T8 S1155
S1155
T1 S1086
T9 S1156
S1156
T1 S1087
T12 S1157
S1157
T1 S1088
T13 S1113
T16 S1158
S1158
T1 S1090
T13 S1123
S1159
T1 S1091
T9 S1160
S1160
T1 S1092
T8 S1161
T17 S1165
S1161
T1 S1093
T9 S1162
S1162
T1 S1094
T17 S1163
S1163
T1 S1095
T6 S1164
T11 S1169
T16 S1170
S1164
T1 S1097
T7 S1165
S1165
T1 S1098
T6 S1166
T11 S1167
T16 S1168
S1166
T1 S1100
S1167
T1 S1101
S1168
T1 S1102
S1169
T1 S1103
S1170
T1 S1104
S1171
T1 S1105
T9 S1146
T6 S1150
T11 S1155
T16 S1161
S1172
T1 S1106
T16 S1124
T20 S1144
S1173
T1 S1107
T5 S1123
S1174
T1 S1108
S1175
T14 S860
T1 S1110
T4 S1173
S1176
T5 S1175
T1 S1177
S1177
T5 S1110
S1178
T5 S1042
S1179
T5 S1064
S1180
T5 S1087
T1 S1178
S1181
T5 S1094
T1 S1179
S1182
T1 S1183
S1183
S1184
T4 S1180
T1 S1185
S1185
T4 S1178
S1186
T4 S1181
T1 S1187
S1187
T4 S1179
S1188
T1 S725
T5 S1146
T11 S1189
T16 S1190
S1189
T5 S1156
T1 S1180
S1190
T5 S1162
T1 S1181
S1191
T1 S1182
S1192
T1 S1184
T4 S1189
S1193
T1 S1186
T4 S1190
S1194
T5 S1192
T1 S1195
S1195
T5 S1184
S1196
T5 S1193
T1 S1197
S1197
T5 S1186
S1198
T10 S726
T5 S912
T15 S927
S1199
S1200
T2 S681
T1 S686
T16 S804
T5 S910
T19 S1201
S1201
T10 S725
T5 S911
T15 S926
T1 S1198
S1202
T1 S1199
S1203
T16 S862
T5 S1144
T1 S1200
T19 S1204
S1204
T15 S1003
T5 S1145
T10 S1188
T1 S1201
S1205
T1 S1202
S1206
T5 S861
T1 S1207
S1207
T5 S803
S1208
T1 S659
T15 S854
T10 S1209
T20 S1234
S1209
T20 S293
T1 S660
T2 S1210
T11 S1232
T16 S1233
S1210
T20 S294
T1 S661
T3 S1211
S1211
T20 S290
T1 S662
T2 S1212
T11 S1213
T16 S1220
S1212
T20 S286
T1 S663
S1213
T1 S664
T20 S1214
S1214
T1 S665
T4 S1215
S1215
T1 S666
T5 S1216
S1216
T1 S344
T12 S1217
S1217
T1 S345
T13 S655
T2 S1218
T16 S1219
S1218
T1 S346
T13 S608
S1219
T1 S372
T13 S524
S1220
T1 S667
T20 S1221
S1221
T1 S668
T4 S1222
S1222
T1 S669
T5 S1223
S1223
T1 S384
T17 S1224
S1224
T1 S385
T2 S1225
T6 S1226
T11 S1231
S1225
T1 S386
S1226
T1 S387
T7 S1227
S1227
T1 S388
T2 S1228
T6 S1229
T11 S1230
S1228
T1 S389
S1229
T1 S390
S1230
T1 S391
S1231
T1 S392
S1232
T20 S344
T1 S670
S1233
T20 S384
T1 S671
S1234
T1 S278
T10 S293
T15 S687
S1235
T15 S1106
T1 S1208
T10 S1236
T20 S1270
S1236
T1 S1209
T2 S1237
T20 S1271
T11 S1381
T16 S1428
S1237
T1 S1210
T3 S1238
T20 S1272
S1238
T20 S289
T1 S1211
T11 S1239
T16 S1569
S1239
T1 S1213
T20 S1240
S1240
T1 S1214
T4 S1241
S1241
T1 S1215
T5 S1242
S1242
T1 S1216
T12 S1243
S1243
T1 S1217
T13 S1244
T16 S1568
S1244
T16 S594
T1 S655
T6 S1245
T14 S1562
T19 S1564
S1245
T1 S653
T7 S1246
S1246
T1 S646
T6 S1247
T16 S1252
T8 S1257
T14 S1258
S1247
T1 S647
T8 S1248
S1248
T1 S648
T9 S1245
T7 S1249
S1249
T1 S649
T9 S1246
T6 S1250
T16 S1251
S1250
T1 S651
T9 S1247
S1251
T1 S652
T9 S1252
S1252
T17 S603
T1 S639
T8 S1253
T14 S1254
S1253
T9 S594
T1 S640
S1254
T1 S641
T20 S1255
S1255
T17 S599
T1 S642
T8 S1256
S1256
T9 S596
T1 S643
S1257
T1 S654
T9 S1244
T6 S1248
T16 S1253
S1258
T16 S1254
T1 S1259
T20 S1454
S1259
T1 S575
T2 S619
T16 S641
T20 S1260
S1260
T1 S576
T2 S620
T16 S642
T6 S1261
T8 S1268
S1261
T1 S577
T8 S1262
S1262
T1 S578
T7 S1263
T9 S1267
S1263
T1 S579
T9 S1260
T2 S1264
T6 S1265
T16 S1266
S1264
T1 S580
T9 S620
S1265
T1 S581
T9 S1261
S1266
T1 S582
T9 S642
S1267
T1 S583
T7 S1260
S1268
T1 S584
T2 S621
T16 S643
T6 S1262
T9 S1269
S1269
T1 S255
T16 S364
T2 S611
T6 S1267
T19 S1270
S1270
T15 S910
T1 S1234
T10 S1271
S1271
T1 S293
T11 S1216
T16 S1223
T2 S1272
T6 S1273
T19 S1289
S1272
T3 S289
T1 S294
S1273
T1 S295
T7 S1274
S1274
T1 S333
T2 S1275
T6 S1277
T11 S1283
T16 S1286
T8 S1288
S1275
T1 S334
T8 S1276
S1276
T1 S335
T9 S1272
S1277
T1 S336
T8 S1278
S1278
T1 S337
T9 S1273
T7 S1279
S1279
T1 S338
T9 S1274
T2 S1280
T6 S1281
T11 S1282
T16 S1285
S1280
T1 S339
T9 S1275
S1281
T1 S340
T9 S1277
S1282
T1 S341
T9 S1283
S1283
T1 S342
T8 S1284
S1284
T1 S343
T9 S1216
S1285
T1 S381
T9 S1286
S1286
T1 S382
T17 S1227
T8 S1287
S1287
T1 S383
T9 S1223
S1288
T1 S393
T9 S1271
T2 S1276
T6 S1278
T11 S1284
T16 S1287
S1289
T1 S394
T15 S1027
T10 S1290
S1290
T1 S410
T2 S1291
T6 S1292
T11 S1372
T16 S1444
S1291
T3 S406
T1 S411
S1292
T1 S412
T7 S1293
S1293
T1 S1294
T2 S1362
T6 S1364
T11 S1370
T16 S1442
T8 S1453
S1294
T1 S414
T2 S1295
T6 S1297
T11 S1303
T16 S1349
T8 S1360
S1295
T1 S415
T8 S1296
S1296
T9 S411
T1 S416
S1297
T1 S417
T8 S1298
S1298
T9 S412
T1 S418
T7 S1299
S1299
T1 S419
T9 S1294
T2 S1300
T6 S1301
T11 S1302
T16 S1336
S1300
T1 S420
T9 S1295
S1301
T1 S421
T9 S1297
S1302
T1 S422
T9 S1303
S1303
T1 S423
T8 S1304
S1304
T1 S424
T9 S1305
S1305
T1 S425
T12 S1306
S1306
T1 S426
T13 S441
T2 S1307
T11 S1309
T16 S1316
S1307
T1 S427
T13 S1308
S1308
T1 S428
T3 S438
T14 S1210
S1309
T1 S1310
T13 S1311
S1310
T13 S456
S1311
T1 S456
T14 S1232
T12 S1312
S1312
T1 S457
T13 S472
T2 S1313
T16 S1314
S1313
T1 S458
T13 S514
S1314
T13 S550
T1 S1315
S1315
T13 S490
S1316
T1 S1317
T13 S1327
S1317
T13 S1318
S1318
T14 S671
T17 S1319
S1319
T2 S1320
T6 S1321
T11 S1326
S1320
S1321
T7 S1322
S1322
T2 S1323
T6 S1324
T11 S1325
S1323
S1324
S1325
S1326
S1327
T14 S1233
T1 S1318
T17 S1328
S1328
T1 S1319
T2 S1329
T6 S1330
T11 S1335
S1329
T1 S1320
S1330
T1 S1321
T7 S1331
S1331
T1 S1322
T2 S1332
T6 S1333
T11 S1334
S1332
T1 S1323
S1333
T1 S1324
S1334
T1 S1325
S1335
T1 S1326
S1336
T1 S1337
T9 S1349
S1337
T9 S1338
S1338
T8 S1339
T17 S1344
S1339
T9 S1340
S1340
T17 S1341
S1341
T2 S1342
T6 S1343
T11 S1348
S1342
S1343
T7 S1344
S1344
T2 S1345
T6 S1346
T11 S1347
S1345
S1346
S1347
S1348
S1349
T1 S1338
T8 S1350
T17 S1355
S1350
T1 S1339
T9 S1351
S1351
T1 S1340
T17 S1352
S1352
T1 S1341
T2 S1353
T6 S1354
T11 S1359
S1353
T1 S1342
S1354
T1 S1343
T7 S1355
S1355
T1 S1344
T2 S1356
T6 S1357
T11 S1358
S1356
T1 S1345
S1357
T1 S1346
S1358
T1 S1347
S1359
T1 S1348
S1360
T9 S410
T2 S1296
T6 S1298
T11 S1304
T16 S1350
T1 S1361
S1361
T9 S396
T2 S416
T6 S418
T11 S424
T16 S1339
S1362
T1 S1295
T8 S1363
S1363
T9 S1291
T1 S1296
S1364
T1 S1297
T8 S1365
S1365
T9 S1292
T1 S1298
T7 S1366
S1366
T9 S1293
T1 S1299
T2 S1367
T6 S1368
T11 S1369
T16 S1441
S1367
T1 S1300
T9 S1362
S1368
T1 S1301
T9 S1364
S1369
T1 S1302
T9 S1370
S1370
T1 S1303
T8 S1371
S1371
T1 S1304
T9 S1372
S1372
T1 S1305
T12 S1373
S1373
T1 S1306
T2 S1374
T11 S1376
T13 S1382
T16 S1440
S1374
T1 S1307
T13 S1375
S1375
T3 S437
T14 S1237
T1 S1308
S1376
T1 S1309
T13 S1377
S1377
T1 S1311
T12 S1378
T14 S1381
S1378
T13 S587
T1 S1312
T2 S1379
T16 S1380
S1379
T13 S588
T1 S1313
S1380
T13 S630
T1 S1314
S1381
T20 S1216
T1 S1232
S1382
T1 S441
T14 S1236
T2 S1375
T11 S1377
T6 S1383
T16 S1427
S1383
T1 S1384
T7 S1411
S1384
T1 S443
T7 S1385
S1385
T1 S444
T2 S1386
T6 S1389
T11 S1395
T16 S1404
T8 S1407
T14 S1409
S1386
T1 S445
T8 S1387
T14 S1388
S1387
T1 S446
T9 S1308
S1388
T20 S334
T1 S447
S1389
T1 S448
T8 S1390
S1390
T1 S449
T9 S1384
T7 S1391
S1391
T1 S450
T9 S1385
T2 S1392
T6 S1393
T11 S1394
T16 S1399
S1392
T1 S451
T9 S1386
S1393
T1 S452
T9 S1389
S1394
T1 S453
T9 S1395
S1395
T1 S454
T8 S1396
T14 S1397
S1396
T1 S455
T9 S1311
S1397
T20 S342
T1 S1398
S1398
T20 S306
S1399
T1 S1400
T9 S1404
S1400
T9 S1401
S1401
T17 S1322
T8 S1402
T14 S1403
S1402
T9 S1318
S1403
T20 S321
S1404
T17 S1331
T1 S1401
T8 S1405
T14 S1406
S1405
T9 S1327
T1 S1402
S1406
T20 S382
T1 S1403
S1407
T9 S441
T2 S1387
T6 S1390
T11 S1396
T16 S1405
T1 S1408
S1408
T9 S442
T2 S446
T6 S449
T11 S455
T16 S1402
S1409
T20 S333
T2 S1388
T11 S1397
T16 S1406
T1 S1410
S1410
T20 S297
T2 S447
T11 S1398
T16 S1403
S1411
T1 S1385
T2 S1412
T6 S1415
T11 S1421
T16 S1425
T8 S1438
T14 S1439
S1412
T1 S1386
T8 S1413
T14 S1414
S1413
T9 S1375
T1 S1387
S1414
T20 S1275
T1 S1388
S1415
T1 S1389
T8 S1416
S1416
T9 S1383
T1 S1390
T7 S1417
S1417
T1 S1391
T9 S1411
T2 S1418
T6 S1419
T11 S1420
T16 S1424
S1418
T1 S1392
T9 S1412
S1419
T1 S1393
T9 S1415
S1420
T1 S1394
T9 S1421
S1421
T1 S1395
T8 S1422
T14 S1423
S1422
T9 S1377
T1 S1396
S1423
T20 S1283
T1 S1397
S1424
T1 S1399
T9 S1425
S1425
T1 S1404
T8 S1426
T17 S1432
T14 S1437
S1426
T1 S1405
T9 S1427
S1427
T1 S1327
T14 S1428
T17 S1429
S1428
T20 S1223
T1 S1233
S1429
T1 S1328
T2 S1430
T6 S1431
T11 S1436
S1430
T1 S1329
S1431
T1 S1330
T7 S1432
S1432
T1 S1331
T2 S1433
T6 S1434
T11 S1435
S1433
T1 S1332
S1434
T1 S1333
S1435
T1 S1334
S1436
T1 S1335
S1437
T20 S1286
T1 S1406
S1438
T9 S1382
T1 S1407
T2 S1413
T6 S1416
T11 S1422
T16 S1426
S1439
T20 S1274
T1 S1409
T2 S1414
T11 S1423
T16 S1437
S1440
T1 S1316
T13 S1427
S1441
T1 S1336
T9 S1442
S1442
T1 S1349
T8 S1443
T17 S1448
S1443
T1 S1350
T9 S1444
S1444
T1 S1351
T17 S1445
S1445
T1 S1352
T2 S1446
T6 S1447
T11 S1452
S1446
T1 S1353
S1447
T1 S1354
T7 S1448
S1448
T1 S1355
T2 S1449
T6 S1450
T11 S1451
S1449
T1 S1356
S1450
T1 S1357
S1451
T1 S1358
S1452
T1 S1359
S1453
T9 S1290
T1 S1360
T2 S1363
T6 S1365
T11 S1371
T16 S1443
S1454
T16 S1255
T1 S1260
T6 S1455
T8 S1461
S1455
T1 S1261
T8 S1456
S1456
T1 S1262
T7 S1457
T9 S1460
S1457
T1 S1263
T9 S1454
T6 S1458
T16 S1459
S1458
T1 S1265
T9 S1455
S1459
T9 S1255
T1 S1266
S1460
T1 S1267
T7 S1454
S1461
T16 S1256
T1 S1268
T6 S1456
T9 S1462
S1462
T16 S596
T1 S1269
T6 S1460
T19 S1463
S1463
T15 S1144
T1 S1270
T10 S1464
S1464
T11 S1242
T1 S1271
T6 S1465
T16 S1477
T19 S1485
S1465
T1 S1273
T7 S1466
S1466
T1 S1274
T6 S1467
T11 S1472
T16 S1475
T8 S1484
S1467
T1 S1277
T8 S1468
S1468
T1 S1278
T9 S1465
T7 S1469
S1469
T1 S1279
T9 S1466
T6 S1470
T11 S1471
T16 S1474
S1470
T1 S1281
T9 S1467
S1471
T1 S1282
T9 S1472
S1472
T1 S1283
T8 S1473
S1473
T9 S1242
T1 S1284
S1474
T1 S1285
T9 S1475
S1475
T1 S1286
T8 S1476
T17 S1480
S1476
T1 S1287
T9 S1477
S1477
T1 S1223
T17 S1478
S1478
T1 S1224
T6 S1479
T11 S1483
S1479
T1 S1226
T7 S1480
S1480
T1 S1227
T6 S1481
T11 S1482
S1481
T1 S1229
S1482
T1 S1230
S1483
T1 S1231
S1484
T1 S1288
T9 S1464
T6 S1468
T11 S1473
T16 S1476
S1485
T15 S1146
T1 S1289
T10 S1486
S1486
T1 S1290
T6 S1487
T11 S1496
T16 S1554
S1487
T1 S1292
T7 S1488
S1488
T1 S1293
T6 S1489
T11 S1494
T16 S1552
T8 S1561
S1489
T1 S1364
T8 S1490
S1490
T1 S1365
T9 S1487
T7 S1491
S1491
T1 S1366
T9 S1488
T6 S1492
T11 S1493
T16 S1551
S1492
T1 S1368
T9 S1489
S1493
T1 S1369
T9 S1494
S1494
T1 S1370
T8 S1495
S1495
T1 S1371
T9 S1496
S1496
T1 S1372
T12 S1497
S1497
T1 S1373
T11 S1498
T13 S1524
T16 S1550
S1498
T1 S1376
T13 S1499
S1499
T1 S1377
T12 S1500
T14 S1523
S1500
T1 S1378
T13 S1501
T16 S1522
S1501
T1 S587
T6 S1502
T16 S1511
T14 S1520
S1502
T1 S612
T7 S1503
S1503
T1 S613
T6 S1504
T16 S1509
T8 S1518
T14 S1519
S1504
T1 S622
T8 S1505
S1505
T1 S623
T9 S1502
T7 S1506
S1506
T1 S624
T9 S1503
T6 S1507
T16 S1508
S1507
T1 S626
T9 S1504
S1508
T1 S627
T9 S1509
S1509
T1 S628
T8 S1510
T17 S1515
T14 S1517
S1510
T1 S629
T9 S1511
S1511
T1 S630
T14 S1512
T17 S1513
S1512
T20 S594
T1 S631
S1513
T1 S632
T6 S1514
S1514
T1 S634
T7 S1515
S1515
T1 S635
T6 S1516
S1516
T1 S637
S1517
T1 S638
T20 S1252
S1518
T1 S644
T9 S1501
T6 S1505
T16 S1510
S1519
T1 S645
T20 S1246
T16 S1517
S1520
T20 S1244
T16 S1512
T1 S1521
S1521
T1 S585
T2 S589
T16 S631
T20 S655
S1522
T1 S1380
T13 S1511
S1523
T20 S1242
T1 S1381
S1524
T1 S1382
T11 S1499
T6 S1525
T16 S1538
T14 S1549
S1525
T1 S1383
T7 S1526
S1526
T1 S1411
T6 S1527
T11 S1532
T16 S1536
T8 S1547
T14 S1548
S1527
T1 S1415
T8 S1528
S1528
T1 S1416
T9 S1525
T7 S1529
S1529
T1 S1417
T9 S1526
T6 S1530
T11 S1531
T16 S1535
S1530
T1 S1419
T9 S1527
S1531
T1 S1420
T9 S1532
S1532
T1 S1421
T8 S1533
T14 S1534
S1533
T1 S1422
T9 S1499
S1534
T1 S1423
T20 S1472
S1535
T1 S1424
T9 S1536
S1536
T1 S1425
T8 S1537
T17 S1542
T14 S1546
S1537
T1 S1426
T9 S1538
S1538
T1 S1427
T14 S1539
T17 S1540
S1539
T1 S1428
T20 S1477
S1540
T1 S1429
T6 S1541
T11 S1545
S1541
T1 S1431
T7 S1542
S1542
T1 S1432
T6 S1543
T11 S1544
S1543
T1 S1434
S1544
T1 S1435
S1545
T1 S1436
S1546
T1 S1437
T20 S1475
S1547
T1 S1438
T9 S1524
T6 S1528
T11 S1533
T16 S1537
S1548
T1 S1439
T20 S1466
T11 S1534
T16 S1546
S1549
T1 S1236
T20 S1464
T11 S1523
T16 S1539
S1550
T1 S1440
T13 S1538
S1551
T1 S1441
T9 S1552
S1552
T1 S1442
T8 S1553
T17 S1557
S1553
T1 S1443
T9 S1554
S1554
T1 S1444
T17 S1555
S1555
T1 S1445
T6 S1556
T11 S1560
S1556
T1 S1447
T7 S1557
S1557
T1 S1448
T6 S1558
T11 S1559
S1558
T1 S1450
S1559
T1 S1451
S1560
T1 S1452
S1561
T1 S1453
T9 S1486
T6 S1490
T11 S1495
T16 S1553
S1562
T16 S595
T1 S656
T20 S1462
T19 S1563
S1563
T15 S1172
T1 S1235
T20 S1463
T10 S1549
S1564
T15 S1113
T10 S1524
T14 S1563
T1 S1565
S1565
T15 S856
T14 S1235
T10 S1382
T1 S1566
S1566
T10 S441
T15 S758
T14 S1208
T1 S1567
S1567
T10 S442
T14 S659
T15 S759
S1568
T13 S594
T1 S1219
S1569
T1 S1220
T20 S1570
S1570
T1 S1221
T4 S1571
S1571
T1 S1222
T5 S1477
S1572
T1 S586
T5 S630
S1573
T1 S1574
S1574
S1575
T14 S518
T4 S1572
T1 S1576
S1576
T14 S519
T4 S586
S1577
T1 S470
T5 S1501
T16 S1578
S1578
T5 S1511
T1 S1572
S1579
T1 S1573
S1580
T14 S591
T1 S1575
T4 S1578
S1581
T5 S1580
T1 S1582
S1582
T5 S1575
S1583
T5 S1311
S1584
T5 S1327
S1585
T5 S1377
T1 S1583
S1586
T5 S1427
T1 S1584
S1587
T1 S1588
S1588
S1589
T14 S1213
T4 S1585
T1 S1590
S1590
T14 S664
T4 S1583
S1591
T14 S1220
T4 S1586
T1 S1592
S1592
T14 S667
T4 S1584
S1593
T1 S439
T5 S1524
T11 S1594
T16 S1595
S1594
T5 S1499
T1 S1585
S1595
T5 S1538
T1 S1586
S1596
T1 S1587
S1597
T14 S1239
T1 S1589
T4 S1594
S1598
T14 S1569
T1 S1591
T4 S1595
S1599
T5 S1597
T1 S1600
S1600
T5 S1589
S1601
T5 S1598
T1 S1602
S1602
T5 S1591
S1603
T5 S1305
S1604
T5 S1351
S1605
T5 S1372
T1 S1603
S1606
T5 S1444
T1 S1604
S1607
T1 S1608
S1608
S1609
T4 S1605
T1 S1610
S1610
T4 S1603
S1611
T4 S1606
T1 S1612
S1612
T4 S1604
S1613
T1 S408
T5 S1486
T11 S1614
T16 S1615
S1614
T5 S1496
T1 S1605
S1615
T5 S1554
T1 S1606
S1616
T1 S1607
S1617
T1 S1609
T4 S1614
S1618
T1 S1611
T4 S1615
S1619
T5 S1617
T1 S1620
S1620
T5 S1609
S1621
T5 S1618
T1 S1622
S1622
T5 S1611
S1623
T5 S394
T10 S409
T15 S726
S1624
T10 S408
T15 S725
T5 S1289
T1 S1623
S1625
T1 S1626
S1626
S1627
T1 S291
T11 S1241
T5 S1464
T16 S1571
T19 S1628
S1628
T15 S1188
T5 S1485
T10 S1613
T1 S1624
S1629
T1 S1625
S1630
T5 S1240
T1 S1631
S1631
T5 S1214
S1632
T5 S1570
T1 S1633
S1633
T5 S1221
S1634
T10 S292
T15 S686
T5 S1234
S1635
S1636
T2 S249
T1 S254
T16 S363
T5 S1269
T19 S1637
S1637
T10 S291
T15 S1200
T5 S1270
T1 S1634
S1638
T1 S1635
S1639
T16 S607
T5 S1462
T1 S1636
T19 S1640
S1640
T15 S1203
T5 S1463
T10 S1627
T1 S1637
S1641
T1 S1638
S1642
T5 S606
T1 S1643
S1643
T5 S362
S1644
T10 S440
T15 S757
T5 S1566
S1645
S1646
T2 S232
T1 S237
T16 S523
T5 S655
T19 S1647
S1647
T10 S439
T15 S756
T5 S1565
T1 S1644
S1648
T1 S1645
S1649
T16 S593
T5 S1244
T1 S1646
T19 S1650
S1650
T15 S1112
T5 S1564
T10 S1593
T1 S1647
S1651
T1 S1648
S1652
T5 S592
T1 S1653
S1653
T5 S522
S1654
T14 S93
T10 S158
T15 S239
S1655
T14 S206
T15 S473
T10 S1656
S1656
T14 S207
T2 S1657
T11 S2021
T6 S2159
S1657
T14 S208
T3 S1658
S1658
T14 S209
T2 S1659
T4 S1669
T6 S2373
T11 S2375
S1659
T14 S210
T4 S1660
S1660
T3 S1661
T5 S1671
S1661
T2 S1662
T5 S1667
T11 S2381
S1662
T5 S1663
S1663
T1 S1659
T4 S1664
T14 S1674
S1664
T1 S1660
T3 S1665
T5 S2151
S1665
T1 S1661
T5 S1666
T11 S2380
S1666
T1 S1667
T14 S1852
T4 S2376
T6 S2378
T11 S2379
S1667
T1 S1658
T2 S1663
T4 S1668
T14 S1673
T6 S2372
T11 S2374
S1668
T2 S1664
T1 S1669
T5 S2156
T11 S2371
S1669
T2 S1660
T5 S1670
T11 S2370
S1670
T1 S1656
T2 S1671
T14 S1846
T11 S2125
T6 S2158
S1671
T1 S1657
T3 S1667
T14 S1672
S1672
T1 S208
T3 S1673
T20 S1774
S1673
T20 S154
T1 S209
T2 S1674
T11 S1675
S1674
T20 S150
T1 S210
S1675
T1 S211
T20 S1676
S1676
T1 S212
T4 S1677
T14 S1756
S1677
T1 S213
T5 S1678
S1678
T1 S214
T12 S1679
T14 S1819
S1679
T1 S215
T2 S1680
T13 S1688
S1680
T1 S216
T13 S1681
S1681
T3 S184
T1 S217
T14 S1682
S1682
T1 S218
T3 S1683
T20 S1684
S1683
T20 S61
T1 S219
S1684
T3 S61
T1 S104
T14 S1685
S1685
T1 S105
T3 S1686
T20 S1687
S1686
T20 S13
T1 S106
S1687
T3 S13
T1 S108
S1688
T1 S188
T2 S1681
T6 S1689
T14 S1843
T19 S2366
S1689
T1 S1690
T7 S1724
S1690
T1 S190
T7 S1691
S1691
T1 S191
T2 S1692
T6 S1700
T8 S1705
T14 S1706
S1692
T1 S192
T8 S1693
T14 S1694
S1693
T1 S193
T9 S217
S1694
T1 S194
T20 S1695
S1695
T1 S69
T8 S1696
T14 S1697
S1696
T1 S70
T9 S104
S1697
T1 S71
T20 S1698
S1698
T1 S72
T8 S1699
S1699
T1 S73
T9 S108
S1700
T1 S195
T8 S1701
S1701
T1 S196
T9 S1690
T7 S1702
S1702
T1 S197
T9 S1691
T2 S1703
T6 S1704
S1703
T1 S198
T9 S1692
S1704
T1 S199
T9 S1700
S1705
T9 S188
T1 S200
T2 S1693
T6 S1701
S1706
T1 S201
T2 S1694
T20 S1707
S1707
T1 S68
T2 S1695
T6 S1708
T8 S1714
T14 S1715
S1708
T1 S74
T8 S1709
S1709
T1 S75
T7 S1710
T9 S1713
S1710
T1 S76
T9 S1707
T2 S1711
T6 S1712
S1711
T1 S77
T9 S1695
S1712
T1 S78
T9 S1708
S1713
T1 S67
T7 S1707
S1714
T9 S65
T1 S79
T2 S1696
T6 S1709
S1715
T1 S80
T2 S1697
T20 S1716
S1716
T1 S81
T2 S1698
T6 S1717
T8 S1723
S1717
T1 S82
T8 S1718
S1718
T1 S83
T7 S1719
T9 S1722
S1719
T1 S84
T9 S1716
T2 S1720
T6 S1721
S1720
T1 S85
T9 S1698
S1721
T1 S86
T9 S1717
S1722
T1 S87
T7 S1716
S1723
T9 S2
T1 S88
T2 S1699
T6 S1718
S1724
T1 S1691
T2 S1725
T6 S1733
T8 S1738
T14 S1739
S1725
T1 S1692
T8 S1726
T14 S1727
S1726
T9 S1681
T1 S1693
S1727
T1 S1694
T20 S1728
S1728
T1 S1695
T8 S1729
T14 S1730
S1729
T9 S1684
T1 S1696
S1730
T1 S1697
T20 S1731
S1731
T1 S1698
T8 S1732
S1732
T9 S1687
T1 S1699
S1733
T1 S1700
T8 S1734
S1734
T9 S1689
T1 S1701
T7 S1735
S1735
T1 S1702
T9 S1724
T2 S1736
T6 S1737
S1736
T1 S1703
T9 S1725
S1737
T1 S1704
T9 S1733
S1738
T9 S1688
T1 S1705
T2 S1726
T6 S1734
S1739
T1 S1706
T2 S1727
T20 S1740
S1740
T1 S1707
T2 S1728
T6 S1741
T8 S1747
T14 S1799
S1741
T1 S1708
T8 S1742
S1742
T1 S1709
T7 S1743
T9 S1746
S1743
T1 S1710
T9 S1740
T2 S1744
T6 S1745
S1744
T1 S1711
T9 S1728
S1745
T1 S1712
T9 S1741
S1746
T1 S1713
T7 S1740
S1747
T1 S1714
T2 S1729
T6 S1742
T9 S1748
S1748
T1 S65
T2 S1684
T6 S1746
T14 S1749
T19 S2362
S1749
T20 S1
T2 S1685
T1 S1750
T19 S1817
S1750
T20 S2
T1 S89
T2 S105
T19 S1751
S1751
T20 S18
T1 S93
T15 S657
T10 S1752
S1752
T20 S34
T1 S94
T11 S221
T2 S1753
T19 S1762
S1753
T20 S35
T1 S95
T3 S1754
S1754
T20 S31
T1 S96
T2 S1755
T11 S1756
S1755
T20 S27
T1 S97
S1756
T1 S98
T20 S1757
S1757
T1 S99
T4 S1758
S1758
T1 S100
T5 S1759
S1759
T1 S101
T12 S1760
S1760
T1 S102
T13 S1748
T2 S1761
S1761
T1 S103
T13 S1684
S1762
T1 S110
T15 S1209
T10 S1763
T20 S1922
S1763
T1 S111
T20 S126
T2 S1764
T11 S2128
S1764
T1 S112
T3 S1765
T20 S1926
S1765
T1 S113
T20 S123
T2 S1766
T11 S1767
S1766
T1 S114
T20 S119
S1767
T1 S1768
T20 S1777
S1768
T20 S1769
S1769
T4 S1770
S1770
T5 S1771
S1771
T1 S141
T12 S1772
S1772
T1 S142
T13 S157
T2 S1773
T11 S1775
S1773
T1 S143
T13 S1774
S1774
T1 S144
T3 S154
T14 S1753
S1775
T13 S214
T1 S1776
S1776
T13 S172
S1777
T1 S1769
T4 S1778
S1778
T1 S1770
T5 S1779
S1779
T1 S1771
T12 S1780
S1780
T1 S1772
T2 S1781
T11 S1830
T13 S1857
S1781
T1 S1773
T13 S1782
S1782
T3 S153
T1 S1774
T14 S1783
S1783
T1 S1753
T3 S1784
T20 S1897
S1784
T20 S30
T1 S1754
T11 S1785
S1785
T1 S1756
T20 S1786
S1786
T1 S1757
T4 S1787
S1787
T1 S1758
T5 S1788
S1788
T1 S1759
T12 S1789
S1789
T1 S1760
T13 S1790
S1790
T1 S1748
T6 S1791
T14 S1815
T19 S2364
S1791
T1 S1746
T7 S1792
S1792
T1 S1740
T6 S1793
T8 S1797
T14 S1798
S1793
T1 S1741
T8 S1794
S1794
T1 S1742
T9 S1791
T7 S1795
S1795
T1 S1743
T9 S1792
T6 S1796
S1796
T1 S1745
T9 S1793
S1797
T1 S1747
T9 S1790
T6 S1794
S1798
T1 S1799
T20 S1808
S1799
T1 S1715
T2 S1730
T20 S1800
S1800
T1 S1716
T2 S1731
T6 S1801
T8 S1807
S1801
T1 S1717
T8 S1802
S1802
T1 S1718
T7 S1803
T9 S1806
S1803
T1 S1719
T9 S1800
T2 S1804
T6 S1805
S1804
T1 S1720
T9 S1731
S1805
T1 S1721
T9 S1801
S1806
T1 S1722
T7 S1800
S1807
T9 S1
T1 S1723
T2 S1732
T6 S1802
S1808
T1 S1800
T6 S1809
T8 S1814
S1809
T1 S1801
T8 S1810
S1810
T1 S1802
T7 S1811
T9 S1813
S1811
T1 S1803
T9 S1808
T6 S1812
S1812
T1 S1805
T9 S1809
S1813
T1 S1806
T7 S1808
S1814
T9 S0
T1 S1807
T6 S1810
S1815
T20 S0
T1 S1749
T19 S1816
S1816
T15 S1562
T1 S1817
T10 S2258
T20 S2369
S1817
T15 S656
T1 S1751
T10 S1818
T20 S2368
S1818
T1 S1752
T2 S1783
T11 S1819
T19 S1820
T20 S1920
S1819
T1 S221
T20 S1759
S1820
T15 S1236
T1 S1762
T10 S1821
T20 S1921
S1821
T1 S1763
T2 S1822
T20 S1924
T11 S2205
S1822
T1 S1764
T3 S1823
T20 S1925
S1823
T20 S122
T1 S1765
T11 S1824
S1824
T1 S1767
T20 S1825
S1825
T1 S1777
T4 S1826
S1826
T1 S1778
T5 S1827
S1827
T1 S1779
T12 S1828
S1828
T1 S1780
T11 S1829
T13 S2257
S1829
T1 S1830
T13 S1831
S1830
T13 S1678
T1 S1775
S1831
T1 S1678
T12 S1832
T14 S2259
S1832
T1 S1679
T13 S1833
S1833
T1 S1688
T6 S1834
T14 S1842
T19 S2365
S1834
T1 S1689
T7 S1835
S1835
T1 S1724
T6 S1836
T8 S1840
T14 S1841
S1836
T1 S1733
T8 S1837
S1837
T1 S1734
T9 S1834
T7 S1838
S1838
T1 S1735
T9 S1835
T6 S1839
S1839
T1 S1737
T9 S1836
S1840
T1 S1738
T9 S1833
T6 S1837
S1841
T1 S1739
T20 S1792
S1842
T20 S1790
T1 S1843
T19 S2363
S1843
T2 S1682
T20 S1748
T1 S1844
T19 S1849
S1844
T20 S65
T1 S202
T2 S218
T19 S1845
S1845
T1 S206
T15 S585
T10 S1846
T20 S1848
S1846
T20 S157
T1 S207
T2 S1672
T11 S1847
S1847
T20 S214
T1 S222
S1848
T10 S157
T15 S238
T1 S1654
T14 S1751
S1849
T15 S1521
T1 S1845
T10 S1850
T20 S2362
S1850
T1 S1846
T2 S1851
T11 S1856
T20 S1857
S1851
T1 S1672
T20 S1782
T3 S1852
S1852
T20 S153
T1 S1673
T11 S1853
S1853
T1 S1675
T20 S1854
S1854
T1 S1676
T14 S1785
T4 S1855
S1855
T1 S1677
T5 S1831
S1856
T20 S1678
T1 S1847
S1857
T1 S157
T11 S1678
T2 S1782
T14 S1818
T6 S1858
T19 S2337
S1858
T1 S1859
T7 S1891
S1859
T1 S159
T7 S1860
S1860
T1 S160
T2 S1861
T6 S1866
T11 S1872
T8 S1878
T14 S1880
S1861
T1 S161
T8 S1862
T14 S1863
S1862
T1 S162
T9 S1774
S1863
T1 S163
T20 S1864
S1864
T1 S39
T8 S1865
S1865
T9 S35
T1 S40
S1866
T1 S164
T8 S1867
S1867
T1 S165
T9 S1859
T7 S1868
S1868
T1 S166
T9 S1860
T2 S1869
T6 S1870
T11 S1871
S1869
T1 S167
T9 S1861
S1870
T1 S168
T9 S1866
S1871
T1 S169
T9 S1872
S1872
T1 S170
T8 S1873
T14 S1874
S1873
T1 S171
T9 S214
S1874
T1 S1875
T20 S1876
S1875
T20 S47
S1876
T1 S47
T8 S1877
S1877
T1 S48
T9 S101
S1878
T9 S157
T2 S1862
T6 S1867
T11 S1873
T1 S1879
S1879
T9 S158
T2 S162
T6 S165
T11 S171
S1880
T2 S1863
T11 S1874
T1 S1881
T20 S1882
S1881
T20 S38
T2 S163
T11 S1875
S1882
T1 S38
T2 S1864
T11 S1876
T6 S1883
T8 S1889
S1883
T1 S41
T8 S1884
S1884
T9 S36
T1 S42
T7 S1885
S1885
T1 S43
T9 S1882
T2 S1886
T6 S1887
T11 S1888
S1886
T1 S44
T9 S1864
S1887
T1 S45
T9 S1883
S1888
T1 S46
T9 S1876
S1889
T9 S34
T2 S1865
T11 S1877
T6 S1884
T1 S1890
S1890
T9 S20
T2 S40
T6 S42
T11 S48
S1891
T1 S1860
T2 S1892
T6 S1898
T11 S1904
T8 S1909
T14 S1910
S1892
T1 S1861
T8 S1893
T14 S1894
S1893
T9 S1782
T1 S1862
S1894
T1 S1863
T20 S1895
S1895
T1 S1864
T8 S1896
S1896
T1 S1865
T9 S1897
S1897
T3 S30
T1 S35
S1898
T1 S1866
T8 S1899
S1899
T9 S1858
T1 S1867
T7 S1900
S1900
T1 S1868
T9 S1891
T2 S1901
T6 S1902
T11 S1903
S1901
T1 S1869
T9 S1892
S1902
T1 S1870
T9 S1898
S1903
T1 S1871
T9 S1904
S1904
T1 S1872
T8 S1905
T14 S1906
S1905
T9 S1678
T1 S1873
S1906
T1 S1874
T20 S1907
S1907
T1 S1876
T8 S1908
S1908
T9 S1759
T1 S1877
S1909
T9 S1857
T1 S1878
T2 S1893
T6 S1899
T11 S1905
S1910
T1 S1880
T2 S1894
T11 S1906
T20 S1911
S1911
T1 S1882
T2 S1895
T11 S1907
T6 S1912
T8 S1919
S1912
T1 S1883
T8 S1913
S1913
T1 S1884
T7 S1914
T9 S1918
S1914
T1 S1885
T9 S1911
T2 S1915
T6 S1916
T11 S1917
S1915
T1 S1886
T9 S1895
S1916
T1 S1887
T9 S1912
S1917
T1 S1888
T9 S1907
S1918
T1 S36
T7 S1911
S1919
T1 S1889
T2 S1896
T11 S1908
T6 S1913
T9 S1920
S1920
T1 S34
T11 S1759
T2 S1897
T6 S1918
T19 S1921
S1921
T15 S1271
T1 S1922
T10 S1924
S1922
T10 S126
T15 S293
T1 S1923
S1923
T10 S127
T15 S279
S1924
T1 S126
T11 S1779
T2 S1925
T6 S1927
T19 S1954
S1925
T3 S122
T1 S1926
S1926
T3 S123
T1 S128
S1927
T1 S1928
T7 S1942
S1928
T1 S129
T7 S1929
S1929
T1 S130
T2 S1930
T6 S1932
T11 S1938
T8 S1940
S1930
T1 S131
T8 S1931
S1931
T1 S132
T9 S1926
S1932
T1 S133
T8 S1933
S1933
T1 S134
T9 S1928
T7 S1934
S1934
T1 S135
T9 S1929
T2 S1935
T6 S1936
T11 S1937
S1935
T1 S136
T9 S1930
S1936
T1 S137
T9 S1932
S1937
T1 S138
T9 S1938
S1938
T1 S139
T8 S1939
S1939
T1 S140
T9 S1771
S1940
T9 S126
T2 S1931
T6 S1933
T11 S1939
T1 S1941
S1941
T9 S127
T2 S132
T6 S134
T11 S140
S1942
T1 S1929
T2 S1943
T6 S1945
T11 S1951
T8 S1953
S1943
T1 S1930
T8 S1944
S1944
T9 S1925
T1 S1931
S1945
T1 S1932
T8 S1946
S1946
T9 S1927
T1 S1933
T7 S1947
S1947
T1 S1934
T9 S1942
T2 S1948
T6 S1949
T11 S1950
S1948
T1 S1935
T9 S1943
S1949
T1 S1936
T9 S1945
S1950
T1 S1937
T9 S1951
S1951
T1 S1938
T8 S1952
S1952
T9 S1779
T1 S1939
S1953
T9 S1924
T1 S1940
T2 S1944
T6 S1946
T11 S1952
S1954
T15 S1290
T1 S1955
T10 S2276
S1955
T15 S410
T1 S1956
T10 S1971
S1956
T15 S396
T10 S1957
S1957
T2 S1958
T6 S1974
T11 S1986
S1958
T3 S1959
S1959
T2 S1960
T4 S1970
T6 S2353
T11 S2355
S1960
T4 S1961
S1961
T3 S1962
T5 S1972
S1962
T2 S1963
T5 S1968
T11 S2361
S1963
T5 S1964
S1964
T1 S1960
T4 S1965
S1965
T1 S1961
T3 S1966
T5 S2277
S1966
T1 S1962
T5 S1967
T11 S2360
S1967
T1 S1968
T4 S2356
T6 S2358
T11 S2359
S1968
T1 S1959
T2 S1964
T4 S1969
T6 S2352
T11 S2354
S1969
T2 S1965
T1 S1970
T5 S2276
T11 S2351
S1970
T2 S1961
T5 S1971
T11 S2350
S1971
T1 S1957
T2 S1972
T6 S1973
T11 S2291
S1972
T1 S1958
T3 S1968
S1973
T1 S1974
T7 S2280
S1974
T7 S1975
S1975
T2 S1976
T6 S1978
T11 S1984
T8 S2297
S1976
T8 S1977
S1977
T9 S1958
S1978
T8 S1979
S1979
T9 S1974
T7 S1980
S1980
T9 S1975
T2 S1981
T6 S1982
T11 S1983
S1981
T9 S1976
S1982
T9 S1978
S1983
T9 S1984
S1984
T8 S1985
S1985
T9 S1986
S1986
T12 S1987
S1987
T2 S1988
T13 S2003
T11 S2295
S1988
T13 S1989
S1989
T14 S112
T3 S1990
S1990
T14 S113
T2 S1991
T4 S2001
T6 S2211
T11 S2213
S1991
T14 S114
T4 S1992
S1992
T3 S1993
T5 S2107
S1993
T2 S1994
T5 S1999
T11 S2349
S1994
T5 S1995
S1995
T14 S1766
T1 S1991
T4 S1996
S1996
T1 S1992
T3 S1997
T5 S2134
S1997
T1 S1993
T5 S1998
T11 S2348
S1998
T14 S1823
T1 S1999
T4 S2214
T6 S2346
T11 S2347
S1999
T14 S1765
T1 S1990
T2 S1995
T4 S2000
T6 S2210
T11 S2212
S2000
T2 S1996
T1 S2001
T5 S2133
T11 S2209
S2001
T2 S1992
T5 S2002
T11 S2132
S2002
T14 S1763
T1 S2003
T2 S2107
T6 S2108
T11 S2121
S2003
T14 S111
T2 S1989
T6 S2004
T11 S2017
S2004
T7 S2005
S2005
T2 S2006
T6 S2009
T11 S2015
T8 S2105
T14 S2106
S2006
T8 S2007
T14 S2008
S2007
T9 S1989
S2008
T20 S131
S2009
T8 S2010
S2010
T9 S2004
T7 S2011
S2011
T9 S2005
T2 S2012
T6 S2013
T11 S2014
S2012
T9 S2006
S2013
T9 S2009
S2014
T9 S2015
S2015
T8 S2016
T14 S2104
S2016
T9 S2017
S2017
T12 S2018
T14 S2103
S2018
T13 S1656
T2 S2019
T11 S2020
S2019
T13 S1657
S2020
T13 S2021
S2021
T14 S222
T12 S2022
S2022
T2 S2023
T13 S2038
S2023
T13 S2024
S2024
T3 S2025
T14 S2052
S2025
T2 S2026
T4 S2036
T14 S2053
T6 S2090
S2026
T4 S2027
T14 S2054
S2027
T3 S2028
T5 S2055
S2028
T2 S2029
T5 S2034
S2029
T5 S2030
S2030
T1 S2026
T4 S2031
T14 S2058
S2031
T1 S2027
T3 S2032
T5 S2073
S2032
T1 S2028
T5 S2033
S2033
T1 S2034
T14 S2075
T4 S2091
T6 S2102
S2034
T1 S2025
T2 S2030
T4 S2035
T14 S2057
T6 S2089
S2035
T2 S2031
T1 S2036
T5 S2072
S2036
T2 S2027
T5 S2037
S2037
T1 S2038
T2 S2055
T6 S2059
T14 S2071
S2038
T2 S2024
T6 S2039
T14 S2051
S2039
T7 S2040
S2040
T2 S2041
T6 S2044
T8 S2049
T14 S2050
S2041
T8 S2042
T14 S2043
S2042
T9 S2024
S2043
T20 S192
S2044
T8 S2045
S2045
T9 S2039
T7 S2046
S2046
T9 S2040
T2 S2047
T6 S2048
S2047
T9 S2041
S2048
T9 S2044
S2049
T9 S2038
T2 S2042
T6 S2045
S2050
T20 S191
T2 S2043
S2051
T20 S189
T2 S2052
S2052
T20 S175
T3 S2053
S2053
T20 S176
T2 S2054
S2054
T20 S177
S2055
T1 S2024
T3 S2034
T14 S2056
S2056
T20 S217
T1 S2052
T3 S2057
S2057
T20 S185
T1 S2053
T2 S2058
S2058
T20 S181
T1 S2054
S2059
T1 S2039
T7 S2060
S2060
T1 S2040
T2 S2061
T6 S2064
T8 S2069
T14 S2070
S2061
T1 S2041
T8 S2062
T14 S2063
S2062
T1 S2042
T9 S2055
S2063
T20 S1692
T1 S2043
S2064
T1 S2044
T8 S2065
S2065
T1 S2045
T9 S2059
T7 S2066
S2066
T1 S2046
T9 S2060
T2 S2067
T6 S2068
S2067
T1 S2047
T9 S2061
S2068
T1 S2048
T9 S2064
S2069
T9 S2037
T1 S2049
T2 S2062
T6 S2065
S2070
T20 S1691
T1 S2050
T2 S2063
S2071
T20 S188
T1 S2051
T2 S2056
S2072
T1 S2037
T2 S2073
T6 S2076
T14 S2088
S2073
T3 S2033
T1 S2055
T14 S2074
S2074
T20 S1681
T1 S2056
T3 S2075
S2075
T20 S184
T1 S2057
S2076
T1 S2059
T7 S2077
S2077
T1 S2060
T2 S2078
T6 S2081
T8 S2086
T14 S2087
S2078
T1 S2061
T8 S2079
T14 S2080
S2079
T1 S2062
T9 S2073
S2080
T20 S1725
T1 S2063
S2081
T1 S2064
T8 S2082
S2082
T1 S2065
T9 S2076
T7 S2083
S2083
T1 S2066
T9 S2077
T2 S2084
T6 S2085
S2084
T1 S2067
T9 S2078
S2085
T1 S2068
T9 S2081
S2086
T1 S2069
T9 S2072
T2 S2079
T6 S2082
S2087
T20 S1724
T1 S2070
T2 S2080
S2088
T20 S1688
T1 S2071
T2 S2074
S2089
T1 S2090
S2090
S2091
T1 S2035
T5 S2092
S2092
T1 S2072
T6 S2093
T14 S2101
S2093
T1 S2076
T7 S2094
S2094
T1 S2077
T6 S2095
T8 S2099
T14 S2100
S2095
T1 S2081
T8 S2096
S2096
T1 S2082
T9 S2093
T7 S2097
S2097
T1 S2083
T9 S2094
T6 S2098
S2098
T1 S2085
T9 S2095
S2099
T1 S2086
T9 S2092
T6 S2096
S2100
T20 S1835
T1 S2087
S2101
T20 S1833
T1 S2088
S2102
T1 S2089
S2103
T20 S141
S2104
T20 S139
S2105
T9 S2003
T2 S2007
T6 S2010
T11 S2016
S2106
T20 S130
T2 S2008
T11 S2104
S2107
T14 S1764
T1 S1989
T3 S1999
S2108
T1 S2004
T7 S2109
S2109
T1 S2005
T2 S2110
T6 S2113
T11 S2119
T8 S2130
T14 S2131
S2110
T1 S2006
T8 S2111
T14 S2112
S2111
T1 S2007
T9 S2107
S2112
T20 S1930
T1 S2008
S2113
T1 S2009
T8 S2114
S2114
T1 S2010
T9 S2108
T7 S2115
S2115
T1 S2011
T9 S2109
T2 S2116
T6 S2117
T11 S2118
S2116
T1 S2012
T9 S2110
S2117
T1 S2013
T9 S2113
S2118
T1 S2014
T9 S2119
S2119
T1 S2015
T8 S2120
T14 S2129
S2120
T1 S2016
T9 S2121
S2121
T1 S2017
T12 S2122
T14 S2128
S2122
T13 S1670
T1 S2018
T2 S2123
T11 S2124
S2123
T13 S1671
T1 S2019
S2124
T1 S2020
T13 S2125
S2125
T14 S1847
T1 S2021
T12 S2126
S2126
T1 S2022
T13 S2037
T2 S2127
S2127
T1 S2023
T13 S2055
S2128
T20 S1771
T1 S2103
S2129
T20 S1938
T1 S2104
S2130
T9 S2002
T1 S2105
T2 S2111
T6 S2114
T11 S2120
S2131
T20 S1929
T1 S2106
T2 S2112
T11 S2129
S2132
T5 S2121
S2133
T14 S1821
T1 S2002
T2 S2134
T6 S2135
T11 S2148
S2134
T14 S1822
T3 S1998
T1 S2107
S2135
T1 S2108
T7 S2136
S2136
T1 S2109
T2 S2137
T6 S2140
T11 S2146
T8 S2207
T14 S2208
S2137
T1 S2110
T8 S2138
T14 S2139
S2138
T1 S2111
T9 S2134
S2139
T20 S1943
T1 S2112
S2140
T1 S2113
T8 S2141
S2141
T1 S2114
T9 S2135
T7 S2142
S2142
T1 S2115
T9 S2136
T2 S2143
T6 S2144
T11 S2145
S2143
T1 S2116
T9 S2137
S2144
T1 S2117
T9 S2140
S2145
T1 S2118
T9 S2146
S2146
T1 S2119
T8 S2147
T14 S2206
S2147
T1 S2120
T9 S2148
S2148
T1 S2121
T12 S2149
T14 S2205
S2149
T1 S2122
T2 S2150
T11 S2152
T13 S2156
S2150
T1 S2123
T13 S2151
S2151
T3 S1666
T1 S1671
T14 S1851
S2152
T1 S2124
T13 S2153
S2153
T14 S1856
T1 S2125
T12 S2154
S2154
T13 S2072
T1 S2126
T2 S2155
S2155
T13 S2073
T1 S2127
S2156
T1 S1670
T14 S1850
T2 S2151
T11 S2153
T6 S2157
S2157
T1 S2158
T7 S2190
S2158
T1 S2159
T7 S2175
S2159
T7 S2160
S2160
T2 S2161
T6 S2164
T11 S2170
T8 S2173
T14 S2174
S2161
T8 S2162
T14 S2163
S2162
T9 S1657
S2163
T20 S161
S2164
T8 S2165
S2165
T9 S2159
T7 S2166
S2166
T9 S2160
T2 S2167
T6 S2168
T11 S2169
S2167
T9 S2161
S2168
T9 S2164
S2169
T9 S2170
S2170
T8 S2171
T14 S2172
S2171
T9 S2021
S2172
T20 S170
S2173
T9 S1656
T2 S2162
T6 S2165
T11 S2171
S2174
T20 S160
T2 S2163
T11 S2172
S2175
T1 S2160
T2 S2176
T6 S2179
T11 S2185
T8 S2188
T14 S2189
S2176
T1 S2161
T8 S2177
T14 S2178
S2177
T9 S1671
T1 S2162
S2178
T20 S1861
T1 S2163
S2179
T1 S2164
T8 S2180
S2180
T9 S2158
T1 S2165
T7 S2181
S2181
T1 S2166
T9 S2175
T2 S2182
T6 S2183
T11 S2184
S2182
T1 S2167
T9 S2176
S2183
T1 S2168
T9 S2179
S2184
T1 S2169
T9 S2185
S2185
T1 S2170
T8 S2186
T14 S2187
S2186
T9 S2125
T1 S2171
S2187
T20 S1872
T1 S2172
S2188
T9 S1670
T1 S2173
T2 S2177
T6 S2180
T11 S2186
S2189
T20 S1860
T1 S2174
T2 S2178
T11 S2187
S2190
T1 S2175
T2 S2191
T6 S2194
T11 S2200
T8 S2203
T14 S2204
S2191
T1 S2176
T8 S2192
T14 S2193
S2192
T9 S2151
T1 S2177
S2193
T20 S1892
T1 S2178
S2194
T1 S2179
T8 S2195
S2195
T9 S2157
T1 S2180
T7 S2196
S2196
T1 S2181
T9 S2190
T2 S2197
T6 S2198
T11 S2199
S2197
T1 S2182
T9 S2191
S2198
T1 S2183
T9 S2194
S2199
T1 S2184
T9 S2200
S2200
T1 S2185
T8 S2201
T14 S2202
S2201
T9 S2153
T1 S2186
S2202
T20 S1904
T1 S2187
S2203
T9 S2156
T1 S2188
T2 S2192
T6 S2195
T11 S2201
S2204
T20 S1891
T1 S2189
T2 S2193
T11 S2202
S2205
T20 S1779
T1 S2128
S2206
T20 S1951
T1 S2129
S2207
T1 S2130
T9 S2133
T2 S2138
T6 S2141
T11 S2147
S2208
T20 S1942
T1 S2131
T2 S2139
T11 S2206
S2209
T1 S2132
T5 S2148
S2210
T1 S2211
S2211
S2212
T14 S1767
T4 S2209
T1 S2213
S2213
T14 S1768
T4 S2132
S2214
T1 S2000
T5 S2215
T11 S2345
S2215
T1 S2133
T6 S2216
T11 S2225
T14 S2261
S2216
T1 S2135
T7 S2217
S2217
T1 S2136
T6 S2218
T11 S2223
T8 S2343
T14 S2344
S2218
T1 S2140
T8 S2219
S2219
T1 S2141
T9 S2216
T7 S2220
S2220
T1 S2142
T9 S2217
T6 S2221
T11 S2222
S2221
T1 S2144
T9 S2218
S2222
T1 S2145
T9 S2223
S2223
T1 S2146
T8 S2224
T14 S2342
S2224
T1 S2147
T9 S2225
S2225
T1 S2148
T12 S2226
T14 S2262
S2226
T1 S2149
T11 S2227
T13 S2231
S2227
T1 S2152
T13 S2228
S2228
T1 S2153
T12 S2229
T14 S2230
S2229
T13 S2092
T1 S2154
S2230
T20 S1831
T1 S1856
S2231
T1 S2156
T11 S2228
T6 S2232
T14 S2341
S2232
T1 S2157
T7 S2233
S2233
T1 S2190
T6 S2234
T11 S2239
T8 S2247
T14 S2248
S2234
T1 S2194
T8 S2235
S2235
T1 S2195
T9 S2232
T7 S2236
S2236
T1 S2196
T9 S2233
T6 S2237
T11 S2238
S2237
T1 S2198
T9 S2234
S2238
T1 S2199
T9 S2239
S2239
T1 S2200
T8 S2240
T14 S2241
S2240
T1 S2201
T9 S2228
S2241
T1 S2202
T20 S2242
S2242
T1 S1904
T8 S2243
T14 S2244
S2243
T9 S1831
T1 S1905
S2244
T1 S1906
T20 S2245
S2245
T1 S1907
T8 S2246
S2246
T9 S1788
T1 S1908
S2247
T1 S2203
T9 S2231
T6 S2235
T11 S2240
S2248
T1 S2204
T11 S2241
T20 S2249
S2249
T1 S1891
T11 S2242
T6 S2250
T8 S2256
T14 S2340
S2250
T1 S1898
T8 S2251
S2251
T1 S1899
T7 S2252
T9 S2255
S2252
T1 S1900
T9 S2249
T6 S2253
T11 S2254
S2253
T1 S1902
T9 S2250
S2254
T1 S1903
T9 S2242
S2255
T1 S1858
T7 S2249
S2256
T1 S1909
T11 S2243
T6 S2251
T9 S2257
S2257
T11 S1831
T1 S1857
T6 S2255
T14 S2258
T19 S2336
S2258
T1 S1818
T11 S2259
T19 S2260
T20 S2327
S2259
T20 S1788
T1 S1819
S2260
T15 S1549
T1 S1820
T10 S2261
T20 S2326
S2261
T1 S1821
T11 S2262
T20 S2263
S2262
T20 S1827
T1 S2205
S2263
T11 S1827
T1 S1924
T6 S2264
T19 S2274
S2264
T1 S1927
T7 S2265
S2265
T1 S1942
T6 S2266
T11 S2271
T8 S2273
S2266
T1 S1945
T8 S2267
S2267
T1 S1946
T9 S2264
T7 S2268
S2268
T1 S1947
T9 S2265
T6 S2269
T11 S2270
S2269
T1 S1949
T9 S2266
S2270
T1 S1950
T9 S2271
S2271
T1 S1951
T8 S2272
S2272
T9 S1827
T1 S1952
S2273
T1 S1953
T9 S2263
T6 S2267
T11 S2272
S2274
T15 S1486
T1 S1954
T10 S2275
S2275
T1 S2276
T6 S2313
T11 S2322
S2276
T1 S1971
T2 S2277
T6 S2278
T11 S2308
S2277
T3 S1967
T1 S1972
S2278
T1 S1973
T7 S2279
S2279
T1 S2280
T2 S2298
T6 S2300
T11 S2306
T8 S2312
S2280
T1 S1975
T2 S2281
T6 S2283
T11 S2289
T8 S2296
S2281
T1 S1976
T8 S2282
S2282
T9 S1972
T1 S1977
S2283
T1 S1978
T8 S2284
S2284
T9 S1973
T1 S1979
T7 S2285
S2285
T1 S1980
T9 S2280
T2 S2286
T6 S2287
T11 S2288
S2286
T1 S1981
T9 S2281
S2287
T1 S1982
T9 S2283
S2288
T1 S1983
T9 S2289
S2289
T1 S1984
T8 S2290
S2290
T1 S1985
T9 S2291
S2291
T1 S1986
T12 S2292
S2292
T1 S1987
T13 S2002
T2 S2293
T11 S2294
S2293
T1 S1988
T13 S2107
S2294
T13 S2121
T1 S2295
S2295
T13 S2017
S2296
T9 S1971
T2 S2282
T6 S2284
T11 S2290
T1 S2297
S2297
T9 S1957
T2 S1977
T6 S1979
T11 S1985
S2298
T1 S2281
T8 S2299
S2299
T9 S2277
T1 S2282
S2300
T1 S2283
T8 S2301
S2301
T9 S2278
T1 S2284
T7 S2302
S2302
T9 S2279
T1 S2285
T2 S2303
T6 S2304
T11 S2305
S2303
T1 S2286
T9 S2298
S2304
T1 S2287
T9 S2300
S2305
T1 S2288
T9 S2306
S2306
T1 S2289
T8 S2307
S2307
T1 S2290
T9 S2308
S2308
T1 S2291
T12 S2309
S2309
T13 S2133
T1 S2292
T2 S2310
T11 S2311
S2310
T13 S2134
T1 S2293
S2311
T13 S2148
T1 S2294
S2312
T9 S2276
T1 S2296
T2 S2299
T6 S2301
T11 S2307
S2313
T1 S2278
T7 S2314
S2314
T1 S2279
T6 S2315
T11 S2320
T8 S2325
S2315
T1 S2300
T8 S2316
S2316
T1 S2301
T9 S2313
T7 S2317
S2317
T1 S2302
T9 S2314
T6 S2318
T11 S2319
S2318
T1 S2304
T9 S2315
S2319
T1 S2305
T9 S2320
S2320
T1 S2306
T8 S2321
S2321
T1 S2307
T9 S2322
S2322
T1 S2308
T12 S2323
S2323
T13 S2215
T1 S2309
T11 S2324
S2324
T13 S2225
T1 S2311
S2325
T9 S2275
T1 S2312
T6 S2316
T11 S2321
S2326
T15 S1464
T1 S1921
T10 S2263
S2327
T11 S1788
T1 S1920
T19 S2326
T6 S2328
S2328
T1 S1918
T7 S2329
S2329
T1 S1911
T11 S2245
T6 S2330
T8 S2335
S2330
T1 S1912
T8 S2331
S2331
T1 S1913
T9 S2328
T7 S2332
S2332
T1 S1914
T9 S2329
T6 S2333
T11 S2334
S2333
T1 S1916
T9 S2330
S2334
T1 S1917
T9 S2245
S2335
T1 S1919
T11 S2246
T9 S2327
T6 S2331
S2336
T15 S1524
T10 S2215
T14 S2260
T1 S2337
S2337
T15 S1382
T14 S1820
T10 S2133
T1 S2338
S2338
T15 S441
T14 S1762
T10 S2002
T1 S2339
S2339
T14 S110
T15 S442
T10 S2003
S2340
T1 S1910
T11 S2244
T20 S2329
S2341
T1 S1850
T11 S2230
T20 S2257
S2342
T1 S2206
T20 S2271
S2343
T1 S2207
T9 S2215
T6 S2219
T11 S2224
S2344
T1 S2208
T20 S2265
T11 S2342
S2345
T1 S2209
T5 S2225
S2346
T1 S2210
S2347
T14 S1824
T1 S2212
T4 S2345
S2348
T5 S2347
T1 S2349
S2349
T5 S2212
S2350
T5 S2291
S2351
T5 S2308
T1 S2350
S2352
T1 S2353
S2353
S2354
T4 S2351
T1 S2355
S2355
T4 S2350
S2356
T1 S1969
T5 S2275
T11 S2357
S2357
T5 S2322
T1 S2351
S2358
T1 S2352
S2359
T1 S2354
T4 S2357
S2360
T5 S2359
T1 S2361
S2361
T5 S2354
S2362
T15 S655
T14 S1817
T1 S1848
T10 S1857
S2363
T15 S1520
T1 S1849
T10 S2341
T20 S2364
S2364
T15 S1244
T14 S1816
T10 S2257
T1 S2362
S2365
T15 S1501
T10 S2231
T14 S2363
T1 S2366
S2366
T15 S587
T14 S1849
T10 S2156
T1 S2367
S2367
T15 S472
T1 S1655
T10 S1670
T14 S1845
S2368
T1 S18
T15 S1269
T10 S1920
S2369
T15 S1462
T10 S2327
T1 S2368
S2370
T5 S2125
S2371
T5 S2153
T1 S2370
S2372
T1 S2373
S2373
S2374
T14 S1675
T4 S2371
T1 S2375
S2375
T14 S211
T4 S2370
S2376
T1 S1668
T5 S2231
T11 S2377
S2377
T5 S2228
T1 S2371
S2378
T1 S2372
S2379
T14 S1853
T1 S2374
T4 S2377
S2380
T5 S2379
T1 S2381
S2381
T5 S2374
S2382
T15 S471
T10 S1669
T5 S2367
S2383
T15 S470
T10 S1668
T5 S2366
T1 S2382
S2384
T1 S2385
S2385
S2386
T1 S186
T5 S1833
T19 S2387
S2387
T15 S1577
T5 S2365
T10 S2376
T1 S2383
S2388
T1 S2384
S2389
T15 S440
T10 S2001
T5 S2338
S2390
T15 S439
T10 S2000
T5 S2337
T1 S2389
S2391
T1 S2392
S2392
S2393
T1 S155
T11 S1855
T5 S2257
T19 S2394
S2394
T15 S1593
T10 S2214
T5 S2336
T1 S2390
S2395
T1 S2391
S2396
T5 S1854
T1 S2397
S2397
T5 S1676
S2398
T15 S409
T5 S1955
T10 S1970
S2399
S2400
T2 S120
T1 S125
T11 S1778
T5 S1924
T19 S2401
S2401
T15 S408
T5 S1954
T10 S1969
T1 S2398
S2402
T1 S2399
S2403
T11 S1826
T5 S2263
T1 S2400
T19 S2404
S2404
T15 S1613
T5 S2274
T10 S2356
T1 S2401
S2405
T1 S2402
S2406
T5 S1825
T1 S2407
S2407
T5 S1777
S2408
T10 S156
T15 S237
T5 S1848
S2409
T10 S155
T15 S1646
T5 S2362
T1 S2408
S2410
T1 S2411
S2411
S2412
T1 S63
T5 S1790
T19 S2413
S2413
T15 S1649
T5 S2364
T10 S2393
T1 S2409
S2414
T1 S2410
S2415
T10 S125
T15 S292
T5 S1922
S2416
T15 S291
T5 S1921
T10 S2400
T1 S2415
S2417
T1 S2418
S2418
S2419
T1 S32
T11 S1787
T5 S2327
T19 S2420
S2420
T15 S1627
T5 S2326
T10 S2403
T1 S2416
S2421
T1 S2417
S2422
T5 S1786
T1 S2423
S2423
T5 S1757
S2424
T1 S17
T10 S32
T15 S1636
T5 S2368
S2425
T1 S2426
S2426
S2427
T5 S0
T1 S15
T19 S2428
S2428
T15 S1639
T5 S2369
T10 S2419
T1 S2424
S2429
T1 S2425
