+-----------------------------------------------------+--------------------+------------------------+
|                   Estados/Acciones                  | Agregar supervisor | Agregar o quitar arcos |
+-----------------------------------------------------+--------------------+------------------------+
|                        Start                        |        0.0         |          0.0           |
|        Más sifónes vacíos en estado deadlock        |        0.0         |          0.0           |
|       Menos sifónes vacíos en estado deadlock       |        0.0         |          0.0           |
| Igual cantidad de sifónes vacíos en estado deadlock |        0.0         |          0.0           |
|                         End                         |        0.0         |          0.0           |
+-----------------------------------------------------+--------------------+------------------------+
+----+-----+--------------------------------------------------------------+
| ID | Nro |                            Plazas                            |
+----+-----+--------------------------------------------------------------+
| 0  |  3  |    ['P2', 'P9', 'P13', 'P22', 'P23', 'P27', 'P28', 'P30']    |
| 1  |  15 |       ['P2', 'P8', 'P13', 'P22', 'P23', 'P27', 'P28']        |
| 2  |  45 |    ['P2', 'P9', 'P13', 'P22', 'P23', 'P27', 'P28', 'P29']    |
| 3  |  20 |       ['P2', 'P9', 'P12', 'P22', 'P23', 'P25', 'P30']        |
| 4  |  44 |    ['P2', 'P9', 'P13', 'P22', 'P23', 'P25', 'P27', 'P30']    |
| 5  |  4  |       ['P1', 'P9', 'P13', 'P22', 'P23', 'P27', 'P30']        |
| 6  | 109 |        ['P1', 'P3', 'P9', 'P13', 'P22', 'P26', 'P30']        |
| 7  | 197 | ['P1', 'P3', 'P9', 'P13', 'P16', 'P17', 'P22', 'P26', 'P30'] |
+----+-----+--------------------------------------------------------------+
+----+----+----+----+----+----+----+----+----+----+-----+-----+-----+-----+-----+-----+-----+-----+-----+-----+-----+
| T0 | T1 | T2 | T3 | T4 | T5 | T6 | T7 | T8 | T9 | T10 | T11 | T12 | T13 | T14 | T15 | T16 | T17 | T18 | T19 | T20 |
+----+----+----+----+----+----+----+----+----+----+-----+-----+-----+-----+-----+-----+-----+-----+-----+-----+-----+
| 1  | 1  | 1  | 1  | 1  | 0  | 0  | 0  | 0  | 0  |  0  |  0  |  0  |  0  |  0  |  0  |  0  |  0  |  0  |  0  |  0  |
| 0  | 0  | 0  | 0  | 0  | 1  | 1  | 1  | 1  | 0  |  0  |  0  |  0  |  0  |  0  |  0  |  0  |  0  |  0  |  0  |  0  |
| 0  | 0  | 0  | 0  | 0  | 0  | 0  | 0  | 0  | 1  |  1  |  1  |  1  |  1  |  0  |  0  |  0  |  0  |  0  |  1  |  1  |
| 0  | 0  | 0  | 0  | 0  | 0  | 0  | 0  | 0  | 0  |  0  |  0  |  0  |  0  |  1  |  1  |  1  |  1  |  1  |  1  |  1  |
+----+----+----+----+----+----+----+----+----+----+-----+-----+-----+-----+-----+-----+-----+-----+-----+-----+-----+
+-----+---------+-----------------------------------+---------------------+
|  ID | Marcado |            T - Entrada            |      T - Salida     |
+-----+---------+-----------------------------------+---------------------+
| P31 |    2    | ['T2', 'T8', 'T10', 'T12', 'T15'] | ['T1', 'T6', 'T20'] |
| P31 |    1    |            ['T2', 'T7']           | ['T1', 'T6', 'T20'] |
| P31 |    2    |     ['T2', 'T8', 'T10', 'T15']    | ['T1', 'T6', 'T20'] |
| P31 |    1    |        ['T2', 'T9', 'T11']        | ['T1', 'T6', 'T20'] |
| P31 |    2    |     ['T2', 'T9', 'T12', 'T21']    | ['T1', 'T6', 'T20'] |
| P31 |    1    |        ['T2', 'T8', 'T12']        | ['T1', 'T6', 'T20'] |
| P31 |    1    |    ['T8', 'T10', 'T12', 'T15']    | ['T1', 'T6', 'T20'] |
| P31 |    1    |    ['T8', 'T10', 'T12', 'T15']    | ['T1', 'T6', 'T20'] |
+-----+---------+-----------------------------------+---------------------+
