21/06/2021 17:37:58[DEBUG] pflow_file:  ../analisis_4_21062021/gen_nets/20210621-134757_22/net.pflow  
21/06/2021 17:37:58[DEBUG] output_folder:  ../analisis_4_21062021/gen_nets/20210621-134757_22/  
21/06/2021 17:37:58[DEBUG] html_path:  ../analisis_4_21062021/gen_nets/20210621-134757_22/  
21/06/2021 17:37:58[DEBUG] txt_path:  ../analisis_4_21062021/gen_nets/20210621-134757_22/txt_info  

--------------------------------------------------------------------------   
21/06/2021 17:37:58[INFO] Ejecutando petrinator para conocer estado de la red...   
--------------------------------------------------------------------------
   
21/06/2021 17:38:05[INFO] Leyendo archivos...   
21/06/2021 17:38:06[INFO] Cantidad de estados: 142  
21/06/2021 17:38:06[INFO] Cantidad de transiciones: 16  
21/06/2021 17:38:06[INFO] Cantidad de plazas: 21  
21/06/2021 17:38:06[INFO] Cantidad de sifones: 13  
21/06/2021 17:38:06[INFO] Cantidad de trampas: 15  

--------------------------------------------------------------------------
   
21/06/2021 17:38:06[INFO] Cantidad de entrenamientos a realizar:  1  
21/06/2021 17:38:06[INFO] Entrenamiento numero: 0 
 
21/06/2021 17:38:06[INFO] Q-TABLE   
+-----------------------------------------------------+--------------------+------------------------+
|                   Estados/Acciones                  | Agregar supervisor | Agregar o quitar arcos |
+-----------------------------------------------------+--------------------+------------------------+
|                        Start                        |        0.0         |          0.0           |
|        Más sifónes vacíos en estado deadlock        |        0.0         |          0.0           |
|       Menos sifónes vacíos en estado deadlock       |        0.0         |          0.0           |
| Igual cantidad de sifónes vacíos en estado deadlock |        0.0         |          0.0           |
|                         End                         |        0.0         |          0.0           |
+-----------------------------------------------------+--------------------+------------------------+

--------------------------------------------------------------------------   
21/06/2021 17:38:06[INFO] Ejecutando petrinator para conocer estado de la red...   
--------------------------------------------------------------------------
   
21/06/2021 17:38:12[INFO] Importando datos desde html...   
21/06/2021 17:38:12[INFO] Analizando cantidad de supervisores que se pueden agregar...   
21/06/2021 17:38:12[INFO] Cantidad de transiciones: 16  
21/06/2021 17:38:12[INFO] Estados de deadlock: [35, 84, 93]  
21/06/2021 17:38:12[INFO] Cantidad de sifones: 13  
21/06/2021 17:38:12[INFO] Cantidad de sifones vacios en estado de deadlock: 3 
 
21/06/2021 17:38:12[INFO] SIFONES   
+----+-----+------------------------------------------+
| ID | Nro |                  Plazas                  |
+----+-----+------------------------------------------+
| 0  |  2  | ['P1', 'P5', 'P10', 'P12', 'P19', 'P21'] |
| 1  |  11 | ['P1', 'P5', 'P10', 'P12', 'P18', 'P21'] |
| 2  |  8  | ['P1', 'P5', 'P9', 'P12', 'P17', 'P19']  |
+----+-----+------------------------------------------+
21/06/2021 17:38:12[INFO] T INVARIANTES   
+----+----+----+----+----+----+----+----+----+----+-----+-----+-----+-----+-----+-----+
| T0 | T1 | T2 | T3 | T4 | T5 | T6 | T7 | T8 | T9 | T10 | T11 | T12 | T13 | T14 | T15 |
+----+----+----+----+----+----+----+----+----+----+-----+-----+-----+-----+-----+-----+
| 1  | 1  | 1  | 0  | 0  | 0  | 0  | 0  | 0  | 0  |  0  |  0  |  0  |  0  |  0  |  0  |
| 0  | 0  | 0  | 1  | 1  | 1  | 0  | 0  | 0  | 0  |  0  |  0  |  0  |  0  |  0  |  0  |
| 0  | 0  | 0  | 0  | 0  | 0  | 1  | 1  | 1  | 1  |  1  |  0  |  0  |  0  |  1  |  1  |
| 0  | 0  | 0  | 0  | 0  | 0  | 0  | 0  | 0  | 0  |  0  |  1  |  1  |  1  |  1  |  1  |
+----+----+----+----+----+----+----+----+----+----+-----+-----+-----+-----+-----+-----+
21/06/2021 17:38:12[INFO] POSIBLES SUPERVISORES A AGREGAR   
+-----+---------+----------------------------+---------------------+
|  ID | Marcado |        T - Entrada         |      T - Salida     |
+-----+---------+----------------------------+---------------------+
| P22 |    1    | ['T2', 'T5', 'T10', 'T13'] | ['T1', 'T4', 'T15'] |
| P22 |    1    |    ['T2', 'T5', 'T10']     | ['T1', 'T4', 'T15'] |
| P22 |    1    | ['T2', 'T5', 'T9', 'T13']  | ['T1', 'T4', 'T15'] |
+-----+---------+----------------------------+---------------------+

--------------------------------------------------------------------------
   
21/06/2021 17:38:12[INFO] Ejecutando accion...   
21/06/2021 17:38:12[ACTION] Agregar supervisor    
21/06/2021 17:38:12[ACTION] Agrego supervisor Numero: 1  

--------------------------------------------------------------------------   
21/06/2021 17:38:13[INFO] Ejecutando petrinator para conocer estado de la red...   
--------------------------------------------------------------------------
   
21/06/2021 17:38:19[INFO] Importando datos desde html...   
21/06/2021 17:38:20[INFO] Analizando cantidad de supervisores que se pueden agregar...   
21/06/2021 17:38:20[INFO] Cantidad de sifones vacios en estado de deadlock ANTES: 3  
21/06/2021 17:38:20[INFO] Cantidad de sifones vacioes en estado de deadlock AHORA: 1  
21/06/2021 17:38:20[INFO] Cantidad de transiciones: 16  
21/06/2021 17:38:20[INFO] Estados de deadlock: [37]  
21/06/2021 17:38:20[INFO] Cantidad de sifones: 14  
21/06/2021 17:38:20[INFO] Cantidad de sifones vacios en estado de deadlock: 1 
 
21/06/2021 17:38:20[INFO] SIFONES   
+----+-----+----------------------------------------------+
| ID | Nro |                    Plazas                    |
+----+-----+----------------------------------------------+
| 3  |  8  | ['P1', 'P4', 'P7', 'P8', 'P9', 'P14', 'P22'] |
+----+-----+----------------------------------------------+
21/06/2021 17:38:20[INFO] T INVARIANTES   
+----+----+----+----+----+----+----+----+----+----+-----+-----+-----+-----+-----+-----+
| T0 | T1 | T2 | T3 | T4 | T5 | T6 | T7 | T8 | T9 | T10 | T11 | T12 | T13 | T14 | T15 |
+----+----+----+----+----+----+----+----+----+----+-----+-----+-----+-----+-----+-----+
| 1  | 1  | 1  | 0  | 0  | 0  | 0  | 0  | 0  | 0  |  0  |  0  |  0  |  0  |  0  |  0  |
| 0  | 0  | 0  | 1  | 1  | 1  | 0  | 0  | 0  | 0  |  0  |  0  |  0  |  0  |  0  |  0  |
| 0  | 0  | 0  | 0  | 0  | 0  | 1  | 1  | 1  | 1  |  1  |  0  |  0  |  0  |  1  |  1  |
+----+----+----+----+----+----+----+----+----+----+-----+-----+-----+-----+-----+-----+
21/06/2021 17:38:20[INFO] POSIBLES SUPERVISORES A AGREGAR   
+----+---------+-------------+------------+
| ID | Marcado | T - Entrada | T - Salida |
+----+---------+-------------+------------+
+----+---------+-------------+------------+
21/06/2021 17:38:20[INFO] Actualizando estado de la red..   
21/06/2021 17:38:20[STATE] Cambie al estado 2: Hay menos sifones vacios en deadlock   

--------------------------------------------------------------------------
   
21/06/2021 17:38:20[INFO] Calculando recompensa..   
21/06/2021 17:38:20[REWARD] El sifon se controlo correctamente, recompensa -1   

--------------------------------------------------------------------------
   
21/06/2021 17:38:20[INFO] NEW Q-TABLE   
+-----------------------------------------------------+--------------------+------------------------+
|                   Estados/Acciones                  | Agregar supervisor | Agregar o quitar arcos |
+-----------------------------------------------------+--------------------+------------------------+
|                        Start                        |        -0.9        |          0.0           |
|        Más sifónes vacíos en estado deadlock        |        0.0         |          0.0           |
|       Menos sifónes vacíos en estado deadlock       |        0.0         |          0.0           |
| Igual cantidad de sifónes vacíos en estado deadlock |        0.0         |          0.0           |
|                         End                         |        0.0         |          0.0           |
+-----------------------------------------------------+--------------------+------------------------+

--------------------------------------------------------------------------
   
21/06/2021 17:38:20[INFO] Ejecutando accion...   
21/06/2021 17:38:20[ACTION] Agregar o quitar arcos   
21/06/2021 17:38:20[ACTION] La transicion en conflicto T12 le tiene que devolver un token al supervisor P22   
21/06/2021 17:38:20[INFO] Se agrego un arco desde T12 hasta P22   

--------------------------------------------------------------------------   
21/06/2021 17:38:20[INFO] Ejecutando petrinator para conocer estado de la red...   
--------------------------------------------------------------------------
   
21/06/2021 17:38:27[INFO] Importando datos desde html...   
21/06/2021 17:38:27[INFO] Analizando cantidad de supervisores que se pueden agregar...   
21/06/2021 17:38:27[INFO] Cantidad de sifones vacios en estado de deadlock ANTES: 1  
21/06/2021 17:38:27[INFO] Cantidad de sifones vacioes en estado de deadlock AHORA: 2  
21/06/2021 17:38:27[INFO] Cantidad de transiciones: 16  
21/06/2021 17:38:27[INFO] Estados de deadlock: [35, 44]  
21/06/2021 17:38:27[INFO] Cantidad de sifones: 14  
21/06/2021 17:38:27[INFO] Cantidad de sifones vacios en estado de deadlock: 2 
 
21/06/2021 17:38:27[INFO] SIFONES   
+----+-----+------------------------------------------+
| ID | Nro |                  Plazas                  |
+----+-----+------------------------------------------+
| 4  |  2  | ['P1', 'P5', 'P10', 'P12', 'P19', 'P21'] |
| 5  |  9  | ['P1', 'P5', 'P9', 'P12', 'P17', 'P19']  |
+----+-----+------------------------------------------+
21/06/2021 17:38:27[INFO] T INVARIANTES   
+----+----+----+----+----+----+----+----+----+----+-----+-----+-----+-----+-----+-----+
| T0 | T1 | T2 | T3 | T4 | T5 | T6 | T7 | T8 | T9 | T10 | T11 | T12 | T13 | T14 | T15 |
+----+----+----+----+----+----+----+----+----+----+-----+-----+-----+-----+-----+-----+
| 1  | 1  | 1  | 0  | 0  | 0  | 0  | 0  | 0  | 0  |  0  |  0  |  0  |  0  |  0  |  0  |
| 0  | 0  | 0  | 1  | 1  | 1  | 0  | 0  | 0  | 0  |  0  |  0  |  0  |  0  |  0  |  0  |
| 0  | 0  | 0  | 0  | 0  | 0  | 1  | 1  | 1  | 1  |  1  |  0  |  0  |  0  |  1  |  1  |
| 0  | 0  | 0  | 0  | 0  | 0  | 0  | 0  | 0  | 0  |  0  |  1  |  1  |  1  |  1  |  1  |
+----+----+----+----+----+----+----+----+----+----+-----+-----+-----+-----+-----+-----+
21/06/2021 17:38:27[INFO] POSIBLES SUPERVISORES A AGREGAR   
+-----+---------+----------------------------+---------------------+
|  ID | Marcado |        T - Entrada         |      T - Salida     |
+-----+---------+----------------------------+---------------------+
| P23 |    1    | ['T2', 'T5', 'T10', 'T13'] | ['T1', 'T4', 'T15'] |
| P23 |    1    | ['T2', 'T5', 'T9', 'T13']  | ['T1', 'T4', 'T15'] |
+-----+---------+----------------------------+---------------------+
21/06/2021 17:38:27[INFO] Actualizando estado de la red..   
21/06/2021 17:38:27[STATE] Cambie al estado 1: Hay mas sifones vacios en deadlock   

--------------------------------------------------------------------------
   
21/06/2021 17:38:27[INFO] Calculando recompensa..   
21/06/2021 17:38:27[REWARD] Hay mas sifones vacios que en el estado anterior, recompensa -100   

--------------------------------------------------------------------------
   
21/06/2021 17:38:27[INFO] NEW Q-TABLE   
+-----------------------------------------------------+--------------------+------------------------+
|                   Estados/Acciones                  | Agregar supervisor | Agregar o quitar arcos |
+-----------------------------------------------------+--------------------+------------------------+
|                        Start                        |        -0.9        |          0.0           |
|        Más sifónes vacíos en estado deadlock        |        0.0         |          0.0           |
|       Menos sifónes vacíos en estado deadlock       |        0.0         |         -90.0          |
| Igual cantidad de sifónes vacíos en estado deadlock |        0.0         |          0.0           |
|                         End                         |        0.0         |          0.0           |
+-----------------------------------------------------+--------------------+------------------------+

--------------------------------------------------------------------------
   
21/06/2021 17:38:27[INFO] Ejecutando accion...   
21/06/2021 17:38:27[ACTION] Agregar o quitar arcos   

--------------------------------------------------------------------------   
21/06/2021 17:38:27[INFO] Ejecutando petrinator para conocer estado de la red...   
--------------------------------------------------------------------------
   
21/06/2021 17:38:35[INFO] Importando datos desde html...   
21/06/2021 17:38:35[INFO] Analizando cantidad de supervisores que se pueden agregar...   
21/06/2021 17:38:35[INFO] Cantidad de sifones vacios en estado de deadlock ANTES: 2  
21/06/2021 17:38:35[INFO] Cantidad de sifones vacioes en estado de deadlock AHORA: 2  
21/06/2021 17:38:35[INFO] Cantidad de transiciones: 16  
21/06/2021 17:38:35[INFO] Estados de deadlock: [35, 44]  
21/06/2021 17:38:35[INFO] Cantidad de sifones: 14  
21/06/2021 17:38:35[INFO] Cantidad de sifones vacios en estado de deadlock: 2 
 
21/06/2021 17:38:35[INFO] SIFONES   
+----+-----+------------------------------------------+
| ID | Nro |                  Plazas                  |
+----+-----+------------------------------------------+
| 6  |  2  | ['P1', 'P5', 'P10', 'P12', 'P19', 'P21'] |
| 7  |  9  | ['P1', 'P5', 'P9', 'P12', 'P17', 'P19']  |
+----+-----+------------------------------------------+
21/06/2021 17:38:35[INFO] T INVARIANTES   
+----+----+----+----+----+----+----+----+----+----+-----+-----+-----+-----+-----+-----+
| T0 | T1 | T2 | T3 | T4 | T5 | T6 | T7 | T8 | T9 | T10 | T11 | T12 | T13 | T14 | T15 |
+----+----+----+----+----+----+----+----+----+----+-----+-----+-----+-----+-----+-----+
| 1  | 1  | 1  | 0  | 0  | 0  | 0  | 0  | 0  | 0  |  0  |  0  |  0  |  0  |  0  |  0  |
| 0  | 0  | 0  | 1  | 1  | 1  | 0  | 0  | 0  | 0  |  0  |  0  |  0  |  0  |  0  |  0  |
| 0  | 0  | 0  | 0  | 0  | 0  | 1  | 1  | 1  | 1  |  1  |  0  |  0  |  0  |  1  |  1  |
| 0  | 0  | 0  | 0  | 0  | 0  | 0  | 0  | 0  | 0  |  0  |  1  |  1  |  1  |  1  |  1  |
+----+----+----+----+----+----+----+----+----+----+-----+-----+-----+-----+-----+-----+
21/06/2021 17:38:35[INFO] POSIBLES SUPERVISORES A AGREGAR   
+-----+---------+----------------------------+---------------------+
|  ID | Marcado |        T - Entrada         |      T - Salida     |
+-----+---------+----------------------------+---------------------+
| P23 |    1    | ['T2', 'T5', 'T10', 'T13'] | ['T1', 'T4', 'T15'] |
| P23 |    1    | ['T2', 'T5', 'T9', 'T13']  | ['T1', 'T4', 'T15'] |
+-----+---------+----------------------------+---------------------+
21/06/2021 17:38:35[INFO] Actualizando estado de la red..   
21/06/2021 17:38:35[STATE] Cambie al estado 3: Hay igual cantidad de sifones vacios en deadlock   

--------------------------------------------------------------------------
   
21/06/2021 17:38:35[INFO] Calculando recompensa..   
21/06/2021 17:38:35[REWARD] Hay menos o igual cantidad de sifones vacios que en el estado anterior, recompensa -1   

--------------------------------------------------------------------------
   
21/06/2021 17:38:35[INFO] NEW Q-TABLE   
+-----------------------------------------------------+--------------------+------------------------+
|                   Estados/Acciones                  | Agregar supervisor | Agregar o quitar arcos |
+-----------------------------------------------------+--------------------+------------------------+
|                        Start                        |        -0.9        |          0.0           |
|        Más sifónes vacíos en estado deadlock        |        0.0         |          -0.9          |
|       Menos sifónes vacíos en estado deadlock       |        0.0         |         -90.0          |
| Igual cantidad de sifónes vacíos en estado deadlock |        0.0         |          0.0           |
|                         End                         |        0.0         |          0.0           |
+-----------------------------------------------------+--------------------+------------------------+

--------------------------------------------------------------------------
   
21/06/2021 17:38:35[INFO] Ejecutando accion...   
21/06/2021 17:38:35[ACTION] Agregar o quitar arcos   

--------------------------------------------------------------------------   
21/06/2021 17:38:35[INFO] Ejecutando petrinator para conocer estado de la red...   
--------------------------------------------------------------------------
   
21/06/2021 17:38:45[INFO] Importando datos desde html...   
21/06/2021 17:38:45[INFO] Analizando cantidad de supervisores que se pueden agregar...   
21/06/2021 17:38:46[INFO] Cantidad de sifones vacios en estado de deadlock ANTES: 2  
21/06/2021 17:38:46[INFO] Cantidad de sifones vacioes en estado de deadlock AHORA: 2  
21/06/2021 17:38:46[INFO] Cantidad de transiciones: 16  
21/06/2021 17:38:46[INFO] Estados de deadlock: [35, 44]  
21/06/2021 17:38:46[INFO] Cantidad de sifones: 14  
21/06/2021 17:38:46[INFO] Cantidad de sifones vacios en estado de deadlock: 2 
 
21/06/2021 17:38:46[INFO] SIFONES   
+----+-----+------------------------------------------+
| ID | Nro |                  Plazas                  |
+----+-----+------------------------------------------+
| 8  |  2  | ['P1', 'P5', 'P10', 'P12', 'P19', 'P21'] |
| 9  |  9  | ['P1', 'P5', 'P9', 'P12', 'P17', 'P19']  |
+----+-----+------------------------------------------+
21/06/2021 17:38:46[INFO] T INVARIANTES   
+----+----+----+----+----+----+----+----+----+----+-----+-----+-----+-----+-----+-----+
| T0 | T1 | T2 | T3 | T4 | T5 | T6 | T7 | T8 | T9 | T10 | T11 | T12 | T13 | T14 | T15 |
+----+----+----+----+----+----+----+----+----+----+-----+-----+-----+-----+-----+-----+
| 1  | 1  | 1  | 0  | 0  | 0  | 0  | 0  | 0  | 0  |  0  |  0  |  0  |  0  |  0  |  0  |
| 0  | 0  | 0  | 1  | 1  | 1  | 0  | 0  | 0  | 0  |  0  |  0  |  0  |  0  |  0  |  0  |
| 0  | 0  | 0  | 0  | 0  | 0  | 1  | 1  | 1  | 1  |  1  |  0  |  0  |  0  |  1  |  1  |
| 0  | 0  | 0  | 0  | 0  | 0  | 0  | 0  | 0  | 0  |  0  |  1  |  1  |  1  |  1  |  1  |
+----+----+----+----+----+----+----+----+----+----+-----+-----+-----+-----+-----+-----+
21/06/2021 17:38:46[INFO] POSIBLES SUPERVISORES A AGREGAR   
+-----+---------+----------------------------+---------------------+
|  ID | Marcado |        T - Entrada         |      T - Salida     |
+-----+---------+----------------------------+---------------------+
| P23 |    1    | ['T2', 'T5', 'T10', 'T13'] | ['T1', 'T4', 'T15'] |
| P23 |    1    | ['T2', 'T5', 'T9', 'T13']  | ['T1', 'T4', 'T15'] |
+-----+---------+----------------------------+---------------------+
21/06/2021 17:38:46[INFO] Actualizando estado de la red..   
21/06/2021 17:38:46[STATE] Cambie al estado 3: Hay igual cantidad de sifones vacios en deadlock   

--------------------------------------------------------------------------
   
21/06/2021 17:38:46[INFO] Calculando recompensa..   
21/06/2021 17:38:46[REWARD] Hay menos o igual cantidad de sifones vacios que en el estado anterior, recompensa -1   

--------------------------------------------------------------------------
   
21/06/2021 17:38:46[INFO] NEW Q-TABLE   
+-----------------------------------------------------+--------------------+------------------------+
|                   Estados/Acciones                  | Agregar supervisor | Agregar o quitar arcos |
+-----------------------------------------------------+--------------------+------------------------+
|                        Start                        |        -0.9        |          0.0           |
|        Más sifónes vacíos en estado deadlock        |        0.0         |          -0.9          |
|       Menos sifónes vacíos en estado deadlock       |        0.0         |         -90.0          |
| Igual cantidad de sifónes vacíos en estado deadlock |        0.0         |          -0.9          |
|                         End                         |        0.0         |          0.0           |
+-----------------------------------------------------+--------------------+------------------------+

--------------------------------------------------------------------------
   
21/06/2021 17:38:46[INFO] Ejecutando accion...   
21/06/2021 17:38:46[ACTION] Agregar supervisor    
21/06/2021 17:38:46[ACTION] Agrego supervisor Numero: 0  

--------------------------------------------------------------------------   
21/06/2021 17:38:46[INFO] Ejecutando petrinator para conocer estado de la red...   
--------------------------------------------------------------------------
   
21/06/2021 17:38:53[INFO] Importando datos desde html...   
21/06/2021 17:38:54[INFO] Analizando cantidad de supervisores que se pueden agregar...   
21/06/2021 17:38:54[INFO] Cantidad de sifones vacios en estado de deadlock ANTES: 2  
21/06/2021 17:38:54[INFO] Cantidad de sifones vacioes en estado de deadlock AHORA: 0  
21/06/2021 17:38:54[INFO] Cantidad de transiciones: 16  
21/06/2021 17:38:54[INFO] Estados de deadlock: []  
21/06/2021 17:38:54[INFO] Cantidad de sifones: 15  
21/06/2021 17:38:54[INFO] Cantidad de sifones vacios en estado de deadlock: 0 
 
21/06/2021 17:38:54[INFO] SIFONES   
+----+-----+--------+
| ID | Nro | Plazas |
+----+-----+--------+
+----+-----+--------+
21/06/2021 17:38:54[INFO] T INVARIANTES   
+----+----+----+----+----+----+----+----+----+----+-----+-----+-----+-----+-----+-----+
| T0 | T1 | T2 | T3 | T4 | T5 | T6 | T7 | T8 | T9 | T10 | T11 | T12 | T13 | T14 | T15 |
+----+----+----+----+----+----+----+----+----+----+-----+-----+-----+-----+-----+-----+
| 1  | 1  | 1  | 0  | 0  | 0  | 0  | 0  | 0  | 0  |  0  |  0  |  0  |  0  |  0  |  0  |
| 0  | 0  | 0  | 1  | 1  | 1  | 0  | 0  | 0  | 0  |  0  |  0  |  0  |  0  |  0  |  0  |
| 0  | 0  | 0  | 0  | 0  | 0  | 1  | 1  | 1  | 1  |  1  |  0  |  0  |  0  |  1  |  1  |
| 0  | 0  | 0  | 0  | 0  | 0  | 0  | 0  | 0  | 0  |  0  |  1  |  1  |  1  |  1  |  1  |
+----+----+----+----+----+----+----+----+----+----+-----+-----+-----+-----+-----+-----+
21/06/2021 17:38:54[INFO] POSIBLES SUPERVISORES A AGREGAR   
+----+---------+-------------+------------+
| ID | Marcado | T - Entrada | T - Salida |
+----+---------+-------------+------------+
+----+---------+-------------+------------+
21/06/2021 17:38:54[INFO] Actualizando estado de la red..   
21/06/2021 17:38:54[STATE] Cambie al estado 2: Hay menos sifones vacios en deadlock   

--------------------------------------------------------------------------
   
21/06/2021 17:38:54[INFO] Calculando recompensa..   
21/06/2021 17:38:54[REWARD] No hay mas deadlock, recompensa 100   

--------------------------------------------------------------------------
   
21/06/2021 17:38:54[INFO] NEW Q-TABLE   
+-----------------------------------------------------+--------------------+------------------------+
|                   Estados/Acciones                  | Agregar supervisor | Agregar o quitar arcos |
+-----------------------------------------------------+--------------------+------------------------+
|                        Start                        |        -0.9        |          0.0           |
|        Más sifónes vacíos en estado deadlock        |        0.0         |          -0.9          |
|       Menos sifónes vacíos en estado deadlock       |        0.0         |         -90.0          |
| Igual cantidad de sifónes vacíos en estado deadlock |        90.0        |          -0.9          |
|                         End                         |        0.0         |          0.0           |
+-----------------------------------------------------+--------------------+------------------------+

--------------------------------------------------------------------------
   
21/06/2021 17:38:54[STATE] Se llego al estado deseado, NO HAY MAS DEADLOCK   

--------------------------------------------------------------------------
   
21/06/2021 17:38:54[INFO] Training complete! 
  
