 Minimal siphons 
26 27
3 10 14 15 18 25 31 32
23 28
8 11
2 10 14 18 25 31
25 29
17 20
13 15
1 10 33
16 19
1 5
1 10 16 17 21 33
1 2 5
1 36 2 13 15 17 19 20
1 37 2 13 14 15 17 20
1 37 2 13 14 15 16 17 19
1 36 2 13 15 16 19
1 36 2 13 15 16 17 19
1 2 10 33
1 2 10 13 14 15 33
1 2 10 12 13 14 21 33
1 37 2 8 13 14 15 17 20
1 37 2 8 13 14 15 16 17 19
1 37 2 8 10 13 14 15 17 20 33
1 37 2 8 10 12 13 14 17 20 21 33
1 37 2 8 10 12 13 14 16 17 21 33
1 37 2 8 9 10 12 13 14 16 17 21
1 37 2 8 9 10 12 13 14 17 20 21
1 37 2 8 10 13 14 15 16 17 21 33
1 37 2 8 10 13 14 15 16 17 19 33
1 37 2 8 9 10 13 14 15 16 17 19
1 37 2 8 9 10 13 14 15 16 17 21
1 37 2 8 9 10 13 14 15 17 20
1 36 2 8 13 15 17 19 20
1 36 2 8 13 15 16 19
1 36 2 8 13 15 16 17 19
1 36 2 8 10 13 15 21 33
1 36 2 8 10 12 13 21 33
1 36 2 8 9 10 12 13 21
1 36 2 8 10 13 15 17 19 20 33
1 36 2 8 10 13 15 16 19 33
1 36 2 8 9 10 13 15 16 19
1 36 2 8 10 13 15 16 17 19 33
1 36 2 8 9 10 13 15 16 17 19
1 36 2 8 9 10 13 15 17 19 20
1 36 2 8 9 10 13 15 21
1 36 2 8 10 13 14 15 21 33
1 36 2 8 10 12 13 14 21 33
1 36 2 8 9 10 12 13 14 21
1 36 2 8 10 13 14 15 17 19 20 33
1 36 2 8 10 13 14 15 16 19 33
1 36 2 8 9 10 13 14 15 16 19
1 36 2 8 10 13 14 15 16 17 19 33
1 36 2 8 9 10 13 14 15 16 17 19
1 36 2 8 9 10 13 14 15 17 19 20
1 36 2 8 9 10 13 14 15 21
2 10 14 18 22 23 25 31
13 14 15 17 18 20 22 23
1 10 12 13 14 17 18 20 21 22 23 33
8 9 10 11 12 13 14 17 18 20 21 22 23
8 9 10 11 12 13 14 16 17 18 21 22 23
1 10 12 13 14 16 17 18 21 22 23 33
1 5 8 9 10 11 12 13 14 16 17 18 21 22 23
1 5 8 9 10 11 12 13 14 17 18 20 21 22 23
1 10 13 14 15 16 17 18 21 22 23 33
8 9 10 11 13 14 15 16 17 18 21 22 23
13 14 15 16 17 18 19 22 23
8 11 13 14 15 16 17 18 19 22 23
8 9 11 13 14 15 16 17 18 19 22 23
8 9 10 11 13 14 15 16 17 18 19 22 23
1 5 13 14 15 16 17 18 19 22 23
1 10 13 14 15 16 17 18 19 22 23 33
1 5 8 9 10 11 13 14 15 16 17 18 19 22 23
1 5 8 9 10 11 13 14 15 16 17 18 21 22 23
1 2 5 13 14 15 17 18 20 22 23
1 36 2 13 14 15 17 18 19 20 22 23
1 37 2 13 14 15 17 18 20 22 23
1 37 2 13 14 15 16 17 18 19 22 23
1 36 2 13 14 15 16 17 18 19 22 23
1 2 5 13 14 15 16 17 18 19 22 23
1 2 10 12 13 14 16 17 18 21 22 23 33
1 2 10 12 13 14 16 17 18 21 22 23 24 25 33
1 38 2 8 9 10 12 13 14 16 17 18 21 22 23 24 25
3 9 14 17 20 35
3 6
1 2 3 4 7
1 2 3 5
1 36 2 3 13 15 17 19 20
1 37 2 3 13 14 15 17 20
1 37 2 3 13 14 15 16 17 19
1 36 2 3 13 15 16 19
1 36 2 3 13 15 16 17 19
1 2 3 4 5
1 36 2 3 4 13 15 17 19 20
1 37 2 3 4 13 14 15 17 20
1 37 2 3 4 13 14 15 16 17 19
1 36 2 3 4 13 15 16 19
1 36 2 3 4 13 15 16 17 19
3 9 34
3 6 8 9 11
1 2 3 4 7 8 9 11
1 2 3 5 8 9 11
1 36 2 3 8 9 13 15 17 19 20
1 36 2 3 8 9 13 15 16 19
1 36 2 3 8 9 13 15 16 17 19
1 36 2 3 5 8 9 13 15 17 19 20
1 36 2 3 5 8 9 13 15 16 19
1 36 2 3 5 8 9 13 15 16 17 19
1 2 3 4 5 8 9 11
1 36 2 3 4 8 9 13 15 17 19 20
1 36 2 3 4 8 9 13 15 16 19
1 36 2 3 4 8 9 13 15 16 17 19
1 36 2 3 4 5 8 9 13 15 17 19 20
1 36 2 3 4 5 8 9 13 15 16 19
1 36 2 3 4 5 8 9 13 15 16 17 19
1 36 2 3 4 7 8 9 13 15 17 19 20
1 36 2 3 4 7 8 9 13 15 16 19
1 36 2 3 4 7 8 9 13 15 16 17 19
36 3 6 8 9 13 15 17 19 20
36 3 6 8 9 13 15 16 19
36 3 6 8 9 13 15 16 17 19
3 9 14 16 35
3 9 13 14 15 34
3 6 8 9 11 13 14 15
1 2 3 4 7 8 9 11 13 14 15
1 2 3 5 8 9 11 13 14 15
1 2 3 4 5 8 9 11 13 14 15
3 9 13 14 15 16 19 34
3 6 8 9 11 13 14 15 16 19
1 2 3 4 7 8 9 11 13 14 15 16 19
1 2 3 5 8 9 11 13 14 15 16 19
1 36 2 3 8 9 13 14 15 16 19
1 36 2 3 5 8 9 13 14 15 16 19
1 2 3 4 5 8 9 11 13 14 15 16 19
1 36 2 3 4 8 9 13 14 15 16 19
1 36 2 3 4 5 8 9 13 14 15 16 19
1 36 2 3 4 7 8 9 13 14 15 16 19
36 3 6 8 9 13 14 15 16 19
3 9 14 16 17 35
3 9 13 14 15 16 17 19 34
3 6 8 9 11 13 14 15 16 17 19
1 2 3 4 7 8 9 11 13 14 15 16 17 19
1 2 3 5 8 9 11 13 14 15 16 17 19
1 36 2 3 8 9 13 14 15 16 17 19
1 37 2 3 8 9 13 14 15 16 17 19
1 36 2 3 5 8 9 13 14 15 16 17 19
1 37 2 3 5 8 9 13 14 15 16 17 19
1 2 3 4 5 8 9 11 13 14 15 16 17 19
1 36 2 3 4 8 9 13 14 15 16 17 19
1 37 2 3 4 8 9 13 14 15 16 17 19
1 36 2 3 4 5 8 9 13 14 15 16 17 19
1 37 2 3 4 5 8 9 13 14 15 16 17 19
1 36 2 3 4 7 8 9 13 14 15 16 17 19
1 37 2 3 4 7 8 9 13 14 15 16 17 19
36 3 6 8 9 13 14 15 16 17 19
37 3 6 8 9 13 14 15 16 17 19
3 9 13 14 15 17 20 34
3 6 8 9 11 13 14 15 17 20
1 2 3 4 7 8 9 11 13 14 15 17 20
1 2 3 5 8 9 11 13 14 15 17 20
1 36 2 3 8 9 13 14 15 17 19 20
1 37 2 3 8 9 13 14 15 17 20
1 36 2 3 5 8 9 13 14 15 17 19 20
1 37 2 3 5 8 9 13 14 15 17 20
1 2 3 4 5 8 9 11 13 14 15 17 20
1 36 2 3 4 8 9 13 14 15 17 19 20
1 37 2 3 4 8 9 13 14 15 17 20
1 36 2 3 4 5 8 9 13 14 15 17 19 20
1 37 2 3 4 5 8 9 13 14 15 17 20
1 36 2 3 4 7 8 9 13 14 15 17 19 20
1 37 2 3 4 7 8 9 13 14 15 17 20
36 3 6 8 9 13 14 15 17 19 20
37 3 6 8 9 13 14 15 17 20
1 3 10 33 34
3 9 10 34
3 6 8 9 10 11
1 3 4 7 9 10 34
1 3 5 9 10 34
1 3 5 6 8 9 10 11
1 2 3 5 8 9 10 11
1 3 4 5 9 10 34
1 3 4 5 6 8 9 10 11
1 2 3 4 5 8 9 10 11
1 3 4 6 7 8 9 10 11
1 2 3 4 7 8 9 10 11
1 3 6 10 33
1 2 3 10 33
1 3 10 12 21 33 34
3 9 10 12 21 34
3 6 8 9 10 11 12 21
1 3 4 7 9 10 12 21 34
1 3 5 9 10 12 21 34
1 3 5 6 8 9 10 11 12 21
1 2 3 5 8 9 10 11 12 21
1 3 4 5 9 10 12 21 34
1 3 4 5 6 8 9 10 11 12 21
1 2 3 4 5 8 9 10 11 12 21
1 3 4 6 7 8 9 10 11 12 21
1 2 3 4 7 8 9 10 11 12 21
1 3 6 10 12 21 33
1 2 3 10 12 21 33
3 10 12 17 24 32
1 3 10 12 17 20 21 33 34
3 9 10 12 17 20 21 34
3 9 10 12 16 17 21 34
3 6 8 9 10 11 12 16 17 21
3 6 8 9 10 11 12 17 20 21
1 3 10 12 16 17 21 33 34
1 3 4 7 9 10 12 16 17 21 34
1 3 5 9 10 12 16 17 21 34
1 3 5 6 8 9 10 11 12 16 17 21
1 2 3 5 8 9 10 11 12 16 17 21
1 3 4 5 9 10 12 16 17 21 34
1 3 4 5 6 8 9 10 11 12 16 17 21
1 2 3 4 5 8 9 10 11 12 16 17 21
1 3 4 6 7 8 9 10 11 12 16 17 21
1 2 3 4 7 8 9 10 11 12 16 17 21
1 3 6 10 12 16 17 21 33
1 2 3 10 12 16 17 21 33
1 3 4 7 9 10 12 17 20 21 34
1 3 5 9 10 12 17 20 21 34
1 3 5 6 8 9 10 11 12 17 20 21
1 2 3 5 8 9 10 11 12 17 20 21
1 3 4 5 9 10 12 17 20 21 34
1 3 4 5 6 8 9 10 11 12 17 20 21
1 2 3 4 5 8 9 10 11 12 17 20 21
1 3 4 6 7 8 9 10 11 12 17 20 21
1 2 3 4 7 8 9 10 11 12 17 20 21
1 3 6 10 12 17 20 21 33
1 2 3 10 12 17 20 21 33
1 3 10 12 13 21 33 34
3 9 10 12 13 21 34
3 6 8 9 10 11 12 13 21
36 3 6 8 9 10 12 13 21
1 3 4 7 9 10 12 13 21 34
1 3 5 9 10 12 13 21 34
1 36 3 9 10 12 13 21 34
1 36 3 6 8 9 10 12 13 21
1 36 2 3 8 9 10 12 13 21
1 3 5 6 8 9 10 11 12 13 21
1 2 3 5 8 9 10 11 12 13 21
1 36 2 3 5 8 9 10 12 13 21
1 36 3 5 6 8 9 10 12 13 21
1 3 4 5 9 10 12 13 21 34
1 36 3 4 9 10 12 13 21 34
1 36 3 4 6 8 9 10 12 13 21
1 36 2 3 4 8 9 10 12 13 21
1 3 4 5 6 8 9 10 11 12 13 21
1 2 3 4 5 8 9 10 11 12 13 21
1 36 2 3 4 5 8 9 10 12 13 21
1 36 3 4 5 6 8 9 10 12 13 21
1 3 4 6 7 8 9 10 11 12 13 21
1 2 3 4 7 8 9 10 11 12 13 21
1 36 2 3 4 7 8 9 10 12 13 21
1 36 3 4 6 7 8 9 10 12 13 21
1 3 6 10 12 13 21 33
1 2 3 10 12 13 21 33
1 3 10 12 13 17 20 21 33 34
3 9 10 12 13 17 20 21 34
3 9 10 12 13 16 17 21 34
3 6 8 9 10 11 12 13 16 17 21
36 3 6 8 9 10 12 13 16 17 21
3 6 8 9 10 11 12 13 17 20 21
36 3 6 8 9 10 12 13 17 20 21
1 3 10 12 13 16 17 21 33 34
1 3 4 7 9 10 12 13 16 17 21 34
1 3 5 9 10 12 13 16 17 21 34
1 36 3 9 10 12 13 16 17 21 34
1 36 3 6 8 9 10 12 13 16 17 21
1 36 2 3 8 9 10 12 13 16 17 21
1 3 5 6 8 9 10 11 12 13 16 17 21
1 2 3 5 8 9 10 11 12 13 16 17 21
1 36 2 3 5 8 9 10 12 13 16 17 21
1 36 3 5 6 8 9 10 12 13 16 17 21
1 3 4 5 9 10 12 13 16 17 21 34
1 36 3 4 9 10 12 13 16 17 21 34
1 36 3 4 6 8 9 10 12 13 16 17 21
1 36 2 3 4 8 9 10 12 13 16 17 21
1 3 4 5 6 8 9 10 11 12 13 16 17 21
1 2 3 4 5 8 9 10 11 12 13 16 17 21
1 36 2 3 4 5 8 9 10 12 13 16 17 21
1 36 3 4 5 6 8 9 10 12 13 16 17 21
1 3 4 6 7 8 9 10 11 12 13 16 17 21
1 2 3 4 7 8 9 10 11 12 13 16 17 21
1 36 2 3 4 7 8 9 10 12 13 16 17 21
1 36 3 4 6 7 8 9 10 12 13 16 17 21
1 3 6 10 12 13 16 17 21 33
1 2 3 10 12 13 16 17 21 33
1 3 4 7 9 10 12 13 17 20 21 34
1 3 5 9 10 12 13 17 20 21 34
1 36 3 9 10 12 13 17 20 21 34
1 36 3 6 8 9 10 12 13 17 20 21
1 36 2 3 8 9 10 12 13 17 20 21
1 3 5 6 8 9 10 11 12 13 17 20 21
1 2 3 5 8 9 10 11 12 13 17 20 21
1 36 2 3 5 8 9 10 12 13 17 20 21
1 36 3 5 6 8 9 10 12 13 17 20 21
1 3 4 5 9 10 12 13 17 20 21 34
1 36 3 4 9 10 12 13 17 20 21 34
1 36 3 4 6 8 9 10 12 13 17 20 21
1 36 2 3 4 8 9 10 12 13 17 20 21
1 3 4 5 6 8 9 10 11 12 13 17 20 21
1 2 3 4 5 8 9 10 11 12 13 17 20 21
1 36 2 3 4 5 8 9 10 12 13 17 20 21
1 36 3 4 5 6 8 9 10 12 13 17 20 21
1 3 4 6 7 8 9 10 11 12 13 17 20 21
1 2 3 4 7 8 9 10 11 12 13 17 20 21
1 36 2 3 4 7 8 9 10 12 13 17 20 21
1 36 3 4 6 7 8 9 10 12 13 17 20 21
1 3 6 10 12 13 17 20 21 33
1 2 3 10 12 13 17 20 21 33
1 3 10 13 15 33 34
3 9 10 13 15 34
3 6 8 9 10 11 13 15
36 3 6 8 9 10 13 15 21
36 3 6 8 9 10 13 15 16 19
1 3 4 7 9 10 13 15 34
1 3 5 9 10 13 15 34
1 36 3 9 10 13 15 21 34
1 36 3 9 10 13 15 16 19 34
1 36 3 6 8 9 10 13 15 16 19
1 36 2 3 8 9 10 13 15 16 19
1 36 3 6 8 9 10 13 15 21
1 36 2 3 8 9 10 13 15 21
1 3 5 6 8 9 10 11 13 15
1 2 3 5 8 9 10 11 13 15
1 36 2 3 5 8 9 10 13 15 21
1 36 2 3 5 8 9 10 13 15 16 19
1 36 3 5 6 8 9 10 13 15 21
1 36 3 5 6 8 9 10 13 15 16 19
1 3 4 5 9 10 13 15 34
1 36 3 4 9 10 13 15 21 34
1 36 3 4 9 10 13 15 16 19 34
1 36 3 4 6 8 9 10 13 15 16 19
1 36 2 3 4 8 9 10 13 15 16 19
1 36 3 4 6 8 9 10 13 15 21
1 36 2 3 4 8 9 10 13 15 21
1 3 4 5 6 8 9 10 11 13 15
1 2 3 4 5 8 9 10 11 13 15
1 36 2 3 4 5 8 9 10 13 15 21
1 36 2 3 4 5 8 9 10 13 15 16 19
1 36 3 4 5 6 8 9 10 13 15 21
1 36 3 4 5 6 8 9 10 13 15 16 19
1 3 4 6 7 8 9 10 11 13 15
1 2 3 4 7 8 9 10 11 13 15
1 36 2 3 4 7 8 9 10 13 15 21
1 36 2 3 4 7 8 9 10 13 15 16 19
1 36 3 4 6 7 8 9 10 13 15 21
1 36 3 4 6 7 8 9 10 13 15 16 19
1 3 6 10 13 15 33
1 2 3 10 13 15 33
1 3 10 13 15 17 20 33 34
3 9 10 13 15 17 20 34
3 9 10 13 15 16 17 21 34
3 9 10 13 15 16 17 19 34
3 6 8 9 10 11 13 15 16 17 19
36 3 6 8 9 10 13 15 16 17 19
3 6 8 9 10 11 13 15 16 17 21
36 3 6 8 9 10 13 15 16 17 21
3 6 8 9 10 11 13 15 17 20
36 3 6 8 9 10 13 15 17 20 21
36 3 6 8 9 10 13 15 17 19 20
1 3 10 13 15 16 17 21 33 34
1 3 10 13 15 16 17 19 33 34
1 3 4 7 9 10 13 15 16 17 19 34
1 3 5 9 10 13 15 16 17 19 34
1 36 3 9 10 13 15 16 17 19 34
1 36 3 6 8 9 10 13 15 16 17 19
1 36 2 3 8 9 10 13 15 16 17 19
1 3 5 6 8 9 10 11 13 15 16 17 19
1 2 3 5 8 9 10 11 13 15 16 17 19
1 36 2 3 5 8 9 10 13 15 16 17 19
1 36 3 5 6 8 9 10 13 15 16 17 19
1 3 4 5 9 10 13 15 16 17 19 34
1 36 3 4 9 10 13 15 16 17 19 34
1 36 3 4 6 8 9 10 13 15 16 17 19
1 36 2 3 4 8 9 10 13 15 16 17 19
1 3 4 5 6 8 9 10 11 13 15 16 17 19
1 2 3 4 5 8 9 10 11 13 15 16 17 19
1 36 2 3 4 5 8 9 10 13 15 16 17 19
1 36 3 4 5 6 8 9 10 13 15 16 17 19
1 3 4 6 7 8 9 10 11 13 15 16 17 19
1 2 3 4 7 8 9 10 11 13 15 16 17 19
1 36 2 3 4 7 8 9 10 13 15 16 17 19
1 36 3 4 6 7 8 9 10 13 15 16 17 19
1 3 6 10 13 15 16 17 19 33
1 2 3 10 13 15 16 17 19 33
1 3 4 7 9 10 13 15 16 17 21 34
1 3 5 9 10 13 15 16 17 21 34
1 36 3 9 10 13 15 16 17 21 34
1 36 3 6 8 9 10 13 15 16 17 21
1 36 2 3 8 9 10 13 15 16 17 21
1 3 5 6 8 9 10 11 13 15 16 17 21
1 2 3 5 8 9 10 11 13 15 16 17 21
1 36 2 3 5 8 9 10 13 15 16 17 21
1 36 3 5 6 8 9 10 13 15 16 17 21
1 3 4 5 9 10 13 15 16 17 21 34
1 36 3 4 9 10 13 15 16 17 21 34
1 36 3 4 6 8 9 10 13 15 16 17 21
1 36 2 3 4 8 9 10 13 15 16 17 21
1 3 4 5 6 8 9 10 11 13 15 16 17 21
1 2 3 4 5 8 9 10 11 13 15 16 17 21
1 36 2 3 4 5 8 9 10 13 15 16 17 21
1 36 3 4 5 6 8 9 10 13 15 16 17 21
1 3 4 6 7 8 9 10 11 13 15 16 17 21
1 2 3 4 7 8 9 10 11 13 15 16 17 21
1 36 2 3 4 7 8 9 10 13 15 16 17 21
1 36 3 4 6 7 8 9 10 13 15 16 17 21
1 3 6 10 13 15 16 17 21 33
1 2 3 10 13 15 16 17 21 33
1 3 4 7 9 10 13 15 17 20 34
1 3 5 9 10 13 15 17 20 34
1 36 3 9 10 13 15 17 20 21 34
1 36 3 9 10 13 15 17 19 20 34
1 36 3 6 8 9 10 13 15 17 19 20
1 36 2 3 8 9 10 13 15 17 19 20
1 36 3 6 8 9 10 13 15 17 20 21
1 36 2 3 8 9 10 13 15 17 20 21
1 3 5 6 8 9 10 11 13 15 17 20
1 2 3 5 8 9 10 11 13 15 17 20
1 36 2 3 5 8 9 10 13 15 17 20 21
1 36 2 3 5 8 9 10 13 15 17 19 20
1 36 3 5 6 8 9 10 13 15 17 20 21
1 36 3 5 6 8 9 10 13 15 17 19 20
1 3 4 5 9 10 13 15 17 20 34
1 36 3 4 9 10 13 15 17 20 21 34
1 36 3 4 9 10 13 15 17 19 20 34
1 36 3 4 6 8 9 10 13 15 17 19 20
1 36 2 3 4 8 9 10 13 15 17 19 20
1 36 3 4 6 8 9 10 13 15 17 20 21
1 36 2 3 4 8 9 10 13 15 17 20 21
1 3 4 5 6 8 9 10 11 13 15 17 20
1 2 3 4 5 8 9 10 11 13 15 17 20
1 36 2 3 4 5 8 9 10 13 15 17 20 21
1 36 2 3 4 5 8 9 10 13 15 17 19 20
1 36 3 4 5 6 8 9 10 13 15 17 20 21
1 36 3 4 5 6 8 9 10 13 15 17 19 20
1 3 4 6 7 8 9 10 11 13 15 17 20
1 2 3 4 7 8 9 10 11 13 15 17 20
1 36 2 3 4 7 8 9 10 13 15 17 20 21
1 36 2 3 4 7 8 9 10 13 15 17 19 20
1 36 3 4 6 7 8 9 10 13 15 17 20 21
1 36 3 4 6 7 8 9 10 13 15 17 19 20
1 3 6 10 13 15 17 20 33
1 2 3 10 13 15 17 20 33
3 10 12 14 18 25 31 32
3 10 14 18 20 25 31 35
1 3 10 14 17 20 33 35
3 9 10 14 17 20 35
3 9 10 14 16 35
3 9 10 14 16 17 35
1 3 10 14 16 33 35
1 3 4 7 9 10 14 16 35
1 3 5 9 10 14 16 35
1 36 3 9 10 14 16 35
1 3 4 5 9 10 14 16 35
1 36 3 4 9 10 14 16 35
1 3 10 14 16 17 33 35
1 3 4 7 9 10 14 16 17 35
1 3 5 9 10 14 16 17 35
1 36 3 9 10 14 16 17 35
1 37 3 9 10 14 16 17 35
1 3 4 5 9 10 14 16 17 35
1 36 3 4 9 10 14 16 17 35
1 37 3 4 9 10 14 16 17 35
1 3 4 7 9 10 14 17 20 35
1 3 5 9 10 14 17 20 35
1 36 3 9 10 14 17 20 35
1 37 3 9 10 14 17 20 35
1 3 4 5 9 10 14 17 20 35
1 36 3 4 9 10 14 17 20 35
1 37 3 4 9 10 14 17 20 35
3 10 14 16 18 25 31 35
3 10 14 18 25 31 34
3 6 10 14 18 25 31
2 3 10 14 18 25 31
1 3 10 14 16 17 18 33 35
3 9 10 14 16 17 18 35
1 3 4 7 9 10 14 16 17 18 35
1 3 5 9 10 14 16 17 18 35
1 36 3 9 10 14 16 17 18 35
1 37 3 9 10 14 16 17 18 35
1 3 4 5 9 10 14 16 17 18 35
1 36 3 4 9 10 14 16 17 18 35
1 37 3 4 9 10 14 16 17 18 35
3 10 14 16 18 21 25 31 34
3 10 14 16 18 19 25 31 34
3 6 10 14 16 18 19 25 31
2 3 10 14 16 18 19 25 31
3 6 10 14 16 18 21 25 31
2 3 10 14 16 18 21 25 31
1 3 10 14 17 18 20 33 35
3 9 10 14 17 18 20 35
1 3 4 7 9 10 14 17 18 20 35
1 3 5 9 10 14 17 18 20 35
1 36 3 9 10 14 17 18 20 35
1 37 3 9 10 14 17 18 20 35
1 3 4 5 9 10 14 17 18 20 35
1 36 3 4 9 10 14 17 18 20 35
1 37 3 4 9 10 14 17 18 20 35
3 10 14 18 20 25 31 34
3 6 10 14 18 20 25 31
2 3 10 14 18 20 25 31
1 3 10 12 14 16 21 33 35
3 9 10 12 14 16 21 35
3 9 10 12 13 14 21 34
3 6 8 9 10 11 12 13 14 21
36 3 6 8 9 10 12 13 14 21
3 9 10 12 13 14 16 21 34
3 6 8 9 10 11 12 13 14 16 21
36 3 6 8 9 10 12 13 14 16 21
1 3 10 12 13 14 21 33 34
1 3 4 7 9 10 12 13 14 21 34
1 3 5 9 10 12 13 14 21 34
1 36 3 9 10 12 13 14 21 34
1 36 3 6 8 9 10 12 13 14 21
1 36 2 3 8 9 10 12 13 14 21
1 3 5 6 8 9 10 11 12 13 14 21
1 2 3 5 8 9 10 11 12 13 14 21
1 36 2 3 5 8 9 10 12 13 14 21
1 36 3 5 6 8 9 10 12 13 14 21
1 3 4 5 9 10 12 13 14 21 34
1 36 3 4 9 10 12 13 14 21 34
1 36 3 4 6 8 9 10 12 13 14 21
1 36 2 3 4 8 9 10 12 13 14 21
1 3 4 5 6 8 9 10 11 12 13 14 21
1 2 3 4 5 8 9 10 11 12 13 14 21
1 36 2 3 4 5 8 9 10 12 13 14 21
1 36 3 4 5 6 8 9 10 12 13 14 21
1 3 4 6 7 8 9 10 11 12 13 14 21
1 2 3 4 7 8 9 10 11 12 13 14 21
1 36 2 3 4 7 8 9 10 12 13 14 21
1 36 3 4 6 7 8 9 10 12 13 14 21
1 3 6 10 12 13 14 21 33
1 2 3 10 12 13 14 21 33
1 3 4 7 9 10 12 14 16 21 35
1 3 5 9 10 12 14 16 21 35
1 36 3 9 10 12 14 16 21 35
1 36 3 9 10 12 13 14 16 21 34
1 36 3 6 8 9 10 12 13 14 16 21
1 36 2 3 8 9 10 12 13 14 16 21
1 3 5 9 10 12 13 14 16 21 34
1 3 5 6 8 9 10 11 12 13 14 16 21
1 2 3 5 8 9 10 11 12 13 14 16 21
1 36 2 3 5 8 9 10 12 13 14 16 21
1 36 3 5 6 8 9 10 12 13 14 16 21
1 3 4 5 9 10 12 14 16 21 35
1 36 3 4 9 10 12 14 16 21 35
1 36 3 4 9 10 12 13 14 16 21 34
1 36 3 4 6 8 9 10 12 13 14 16 21
1 36 2 3 4 8 9 10 12 13 14 16 21
1 3 4 5 9 10 12 13 14 16 21 34
1 3 4 5 6 8 9 10 11 12 13 14 16 21
1 2 3 4 5 8 9 10 11 12 13 14 16 21
1 36 2 3 4 5 8 9 10 12 13 14 16 21
1 36 3 4 5 6 8 9 10 12 13 14 16 21
1 3 4 7 9 10 12 13 14 16 21 34
1 3 4 6 7 8 9 10 11 12 13 14 16 21
1 2 3 4 7 8 9 10 11 12 13 14 16 21
1 36 2 3 4 7 8 9 10 12 13 14 16 21
1 36 3 4 6 7 8 9 10 12 13 14 16 21
1 3 10 12 13 14 16 21 33 34
1 3 6 10 12 13 14 16 21 33
1 2 3 10 12 13 14 16 21 33
1 3 10 12 14 17 20 21 33 35
3 9 10 12 14 17 20 21 35
3 9 10 12 14 16 17 21 35
3 9 10 12 13 14 16 17 21 34
3 6 8 9 10 11 12 13 14 16 17 21
36 3 6 8 9 10 12 13 14 16 17 21
37 3 6 8 9 10 12 13 14 16 17 21
3 9 10 12 13 14 17 20 21 34
3 6 8 9 10 11 12 13 14 17 20 21
36 3 6 8 9 10 12 13 14 17 20 21
37 3 6 8 9 10 12 13 14 17 20 21
1 3 10 12 14 16 17 21 33 35
1 3 4 7 9 10 12 14 16 17 21 35
1 3 5 9 10 12 14 16 17 21 35
1 36 3 9 10 12 14 16 17 21 35
1 37 3 9 10 12 14 16 17 21 35
1 37 3 9 10 12 13 14 16 17 21 34
1 37 3 6 8 9 10 12 13 14 16 17 21
1 37 2 3 8 9 10 12 13 14 16 17 21
1 36 3 9 10 12 13 14 16 17 21 34
1 36 3 6 8 9 10 12 13 14 16 17 21
1 36 2 3 8 9 10 12 13 14 16 17 21
1 3 5 9 10 12 13 14 16 17 21 34
1 3 5 6 8 9 10 11 12 13 14 16 17 21
1 2 3 5 8 9 10 11 12 13 14 16 17 21
1 36 2 3 5 8 9 10 12 13 14 16 17 21
1 37 2 3 5 8 9 10 12 13 14 16 17 21
1 36 3 5 6 8 9 10 12 13 14 16 17 21
1 37 3 5 6 8 9 10 12 13 14 16 17 21
1 3 4 5 9 10 12 14 16 17 21 35
1 36 3 4 9 10 12 14 16 17 21 35
1 37 3 4 9 10 12 14 16 17 21 35
1 37 3 4 9 10 12 13 14 16 17 21 34
1 37 3 4 6 8 9 10 12 13 14 16 17 21
1 37 2 3 4 8 9 10 12 13 14 16 17 21
1 36 3 4 9 10 12 13 14 16 17 21 34
1 36 3 4 6 8 9 10 12 13 14 16 17 21
1 36 2 3 4 8 9 10 12 13 14 16 17 21
1 3 4 5 9 10 12 13 14 16 17 21 34
1 3 4 5 6 8 9 10 11 12 13 14 16 17 21
1 2 3 4 5 8 9 10 11 12 13 14 16 17 21
1 36 2 3 4 5 8 9 10 12 13 14 16 17 21
1 37 2 3 4 5 8 9 10 12 13 14 16 17 21
1 36 3 4 5 6 8 9 10 12 13 14 16 17 21
1 37 3 4 5 6 8 9 10 12 13 14 16 17 21
1 3 4 7 9 10 12 13 14 16 17 21 34
1 3 4 6 7 8 9 10 11 12 13 14 16 17 21
1 2 3 4 7 8 9 10 11 12 13 14 16 17 21
1 36 2 3 4 7 8 9 10 12 13 14 16 17 21
1 37 2 3 4 7 8 9 10 12 13 14 16 17 21
1 36 3 4 6 7 8 9 10 12 13 14 16 17 21
1 37 3 4 6 7 8 9 10 12 13 14 16 17 21
1 3 10 12 13 14 16 17 21 33 34
1 3 6 10 12 13 14 16 17 21 33
1 2 3 10 12 13 14 16 17 21 33
1 3 4 7 9 10 12 14 17 20 21 35
1 3 5 9 10 12 14 17 20 21 35
1 36 3 9 10 12 14 17 20 21 35
1 37 3 9 10 12 14 17 20 21 35
1 37 3 9 10 12 13 14 17 20 21 34
1 37 3 6 8 9 10 12 13 14 17 20 21
1 37 2 3 8 9 10 12 13 14 17 20 21
1 36 3 9 10 12 13 14 17 20 21 34
1 36 3 6 8 9 10 12 13 14 17 20 21
1 36 2 3 8 9 10 12 13 14 17 20 21
1 3 5 9 10 12 13 14 17 20 21 34
1 3 5 6 8 9 10 11 12 13 14 17 20 21
1 2 3 5 8 9 10 11 12 13 14 17 20 21
1 36 2 3 5 8 9 10 12 13 14 17 20 21
1 37 2 3 5 8 9 10 12 13 14 17 20 21
1 36 3 5 6 8 9 10 12 13 14 17 20 21
1 37 3 5 6 8 9 10 12 13 14 17 20 21
1 3 4 5 9 10 12 14 17 20 21 35
1 36 3 4 9 10 12 14 17 20 21 35
1 37 3 4 9 10 12 14 17 20 21 35
1 37 3 4 9 10 12 13 14 17 20 21 34
1 37 3 4 6 8 9 10 12 13 14 17 20 21
1 37 2 3 4 8 9 10 12 13 14 17 20 21
1 36 3 4 9 10 12 13 14 17 20 21 34
1 36 3 4 6 8 9 10 12 13 14 17 20 21
1 36 2 3 4 8 9 10 12 13 14 17 20 21
1 3 4 5 9 10 12 13 14 17 20 21 34
1 3 4 5 6 8 9 10 11 12 13 14 17 20 21
1 2 3 4 5 8 9 10 11 12 13 14 17 20 21
1 36 2 3 4 5 8 9 10 12 13 14 17 20 21
1 37 2 3 4 5 8 9 10 12 13 14 17 20 21
1 36 3 4 5 6 8 9 10 12 13 14 17 20 21
1 37 3 4 5 6 8 9 10 12 13 14 17 20 21
1 3 4 7 9 10 12 13 14 17 20 21 34
1 3 4 6 7 8 9 10 11 12 13 14 17 20 21
1 2 3 4 7 8 9 10 11 12 13 14 17 20 21
1 36 2 3 4 7 8 9 10 12 13 14 17 20 21
1 37 2 3 4 7 8 9 10 12 13 14 17 20 21
1 36 3 4 6 7 8 9 10 12 13 14 17 20 21
1 37 3 4 6 7 8 9 10 12 13 14 17 20 21
1 3 10 12 13 14 17 20 21 33 34
1 3 6 10 12 13 14 17 20 21 33
1 2 3 10 12 13 14 17 20 21 33
1 3 10 12 14 17 18 20 21 33 35
3 9 10 12 14 17 18 20 21 35
3 9 10 12 14 16 17 18 21 35
3 9 10 12 13 14 16 17 18 21 34
3 6 8 9 10 11 12 13 14 16 17 18 21
36 3 6 8 9 10 12 13 14 16 17 18 21
37 3 6 8 9 10 12 13 14 16 17 18 21
3 9 10 12 13 14 17 18 20 21 34
3 6 8 9 10 11 12 13 14 17 18 20 21
36 3 6 8 9 10 12 13 14 17 18 20 21
37 3 6 8 9 10 12 13 14 17 18 20 21
1 3 10 12 14 16 17 18 21 33 35
1 3 4 7 9 10 12 14 16 17 18 21 35
1 3 5 9 10 12 14 16 17 18 21 35
1 36 3 9 10 12 14 16 17 18 21 35
1 37 3 9 10 12 14 16 17 18 21 35
1 37 3 9 10 12 13 14 16 17 18 21 34
1 37 3 6 8 9 10 12 13 14 16 17 18 21
1 37 2 3 8 9 10 12 13 14 16 17 18 21
1 36 3 9 10 12 13 14 16 17 18 21 34
1 36 3 6 8 9 10 12 13 14 16 17 18 21
1 36 2 3 8 9 10 12 13 14 16 17 18 21
1 3 5 9 10 12 13 14 16 17 18 21 34
1 3 5 6 8 9 10 11 12 13 14 16 17 18 21
1 2 3 5 8 9 10 11 12 13 14 16 17 18 21
1 36 2 3 5 8 9 10 12 13 14 16 17 18 21
1 37 2 3 5 8 9 10 12 13 14 16 17 18 21
1 36 3 5 6 8 9 10 12 13 14 16 17 18 21
1 37 3 5 6 8 9 10 12 13 14 16 17 18 21
1 3 4 5 9 10 12 14 16 17 18 21 35
1 36 3 4 9 10 12 14 16 17 18 21 35
1 37 3 4 9 10 12 14 16 17 18 21 35
1 37 3 4 9 10 12 13 14 16 17 18 21 34
1 37 3 4 6 8 9 10 12 13 14 16 17 18 21
1 37 2 3 4 8 9 10 12 13 14 16 17 18 21
1 36 3 4 9 10 12 13 14 16 17 18 21 34
1 36 3 4 6 8 9 10 12 13 14 16 17 18 21
1 36 2 3 4 8 9 10 12 13 14 16 17 18 21
1 3 4 5 9 10 12 13 14 16 17 18 21 34
1 3 4 5 6 8 9 10 11 12 13 14 16 17 18 21
1 2 3 4 5 8 9 10 11 12 13 14 16 17 18 21
1 36 2 3 4 5 8 9 10 12 13 14 16 17 18 21
1 37 2 3 4 5 8 9 10 12 13 14 16 17 18 21
1 36 3 4 5 6 8 9 10 12 13 14 16 17 18 21
1 37 3 4 5 6 8 9 10 12 13 14 16 17 18 21
1 3 4 7 9 10 12 13 14 16 17 18 21 34
1 3 4 6 7 8 9 10 11 12 13 14 16 17 18 21
1 2 3 4 7 8 9 10 11 12 13 14 16 17 18 21
1 36 2 3 4 7 8 9 10 12 13 14 16 17 18 21
1 37 2 3 4 7 8 9 10 12 13 14 16 17 18 21
1 36 3 4 6 7 8 9 10 12 13 14 16 17 18 21
1 37 3 4 6 7 8 9 10 12 13 14 16 17 18 21
1 3 10 12 13 14 16 17 18 21 33 34
1 3 6 10 12 13 14 16 17 18 21 33
1 2 3 10 12 13 14 16 17 18 21 33
1 3 4 7 9 10 12 14 17 18 20 21 35
1 3 5 9 10 12 14 17 18 20 21 35
1 36 3 9 10 12 14 17 18 20 21 35
1 37 3 9 10 12 14 17 18 20 21 35
1 37 3 9 10 12 13 14 17 18 20 21 34
1 37 3 6 8 9 10 12 13 14 17 18 20 21
1 37 2 3 8 9 10 12 13 14 17 18 20 21
1 36 3 9 10 12 13 14 17 18 20 21 34
1 36 3 6 8 9 10 12 13 14 17 18 20 21
1 36 2 3 8 9 10 12 13 14 17 18 20 21
1 3 5 9 10 12 13 14 17 18 20 21 34
1 3 5 6 8 9 10 11 12 13 14 17 18 20 21
1 2 3 5 8 9 10 11 12 13 14 17 18 20 21
1 36 2 3 5 8 9 10 12 13 14 17 18 20 21
1 37 2 3 5 8 9 10 12 13 14 17 18 20 21
1 36 3 5 6 8 9 10 12 13 14 17 18 20 21
1 37 3 5 6 8 9 10 12 13 14 17 18 20 21
1 3 4 5 9 10 12 14 17 18 20 21 35
1 36 3 4 9 10 12 14 17 18 20 21 35
1 37 3 4 9 10 12 14 17 18 20 21 35
1 37 3 4 9 10 12 13 14 17 18 20 21 34
1 37 3 4 6 8 9 10 12 13 14 17 18 20 21
1 37 2 3 4 8 9 10 12 13 14 17 18 20 21
1 36 3 4 9 10 12 13 14 17 18 20 21 34
1 36 3 4 6 8 9 10 12 13 14 17 18 20 21
1 36 2 3 4 8 9 10 12 13 14 17 18 20 21
1 3 4 5 9 10 12 13 14 17 18 20 21 34
1 3 4 5 6 8 9 10 11 12 13 14 17 18 20 21
1 2 3 4 5 8 9 10 11 12 13 14 17 18 20 21
1 36 2 3 4 5 8 9 10 12 13 14 17 18 20 21
1 37 2 3 4 5 8 9 10 12 13 14 17 18 20 21
1 36 3 4 5 6 8 9 10 12 13 14 17 18 20 21
1 37 3 4 5 6 8 9 10 12 13 14 17 18 20 21
1 3 4 7 9 10 12 13 14 17 18 20 21 34
1 3 4 6 7 8 9 10 11 12 13 14 17 18 20 21
1 2 3 4 7 8 9 10 11 12 13 14 17 18 20 21
1 36 2 3 4 7 8 9 10 12 13 14 17 18 20 21
1 37 2 3 4 7 8 9 10 12 13 14 17 18 20 21
1 36 3 4 6 7 8 9 10 12 13 14 17 18 20 21
1 37 3 4 6 7 8 9 10 12 13 14 17 18 20 21
1 3 10 12 13 14 17 18 20 21 33 34
1 3 6 10 12 13 14 17 18 20 21 33
1 2 3 10 12 13 14 17 18 20 21 33
1 37 3 6 8 9 10 12 13 14 16 17 18 21 22 23 24
1 36 3 6 8 9 10 12 13 14 16 17 18 21 22 23 24
1 37 3 4 6 8 9 10 12 13 14 16 17 18 21 22 23 24
1 36 3 4 6 8 9 10 12 13 14 16 17 18 21 22 23 24
1 3 6 10 12 13 14 16 17 18 21 22 23 24 33
1 2 3 10 12 13 14 16 17 18 21 22 23 24 33
1 38 3 6 8 9 10 12 13 14 16 17 18 21 22 23 24 25
1 37 3 6 8 9 10 12 13 14 16 17 18 21 22 23 24 25
1 36 3 6 8 9 10 12 13 14 16 17 18 21 22 23 24 25
1 38 3 4 6 8 9 10 12 13 14 16 17 18 21 22 23 24 25
1 37 3 4 6 8 9 10 12 13 14 16 17 18 21 22 23 24 25
1 36 3 4 6 8 9 10 12 13 14 16 17 18 21 22 23 24 25
1 3 6 10 12 13 14 16 17 18 21 22 23 24 25 33
1 2 3 10 12 13 14 16 17 18 21 22 23 24 25 33
3 10 12 14 18 20 21 25 31 35
3 10 12 14 16 18 21 25 31 35
3 10 12 14 18 21 25 31 34
3 6 10 12 14 18 21 25 31
2 3 10 12 14 18 21 25 31
3 10 12 14 16 18 21 25 31 34
3 6 10 12 14 16 18 21 25 31
2 3 10 12 14 16 18 21 25 31
3 10 12 14 18 20 21 25 31 34
3 6 10 12 14 18 20 21 25 31
2 3 10 12 14 18 20 21 25 31
1 3 10 14 15 16 33 35
3 9 10 14 15 16 35
3 9 10 13 14 15 34
3 6 8 9 10 11 13 14 15
36 3 6 8 9 10 13 14 15 21
3 9 10 13 14 15 16 21 34
3 9 10 13 14 15 16 19 34
3 6 8 9 10 11 13 14 15 16 19
36 3 6 8 9 10 13 14 15 16 19
3 6 8 9 10 11 13 14 15 16 21
36 3 6 8 9 10 13 14 15 16 21
1 3 10 13 14 15 33 34
1 3 4 7 9 10 13 14 15 34
1 3 5 9 10 13 14 15 34
1 36 3 9 10 13 14 15 21 34
1 36 3 6 8 9 10 13 14 15 21
1 36 2 3 8 9 10 13 14 15 21
1 3 5 6 8 9 10 11 13 14 15
1 2 3 5 8 9 10 11 13 14 15
1 36 2 3 5 8 9 10 13 14 15 21
1 36 3 5 6 8 9 10 13 14 15 21
1 3 4 5 9 10 13 14 15 34
1 36 3 4 9 10 13 14 15 21 34
1 36 3 4 6 8 9 10 13 14 15 21
1 36 2 3 4 8 9 10 13 14 15 21
1 3 4 5 6 8 9 10 11 13 14 15
1 2 3 4 5 8 9 10 11 13 14 15
1 36 2 3 4 5 8 9 10 13 14 15 21
1 36 3 4 5 6 8 9 10 13 14 15 21
1 3 4 6 7 8 9 10 11 13 14 15
1 2 3 4 7 8 9 10 11 13 14 15
1 36 2 3 4 7 8 9 10 13 14 15 21
1 36 3 4 6 7 8 9 10 13 14 15 21
1 3 6 10 13 14 15 33
1 2 3 10 13 14 15 33
1 3 4 7 9 10 14 15 16 35
1 3 5 9 10 14 15 16 35
1 36 3 9 10 14 15 16 35
1 36 3 9 10 13 14 15 16 21 34
1 36 3 9 10 13 14 15 16 19 34
1 36 3 6 8 9 10 13 14 15 16 19
1 36 2 3 8 9 10 13 14 15 16 19
1 36 3 6 8 9 10 13 14 15 16 21
1 36 2 3 8 9 10 13 14 15 16 21
1 3 5 9 10 13 14 15 16 21 34
1 3 5 9 10 13 14 15 16 19 34
1 3 5 6 8 9 10 11 13 14 15 16 19
1 2 3 5 8 9 10 11 13 14 15 16 19
1 36 2 3 5 8 9 10 13 14 15 16 19
1 36 3 5 6 8 9 10 13 14 15 16 19
1 3 5 6 8 9 10 11 13 14 15 16 21
1 2 3 5 8 9 10 11 13 14 15 16 21
1 36 2 3 5 8 9 10 13 14 15 16 21
1 36 3 5 6 8 9 10 13 14 15 16 21
1 3 4 5 9 10 14 15 16 35
1 36 3 4 9 10 14 15 16 35
1 36 3 4 9 10 13 14 15 16 21 34
1 36 3 4 9 10 13 14 15 16 19 34
1 36 3 4 6 8 9 10 13 14 15 16 19
1 36 2 3 4 8 9 10 13 14 15 16 19
1 36 3 4 6 8 9 10 13 14 15 16 21
1 36 2 3 4 8 9 10 13 14 15 16 21
1 3 4 5 9 10 13 14 15 16 21 34
1 3 4 5 9 10 13 14 15 16 19 34
1 3 4 5 6 8 9 10 11 13 14 15 16 19
1 2 3 4 5 8 9 10 11 13 14 15 16 19
1 36 2 3 4 5 8 9 10 13 14 15 16 19
1 36 3 4 5 6 8 9 10 13 14 15 16 19
1 3 4 5 6 8 9 10 11 13 14 15 16 21
1 2 3 4 5 8 9 10 11 13 14 15 16 21
1 36 2 3 4 5 8 9 10 13 14 15 16 21
1 36 3 4 5 6 8 9 10 13 14 15 16 21
1 3 4 7 9 10 13 14 15 16 21 34
1 3 4 7 9 10 13 14 15 16 19 34
1 3 4 6 7 8 9 10 11 13 14 15 16 19
1 2 3 4 7 8 9 10 11 13 14 15 16 19
1 36 2 3 4 7 8 9 10 13 14 15 16 19
1 36 3 4 6 7 8 9 10 13 14 15 16 19
1 3 4 6 7 8 9 10 11 13 14 15 16 21
1 2 3 4 7 8 9 10 11 13 14 15 16 21
1 36 2 3 4 7 8 9 10 13 14 15 16 21
1 36 3 4 6 7 8 9 10 13 14 15 16 21
1 3 10 13 14 15 16 21 33 34
1 3 10 13 14 15 16 19 33 34
1 3 6 10 13 14 15 16 19 33
1 2 3 10 13 14 15 16 19 33
1 3 6 10 13 14 15 16 21 33
1 2 3 10 13 14 15 16 21 33
3 10 14 15 17 24 32 35
1 3 10 14 15 17 20 33 35
3 9 10 14 15 17 20 35
3 9 10 14 15 16 17 35
3 9 10 13 14 15 16 17 21 34
3 9 10 13 14 15 16 17 19 34
3 6 8 9 10 11 13 14 15 16 17 19
36 3 6 8 9 10 13 14 15 16 17 19
37 3 6 8 9 10 13 14 15 16 17 19
3 6 8 9 10 11 13 14 15 16 17 21
36 3 6 8 9 10 13 14 15 16 17 21
37 3 6 8 9 10 13 14 15 16 17 21
3 9 10 13 14 15 17 20 34
3 6 8 9 10 11 13 14 15 17 20
36 3 6 8 9 10 13 14 15 17 20 21
37 3 6 8 9 10 13 14 15 17 20
36 3 6 8 9 10 13 14 15 17 19 20
1 3 10 14 15 16 17 33 35
1 3 4 7 9 10 14 15 16 17 35
1 3 5 9 10 14 15 16 17 35
1 36 3 9 10 14 15 16 17 35
1 37 3 9 10 14 15 16 17 35
1 37 3 9 10 13 14 15 16 17 21 34
1 37 3 9 10 13 14 15 16 17 19 34
1 37 3 6 8 9 10 13 14 15 16 17 19
1 37 2 3 8 9 10 13 14 15 16 17 19
1 37 3 6 8 9 10 13 14 15 16 17 21
1 37 2 3 8 9 10 13 14 15 16 17 21
1 36 3 9 10 13 14 15 16 17 21 34
1 36 3 9 10 13 14 15 16 17 19 34
1 36 3 6 8 9 10 13 14 15 16 17 19
1 36 2 3 8 9 10 13 14 15 16 17 19
1 36 3 6 8 9 10 13 14 15 16 17 21
1 36 2 3 8 9 10 13 14 15 16 17 21
1 3 5 9 10 13 14 15 16 17 21 34
1 3 5 9 10 13 14 15 16 17 19 34
1 3 5 6 8 9 10 11 13 14 15 16 17 19
1 2 3 5 8 9 10 11 13 14 15 16 17 19
1 36 2 3 5 8 9 10 13 14 15 16 17 19
1 37 2 3 5 8 9 10 13 14 15 16 17 19
1 36 3 5 6 8 9 10 13 14 15 16 17 19
1 37 3 5 6 8 9 10 13 14 15 16 17 19
1 3 5 6 8 9 10 11 13 14 15 16 17 21
1 2 3 5 8 9 10 11 13 14 15 16 17 21
1 36 2 3 5 8 9 10 13 14 15 16 17 21
1 37 2 3 5 8 9 10 13 14 15 16 17 21
1 36 3 5 6 8 9 10 13 14 15 16 17 21
1 37 3 5 6 8 9 10 13 14 15 16 17 21
1 3 4 5 9 10 14 15 16 17 35
1 36 3 4 9 10 14 15 16 17 35
1 37 3 4 9 10 14 15 16 17 35
1 37 3 4 9 10 13 14 15 16 17 21 34
1 37 3 4 9 10 13 14 15 16 17 19 34
1 37 3 4 6 8 9 10 13 14 15 16 17 19
1 37 2 3 4 8 9 10 13 14 15 16 17 19
1 37 3 4 6 8 9 10 13 14 15 16 17 21
1 37 2 3 4 8 9 10 13 14 15 16 17 21
1 36 3 4 9 10 13 14 15 16 17 21 34
1 36 3 4 9 10 13 14 15 16 17 19 34
1 36 3 4 6 8 9 10 13 14 15 16 17 19
1 36 2 3 4 8 9 10 13 14 15 16 17 19
1 36 3 4 6 8 9 10 13 14 15 16 17 21
1 36 2 3 4 8 9 10 13 14 15 16 17 21
1 3 4 5 9 10 13 14 15 16 17 21 34
1 3 4 5 9 10 13 14 15 16 17 19 34
1 3 4 5 6 8 9 10 11 13 14 15 16 17 19
1 2 3 4 5 8 9 10 11 13 14 15 16 17 19
1 36 2 3 4 5 8 9 10 13 14 15 16 17 19
1 37 2 3 4 5 8 9 10 13 14 15 16 17 19
1 36 3 4 5 6 8 9 10 13 14 15 16 17 19
1 37 3 4 5 6 8 9 10 13 14 15 16 17 19
1 3 4 5 6 8 9 10 11 13 14 15 16 17 21
1 2 3 4 5 8 9 10 11 13 14 15 16 17 21
1 36 2 3 4 5 8 9 10 13 14 15 16 17 21
1 37 2 3 4 5 8 9 10 13 14 15 16 17 21
1 36 3 4 5 6 8 9 10 13 14 15 16 17 21
1 37 3 4 5 6 8 9 10 13 14 15 16 17 21
1 3 4 7 9 10 13 14 15 16 17 21 34
1 3 4 7 9 10 13 14 15 16 17 19 34
1 3 4 6 7 8 9 10 11 13 14 15 16 17 19
1 2 3 4 7 8 9 10 11 13 14 15 16 17 19
1 36 2 3 4 7 8 9 10 13 14 15 16 17 19
1 37 2 3 4 7 8 9 10 13 14 15 16 17 19
1 36 3 4 6 7 8 9 10 13 14 15 16 17 19
1 37 3 4 6 7 8 9 10 13 14 15 16 17 19
1 3 4 6 7 8 9 10 11 13 14 15 16 17 21
1 2 3 4 7 8 9 10 11 13 14 15 16 17 21
1 36 2 3 4 7 8 9 10 13 14 15 16 17 21
1 37 2 3 4 7 8 9 10 13 14 15 16 17 21
1 36 3 4 6 7 8 9 10 13 14 15 16 17 21
1 37 3 4 6 7 8 9 10 13 14 15 16 17 21
1 3 10 13 14 15 16 17 21 33 34
1 3 10 13 14 15 16 17 19 33 34
1 3 6 10 13 14 15 16 17 19 33
1 2 3 10 13 14 15 16 17 19 33
1 3 6 10 13 14 15 16 17 21 33
1 2 3 10 13 14 15 16 17 21 33
1 3 4 7 9 10 14 15 17 20 35
1 3 5 9 10 14 15 17 20 35
1 36 3 9 10 14 15 17 20 35
1 37 3 9 10 14 15 17 20 35
1 37 3 9 10 13 14 15 17 20 34
1 37 3 6 8 9 10 13 14 15 17 20
1 37 2 3 8 9 10 13 14 15 17 20
1 36 3 9 10 13 14 15 17 20 21 34
1 36 3 9 10 13 14 15 17 19 20 34
1 36 3 6 8 9 10 13 14 15 17 19 20
1 36 2 3 8 9 10 13 14 15 17 19 20
1 36 3 6 8 9 10 13 14 15 17 20 21
1 36 2 3 8 9 10 13 14 15 17 20 21
1 3 5 9 10 13 14 15 17 20 34
1 3 5 6 8 9 10 11 13 14 15 17 20
1 2 3 5 8 9 10 11 13 14 15 17 20
1 36 2 3 5 8 9 10 13 14 15 17 20 21
1 37 2 3 5 8 9 10 13 14 15 17 20
1 36 2 3 5 8 9 10 13 14 15 17 19 20
1 36 3 5 6 8 9 10 13 14 15 17 20 21
1 37 3 5 6 8 9 10 13 14 15 17 20
1 36 3 5 6 8 9 10 13 14 15 17 19 20
1 3 4 5 9 10 14 15 17 20 35
1 36 3 4 9 10 14 15 17 20 35
1 37 3 4 9 10 14 15 17 20 35
1 37 3 4 9 10 13 14 15 17 20 34
1 37 3 4 6 8 9 10 13 14 15 17 20
1 37 2 3 4 8 9 10 13 14 15 17 20
1 36 3 4 9 10 13 14 15 17 20 21 34
1 36 3 4 9 10 13 14 15 17 19 20 34
1 36 3 4 6 8 9 10 13 14 15 17 19 20
1 36 2 3 4 8 9 10 13 14 15 17 19 20
1 36 3 4 6 8 9 10 13 14 15 17 20 21
1 36 2 3 4 8 9 10 13 14 15 17 20 21
1 3 4 5 9 10 13 14 15 17 20 34
1 3 4 5 6 8 9 10 11 13 14 15 17 20
1 2 3 4 5 8 9 10 11 13 14 15 17 20
1 36 2 3 4 5 8 9 10 13 14 15 17 20 21
1 37 2 3 4 5 8 9 10 13 14 15 17 20
1 36 2 3 4 5 8 9 10 13 14 15 17 19 20
1 36 3 4 5 6 8 9 10 13 14 15 17 20 21
1 37 3 4 5 6 8 9 10 13 14 15 17 20
1 36 3 4 5 6 8 9 10 13 14 15 17 19 20
1 3 4 7 9 10 13 14 15 17 20 34
1 3 4 6 7 8 9 10 11 13 14 15 17 20
1 2 3 4 7 8 9 10 11 13 14 15 17 20
1 36 2 3 4 7 8 9 10 13 14 15 17 20 21
1 37 2 3 4 7 8 9 10 13 14 15 17 20
1 36 2 3 4 7 8 9 10 13 14 15 17 19 20
1 36 3 4 6 7 8 9 10 13 14 15 17 20 21
1 37 3 4 6 7 8 9 10 13 14 15 17 20
1 36 3 4 6 7 8 9 10 13 14 15 17 19 20
1 3 10 13 14 15 17 20 33 34
1 3 6 10 13 14 15 17 20 33
1 2 3 10 13 14 15 17 20 33
1 3 10 14 15 17 18 20 33 35
3 9 10 14 15 17 18 20 35
3 9 10 14 15 16 17 18 35
3 9 10 13 14 15 16 17 18 21 34
3 9 10 13 14 15 16 17 18 19 34
3 6 8 9 10 11 13 14 15 16 17 18 19
36 3 6 8 9 10 13 14 15 16 17 18 19
37 3 6 8 9 10 13 14 15 16 17 18 19
3 6 8 9 10 11 13 14 15 16 17 18 21
36 3 6 8 9 10 13 14 15 16 17 18 21
37 3 6 8 9 10 13 14 15 16 17 18 21
3 9 10 13 14 15 17 18 20 34
3 6 8 9 10 11 13 14 15 17 18 20
36 3 6 8 9 10 13 14 15 17 18 20 21
37 3 6 8 9 10 13 14 15 17 18 20
36 3 6 8 9 10 13 14 15 17 18 19 20
1 3 10 14 15 16 17 18 33 35
1 3 4 7 9 10 14 15 16 17 18 35
1 3 5 9 10 14 15 16 17 18 35
1 36 3 9 10 14 15 16 17 18 35
1 37 3 9 10 14 15 16 17 18 35
1 37 3 9 10 13 14 15 16 17 18 21 34
1 37 3 9 10 13 14 15 16 17 18 19 34
1 37 3 6 8 9 10 13 14 15 16 17 18 19
1 37 2 3 8 9 10 13 14 15 16 17 18 19
1 37 3 6 8 9 10 13 14 15 16 17 18 21
1 37 2 3 8 9 10 13 14 15 16 17 18 21
1 36 3 9 10 13 14 15 16 17 18 21 34
1 36 3 9 10 13 14 15 16 17 18 19 34
1 36 3 6 8 9 10 13 14 15 16 17 18 19
1 36 2 3 8 9 10 13 14 15 16 17 18 19
1 36 3 6 8 9 10 13 14 15 16 17 18 21
1 36 2 3 8 9 10 13 14 15 16 17 18 21
1 3 5 9 10 13 14 15 16 17 18 21 34
1 3 5 9 10 13 14 15 16 17 18 19 34
1 3 5 6 8 9 10 11 13 14 15 16 17 18 19
1 2 3 5 8 9 10 11 13 14 15 16 17 18 19
1 36 2 3 5 8 9 10 13 14 15 16 17 18 19
1 37 2 3 5 8 9 10 13 14 15 16 17 18 19
1 36 3 5 6 8 9 10 13 14 15 16 17 18 19
1 37 3 5 6 8 9 10 13 14 15 16 17 18 19
1 3 5 6 8 9 10 11 13 14 15 16 17 18 21
1 2 3 5 8 9 10 11 13 14 15 16 17 18 21
1 36 2 3 5 8 9 10 13 14 15 16 17 18 21
1 37 2 3 5 8 9 10 13 14 15 16 17 18 21
1 36 3 5 6 8 9 10 13 14 15 16 17 18 21
1 37 3 5 6 8 9 10 13 14 15 16 17 18 21
1 3 4 5 9 10 14 15 16 17 18 35
1 36 3 4 9 10 14 15 16 17 18 35
1 37 3 4 9 10 14 15 16 17 18 35
1 37 3 4 9 10 13 14 15 16 17 18 21 34
1 37 3 4 9 10 13 14 15 16 17 18 19 34
1 37 3 4 6 8 9 10 13 14 15 16 17 18 19
1 37 2 3 4 8 9 10 13 14 15 16 17 18 19
1 37 3 4 6 8 9 10 13 14 15 16 17 18 21
1 37 2 3 4 8 9 10 13 14 15 16 17 18 21
1 36 3 4 9 10 13 14 15 16 17 18 21 34
1 36 3 4 9 10 13 14 15 16 17 18 19 34
1 36 3 4 6 8 9 10 13 14 15 16 17 18 19
1 36 2 3 4 8 9 10 13 14 15 16 17 18 19
1 36 3 4 6 8 9 10 13 14 15 16 17 18 21
1 36 2 3 4 8 9 10 13 14 15 16 17 18 21
1 3 4 5 9 10 13 14 15 16 17 18 21 34
1 3 4 5 9 10 13 14 15 16 17 18 19 34
1 3 4 5 6 8 9 10 11 13 14 15 16 17 18 19
1 2 3 4 5 8 9 10 11 13 14 15 16 17 18 19
1 36 2 3 4 5 8 9 10 13 14 15 16 17 18 19
1 37 2 3 4 5 8 9 10 13 14 15 16 17 18 19
1 36 3 4 5 6 8 9 10 13 14 15 16 17 18 19
1 37 3 4 5 6 8 9 10 13 14 15 16 17 18 19
1 3 4 5 6 8 9 10 11 13 14 15 16 17 18 21
1 2 3 4 5 8 9 10 11 13 14 15 16 17 18 21
1 36 2 3 4 5 8 9 10 13 14 15 16 17 18 21
1 37 2 3 4 5 8 9 10 13 14 15 16 17 18 21
1 36 3 4 5 6 8 9 10 13 14 15 16 17 18 21
1 37 3 4 5 6 8 9 10 13 14 15 16 17 18 21
1 3 4 7 9 10 13 14 15 16 17 18 21 34
1 3 4 7 9 10 13 14 15 16 17 18 19 34
1 3 4 6 7 8 9 10 11 13 14 15 16 17 18 19
1 2 3 4 7 8 9 10 11 13 14 15 16 17 18 19
1 36 2 3 4 7 8 9 10 13 14 15 16 17 18 19
1 37 2 3 4 7 8 9 10 13 14 15 16 17 18 19
1 36 3 4 6 7 8 9 10 13 14 15 16 17 18 19
1 37 3 4 6 7 8 9 10 13 14 15 16 17 18 19
1 3 4 6 7 8 9 10 11 13 14 15 16 17 18 21
1 2 3 4 7 8 9 10 11 13 14 15 16 17 18 21
1 36 2 3 4 7 8 9 10 13 14 15 16 17 18 21
1 37 2 3 4 7 8 9 10 13 14 15 16 17 18 21
1 36 3 4 6 7 8 9 10 13 14 15 16 17 18 21
1 37 3 4 6 7 8 9 10 13 14 15 16 17 18 21
1 3 10 13 14 15 16 17 18 21 33 34
1 3 10 13 14 15 16 17 18 19 33 34
1 3 6 10 13 14 15 16 17 18 19 33
1 2 3 10 13 14 15 16 17 18 19 33
1 3 6 10 13 14 15 16 17 18 21 33
1 2 3 10 13 14 15 16 17 18 21 33
1 3 4 7 9 10 14 15 17 18 20 35
1 3 5 9 10 14 15 17 18 20 35
1 36 3 9 10 14 15 17 18 20 35
1 37 3 9 10 14 15 17 18 20 35
1 37 3 9 10 13 14 15 17 18 20 34
1 37 3 6 8 9 10 13 14 15 17 18 20
1 37 2 3 8 9 10 13 14 15 17 18 20
1 36 3 9 10 13 14 15 17 18 20 21 34
1 36 3 9 10 13 14 15 17 18 19 20 34
1 36 3 6 8 9 10 13 14 15 17 18 19 20
1 36 2 3 8 9 10 13 14 15 17 18 19 20
1 36 3 6 8 9 10 13 14 15 17 18 20 21
1 36 2 3 8 9 10 13 14 15 17 18 20 21
1 3 5 9 10 13 14 15 17 18 20 34
1 3 5 6 8 9 10 11 13 14 15 17 18 20
1 2 3 5 8 9 10 11 13 14 15 17 18 20
1 36 2 3 5 8 9 10 13 14 15 17 18 20 21
1 37 2 3 5 8 9 10 13 14 15 17 18 20
1 36 2 3 5 8 9 10 13 14 15 17 18 19 20
1 36 3 5 6 8 9 10 13 14 15 17 18 20 21
1 37 3 5 6 8 9 10 13 14 15 17 18 20
1 36 3 5 6 8 9 10 13 14 15 17 18 19 20
1 3 4 5 9 10 14 15 17 18 20 35
1 36 3 4 9 10 14 15 17 18 20 35
1 37 3 4 9 10 14 15 17 18 20 35
1 37 3 4 9 10 13 14 15 17 18 20 34
1 37 3 4 6 8 9 10 13 14 15 17 18 20
1 37 2 3 4 8 9 10 13 14 15 17 18 20
1 36 3 4 9 10 13 14 15 17 18 20 21 34
1 36 3 4 9 10 13 14 15 17 18 19 20 34
1 36 3 4 6 8 9 10 13 14 15 17 18 19 20
1 36 2 3 4 8 9 10 13 14 15 17 18 19 20
1 36 3 4 6 8 9 10 13 14 15 17 18 20 21
1 36 2 3 4 8 9 10 13 14 15 17 18 20 21
1 3 4 5 9 10 13 14 15 17 18 20 34
1 3 4 5 6 8 9 10 11 13 14 15 17 18 20
1 2 3 4 5 8 9 10 11 13 14 15 17 18 20
1 36 2 3 4 5 8 9 10 13 14 15 17 18 20 21
1 37 2 3 4 5 8 9 10 13 14 15 17 18 20
1 36 2 3 4 5 8 9 10 13 14 15 17 18 19 20
1 36 3 4 5 6 8 9 10 13 14 15 17 18 20 21
1 37 3 4 5 6 8 9 10 13 14 15 17 18 20
1 36 3 4 5 6 8 9 10 13 14 15 17 18 19 20
1 3 4 7 9 10 13 14 15 17 18 20 34
1 3 4 6 7 8 9 10 11 13 14 15 17 18 20
1 2 3 4 7 8 9 10 11 13 14 15 17 18 20
1 36 2 3 4 7 8 9 10 13 14 15 17 18 20 21
1 37 2 3 4 7 8 9 10 13 14 15 17 18 20
1 36 2 3 4 7 8 9 10 13 14 15 17 18 19 20
1 36 3 4 6 7 8 9 10 13 14 15 17 18 20 21
1 37 3 4 6 7 8 9 10 13 14 15 17 18 20
1 36 3 4 6 7 8 9 10 13 14 15 17 18 19 20
1 3 10 13 14 15 17 18 20 33 34
1 3 6 10 13 14 15 17 18 20 33
1 2 3 10 13 14 15 17 18 20 33
3 10 14 15 18 20 25 31 35
3 10 14 15 16 18 25 31 35
3 10 14 15 18 25 31 34
3 6 10 14 15 18 25 31
2 3 10 14 15 18 25 31
3 10 14 15 16 18 21 25 31 34
3 10 14 15 16 18 19 25 31 34
3 6 10 14 15 16 18 19 25 31
2 3 10 14 15 16 18 19 25 31
3 6 10 14 15 16 18 21 25 31
2 3 10 14 15 16 18 21 25 31
3 10 14 15 18 20 25 31 34
3 6 10 14 15 18 20 25 31
2 3 10 14 15 18 20 25 31
2 10 14 18 25 26 31
8 9 10 12 13 14 16 17 18 21 22 23 24 25 26 30
3 10 14 18 20 25 26 31 35
3 10 14 16 18 25 26 31 35
3 10 14 18 25 26 31 34
3 6 10 14 18 25 26 31
2 3 10 14 18 25 26 31
3 10 14 16 18 21 25 26 31 34
3 10 14 16 18 19 25 26 31 34
3 6 10 14 16 18 19 25 26 31
2 3 10 14 16 18 19 25 26 31
3 6 10 14 16 18 21 25 26 31
2 3 10 14 16 18 21 25 26 31
3 10 14 18 20 25 26 31 34
3 6 10 14 18 20 25 26 31
2 3 10 14 18 20 25 26 31
1 38 3 6 8 9 10 12 13 14 16 17 18 21 22 23 24 25 26
1 37 3 6 8 9 10 12 13 14 16 17 18 21 22 23 24 25 26
1 36 3 6 8 9 10 12 13 14 16 17 18 21 22 23 24 25 26
1 38 3 4 6 8 9 10 12 13 14 16 17 18 21 22 23 24 25 26
1 37 3 4 6 8 9 10 12 13 14 16 17 18 21 22 23 24 25 26
1 36 3 4 6 8 9 10 12 13 14 16 17 18 21 22 23 24 25 26
3 10 12 14 18 20 21 25 26 31 35
3 10 12 14 16 18 21 25 26 31 35
3 10 12 14 18 21 25 26 31 34
3 6 10 12 14 18 21 25 26 31
2 3 10 12 14 18 21 25 26 31
3 10 12 14 16 18 21 25 26 31 34
3 6 10 12 14 16 18 21 25 26 31
2 3 10 12 14 16 18 21 25 26 31
3 10 12 14 18 20 21 25 26 31 34
3 6 10 12 14 18 20 21 25 26 31
2 3 10 12 14 18 20 21 25 26 31
3 10 14 15 18 20 25 26 31 35
3 10 14 15 16 18 25 26 31 35
3 10 14 15 18 25 26 31 34
3 6 10 14 15 18 25 26 31
2 3 10 14 15 18 25 26 31
3 10 14 15 16 18 21 25 26 31 34
3 10 14 15 16 18 19 25 26 31 34
3 6 10 14 15 16 18 19 25 26 31
2 3 10 14 15 16 18 19 25 26 31
3 6 10 14 15 16 18 21 25 26 31
2 3 10 14 15 16 18 21 25 26 31
3 10 14 15 18 20 25 26 31 34
3 6 10 14 15 18 20 25 26 31
2 3 10 14 15 18 20 25 26 31
 Minimal traps 
23 28
8 11
1 9 12 15 16 24 31 32 33 35
2 9 12 15 16 24 31 32 35
3 9 12 15 16 24 32 35
25 29
26 27
16 19
17 20
13 15
3 6
3 10 12 17 24 32
3 6 10 12 13 15 16 17 20 21
3 6 10 12 13 15 16 19 21
3 9 13 15 16 35
3 9 14 16 35
3 9 34
3 9 13 14 16 35
3 9 13 15 34
3 9 13 15 16 19 34
3 9 13 15 16 17 20 34
3 9 12 13 14 16 35
3 9 12 13 15 34
3 9 12 13 15 17 20 34
3 9 12 13 15 16 35
3 9 12 13 15 16 19 34
3 9 12 13 15 16 17 20 34
3 6 9 10 12 13 15 16 17 20 21
3 6 9 10 12 13 15 16 19 21
2 3 6
2 10 14 18 25 31
2 10 12 14 17 24 31 32
2 10 12 15 17 24 31 32
2 3 6 10 12 13 15 16 17 20 21
2 3 6 10 12 13 15 16 19 21
2 3 6 10 12 13 15 16 19 20 21
2 9 14 16 20 25 31 35
2 3 9 34
2 9 14 18 25 31 34
2 9 14 16 18 25 31 35
2 3 9 14 16 35
2 3 9 14 16 20 35
2 3 9 13 14 16 35
2 3 9 13 14 16 20 35
2 3 9 13 15 34
2 3 9 13 15 17 20 34
2 3 9 13 15 16 35
2 3 9 13 15 16 19 34
2 3 9 13 15 16 20 35
2 3 9 13 15 16 19 20 34
2 3 9 13 15 16 17 20 34
2 9 12 14 16 24 31 32 35
2 9 12 14 17 24 31 32 34
2 3 9 12 13 14 16 35
2 3 9 12 13 14 16 20 35
2 9 12 15 17 24 31 32 34
2 3 9 12 13 15 34
2 3 9 12 13 15 17 20 34
2 3 9 12 13 15 16 35
2 3 9 12 13 15 16 19 34
2 3 6 9 10 12 13 15 16 19 21
2 3 9 12 13 15 16 20 35
2 3 9 12 13 15 16 19 20 34
2 3 9 12 13 15 16 17 20 34
2 3 6 9 10 12 13 15 16 17 20 21
2 3 6 9 10 12 13 15 16 19 20 21
1 10 33
1 5
1 2 3 6
1 2 3 4 7
1 2 3 6 10 12 13 15 16 17 20 21
1 2 3 4 7 10 12 13 15 16 17 20 21
1 2 3 6 10 12 13 15 16 19 21
1 2 3 4 7 10 12 13 15 16 19 21
1 2 3 6 10 12 13 15 16 19 20 21
1 2 3 4 7 10 12 13 15 16 19 20 21
1 5 10 12 13 15 16 17 20 21
1 5 10 12 13 15 16 19 21
1 5 10 12 13 15 16 19 20 21
1 9 14 16 20 25 31 33 35
1 3 9 33 34
1 9 10 33
1 3 5 9 34
1 2 3 9 34
1 3 6 9 10 33
1 3 4 7 9 10 33
1 9 14 18 25 31 33 34
1 9 14 16 18 25 31 33 35
1 3 9 14 16 33 35
1 3 5 9 14 16 35
1 2 3 9 14 16 35
1 3 9 14 16 20 33 35
1 3 5 9 14 16 20 35
1 2 3 9 14 16 20 35
1 3 9 13 14 16 33 35
1 3 5 9 13 14 16 35
1 2 3 9 13 14 16 35
1 3 9 13 14 16 20 33 35
1 3 5 9 13 14 16 20 35
1 2 3 9 13 14 16 20 35
1 3 9 13 15 33 34
1 9 10 13 15 33
1 3 5 9 13 15 34
1 2 3 9 13 15 34
1 3 6 9 10 13 15 33
1 3 4 7 9 10 13 15 33
1 3 9 13 15 17 20 33 34
1 9 10 13 15 17 20 33
1 3 5 9 13 15 17 20 34
1 2 3 9 13 15 17 20 34
1 3 6 9 10 13 15 17 20 33
1 3 4 7 9 10 13 15 17 20 33
1 3 9 13 15 16 33 35
1 9 10 13 15 16 19 33
1 3 5 9 13 15 16 35
1 2 3 9 13 15 16 35
1 2 3 9 13 15 16 19 34
1 3 5 9 13 15 16 19 34
1 3 9 13 15 16 19 33 34
1 3 6 9 10 13 15 16 19 33
1 3 4 7 9 10 13 15 16 19 33
1 3 9 13 15 16 20 33 35
1 9 10 13 15 16 19 20 33
1 9 10 13 15 16 17 20 33
1 3 5 9 13 15 16 20 35
1 2 3 9 13 15 16 20 35
1 2 3 9 13 15 16 19 20 34
1 2 3 9 13 15 16 17 20 34
1 3 5 9 13 15 16 19 20 34
1 3 5 9 13 15 16 17 20 34
1 3 9 13 15 16 19 20 33 34
1 3 9 13 15 16 17 20 33 34
1 3 6 9 10 13 15 16 17 20 33
1 3 4 7 9 10 13 15 16 17 20 33
1 3 6 9 10 13 15 16 19 20 33
1 3 4 7 9 10 13 15 16 19 20 33
1 9 12 14 16 24 31 32 33 35
1 9 12 14 17 24 31 32 33 34
1 3 9 12 13 14 16 33 35
1 3 5 9 12 13 14 16 35
1 2 3 9 12 13 14 16 35
1 3 9 12 13 14 16 20 33 35
1 3 5 9 12 13 14 16 20 35
1 2 3 9 12 13 14 16 20 35
1 9 12 15 17 24 31 32 33 34
1 3 9 12 13 15 33 34
1 9 10 12 13 15 33
1 3 5 9 12 13 15 34
1 2 3 9 12 13 15 34
1 3 6 9 10 12 13 15 33
1 3 4 7 9 10 12 13 15 33
1 3 9 12 13 15 17 20 33 34
1 9 10 12 13 15 17 20 33
1 3 5 9 12 13 15 17 20 34
1 2 3 9 12 13 15 17 20 34
1 3 6 9 10 12 13 15 17 20 33
1 3 4 7 9 10 12 13 15 17 20 33
1 3 9 12 13 15 16 33 35
1 9 10 12 13 15 16 19 33
1 5 9 10 12 13 15 16 19 21
1 3 5 9 12 13 15 16 35
1 2 3 9 12 13 15 16 35
1 2 3 9 12 13 15 16 19 34
1 2 3 6 9 10 12 13 15 16 19 21
1 2 3 4 7 9 10 12 13 15 16 19 21
1 3 5 9 12 13 15 16 19 34
1 3 5 6 9 10 12 13 15 16 19 21
1 3 4 5 7 9 10 12 13 15 16 19 21
1 3 9 12 13 15 16 19 33 34
1 3 6 9 10 12 13 15 16 19 33
1 3 4 7 9 10 12 13 15 16 19 33
1 3 9 12 13 15 16 20 33 35
1 9 10 12 13 15 16 19 20 33
1 9 10 12 13 15 16 17 20 33
1 5 9 10 12 13 15 16 17 20 21
1 5 9 10 12 13 15 16 19 20 21
1 3 5 9 12 13 15 16 20 35
1 2 3 9 12 13 15 16 20 35
1 2 3 9 12 13 15 16 19 20 34
1 2 3 9 12 13 15 16 17 20 34
1 2 3 6 9 10 12 13 15 16 17 20 21
1 2 3 4 7 9 10 12 13 15 16 17 20 21
1 2 3 6 9 10 12 13 15 16 19 20 21
1 2 3 4 7 9 10 12 13 15 16 19 20 21
1 3 5 9 12 13 15 16 19 20 34
1 3 5 9 12 13 15 16 17 20 34
1 3 5 6 9 10 12 13 15 16 17 20 21
1 3 4 5 7 9 10 12 13 15 16 17 20 21
1 3 5 6 9 10 12 13 15 16 19 20 21
1 3 4 5 7 9 10 12 13 15 16 19 20 21
1 3 9 12 13 15 16 19 20 33 34
1 3 9 12 13 15 16 17 20 33 34
1 3 6 9 10 12 13 15 16 17 20 33
1 3 4 7 9 10 12 13 15 16 17 20 33
1 3 6 9 10 12 13 15 16 19 20 33
1 3 4 7 9 10 12 13 15 16 19 20 33
8 9 10 12 13 15 16 19 21
8 9 10 12 13 15 16 17 20 21
3 8 9 13 15 16 35
3 8 9 14 16 35
3 8 9 34
3 8 9 13 14 16 35
3 8 9 13 15 34
3 8 9 13 15 16 19 34
3 8 9 13 15 16 17 20 34
3 8 9 12 13 14 16 35
3 8 9 12 13 15 34
3 8 9 12 13 15 17 20 34
3 8 9 12 13 15 16 35
3 8 9 12 13 15 16 19 34
3 8 9 12 13 15 16 17 20 34
3 6 8 9 10 12 13 15 16 17 20 21
3 6 8 9 10 12 13 15 16 19 21
2 3 8 9 34
2 3 8 9 14 16 35
2 3 8 9 13 14 16 35
2 3 8 9 13 15 34
2 3 8 9 13 15 16 35
2 3 8 9 13 15 16 19 34
2 3 8 9 12 13 14 16 35
2 3 8 9 12 13 15 34
2 3 8 9 12 13 15 16 35
2 3 8 9 12 13 15 16 19 34
2 3 6 8 9 10 12 13 15 16 19 21
1 36 8 9 33 35
1 3 8 9 33 34
1 37 8 9 33 34
1 38 8 9 33 34
1 8 9 10 33
1 38 5 8 9 34
1 38 2 8 9 34
1 38 8 9 10 33
1 37 5 8 9 34
1 37 2 8 9 34
1 37 8 9 10 33
1 3 5 8 9 34
1 2 3 8 9 34
1 3 6 8 9 10 33
1 3 4 7 8 9 10 33
1 36 2 8 9 35
1 36 2 8 9 34
1 36 2 8 9 10 19 20 25 31
1 36 2 8 9 10 18 25 31
1 37 36 2 8 9 10 25 31
1 36 8 9 33 34
1 37 2 8 9 10 14 25 31
1 37 8 9 14 16 33 35
1 3 8 9 14 16 33 35
1 36 8 9 14 16 33 35
1 38 8 9 14 16 33 35
1 38 2 8 9 14 16 35
1 36 5 8 9 14 16 35
1 36 2 8 9 14 16 35
1 3 5 8 9 14 16 35
1 2 3 8 9 14 16 35
1 37 2 8 9 14 16 35
1 3 8 9 13 14 16 33 35
1 36 8 9 13 14 16 33 35
1 36 5 8 9 13 14 16 35
1 36 2 8 9 13 14 16 35
1 3 5 8 9 13 14 16 35
1 2 3 8 9 13 14 16 35
1 3 8 9 13 15 33 34
1 8 9 10 13 15 33
1 38 8 9 10 13 15 33
1 3 5 8 9 13 15 34
1 2 3 8 9 13 15 34
1 3 6 8 9 10 13 15 33
1 3 4 7 8 9 10 13 15 33
1 38 8 9 10 13 15 17 20 25 33
1 3 8 9 13 15 16 33 35
1 36 8 9 13 15 16 33 35
1 8 9 10 13 15 16 19 33
1 38 8 9 10 13 15 16 19 33
1 36 5 8 9 13 15 16 35
1 36 2 8 9 13 15 16 35
1 36 2 8 9 13 15 16 19 34
1 36 5 8 9 13 15 16 19 34
1 36 8 9 13 15 16 19 33 34
1 36 8 9 10 13 15 16 19 33
1 3 5 8 9 13 15 16 35
1 2 3 8 9 13 15 16 35
1 2 3 8 9 13 15 16 19 34
1 3 5 8 9 13 15 16 19 34
1 3 8 9 13 15 16 19 33 34
1 3 6 8 9 10 13 15 16 19 33
1 3 4 7 8 9 10 13 15 16 19 33
1 38 8 9 10 13 15 16 17 20 25 33
1 38 8 9 10 13 15 16 19 20 25 33
1 38 2 8 9 10 12 17 24 32
1 37 2 8 9 10 12 17 24 32
1 36 2 8 9 10 12 13 21
1 36 2 8 9 10 12 13 19 21
1 36 5 8 9 10 12 13 21
1 36 5 8 9 10 12 13 19 21
1 36 2 8 9 10 12 17 24 32
1 36 2 8 9 10 12 19 24 32
1 38 37 8 9 12 13 14 17 24 25 33 34
1 38 37 5 8 9 12 13 14 17 24 25 34
1 38 37 2 8 9 12 13 14 17 24 25 34
1 38 37 8 9 10 12 13 14 17 24 25 33
1 37 8 9 10 12 13 14 17 24 25 26 30 33
1 3 8 9 12 13 14 16 33 35
1 36 8 9 12 13 14 16 33 35
1 36 5 8 9 12 13 14 16 35
1 36 2 8 9 12 13 14 16 35
1 3 5 8 9 12 13 14 16 35
1 2 3 8 9 12 13 14 16 35
1 37 2 8 9 10 12 13 14 16 17 21
1 3 8 9 12 13 15 33 34
1 8 9 10 12 13 15 33
1 38 8 9 10 12 13 15 33
1 3 5 8 9 12 13 15 34
1 2 3 8 9 12 13 15 34
1 3 6 8 9 10 12 13 15 33
1 3 4 7 8 9 10 12 13 15 33
1 38 8 9 10 12 13 15 17 20 25 33
1 38 8 9 10 12 13 15 17 20 24 25 33
1 38 37 8 9 12 13 15 17 24 25 33 34
1 38 37 5 8 9 12 13 15 17 24 25 34
1 38 37 2 8 9 12 13 15 17 24 25 34
1 38 37 8 9 10 12 13 15 17 24 25 33
1 37 8 9 10 12 13 15 17 24 25 26 30 33
1 36 2 8 9 10 12 13 15 21
1 36 2 8 9 10 12 13 15 19 21
1 36 5 8 9 10 12 13 15 21
1 36 5 8 9 10 12 13 15 19 21
1 3 8 9 12 13 15 16 33 35
1 36 8 9 12 13 15 16 33 35
1 8 9 10 12 13 15 16 19 33
1 5 8 9 10 12 13 15 16 19 21
1 38 5 8 9 10 12 13 15 16 19 21
1 38 8 9 10 12 13 15 16 19 33
1 36 5 8 9 12 13 15 16 35
1 36 2 8 9 12 13 15 16 35
1 36 2 8 9 12 13 15 16 19 34
1 36 2 8 9 10 12 13 15 16 19 21
1 36 5 8 9 12 13 15 16 19 34
1 36 5 8 9 10 12 13 15 16 19 21
1 36 8 9 12 13 15 16 19 33 34
1 36 8 9 10 12 13 15 16 19 33
1 3 5 8 9 12 13 15 16 35
1 2 3 8 9 12 13 15 16 35
1 2 3 8 9 12 13 15 16 19 34
1 2 3 6 8 9 10 12 13 15 16 19 21
1 2 3 4 7 8 9 10 12 13 15 16 19 21
1 3 5 8 9 12 13 15 16 19 34
1 3 5 6 8 9 10 12 13 15 16 19 21
1 3 4 5 7 8 9 10 12 13 15 16 19 21
1 3 8 9 12 13 15 16 19 33 34
1 3 6 8 9 10 12 13 15 16 19 33
1 3 4 7 8 9 10 12 13 15 16 19 33
1 38 5 8 9 10 12 13 15 16 17 20 21 25
1 38 5 8 9 10 12 13 15 16 19 20 21 25
1 38 8 9 10 12 13 15 16 17 20 25 33
1 38 8 9 10 12 13 15 16 19 20 25 33
1 37 8 9 12 15 16 24 32 33 35
1 38 8 9 12 15 16 24 32 33 35
1 38 5 8 9 10 12 13 15 16 17 20 21 24 25
1 38 5 8 9 10 12 13 15 16 19 21 24 25
1 38 8 9 10 12 13 15 16 17 20 24 25 33
1 38 8 9 10 12 13 15 16 19 24 25 33
1 38 2 8 9 12 15 16 24 32 35
1 38 37 2 8 9 12 13 15 16 17 24 25 34
1 38 37 2 8 9 10 12 13 15 16 17 21 24 25
1 38 37 5 8 9 12 13 15 16 17 24 25 34
1 38 37 5 8 9 10 12 13 15 16 17 21 24 25
1 38 37 8 9 12 13 15 16 17 24 25 33 34
1 38 37 8 9 10 12 13 15 16 17 24 25 33
1 37 5 8 9 10 12 13 15 16 17 21 24 25 26 30
1 37 8 9 10 12 13 15 16 17 24 25 26 30 33
1 37 2 8 9 12 15 16 24 32 35
1 36 2 8 9 12 15 16 17 24 32 34
1 36 2 8 9 10 12 15 16 17 24 32
1 36 8 9 12 15 16 17 24 32 33 34
1 2 3 8 9 12 15 16 17 24 32 34
1 2 3 8 9 10 12 15 16 17 24 32
1 3 8 9 12 15 16 17 24 32 33 34
8 11 23 24 25 26 30
8 9 10 12 13 14 16 17 18 21 22 23 24 25 26 30
3 8 9 23 24 25 26 30 34
3 8 9 14 22 23 24 25 26 30 34
3 8 9 13 14 22 23 24 25 26 30 34
3 8 9 13 15 23 24 25 26 30 34
3 8 11 23 24 25 26 30 34
3 6 8 11 23 24 25 26 30
3 8 11 14 22 23 24 25 26 30 34
3 6 8 11 14 22 23 24 25 26 30
3 8 11 13 14 22 23 24 25 26 30 34
3 6 8 11 13 14 22 23 24 25 26 30
3 8 11 13 15 23 24 25 26 30 34
3 6 8 11 13 15 23 24 25 26 30
2 3 8 9 23 24 25 26 30 34
2 3 8 11 23 24 25 26 30 34
2 3 6 8 11 23 24 25 26 30
1 38 8 9 23 24 25 33 34
1 8 9 10 23 24 25 26 30 33
1 38 5 8 9 23 24 25 34
1 38 2 8 9 23 24 25 34
1 38 8 9 10 23 24 25 33
1 37 8 9 23 24 25 26 30 33 34
1 38 37 8 9 23 24 25 33 34
1 38 37 5 8 9 23 24 25 34
1 38 37 2 8 9 23 24 25 34
1 38 37 8 9 10 23 24 25 33
1 37 5 8 9 23 24 25 26 30 34
1 37 2 8 9 23 24 25 26 30 34
1 37 8 9 10 23 24 25 26 30 33
1 3 8 9 23 24 25 26 30 33 34
1 38 3 8 9 23 24 25 33 34
1 38 3 5 8 9 23 24 25 34
1 38 2 3 8 9 23 24 25 34
1 38 3 6 8 9 10 23 24 25 33
1 38 3 4 7 8 9 10 23 24 25 33
1 3 5 8 9 23 24 25 26 30 34
1 2 3 8 9 23 24 25 26 30 34
1 3 6 8 9 10 23 24 25 26 30 33
1 3 4 7 8 9 10 23 24 25 26 30 33
1 38 36 2 8 9 23 24 25 34
1 38 36 5 8 9 23 24 25 34
1 38 36 8 9 23 24 25 33 34
1 38 36 8 9 10 23 24 25 33
1 36 2 8 9 23 24 25 26 30 34
1 36 5 8 9 23 24 25 26 30 34
1 36 8 9 23 24 25 26 30 33 34
1 36 8 9 10 23 24 25 26 30 33
1 38 37 36 2 8 9 23 24 25 34
1 38 37 36 5 8 9 23 24 25 34
1 38 37 36 8 9 23 24 25 33 34
1 38 37 36 8 9 10 23 24 25 33
1 37 36 2 8 9 23 24 25 26 30 34
1 37 36 5 8 9 23 24 25 26 30 34
1 37 36 8 9 23 24 25 26 30 33 34
1 37 36 8 9 10 23 24 25 26 30 33
1 38 36 2 8 9 18 22 23 24 25 34
1 38 36 5 8 9 18 22 23 24 25 34
1 38 36 8 9 18 22 23 24 25 33 34
1 38 36 8 9 10 18 22 23 24 25 33
1 36 2 8 9 18 22 23 24 25 26 30 34
1 36 5 8 9 18 22 23 24 25 26 30 34
1 36 8 9 18 22 23 24 25 26 30 33 34
1 36 8 9 10 18 22 23 24 25 26 30 33
1 38 36 2 8 9 19 20 23 24 25 34
1 38 36 5 8 9 19 20 23 24 25 34
1 38 36 8 9 19 20 23 24 25 33 34
1 38 36 8 9 10 19 20 23 24 25 33
1 36 2 8 9 19 20 23 24 25 26 30 34
1 36 5 8 9 19 20 23 24 25 26 30 34
1 36 8 9 19 20 23 24 25 26 30 33 34
1 36 8 9 10 19 20 23 24 25 26 30 33
1 38 8 9 10 14 22 23 24 25 33
1 37 8 9 14 23 24 25 26 30 33 34
1 37 5 8 9 14 23 24 25 26 30 34
1 37 2 8 9 14 23 24 25 26 30 34
1 37 8 9 10 14 23 24 25 26 30 33
1 38 8 9 10 14 18 22 23 24 25 33
1 38 8 9 10 14 17 18 22 23 24 25 33
1 38 8 9 10 14 17 20 22 23 24 25 33
1 38 8 9 10 14 16 19 22 23 24 25 33
1 38 8 9 10 14 16 17 18 22 23 24 25 33
1 38 8 9 10 14 16 18 19 22 23 24 25 33
1 38 8 9 10 14 16 17 20 22 23 24 25 33
1 38 8 9 10 14 16 19 20 22 23 24 25 33
1 38 36 2 8 9 13 23 24 25 34
1 38 36 5 8 9 13 23 24 25 34
1 38 36 8 9 13 23 24 25 33 34
1 38 36 8 9 10 13 23 24 25 33
1 36 8 9 10 13 23 24 25 26 30 33
1 38 37 36 2 8 9 13 23 24 25 34
1 38 37 36 5 8 9 13 23 24 25 34
1 38 37 36 8 9 13 23 24 25 33 34
1 38 37 36 8 9 10 13 23 24 25 33
1 37 36 2 8 9 13 23 24 25 26 30 34
1 37 36 5 8 9 13 23 24 25 26 30 34
1 37 36 8 9 13 23 24 25 26 30 33 34
1 37 36 8 9 10 13 23 24 25 26 30 33
1 38 36 2 8 9 13 18 22 23 24 25 34
1 38 36 5 8 9 13 18 22 23 24 25 34
1 38 36 8 9 13 18 22 23 24 25 33 34
1 38 36 8 9 10 13 18 22 23 24 25 33
1 36 8 9 10 13 18 22 23 24 25 26 30 33
1 38 36 2 8 9 13 19 20 23 24 25 34
1 38 36 5 8 9 13 19 20 23 24 25 34
1 38 36 8 9 13 19 20 23 24 25 33 34
1 38 36 8 9 10 13 19 20 23 24 25 33
1 36 8 9 10 13 19 20 23 24 25 26 30 33
1 38 8 9 10 13 14 22 23 24 25 33
1 37 8 9 13 14 23 24 25 26 30 33 34
1 37 5 8 9 13 14 23 24 25 26 30 34
1 37 2 8 9 13 14 23 24 25 26 30 34
1 37 8 9 10 13 14 23 24 25 26 30 33
1 38 8 9 10 13 14 18 22 23 24 25 33
1 38 8 9 10 13 14 17 18 22 23 24 25 33
1 38 8 9 10 13 14 17 20 22 23 24 25 33
1 38 8 9 10 13 14 16 19 22 23 24 25 33
1 38 8 9 10 13 14 16 17 18 22 23 24 25 33
1 38 8 9 10 13 14 16 18 19 22 23 24 25 33
1 38 8 9 10 13 14 16 17 20 22 23 24 25 33
1 38 8 9 10 13 14 16 19 20 22 23 24 25 33
1 38 8 9 10 13 15 23 24 25 33
1 38 8 9 10 13 15 18 22 23 24 25 33
1 38 8 9 10 13 15 17 18 22 23 24 25 33
1 38 8 9 10 13 15 17 20 23 24 25 33
1 38 8 9 10 13 15 16 19 23 24 25 33
1 38 8 9 10 13 15 16 17 18 22 23 24 25 33
1 38 8 9 10 13 15 16 18 19 22 23 24 25 33
1 38 8 9 10 13 15 16 17 20 23 24 25 33
1 38 8 9 10 13 15 16 19 20 23 24 25 33
1 38 8 9 10 12 13 14 22 23 24 25 33
1 37 8 9 12 13 14 23 24 25 26 30 33 34
1 37 5 8 9 12 13 14 23 24 25 26 30 34
1 37 2 8 9 12 13 14 23 24 25 26 30 34
1 37 8 9 10 12 13 14 23 24 25 26 30 33
1 38 8 9 10 12 13 14 18 22 23 24 25 33
1 38 8 9 10 12 13 14 17 18 22 23 24 25 33
1 38 8 9 10 12 13 14 17 20 22 23 24 25 33
1 38 37 8 9 12 13 14 17 23 24 25 33 34
1 38 37 5 8 9 12 13 14 17 23 24 25 34
1 38 37 2 8 9 12 13 14 17 23 24 25 34
1 38 37 8 9 10 12 13 14 17 23 24 25 33
1 37 8 9 10 12 13 14 17 23 24 25 26 30 33
1 38 37 3 8 9 12 13 14 17 23 24 25 33 34
1 38 37 3 5 8 9 12 13 14 17 23 24 25 34
1 38 37 2 3 8 9 12 13 14 17 23 24 25 34
1 38 37 3 6 8 9 10 12 13 14 17 23 24 25 33
1 38 37 3 4 7 8 9 10 12 13 14 17 23 24 25 33
1 37 3 6 8 9 10 12 13 14 17 23 24 25 26 30 33
1 37 3 4 7 8 9 10 12 13 14 17 23 24 25 26 30 33
1 38 2 8 9 10 12 13 14 16 17 18 21 22 23 24 25
1 38 5 8 9 10 12 13 14 16 17 18 21 22 23 24 25
1 38 5 8 9 10 12 13 14 16 17 20 21 22 23 24 25
1 38 5 8 9 10 12 13 14 16 19 21 22 23 24 25
1 38 8 9 10 12 13 14 16 17 18 22 23 24 25 33
1 38 8 9 10 12 13 14 16 17 20 22 23 24 25 33
1 38 8 9 10 12 13 14 16 19 22 23 24 25 33
1 38 37 2 8 9 12 13 14 16 17 23 24 25 34
1 38 37 2 8 9 10 12 13 14 16 17 21 23 24 25
1 38 37 5 8 9 12 13 14 16 17 23 24 25 34
1 38 37 5 8 9 10 12 13 14 16 17 21 23 24 25
1 38 37 8 9 12 13 14 16 17 23 24 25 33 34
1 38 37 8 9 10 12 13 14 16 17 23 24 25 33
1 37 5 8 9 10 12 13 14 16 17 21 23 24 25 26 30
1 37 8 9 10 12 13 14 16 17 23 24 25 26 30 33
1 38 8 9 10 12 13 15 23 24 25 33
1 38 8 9 10 12 13 15 18 22 23 24 25 33
1 38 8 9 10 12 13 15 17 18 22 23 24 25 33
1 38 8 9 10 12 13 15 17 20 23 24 25 33
1 38 37 8 9 12 13 15 17 23 24 25 33 34
1 38 37 5 8 9 12 13 15 17 23 24 25 34
1 38 37 2 8 9 12 13 15 17 23 24 25 34
1 38 37 8 9 10 12 13 15 17 23 24 25 33
1 37 8 9 10 12 13 15 17 23 24 25 26 30 33
1 38 5 8 9 10 12 13 15 16 17 18 21 22 23 24 25
1 38 5 8 9 10 12 13 15 16 17 20 21 23 24 25
1 38 5 8 9 10 12 13 15 16 19 21 23 24 25
1 38 8 9 10 12 13 15 16 17 18 22 23 24 25 33
1 38 8 9 10 12 13 15 16 17 20 23 24 25 33
1 38 8 9 10 12 13 15 16 19 23 24 25 33
1 38 37 2 8 9 12 13 15 16 17 23 24 25 34
1 38 37 2 8 9 10 12 13 15 16 17 21 23 24 25
1 38 37 5 8 9 12 13 15 16 17 23 24 25 34
1 38 37 5 8 9 10 12 13 15 16 17 21 23 24 25
1 38 37 8 9 12 13 15 16 17 23 24 25 33 34
1 38 37 8 9 10 12 13 15 16 17 23 24 25 33
1 37 5 8 9 10 12 13 15 16 17 21 23 24 25 26 30
1 37 8 9 10 12 13 15 16 17 23 24 25 26 30 33
1 38 8 11 23 24 25 33 34
1 5 8 11 23 24 25 26 30
1 8 10 11 23 24 25 26 30 33
1 38 5 8 11 23 24 25
1 38 2 8 11 23 24 25
1 38 8 10 11 23 24 25 33
1 37 8 11 23 24 25 26 30 33 34
1 38 37 8 11 23 24 25 33 34
1 38 37 5 8 11 23 24 25
1 38 37 2 8 11 23 24 25
1 38 37 8 10 11 23 24 25 33
1 37 5 8 11 23 24 25 26 30
1 37 2 8 11 23 24 25 26 30
1 37 8 10 11 23 24 25 26 30 33
1 3 8 11 23 24 25 26 30 33 34
1 38 3 8 11 23 24 25 33 34
1 38 3 5 8 11 23 24 25 34
1 38 2 3 8 11 23 24 25 34
1 38 2 3 6 8 11 23 24 25
1 38 2 3 4 7 8 11 23 24 25
1 38 3 5 6 8 11 23 24 25
1 38 3 4 5 7 8 11 23 24 25
1 38 3 6 8 10 11 23 24 25 33
1 38 3 4 7 8 10 11 23 24 25 33
1 3 5 8 11 23 24 25 26 30 34
1 2 3 8 11 23 24 25 26 30 34
1 2 3 6 8 11 23 24 25 26 30
1 2 3 4 7 8 11 23 24 25 26 30
1 3 5 6 8 11 23 24 25 26 30
1 3 4 5 7 8 11 23 24 25 26 30
1 3 6 8 10 11 23 24 25 26 30 33
1 3 4 7 8 10 11 23 24 25 26 30 33
1 38 36 8 11 23 24 25 33 34
1 38 36 8 10 11 23 24 25 33
1 36 8 11 23 24 25 26 30 33 34
1 36 8 10 11 23 24 25 26 30 33
1 38 37 36 8 11 23 24 25 33 34
1 38 37 36 8 10 11 23 24 25 33
1 37 36 8 11 23 24 25 26 30 33 34
1 37 36 8 10 11 23 24 25 26 30 33
1 38 36 8 11 18 22 23 24 25 33 34
1 38 36 8 10 11 18 22 23 24 25 33
1 36 8 11 18 22 23 24 25 26 30 33 34
1 36 8 10 11 18 22 23 24 25 26 30 33
1 38 36 2 8 11 19 20 23 24 25
1 38 36 5 8 11 19 20 23 24 25
1 38 36 8 11 19 20 23 24 25 33 34
1 38 36 8 10 11 19 20 23 24 25 33
1 36 2 8 11 19 20 23 24 25 26 30
1 36 5 8 11 19 20 23 24 25 26 30
1 36 8 11 19 20 23 24 25 26 30 33 34
1 36 8 10 11 19 20 23 24 25 26 30 33
1 38 8 10 11 14 22 23 24 25 33
1 38 8 10 11 14 18 22 23 24 25 33
1 38 8 10 11 14 17 18 22 23 24 25 33
1 38 8 10 11 14 17 20 22 23 24 25 33
1 38 8 10 11 14 16 19 22 23 24 25 33
1 38 8 10 11 14 16 17 18 22 23 24 25 33
1 38 8 10 11 14 16 18 19 22 23 24 25 33
1 38 8 10 11 14 16 17 20 22 23 24 25 33
1 38 8 10 11 14 16 19 20 22 23 24 25 33
1 38 36 8 11 13 23 24 25 33 34
1 38 36 8 10 11 13 23 24 25 33
1 36 8 10 11 13 23 24 25 26 30 33
1 38 37 36 8 11 13 23 24 25 33 34
1 38 37 36 8 10 11 13 23 24 25 33
1 37 36 8 11 13 23 24 25 26 30 33 34
1 37 36 8 10 11 13 23 24 25 26 30 33
1 38 36 8 11 13 18 22 23 24 25 33 34
1 38 36 8 10 11 13 18 22 23 24 25 33
1 36 8 10 11 13 18 22 23 24 25 26 30 33
1 38 36 2 8 11 13 19 20 23 24 25
1 38 36 5 8 11 13 19 20 23 24 25
1 38 36 8 11 13 19 20 23 24 25 33 34
1 38 36 8 10 11 13 19 20 23 24 25 33
1 36 8 10 11 13 19 20 23 24 25 26 30 33
1 38 8 10 11 13 14 22 23 24 25 33
1 38 8 10 11 13 14 18 22 23 24 25 33
1 38 8 10 11 13 14 17 18 22 23 24 25 33
1 38 8 10 11 13 14 17 20 22 23 24 25 33
1 38 8 10 11 13 14 16 19 22 23 24 25 33
1 38 8 10 11 13 14 16 17 18 22 23 24 25 33
1 38 8 10 11 13 14 16 18 19 22 23 24 25 33
1 38 8 10 11 13 14 16 17 20 22 23 24 25 33
1 38 8 10 11 13 14 16 19 20 22 23 24 25 33
1 38 8 10 11 13 15 23 24 25 33
1 38 8 10 11 13 15 18 22 23 24 25 33
1 38 8 10 11 13 15 17 18 22 23 24 25 33
1 38 8 10 11 13 15 17 20 23 24 25 33
1 38 8 10 11 13 15 16 19 23 24 25 33
1 38 8 10 11 13 15 16 17 18 22 23 24 25 33
1 38 8 10 11 13 15 16 18 19 22 23 24 25 33
1 38 8 10 11 13 15 16 17 20 23 24 25 33
1 38 8 10 11 13 15 16 19 20 23 24 25 33
1 38 8 10 11 12 13 14 22 23 24 25 33
1 38 8 10 11 12 13 14 18 22 23 24 25 33
1 38 8 10 11 12 13 14 17 18 22 23 24 25 33
1 38 8 10 11 12 13 14 17 20 22 23 24 25 33
1 38 37 8 11 12 13 14 17 23 24 25 33 34
1 38 37 5 8 11 12 13 14 17 23 24 25
1 38 37 2 8 11 12 13 14 17 23 24 25
1 38 37 8 10 11 12 13 14 17 23 24 25 33
1 37 8 10 11 12 13 14 17 23 24 25 26 30 33
1 38 37 3 8 11 12 13 14 17 23 24 25 33 34
1 38 37 3 5 8 11 12 13 14 17 23 24 25 34
1 38 37 2 3 8 11 12 13 14 17 23 24 25 34
1 38 37 2 3 6 8 11 12 13 14 17 23 24 25
1 38 37 2 3 4 7 8 11 12 13 14 17 23 24 25
1 38 37 3 5 6 8 11 12 13 14 17 23 24 25
1 38 37 3 4 5 7 8 11 12 13 14 17 23 24 25
1 38 37 3 6 8 10 11 12 13 14 17 23 24 25 33
1 38 37 3 4 7 8 10 11 12 13 14 17 23 24 25 33
1 37 3 5 6 8 11 12 13 14 17 23 24 25 26 30
1 37 3 4 5 7 8 11 12 13 14 17 23 24 25 26 30
1 37 3 6 8 10 11 12 13 14 17 23 24 25 26 30 33
1 37 3 4 7 8 10 11 12 13 14 17 23 24 25 26 30 33
1 38 8 10 11 12 13 14 16 17 18 22 23 24 25 33
1 38 8 10 11 12 13 14 16 17 20 22 23 24 25 33
1 38 8 10 11 12 13 14 16 19 22 23 24 25 33
1 38 37 2 8 11 12 13 14 16 17 23 24 25
1 38 37 5 8 11 12 13 14 16 17 23 24 25
1 38 37 8 11 12 13 14 16 17 23 24 25 33 34
1 38 37 8 10 11 12 13 14 16 17 23 24 25 33
1 37 8 10 11 12 13 14 16 17 23 24 25 26 30 33
1 38 8 10 11 12 13 15 23 24 25 33
1 38 8 10 11 12 13 15 18 22 23 24 25 33
1 38 8 10 11 12 13 15 17 18 22 23 24 25 33
1 38 8 10 11 12 13 15 17 20 23 24 25 33
1 38 37 8 11 12 13 15 17 23 24 25 33 34
1 38 37 5 8 11 12 13 15 17 23 24 25
1 38 37 2 8 11 12 13 15 17 23 24 25
1 38 37 8 10 11 12 13 15 17 23 24 25 33
1 37 8 10 11 12 13 15 17 23 24 25 26 30 33
1 38 8 10 11 12 13 15 16 17 18 22 23 24 25 33
1 38 8 10 11 12 13 15 16 17 20 23 24 25 33
1 38 8 10 11 12 13 15 16 19 23 24 25 33
1 38 37 2 8 11 12 13 15 16 17 23 24 25
1 38 37 5 8 11 12 13 15 16 17 23 24 25
1 38 37 8 11 12 13 15 16 17 23 24 25 33 34
1 38 37 8 10 11 12 13 15 16 17 23 24 25 33
1 37 8 10 11 12 13 15 16 17 23 24 25 26 30 33
 Analysis time: 32.974s