
Petri Net Matrices Forwards incidence matrix I +
T1 T2 T3 T4 T5 T6 T7 T8 T9 T10 T11 T12 T13 T14 T15 T16 T17 T18 T19 
P1 1 0 0 0 0 0 0 0 0 0 0 0 0 0 0 0 0 0 0 
P2 0 1 0 0 0 0 0 0 0 0 0 0 0 0 0 0 0 0 0 
P3 0 0 1 0 0 0 0 0 0 0 0 0 0 0 0 0 0 0 0 
P4 0 0 0 1 0 0 0 0 0 0 0 0 0 0 0 0 0 0 0 
P5 0 0 0 0 1 0 0 0 0 0 0 0 0 0 0 0 0 0 0 
P6 0 0 0 0 0 1 0 0 0 0 0 0 0 0 0 0 0 0 0 
P7 0 0 0 0 0 0 1 0 0 0 0 0 0 0 0 0 0 0 0 
P8 0 0 0 0 0 0 1 0 0 0 0 0 0 0 0 0 0 0 0 
P9 0 0 0 0 0 0 0 0 1 0 0 0 0 0 0 0 0 0 0 
P10 0 0 0 0 0 0 0 0 0 1 0 0 0 0 0 0 0 0 0 
P11 0 0 0 0 0 0 0 0 0 0 1 0 0 0 0 0 0 0 0 
P12 0 0 0 0 0 0 0 0 0 1 0 0 0 0 0 0 0 0 0 
P13 0 0 0 0 0 0 0 0 0 0 0 0 1 0 0 0 0 0 0 
P14 0 0 0 0 0 0 0 0 0 0 0 0 0 1 0 0 0 0 0 
P15 0 0 0 0 0 0 0 0 0 0 0 0 0 0 1 0 0 0 0 
P16 0 0 0 0 0 0 0 0 0 0 0 0 0 1 0 0 0 0 0 
P17 0 0 0 0 0 0 0 0 0 0 0 0 0 0 0 1 0 0 0 
P18 0 0 0 0 0 0 0 0 0 0 0 0 0 0 1 0 0 0 0 
P19 0 0 0 0 0 0 0 1 0 0 0 0 0 0 0 0 0 0 0 
P20 0 0 0 0 0 0 0 0 0 0 0 1 0 0 0 1 0 0 0 
P21 0 0 0 0 0 0 0 0 0 0 0 0 0 0 0 0 1 0 0 
P22 0 0 0 0 0 0 0 0 0 0 0 0 0 0 0 0 0 1 0 
P23 0 0 0 0 0 0 0 0 0 0 0 0 0 0 0 0 0 1 0 
P24 0 0 0 0 0 0 0 0 0 0 0 0 0 0 0 0 0 0 1 
P25 0 1 0 0 0 0 0 1 0 1 0 0 0 0 0 1 0 0 0 
P26 0 0 0 1 0 0 0 1 0 0 0 1 0 0 0 1 0 0 1 
P27 0 1 0 0 0 0 0 1 0 0 0 0 0 0 0 0 0 0 0 
P28 0 1 0 0 0 1 0 0 0 1 0 0 0 0 0 1 0 0 0 
P29 0 0 1 0 0 0 1 0 0 1 0 0 0 0 0 0 0 0 0 
P30 0 0 1 0 0 0 0 1 0 0 0 0 0 0 0 0 0 0 0 
P31 0 0 1 0 0 1 0 0 0 0 0 1 0 0 1 0 0 0 1 
P32 0 0 0 1 0 1 0 0 0 0 0 0 0 0 0 0 0 0 0 
P33 0 0 0 1 0 0 1 0 0 0 1 0 0 0 0 0 0 0 0 
P34 0 0 1 0 0 0 0 0 0 1 0 0 1 0 0 0 0 0 0 
P35 0 0 1 0 0 0 0 0 0 0 1 0 1 0 0 0 0 0 0 
P36 0 0 1 0 0 0 0 0 0 0 1 0 1 0 0 0 0 0 0 
P37 0 1 0 0 0 0 0 0 1 0 0 0 0 0 1 0 0 0 0 
Backwards incidence matrix I -
T1 T2 T3 T4 T5 T6 T7 T8 T9 T10 T11 T12 T13 T14 T15 T16 T17 T18 T19 
P1 0 1 0 0 0 0 0 0 0 0 0 0 0 0 0 0 0 0 0 
P2 0 0 1 0 0 0 0 0 0 0 0 0 0 0 0 0 0 0 0 
P3 0 0 0 1 0 0 0 0 0 0 0 0 0 0 0 0 0 0 0 
P4 1 0 0 0 0 0 0 0 0 0 0 0 0 0 0 0 0 0 0 
P5 0 0 0 0 0 1 0 0 0 0 0 0 0 0 0 0 0 0 0 
P6 0 0 0 0 0 0 1 0 0 0 0 0 0 0 0 0 0 0 0 
P7 0 0 0 0 0 0 0 1 0 0 0 0 0 0 0 0 0 0 0 
P8 0 0 0 0 0 1 0 0 0 0 0 0 0 0 0 0 0 0 0 
P9 0 0 0 0 0 0 0 0 0 1 0 0 0 0 0 0 0 0 0 
P10 0 0 0 0 0 0 0 0 0 0 1 0 0 0 0 0 0 0 0 
P11 0 0 0 0 0 0 0 0 0 0 0 1 0 0 0 0 0 0 0 
P12 0 0 0 0 0 0 0 0 1 0 0 0 0 0 0 0 0 0 0 
P13 0 0 0 0 0 0 0 0 0 0 0 0 0 1 0 0 0 0 0 
P14 0 0 0 0 0 0 0 0 0 0 0 0 0 0 1 0 0 0 0 
P15 0 0 0 0 0 0 0 0 0 0 0 0 0 0 0 1 0 0 0 
P16 0 0 0 0 0 0 0 0 0 0 0 0 1 0 0 0 0 0 0 
P17 0 0 0 0 0 0 0 0 0 0 0 0 0 0 1 0 0 0 0 
P18 0 0 0 0 0 0 0 0 0 0 0 0 0 1 0 0 0 0 0 
P19 0 0 0 0 0 0 0 0 1 0 0 0 1 0 0 0 0 0 0 
P20 0 0 0 0 0 0 0 0 0 0 0 0 0 0 0 0 1 0 0 
P21 0 0 0 0 0 0 0 0 0 0 0 0 0 0 0 0 0 1 0 
P22 0 0 0 0 0 0 0 0 0 0 0 0 0 0 0 0 0 0 1 
P23 0 0 0 0 0 0 0 0 0 0 0 0 0 0 0 0 1 0 0 
P24 0 0 0 0 1 0 0 0 0 0 0 0 0 0 0 0 0 0 0 
P25 1 0 0 0 0 0 1 0 1 0 0 0 0 0 1 0 0 0 0 
P26 0 0 1 0 0 0 1 0 0 0 1 0 0 0 1 0 0 1 0 
P27 1 0 0 0 0 0 1 0 0 0 0 0 0 0 0 0 0 0 0 
P28 1 0 0 0 1 0 0 0 1 0 0 0 0 0 1 0 0 0 0 
P29 0 1 0 0 0 1 0 0 1 0 0 0 0 0 0 0 0 0 0 
P30 0 1 0 0 0 0 1 0 0 0 0 0 0 0 0 0 0 0 0 
P31 0 1 0 0 1 0 0 0 0 0 1 0 0 1 0 0 0 1 0 
P32 0 0 1 0 1 0 0 0 0 0 0 0 0 0 0 0 0 0 0 
P33 0 0 1 0 0 1 0 0 0 1 0 0 0 0 0 0 0 0 0 
P34 1 0 0 0 1 0 0 0 0 0 0 0 0 0 0 0 0 0 0 
P35 1 0 0 0 1 0 0 0 0 0 0 0 0 0 0 0 0 0 0 
P36 1 0 0 0 1 0 0 0 0 0 0 0 0 0 0 0 0 0 0 
P37 1 0 0 0 1 0 0 0 0 0 0 0 0 0 0 0 0 0 0 
