21/07/2021 08:52:31[DEBUG] pflow_file:  ../analysis/analisis_12_20072021/gen_nets1/20210720-191422_0/net.pflow  
21/07/2021 08:52:31[DEBUG] output_folder:  ../analysis/analisis_12_20072021/gen_nets1/20210720-191422_0/  
21/07/2021 08:52:31[DEBUG] html_path:  ../analysis/analisis_12_20072021/gen_nets1/20210720-191422_0/  
21/07/2021 08:52:31[DEBUG] txt_path:  ../analysis/analisis_12_20072021/gen_nets1/20210720-191422_0/txt_info  

--------------------------------------------------------------------------   
21/07/2021 08:52:31[INFO] Ejecutando petrinator para conocer estado de la red...   
--------------------------------------------------------------------------
   
21/07/2021 08:52:34[ERROR] La red ingresada no tiene deadlock, cerrando analisis 
  
