 Minimal siphons 
4 8 15 17 22 24 27 28
3 8 24 27
20 22
13 15
12 17
2 8 11 19 23 26
19 21
11 16
7 8 10
7 9
2 5
2 5 7 8 10
2 5 7 8 9
11 12 16
2 5 11 12 16
11 12 13 16
2 5 11 12 13 16
29 18 19 20 23
29 11 12 13 18 19 20 23
11 12 13 14 18 19 20 23 24 25
29 11 12 13 14 18 19 20 23
29 11 12 13 14 18 19 20 23 24
29 2 5 18 19 20 23
29 2 5 11 12 13 18 19 20 23
29 2 5 11 12 13 14 18 19 20 23
29 2 5 11 12 13 14 18 19 20 23 24
2 3 5
2 3 5 7 8 10
2 3 5 7 8 9
2 3 5 7 8 10 13 15
2 3 5 7 8 9 13 15
2 3 4 5
1 2 3 4 6
4 8 11 22 24 28
2 3 4 5 7 8 10
1 2 3 4 6 7 8 10
1 2 3 4 6 7 8 9
2 3 4 5 7 8 9
4 8 11 19 24 28
2 3 4 5 7 8 10 13 15
1 2 3 4 6 7 8 10 13 15
1 2 3 4 6 7 8 9 13 15
2 3 4 5 7 8 9 13 15
4 8 15 17 19 24 27 28
 Minimal traps 
7 9
2 8 19 23 26
3 8 11 15 17 19 24 27 28
4 8 11 19 24 28
19 21
20 22
11 16
12 17
13 15
29 18 19 20 23
11 12 13 14 18 19 20 23 24 25
29 4 8 18 19 23 24 28
29 3 8 15 17 18 19 23 27 28
3 8 12 15 17 24 27
3 8 13 15 24 27
3 8 14 24 27
3 8 13 14 24 27
3 8 12 14 17 24 27
3 8 12 13 14 24 27
3 8 12 13 15 24 27
29 3 8 14 18 19 23 27 28
3 8 11 14 19 22 27 28
3 8 11 15 17 19 22 27 28
2 5
1 2 3 4 6
7 8 10
3 7 8 12 15 17 24 27
3 7 8 13 15 24 27
3 7 8 14 24 27
3 7 8 13 14 24 27
3 7 8 12 14 17 24 27
3 7 8 12 13 14 24 27
3 7 8 12 13 15 24 27
1 2 3 4 6 7 8 10
1 2 3 4 6 7 8 10 12 17
1 2 3 4 6 7 8 10 11 16
1 2 3 4 6 7 8 10 11 12 17
2 5 7 8 10
2 5 7 8 10 12 17
2 5 7 8 10 11 16
2 5 7 8 10 11 12 17
 Analysis time: 2.059s