25/07/2021 16:42:17[DEBUG] pflow_file:  ../analysis/analisis_15_25072021/gen_nets/20210725-164143_0/net.pflow  
25/07/2021 16:42:17[DEBUG] output_folder:  ../analysis/analisis_15_25072021/gen_nets/20210725-164143_0/  
25/07/2021 16:42:17[DEBUG] html_path:  ../analysis/analisis_15_25072021/gen_nets/20210725-164143_0/  
25/07/2021 16:42:17[DEBUG] txt_path:  ../analysis/analisis_15_25072021/gen_nets/20210725-164143_0/txt_info  

--------------------------------------------------------------------------   
25/07/2021 16:42:17[INFO] Ejecutando petrinator para conocer estado de la red...   
--------------------------------------------------------------------------
   
25/07/2021 16:42:20[ERROR] La red ingresada no tiene deadlock, cerrando analisis 
  
