19/07/2021 23:26:40[DEBUG] pflow_file:  ../analysis/analisis_11_19072021/gen_nets/20210719-224351_18/net.pflow  
19/07/2021 23:26:40[DEBUG] output_folder:  ../analysis/analisis_11_19072021/gen_nets/20210719-224351_18/  
19/07/2021 23:26:40[DEBUG] html_path:  ../analysis/analisis_11_19072021/gen_nets/20210719-224351_18/  
19/07/2021 23:26:40[DEBUG] txt_path:  ../analysis/analisis_11_19072021/gen_nets/20210719-224351_18/txt_info  

--------------------------------------------------------------------------   
19/07/2021 23:26:40[INFO] Ejecutando petrinator para conocer estado de la red...   
--------------------------------------------------------------------------
   
19/07/2021 23:26:44[ERROR] La red ingresada no tiene deadlock, cerrando analisis 
  
