15/09/2021 22:02:31[DEBUG] pflow_file:  ../test_networks/20210915-213836_4/net.pflow  
15/09/2021 22:02:31[DEBUG] output_folder:  ../test_networks/20210915-213836_4/  
15/09/2021 22:02:31[DEBUG] html_path:  ../test_networks/20210915-213836_4/  
15/09/2021 22:02:31[DEBUG] txt_path:  ../test_networks/20210915-213836_4/txt_info  

--------------------------------------------------------------------------   
15/09/2021 22:02:31[INFO] Ejecutando petrinator para conocer estado de la red...   
--------------------------------------------------------------------------
   
15/09/2021 22:02:37[INFO] SIFONES   
+----+-----+--------------------------------------------------------+
| ID | Nro |                         Plazas                         |
+----+-----+--------------------------------------------------------+
| 0  |  2  | ['P3', 'P7', 'P11', 'P16', 'P25', 'P26', 'P27', 'P29'] |
| 1  |  3  |    ['P2', 'P7', 'P11', 'P16', 'P25', 'P26', 'P29']     |
| 2  |  7  |              ['P7', 'P15', 'P24', 'P25']               |
| 3  |  18 |    ['P2', 'P7', 'P11', 'P16', 'P24', 'P25', 'P29']     |
| 4  |  21 |    ['P3', 'P7', 'P11', 'P15', 'P25', 'P26', 'P27']     |
| 5  |  23 | ['P3', 'P7', 'P11', 'P16', 'P24', 'P25', 'P27', 'P29'] |
+----+-----+--------------------------------------------------------+ 

15/09/2021 22:02:37[INFO] T INVARIANTES   
+----+----+----+----+----+----+----+----+----+----+-----+-----+-----+-----+-----+-----+-----+-----+
| T0 | T1 | T2 | T3 | T4 | T5 | T6 | T7 | T8 | T9 | T10 | T11 | T12 | T13 | T14 | T15 | T16 | T17 |
+----+----+----+----+----+----+----+----+----+----+-----+-----+-----+-----+-----+-----+-----+-----+
| 1  | 1  | 1  | 1  | 1  | 0  | 0  | 0  | 0  | 0  |  0  |  0  |  0  |  0  |  0  |  0  |  0  |  0  |
| 0  | 0  | 0  | 0  | 0  | 1  | 1  | 1  | 0  | 0  |  0  |  0  |  0  |  0  |  0  |  0  |  0  |  0  |
| 0  | 0  | 0  | 0  | 0  | 0  | 0  | 0  | 1  | 1  |  1  |  0  |  0  |  0  |  0  |  0  |  1  |  1  |
| 0  | 0  | 0  | 0  | 0  | 0  | 0  | 0  | 0  | 0  |  0  |  1  |  1  |  1  |  1  |  1  |  1  |  1  |
+----+----+----+----+----+----+----+----+----+----+-----+-----+-----+-----+-----+-----+-----+-----+ 

15/09/2021 22:02:37[INFO] Supervisores para agregar   
+-----+---------+----------------------------+---------------------------+--------------------------------------------------------+
|  ID | Marcado |        T - Entrada         |         T - Salida        |                   Sifon a controlar                    |
+-----+---------+----------------------------+---------------------------+--------------------------------------------------------+
| P30 |    3    | ['T3', 'T7', 'T11', 'T15'] | ['T2', 'T6', 'T9', 'T13'] | ['P3', 'P7', 'P11', 'P16', 'P25', 'P26', 'P27', 'P29'] |
| P30 |    2    |    ['T7', 'T10', 'T15']    |    ['T6', 'T9', 'T13']    |    ['P2', 'P7', 'P11', 'P16', 'P25', 'P26', 'P29']     |
| P30 |    1    |       ['T7', 'T14']        |       ['T6', 'T13']       |              ['P7', 'P15', 'P24', 'P25']               |
| P30 |    2    |       ['T7', 'T15']        |       ['T6', 'T13']       |    ['P2', 'P7', 'P11', 'P16', 'P24', 'P25', 'P29']     |
| P30 |    2    |    ['T7', 'T10', 'T14']    |    ['T6', 'T9', 'T13']    |    ['P3', 'P7', 'P11', 'P15', 'P25', 'P26', 'P27']     |
| P30 |    3    |    ['T3', 'T7', 'T15']     |    ['T2', 'T6', 'T13']    | ['P3', 'P7', 'P11', 'P16', 'P24', 'P25', 'P27', 'P29'] |
+-----+---------+----------------------------+---------------------------+--------------------------------------------------------+ 

15/09/2021 22:02:37[INFO] Supervisores agregados   
+-----+-------+---------+-------------+------------+----------------+
| Nro | Plaza | Marcado | T - Entrada | T - Salida | MAL supervisor |
+-----+-------+---------+-------------+------------+----------------+
+-----+-------+---------+-------------+------------+----------------+ 

15/09/2021 22:02:37[INFO] Supervisores eliminados   
+-----+-------+---------+-------------+------------+----------------+
| Nro | Plaza | Marcado | T - Entrada | T - Salida | MAL supervisor |
+-----+-------+---------+-------------+------------+----------------+
+-----+-------+---------+-------------+------------+----------------+ 

15/09/2021 22:02:37[INFO] Ejecutando accion...   
15/09/2021 22:02:37[ACTION] Agrego supervisor con menor numero de arcos de salida (MNAS)   
15/09/2021 22:02:37[INFO] Supervisor con menor cantidad de arcos de salida agregado 2   

--------------------------------------------------------------------------   
15/09/2021 22:02:37[INFO] Ejecutando petrinator para conocer estado de la red...   
--------------------------------------------------------------------------
   
--------------------------------------------------------------------------
   
15/09/2021 22:02:43[INFO] Calculando recompensa..   
15/09/2021 22:02:43[REWARD] No hay mas deadlock, recompensa 100   

--------------------------------------------------------------------------
   
15/09/2021 22:02:43[STATE] Se llego al estado deseado, NO HAY MAS DEADLOCK   

--------------------------------------------------------------------------
   
+--------+---------+-------------------+----------------+---------+---------+------------------------+
| Plazas | Estados | Tokens trabajando | Sifones vacios | Sifones | Trampas | Supervisores agregados |
+--------+---------+-------------------+----------------+---------+---------+------------------------+
|   30   |   836   |        3339       |       0        |    35   |    27   |           1            |
+--------+---------+-------------------+----------------+---------+---------+------------------------+ 
+------------------------------+------------+-----------------+--------------------+-----------------------+
|       Estados/Acciones       | + sup MNAS | + sup aleatorio | - sup MAL agregado | - ultimo sup agregado |
+------------------------------+------------+-----------------+--------------------+-----------------------+
|            Start             |   100.0    |       0.0       |        0.0         |          0.0          |
| + sifónes vacíos en deadlock |    0.0     |       0.0       |        0.0         |          0.0          |
| - sifónes vacíos en deadlock |    0.0     |       0.0       |        0.0         |          0.0          |
| = sifónes vacíos en deadlock |    0.0     |       0.0       |        0.0         |          0.0          |
|             End              |    0.0     |       0.0       |        0.0         |          0.0          |
+------------------------------+------------+-----------------+--------------------+-----------------------+ 

15/09/2021 22:02:43[INFO] Comienza proceso de eliminacion de supervisores redundantes   
15/09/2021 22:02:43[INFO] Supervisor a eliminar   
+-----+-------+---------+---------------+---------------+----------------+
| Nro | Plaza | Marcado |  T - Entrada  |   T - Salida  | MAL supervisor |
+-----+-------+---------+---------------+---------------+----------------+
|  1  |  P30  |    1    | ['T7', 'T14'] | ['T6', 'T13'] |     False      |
+-----+-------+---------+---------------+---------------+----------------+ 
15/09/2021 22:02:43[INFO] Eliminando supervisor ...   

--------------------------------------------------------------------------   
15/09/2021 22:02:43[INFO] Ejecutando petrinator para conocer estado de la red...   
--------------------------------------------------------------------------
   
15/09/2021 22:02:49[INFO] El supervisor eliminado no era redundante, volviendo a agregar supervisor   
15/09/2021 22:02:49[INFO] Se volvio a agregar correctamente el supervisor eliminado   

--------------------------------------------------------------------------   
15/09/2021 22:02:49[INFO] Ejecutando petrinator para conocer estado de la red...   
--------------------------------------------------------------------------
   
15/09/2021 22:02:56[INFO] Se eliminaron todos los supervisores redundantes   
+--------+---------+-------------------+----------------+---------+---------+------------------------+-------------------------+
| Plazas | Estados | Tokens trabajando | Sifones vacios | Sifones | Trampas | Supervisores agregados | Supervisores eliminados |
+--------+---------+-------------------+----------------+---------+---------+------------------------+-------------------------+
|   30   |   836   |        3339       |       0        |    35   |    27   |           1            |            0            |
+--------+---------+-------------------+----------------+---------+---------+------------------------+-------------------------+ 
