21/06/2021 18:52:04[DEBUG] pflow_file:  ../analisis_5_21062021/gen_nets/20210621-175515_23/net.pflow  
21/06/2021 18:52:04[DEBUG] output_folder:  ../analisis_5_21062021/gen_nets/20210621-175515_23/  
21/06/2021 18:52:04[DEBUG] html_path:  ../analisis_5_21062021/gen_nets/20210621-175515_23/  
21/06/2021 18:52:04[DEBUG] txt_path:  ../analisis_5_21062021/gen_nets/20210621-175515_23/txt_info  

--------------------------------------------------------------------------   
21/06/2021 18:52:04[INFO] Ejecutando petrinator para conocer estado de la red...   
--------------------------------------------------------------------------
   
21/06/2021 18:52:08[ERROR] La red ingresada no tiene deadlock, cerrando analisis 
  
