19/06/2021 18:01:57[DEBUG] pflow_file:  ../Prueba/gen_nets/20210619-175223_17/net.pflow  
19/06/2021 18:01:57[DEBUG] output_folder:  ../Prueba/gen_nets/20210619-175223_17/  
19/06/2021 18:01:57[DEBUG] html_path:  ../Prueba/gen_nets/20210619-175223_17/  
19/06/2021 18:01:57[DEBUG] txt_path:  ../Prueba/gen_nets/20210619-175223_17/txt_info  

--------------------------------------------------------------------------   
19/06/2021 18:01:57[INFO] Ejecutando petrinator para conocer estado de la red...   
--------------------------------------------------------------------------
   
19/06/2021 18:01:59[ERROR] La red ingresada no tiene deadlock, cerrando analisis 
  
