 Minimal siphons 
2 7 13 18 28 30
11 14
1 7 13 18 28
18 21
17 22
16 20
15 19
5 6 7 8 9
1 31 5 6 23
1 7 29
1 7 27
1 31 5 6 7 23
10 11 12 13 15 16 17 18 23 24 25
1 31 5 6 10 11 23
1 32 5 6 10 11 12 23
1 31 7 10 11 23 29
1 32 7 10 11 12 23 29
1 32 7 10 11 12 23 27
1 32 5 6 7 10 11 12 23
1 31 7 10 11 23 27
1 31 5 6 7 10 11 23
1 31 7 10 11 12 13 23 29
1 32 7 10 11 12 13 23 29
1 32 7 10 11 12 13 23 27
1 32 5 6 7 10 11 12 13 23
1 31 7 10 11 12 13 23 27
1 31 5 6 7 10 11 12 13 23
2 6 12 26
2 3
1 2 4
2 6 30
31 2 3 5 6 23
1 31 2 5 6 23
2 6 11 12 14 30
31 2 6 10 11 12 23 30
32 2 6 10 11 12 23 30
32 2 3 5 6 10 11 12 23
1 32 2 5 6 10 11 12 23
31 2 3 5 6 10 11 12 23
1 31 2 5 6 10 11 12 23
31 2 6 10 11 12 13 23 30
32 2 6 10 11 12 13 23 30
32 2 3 5 6 10 11 12 13 23
1 32 2 5 6 10 11 12 13 23
31 2 3 5 6 10 11 12 13 23
1 31 2 5 6 10 11 12 13 23
31 2 3 5 6 11 12 14 23
32 2 3 5 6 11 12 14 23
1 32 2 5 6 11 12 14 23
1 31 2 5 6 11 12 14 23
2 7 12 26 29
2 7 29 30
2 7 27 30
2 6 7 30
31 2 3 5 6 7 23
2 3 5 6 7 8 9
1 2 4 5 6 7 8 9
1 31 2 5 6 7 23
2 3 7 27
1 2 7 27
2 3 7 29
1 2 7 29
2 7 11 12 14 29 30
31 2 7 10 11 12 23 29 30
32 2 7 10 11 12 23 29 30
32 2 7 10 11 12 23 27 30
32 2 6 7 10 11 12 23 30
32 2 3 5 6 7 10 11 12 23
1 32 2 5 6 7 10 11 12 23
32 2 3 7 10 11 12 23 27
1 32 2 7 10 11 12 23 27
32 2 3 7 10 11 12 23 29
1 32 2 7 10 11 12 23 29
31 2 7 10 11 12 23 27 30
31 2 6 7 10 11 12 23 30
31 2 3 5 6 7 10 11 12 23
1 31 2 5 6 7 10 11 12 23
31 2 3 7 10 11 12 23 27
1 31 2 7 10 11 12 23 27
31 2 3 7 10 11 12 23 29
1 31 2 7 10 11 12 23 29
2 7 11 12 14 27 30
2 6 7 11 12 14 30
31 2 3 5 6 7 11 12 14 23
32 2 3 5 6 7 11 12 14 23
2 3 5 6 7 8 9 11 12 14
1 2 4 5 6 7 8 9 11 12 14
1 32 2 5 6 7 11 12 14 23
1 31 2 5 6 7 11 12 14 23
2 3 7 11 12 14 27
1 2 7 11 12 14 27
2 3 7 11 12 14 29
1 2 7 11 12 14 29
2 7 12 26 27
2 6 7 12 26
2 7 12 13 26 29
2 7 11 12 13 14 29 30
31 2 7 10 11 12 13 23 29 30
32 2 7 10 11 12 13 23 29 30
32 2 7 10 11 12 13 23 27 30
32 2 6 7 10 11 12 13 23 30
32 2 3 5 6 7 10 11 12 13 23
1 32 2 5 6 7 10 11 12 13 23
32 2 3 7 10 11 12 13 23 27
1 32 2 7 10 11 12 13 23 27
32 2 3 7 10 11 12 13 23 29
1 32 2 7 10 11 12 13 23 29
31 2 7 10 11 12 13 23 27 30
31 2 6 7 10 11 12 13 23 30
31 2 3 5 6 7 10 11 12 13 23
1 31 2 5 6 7 10 11 12 13 23
31 2 3 7 10 11 12 13 23 27
1 31 2 7 10 11 12 13 23 27
31 2 3 7 10 11 12 13 23 29
1 31 2 7 10 11 12 13 23 29
2 7 11 12 13 14 27 30
2 6 7 11 12 13 14 30
31 2 3 5 6 7 11 12 13 14 23
32 2 3 5 6 7 11 12 13 14 23
2 3 5 6 7 8 9 11 12 13 14
1 2 4 5 6 7 8 9 11 12 13 14
1 32 2 5 6 7 11 12 13 14 23
1 31 2 5 6 7 11 12 13 14 23
2 3 7 11 12 13 14 27
1 2 7 11 12 13 14 27
2 3 7 11 12 13 14 29
1 2 7 11 12 13 14 29
2 7 12 13 26 27
2 6 7 12 13 26
2 7 13 18 26 28
2 3 7 13 18 28
1 2 7 13 18 28
 Minimal traps 
15 19
11 14
1 31 5 6 23
16 20
17 22
18 21
2 6 12 26
5 6 7 8 9
2 3
2 6 30
1 6 12 26 29
1 2 4
1 2 3
1 7 29
1 7 27
1 7 13 18 28
1 6 29 30
1 6 27 30
1 2 6 30
1 2 4 5 6 7 8 9
1 2 3 5 6 7 8 9
1 6 7 27
1 6 7 29
1 6 13 18 28 30
1 6 12 18 26 28
1 6 12 26 27
2 6 11 12 26
1 32 5 6 10 11 12 23
1 6 11 12 26 29
1 32 31 5 6 11 12 23
10 11 12 13 15 16 17 18 23 24 25
1 7 13 15 16 17 18 28
 Analysis time: 2.255s