 Minimal siphons 
2 6 11 15 22 24
15 16
1 6 11 14 19
13 17
10 11 12
6 7
5 8
5 6 9
1 5 11 21
1 5 10 25
1 5 26
1 5 20
1 5 10 23
1 5 10 11 25
1 5 10 11 23
1 5 10 11 12 26
1 27 5 10 11 13 14
1 5 10 11 12 20
1 6 7 10 25
1 5 6 10 25
1 5 6 26
1 5 6 20
1 5 6 10 23
1 6 7 26
1 6 7 20
1 6 7 10 23
1 6 7 11 21
1 5 6 11 21
1 5 6 10 11 25
1 5 6 10 11 23
1 5 6 10 11 12 26
1 5 6 10 11 12 20
1 6 7 10 11 25
1 6 7 10 11 23
1 6 7 10 11 12 26
1 6 7 10 11 12 20
13 14 15 18
2 5 11 15 22
2 3
1 2 4
2 3 5 10 25
1 2 5 10 25
1 2 5 26
1 2 5 20
1 2 4 5 8
1 2 5 10 23
2 3 5 26
2 3 5 20
2 3 5 8
2 3 5 10 23
2 3 5 11 21
1 2 5 11 21
1 2 5 10 11 25
1 2 5 10 11 23
1 2 5 10 11 12 26
1 2 5 10 11 12 20
1 2 4 5 8 10 11 12
2 3 5 10 11 25
2 3 5 10 11 23
2 3 5 10 11 12 26
2 3 5 10 11 12 20
2 3 5 8 10 11 12
2 3 6 7
1 2 6 7 26
1 2 5 6 26
1 2 5 6 20
1 2 4 5 6 9
1 2 4 5 6 8
1 2 6 7 20
1 2 4 6 7
2 3 5 6 26
2 3 5 6 20
2 3 5 6 9
2 3 5 6 8
2 6 10 14 24
2 3 6 7 10 25
1 2 6 7 10 25
1 2 5 6 10 25
1 2 5 6 10 23
1 2 6 7 10 23
2 3 5 6 10 25
2 3 5 6 10 23
2 3 6 7 10 23
2 6 11 14 21 24
2 3 6 7 11 21
1 2 6 7 11 21
1 2 5 6 11 21
1 2 5 6 10 11 25
1 2 5 6 10 11 23
1 2 5 6 10 11 12 26
1 2 5 6 10 11 12 20
1 2 4 5 6 9 10 11 12
1 2 4 5 6 8 10 11 12
1 2 6 7 10 11 25
1 2 6 7 10 11 23
1 2 6 7 10 11 12 26
1 2 6 7 10 11 12 20
1 2 4 6 7 10 11 12
2 3 5 6 11 21
2 3 5 6 10 11 25
2 3 5 6 10 11 23
2 3 5 6 10 11 12 26
2 3 5 6 10 11 12 20
2 3 5 6 9 10 11 12
2 3 5 6 8 10 11 12
2 3 6 7 10 11 25
2 3 6 7 10 11 23
2 3 6 7 10 11 12
2 6 11 14 19 24
2 6 11 15 19 22
 Minimal traps 
13 17
1 5 26
2 5 10 14 22 24
15 16
10 11 12
5 8
6 7
5 6 9
2 6 10 14 24
2 3
2 3 6 7
2 3 6 7 10 11 12
2 5 11 15 22
2 3 5 8
2 3 5 6 9
2 3 5 6 7
1 6 10 14 19 24
1 2 4
1 2 3
1 6 11 14 19
1 2 4 6 7
1 2 3 6 7
1 2 4 6 7 10 11 12
1 2 3 6 7 10 11 12
1 5 10 25
1 5 11 14 19 22
1 5 20
1 2 4 5 8
1 2 3 5 8
1 2 3 5 6 9
1 2 3 5 6 7
1 2 4 5 6 9
1 2 4 5 6 7
1 5 11 21
1 5 10 23
1 5 10 14 21 24
1 5 10 14 19 22 24
1 5 10 11 14 19 20
1 5 10 11 14 19 21
13 14 15 18
1 27 5 10 11 13 14
1 27 5 10 13 14 24
 Analysis time: 0.478s