 Minimal siphons 
2 5 11 16 17 23 30 32
1 5 11 16 17 23 30 31
5 11 27
4 11 16 30
14 17
11 12
10 11 13 14 15 16 18 19 20
4 15 23
33 4 10
33 4 10 11
33 4 11 12
5 10 26
5 15 22
5 6
33 5 6 10
33 4 5 10
5 11 16 26 30
33 5 6 10 11
33 4 5 10 11
5 6 11 12
33 4 5 11 12
5 11 16 22 30
1 16 24
1 11 12 28
1 10 28
1 10 11 28
1 4 21
1 4 10 21 28
1 33 4 10 28
1 33 4 10 21
1 4 16 21 24
1 33 4 10 16 24
1 4 10 11 21 28
1 33 4 10 11 28
1 33 4 10 11 21
1 4 11 12 21
1 33 4 11 12 28
1 4 10 11 16 18 19 20 21 24
1 33 4 10 11 16 18 19 20 24
1 4 11 12 16 21 24
1 33 4 11 12 16 24
1 4 10 11 16 21 24 28
1 33 4 10 11 16 24 28
1 4 11 12 16 21 24 28
1 33 4 11 12 16 24 28
1 5 6 21
1 4 5 21
1 4 5 16 21 24
1 5 10 15 17 23 31
1 5 10 13 31
1 5 10 16 17 22 24 28
1 5 11 13 16 30 31
1 5 10 11 16 17 22 24 28
1 5 11 16 17 22 28 30
1 5 11 16 17 22 24 30
1 5 11 16 17 21 22 30
2 11 29
2 3
1 2 10 28
1 2 4 21
1 33 2 4 10 21
1 2 11 12 16 24
1 2 10 11 28
1 2 10 11 16 18 19 20 24
1 2 11 12 28
1 2 4 10 11 21 28
1 33 2 4 10 11 28
1 33 2 4 10 11 21
1 2 4 11 12 21
1 33 2 4 11 12 28
1 2 4 10 11 16 18 19 20 21 24
1 33 2 4 10 11 16 18 19 20 24
1 2 4 11 12 16 21 24
1 33 2 4 11 12 16 24
1 2 4 10 11 16 21 24 28
1 33 2 4 10 11 16 24 28
1 2 4 11 12 16 21 24 28
1 33 2 4 11 12 16 24 28
2 3 11 12
2 3 10 11 28
2 3 10 11 16 18 19 20 24
2 3 4 10 11 21 28
33 2 3 4 10 11
33 2 3 4 10 11 21
2 3 4 11 12 21
33 2 3 4 11 12
2 3 4 10 11 16 21 24 28
33 2 3 4 10 11 16 24
2 3 4 10 11 16 18 19 20 21 24
33 2 3 4 10 11 16 21 24
2 3 4 11 12 16 21 24
33 2 3 4 11 12 16 24
2 5 10 16 17 23 24 32
2 5 25
1 2 5 6 21
1 2 4 5 21
1 2 4 5 7 8 9
1 2 5 6 7 8 9
1 2 4 5 16 21 24
1 2 4 5 7 8 9 16 24
2 3 5 6
2 3 4 5 21
2 3 4 5 7 8 9
2 3 4 5 16 21 24
2 3 4 5 7 8 9 16 24
2 5 10 15 17 23 32
2 5 10 13 32
2 5 10 16 17 22 24 32
1 2 5 10 16 17 22 24 28
2 3 5 10 16 17 22 24 28
2 5 11 13 16 30 32
1 2 5 10 11 16 17 22 24 28
2 3 5 10 11 16 17 22 24 28
1 2 5 11 16 17 22 28 30
1 2 5 11 16 17 22 24 30
1 2 5 11 16 17 21 22 30
1 2 5 7 8 9 11 16 17 22 30
 Minimal traps 
1 4 10 13 17 23 31
2 4 10 13 17 23 32
14 17
4 15 23
5 15 22
11 12
5 10 26
5 11 27
5 6
4 10 16 26 30
4 11 16 30
33 4 10
4 10 15 22 26 30
4 11 15 22 30
10 11 13 14 15 16 18 19 20
2 5 10 13 32
2 11 29
2 3
2 3 11 12
2 3 10 11 12
2 5 11 27 29
2 5 25
2 5 11 25 29
2 5 11 12 25
2 5 11 25 27
2 3 5 11 27
2 5 10 26 29
2 5 10 11 27 29
2 5 10 11 25 29
2 5 10 11 12 25
2 5 10 11 25 27
2 3 5 10 11 27
2 5 10 25 26
2 3 5 10 26
2 4 10 13 16 30 32
2 4 10 13 15 22 30 32
2 4 10 13 17 22 30 32
1 5 10 13 31
1 16 24
1 10 28
1 2 11 29
1 2 3
1 2 3 11 12
1 2 10 11 29
1 2 3 10 11 12
1 5 10 27 28
1 5 10 26 28
1 5 10 25 28
1 5 10 13 17 22 24 32
1 4 21
1 2 4 5 7 8 9
1 4 10 13 16 30 31
1 4 10 13 15 22 30 31
1 4 10 13 15 22 24 30 32
1 4 10 13 17 22 30 31
1 4 10 13 17 22 24 30 32
1 4 10 13 17 23 24 32
 Analysis time: 4.206s