21/06/2021 17:56:20[DEBUG] pflow_file:  ../analisis_5_21062021/gen_nets/20210621-175514_11/net.pflow  
21/06/2021 17:56:20[DEBUG] output_folder:  ../analisis_5_21062021/gen_nets/20210621-175514_11/  
21/06/2021 17:56:20[DEBUG] html_path:  ../analisis_5_21062021/gen_nets/20210621-175514_11/  
21/06/2021 17:56:20[DEBUG] txt_path:  ../analisis_5_21062021/gen_nets/20210621-175514_11/txt_info  

--------------------------------------------------------------------------   
21/06/2021 17:56:20[INFO] Ejecutando petrinator para conocer estado de la red...   
--------------------------------------------------------------------------
   
21/06/2021 17:56:25[ERROR] La red ingresada no tiene deadlock, cerrando analisis 
  
