 p 26 
 t 15 
 Reachable states from S0 [0, 0, 0, 1, 2, 0, 0, 1, 2, 0, 0, 0, 0, 2, 0, 0, 1, 3, 1, 1, 1, 1, 1, 1, 1, 2] 
 T1 => S1 [1, 0, 0, 1, 1, 0, 0, 1, 2, 0, 0, 0, 0, 2, 0, 0, 1, 3, 1, 1, 0, 1, 1, 1, 0, 1] 
 T5 => S9 [0, 0, 0, 1, 2, 1, 0, 1, 1, 0, 0, 0, 0, 2, 0, 0, 1, 3, 1, 1, 1, 1, 1, 1, 0, 1] 
 T8 => S13 [0, 0, 0, 1, 2, 0, 0, 1, 2, 1, 0, 0, 0, 1, 0, 0, 1, 3, 1, 1, 1, 1, 1, 1, 1, 1] 
 T13 => S81 [0, 0, 0, 1, 2, 0, 0, 1, 2, 0, 0, 0, 0, 2, 1, 0, 0, 2, 1, 1, 1, 1, 0, 1, 1, 2] 
 
 Reachable states from S1 [1, 0, 0, 1, 1, 0, 0, 1, 2, 0, 0, 0, 0, 2, 0, 0, 1, 3, 1, 1, 0, 1, 1, 1, 0, 1] 
 T2 => S2 [0, 1, 0, 0, 1, 0, 0, 1, 2, 0, 0, 0, 0, 2, 0, 0, 1, 3, 0, 0, 1, 0, 1, 1, 1, 1] 
 T8 => S14 [1, 0, 0, 1, 1, 0, 0, 1, 2, 1, 0, 0, 0, 1, 0, 0, 1, 3, 1, 1, 0, 1, 1, 1, 0, 0] 
 T13 => S82 [1, 0, 0, 1, 1, 0, 0, 1, 2, 0, 0, 0, 0, 2, 1, 0, 0, 2, 1, 1, 0, 1, 0, 1, 0, 1] 
 
 Reachable states from S2 [0, 1, 0, 0, 1, 0, 0, 1, 2, 0, 0, 0, 0, 2, 0, 0, 1, 3, 0, 0, 1, 0, 1, 1, 1, 1] 
 T1 => S3 [1, 1, 0, 0, 0, 0, 0, 1, 2, 0, 0, 0, 0, 2, 0, 0, 1, 3, 0, 0, 0, 0, 1, 1, 0, 0] 
 T5 => S7 [0, 1, 0, 0, 1, 1, 0, 1, 1, 0, 0, 0, 0, 2, 0, 0, 1, 3, 0, 0, 1, 0, 1, 1, 0, 0] 
 T8 => S15 [0, 1, 0, 0, 1, 0, 0, 1, 2, 1, 0, 0, 0, 1, 0, 0, 1, 3, 0, 0, 1, 0, 1, 1, 1, 0] 
 T13 => S83 [0, 1, 0, 0, 1, 0, 0, 1, 2, 0, 0, 0, 0, 2, 1, 0, 0, 2, 0, 0, 1, 0, 0, 1, 1, 1] 
 T3 => S101 [0, 0, 1, 1, 1, 0, 0, 1, 2, 0, 0, 0, 0, 2, 0, 0, 1, 3, 1, 1, 1, 1, 0, 0, 1, 2] 
 
 Reachable states from S3 [1, 1, 0, 0, 0, 0, 0, 1, 2, 0, 0, 0, 0, 2, 0, 0, 1, 3, 0, 0, 0, 0, 1, 1, 0, 0] 
 T3 => S4 [1, 0, 1, 1, 0, 0, 0, 1, 2, 0, 0, 0, 0, 2, 0, 0, 1, 3, 1, 1, 0, 1, 0, 0, 0, 1] 
 T13 => S84 [1, 1, 0, 0, 0, 0, 0, 1, 2, 0, 0, 0, 0, 2, 1, 0, 0, 2, 0, 0, 0, 0, 0, 1, 0, 0] 
 
 Reachable states from S4 [1, 0, 1, 1, 0, 0, 0, 1, 2, 0, 0, 0, 0, 2, 0, 0, 1, 3, 1, 1, 0, 1, 0, 0, 0, 1] 
 T4 => S1 [1, 0, 0, 1, 1, 0, 0, 1, 2, 0, 0, 0, 0, 2, 0, 0, 1, 3, 1, 1, 0, 1, 1, 1, 0, 1] 
 T2 => S5 [0, 1, 1, 0, 0, 0, 0, 1, 2, 0, 0, 0, 0, 2, 0, 0, 1, 3, 0, 0, 1, 0, 0, 0, 1, 1] 
 T8 => S17 [1, 0, 1, 1, 0, 0, 0, 1, 2, 1, 0, 0, 0, 1, 0, 0, 1, 3, 1, 1, 0, 1, 0, 0, 0, 0] 
 
 Reachable states from S5 [0, 1, 1, 0, 0, 0, 0, 1, 2, 0, 0, 0, 0, 2, 0, 0, 1, 3, 0, 0, 1, 0, 0, 0, 1, 1] 
 T4 => S2 [0, 1, 0, 0, 1, 0, 0, 1, 2, 0, 0, 0, 0, 2, 0, 0, 1, 3, 0, 0, 1, 0, 1, 1, 1, 1] 
 T5 => S6 [0, 1, 1, 0, 0, 1, 0, 1, 1, 0, 0, 0, 0, 2, 0, 0, 1, 3, 0, 0, 1, 0, 0, 0, 0, 0] 
 T8 => S18 [0, 1, 1, 0, 0, 0, 0, 1, 2, 1, 0, 0, 0, 1, 0, 0, 1, 3, 0, 0, 1, 0, 0, 0, 1, 0] 
 
 Reachable states from S6 [0, 1, 1, 0, 0, 1, 0, 1, 1, 0, 0, 0, 0, 2, 0, 0, 1, 3, 0, 0, 1, 0, 0, 0, 0, 0] 
 T4 => S7 [0, 1, 0, 0, 1, 1, 0, 1, 1, 0, 0, 0, 0, 2, 0, 0, 1, 3, 0, 0, 1, 0, 1, 1, 0, 0] 
 
 Reachable states from S7 [0, 1, 0, 0, 1, 1, 0, 1, 1, 0, 0, 0, 0, 2, 0, 0, 1, 3, 0, 0, 1, 0, 1, 1, 0, 0] 
 T3 => S8 [0, 0, 1, 1, 1, 1, 0, 1, 1, 0, 0, 0, 0, 2, 0, 0, 1, 3, 1, 1, 1, 1, 0, 0, 0, 1] 
 T13 => S87 [0, 1, 0, 0, 1, 1, 0, 1, 1, 0, 0, 0, 0, 2, 1, 0, 0, 2, 0, 0, 1, 0, 0, 1, 0, 0] 
 
 Reachable states from S8 [0, 0, 1, 1, 1, 1, 0, 1, 1, 0, 0, 0, 0, 2, 0, 0, 1, 3, 1, 1, 1, 1, 0, 0, 0, 1] 
 T4 => S9 [0, 0, 0, 1, 2, 1, 0, 1, 1, 0, 0, 0, 0, 2, 0, 0, 1, 3, 1, 1, 1, 1, 1, 1, 0, 1] 
 T8 => S19 [0, 0, 1, 1, 1, 1, 0, 1, 1, 1, 0, 0, 0, 1, 0, 0, 1, 3, 1, 1, 1, 1, 0, 0, 0, 0] 
 
 Reachable states from S9 [0, 0, 0, 1, 2, 1, 0, 1, 1, 0, 0, 0, 0, 2, 0, 0, 1, 3, 1, 1, 1, 1, 1, 1, 0, 1] 
 T6 => S10 [0, 0, 0, 1, 2, 0, 1, 0, 1, 0, 0, 0, 0, 2, 0, 0, 1, 3, 0, 0, 0, 0, 0, 0, 1, 1] 
 T8 => S20 [0, 0, 0, 1, 2, 1, 0, 1, 1, 1, 0, 0, 0, 1, 0, 0, 1, 3, 1, 1, 1, 1, 1, 1, 0, 0] 
 T13 => S38 [0, 0, 0, 1, 2, 1, 0, 1, 1, 0, 0, 0, 0, 2, 1, 0, 0, 2, 1, 1, 1, 1, 0, 1, 0, 1] 
 
 Reachable states from S10 [0, 0, 0, 1, 2, 0, 1, 0, 1, 0, 0, 0, 0, 2, 0, 0, 1, 3, 0, 0, 0, 0, 0, 0, 1, 1] 
 T7 => S0 [0, 0, 0, 1, 2, 0, 0, 1, 2, 0, 0, 0, 0, 2, 0, 0, 1, 3, 1, 1, 1, 1, 1, 1, 1, 2] 
 T5 => S11 [0, 0, 0, 1, 2, 1, 1, 0, 0, 0, 0, 0, 0, 2, 0, 0, 1, 3, 0, 0, 0, 0, 0, 0, 0, 0] 
 T8 => S12 [0, 0, 0, 1, 2, 0, 1, 0, 1, 1, 0, 0, 0, 1, 0, 0, 1, 3, 0, 0, 0, 0, 0, 0, 1, 0] 
 
 Reachable states from S11 [0, 0, 0, 1, 2, 1, 1, 0, 0, 0, 0, 0, 0, 2, 0, 0, 1, 3, 0, 0, 0, 0, 0, 0, 0, 0] 
 T7 => S9 [0, 0, 0, 1, 2, 1, 0, 1, 1, 0, 0, 0, 0, 2, 0, 0, 1, 3, 1, 1, 1, 1, 1, 1, 0, 1] 
 
 Reachable states from S12 [0, 0, 0, 1, 2, 0, 1, 0, 1, 1, 0, 0, 0, 1, 0, 0, 1, 3, 0, 0, 0, 0, 0, 0, 1, 0] 
 T7 => S13 [0, 0, 0, 1, 2, 0, 0, 1, 2, 1, 0, 0, 0, 1, 0, 0, 1, 3, 1, 1, 1, 1, 1, 1, 1, 1] 
 
 Reachable states from S13 [0, 0, 0, 1, 2, 0, 0, 1, 2, 1, 0, 0, 0, 1, 0, 0, 1, 3, 1, 1, 1, 1, 1, 1, 1, 1] 
 T1 => S14 [1, 0, 0, 1, 1, 0, 0, 1, 2, 1, 0, 0, 0, 1, 0, 0, 1, 3, 1, 1, 0, 1, 1, 1, 0, 0] 
 T5 => S20 [0, 0, 0, 1, 2, 1, 0, 1, 1, 1, 0, 0, 0, 1, 0, 0, 1, 3, 1, 1, 1, 1, 1, 1, 0, 0] 
 T8 => S44 [0, 0, 0, 1, 2, 0, 0, 1, 2, 2, 0, 0, 0, 0, 0, 0, 1, 3, 1, 1, 1, 1, 1, 1, 1, 0] 
 T13 => S58 [0, 0, 0, 1, 2, 0, 0, 1, 2, 1, 0, 0, 0, 1, 1, 0, 0, 2, 1, 1, 1, 1, 0, 1, 1, 1] 
 T9 => S75 [0, 0, 0, 1, 2, 0, 0, 1, 2, 0, 1, 0, 0, 1, 0, 0, 1, 3, 1, 1, 1, 1, 0, 1, 1, 1] 
 
 Reachable states from S14 [1, 0, 0, 1, 1, 0, 0, 1, 2, 1, 0, 0, 0, 1, 0, 0, 1, 3, 1, 1, 0, 1, 1, 1, 0, 0] 
 T2 => S15 [0, 1, 0, 0, 1, 0, 0, 1, 2, 1, 0, 0, 0, 1, 0, 0, 1, 3, 0, 0, 1, 0, 1, 1, 1, 0] 
 T13 => S59 [1, 0, 0, 1, 1, 0, 0, 1, 2, 1, 0, 0, 0, 1, 1, 0, 0, 2, 1, 1, 0, 1, 0, 1, 0, 0] 
 T9 => S67 [1, 0, 0, 1, 1, 0, 0, 1, 2, 0, 1, 0, 0, 1, 0, 0, 1, 3, 1, 1, 0, 1, 0, 1, 0, 0] 
 
 Reachable states from S15 [0, 1, 0, 0, 1, 0, 0, 1, 2, 1, 0, 0, 0, 1, 0, 0, 1, 3, 0, 0, 1, 0, 1, 1, 1, 0] 
 T3 => S16 [0, 0, 1, 1, 1, 0, 0, 1, 2, 1, 0, 0, 0, 1, 0, 0, 1, 3, 1, 1, 1, 1, 0, 0, 1, 1] 
 T13 => S60 [0, 1, 0, 0, 1, 0, 0, 1, 2, 1, 0, 0, 0, 1, 1, 0, 0, 2, 0, 0, 1, 0, 0, 1, 1, 0] 
 T9 => S63 [0, 1, 0, 0, 1, 0, 0, 1, 2, 0, 1, 0, 0, 1, 0, 0, 1, 3, 0, 0, 1, 0, 0, 1, 1, 0] 
 
 Reachable states from S16 [0, 0, 1, 1, 1, 0, 0, 1, 2, 1, 0, 0, 0, 1, 0, 0, 1, 3, 1, 1, 1, 1, 0, 0, 1, 1] 
 T4 => S13 [0, 0, 0, 1, 2, 0, 0, 1, 2, 1, 0, 0, 0, 1, 0, 0, 1, 3, 1, 1, 1, 1, 1, 1, 1, 1] 
 T1 => S17 [1, 0, 1, 1, 0, 0, 0, 1, 2, 1, 0, 0, 0, 1, 0, 0, 1, 3, 1, 1, 0, 1, 0, 0, 0, 0] 
 T5 => S19 [0, 0, 1, 1, 1, 1, 0, 1, 1, 1, 0, 0, 0, 1, 0, 0, 1, 3, 1, 1, 1, 1, 0, 0, 0, 0] 
 T8 => S43 [0, 0, 1, 1, 1, 0, 0, 1, 2, 2, 0, 0, 0, 0, 0, 0, 1, 3, 1, 1, 1, 1, 0, 0, 1, 0] 
 
 Reachable states from S17 [1, 0, 1, 1, 0, 0, 0, 1, 2, 1, 0, 0, 0, 1, 0, 0, 1, 3, 1, 1, 0, 1, 0, 0, 0, 0] 
 T4 => S14 [1, 0, 0, 1, 1, 0, 0, 1, 2, 1, 0, 0, 0, 1, 0, 0, 1, 3, 1, 1, 0, 1, 1, 1, 0, 0] 
 T2 => S18 [0, 1, 1, 0, 0, 0, 0, 1, 2, 1, 0, 0, 0, 1, 0, 0, 1, 3, 0, 0, 1, 0, 0, 0, 1, 0] 
 
 Reachable states from S18 [0, 1, 1, 0, 0, 0, 0, 1, 2, 1, 0, 0, 0, 1, 0, 0, 1, 3, 0, 0, 1, 0, 0, 0, 1, 0] 
 T4 => S15 [0, 1, 0, 0, 1, 0, 0, 1, 2, 1, 0, 0, 0, 1, 0, 0, 1, 3, 0, 0, 1, 0, 1, 1, 1, 0] 
 
 Reachable states from S19 [0, 0, 1, 1, 1, 1, 0, 1, 1, 1, 0, 0, 0, 1, 0, 0, 1, 3, 1, 1, 1, 1, 0, 0, 0, 0] 
 T4 => S20 [0, 0, 0, 1, 2, 1, 0, 1, 1, 1, 0, 0, 0, 1, 0, 0, 1, 3, 1, 1, 1, 1, 1, 1, 0, 0] 
 
 Reachable states from S20 [0, 0, 0, 1, 2, 1, 0, 1, 1, 1, 0, 0, 0, 1, 0, 0, 1, 3, 1, 1, 1, 1, 1, 1, 0, 0] 
 T6 => S12 [0, 0, 0, 1, 2, 0, 1, 0, 1, 1, 0, 0, 0, 1, 0, 0, 1, 3, 0, 0, 0, 0, 0, 0, 1, 0] 
 T9 => S21 [0, 0, 0, 1, 2, 1, 0, 1, 1, 0, 1, 0, 0, 1, 0, 0, 1, 3, 1, 1, 1, 1, 0, 1, 0, 0] 
 T13 => S31 [0, 0, 0, 1, 2, 1, 0, 1, 1, 1, 0, 0, 0, 1, 1, 0, 0, 2, 1, 1, 1, 1, 0, 1, 0, 0] 
 
 Reachable states from S21 [0, 0, 0, 1, 2, 1, 0, 1, 1, 0, 1, 0, 0, 1, 0, 0, 1, 3, 1, 1, 1, 1, 0, 1, 0, 0] 
 T10 => S22 [0, 0, 0, 1, 2, 1, 0, 1, 1, 0, 0, 1, 0, 1, 0, 0, 1, 3, 1, 1, 1, 1, 1, 0, 0, 0] 
 
 Reachable states from S22 [0, 0, 0, 1, 2, 1, 0, 1, 1, 0, 0, 1, 0, 1, 0, 0, 1, 3, 1, 1, 1, 1, 1, 0, 0, 0] 
 T11 => S23 [0, 0, 0, 1, 2, 1, 0, 1, 1, 0, 0, 0, 1, 1, 0, 0, 1, 3, 1, 1, 0, 1, 1, 1, 0, 1] 
 T13 => S28 [0, 0, 0, 1, 2, 1, 0, 1, 1, 0, 0, 1, 0, 1, 1, 0, 0, 2, 1, 1, 1, 1, 0, 0, 0, 0] 
 
 Reachable states from S23 [0, 0, 0, 1, 2, 1, 0, 1, 1, 0, 0, 0, 1, 1, 0, 0, 1, 3, 1, 1, 0, 1, 1, 1, 0, 1] 
 T12 => S9 [0, 0, 0, 1, 2, 1, 0, 1, 1, 0, 0, 0, 0, 2, 0, 0, 1, 3, 1, 1, 1, 1, 1, 1, 0, 1] 
 T8 => S24 [0, 0, 0, 1, 2, 1, 0, 1, 1, 1, 0, 0, 1, 0, 0, 0, 1, 3, 1, 1, 0, 1, 1, 1, 0, 0] 
 T13 => S29 [0, 0, 0, 1, 2, 1, 0, 1, 1, 0, 0, 0, 1, 1, 1, 0, 0, 2, 1, 1, 0, 1, 0, 1, 0, 1] 
 
 Reachable states from S24 [0, 0, 0, 1, 2, 1, 0, 1, 1, 1, 0, 0, 1, 0, 0, 0, 1, 3, 1, 1, 0, 1, 1, 1, 0, 0] 
 T12 => S20 [0, 0, 0, 1, 2, 1, 0, 1, 1, 1, 0, 0, 0, 1, 0, 0, 1, 3, 1, 1, 1, 1, 1, 1, 0, 0] 
 T9 => S25 [0, 0, 0, 1, 2, 1, 0, 1, 1, 0, 1, 0, 1, 0, 0, 0, 1, 3, 1, 1, 0, 1, 0, 1, 0, 0] 
 T13 => S30 [0, 0, 0, 1, 2, 1, 0, 1, 1, 1, 0, 0, 1, 0, 1, 0, 0, 2, 1, 1, 0, 1, 0, 1, 0, 0] 
 
 Reachable states from S25 [0, 0, 0, 1, 2, 1, 0, 1, 1, 0, 1, 0, 1, 0, 0, 0, 1, 3, 1, 1, 0, 1, 0, 1, 0, 0] 
 T12 => S21 [0, 0, 0, 1, 2, 1, 0, 1, 1, 0, 1, 0, 0, 1, 0, 0, 1, 3, 1, 1, 1, 1, 0, 1, 0, 0] 
 T10 => S26 [0, 0, 0, 1, 2, 1, 0, 1, 1, 0, 0, 1, 1, 0, 0, 0, 1, 3, 1, 1, 0, 1, 1, 0, 0, 0] 
 
 Reachable states from S26 [0, 0, 0, 1, 2, 1, 0, 1, 1, 0, 0, 1, 1, 0, 0, 0, 1, 3, 1, 1, 0, 1, 1, 0, 0, 0] 
 T12 => S22 [0, 0, 0, 1, 2, 1, 0, 1, 1, 0, 0, 1, 0, 1, 0, 0, 1, 3, 1, 1, 1, 1, 1, 0, 0, 0] 
 T13 => S27 [0, 0, 0, 1, 2, 1, 0, 1, 1, 0, 0, 1, 1, 0, 1, 0, 0, 2, 1, 1, 0, 1, 0, 0, 0, 0] 
 
 Reachable states from S27 [0, 0, 0, 1, 2, 1, 0, 1, 1, 0, 0, 1, 1, 0, 1, 0, 0, 2, 1, 1, 0, 1, 0, 0, 0, 0] 
 T12 => S28 [0, 0, 0, 1, 2, 1, 0, 1, 1, 0, 0, 1, 0, 1, 1, 0, 0, 2, 1, 1, 1, 1, 0, 0, 0, 0] 
 
 Reachable states from S28 [0, 0, 0, 1, 2, 1, 0, 1, 1, 0, 0, 1, 0, 1, 1, 0, 0, 2, 1, 1, 1, 1, 0, 0, 0, 0] 
 T11 => S29 [0, 0, 0, 1, 2, 1, 0, 1, 1, 0, 0, 0, 1, 1, 1, 0, 0, 2, 1, 1, 0, 1, 0, 1, 0, 1] 
 
 Reachable states from S29 [0, 0, 0, 1, 2, 1, 0, 1, 1, 0, 0, 0, 1, 1, 1, 0, 0, 2, 1, 1, 0, 1, 0, 1, 0, 1] 
 T8 => S30 [0, 0, 0, 1, 2, 1, 0, 1, 1, 1, 0, 0, 1, 0, 1, 0, 0, 2, 1, 1, 0, 1, 0, 1, 0, 0] 
 T12 => S38 [0, 0, 0, 1, 2, 1, 0, 1, 1, 0, 0, 0, 0, 2, 1, 0, 0, 2, 1, 1, 1, 1, 0, 1, 0, 1] 
 T14 => S41 [0, 0, 0, 1, 2, 1, 0, 1, 1, 0, 0, 0, 1, 1, 0, 1, 1, 2, 1, 1, 0, 1, 1, 0, 0, 1] 
 
 Reachable states from S30 [0, 0, 0, 1, 2, 1, 0, 1, 1, 1, 0, 0, 1, 0, 1, 0, 0, 2, 1, 1, 0, 1, 0, 1, 0, 0] 
 T12 => S31 [0, 0, 0, 1, 2, 1, 0, 1, 1, 1, 0, 0, 0, 1, 1, 0, 0, 2, 1, 1, 1, 1, 0, 1, 0, 0] 
 T14 => S35 [0, 0, 0, 1, 2, 1, 0, 1, 1, 1, 0, 0, 1, 0, 0, 1, 1, 2, 1, 1, 0, 1, 1, 0, 0, 0] 
 
 Reachable states from S31 [0, 0, 0, 1, 2, 1, 0, 1, 1, 1, 0, 0, 0, 1, 1, 0, 0, 2, 1, 1, 1, 1, 0, 1, 0, 0] 
 T14 => S32 [0, 0, 0, 1, 2, 1, 0, 1, 1, 1, 0, 0, 0, 1, 0, 1, 1, 2, 1, 1, 1, 1, 1, 0, 0, 0] 
 
 Reachable states from S32 [0, 0, 0, 1, 2, 1, 0, 1, 1, 1, 0, 0, 0, 1, 0, 1, 1, 2, 1, 1, 1, 1, 1, 0, 0, 0] 
 T15 => S20 [0, 0, 0, 1, 2, 1, 0, 1, 1, 1, 0, 0, 0, 1, 0, 0, 1, 3, 1, 1, 1, 1, 1, 1, 0, 0] 
 T9 => S33 [0, 0, 0, 1, 2, 1, 0, 1, 1, 0, 1, 0, 0, 1, 0, 1, 1, 2, 1, 1, 1, 1, 0, 0, 0, 0] 
 T13 => S34 [0, 0, 0, 1, 2, 1, 0, 1, 1, 1, 0, 0, 0, 1, 1, 1, 0, 1, 1, 1, 1, 1, 0, 0, 0, 0] 
 
 Reachable states from S33 [0, 0, 0, 1, 2, 1, 0, 1, 1, 0, 1, 0, 0, 1, 0, 1, 1, 2, 1, 1, 1, 1, 0, 0, 0, 0] 
 T15 => S21 [0, 0, 0, 1, 2, 1, 0, 1, 1, 0, 1, 0, 0, 1, 0, 0, 1, 3, 1, 1, 1, 1, 0, 1, 0, 0] 
 
 Reachable states from S34 [0, 0, 0, 1, 2, 1, 0, 1, 1, 1, 0, 0, 0, 1, 1, 1, 0, 1, 1, 1, 1, 1, 0, 0, 0, 0] 
 T15 => S31 [0, 0, 0, 1, 2, 1, 0, 1, 1, 1, 0, 0, 0, 1, 1, 0, 0, 2, 1, 1, 1, 1, 0, 1, 0, 0] 
 
 Reachable states from S35 [0, 0, 0, 1, 2, 1, 0, 1, 1, 1, 0, 0, 1, 0, 0, 1, 1, 2, 1, 1, 0, 1, 1, 0, 0, 0] 
 T15 => S24 [0, 0, 0, 1, 2, 1, 0, 1, 1, 1, 0, 0, 1, 0, 0, 0, 1, 3, 1, 1, 0, 1, 1, 1, 0, 0] 
 T12 => S32 [0, 0, 0, 1, 2, 1, 0, 1, 1, 1, 0, 0, 0, 1, 0, 1, 1, 2, 1, 1, 1, 1, 1, 0, 0, 0] 
 T9 => S36 [0, 0, 0, 1, 2, 1, 0, 1, 1, 0, 1, 0, 1, 0, 0, 1, 1, 2, 1, 1, 0, 1, 0, 0, 0, 0] 
 T13 => S37 [0, 0, 0, 1, 2, 1, 0, 1, 1, 1, 0, 0, 1, 0, 1, 1, 0, 1, 1, 1, 0, 1, 0, 0, 0, 0] 
 
 Reachable states from S36 [0, 0, 0, 1, 2, 1, 0, 1, 1, 0, 1, 0, 1, 0, 0, 1, 1, 2, 1, 1, 0, 1, 0, 0, 0, 0] 
 T15 => S25 [0, 0, 0, 1, 2, 1, 0, 1, 1, 0, 1, 0, 1, 0, 0, 0, 1, 3, 1, 1, 0, 1, 0, 1, 0, 0] 
 T12 => S33 [0, 0, 0, 1, 2, 1, 0, 1, 1, 0, 1, 0, 0, 1, 0, 1, 1, 2, 1, 1, 1, 1, 0, 0, 0, 0] 
 
 Reachable states from S37 [0, 0, 0, 1, 2, 1, 0, 1, 1, 1, 0, 0, 1, 0, 1, 1, 0, 1, 1, 1, 0, 1, 0, 0, 0, 0] 
 T15 => S30 [0, 0, 0, 1, 2, 1, 0, 1, 1, 1, 0, 0, 1, 0, 1, 0, 0, 2, 1, 1, 0, 1, 0, 1, 0, 0] 
 T12 => S34 [0, 0, 0, 1, 2, 1, 0, 1, 1, 1, 0, 0, 0, 1, 1, 1, 0, 1, 1, 1, 1, 1, 0, 0, 0, 0] 
 
 Reachable states from S38 [0, 0, 0, 1, 2, 1, 0, 1, 1, 0, 0, 0, 0, 2, 1, 0, 0, 2, 1, 1, 1, 1, 0, 1, 0, 1] 
 T8 => S31 [0, 0, 0, 1, 2, 1, 0, 1, 1, 1, 0, 0, 0, 1, 1, 0, 0, 2, 1, 1, 1, 1, 0, 1, 0, 0] 
 T14 => S39 [0, 0, 0, 1, 2, 1, 0, 1, 1, 0, 0, 0, 0, 2, 0, 1, 1, 2, 1, 1, 1, 1, 1, 0, 0, 1] 
 
 Reachable states from S39 [0, 0, 0, 1, 2, 1, 0, 1, 1, 0, 0, 0, 0, 2, 0, 1, 1, 2, 1, 1, 1, 1, 1, 0, 0, 1] 
 T15 => S9 [0, 0, 0, 1, 2, 1, 0, 1, 1, 0, 0, 0, 0, 2, 0, 0, 1, 3, 1, 1, 1, 1, 1, 1, 0, 1] 
 T8 => S32 [0, 0, 0, 1, 2, 1, 0, 1, 1, 1, 0, 0, 0, 1, 0, 1, 1, 2, 1, 1, 1, 1, 1, 0, 0, 0] 
 T13 => S40 [0, 0, 0, 1, 2, 1, 0, 1, 1, 0, 0, 0, 0, 2, 1, 1, 0, 1, 1, 1, 1, 1, 0, 0, 0, 1] 
 
 Reachable states from S40 [0, 0, 0, 1, 2, 1, 0, 1, 1, 0, 0, 0, 0, 2, 1, 1, 0, 1, 1, 1, 1, 1, 0, 0, 0, 1] 
 T8 => S34 [0, 0, 0, 1, 2, 1, 0, 1, 1, 1, 0, 0, 0, 1, 1, 1, 0, 1, 1, 1, 1, 1, 0, 0, 0, 0] 
 T15 => S38 [0, 0, 0, 1, 2, 1, 0, 1, 1, 0, 0, 0, 0, 2, 1, 0, 0, 2, 1, 1, 1, 1, 0, 1, 0, 1] 
 
 Reachable states from S41 [0, 0, 0, 1, 2, 1, 0, 1, 1, 0, 0, 0, 1, 1, 0, 1, 1, 2, 1, 1, 0, 1, 1, 0, 0, 1] 
 T15 => S23 [0, 0, 0, 1, 2, 1, 0, 1, 1, 0, 0, 0, 1, 1, 0, 0, 1, 3, 1, 1, 0, 1, 1, 1, 0, 1] 
 T8 => S35 [0, 0, 0, 1, 2, 1, 0, 1, 1, 1, 0, 0, 1, 0, 0, 1, 1, 2, 1, 1, 0, 1, 1, 0, 0, 0] 
 T12 => S39 [0, 0, 0, 1, 2, 1, 0, 1, 1, 0, 0, 0, 0, 2, 0, 1, 1, 2, 1, 1, 1, 1, 1, 0, 0, 1] 
 T13 => S42 [0, 0, 0, 1, 2, 1, 0, 1, 1, 0, 0, 0, 1, 1, 1, 1, 0, 1, 1, 1, 0, 1, 0, 0, 0, 1] 
 
 Reachable states from S42 [0, 0, 0, 1, 2, 1, 0, 1, 1, 0, 0, 0, 1, 1, 1, 1, 0, 1, 1, 1, 0, 1, 0, 0, 0, 1] 
 T15 => S29 [0, 0, 0, 1, 2, 1, 0, 1, 1, 0, 0, 0, 1, 1, 1, 0, 0, 2, 1, 1, 0, 1, 0, 1, 0, 1] 
 T8 => S37 [0, 0, 0, 1, 2, 1, 0, 1, 1, 1, 0, 0, 1, 0, 1, 1, 0, 1, 1, 1, 0, 1, 0, 0, 0, 0] 
 T12 => S40 [0, 0, 0, 1, 2, 1, 0, 1, 1, 0, 0, 0, 0, 2, 1, 1, 0, 1, 1, 1, 1, 1, 0, 0, 0, 1] 
 
 Reachable states from S43 [0, 0, 1, 1, 1, 0, 0, 1, 2, 2, 0, 0, 0, 0, 0, 0, 1, 3, 1, 1, 1, 1, 0, 0, 1, 0] 
 T4 => S44 [0, 0, 0, 1, 2, 0, 0, 1, 2, 2, 0, 0, 0, 0, 0, 0, 1, 3, 1, 1, 1, 1, 1, 1, 1, 0] 
 
 Reachable states from S44 [0, 0, 0, 1, 2, 0, 0, 1, 2, 2, 0, 0, 0, 0, 0, 0, 1, 3, 1, 1, 1, 1, 1, 1, 1, 0] 
 T9 => S45 [0, 0, 0, 1, 2, 0, 0, 1, 2, 1, 1, 0, 0, 0, 0, 0, 1, 3, 1, 1, 1, 1, 0, 1, 1, 0] 
 T13 => S69 [0, 0, 0, 1, 2, 0, 0, 1, 2, 2, 0, 0, 0, 0, 1, 0, 0, 2, 1, 1, 1, 1, 0, 1, 1, 0] 
 
 Reachable states from S45 [0, 0, 0, 1, 2, 0, 0, 1, 2, 1, 1, 0, 0, 0, 0, 0, 1, 3, 1, 1, 1, 1, 0, 1, 1, 0] 
 T10 => S46 [0, 0, 0, 1, 2, 0, 0, 1, 2, 1, 0, 1, 0, 0, 0, 0, 1, 3, 1, 1, 1, 1, 1, 0, 1, 0] 
 
 Reachable states from S46 [0, 0, 0, 1, 2, 0, 0, 1, 2, 1, 0, 1, 0, 0, 0, 0, 1, 3, 1, 1, 1, 1, 1, 0, 1, 0] 
 T9 => S47 [0, 0, 0, 1, 2, 0, 0, 1, 2, 0, 1, 1, 0, 0, 0, 0, 1, 3, 1, 1, 1, 1, 0, 0, 1, 0] 
 T11 => S56 [0, 0, 0, 1, 2, 0, 0, 1, 2, 1, 0, 0, 1, 0, 0, 0, 1, 3, 1, 1, 0, 1, 1, 1, 1, 1] 
 T13 => S120 [0, 0, 0, 1, 2, 0, 0, 1, 2, 1, 0, 1, 0, 0, 1, 0, 0, 2, 1, 1, 1, 1, 0, 0, 1, 0] 
 
 Reachable states from S47 [0, 0, 0, 1, 2, 0, 0, 1, 2, 0, 1, 1, 0, 0, 0, 0, 1, 3, 1, 1, 1, 1, 0, 0, 1, 0] 
 T11 => S48 [0, 0, 0, 1, 2, 0, 0, 1, 2, 0, 1, 0, 1, 0, 0, 0, 1, 3, 1, 1, 0, 1, 0, 1, 1, 1] 
 
 Reachable states from S48 [0, 0, 0, 1, 2, 0, 0, 1, 2, 0, 1, 0, 1, 0, 0, 0, 1, 3, 1, 1, 0, 1, 0, 1, 1, 1] 
 T5 => S25 [0, 0, 0, 1, 2, 1, 0, 1, 1, 0, 1, 0, 1, 0, 0, 0, 1, 3, 1, 1, 0, 1, 0, 1, 0, 0] 
 T10 => S49 [0, 0, 0, 1, 2, 0, 0, 1, 2, 0, 0, 1, 1, 0, 0, 0, 1, 3, 1, 1, 0, 1, 1, 0, 1, 1] 
 T12 => S75 [0, 0, 0, 1, 2, 0, 0, 1, 2, 0, 1, 0, 0, 1, 0, 0, 1, 3, 1, 1, 1, 1, 0, 1, 1, 1] 
 
 Reachable states from S49 [0, 0, 0, 1, 2, 0, 0, 1, 2, 0, 0, 1, 1, 0, 0, 0, 1, 3, 1, 1, 0, 1, 1, 0, 1, 1] 
 T5 => S26 [0, 0, 0, 1, 2, 1, 0, 1, 1, 0, 0, 1, 1, 0, 0, 0, 1, 3, 1, 1, 0, 1, 1, 0, 0, 0] 
 T12 => S50 [0, 0, 0, 1, 2, 0, 0, 1, 2, 0, 0, 1, 0, 1, 0, 0, 1, 3, 1, 1, 1, 1, 1, 0, 1, 1] 
 T13 => S121 [0, 0, 0, 1, 2, 0, 0, 1, 2, 0, 0, 1, 1, 0, 1, 0, 0, 2, 1, 1, 0, 1, 0, 0, 1, 1] 
 
 Reachable states from S50 [0, 0, 0, 1, 2, 0, 0, 1, 2, 0, 0, 1, 0, 1, 0, 0, 1, 3, 1, 1, 1, 1, 1, 0, 1, 1] 
 T5 => S22 [0, 0, 0, 1, 2, 1, 0, 1, 1, 0, 0, 1, 0, 1, 0, 0, 1, 3, 1, 1, 1, 1, 1, 0, 0, 0] 
 T8 => S46 [0, 0, 0, 1, 2, 0, 0, 1, 2, 1, 0, 1, 0, 0, 0, 0, 1, 3, 1, 1, 1, 1, 1, 0, 1, 0] 
 T1 => S51 [1, 0, 0, 1, 1, 0, 0, 1, 2, 0, 0, 1, 0, 1, 0, 0, 1, 3, 1, 1, 0, 1, 1, 0, 0, 0] 
 T11 => S55 [0, 0, 0, 1, 2, 0, 0, 1, 2, 0, 0, 0, 1, 1, 0, 0, 1, 3, 1, 1, 0, 1, 1, 1, 1, 2] 
 T13 => S119 [0, 0, 0, 1, 2, 0, 0, 1, 2, 0, 0, 1, 0, 1, 1, 0, 0, 2, 1, 1, 1, 1, 0, 0, 1, 1] 
 
 Reachable states from S51 [1, 0, 0, 1, 1, 0, 0, 1, 2, 0, 0, 1, 0, 1, 0, 0, 1, 3, 1, 1, 0, 1, 1, 0, 0, 0] 
 T2 => S52 [0, 1, 0, 0, 1, 0, 0, 1, 2, 0, 0, 1, 0, 1, 0, 0, 1, 3, 0, 0, 1, 0, 1, 0, 1, 0] 
 T13 => S118 [1, 0, 0, 1, 1, 0, 0, 1, 2, 0, 0, 1, 0, 1, 1, 0, 0, 2, 1, 1, 0, 1, 0, 0, 0, 0] 
 
 Reachable states from S52 [0, 1, 0, 0, 1, 0, 0, 1, 2, 0, 0, 1, 0, 1, 0, 0, 1, 3, 0, 0, 1, 0, 1, 0, 1, 0] 
 T11 => S53 [0, 1, 0, 0, 1, 0, 0, 1, 2, 0, 0, 0, 1, 1, 0, 0, 1, 3, 0, 0, 0, 0, 1, 1, 1, 1] 
 T13 => S110 [0, 1, 0, 0, 1, 0, 0, 1, 2, 0, 0, 1, 0, 1, 1, 0, 0, 2, 0, 0, 1, 0, 0, 0, 1, 0] 
 
 Reachable states from S53 [0, 1, 0, 0, 1, 0, 0, 1, 2, 0, 0, 0, 1, 1, 0, 0, 1, 3, 0, 0, 0, 0, 1, 1, 1, 1] 
 T12 => S2 [0, 1, 0, 0, 1, 0, 0, 1, 2, 0, 0, 0, 0, 2, 0, 0, 1, 3, 0, 0, 1, 0, 1, 1, 1, 1] 
 T3 => S54 [0, 0, 1, 1, 1, 0, 0, 1, 2, 0, 0, 0, 1, 1, 0, 0, 1, 3, 1, 1, 0, 1, 0, 0, 1, 2] 
 T5 => S102 [0, 1, 0, 0, 1, 1, 0, 1, 1, 0, 0, 0, 1, 1, 0, 0, 1, 3, 0, 0, 0, 0, 1, 1, 0, 0] 
 T8 => S106 [0, 1, 0, 0, 1, 0, 0, 1, 2, 1, 0, 0, 1, 0, 0, 0, 1, 3, 0, 0, 0, 0, 1, 1, 1, 0] 
 T13 => S111 [0, 1, 0, 0, 1, 0, 0, 1, 2, 0, 0, 0, 1, 1, 1, 0, 0, 2, 0, 0, 0, 0, 0, 1, 1, 1] 
 
 Reachable states from S54 [0, 0, 1, 1, 1, 0, 0, 1, 2, 0, 0, 0, 1, 1, 0, 0, 1, 3, 1, 1, 0, 1, 0, 0, 1, 2] 
 T4 => S55 [0, 0, 0, 1, 2, 0, 0, 1, 2, 0, 0, 0, 1, 1, 0, 0, 1, 3, 1, 1, 0, 1, 1, 1, 1, 2] 
 T5 => S98 [0, 0, 1, 1, 1, 1, 0, 1, 1, 0, 0, 0, 1, 1, 0, 0, 1, 3, 1, 1, 0, 1, 0, 0, 0, 1] 
 T8 => S100 [0, 0, 1, 1, 1, 0, 0, 1, 2, 1, 0, 0, 1, 0, 0, 0, 1, 3, 1, 1, 0, 1, 0, 0, 1, 1] 
 T12 => S101 [0, 0, 1, 1, 1, 0, 0, 1, 2, 0, 0, 0, 0, 2, 0, 0, 1, 3, 1, 1, 1, 1, 0, 0, 1, 2] 
 
 Reachable states from S55 [0, 0, 0, 1, 2, 0, 0, 1, 2, 0, 0, 0, 1, 1, 0, 0, 1, 3, 1, 1, 0, 1, 1, 1, 1, 2] 
 T12 => S0 [0, 0, 0, 1, 2, 0, 0, 1, 2, 0, 0, 0, 0, 2, 0, 0, 1, 3, 1, 1, 1, 1, 1, 1, 1, 2] 
 T5 => S23 [0, 0, 0, 1, 2, 1, 0, 1, 1, 0, 0, 0, 1, 1, 0, 0, 1, 3, 1, 1, 0, 1, 1, 1, 0, 1] 
 T8 => S56 [0, 0, 0, 1, 2, 0, 0, 1, 2, 1, 0, 0, 1, 0, 0, 0, 1, 3, 1, 1, 0, 1, 1, 1, 1, 1] 
 T13 => S80 [0, 0, 0, 1, 2, 0, 0, 1, 2, 0, 0, 0, 1, 1, 1, 0, 0, 2, 1, 1, 0, 1, 0, 1, 1, 2] 
 
 Reachable states from S56 [0, 0, 0, 1, 2, 0, 0, 1, 2, 1, 0, 0, 1, 0, 0, 0, 1, 3, 1, 1, 0, 1, 1, 1, 1, 1] 
 T12 => S13 [0, 0, 0, 1, 2, 0, 0, 1, 2, 1, 0, 0, 0, 1, 0, 0, 1, 3, 1, 1, 1, 1, 1, 1, 1, 1] 
 T5 => S24 [0, 0, 0, 1, 2, 1, 0, 1, 1, 1, 0, 0, 1, 0, 0, 0, 1, 3, 1, 1, 0, 1, 1, 1, 0, 0] 
 T9 => S48 [0, 0, 0, 1, 2, 0, 0, 1, 2, 0, 1, 0, 1, 0, 0, 0, 1, 3, 1, 1, 0, 1, 0, 1, 1, 1] 
 T13 => S57 [0, 0, 0, 1, 2, 0, 0, 1, 2, 1, 0, 0, 1, 0, 1, 0, 0, 2, 1, 1, 0, 1, 0, 1, 1, 1] 
 
 Reachable states from S57 [0, 0, 0, 1, 2, 0, 0, 1, 2, 1, 0, 0, 1, 0, 1, 0, 0, 2, 1, 1, 0, 1, 0, 1, 1, 1] 
 T5 => S30 [0, 0, 0, 1, 2, 1, 0, 1, 1, 1, 0, 0, 1, 0, 1, 0, 0, 2, 1, 1, 0, 1, 0, 1, 0, 0] 
 T12 => S58 [0, 0, 0, 1, 2, 0, 0, 1, 2, 1, 0, 0, 0, 1, 1, 0, 0, 2, 1, 1, 1, 1, 0, 1, 1, 1] 
 T14 => S77 [0, 0, 0, 1, 2, 0, 0, 1, 2, 1, 0, 0, 1, 0, 0, 1, 1, 2, 1, 1, 0, 1, 1, 0, 1, 1] 
 
 Reachable states from S58 [0, 0, 0, 1, 2, 0, 0, 1, 2, 1, 0, 0, 0, 1, 1, 0, 0, 2, 1, 1, 1, 1, 0, 1, 1, 1] 
 T5 => S31 [0, 0, 0, 1, 2, 1, 0, 1, 1, 1, 0, 0, 0, 1, 1, 0, 0, 2, 1, 1, 1, 1, 0, 1, 0, 0] 
 T1 => S59 [1, 0, 0, 1, 1, 0, 0, 1, 2, 1, 0, 0, 0, 1, 1, 0, 0, 2, 1, 1, 0, 1, 0, 1, 0, 0] 
 T8 => S69 [0, 0, 0, 1, 2, 0, 0, 1, 2, 2, 0, 0, 0, 0, 1, 0, 0, 2, 1, 1, 1, 1, 0, 1, 1, 0] 
 T14 => S73 [0, 0, 0, 1, 2, 0, 0, 1, 2, 1, 0, 0, 0, 1, 0, 1, 1, 2, 1, 1, 1, 1, 1, 0, 1, 1] 
 
 Reachable states from S59 [1, 0, 0, 1, 1, 0, 0, 1, 2, 1, 0, 0, 0, 1, 1, 0, 0, 2, 1, 1, 0, 1, 0, 1, 0, 0] 
 T2 => S60 [0, 1, 0, 0, 1, 0, 0, 1, 2, 1, 0, 0, 0, 1, 1, 0, 0, 2, 0, 0, 1, 0, 0, 1, 1, 0] 
 T14 => S65 [1, 0, 0, 1, 1, 0, 0, 1, 2, 1, 0, 0, 0, 1, 0, 1, 1, 2, 1, 1, 0, 1, 1, 0, 0, 0] 
 
 Reachable states from S60 [0, 1, 0, 0, 1, 0, 0, 1, 2, 1, 0, 0, 0, 1, 1, 0, 0, 2, 0, 0, 1, 0, 0, 1, 1, 0] 
 T14 => S61 [0, 1, 0, 0, 1, 0, 0, 1, 2, 1, 0, 0, 0, 1, 0, 1, 1, 2, 0, 0, 1, 0, 1, 0, 1, 0] 
 
 Reachable states from S61 [0, 1, 0, 0, 1, 0, 0, 1, 2, 1, 0, 0, 0, 1, 0, 1, 1, 2, 0, 0, 1, 0, 1, 0, 1, 0] 
 T15 => S15 [0, 1, 0, 0, 1, 0, 0, 1, 2, 1, 0, 0, 0, 1, 0, 0, 1, 3, 0, 0, 1, 0, 1, 1, 1, 0] 
 T9 => S62 [0, 1, 0, 0, 1, 0, 0, 1, 2, 0, 1, 0, 0, 1, 0, 1, 1, 2, 0, 0, 1, 0, 0, 0, 1, 0] 
 T13 => S64 [0, 1, 0, 0, 1, 0, 0, 1, 2, 1, 0, 0, 0, 1, 1, 1, 0, 1, 0, 0, 1, 0, 0, 0, 1, 0] 
 
 Reachable states from S62 [0, 1, 0, 0, 1, 0, 0, 1, 2, 0, 1, 0, 0, 1, 0, 1, 1, 2, 0, 0, 1, 0, 0, 0, 1, 0] 
 T15 => S63 [0, 1, 0, 0, 1, 0, 0, 1, 2, 0, 1, 0, 0, 1, 0, 0, 1, 3, 0, 0, 1, 0, 0, 1, 1, 0] 
 
 Reachable states from S63 [0, 1, 0, 0, 1, 0, 0, 1, 2, 0, 1, 0, 0, 1, 0, 0, 1, 3, 0, 0, 1, 0, 0, 1, 1, 0] 
 T10 => S52 [0, 1, 0, 0, 1, 0, 0, 1, 2, 0, 0, 1, 0, 1, 0, 0, 1, 3, 0, 0, 1, 0, 1, 0, 1, 0] 
 
 Reachable states from S64 [0, 1, 0, 0, 1, 0, 0, 1, 2, 1, 0, 0, 0, 1, 1, 1, 0, 1, 0, 0, 1, 0, 0, 0, 1, 0] 
 T15 => S60 [0, 1, 0, 0, 1, 0, 0, 1, 2, 1, 0, 0, 0, 1, 1, 0, 0, 2, 0, 0, 1, 0, 0, 1, 1, 0] 
 
 Reachable states from S65 [1, 0, 0, 1, 1, 0, 0, 1, 2, 1, 0, 0, 0, 1, 0, 1, 1, 2, 1, 1, 0, 1, 1, 0, 0, 0] 
 T15 => S14 [1, 0, 0, 1, 1, 0, 0, 1, 2, 1, 0, 0, 0, 1, 0, 0, 1, 3, 1, 1, 0, 1, 1, 1, 0, 0] 
 T2 => S61 [0, 1, 0, 0, 1, 0, 0, 1, 2, 1, 0, 0, 0, 1, 0, 1, 1, 2, 0, 0, 1, 0, 1, 0, 1, 0] 
 T9 => S66 [1, 0, 0, 1, 1, 0, 0, 1, 2, 0, 1, 0, 0, 1, 0, 1, 1, 2, 1, 1, 0, 1, 0, 0, 0, 0] 
 T13 => S68 [1, 0, 0, 1, 1, 0, 0, 1, 2, 1, 0, 0, 0, 1, 1, 1, 0, 1, 1, 1, 0, 1, 0, 0, 0, 0] 
 
 Reachable states from S66 [1, 0, 0, 1, 1, 0, 0, 1, 2, 0, 1, 0, 0, 1, 0, 1, 1, 2, 1, 1, 0, 1, 0, 0, 0, 0] 
 T2 => S62 [0, 1, 0, 0, 1, 0, 0, 1, 2, 0, 1, 0, 0, 1, 0, 1, 1, 2, 0, 0, 1, 0, 0, 0, 1, 0] 
 T15 => S67 [1, 0, 0, 1, 1, 0, 0, 1, 2, 0, 1, 0, 0, 1, 0, 0, 1, 3, 1, 1, 0, 1, 0, 1, 0, 0] 
 
 Reachable states from S67 [1, 0, 0, 1, 1, 0, 0, 1, 2, 0, 1, 0, 0, 1, 0, 0, 1, 3, 1, 1, 0, 1, 0, 1, 0, 0] 
 T10 => S51 [1, 0, 0, 1, 1, 0, 0, 1, 2, 0, 0, 1, 0, 1, 0, 0, 1, 3, 1, 1, 0, 1, 1, 0, 0, 0] 
 T2 => S63 [0, 1, 0, 0, 1, 0, 0, 1, 2, 0, 1, 0, 0, 1, 0, 0, 1, 3, 0, 0, 1, 0, 0, 1, 1, 0] 
 
 Reachable states from S68 [1, 0, 0, 1, 1, 0, 0, 1, 2, 1, 0, 0, 0, 1, 1, 1, 0, 1, 1, 1, 0, 1, 0, 0, 0, 0] 
 T15 => S59 [1, 0, 0, 1, 1, 0, 0, 1, 2, 1, 0, 0, 0, 1, 1, 0, 0, 2, 1, 1, 0, 1, 0, 1, 0, 0] 
 T2 => S64 [0, 1, 0, 0, 1, 0, 0, 1, 2, 1, 0, 0, 0, 1, 1, 1, 0, 1, 0, 0, 1, 0, 0, 0, 1, 0] 
 
 Reachable states from S69 [0, 0, 0, 1, 2, 0, 0, 1, 2, 2, 0, 0, 0, 0, 1, 0, 0, 2, 1, 1, 1, 1, 0, 1, 1, 0] 
 T14 => S70 [0, 0, 0, 1, 2, 0, 0, 1, 2, 2, 0, 0, 0, 0, 0, 1, 1, 2, 1, 1, 1, 1, 1, 0, 1, 0] 
 
 Reachable states from S70 [0, 0, 0, 1, 2, 0, 0, 1, 2, 2, 0, 0, 0, 0, 0, 1, 1, 2, 1, 1, 1, 1, 1, 0, 1, 0] 
 T15 => S44 [0, 0, 0, 1, 2, 0, 0, 1, 2, 2, 0, 0, 0, 0, 0, 0, 1, 3, 1, 1, 1, 1, 1, 1, 1, 0] 
 T9 => S71 [0, 0, 0, 1, 2, 0, 0, 1, 2, 1, 1, 0, 0, 0, 0, 1, 1, 2, 1, 1, 1, 1, 0, 0, 1, 0] 
 T13 => S72 [0, 0, 0, 1, 2, 0, 0, 1, 2, 2, 0, 0, 0, 0, 1, 1, 0, 1, 1, 1, 1, 1, 0, 0, 1, 0] 
 
 Reachable states from S71 [0, 0, 0, 1, 2, 0, 0, 1, 2, 1, 1, 0, 0, 0, 0, 1, 1, 2, 1, 1, 1, 1, 0, 0, 1, 0] 
 T15 => S45 [0, 0, 0, 1, 2, 0, 0, 1, 2, 1, 1, 0, 0, 0, 0, 0, 1, 3, 1, 1, 1, 1, 0, 1, 1, 0] 
 
 Reachable states from S72 [0, 0, 0, 1, 2, 0, 0, 1, 2, 2, 0, 0, 0, 0, 1, 1, 0, 1, 1, 1, 1, 1, 0, 0, 1, 0] 
 T15 => S69 [0, 0, 0, 1, 2, 0, 0, 1, 2, 2, 0, 0, 0, 0, 1, 0, 0, 2, 1, 1, 1, 1, 0, 1, 1, 0] 
 
 Reachable states from S73 [0, 0, 0, 1, 2, 0, 0, 1, 2, 1, 0, 0, 0, 1, 0, 1, 1, 2, 1, 1, 1, 1, 1, 0, 1, 1] 
 T15 => S13 [0, 0, 0, 1, 2, 0, 0, 1, 2, 1, 0, 0, 0, 1, 0, 0, 1, 3, 1, 1, 1, 1, 1, 1, 1, 1] 
 T5 => S32 [0, 0, 0, 1, 2, 1, 0, 1, 1, 1, 0, 0, 0, 1, 0, 1, 1, 2, 1, 1, 1, 1, 1, 0, 0, 0] 
 T1 => S65 [1, 0, 0, 1, 1, 0, 0, 1, 2, 1, 0, 0, 0, 1, 0, 1, 1, 2, 1, 1, 0, 1, 1, 0, 0, 0] 
 T8 => S70 [0, 0, 0, 1, 2, 0, 0, 1, 2, 2, 0, 0, 0, 0, 0, 1, 1, 2, 1, 1, 1, 1, 1, 0, 1, 0] 
 T9 => S74 [0, 0, 0, 1, 2, 0, 0, 1, 2, 0, 1, 0, 0, 1, 0, 1, 1, 2, 1, 1, 1, 1, 0, 0, 1, 1] 
 T13 => S76 [0, 0, 0, 1, 2, 0, 0, 1, 2, 1, 0, 0, 0, 1, 1, 1, 0, 1, 1, 1, 1, 1, 0, 0, 1, 1] 
 
 Reachable states from S74 [0, 0, 0, 1, 2, 0, 0, 1, 2, 0, 1, 0, 0, 1, 0, 1, 1, 2, 1, 1, 1, 1, 0, 0, 1, 1] 
 T5 => S33 [0, 0, 0, 1, 2, 1, 0, 1, 1, 0, 1, 0, 0, 1, 0, 1, 1, 2, 1, 1, 1, 1, 0, 0, 0, 0] 
 T1 => S66 [1, 0, 0, 1, 1, 0, 0, 1, 2, 0, 1, 0, 0, 1, 0, 1, 1, 2, 1, 1, 0, 1, 0, 0, 0, 0] 
 T8 => S71 [0, 0, 0, 1, 2, 0, 0, 1, 2, 1, 1, 0, 0, 0, 0, 1, 1, 2, 1, 1, 1, 1, 0, 0, 1, 0] 
 T15 => S75 [0, 0, 0, 1, 2, 0, 0, 1, 2, 0, 1, 0, 0, 1, 0, 0, 1, 3, 1, 1, 1, 1, 0, 1, 1, 1] 
 
 Reachable states from S75 [0, 0, 0, 1, 2, 0, 0, 1, 2, 0, 1, 0, 0, 1, 0, 0, 1, 3, 1, 1, 1, 1, 0, 1, 1, 1] 
 T5 => S21 [0, 0, 0, 1, 2, 1, 0, 1, 1, 0, 1, 0, 0, 1, 0, 0, 1, 3, 1, 1, 1, 1, 0, 1, 0, 0] 
 T8 => S45 [0, 0, 0, 1, 2, 0, 0, 1, 2, 1, 1, 0, 0, 0, 0, 0, 1, 3, 1, 1, 1, 1, 0, 1, 1, 0] 
 T10 => S50 [0, 0, 0, 1, 2, 0, 0, 1, 2, 0, 0, 1, 0, 1, 0, 0, 1, 3, 1, 1, 1, 1, 1, 0, 1, 1] 
 T1 => S67 [1, 0, 0, 1, 1, 0, 0, 1, 2, 0, 1, 0, 0, 1, 0, 0, 1, 3, 1, 1, 0, 1, 0, 1, 0, 0] 
 
 Reachable states from S76 [0, 0, 0, 1, 2, 0, 0, 1, 2, 1, 0, 0, 0, 1, 1, 1, 0, 1, 1, 1, 1, 1, 0, 0, 1, 1] 
 T5 => S34 [0, 0, 0, 1, 2, 1, 0, 1, 1, 1, 0, 0, 0, 1, 1, 1, 0, 1, 1, 1, 1, 1, 0, 0, 0, 0] 
 T15 => S58 [0, 0, 0, 1, 2, 0, 0, 1, 2, 1, 0, 0, 0, 1, 1, 0, 0, 2, 1, 1, 1, 1, 0, 1, 1, 1] 
 T1 => S68 [1, 0, 0, 1, 1, 0, 0, 1, 2, 1, 0, 0, 0, 1, 1, 1, 0, 1, 1, 1, 0, 1, 0, 0, 0, 0] 
 T8 => S72 [0, 0, 0, 1, 2, 0, 0, 1, 2, 2, 0, 0, 0, 0, 1, 1, 0, 1, 1, 1, 1, 1, 0, 0, 1, 0] 
 
 Reachable states from S77 [0, 0, 0, 1, 2, 0, 0, 1, 2, 1, 0, 0, 1, 0, 0, 1, 1, 2, 1, 1, 0, 1, 1, 0, 1, 1] 
 T5 => S35 [0, 0, 0, 1, 2, 1, 0, 1, 1, 1, 0, 0, 1, 0, 0, 1, 1, 2, 1, 1, 0, 1, 1, 0, 0, 0] 
 T15 => S56 [0, 0, 0, 1, 2, 0, 0, 1, 2, 1, 0, 0, 1, 0, 0, 0, 1, 3, 1, 1, 0, 1, 1, 1, 1, 1] 
 T12 => S73 [0, 0, 0, 1, 2, 0, 0, 1, 2, 1, 0, 0, 0, 1, 0, 1, 1, 2, 1, 1, 1, 1, 1, 0, 1, 1] 
 T9 => S78 [0, 0, 0, 1, 2, 0, 0, 1, 2, 0, 1, 0, 1, 0, 0, 1, 1, 2, 1, 1, 0, 1, 0, 0, 1, 1] 
 T13 => S79 [0, 0, 0, 1, 2, 0, 0, 1, 2, 1, 0, 0, 1, 0, 1, 1, 0, 1, 1, 1, 0, 1, 0, 0, 1, 1] 
 
 Reachable states from S78 [0, 0, 0, 1, 2, 0, 0, 1, 2, 0, 1, 0, 1, 0, 0, 1, 1, 2, 1, 1, 0, 1, 0, 0, 1, 1] 
 T5 => S36 [0, 0, 0, 1, 2, 1, 0, 1, 1, 0, 1, 0, 1, 0, 0, 1, 1, 2, 1, 1, 0, 1, 0, 0, 0, 0] 
 T15 => S48 [0, 0, 0, 1, 2, 0, 0, 1, 2, 0, 1, 0, 1, 0, 0, 0, 1, 3, 1, 1, 0, 1, 0, 1, 1, 1] 
 T12 => S74 [0, 0, 0, 1, 2, 0, 0, 1, 2, 0, 1, 0, 0, 1, 0, 1, 1, 2, 1, 1, 1, 1, 0, 0, 1, 1] 
 
 Reachable states from S79 [0, 0, 0, 1, 2, 0, 0, 1, 2, 1, 0, 0, 1, 0, 1, 1, 0, 1, 1, 1, 0, 1, 0, 0, 1, 1] 
 T5 => S37 [0, 0, 0, 1, 2, 1, 0, 1, 1, 1, 0, 0, 1, 0, 1, 1, 0, 1, 1, 1, 0, 1, 0, 0, 0, 0] 
 T15 => S57 [0, 0, 0, 1, 2, 0, 0, 1, 2, 1, 0, 0, 1, 0, 1, 0, 0, 2, 1, 1, 0, 1, 0, 1, 1, 1] 
 T12 => S76 [0, 0, 0, 1, 2, 0, 0, 1, 2, 1, 0, 0, 0, 1, 1, 1, 0, 1, 1, 1, 1, 1, 0, 0, 1, 1] 
 
 Reachable states from S80 [0, 0, 0, 1, 2, 0, 0, 1, 2, 0, 0, 0, 1, 1, 1, 0, 0, 2, 1, 1, 0, 1, 0, 1, 1, 2] 
 T5 => S29 [0, 0, 0, 1, 2, 1, 0, 1, 1, 0, 0, 0, 1, 1, 1, 0, 0, 2, 1, 1, 0, 1, 0, 1, 0, 1] 
 T8 => S57 [0, 0, 0, 1, 2, 0, 0, 1, 2, 1, 0, 0, 1, 0, 1, 0, 0, 2, 1, 1, 0, 1, 0, 1, 1, 1] 
 T12 => S81 [0, 0, 0, 1, 2, 0, 0, 1, 2, 0, 0, 0, 0, 2, 1, 0, 0, 2, 1, 1, 1, 1, 0, 1, 1, 2] 
 T14 => S96 [0, 0, 0, 1, 2, 0, 0, 1, 2, 0, 0, 0, 1, 1, 0, 1, 1, 2, 1, 1, 0, 1, 1, 0, 1, 2] 
 
 Reachable states from S81 [0, 0, 0, 1, 2, 0, 0, 1, 2, 0, 0, 0, 0, 2, 1, 0, 0, 2, 1, 1, 1, 1, 0, 1, 1, 2] 
 T5 => S38 [0, 0, 0, 1, 2, 1, 0, 1, 1, 0, 0, 0, 0, 2, 1, 0, 0, 2, 1, 1, 1, 1, 0, 1, 0, 1] 
 T8 => S58 [0, 0, 0, 1, 2, 0, 0, 1, 2, 1, 0, 0, 0, 1, 1, 0, 0, 2, 1, 1, 1, 1, 0, 1, 1, 1] 
 T1 => S82 [1, 0, 0, 1, 1, 0, 0, 1, 2, 0, 0, 0, 0, 2, 1, 0, 0, 2, 1, 1, 0, 1, 0, 1, 0, 1] 
 T14 => S94 [0, 0, 0, 1, 2, 0, 0, 1, 2, 0, 0, 0, 0, 2, 0, 1, 1, 2, 1, 1, 1, 1, 1, 0, 1, 2] 
 
 Reachable states from S82 [1, 0, 0, 1, 1, 0, 0, 1, 2, 0, 0, 0, 0, 2, 1, 0, 0, 2, 1, 1, 0, 1, 0, 1, 0, 1] 
 T8 => S59 [1, 0, 0, 1, 1, 0, 0, 1, 2, 1, 0, 0, 0, 1, 1, 0, 0, 2, 1, 1, 0, 1, 0, 1, 0, 0] 
 T2 => S83 [0, 1, 0, 0, 1, 0, 0, 1, 2, 0, 0, 0, 0, 2, 1, 0, 0, 2, 0, 0, 1, 0, 0, 1, 1, 1] 
 T14 => S92 [1, 0, 0, 1, 1, 0, 0, 1, 2, 0, 0, 0, 0, 2, 0, 1, 1, 2, 1, 1, 0, 1, 1, 0, 0, 1] 
 
 Reachable states from S83 [0, 1, 0, 0, 1, 0, 0, 1, 2, 0, 0, 0, 0, 2, 1, 0, 0, 2, 0, 0, 1, 0, 0, 1, 1, 1] 
 T8 => S60 [0, 1, 0, 0, 1, 0, 0, 1, 2, 1, 0, 0, 0, 1, 1, 0, 0, 2, 0, 0, 1, 0, 0, 1, 1, 0] 
 T1 => S84 [1, 1, 0, 0, 0, 0, 0, 1, 2, 0, 0, 0, 0, 2, 1, 0, 0, 2, 0, 0, 0, 0, 0, 1, 0, 0] 
 T5 => S87 [0, 1, 0, 0, 1, 1, 0, 1, 1, 0, 0, 0, 0, 2, 1, 0, 0, 2, 0, 0, 1, 0, 0, 1, 0, 0] 
 T14 => S90 [0, 1, 0, 0, 1, 0, 0, 1, 2, 0, 0, 0, 0, 2, 0, 1, 1, 2, 0, 0, 1, 0, 1, 0, 1, 1] 
 
 Reachable states from S84 [1, 1, 0, 0, 0, 0, 0, 1, 2, 0, 0, 0, 0, 2, 1, 0, 0, 2, 0, 0, 0, 0, 0, 1, 0, 0] 
 T14 => S85 [1, 1, 0, 0, 0, 0, 0, 1, 2, 0, 0, 0, 0, 2, 0, 1, 1, 2, 0, 0, 0, 0, 1, 0, 0, 0] 
 
 Reachable states from S85 [1, 1, 0, 0, 0, 0, 0, 1, 2, 0, 0, 0, 0, 2, 0, 1, 1, 2, 0, 0, 0, 0, 1, 0, 0, 0] 
 T15 => S3 [1, 1, 0, 0, 0, 0, 0, 1, 2, 0, 0, 0, 0, 2, 0, 0, 1, 3, 0, 0, 0, 0, 1, 1, 0, 0] 
 T13 => S86 [1, 1, 0, 0, 0, 0, 0, 1, 2, 0, 0, 0, 0, 2, 1, 1, 0, 1, 0, 0, 0, 0, 0, 0, 0, 0] 
 
 Reachable states from S86 [1, 1, 0, 0, 0, 0, 0, 1, 2, 0, 0, 0, 0, 2, 1, 1, 0, 1, 0, 0, 0, 0, 0, 0, 0, 0] 
 T15 => S84 [1, 1, 0, 0, 0, 0, 0, 1, 2, 0, 0, 0, 0, 2, 1, 0, 0, 2, 0, 0, 0, 0, 0, 1, 0, 0] 
 
 Reachable states from S87 [0, 1, 0, 0, 1, 1, 0, 1, 1, 0, 0, 0, 0, 2, 1, 0, 0, 2, 0, 0, 1, 0, 0, 1, 0, 0] 
 T14 => S88 [0, 1, 0, 0, 1, 1, 0, 1, 1, 0, 0, 0, 0, 2, 0, 1, 1, 2, 0, 0, 1, 0, 1, 0, 0, 0] 
 
 Reachable states from S88 [0, 1, 0, 0, 1, 1, 0, 1, 1, 0, 0, 0, 0, 2, 0, 1, 1, 2, 0, 0, 1, 0, 1, 0, 0, 0] 
 T15 => S7 [0, 1, 0, 0, 1, 1, 0, 1, 1, 0, 0, 0, 0, 2, 0, 0, 1, 3, 0, 0, 1, 0, 1, 1, 0, 0] 
 T13 => S89 [0, 1, 0, 0, 1, 1, 0, 1, 1, 0, 0, 0, 0, 2, 1, 1, 0, 1, 0, 0, 1, 0, 0, 0, 0, 0] 
 
 Reachable states from S89 [0, 1, 0, 0, 1, 1, 0, 1, 1, 0, 0, 0, 0, 2, 1, 1, 0, 1, 0, 0, 1, 0, 0, 0, 0, 0] 
 T15 => S87 [0, 1, 0, 0, 1, 1, 0, 1, 1, 0, 0, 0, 0, 2, 1, 0, 0, 2, 0, 0, 1, 0, 0, 1, 0, 0] 
 
 Reachable states from S90 [0, 1, 0, 0, 1, 0, 0, 1, 2, 0, 0, 0, 0, 2, 0, 1, 1, 2, 0, 0, 1, 0, 1, 0, 1, 1] 
 T15 => S2 [0, 1, 0, 0, 1, 0, 0, 1, 2, 0, 0, 0, 0, 2, 0, 0, 1, 3, 0, 0, 1, 0, 1, 1, 1, 1] 
 T8 => S61 [0, 1, 0, 0, 1, 0, 0, 1, 2, 1, 0, 0, 0, 1, 0, 1, 1, 2, 0, 0, 1, 0, 1, 0, 1, 0] 
 T1 => S85 [1, 1, 0, 0, 0, 0, 0, 1, 2, 0, 0, 0, 0, 2, 0, 1, 1, 2, 0, 0, 0, 0, 1, 0, 0, 0] 
 T5 => S88 [0, 1, 0, 0, 1, 1, 0, 1, 1, 0, 0, 0, 0, 2, 0, 1, 1, 2, 0, 0, 1, 0, 1, 0, 0, 0] 
 T13 => S91 [0, 1, 0, 0, 1, 0, 0, 1, 2, 0, 0, 0, 0, 2, 1, 1, 0, 1, 0, 0, 1, 0, 0, 0, 1, 1] 
 
 Reachable states from S91 [0, 1, 0, 0, 1, 0, 0, 1, 2, 0, 0, 0, 0, 2, 1, 1, 0, 1, 0, 0, 1, 0, 0, 0, 1, 1] 
 T8 => S64 [0, 1, 0, 0, 1, 0, 0, 1, 2, 1, 0, 0, 0, 1, 1, 1, 0, 1, 0, 0, 1, 0, 0, 0, 1, 0] 
 T15 => S83 [0, 1, 0, 0, 1, 0, 0, 1, 2, 0, 0, 0, 0, 2, 1, 0, 0, 2, 0, 0, 1, 0, 0, 1, 1, 1] 
 T1 => S86 [1, 1, 0, 0, 0, 0, 0, 1, 2, 0, 0, 0, 0, 2, 1, 1, 0, 1, 0, 0, 0, 0, 0, 0, 0, 0] 
 T5 => S89 [0, 1, 0, 0, 1, 1, 0, 1, 1, 0, 0, 0, 0, 2, 1, 1, 0, 1, 0, 0, 1, 0, 0, 0, 0, 0] 
 
 Reachable states from S92 [1, 0, 0, 1, 1, 0, 0, 1, 2, 0, 0, 0, 0, 2, 0, 1, 1, 2, 1, 1, 0, 1, 1, 0, 0, 1] 
 T15 => S1 [1, 0, 0, 1, 1, 0, 0, 1, 2, 0, 0, 0, 0, 2, 0, 0, 1, 3, 1, 1, 0, 1, 1, 1, 0, 1] 
 T8 => S65 [1, 0, 0, 1, 1, 0, 0, 1, 2, 1, 0, 0, 0, 1, 0, 1, 1, 2, 1, 1, 0, 1, 1, 0, 0, 0] 
 T2 => S90 [0, 1, 0, 0, 1, 0, 0, 1, 2, 0, 0, 0, 0, 2, 0, 1, 1, 2, 0, 0, 1, 0, 1, 0, 1, 1] 
 T13 => S93 [1, 0, 0, 1, 1, 0, 0, 1, 2, 0, 0, 0, 0, 2, 1, 1, 0, 1, 1, 1, 0, 1, 0, 0, 0, 1] 
 
 Reachable states from S93 [1, 0, 0, 1, 1, 0, 0, 1, 2, 0, 0, 0, 0, 2, 1, 1, 0, 1, 1, 1, 0, 1, 0, 0, 0, 1] 
 T8 => S68 [1, 0, 0, 1, 1, 0, 0, 1, 2, 1, 0, 0, 0, 1, 1, 1, 0, 1, 1, 1, 0, 1, 0, 0, 0, 0] 
 T15 => S82 [1, 0, 0, 1, 1, 0, 0, 1, 2, 0, 0, 0, 0, 2, 1, 0, 0, 2, 1, 1, 0, 1, 0, 1, 0, 1] 
 T2 => S91 [0, 1, 0, 0, 1, 0, 0, 1, 2, 0, 0, 0, 0, 2, 1, 1, 0, 1, 0, 0, 1, 0, 0, 0, 1, 1] 
 
 Reachable states from S94 [0, 0, 0, 1, 2, 0, 0, 1, 2, 0, 0, 0, 0, 2, 0, 1, 1, 2, 1, 1, 1, 1, 1, 0, 1, 2] 
 T15 => S0 [0, 0, 0, 1, 2, 0, 0, 1, 2, 0, 0, 0, 0, 2, 0, 0, 1, 3, 1, 1, 1, 1, 1, 1, 1, 2] 
 T5 => S39 [0, 0, 0, 1, 2, 1, 0, 1, 1, 0, 0, 0, 0, 2, 0, 1, 1, 2, 1, 1, 1, 1, 1, 0, 0, 1] 
 T8 => S73 [0, 0, 0, 1, 2, 0, 0, 1, 2, 1, 0, 0, 0, 1, 0, 1, 1, 2, 1, 1, 1, 1, 1, 0, 1, 1] 
 T1 => S92 [1, 0, 0, 1, 1, 0, 0, 1, 2, 0, 0, 0, 0, 2, 0, 1, 1, 2, 1, 1, 0, 1, 1, 0, 0, 1] 
 T13 => S95 [0, 0, 0, 1, 2, 0, 0, 1, 2, 0, 0, 0, 0, 2, 1, 1, 0, 1, 1, 1, 1, 1, 0, 0, 1, 2] 
 
 Reachable states from S95 [0, 0, 0, 1, 2, 0, 0, 1, 2, 0, 0, 0, 0, 2, 1, 1, 0, 1, 1, 1, 1, 1, 0, 0, 1, 2] 
 T5 => S40 [0, 0, 0, 1, 2, 1, 0, 1, 1, 0, 0, 0, 0, 2, 1, 1, 0, 1, 1, 1, 1, 1, 0, 0, 0, 1] 
 T8 => S76 [0, 0, 0, 1, 2, 0, 0, 1, 2, 1, 0, 0, 0, 1, 1, 1, 0, 1, 1, 1, 1, 1, 0, 0, 1, 1] 
 T15 => S81 [0, 0, 0, 1, 2, 0, 0, 1, 2, 0, 0, 0, 0, 2, 1, 0, 0, 2, 1, 1, 1, 1, 0, 1, 1, 2] 
 T1 => S93 [1, 0, 0, 1, 1, 0, 0, 1, 2, 0, 0, 0, 0, 2, 1, 1, 0, 1, 1, 1, 0, 1, 0, 0, 0, 1] 
 
 Reachable states from S96 [0, 0, 0, 1, 2, 0, 0, 1, 2, 0, 0, 0, 1, 1, 0, 1, 1, 2, 1, 1, 0, 1, 1, 0, 1, 2] 
 T5 => S41 [0, 0, 0, 1, 2, 1, 0, 1, 1, 0, 0, 0, 1, 1, 0, 1, 1, 2, 1, 1, 0, 1, 1, 0, 0, 1] 
 T15 => S55 [0, 0, 0, 1, 2, 0, 0, 1, 2, 0, 0, 0, 1, 1, 0, 0, 1, 3, 1, 1, 0, 1, 1, 1, 1, 2] 
 T8 => S77 [0, 0, 0, 1, 2, 0, 0, 1, 2, 1, 0, 0, 1, 0, 0, 1, 1, 2, 1, 1, 0, 1, 1, 0, 1, 1] 
 T12 => S94 [0, 0, 0, 1, 2, 0, 0, 1, 2, 0, 0, 0, 0, 2, 0, 1, 1, 2, 1, 1, 1, 1, 1, 0, 1, 2] 
 T13 => S97 [0, 0, 0, 1, 2, 0, 0, 1, 2, 0, 0, 0, 1, 1, 1, 1, 0, 1, 1, 1, 0, 1, 0, 0, 1, 2] 
 
 Reachable states from S97 [0, 0, 0, 1, 2, 0, 0, 1, 2, 0, 0, 0, 1, 1, 1, 1, 0, 1, 1, 1, 0, 1, 0, 0, 1, 2] 
 T5 => S42 [0, 0, 0, 1, 2, 1, 0, 1, 1, 0, 0, 0, 1, 1, 1, 1, 0, 1, 1, 1, 0, 1, 0, 0, 0, 1] 
 T8 => S79 [0, 0, 0, 1, 2, 0, 0, 1, 2, 1, 0, 0, 1, 0, 1, 1, 0, 1, 1, 1, 0, 1, 0, 0, 1, 1] 
 T15 => S80 [0, 0, 0, 1, 2, 0, 0, 1, 2, 0, 0, 0, 1, 1, 1, 0, 0, 2, 1, 1, 0, 1, 0, 1, 1, 2] 
 T12 => S95 [0, 0, 0, 1, 2, 0, 0, 1, 2, 0, 0, 0, 0, 2, 1, 1, 0, 1, 1, 1, 1, 1, 0, 0, 1, 2] 
 
 Reachable states from S98 [0, 0, 1, 1, 1, 1, 0, 1, 1, 0, 0, 0, 1, 1, 0, 0, 1, 3, 1, 1, 0, 1, 0, 0, 0, 1] 
 T12 => S8 [0, 0, 1, 1, 1, 1, 0, 1, 1, 0, 0, 0, 0, 2, 0, 0, 1, 3, 1, 1, 1, 1, 0, 0, 0, 1] 
 T4 => S23 [0, 0, 0, 1, 2, 1, 0, 1, 1, 0, 0, 0, 1, 1, 0, 0, 1, 3, 1, 1, 0, 1, 1, 1, 0, 1] 
 T8 => S99 [0, 0, 1, 1, 1, 1, 0, 1, 1, 1, 0, 0, 1, 0, 0, 0, 1, 3, 1, 1, 0, 1, 0, 0, 0, 0] 
 
 Reachable states from S99 [0, 0, 1, 1, 1, 1, 0, 1, 1, 1, 0, 0, 1, 0, 0, 0, 1, 3, 1, 1, 0, 1, 0, 0, 0, 0] 
 T12 => S19 [0, 0, 1, 1, 1, 1, 0, 1, 1, 1, 0, 0, 0, 1, 0, 0, 1, 3, 1, 1, 1, 1, 0, 0, 0, 0] 
 T4 => S24 [0, 0, 0, 1, 2, 1, 0, 1, 1, 1, 0, 0, 1, 0, 0, 0, 1, 3, 1, 1, 0, 1, 1, 1, 0, 0] 
 
 Reachable states from S100 [0, 0, 1, 1, 1, 0, 0, 1, 2, 1, 0, 0, 1, 0, 0, 0, 1, 3, 1, 1, 0, 1, 0, 0, 1, 1] 
 T12 => S16 [0, 0, 1, 1, 1, 0, 0, 1, 2, 1, 0, 0, 0, 1, 0, 0, 1, 3, 1, 1, 1, 1, 0, 0, 1, 1] 
 T4 => S56 [0, 0, 0, 1, 2, 0, 0, 1, 2, 1, 0, 0, 1, 0, 0, 0, 1, 3, 1, 1, 0, 1, 1, 1, 1, 1] 
 T5 => S99 [0, 0, 1, 1, 1, 1, 0, 1, 1, 1, 0, 0, 1, 0, 0, 0, 1, 3, 1, 1, 0, 1, 0, 0, 0, 0] 
 
 Reachable states from S101 [0, 0, 1, 1, 1, 0, 0, 1, 2, 0, 0, 0, 0, 2, 0, 0, 1, 3, 1, 1, 1, 1, 0, 0, 1, 2] 
 T4 => S0 [0, 0, 0, 1, 2, 0, 0, 1, 2, 0, 0, 0, 0, 2, 0, 0, 1, 3, 1, 1, 1, 1, 1, 1, 1, 2] 
 T1 => S4 [1, 0, 1, 1, 0, 0, 0, 1, 2, 0, 0, 0, 0, 2, 0, 0, 1, 3, 1, 1, 0, 1, 0, 0, 0, 1] 
 T5 => S8 [0, 0, 1, 1, 1, 1, 0, 1, 1, 0, 0, 0, 0, 2, 0, 0, 1, 3, 1, 1, 1, 1, 0, 0, 0, 1] 
 T8 => S16 [0, 0, 1, 1, 1, 0, 0, 1, 2, 1, 0, 0, 0, 1, 0, 0, 1, 3, 1, 1, 1, 1, 0, 0, 1, 1] 
 
 Reachable states from S102 [0, 1, 0, 0, 1, 1, 0, 1, 1, 0, 0, 0, 1, 1, 0, 0, 1, 3, 0, 0, 0, 0, 1, 1, 0, 0] 
 T12 => S7 [0, 1, 0, 0, 1, 1, 0, 1, 1, 0, 0, 0, 0, 2, 0, 0, 1, 3, 0, 0, 1, 0, 1, 1, 0, 0] 
 T3 => S98 [0, 0, 1, 1, 1, 1, 0, 1, 1, 0, 0, 0, 1, 1, 0, 0, 1, 3, 1, 1, 0, 1, 0, 0, 0, 1] 
 T13 => S103 [0, 1, 0, 0, 1, 1, 0, 1, 1, 0, 0, 0, 1, 1, 1, 0, 0, 2, 0, 0, 0, 0, 0, 1, 0, 0] 
 
 Reachable states from S103 [0, 1, 0, 0, 1, 1, 0, 1, 1, 0, 0, 0, 1, 1, 1, 0, 0, 2, 0, 0, 0, 0, 0, 1, 0, 0] 
 T12 => S87 [0, 1, 0, 0, 1, 1, 0, 1, 1, 0, 0, 0, 0, 2, 1, 0, 0, 2, 0, 0, 1, 0, 0, 1, 0, 0] 
 T14 => S104 [0, 1, 0, 0, 1, 1, 0, 1, 1, 0, 0, 0, 1, 1, 0, 1, 1, 2, 0, 0, 0, 0, 1, 0, 0, 0] 
 
 Reachable states from S104 [0, 1, 0, 0, 1, 1, 0, 1, 1, 0, 0, 0, 1, 1, 0, 1, 1, 2, 0, 0, 0, 0, 1, 0, 0, 0] 
 T12 => S88 [0, 1, 0, 0, 1, 1, 0, 1, 1, 0, 0, 0, 0, 2, 0, 1, 1, 2, 0, 0, 1, 0, 1, 0, 0, 0] 
 T15 => S102 [0, 1, 0, 0, 1, 1, 0, 1, 1, 0, 0, 0, 1, 1, 0, 0, 1, 3, 0, 0, 0, 0, 1, 1, 0, 0] 
 T13 => S105 [0, 1, 0, 0, 1, 1, 0, 1, 1, 0, 0, 0, 1, 1, 1, 1, 0, 1, 0, 0, 0, 0, 0, 0, 0, 0] 
 
 Reachable states from S105 [0, 1, 0, 0, 1, 1, 0, 1, 1, 0, 0, 0, 1, 1, 1, 1, 0, 1, 0, 0, 0, 0, 0, 0, 0, 0] 
 T12 => S89 [0, 1, 0, 0, 1, 1, 0, 1, 1, 0, 0, 0, 0, 2, 1, 1, 0, 1, 0, 0, 1, 0, 0, 0, 0, 0] 
 T15 => S103 [0, 1, 0, 0, 1, 1, 0, 1, 1, 0, 0, 0, 1, 1, 1, 0, 0, 2, 0, 0, 0, 0, 0, 1, 0, 0] 
 
 Reachable states from S106 [0, 1, 0, 0, 1, 0, 0, 1, 2, 1, 0, 0, 1, 0, 0, 0, 1, 3, 0, 0, 0, 0, 1, 1, 1, 0] 
 T12 => S15 [0, 1, 0, 0, 1, 0, 0, 1, 2, 1, 0, 0, 0, 1, 0, 0, 1, 3, 0, 0, 1, 0, 1, 1, 1, 0] 
 T3 => S100 [0, 0, 1, 1, 1, 0, 0, 1, 2, 1, 0, 0, 1, 0, 0, 0, 1, 3, 1, 1, 0, 1, 0, 0, 1, 1] 
 T9 => S107 [0, 1, 0, 0, 1, 0, 0, 1, 2, 0, 1, 0, 1, 0, 0, 0, 1, 3, 0, 0, 0, 0, 0, 1, 1, 0] 
 T13 => S112 [0, 1, 0, 0, 1, 0, 0, 1, 2, 1, 0, 0, 1, 0, 1, 0, 0, 2, 0, 0, 0, 0, 0, 1, 1, 0] 
 
 Reachable states from S107 [0, 1, 0, 0, 1, 0, 0, 1, 2, 0, 1, 0, 1, 0, 0, 0, 1, 3, 0, 0, 0, 0, 0, 1, 1, 0] 
 T12 => S63 [0, 1, 0, 0, 1, 0, 0, 1, 2, 0, 1, 0, 0, 1, 0, 0, 1, 3, 0, 0, 1, 0, 0, 1, 1, 0] 
 T10 => S108 [0, 1, 0, 0, 1, 0, 0, 1, 2, 0, 0, 1, 1, 0, 0, 0, 1, 3, 0, 0, 0, 0, 1, 0, 1, 0] 
 
 Reachable states from S108 [0, 1, 0, 0, 1, 0, 0, 1, 2, 0, 0, 1, 1, 0, 0, 0, 1, 3, 0, 0, 0, 0, 1, 0, 1, 0] 
 T12 => S52 [0, 1, 0, 0, 1, 0, 0, 1, 2, 0, 0, 1, 0, 1, 0, 0, 1, 3, 0, 0, 1, 0, 1, 0, 1, 0] 
 T13 => S109 [0, 1, 0, 0, 1, 0, 0, 1, 2, 0, 0, 1, 1, 0, 1, 0, 0, 2, 0, 0, 0, 0, 0, 0, 1, 0] 
 
 Reachable states from S109 [0, 1, 0, 0, 1, 0, 0, 1, 2, 0, 0, 1, 1, 0, 1, 0, 0, 2, 0, 0, 0, 0, 0, 0, 1, 0] 
 T12 => S110 [0, 1, 0, 0, 1, 0, 0, 1, 2, 0, 0, 1, 0, 1, 1, 0, 0, 2, 0, 0, 1, 0, 0, 0, 1, 0] 
 
 Reachable states from S110 [0, 1, 0, 0, 1, 0, 0, 1, 2, 0, 0, 1, 0, 1, 1, 0, 0, 2, 0, 0, 1, 0, 0, 0, 1, 0] 
 T11 => S111 [0, 1, 0, 0, 1, 0, 0, 1, 2, 0, 0, 0, 1, 1, 1, 0, 0, 2, 0, 0, 0, 0, 0, 1, 1, 1] 
 
 Reachable states from S111 [0, 1, 0, 0, 1, 0, 0, 1, 2, 0, 0, 0, 1, 1, 1, 0, 0, 2, 0, 0, 0, 0, 0, 1, 1, 1] 
 T12 => S83 [0, 1, 0, 0, 1, 0, 0, 1, 2, 0, 0, 0, 0, 2, 1, 0, 0, 2, 0, 0, 1, 0, 0, 1, 1, 1] 
 T5 => S103 [0, 1, 0, 0, 1, 1, 0, 1, 1, 0, 0, 0, 1, 1, 1, 0, 0, 2, 0, 0, 0, 0, 0, 1, 0, 0] 
 T8 => S112 [0, 1, 0, 0, 1, 0, 0, 1, 2, 1, 0, 0, 1, 0, 1, 0, 0, 2, 0, 0, 0, 0, 0, 1, 1, 0] 
 T14 => S116 [0, 1, 0, 0, 1, 0, 0, 1, 2, 0, 0, 0, 1, 1, 0, 1, 1, 2, 0, 0, 0, 0, 1, 0, 1, 1] 
 
 Reachable states from S112 [0, 1, 0, 0, 1, 0, 0, 1, 2, 1, 0, 0, 1, 0, 1, 0, 0, 2, 0, 0, 0, 0, 0, 1, 1, 0] 
 T12 => S60 [0, 1, 0, 0, 1, 0, 0, 1, 2, 1, 0, 0, 0, 1, 1, 0, 0, 2, 0, 0, 1, 0, 0, 1, 1, 0] 
 T14 => S113 [0, 1, 0, 0, 1, 0, 0, 1, 2, 1, 0, 0, 1, 0, 0, 1, 1, 2, 0, 0, 0, 0, 1, 0, 1, 0] 
 
 Reachable states from S113 [0, 1, 0, 0, 1, 0, 0, 1, 2, 1, 0, 0, 1, 0, 0, 1, 1, 2, 0, 0, 0, 0, 1, 0, 1, 0] 
 T12 => S61 [0, 1, 0, 0, 1, 0, 0, 1, 2, 1, 0, 0, 0, 1, 0, 1, 1, 2, 0, 0, 1, 0, 1, 0, 1, 0] 
 T15 => S106 [0, 1, 0, 0, 1, 0, 0, 1, 2, 1, 0, 0, 1, 0, 0, 0, 1, 3, 0, 0, 0, 0, 1, 1, 1, 0] 
 T9 => S114 [0, 1, 0, 0, 1, 0, 0, 1, 2, 0, 1, 0, 1, 0, 0, 1, 1, 2, 0, 0, 0, 0, 0, 0, 1, 0] 
 T13 => S115 [0, 1, 0, 0, 1, 0, 0, 1, 2, 1, 0, 0, 1, 0, 1, 1, 0, 1, 0, 0, 0, 0, 0, 0, 1, 0] 
 
 Reachable states from S114 [0, 1, 0, 0, 1, 0, 0, 1, 2, 0, 1, 0, 1, 0, 0, 1, 1, 2, 0, 0, 0, 0, 0, 0, 1, 0] 
 T12 => S62 [0, 1, 0, 0, 1, 0, 0, 1, 2, 0, 1, 0, 0, 1, 0, 1, 1, 2, 0, 0, 1, 0, 0, 0, 1, 0] 
 T15 => S107 [0, 1, 0, 0, 1, 0, 0, 1, 2, 0, 1, 0, 1, 0, 0, 0, 1, 3, 0, 0, 0, 0, 0, 1, 1, 0] 
 
 Reachable states from S115 [0, 1, 0, 0, 1, 0, 0, 1, 2, 1, 0, 0, 1, 0, 1, 1, 0, 1, 0, 0, 0, 0, 0, 0, 1, 0] 
 T12 => S64 [0, 1, 0, 0, 1, 0, 0, 1, 2, 1, 0, 0, 0, 1, 1, 1, 0, 1, 0, 0, 1, 0, 0, 0, 1, 0] 
 T15 => S112 [0, 1, 0, 0, 1, 0, 0, 1, 2, 1, 0, 0, 1, 0, 1, 0, 0, 2, 0, 0, 0, 0, 0, 1, 1, 0] 
 
 Reachable states from S116 [0, 1, 0, 0, 1, 0, 0, 1, 2, 0, 0, 0, 1, 1, 0, 1, 1, 2, 0, 0, 0, 0, 1, 0, 1, 1] 
 T15 => S53 [0, 1, 0, 0, 1, 0, 0, 1, 2, 0, 0, 0, 1, 1, 0, 0, 1, 3, 0, 0, 0, 0, 1, 1, 1, 1] 
 T12 => S90 [0, 1, 0, 0, 1, 0, 0, 1, 2, 0, 0, 0, 0, 2, 0, 1, 1, 2, 0, 0, 1, 0, 1, 0, 1, 1] 
 T5 => S104 [0, 1, 0, 0, 1, 1, 0, 1, 1, 0, 0, 0, 1, 1, 0, 1, 1, 2, 0, 0, 0, 0, 1, 0, 0, 0] 
 T8 => S113 [0, 1, 0, 0, 1, 0, 0, 1, 2, 1, 0, 0, 1, 0, 0, 1, 1, 2, 0, 0, 0, 0, 1, 0, 1, 0] 
 T13 => S117 [0, 1, 0, 0, 1, 0, 0, 1, 2, 0, 0, 0, 1, 1, 1, 1, 0, 1, 0, 0, 0, 0, 0, 0, 1, 1] 
 
 Reachable states from S117 [0, 1, 0, 0, 1, 0, 0, 1, 2, 0, 0, 0, 1, 1, 1, 1, 0, 1, 0, 0, 0, 0, 0, 0, 1, 1] 
 T12 => S91 [0, 1, 0, 0, 1, 0, 0, 1, 2, 0, 0, 0, 0, 2, 1, 1, 0, 1, 0, 0, 1, 0, 0, 0, 1, 1] 
 T5 => S105 [0, 1, 0, 0, 1, 1, 0, 1, 1, 0, 0, 0, 1, 1, 1, 1, 0, 1, 0, 0, 0, 0, 0, 0, 0, 0] 
 T15 => S111 [0, 1, 0, 0, 1, 0, 0, 1, 2, 0, 0, 0, 1, 1, 1, 0, 0, 2, 0, 0, 0, 0, 0, 1, 1, 1] 
 T8 => S115 [0, 1, 0, 0, 1, 0, 0, 1, 2, 1, 0, 0, 1, 0, 1, 1, 0, 1, 0, 0, 0, 0, 0, 0, 1, 0] 
 
 Reachable states from S118 [1, 0, 0, 1, 1, 0, 0, 1, 2, 0, 0, 1, 0, 1, 1, 0, 0, 2, 1, 1, 0, 1, 0, 0, 0, 0] 
 T2 => S110 [0, 1, 0, 0, 1, 0, 0, 1, 2, 0, 0, 1, 0, 1, 1, 0, 0, 2, 0, 0, 1, 0, 0, 0, 1, 0] 
 
 Reachable states from S119 [0, 0, 0, 1, 2, 0, 0, 1, 2, 0, 0, 1, 0, 1, 1, 0, 0, 2, 1, 1, 1, 1, 0, 0, 1, 1] 
 T5 => S28 [0, 0, 0, 1, 2, 1, 0, 1, 1, 0, 0, 1, 0, 1, 1, 0, 0, 2, 1, 1, 1, 1, 0, 0, 0, 0] 
 T11 => S80 [0, 0, 0, 1, 2, 0, 0, 1, 2, 0, 0, 0, 1, 1, 1, 0, 0, 2, 1, 1, 0, 1, 0, 1, 1, 2] 
 T1 => S118 [1, 0, 0, 1, 1, 0, 0, 1, 2, 0, 0, 1, 0, 1, 1, 0, 0, 2, 1, 1, 0, 1, 0, 0, 0, 0] 
 T8 => S120 [0, 0, 0, 1, 2, 0, 0, 1, 2, 1, 0, 1, 0, 0, 1, 0, 0, 2, 1, 1, 1, 1, 0, 0, 1, 0] 
 
 Reachable states from S120 [0, 0, 0, 1, 2, 0, 0, 1, 2, 1, 0, 1, 0, 0, 1, 0, 0, 2, 1, 1, 1, 1, 0, 0, 1, 0] 
 T11 => S57 [0, 0, 0, 1, 2, 0, 0, 1, 2, 1, 0, 0, 1, 0, 1, 0, 0, 2, 1, 1, 0, 1, 0, 1, 1, 1] 
 
 Reachable states from S121 [0, 0, 0, 1, 2, 0, 0, 1, 2, 0, 0, 1, 1, 0, 1, 0, 0, 2, 1, 1, 0, 1, 0, 0, 1, 1] 
 T5 => S27 [0, 0, 0, 1, 2, 1, 0, 1, 1, 0, 0, 1, 1, 0, 1, 0, 0, 2, 1, 1, 0, 1, 0, 0, 0, 0] 
 T12 => S119 [0, 0, 0, 1, 2, 0, 0, 1, 2, 0, 0, 1, 0, 1, 1, 0, 0, 2, 1, 1, 1, 1, 0, 0, 1, 1] 
