18/07/2021 14:13:18[DEBUG] pflow_file:  ../analysis/analisis_8_08072021/gen_nets/20210708-094213_3/net.pflow  
18/07/2021 14:13:18[DEBUG] output_folder:  ../analysis/analisis_8_08072021/gen_nets/20210708-094213_3/  
18/07/2021 14:13:18[DEBUG] html_path:  ../analysis/analisis_8_08072021/gen_nets/20210708-094213_3/  
18/07/2021 14:13:18[DEBUG] txt_path:  ../analysis/analisis_8_08072021/gen_nets/20210708-094213_3/txt_info  

--------------------------------------------------------------------------   
18/07/2021 14:13:18[INFO] Ejecutando petrinator para conocer estado de la red...   
--------------------------------------------------------------------------
   
+----+-----+---------------------------------------------------------------+
| ID | Nro |                             Plazas                            |
+----+-----+---------------------------------------------------------------+
| 0  |  42 |            ['P2', 'P6', 'P9', 'P16', 'P28', 'P33']            |
| 1  |  50 |        ['P2', 'P6', 'P10', 'P14', 'P22', 'P26', 'P33']        |
| 2  |  61 |         ['P2', 'P6', 'P9', 'P10', 'P16', 'P28', 'P33']        |
| 3  |  64 |     ['P2', 'P7', 'P9', 'P16', 'P22', 'P28', 'P31', 'P33']     |
| 4  |  83 |     ['P2', 'P7', 'P9', 'P16', 'P22', 'P28', 'P30', 'P33']     |
| 5  |  90 |     ['P2', 'P7', 'P10', 'P15', 'P22', 'P26', 'P31', 'P33']    |
| 6  |  92 | ['P2', 'P7', 'P10', 'P16', 'P22', 'P26', 'P30', 'P31', 'P33'] |
| 7  |  94 | ['P2', 'P7', 'P10', 'P16', 'P22', 'P26', 'P28', 'P31', 'P33'] |
| 8  |  99 | ['P2', 'P7', 'P10', 'P14', 'P16', 'P22', 'P26', 'P30', 'P33'] |
| 9  |  2  |     ['P1', 'P7', 'P10', 'P16', 'P22', 'P26', 'P30', 'P31']    |
| 10 |  31 |        ['P1', 'P7', 'P10', 'P15', 'P22', 'P26', 'P31']        |
| 11 |  33 |     ['P1', 'P7', 'P10', 'P16', 'P22', 'P26', 'P28', 'P31']    |
| 12 |  95 |     ['P2', 'P7', 'P10', 'P16', 'P22', 'P26', 'P27', 'P31']    |
+----+-----+---------------------------------------------------------------+
+----+----+----+----+----+----+----+----+----+----+-----+-----+-----+-----+-----+-----+-----+-----+-----+
| T0 | T1 | T2 | T3 | T4 | T5 | T6 | T7 | T8 | T9 | T10 | T11 | T12 | T13 | T14 | T15 | T16 | T17 | T18 |
+----+----+----+----+----+----+----+----+----+----+-----+-----+-----+-----+-----+-----+-----+-----+-----+
| 1  | 1  | 1  | 0  | 0  | 0  | 0  | 0  | 0  | 0  |  0  |  0  |  0  |  0  |  0  |  0  |  0  |  0  |  0  |
| 0  | 0  | 0  | 1  | 1  | 1  | 1  | 1  | 1  | 1  |  0  |  0  |  0  |  0  |  0  |  1  |  1  |  1  |  1  |
| 0  | 0  | 0  | 1  | 1  | 1  | 1  | 0  | 0  | 0  |  1  |  1  |  1  |  1  |  1  |  1  |  1  |  1  |  1  |
+----+----+----+----+----+----+----+----+----+----+-----+-----+-----+-----+-----+-----+-----+-----+-----+
18/07/2021 14:13:28[INFO] Supervisores para agregar   
+-----+---------+----------------------------------+--------------+
|  ID | Marcado |           T - Entrada            |  T - Salida  |
+-----+---------+----------------------------------+--------------+
| P34 |    1    |        ['T2', 'T5', 'T9']        | ['T1', 'T4'] |
| P34 |    1    |        ['T2', 'T5', 'T9']        | ['T1', 'T4'] |
| P34 |    1    |        ['T2', 'T5', 'T9']        | ['T1', 'T4'] |
| P34 |    2    |    ['T2', 'T6', 'T9', 'T14']     | ['T1', 'T4'] |
| P34 |    2    |    ['T2', 'T6', 'T9', 'T15']     | ['T1', 'T4'] |
| P34 |    2    | ['T2', 'T6', 'T9', 'T13', 'T17'] | ['T1', 'T4'] |
| P34 |    3    | ['T2', 'T7', 'T9', 'T14', 'T17'] | ['T1', 'T4'] |
| P34 |    3    | ['T2', 'T6', 'T9', 'T14', 'T17'] | ['T1', 'T4'] |
| P34 |    2    |    ['T2', 'T6', 'T9', 'T17']     | ['T1', 'T4'] |
| P34 |    2    | ['T2', 'T7', 'T9', 'T14', 'T17'] | ['T1', 'T4'] |
| P34 |    1    | ['T2', 'T6', 'T9', 'T13', 'T17'] | ['T1', 'T4'] |
| P34 |    2    | ['T2', 'T6', 'T9', 'T14', 'T17'] | ['T1', 'T4'] |
| P34 |    2    | ['T2', 'T7', 'T9', 'T14', 'T17'] | ['T1', 'T4'] |
+-----+---------+----------------------------------+--------------+
18/07/2021 14:13:28[INFO] Supervisores agregados   
+-----+---------+-------------+------------+
| Nro | Marcado | T - Entrada | T - Salida |
+-----+---------+-------------+------------+
+-----+---------+-------------+------------+
18/07/2021 14:13:28[INFO] Ejecutando accion...   
18/07/2021 14:13:28[INFO] Ejecutando accion...   
18/07/2021 14:13:28[ACTION] Agrego supervisor aleatorio Numero: 2  

--------------------------------------------------------------------------   
18/07/2021 14:13:28[INFO] Ejecutando petrinator para conocer estado de la red...   
--------------------------------------------------------------------------
   

--------------------------------------------------------------------------
   
18/07/2021 14:13:40[INFO] Calculando recompensa..   
18/07/2021 14:13:40[REWARD] El sifon se controlo correctamente, recompensa -1   

--------------------------------------------------------------------------
   
18/07/2021 14:13:40[STATE] Cambie al estado 3: Hay igual cantidad de sifones vacios en deadlock   
+-----------------------------------------------------+--------------------+------------------------+
|                   Estados/Acciones                  | Agregar supervisor | Agregar o quitar arcos |
+-----------------------------------------------------+--------------------+------------------------+
|                        Start                        |        -1.0        |          0.0           |
|        Más sifónes vacíos en estado deadlock        |        0.0         |          0.0           |
|       Menos sifónes vacíos en estado deadlock       |        0.0         |          0.0           |
| Igual cantidad de sifónes vacíos en estado deadlock |        0.0         |          0.0           |
|                         End                         |        0.0         |          0.0           |
+-----------------------------------------------------+--------------------+------------------------+
+----+-----+---------------------------------------------------------------+
| ID | Nro |                             Plazas                            |
+----+-----+---------------------------------------------------------------+
| 13 |  64 |            ['P2', 'P6', 'P9', 'P16', 'P28', 'P33']            |
| 14 |  74 |        ['P2', 'P6', 'P10', 'P14', 'P22', 'P26', 'P33']        |
| 15 |  89 |         ['P2', 'P6', 'P9', 'P10', 'P16', 'P28', 'P33']        |
| 16 |  92 |     ['P2', 'P7', 'P9', 'P16', 'P22', 'P28', 'P31', 'P33']     |
| 17 | 117 |     ['P2', 'P7', 'P9', 'P16', 'P22', 'P28', 'P30', 'P33']     |
| 18 | 127 |     ['P2', 'P7', 'P10', 'P15', 'P22', 'P26', 'P31', 'P33']    |
| 19 | 129 | ['P2', 'P7', 'P10', 'P16', 'P22', 'P26', 'P30', 'P31', 'P33'] |
| 20 | 131 | ['P2', 'P7', 'P10', 'P16', 'P22', 'P26', 'P28', 'P31', 'P33'] |
| 21 | 136 | ['P2', 'P7', 'P10', 'P14', 'P16', 'P22', 'P26', 'P30', 'P33'] |
| 22 |  2  |     ['P1', 'P7', 'P10', 'P16', 'P22', 'P26', 'P30', 'P31']    |
| 23 |  44 |        ['P1', 'P7', 'P10', 'P15', 'P22', 'P26', 'P31']        |
| 24 |  48 |     ['P1', 'P7', 'P10', 'P16', 'P22', 'P26', 'P28', 'P31']    |
| 25 | 132 |     ['P2', 'P7', 'P10', 'P16', 'P22', 'P26', 'P27', 'P31']    |
+----+-----+---------------------------------------------------------------+
+----+----+----+----+----+----+----+----+----+----+-----+-----+-----+-----+-----+-----+-----+-----+-----+
| T0 | T1 | T2 | T3 | T4 | T5 | T6 | T7 | T8 | T9 | T10 | T11 | T12 | T13 | T14 | T15 | T16 | T17 | T18 |
+----+----+----+----+----+----+----+----+----+----+-----+-----+-----+-----+-----+-----+-----+-----+-----+
| 1  | 1  | 1  | 0  | 0  | 0  | 0  | 0  | 0  | 0  |  0  |  0  |  0  |  0  |  0  |  0  |  0  |  0  |  0  |
| 0  | 0  | 0  | 1  | 1  | 1  | 1  | 0  | 0  | 0  |  1  |  1  |  1  |  1  |  1  |  1  |  1  |  1  |  1  |
+----+----+----+----+----+----+----+----+----+----+-----+-----+-----+-----+-----+-----+-----+-----+-----+
18/07/2021 14:13:40[INFO] Supervisores para agregar   
+-----+---------+----------------------------------+--------------+
|  ID | Marcado |           T - Entrada            |  T - Salida  |
+-----+---------+----------------------------------+--------------+
| P35 |    1    |        ['T2', 'T5', 'T9']        | ['T1', 'T4'] |
| P35 |    1    |        ['T2', 'T5', 'T9']        | ['T1', 'T4'] |
| P35 |    1    |        ['T2', 'T5', 'T9']        | ['T1', 'T4'] |
| P35 |    2    |    ['T2', 'T6', 'T9', 'T14']     | ['T1', 'T4'] |
| P35 |    2    |    ['T2', 'T6', 'T9', 'T15']     | ['T1', 'T4'] |
| P35 |    2    | ['T2', 'T6', 'T9', 'T13', 'T17'] | ['T1', 'T4'] |
| P35 |    3    | ['T2', 'T7', 'T9', 'T14', 'T17'] | ['T1', 'T4'] |
| P35 |    3    | ['T2', 'T6', 'T9', 'T14', 'T17'] | ['T1', 'T4'] |
| P35 |    2    |    ['T2', 'T6', 'T9', 'T17']     | ['T1', 'T4'] |
| P35 |    2    | ['T2', 'T7', 'T9', 'T14', 'T17'] | ['T1', 'T4'] |
| P35 |    1    | ['T2', 'T6', 'T9', 'T13', 'T17'] | ['T1', 'T4'] |
| P35 |    2    | ['T2', 'T6', 'T9', 'T14', 'T17'] | ['T1', 'T4'] |
| P35 |    2    | ['T2', 'T7', 'T9', 'T14', 'T17'] | ['T1', 'T4'] |
+-----+---------+----------------------------------+--------------+
18/07/2021 14:13:40[INFO] Supervisores agregados   
+-----+---------+--------------------+--------------+
| Nro | Marcado |    T - Entrada     |  T - Salida  |
+-----+---------+--------------------+--------------+
|  1  |    1    | ['T2', 'T5', 'T9'] | ['T1', 'T4'] |
+-----+---------+--------------------+--------------+
18/07/2021 14:13:40[INFO] Ejecutando accion...   
18/07/2021 14:13:40[ACTION] Agregar o quitar arcos   
18/07/2021 14:13:40[ACTION] Eliminar arco desde T5 hasta P34   
18/07/2021 14:13:40[INFO] Se elimino el arco con metodo 2 desde T5 hasta P34   
18/07/2021 14:13:40[ACTION] La transicion en conflicto T11 le tiene que devolver un token al supervisor P34   
18/07/2021 14:13:40[INFO] Se agrego un arco desde T11 hasta P34   

--------------------------------------------------------------------------   
18/07/2021 14:13:40[INFO] Ejecutando petrinator para conocer estado de la red...   
--------------------------------------------------------------------------
   

--------------------------------------------------------------------------
   
18/07/2021 14:13:52[INFO] Calculando recompensa..   
18/07/2021 14:13:52[REWARD] Hay menos o igual cantidad de sifones vacios que en el estado anterior, recompensa -1   

--------------------------------------------------------------------------
   
18/07/2021 14:13:52[STATE] Cambie al estado 2: Hay menos sifones vacios en deadlock   
+-----------------------------------------------------+--------------------+------------------------+
|                   Estados/Acciones                  | Agregar supervisor | Agregar o quitar arcos |
+-----------------------------------------------------+--------------------+------------------------+
|                        Start                        |        -1.0        |          0.0           |
|        Más sifónes vacíos en estado deadlock        |        0.0         |          0.0           |
|       Menos sifónes vacíos en estado deadlock       |        0.0         |          0.0           |
| Igual cantidad de sifónes vacíos en estado deadlock |        0.0         |          -1.0          |
|                         End                         |        0.0         |          0.0           |
+-----------------------------------------------------+--------------------+------------------------+
+----+-----+---------------------------------------------------------------+
| ID | Nro |                             Plazas                            |
+----+-----+---------------------------------------------------------------+
| 26 |  2  |     ['P1', 'P7', 'P10', 'P16', 'P22', 'P26', 'P30', 'P31']    |
| 27 |  33 |        ['P1', 'P7', 'P10', 'P15', 'P22', 'P26', 'P31']        |
| 28 |  35 |     ['P1', 'P7', 'P10', 'P16', 'P22', 'P26', 'P28', 'P31']    |
| 29 |  95 |     ['P2', 'P7', 'P10', 'P15', 'P22', 'P26', 'P31', 'P33']    |
| 30 |  97 | ['P2', 'P7', 'P10', 'P16', 'P22', 'P26', 'P30', 'P31', 'P33'] |
| 31 |  99 | ['P2', 'P7', 'P10', 'P16', 'P22', 'P26', 'P28', 'P31', 'P33'] |
| 32 | 100 |     ['P2', 'P7', 'P10', 'P16', 'P22', 'P26', 'P27', 'P31']    |
+----+-----+---------------------------------------------------------------+
+----+----+----+----+----+----+----+----+----+----+-----+-----+-----+-----+-----+-----+-----+-----+-----+
| T0 | T1 | T2 | T3 | T4 | T5 | T6 | T7 | T8 | T9 | T10 | T11 | T12 | T13 | T14 | T15 | T16 | T17 | T18 |
+----+----+----+----+----+----+----+----+----+----+-----+-----+-----+-----+-----+-----+-----+-----+-----+
| 1  | 1  | 1  | 0  | 0  | 0  | 0  | 0  | 0  | 0  |  0  |  0  |  0  |  0  |  0  |  0  |  0  |  0  |  0  |
| 0  | 0  | 0  | 1  | 1  | 1  | 1  | 1  | 1  | 1  |  0  |  0  |  0  |  0  |  0  |  1  |  1  |  1  |  1  |
| 0  | 0  | 0  | 1  | 1  | 1  | 1  | 0  | 0  | 0  |  1  |  1  |  1  |  1  |  1  |  1  |  1  |  1  |  1  |
+----+----+----+----+----+----+----+----+----+----+-----+-----+-----+-----+-----+-----+-----+-----+-----+
18/07/2021 14:13:52[INFO] Supervisores para agregar   
+-----+---------+----------------------------------+--------------+
|  ID | Marcado |           T - Entrada            |  T - Salida  |
+-----+---------+----------------------------------+--------------+
| P35 |    2    | ['T2', 'T7', 'T9', 'T14', 'T17'] | ['T1', 'T4'] |
| P35 |    1    | ['T2', 'T6', 'T9', 'T13', 'T17'] | ['T1', 'T4'] |
| P35 |    2    | ['T2', 'T6', 'T9', 'T14', 'T17'] | ['T1', 'T4'] |
| P35 |    2    | ['T2', 'T6', 'T9', 'T13', 'T17'] | ['T1', 'T4'] |
| P35 |    3    | ['T2', 'T7', 'T9', 'T14', 'T17'] | ['T1', 'T4'] |
| P35 |    3    | ['T2', 'T6', 'T9', 'T14', 'T17'] | ['T1', 'T4'] |
| P35 |    2    | ['T2', 'T7', 'T9', 'T14', 'T17'] | ['T1', 'T4'] |
+-----+---------+----------------------------------+--------------+
18/07/2021 14:13:52[INFO] Supervisores agregados   
+-----+---------+--------------------+--------------+
| Nro | Marcado |    T - Entrada     |  T - Salida  |
+-----+---------+--------------------+--------------+
|  1  |    1    | ['T2', 'T5', 'T9'] | ['T1', 'T4'] |
+-----+---------+--------------------+--------------+
18/07/2021 14:13:52[INFO] Ejecutando accion...   
18/07/2021 14:13:52[ACTION] Agregar o quitar arcos   

--------------------------------------------------------------------------   
18/07/2021 14:13:52[INFO] Ejecutando petrinator para conocer estado de la red...   
--------------------------------------------------------------------------
   

--------------------------------------------------------------------------
   
18/07/2021 14:14:03[INFO] Calculando recompensa..   
18/07/2021 14:14:03[REWARD] Hay menos o igual cantidad de sifones vacios que en el estado anterior, recompensa -1   

--------------------------------------------------------------------------
   
18/07/2021 14:14:03[STATE] Cambie al estado 3: Hay igual cantidad de sifones vacios en deadlock   
+-----------------------------------------------------+--------------------+------------------------+
|                   Estados/Acciones                  | Agregar supervisor | Agregar o quitar arcos |
+-----------------------------------------------------+--------------------+------------------------+
|                        Start                        |        -1.0        |          0.0           |
|        Más sifónes vacíos en estado deadlock        |        0.0         |          0.0           |
|       Menos sifónes vacíos en estado deadlock       |        0.0         |          -1.0          |
| Igual cantidad de sifónes vacíos en estado deadlock |        0.0         |          -1.0          |
|                         End                         |        0.0         |          0.0           |
+-----------------------------------------------------+--------------------+------------------------+
+----+-----+---------------------------------------------------------------+
| ID | Nro |                             Plazas                            |
+----+-----+---------------------------------------------------------------+
| 33 |  2  |     ['P1', 'P7', 'P10', 'P16', 'P22', 'P26', 'P30', 'P31']    |
| 34 |  33 |        ['P1', 'P7', 'P10', 'P15', 'P22', 'P26', 'P31']        |
| 35 |  35 |     ['P1', 'P7', 'P10', 'P16', 'P22', 'P26', 'P28', 'P31']    |
| 36 |  95 |     ['P2', 'P7', 'P10', 'P15', 'P22', 'P26', 'P31', 'P33']    |
| 37 |  97 | ['P2', 'P7', 'P10', 'P16', 'P22', 'P26', 'P30', 'P31', 'P33'] |
| 38 |  99 | ['P2', 'P7', 'P10', 'P16', 'P22', 'P26', 'P28', 'P31', 'P33'] |
| 39 | 100 |     ['P2', 'P7', 'P10', 'P16', 'P22', 'P26', 'P27', 'P31']    |
+----+-----+---------------------------------------------------------------+
+----+----+----+----+----+----+----+----+----+----+-----+-----+-----+-----+-----+-----+-----+-----+-----+
| T0 | T1 | T2 | T3 | T4 | T5 | T6 | T7 | T8 | T9 | T10 | T11 | T12 | T13 | T14 | T15 | T16 | T17 | T18 |
+----+----+----+----+----+----+----+----+----+----+-----+-----+-----+-----+-----+-----+-----+-----+-----+
| 1  | 1  | 1  | 0  | 0  | 0  | 0  | 0  | 0  | 0  |  0  |  0  |  0  |  0  |  0  |  0  |  0  |  0  |  0  |
| 0  | 0  | 0  | 1  | 1  | 1  | 1  | 1  | 1  | 1  |  0  |  0  |  0  |  0  |  0  |  1  |  1  |  1  |  1  |
| 0  | 0  | 0  | 1  | 1  | 1  | 1  | 0  | 0  | 0  |  1  |  1  |  1  |  1  |  1  |  1  |  1  |  1  |  1  |
+----+----+----+----+----+----+----+----+----+----+-----+-----+-----+-----+-----+-----+-----+-----+-----+
18/07/2021 14:14:03[INFO] Supervisores para agregar   
+-----+---------+----------------------------------+--------------+
|  ID | Marcado |           T - Entrada            |  T - Salida  |
+-----+---------+----------------------------------+--------------+
| P35 |    2    | ['T2', 'T7', 'T9', 'T14', 'T17'] | ['T1', 'T4'] |
| P35 |    1    | ['T2', 'T6', 'T9', 'T13', 'T17'] | ['T1', 'T4'] |
| P35 |    2    | ['T2', 'T6', 'T9', 'T14', 'T17'] | ['T1', 'T4'] |
| P35 |    2    | ['T2', 'T6', 'T9', 'T13', 'T17'] | ['T1', 'T4'] |
| P35 |    3    | ['T2', 'T7', 'T9', 'T14', 'T17'] | ['T1', 'T4'] |
| P35 |    3    | ['T2', 'T6', 'T9', 'T14', 'T17'] | ['T1', 'T4'] |
| P35 |    2    | ['T2', 'T7', 'T9', 'T14', 'T17'] | ['T1', 'T4'] |
+-----+---------+----------------------------------+--------------+
18/07/2021 14:14:03[INFO] Supervisores agregados   
+-----+---------+--------------------+--------------+
| Nro | Marcado |    T - Entrada     |  T - Salida  |
+-----+---------+--------------------+--------------+
|  1  |    1    | ['T2', 'T5', 'T9'] | ['T1', 'T4'] |
+-----+---------+--------------------+--------------+
18/07/2021 14:14:03[INFO] Ejecutando accion...   
18/07/2021 14:14:03[INFO] Ejecutando accion...   
18/07/2021 14:14:03[ACTION] Agrego supervisor aleatorio Numero: 6  

--------------------------------------------------------------------------   
18/07/2021 14:14:03[INFO] Ejecutando petrinator para conocer estado de la red...   
--------------------------------------------------------------------------
   

--------------------------------------------------------------------------
   
18/07/2021 14:14:17[INFO] Calculando recompensa..   
18/07/2021 14:14:17[REWARD] El sifon se controlo correctamente, recompensa -1   

--------------------------------------------------------------------------
   
18/07/2021 14:14:17[STATE] Cambie al estado 3: Hay igual cantidad de sifones vacios en deadlock   
+-----------------------------------------------------+--------------------+------------------------+
|                   Estados/Acciones                  | Agregar supervisor | Agregar o quitar arcos |
+-----------------------------------------------------+--------------------+------------------------+
|                        Start                        |        -1.0        |          0.0           |
|        Más sifónes vacíos en estado deadlock        |        0.0         |          0.0           |
|       Menos sifónes vacíos en estado deadlock       |        0.0         |          -1.0          |
| Igual cantidad de sifónes vacíos en estado deadlock |        -1.0        |          -1.0          |
|                         End                         |        0.0         |          0.0           |
+-----------------------------------------------------+--------------------+------------------------+
+----+-----+---------------------------------------------------------------+
| ID | Nro |                             Plazas                            |
+----+-----+---------------------------------------------------------------+
| 40 |  2  |     ['P1', 'P7', 'P10', 'P16', 'P22', 'P26', 'P30', 'P31']    |
| 41 |  33 |        ['P1', 'P7', 'P10', 'P15', 'P22', 'P26', 'P31']        |
| 42 |  36 |     ['P1', 'P7', 'P10', 'P16', 'P22', 'P26', 'P28', 'P31']    |
| 43 |  96 |     ['P2', 'P7', 'P10', 'P15', 'P22', 'P26', 'P31', 'P33']    |
| 44 |  98 | ['P2', 'P7', 'P10', 'P16', 'P22', 'P26', 'P30', 'P31', 'P33'] |
| 45 | 100 | ['P2', 'P7', 'P10', 'P16', 'P22', 'P26', 'P28', 'P31', 'P33'] |
| 46 | 101 |     ['P2', 'P7', 'P10', 'P16', 'P22', 'P26', 'P27', 'P31']    |
+----+-----+---------------------------------------------------------------+
+----+----+----+----+----+----+----+----+----+----+-----+-----+-----+-----+-----+-----+-----+-----+-----+
| T0 | T1 | T2 | T3 | T4 | T5 | T6 | T7 | T8 | T9 | T10 | T11 | T12 | T13 | T14 | T15 | T16 | T17 | T18 |
+----+----+----+----+----+----+----+----+----+----+-----+-----+-----+-----+-----+-----+-----+-----+-----+
| 1  | 1  | 1  | 0  | 0  | 0  | 0  | 0  | 0  | 0  |  0  |  0  |  0  |  0  |  0  |  0  |  0  |  0  |  0  |
+----+----+----+----+----+----+----+----+----+----+-----+-----+-----+-----+-----+-----+-----+-----+-----+
18/07/2021 14:14:17[INFO] Supervisores para agregar   
+-----+---------+----------------------------------+--------------+
|  ID | Marcado |           T - Entrada            |  T - Salida  |
+-----+---------+----------------------------------+--------------+
| P36 |    2    | ['T2', 'T7', 'T9', 'T14', 'T17'] | ['T1', 'T4'] |
| P36 |    1    | ['T2', 'T6', 'T9', 'T13', 'T17'] | ['T1', 'T4'] |
| P36 |    2    | ['T2', 'T6', 'T9', 'T14', 'T17'] | ['T1', 'T4'] |
| P36 |    2    | ['T2', 'T6', 'T9', 'T13', 'T17'] | ['T1', 'T4'] |
| P36 |    3    | ['T2', 'T7', 'T9', 'T14', 'T17'] | ['T1', 'T4'] |
| P36 |    3    | ['T2', 'T6', 'T9', 'T14', 'T17'] | ['T1', 'T4'] |
| P36 |    2    | ['T2', 'T7', 'T9', 'T14', 'T17'] | ['T1', 'T4'] |
+-----+---------+----------------------------------+--------------+
18/07/2021 14:14:17[INFO] Supervisores agregados   
+-----+---------+----------------------------------+--------------+
| Nro | Marcado |           T - Entrada            |  T - Salida  |
+-----+---------+----------------------------------+--------------+
|  1  |    1    |        ['T2', 'T5', 'T9']        | ['T1', 'T4'] |
|  2  |    2    | ['T2', 'T7', 'T9', 'T14', 'T17'] | ['T1', 'T4'] |
+-----+---------+----------------------------------+--------------+
18/07/2021 14:14:17[INFO] Ejecutando accion...   
18/07/2021 14:14:17[ACTION] Agregar o quitar arcos   
18/07/2021 14:14:17[ACTION] Eliminar arco desde T7 hasta P35   
18/07/2021 14:14:17[INFO] Se elimino el arco con metodo 2 desde T7 hasta P35   
18/07/2021 14:14:17[ACTION] Eliminar arco desde T14 hasta P35   
18/07/2021 14:14:17[INFO] Se elimino el arco con metodo 2 desde T14 hasta P35   

--------------------------------------------------------------------------   
18/07/2021 14:14:17[INFO] Ejecutando petrinator para conocer estado de la red...   
--------------------------------------------------------------------------
   

--------------------------------------------------------------------------
   
18/07/2021 14:14:27[INFO] Calculando recompensa..   
18/07/2021 14:14:27[REWARD] Hay menos o igual cantidad de sifones vacios que en el estado anterior, recompensa -1   

--------------------------------------------------------------------------
   
18/07/2021 14:14:27[STATE] Cambie al estado 3: Hay igual cantidad de sifones vacios en deadlock   
+-----------------------------------------------------+--------------------+------------------------+
|                   Estados/Acciones                  | Agregar supervisor | Agregar o quitar arcos |
+-----------------------------------------------------+--------------------+------------------------+
|                        Start                        |        -1.0        |          0.0           |
|        Más sifónes vacíos en estado deadlock        |        0.0         |          0.0           |
|       Menos sifónes vacíos en estado deadlock       |        0.0         |          -1.0          |
| Igual cantidad de sifónes vacíos en estado deadlock |        -1.0        |          -1.9          |
|                         End                         |        0.0         |          0.0           |
+-----------------------------------------------------+--------------------+------------------------+
+----+-----+---------------------------------------------------------------+
| ID | Nro |                             Plazas                            |
+----+-----+---------------------------------------------------------------+
| 47 |  2  |     ['P1', 'P7', 'P10', 'P16', 'P22', 'P26', 'P30', 'P31']    |
| 48 |  33 |        ['P1', 'P7', 'P10', 'P15', 'P22', 'P26', 'P31']        |
| 49 |  36 |     ['P1', 'P7', 'P10', 'P16', 'P22', 'P26', 'P28', 'P31']    |
| 50 |  96 |     ['P2', 'P7', 'P10', 'P15', 'P22', 'P26', 'P31', 'P33']    |
| 51 |  98 | ['P2', 'P7', 'P10', 'P16', 'P22', 'P26', 'P30', 'P31', 'P33'] |
| 52 | 100 | ['P2', 'P7', 'P10', 'P16', 'P22', 'P26', 'P28', 'P31', 'P33'] |
| 53 | 101 |     ['P2', 'P7', 'P10', 'P16', 'P22', 'P26', 'P27', 'P31']    |
+----+-----+---------------------------------------------------------------+
+----+----+----+----+----+----+----+----+----+----+-----+-----+-----+-----+-----+-----+-----+-----+-----+
| T0 | T1 | T2 | T3 | T4 | T5 | T6 | T7 | T8 | T9 | T10 | T11 | T12 | T13 | T14 | T15 | T16 | T17 | T18 |
+----+----+----+----+----+----+----+----+----+----+-----+-----+-----+-----+-----+-----+-----+-----+-----+
| 1  | 1  | 1  | 0  | 0  | 0  | 0  | 0  | 0  | 0  |  0  |  0  |  0  |  0  |  0  |  0  |  0  |  0  |  0  |
| 0  | 0  | 0  | 1  | 1  | 1  | 1  | 0  | 0  | 0  |  1  |  1  |  1  |  1  |  1  |  1  |  1  |  1  |  1  |
+----+----+----+----+----+----+----+----+----+----+-----+-----+-----+-----+-----+-----+-----+-----+-----+
18/07/2021 14:14:27[INFO] Supervisores para agregar   
+-----+---------+----------------------------------+--------------+
|  ID | Marcado |           T - Entrada            |  T - Salida  |
+-----+---------+----------------------------------+--------------+
| P36 |    2    | ['T2', 'T7', 'T9', 'T14', 'T17'] | ['T1', 'T4'] |
| P36 |    1    | ['T2', 'T6', 'T9', 'T13', 'T17'] | ['T1', 'T4'] |
| P36 |    2    | ['T2', 'T6', 'T9', 'T14', 'T17'] | ['T1', 'T4'] |
| P36 |    2    | ['T2', 'T6', 'T9', 'T13', 'T17'] | ['T1', 'T4'] |
| P36 |    3    | ['T2', 'T7', 'T9', 'T14', 'T17'] | ['T1', 'T4'] |
| P36 |    3    | ['T2', 'T6', 'T9', 'T14', 'T17'] | ['T1', 'T4'] |
| P36 |    2    | ['T2', 'T7', 'T9', 'T14', 'T17'] | ['T1', 'T4'] |
+-----+---------+----------------------------------+--------------+
18/07/2021 14:14:27[INFO] Supervisores agregados   
+-----+---------+----------------------------------+--------------+
| Nro | Marcado |           T - Entrada            |  T - Salida  |
+-----+---------+----------------------------------+--------------+
|  1  |    1    |        ['T2', 'T5', 'T9']        | ['T1', 'T4'] |
|  2  |    2    | ['T2', 'T7', 'T9', 'T14', 'T17'] | ['T1', 'T4'] |
+-----+---------+----------------------------------+--------------+
18/07/2021 14:14:27[INFO] Ejecutando accion...   
18/07/2021 14:14:27[INFO] Ejecutando accion...   
18/07/2021 14:14:27[ACTION] Agrego supervisor aleatorio Numero: 1  

--------------------------------------------------------------------------   
18/07/2021 14:14:27[INFO] Ejecutando petrinator para conocer estado de la red...   
--------------------------------------------------------------------------
   

--------------------------------------------------------------------------
   
18/07/2021 14:14:40[INFO] Calculando recompensa..   
18/07/2021 14:14:40[REWARD] El sifon se controlo correctamente, recompensa -1   

--------------------------------------------------------------------------
   
18/07/2021 14:14:40[STATE] Cambie al estado 3: Hay igual cantidad de sifones vacios en deadlock   
+-----------------------------------------------------+--------------------+------------------------+
|                   Estados/Acciones                  | Agregar supervisor | Agregar o quitar arcos |
+-----------------------------------------------------+--------------------+------------------------+
|                        Start                        |        -1.0        |          0.0           |
|        Más sifónes vacíos en estado deadlock        |        0.0         |          0.0           |
|       Menos sifónes vacíos en estado deadlock       |        0.0         |          -1.0          |
| Igual cantidad de sifónes vacíos en estado deadlock |        -1.9        |          -1.9          |
|                         End                         |        0.0         |          0.0           |
+-----------------------------------------------------+--------------------+------------------------+
+----+-----+---------------------------------------------------------------+
| ID | Nro |                             Plazas                            |
+----+-----+---------------------------------------------------------------+
| 54 |  2  |     ['P1', 'P7', 'P10', 'P16', 'P22', 'P26', 'P30', 'P31']    |
| 55 |  33 |        ['P1', 'P7', 'P10', 'P15', 'P22', 'P26', 'P31']        |
| 56 |  37 |     ['P1', 'P7', 'P10', 'P16', 'P22', 'P26', 'P28', 'P31']    |
| 57 |  97 |     ['P2', 'P7', 'P10', 'P15', 'P22', 'P26', 'P31', 'P33']    |
| 58 |  99 | ['P2', 'P7', 'P10', 'P16', 'P22', 'P26', 'P30', 'P31', 'P33'] |
| 59 | 101 | ['P2', 'P7', 'P10', 'P16', 'P22', 'P26', 'P28', 'P31', 'P33'] |
| 60 | 102 |     ['P2', 'P7', 'P10', 'P16', 'P22', 'P26', 'P27', 'P31']    |
+----+-----+---------------------------------------------------------------+
+----+----+----+----+----+----+----+----+----+----+-----+-----+-----+-----+-----+-----+-----+-----+-----+
| T0 | T1 | T2 | T3 | T4 | T5 | T6 | T7 | T8 | T9 | T10 | T11 | T12 | T13 | T14 | T15 | T16 | T17 | T18 |
+----+----+----+----+----+----+----+----+----+----+-----+-----+-----+-----+-----+-----+-----+-----+-----+
| 1  | 1  | 1  | 0  | 0  | 0  | 0  | 0  | 0  | 0  |  0  |  0  |  0  |  0  |  0  |  0  |  0  |  0  |  0  |
+----+----+----+----+----+----+----+----+----+----+-----+-----+-----+-----+-----+-----+-----+-----+-----+
18/07/2021 14:14:40[INFO] Supervisores para agregar   
+-----+---------+----------------------------------+--------------+
|  ID | Marcado |           T - Entrada            |  T - Salida  |
+-----+---------+----------------------------------+--------------+
| P37 |    2    | ['T2', 'T7', 'T9', 'T14', 'T17'] | ['T1', 'T4'] |
| P37 |    1    | ['T2', 'T6', 'T9', 'T13', 'T17'] | ['T1', 'T4'] |
| P37 |    2    | ['T2', 'T6', 'T9', 'T14', 'T17'] | ['T1', 'T4'] |
| P37 |    2    | ['T2', 'T6', 'T9', 'T13', 'T17'] | ['T1', 'T4'] |
| P37 |    3    | ['T2', 'T7', 'T9', 'T14', 'T17'] | ['T1', 'T4'] |
| P37 |    3    | ['T2', 'T6', 'T9', 'T14', 'T17'] | ['T1', 'T4'] |
| P37 |    2    | ['T2', 'T7', 'T9', 'T14', 'T17'] | ['T1', 'T4'] |
+-----+---------+----------------------------------+--------------+
18/07/2021 14:14:40[INFO] Supervisores agregados   
+-----+---------+----------------------------------+--------------+
| Nro | Marcado |           T - Entrada            |  T - Salida  |
+-----+---------+----------------------------------+--------------+
|  1  |    1    |        ['T2', 'T5', 'T9']        | ['T1', 'T4'] |
|  2  |    2    | ['T2', 'T7', 'T9', 'T14', 'T17'] | ['T1', 'T4'] |
|  3  |    1    | ['T2', 'T6', 'T9', 'T13', 'T17'] | ['T1', 'T4'] |
+-----+---------+----------------------------------+--------------+
18/07/2021 14:14:40[INFO] Ejecutando accion...   
18/07/2021 14:14:40[ACTION] Agregar o quitar arcos   
18/07/2021 14:14:40[ACTION] Eliminar arco desde T9 hasta P35   
18/07/2021 14:14:40[INFO] Se elimino el arco con metodo 2 desde T9 hasta P35   
18/07/2021 14:14:40[ACTION] Eliminar arco desde T6 hasta P36   
18/07/2021 14:14:40[INFO] Se elimino el arco con metodo 2 desde T6 hasta P36   
18/07/2021 14:14:40[ACTION] Eliminar arco desde T13 hasta P36   
18/07/2021 14:14:40[INFO] Se elimino el arco con metodo 2 desde T13 hasta P36   

--------------------------------------------------------------------------   
18/07/2021 14:14:40[INFO] Ejecutando petrinator para conocer estado de la red...   
--------------------------------------------------------------------------
   

--------------------------------------------------------------------------
   
18/07/2021 14:14:55[INFO] Calculando recompensa..   
18/07/2021 14:14:55[REWARD] Hay menos o igual cantidad de sifones vacios que en el estado anterior, recompensa -1   

--------------------------------------------------------------------------
   
18/07/2021 14:14:55[STATE] Cambie al estado 3: Hay igual cantidad de sifones vacios en deadlock   
+-----------------------------------------------------+--------------------+------------------------+
|                   Estados/Acciones                  | Agregar supervisor | Agregar o quitar arcos |
+-----------------------------------------------------+--------------------+------------------------+
|                        Start                        |        -1.0        |          0.0           |
|        Más sifónes vacíos en estado deadlock        |        0.0         |          0.0           |
|       Menos sifónes vacíos en estado deadlock       |        0.0         |          -1.0          |
| Igual cantidad de sifónes vacíos en estado deadlock |        -1.9        |         -2.71          |
|                         End                         |        0.0         |          0.0           |
+-----------------------------------------------------+--------------------+------------------------+
+----+-----+---------------------------------------------------------------+
| ID | Nro |                             Plazas                            |
+----+-----+---------------------------------------------------------------+
| 61 |  2  |     ['P1', 'P7', 'P10', 'P16', 'P22', 'P26', 'P30', 'P31']    |
| 62 |  33 |        ['P1', 'P7', 'P10', 'P15', 'P22', 'P26', 'P31']        |
| 63 |  37 |     ['P1', 'P7', 'P10', 'P16', 'P22', 'P26', 'P28', 'P31']    |
| 64 |  97 |     ['P2', 'P7', 'P10', 'P15', 'P22', 'P26', 'P31', 'P33']    |
| 65 |  99 | ['P2', 'P7', 'P10', 'P16', 'P22', 'P26', 'P30', 'P31', 'P33'] |
| 66 | 101 | ['P2', 'P7', 'P10', 'P16', 'P22', 'P26', 'P28', 'P31', 'P33'] |
| 67 | 102 |     ['P2', 'P7', 'P10', 'P16', 'P22', 'P26', 'P27', 'P31']    |
+----+-----+---------------------------------------------------------------+
+----+----+----+----+----+----+----+----+----+----+-----+-----+-----+-----+-----+-----+-----+-----+-----+
| T0 | T1 | T2 | T3 | T4 | T5 | T6 | T7 | T8 | T9 | T10 | T11 | T12 | T13 | T14 | T15 | T16 | T17 | T18 |
+----+----+----+----+----+----+----+----+----+----+-----+-----+-----+-----+-----+-----+-----+-----+-----+
| 1  | 1  | 1  | 0  | 0  | 0  | 0  | 0  | 0  | 0  |  0  |  0  |  0  |  0  |  0  |  0  |  0  |  0  |  0  |
| 0  | 0  | 0  | 1  | 1  | 1  | 1  | 0  | 0  | 0  |  1  |  1  |  1  |  1  |  1  |  1  |  1  |  1  |  1  |
+----+----+----+----+----+----+----+----+----+----+-----+-----+-----+-----+-----+-----+-----+-----+-----+
18/07/2021 14:14:55[INFO] Supervisores para agregar   
+-----+---------+----------------------------------+--------------+
|  ID | Marcado |           T - Entrada            |  T - Salida  |
+-----+---------+----------------------------------+--------------+
| P37 |    2    | ['T2', 'T7', 'T9', 'T14', 'T17'] | ['T1', 'T4'] |
| P37 |    1    | ['T2', 'T6', 'T9', 'T13', 'T17'] | ['T1', 'T4'] |
| P37 |    2    | ['T2', 'T6', 'T9', 'T14', 'T17'] | ['T1', 'T4'] |
| P37 |    2    | ['T2', 'T6', 'T9', 'T13', 'T17'] | ['T1', 'T4'] |
| P37 |    3    | ['T2', 'T7', 'T9', 'T14', 'T17'] | ['T1', 'T4'] |
| P37 |    3    | ['T2', 'T6', 'T9', 'T14', 'T17'] | ['T1', 'T4'] |
| P37 |    2    | ['T2', 'T7', 'T9', 'T14', 'T17'] | ['T1', 'T4'] |
+-----+---------+----------------------------------+--------------+
18/07/2021 14:14:55[INFO] Supervisores agregados   
+-----+---------+----------------------------------+--------------+
| Nro | Marcado |           T - Entrada            |  T - Salida  |
+-----+---------+----------------------------------+--------------+
|  1  |    1    |        ['T2', 'T5', 'T9']        | ['T1', 'T4'] |
|  2  |    2    | ['T2', 'T7', 'T9', 'T14', 'T17'] | ['T1', 'T4'] |
|  3  |    1    | ['T2', 'T6', 'T9', 'T13', 'T17'] | ['T1', 'T4'] |
+-----+---------+----------------------------------+--------------+
18/07/2021 14:14:55[INFO] Ejecutando accion...   
18/07/2021 14:14:55[INFO] Ejecutando accion...   
18/07/2021 14:14:55[ACTION] Agrego supervisor aleatorio Numero: 2  

--------------------------------------------------------------------------   
18/07/2021 14:14:55[INFO] Ejecutando petrinator para conocer estado de la red...   
--------------------------------------------------------------------------
   

--------------------------------------------------------------------------
   
18/07/2021 14:15:09[INFO] Calculando recompensa..   
18/07/2021 14:15:09[REWARD] El sifon se controlo correctamente, recompensa -1   

--------------------------------------------------------------------------
   
18/07/2021 14:15:09[STATE] Cambie al estado 3: Hay igual cantidad de sifones vacios en deadlock   
+-----------------------------------------------------+--------------------+------------------------+
|                   Estados/Acciones                  | Agregar supervisor | Agregar o quitar arcos |
+-----------------------------------------------------+--------------------+------------------------+
|                        Start                        |        -1.0        |          0.0           |
|        Más sifónes vacíos en estado deadlock        |        0.0         |          0.0           |
|       Menos sifónes vacíos en estado deadlock       |        0.0         |          -1.0          |
| Igual cantidad de sifónes vacíos en estado deadlock |       -2.71        |         -2.71          |
|                         End                         |        0.0         |          0.0           |
+-----------------------------------------------------+--------------------+------------------------+
+----+-----+---------------------------------------------------------------+
| ID | Nro |                             Plazas                            |
+----+-----+---------------------------------------------------------------+
| 68 |  2  |     ['P1', 'P7', 'P10', 'P16', 'P22', 'P26', 'P30', 'P31']    |
| 69 |  33 |        ['P1', 'P7', 'P10', 'P15', 'P22', 'P26', 'P31']        |
| 70 |  38 |     ['P1', 'P7', 'P10', 'P16', 'P22', 'P26', 'P28', 'P31']    |
| 71 |  98 |     ['P2', 'P7', 'P10', 'P15', 'P22', 'P26', 'P31', 'P33']    |
| 72 | 100 | ['P2', 'P7', 'P10', 'P16', 'P22', 'P26', 'P30', 'P31', 'P33'] |
| 73 | 102 | ['P2', 'P7', 'P10', 'P16', 'P22', 'P26', 'P28', 'P31', 'P33'] |
| 74 | 103 |     ['P2', 'P7', 'P10', 'P16', 'P22', 'P26', 'P27', 'P31']    |
+----+-----+---------------------------------------------------------------+
+----+----+----+----+----+----+----+----+----+----+-----+-----+-----+-----+-----+-----+-----+-----+-----+
| T0 | T1 | T2 | T3 | T4 | T5 | T6 | T7 | T8 | T9 | T10 | T11 | T12 | T13 | T14 | T15 | T16 | T17 | T18 |
+----+----+----+----+----+----+----+----+----+----+-----+-----+-----+-----+-----+-----+-----+-----+-----+
| 1  | 1  | 1  | 0  | 0  | 0  | 0  | 0  | 0  | 0  |  0  |  0  |  0  |  0  |  0  |  0  |  0  |  0  |  0  |
+----+----+----+----+----+----+----+----+----+----+-----+-----+-----+-----+-----+-----+-----+-----+-----+
18/07/2021 14:15:09[INFO] Supervisores para agregar   
+-----+---------+----------------------------------+--------------+
|  ID | Marcado |           T - Entrada            |  T - Salida  |
+-----+---------+----------------------------------+--------------+
| P38 |    2    | ['T2', 'T7', 'T9', 'T14', 'T17'] | ['T1', 'T4'] |
| P38 |    1    | ['T2', 'T6', 'T9', 'T13', 'T17'] | ['T1', 'T4'] |
| P38 |    2    | ['T2', 'T6', 'T9', 'T14', 'T17'] | ['T1', 'T4'] |
| P38 |    2    | ['T2', 'T6', 'T9', 'T13', 'T17'] | ['T1', 'T4'] |
| P38 |    3    | ['T2', 'T7', 'T9', 'T14', 'T17'] | ['T1', 'T4'] |
| P38 |    3    | ['T2', 'T6', 'T9', 'T14', 'T17'] | ['T1', 'T4'] |
| P38 |    2    | ['T2', 'T7', 'T9', 'T14', 'T17'] | ['T1', 'T4'] |
+-----+---------+----------------------------------+--------------+
18/07/2021 14:15:09[INFO] Supervisores agregados   
+-----+---------+----------------------------------+--------------+
| Nro | Marcado |           T - Entrada            |  T - Salida  |
+-----+---------+----------------------------------+--------------+
|  1  |    1    |        ['T2', 'T5', 'T9']        | ['T1', 'T4'] |
|  2  |    2    | ['T2', 'T7', 'T9', 'T14', 'T17'] | ['T1', 'T4'] |
|  3  |    1    | ['T2', 'T6', 'T9', 'T13', 'T17'] | ['T1', 'T4'] |
|  4  |    2    | ['T2', 'T6', 'T9', 'T14', 'T17'] | ['T1', 'T4'] |
+-----+---------+----------------------------------+--------------+
18/07/2021 14:15:09[INFO] Ejecutando accion...   
18/07/2021 14:15:09[ACTION] Agregar o quitar arcos   
18/07/2021 14:15:09[ACTION] Eliminar arco desde T9 hasta P36   
18/07/2021 14:15:09[INFO] Se elimino el arco con metodo 2 desde T9 hasta P36   
18/07/2021 14:15:09[ACTION] Eliminar arco desde T6 hasta P37   
18/07/2021 14:15:09[INFO] Se elimino el arco con metodo 2 desde T6 hasta P37   
18/07/2021 14:15:09[ACTION] Eliminar arco desde T14 hasta P37   
18/07/2021 14:15:09[INFO] Se elimino el arco con metodo 2 desde T14 hasta P37   

--------------------------------------------------------------------------   
18/07/2021 14:15:09[INFO] Ejecutando petrinator para conocer estado de la red...   
--------------------------------------------------------------------------
   

--------------------------------------------------------------------------
   
18/07/2021 14:15:25[INFO] Calculando recompensa..   
18/07/2021 14:15:25[REWARD] No hay mas deadlock, recompensa 100   

--------------------------------------------------------------------------
   
18/07/2021 14:15:25[STATE] Se llego al estado deseado, NO HAY MAS DEADLOCK   

--------------------------------------------------------------------------
   
18/07/2021 14:15:25[STATE] Cambie al estado 2: Hay menos sifones vacios en deadlock   
+-----------------------------------------------------+--------------------+------------------------+
|                   Estados/Acciones                  | Agregar supervisor | Agregar o quitar arcos |
+-----------------------------------------------------+--------------------+------------------------+
|                        Start                        |        -1.0        |          0.0           |
|        Más sifónes vacíos en estado deadlock        |        0.0         |          0.0           |
|       Menos sifónes vacíos en estado deadlock       |        0.0         |          -1.0          |
| Igual cantidad de sifónes vacíos en estado deadlock |       -2.71        |         100.0          |
|                         End                         |        0.0         |          0.0           |
+-----------------------------------------------------+--------------------+------------------------+
