21/07/2021 09:05:29[DEBUG] pflow_file:  ../analysis/analisis_12_20072021/gen_nets1/20210720-191422_12/net.pflow  
21/07/2021 09:05:29[DEBUG] output_folder:  ../analysis/analisis_12_20072021/gen_nets1/20210720-191422_12/  
21/07/2021 09:05:29[DEBUG] html_path:  ../analysis/analisis_12_20072021/gen_nets1/20210720-191422_12/  
21/07/2021 09:05:29[DEBUG] txt_path:  ../analysis/analisis_12_20072021/gen_nets1/20210720-191422_12/txt_info  

--------------------------------------------------------------------------   
21/07/2021 09:05:29[INFO] Ejecutando petrinator para conocer estado de la red...   
--------------------------------------------------------------------------
   
21/07/2021 09:05:33[INFO] Leyendo archivos...   
21/07/2021 09:05:33[ERROR] Se produjo un error inesperado en la ejecucion del petrinator, abandonando analisis 
  
