19/07/2021 23:48:04[DEBUG] pflow_file:  ../analysis/analisis_11_19072021/gen_nets/20210719-224351_41/net.pflow  
19/07/2021 23:48:04[DEBUG] output_folder:  ../analysis/analisis_11_19072021/gen_nets/20210719-224351_41/  
19/07/2021 23:48:04[DEBUG] html_path:  ../analysis/analisis_11_19072021/gen_nets/20210719-224351_41/  
19/07/2021 23:48:04[DEBUG] txt_path:  ../analysis/analisis_11_19072021/gen_nets/20210719-224351_41/txt_info  

--------------------------------------------------------------------------   
19/07/2021 23:48:04[INFO] Ejecutando petrinator para conocer estado de la red...   
--------------------------------------------------------------------------
   
19/07/2021 23:48:09[ERROR] La red ingresada no tiene deadlock, cerrando analisis 
  
