19/06/2021 18:02:52[DEBUG] pflow_file:  ../Prueba/gen_nets/20210619-175223_24/net.pflow  
19/06/2021 18:02:52[DEBUG] output_folder:  ../Prueba/gen_nets/20210619-175223_24/  
19/06/2021 18:02:52[DEBUG] html_path:  ../Prueba/gen_nets/20210619-175223_24/  
19/06/2021 18:02:52[DEBUG] txt_path:  ../Prueba/gen_nets/20210619-175223_24/txt_info  

--------------------------------------------------------------------------   
19/06/2021 18:02:52[INFO] Ejecutando petrinator para conocer estado de la red...   
--------------------------------------------------------------------------
   
19/06/2021 18:02:59[INFO] Leyendo archivos...   
19/06/2021 18:02:59[INFO] Cantidad de estados 1774  
19/06/2021 18:02:59[INFO] Cantidad de transiciones 20  
19/06/2021 18:02:59[INFO] Cantidad de plazas 27  
19/06/2021 18:02:59[INFO] Cantidad de sifones 20  
19/06/2021 18:02:59[INFO] Cantidad de trampas 21  

--------------------------------------------------------------------------
   
19/06/2021 18:02:59[INFO] Cantidad de entrenamientos a realizar:  1  
19/06/2021 18:02:59[INFO] Entrenamiento numero : 0 
 
19/06/2021 18:02:59[INFO] Q-TABLE   
+-----------------------------------------------------+--------------------+------------------------+
|                   Estados/Acciones                  | Agregar supervisor | Agregar o quitar arcos |
+-----------------------------------------------------+--------------------+------------------------+
|                        Start                        |        0.0         |          0.0           |
|        Más sifónes vacíos en estado deadlock        |        0.0         |          0.0           |
|       Menos sifónes vacíos en estado deadlock       |        0.0         |          0.0           |
| Igual cantidad de sifónes vacíos en estado deadlock |        0.0         |          0.0           |
|                         End                         |        0.0         |          0.0           |
+-----------------------------------------------------+--------------------+------------------------+

--------------------------------------------------------------------------   
19/06/2021 18:02:59[INFO] Ejecutando petrinator para conocer estado de la red...   
--------------------------------------------------------------------------
   
19/06/2021 18:03:05[INFO] Importando datos desde html...   
19/06/2021 18:03:06[INFO] Analizando cantidad de supervisores que se pueden agregar...   
19/06/2021 18:03:06[ERROR] marcado: 1 t_in: 3   
19/06/2021 18:03:06[INFO] Cantidad de transiciones: 20  
19/06/2021 18:03:06[INFO] Estados de deadlock : [578, 588]  
19/06/2021 18:03:06[INFO] Cantidad de sifones: 20  
19/06/2021 18:03:06[INFO] Cantidad de sifones vacios en estado de deadlock: 1 
 
19/06/2021 18:03:06[INFO] SIFONES   
+----+-----+------------------------------------------+
| ID | Nro |                  Plazas                  |
+----+-----+------------------------------------------+
| 0  |  3  | ['P3', 'P8', 'P11', 'P14', 'P25', 'P27'] |
+----+-----+------------------------------------------+
19/06/2021 18:03:06[INFO] T INVARIANTES   
+----+----+----+----+----+----+----+----+----+----+-----+-----+-----+-----+-----+-----+-----+-----+-----+-----+
| T0 | T1 | T2 | T3 | T4 | T5 | T6 | T7 | T8 | T9 | T10 | T11 | T12 | T13 | T14 | T15 | T16 | T17 | T18 | T19 |
+----+----+----+----+----+----+----+----+----+----+-----+-----+-----+-----+-----+-----+-----+-----+-----+-----+
| 1  | 1  | 1  | 1  | 1  | 0  | 0  | 0  | 0  | 0  |  0  |  0  |  0  |  0  |  0  |  0  |  0  |  0  |  0  |  0  |
| 0  | 0  | 0  | 0  | 0  | 1  | 1  | 1  | 0  | 0  |  0  |  0  |  0  |  0  |  0  |  0  |  0  |  0  |  0  |  0  |
| 0  | 0  | 0  | 0  | 0  | 0  | 0  | 0  | 1  | 1  |  1  |  1  |  1  |  0  |  0  |  0  |  0  |  0  |  1  |  1  |
| 0  | 0  | 0  | 0  | 0  | 0  | 0  | 0  | 0  | 0  |  0  |  0  |  0  |  1  |  1  |  1  |  1  |  1  |  1  |  1  |
+----+----+----+----+----+----+----+----+----+----+-----+-----+-----+-----+-----+-----+-----+-----+-----+-----+
19/06/2021 18:03:06[INFO] POSIBLES SUPERVISORES A AGREGAR   
+-----+---------+---------------------+---------------------+
|  ID | Marcado |     T - Entrada     |      T - Salida     |
+-----+---------+---------------------+---------------------+
| P28 |    1    | ['T3', 'T8', 'T10'] | ['T1', 'T6', 'T19'] |
+-----+---------+---------------------+---------------------+

--------------------------------------------------------------------------
   
19/06/2021 18:03:06[INFO] Ejecutando accion...   
19/06/2021 18:03:06[ACTION] Agregar supervisor    
19/06/2021 18:03:06[ACTION] Agrego supervisor Numero: 0   

--------------------------------------------------------------------------   
19/06/2021 18:03:06[INFO] Ejecutando petrinator para conocer estado de la red...   
--------------------------------------------------------------------------
   
19/06/2021 18:03:10[INFO] Importando datos desde html...   
19/06/2021 18:03:10[INFO] Analizando cantidad de supervisores que se pueden agregar...   
19/06/2021 18:03:10[ERROR] marcado: 0 t_in: 0   
19/06/2021 18:03:10[INFO] Cantidad de sifones vacios en estado de deadlock ANTES: 1  
19/06/2021 18:03:10[INFO] Cantidad de sifones vacioes en estado de deadlock AHORA: 1  
19/06/2021 18:03:10[INFO] Cantidad de transiciones: 20  
19/06/2021 18:03:10[INFO] Estados de deadlock : [300]  
19/06/2021 18:03:10[INFO] Cantidad de sifones: 25  
19/06/2021 18:03:10[INFO] Cantidad de sifones vacios en estado de deadlock: 1 
 
19/06/2021 18:03:10[INFO] SIFONES   
+----+-----+-----------------------------------------------+
| ID | Nro |                     Plazas                    |
+----+-----+-----------------------------------------------+
| 1  |  11 | ['P1', 'P2', 'P7', 'P8', 'P10', 'P21', 'P28'] |
+----+-----+-----------------------------------------------+
19/06/2021 18:03:10[INFO] T INVARIANTES   
+----+----+----+----+----+----+----+----+----+----+-----+-----+-----+-----+-----+-----+-----+-----+-----+-----+
| T0 | T1 | T2 | T3 | T4 | T5 | T6 | T7 | T8 | T9 | T10 | T11 | T12 | T13 | T14 | T15 | T16 | T17 | T18 | T19 |
+----+----+----+----+----+----+----+----+----+----+-----+-----+-----+-----+-----+-----+-----+-----+-----+-----+
| 1  | 1  | 1  | 1  | 1  | 0  | 0  | 0  | 0  | 0  |  0  |  0  |  0  |  0  |  0  |  0  |  0  |  0  |  0  |  0  |
| 0  | 0  | 0  | 0  | 0  | 1  | 1  | 1  | 0  | 0  |  0  |  0  |  0  |  0  |  0  |  0  |  0  |  0  |  0  |  0  |
| 0  | 0  | 0  | 0  | 0  | 0  | 0  | 0  | 1  | 1  |  1  |  1  |  1  |  0  |  0  |  0  |  0  |  0  |  1  |  1  |
+----+----+----+----+----+----+----+----+----+----+-----+-----+-----+-----+-----+-----+-----+-----+-----+-----+
19/06/2021 18:03:10[INFO] POSIBLES SUPERVISORES A AGREGAR   
+----+---------+-------------+------------+
| ID | Marcado | T - Entrada | T - Salida |
+----+---------+-------------+------------+
+----+---------+-------------+------------+
19/06/2021 18:03:10[INFO] Actualizando estado de la red..   
19/06/2021 18:03:10[STATE] Cambie al estado 3: Hay igual cantidad de sifones vacios en deadlock   

--------------------------------------------------------------------------
   
19/06/2021 18:03:10[INFO] Calculando recompensa..   
19/06/2021 18:03:10[REWARD] El sifon se controlo correctamente, recompensa -1   

--------------------------------------------------------------------------
   
19/06/2021 18:03:10[INFO] NEW Q-TABLE   
+-----------------------------------------------------+--------------------+------------------------+
|                   Estados/Acciones                  | Agregar supervisor | Agregar o quitar arcos |
+-----------------------------------------------------+--------------------+------------------------+
|                        Start                        |        -0.9        |          0.0           |
|        Más sifónes vacíos en estado deadlock        |        0.0         |          0.0           |
|       Menos sifónes vacíos en estado deadlock       |        0.0         |          0.0           |
| Igual cantidad de sifónes vacíos en estado deadlock |        0.0         |          0.0           |
|                         End                         |        0.0         |          0.0           |
+-----------------------------------------------------+--------------------+------------------------+

--------------------------------------------------------------------------
   
19/06/2021 18:03:10[INFO] Ejecutando accion...   
19/06/2021 18:03:10[ACTION] Agregar o quitar arcos   
19/06/2021 18:03:10[ACTION] La transicion en conflicto T14 le tiene que devolver un token al supervisor P28   
19/06/2021 18:03:10[INFO] Se agrego un arco desde T14 hasta P28   

--------------------------------------------------------------------------   
19/06/2021 18:03:10[INFO] Ejecutando petrinator para conocer estado de la red...   
--------------------------------------------------------------------------
   
19/06/2021 18:03:15[INFO] Importando datos desde html...   
19/06/2021 18:03:16[INFO] Analizando cantidad de supervisores que se pueden agregar...   
19/06/2021 18:03:16[INFO] Cantidad de sifones vacios en estado de deadlock ANTES: 1  
19/06/2021 18:03:16[INFO] Cantidad de sifones vacioes en estado de deadlock AHORA: 0  
19/06/2021 18:03:16[INFO] Cantidad de transiciones: 20  
19/06/2021 18:03:16[INFO] Estados de deadlock : []  
19/06/2021 18:03:16[INFO] Cantidad de sifones: 25  
19/06/2021 18:03:16[INFO] Cantidad de sifones vacios en estado de deadlock: 0 
 
19/06/2021 18:03:16[INFO] SIFONES   
+----+-----+--------+
| ID | Nro | Plazas |
+----+-----+--------+
+----+-----+--------+
19/06/2021 18:03:16[INFO] T INVARIANTES   
+----+----+----+----+----+----+----+----+----+----+-----+-----+-----+-----+-----+-----+-----+-----+-----+-----+
| T0 | T1 | T2 | T3 | T4 | T5 | T6 | T7 | T8 | T9 | T10 | T11 | T12 | T13 | T14 | T15 | T16 | T17 | T18 | T19 |
+----+----+----+----+----+----+----+----+----+----+-----+-----+-----+-----+-----+-----+-----+-----+-----+-----+
| 1  | 1  | 1  | 1  | 1  | 0  | 0  | 0  | 0  | 0  |  0  |  0  |  0  |  0  |  0  |  0  |  0  |  0  |  0  |  0  |
| 0  | 0  | 0  | 0  | 0  | 1  | 1  | 1  | 0  | 0  |  0  |  0  |  0  |  0  |  0  |  0  |  0  |  0  |  0  |  0  |
| 0  | 0  | 0  | 0  | 0  | 0  | 0  | 0  | 1  | 1  |  1  |  1  |  1  |  0  |  0  |  0  |  0  |  0  |  1  |  1  |
| 0  | 0  | 0  | 0  | 0  | 0  | 0  | 0  | 0  | 0  |  0  |  0  |  0  |  1  |  1  |  1  |  1  |  1  |  1  |  1  |
+----+----+----+----+----+----+----+----+----+----+-----+-----+-----+-----+-----+-----+-----+-----+-----+-----+
19/06/2021 18:03:16[INFO] POSIBLES SUPERVISORES A AGREGAR   
+----+---------+-------------+------------+
| ID | Marcado | T - Entrada | T - Salida |
+----+---------+-------------+------------+
+----+---------+-------------+------------+
19/06/2021 18:03:16[INFO] Actualizando estado de la red..   
19/06/2021 18:03:16[STATE] Cambie al estado 2: Hay menos sifones vacios en deadlock   

--------------------------------------------------------------------------
   
19/06/2021 18:03:16[INFO] Calculando recompensa..   
19/06/2021 18:03:16[REWARD] No hay mas deadlock, recompensa 100   

--------------------------------------------------------------------------
   
19/06/2021 18:03:16[INFO] NEW Q-TABLE   
+-----------------------------------------------------+--------------------+------------------------+
|                   Estados/Acciones                  | Agregar supervisor | Agregar o quitar arcos |
+-----------------------------------------------------+--------------------+------------------------+
|                        Start                        |        -0.9        |          0.0           |
|        Más sifónes vacíos en estado deadlock        |        0.0         |          0.0           |
|       Menos sifónes vacíos en estado deadlock       |        0.0         |          0.0           |
| Igual cantidad de sifónes vacíos en estado deadlock |        0.0         |          90.0          |
|                         End                         |        0.0         |          0.0           |
+-----------------------------------------------------+--------------------+------------------------+

--------------------------------------------------------------------------
   
19/06/2021 18:03:16[STATE] Se llego al estado deseado, NO HAY MAS DEADLOCK   

--------------------------------------------------------------------------
   
19/06/2021 18:03:16[INFO] Training complete! 
  
