 Minimal siphons 
17 19
15 18
3 8 11 14 25 27
2 8 11 25
14 20
1 8 26
7 8 9
1 7 24
2 5
1 2 7 24
1 28 2 7 8 10 21
1 2 7 8 24
2 5 7 8 24
2 5 7 8 9
2 3 5
1 2 3 7 24
1 2 3 4 6
3 8 10 14 27
2 3 5 8 26
1 2 3 8 26
1 2 3 7 8 24
1 2 3 4 6 7 8 9
2 3 5 7 8 24
2 3 5 7 8 9
10 11 12 13 14 15 16 17 21 22 23
 Minimal traps 
1 7 24
2 8 10 14 25 27
3 8 10 14 27
14 20
17 19
15 18
7 8 9
10 11 12 13 14 15 16 17 21 22 23
2 5
2 8 11 25
2 5 7 8 9
2 8 10 11 25
1 8 26
1 2 5
1 2 3 4 6
1 2 8 11 25
1 2 8 10 11 25
1 2 7 8 11 25
1 2 5 7 8 9
1 2 3 4 6 7 8 9
1 28 2 7 8 10 21
1 2 7 8 10 11 25
 Analysis time: 0.397s