18/09/2021 16:52:15[DEBUG] pflow_file:  ../analysis/analisis_19/20210918-141253_5/net.pflow  
18/09/2021 16:52:15[DEBUG] output_folder:  ../analysis/analisis_19/20210918-141253_5/  
18/09/2021 16:52:15[DEBUG] html_path:  ../analysis/analisis_19/20210918-141253_5/  
18/09/2021 16:52:15[DEBUG] txt_path:  ../analysis/analisis_19/20210918-141253_5/txt_info  

--------------------------------------------------------------------------   
18/09/2021 16:52:15[INFO] Ejecutando petrinator para conocer estado de la red...   
--------------------------------------------------------------------------
   
18/09/2021 16:52:34[INFO] SIFONES   
+----+-----+--------------------------------------------------------+
| ID | Nro |                         Plazas                         |
+----+-----+--------------------------------------------------------+
| 0  |  1  | ['P3', 'P8', 'P12', 'P20', 'P26', 'P32', 'P33', 'P34'] |
| 1  | 640 | ['P3', 'P8', 'P12', 'P19', 'P26', 'P32', 'P34', 'P35'] |
| 2  |  82 | ['P2', 'P8', 'P12', 'P19', 'P22', 'P26', 'P34', 'P35'] |
+----+-----+--------------------------------------------------------+ 

18/09/2021 16:52:34[INFO] T INVARIANTES   
+----+----+----+----+----+----+----+----+----+----+-----+-----+-----+-----+-----+-----+-----+-----+-----+-----+-----+-----+-----+
| T0 | T1 | T2 | T3 | T4 | T5 | T6 | T7 | T8 | T9 | T10 | T11 | T12 | T13 | T14 | T15 | T16 | T17 | T18 | T19 | T20 | T21 | T22 |
+----+----+----+----+----+----+----+----+----+----+-----+-----+-----+-----+-----+-----+-----+-----+-----+-----+-----+-----+-----+
| 1  | 1  | 1  | 1  | 0  | 0  | 0  | 0  | 0  | 0  |  0  |  0  |  0  |  0  |  0  |  0  |  0  |  0  |  0  |  0  |  0  |  0  |  0  |
| 0  | 0  | 0  | 0  | 1  | 1  | 1  | 1  | 0  | 0  |  0  |  1  |  1  |  0  |  0  |  0  |  0  |  0  |  0  |  0  |  0  |  0  |  0  |
| 0  | 0  | 0  | 0  | 0  | 0  | 0  | 0  | 1  | 1  |  1  |  1  |  1  |  0  |  0  |  0  |  0  |  0  |  0  |  0  |  0  |  0  |  0  |
| 0  | 0  | 0  | 0  | 0  | 0  | 0  | 0  | 0  | 0  |  0  |  0  |  0  |  1  |  1  |  1  |  1  |  1  |  0  |  0  |  0  |  1  |  1  |
| 0  | 0  | 0  | 0  | 0  | 0  | 0  | 0  | 0  | 0  |  0  |  0  |  0  |  0  |  0  |  0  |  0  |  0  |  1  |  1  |  1  |  1  |  1  |
+----+----+----+----+----+----+----+----+----+----+-----+-----+-----+-----+-----+-----+-----+-----+-----+-----+-----+-----+-----+ 

18/09/2021 16:52:34[INFO] Supervisores para agregar   
+-----+---------+----------------------+---------------------+--------------------------------------------------------+
|  ID | Marcado |     T - Entrada      |      T - Salida     |                   Sifon a controlar                    |
+-----+---------+----------------------+---------------------+--------------------------------------------------------+
| P36 |    2    | ['T3', 'T10', 'T17'] | ['T1', 'T9', 'T15'] | ['P3', 'P8', 'P12', 'P20', 'P26', 'P32', 'P33', 'P34'] |
| P36 |    2    | ['T3', 'T10', 'T16'] | ['T1', 'T9', 'T14'] | ['P3', 'P8', 'P12', 'P19', 'P26', 'P32', 'P34', 'P35'] |
| P36 |    2    | ['T2', 'T10', 'T16'] | ['T1', 'T9', 'T14'] | ['P2', 'P8', 'P12', 'P19', 'P22', 'P26', 'P34', 'P35'] |
+-----+---------+----------------------+---------------------+--------------------------------------------------------+ 

18/09/2021 16:52:34[INFO] Supervisores agregados   
+-----+-------+---------+-------------+------------+----------------+
| Nro | Plaza | Marcado | T - Entrada | T - Salida | MAL supervisor |
+-----+-------+---------+-------------+------------+----------------+
+-----+-------+---------+-------------+------------+----------------+ 

18/09/2021 16:52:34[INFO] Supervisores eliminados   
+-----+-------+---------+-------------+------------+----------------+
| Nro | Plaza | Marcado | T - Entrada | T - Salida | MAL supervisor |
+-----+-------+---------+-------------+------------+----------------+
+-----+-------+---------+-------------+------------+----------------+ 

18/09/2021 16:52:34[INFO] Ejecutando accion...   
18/09/2021 16:52:34[ACTION] Agrego supervisor con menor numero de arcos de salida (MNAS)   
18/09/2021 16:52:34[INFO] Supervisor con menor cantidad de arcos de salida agregado 0   

--------------------------------------------------------------------------   
18/09/2021 16:52:34[INFO] Ejecutando petrinator para conocer estado de la red...   
--------------------------------------------------------------------------
   
--------------------------------------------------------------------------
   
18/09/2021 16:53:06[INFO] Calculando recompensa..   
18/09/2021 16:53:06[REWARD] Agregue un supervisor que genero menos sifones vacios en deadlock, recompensa -1   

--------------------------------------------------------------------------
   
18/09/2021 16:53:06[STATE] Cambie al estado 3: Hay igual cantidad de sifones vacios en deadlock   
+--------+---------+-------------------+----------------+---------+---------+------------------------+
| Plazas | Estados | Tokens trabajando | Sifones vacios | Sifones | Trampas | Supervisores agregados |
+--------+---------+-------------------+----------------+---------+---------+------------------------+
|   36   |   865   |        2939       |       3        |   1533  |   113   |           1            |
+--------+---------+-------------------+----------------+---------+---------+------------------------+ 
+------------------------------+------------+-----------------+--------------------+-----------------------+
|       Estados/Acciones       | + sup MNAS | + sup aleatorio | - sup MAL agregado | - ultimo sup agregado |
+------------------------------+------------+-----------------+--------------------+-----------------------+
|            Start             |    -1.0    |       0.0       |        0.0         |          0.0          |
| + sifónes vacíos en deadlock |    0.0     |       0.0       |        0.0         |          0.0          |
| - sifónes vacíos en deadlock |    0.0     |       0.0       |        0.0         |          0.0          |
| = sifónes vacíos en deadlock |    0.0     |       0.0       |        0.0         |          0.0          |
|             End              |    0.0     |       0.0       |        0.0         |          0.0          |
+------------------------------+------------+-----------------+--------------------+-----------------------+ 

18/09/2021 16:53:06[INFO] SIFONES   
+----+-----+--------------------------------------------------------+
| ID | Nro |                         Plazas                         |
+----+-----+--------------------------------------------------------+
| 3  | 119 | ['P2', 'P8', 'P12', 'P19', 'P22', 'P26', 'P34', 'P35'] |
| 4  | 185 | ['P2', 'P8', 'P12', 'P19', 'P26', 'P34', 'P35', 'P36'] |
| 5  | 871 | ['P3', 'P8', 'P12', 'P19', 'P26', 'P32', 'P34', 'P35'] |
+----+-----+--------------------------------------------------------+ 

18/09/2021 16:53:06[INFO] T INVARIANTES   
+----+----+----+----+----+----+----+----+----+----+-----+-----+-----+-----+-----+-----+-----+-----+-----+-----+-----+-----+-----+
| T0 | T1 | T2 | T3 | T4 | T5 | T6 | T7 | T8 | T9 | T10 | T11 | T12 | T13 | T14 | T15 | T16 | T17 | T18 | T19 | T20 | T21 | T22 |
+----+----+----+----+----+----+----+----+----+----+-----+-----+-----+-----+-----+-----+-----+-----+-----+-----+-----+-----+-----+
| 1  | 1  | 1  | 1  | 0  | 0  | 0  | 0  | 0  | 0  |  0  |  0  |  0  |  0  |  0  |  0  |  0  |  0  |  0  |  0  |  0  |  0  |  0  |
| 0  | 0  | 0  | 0  | 1  | 1  | 1  | 1  | 0  | 0  |  0  |  1  |  1  |  0  |  0  |  0  |  0  |  0  |  0  |  0  |  0  |  0  |  0  |
| 0  | 0  | 0  | 0  | 0  | 0  | 0  | 0  | 1  | 1  |  1  |  1  |  1  |  0  |  0  |  0  |  0  |  0  |  0  |  0  |  0  |  0  |  0  |
| 0  | 0  | 0  | 0  | 0  | 0  | 0  | 0  | 0  | 0  |  0  |  0  |  0  |  1  |  1  |  1  |  1  |  1  |  0  |  0  |  0  |  1  |  1  |
| 0  | 0  | 0  | 0  | 0  | 0  | 0  | 0  | 0  | 0  |  0  |  0  |  0  |  0  |  0  |  0  |  0  |  0  |  1  |  1  |  1  |  1  |  1  |
+----+----+----+----+----+----+----+----+----+----+-----+-----+-----+-----+-----+-----+-----+-----+-----+-----+-----+-----+-----+ 

18/09/2021 16:53:06[INFO] Supervisores para agregar   
+-----+---------+----------------------+---------------------+--------------------------------------------------------+
|  ID | Marcado |     T - Entrada      |      T - Salida     |                   Sifon a controlar                    |
+-----+---------+----------------------+---------------------+--------------------------------------------------------+
| P37 |    2    | ['T2', 'T10', 'T16'] | ['T1', 'T9', 'T14'] | ['P2', 'P8', 'P12', 'P19', 'P22', 'P26', 'P34', 'P35'] |
| P37 |    1    | ['T2', 'T10', 'T17'] | ['T1', 'T9', 'T14'] | ['P2', 'P8', 'P12', 'P19', 'P26', 'P34', 'P35', 'P36'] |
| P37 |    2    | ['T3', 'T10', 'T16'] | ['T1', 'T9', 'T14'] | ['P3', 'P8', 'P12', 'P19', 'P26', 'P32', 'P34', 'P35'] |
+-----+---------+----------------------+---------------------+--------------------------------------------------------+ 

18/09/2021 16:53:06[INFO] Supervisores agregados   
+-----+-------+---------+----------------------+---------------------+----------------+
| Nro | Plaza | Marcado |     T - Entrada      |      T - Salida     | MAL supervisor |
+-----+-------+---------+----------------------+---------------------+----------------+
|  1  |  P36  |    2    | ['T3', 'T10', 'T17'] | ['T1', 'T9', 'T15'] |     False      |
+-----+-------+---------+----------------------+---------------------+----------------+ 

18/09/2021 16:53:06[INFO] Supervisores eliminados   
+-----+-------+---------+-------------+------------+----------------+
| Nro | Plaza | Marcado | T - Entrada | T - Salida | MAL supervisor |
+-----+-------+---------+-------------+------------+----------------+
+-----+-------+---------+-------------+------------+----------------+ 

18/09/2021 16:53:06[INFO] Ejecutando accion...   
18/09/2021 16:53:06[ACTION] Agrego supervisor con menor numero de arcos de salida (MNAS)   
18/09/2021 16:53:06[INFO] Supervisor con menor cantidad de arcos de salida agregado 0   

--------------------------------------------------------------------------   
18/09/2021 16:53:06[INFO] Ejecutando petrinator para conocer estado de la red...   
--------------------------------------------------------------------------
   
--------------------------------------------------------------------------
   
18/09/2021 16:53:47[INFO] Calculando recompensa..   
18/09/2021 16:53:47[REWARD] No hay mas deadlock, recompensa 100   

--------------------------------------------------------------------------
   
18/09/2021 16:53:47[STATE] Se llego al estado deseado, NO HAY MAS DEADLOCK   

--------------------------------------------------------------------------
   
+--------+---------+-------------------+----------------+---------+---------+------------------------+
| Plazas | Estados | Tokens trabajando | Sifones vacios | Sifones | Trampas | Supervisores agregados |
+--------+---------+-------------------+----------------+---------+---------+------------------------+
|   36   |   865   |        2939       |       3        |   1533  |   113   |           1            |
|   37   |   860   |        2921       |       0        |   2252  |   115   |           2            |
+--------+---------+-------------------+----------------+---------+---------+------------------------+ 
+------------------------------+------------+-----------------+--------------------+-----------------------+
|       Estados/Acciones       | + sup MNAS | + sup aleatorio | - sup MAL agregado | - ultimo sup agregado |
+------------------------------+------------+-----------------+--------------------+-----------------------+
|            Start             |    -1.0    |       0.0       |        0.0         |          0.0          |
| + sifónes vacíos en deadlock |    0.0     |       0.0       |        0.0         |          0.0          |
| - sifónes vacíos en deadlock |    0.0     |       0.0       |        0.0         |          0.0          |
| = sifónes vacíos en deadlock |   100.0    |       0.0       |        0.0         |          0.0          |
|             End              |    0.0     |       0.0       |        0.0         |          0.0          |
+------------------------------+------------+-----------------+--------------------+-----------------------+ 

18/09/2021 16:53:47[INFO] Comienza proceso de eliminacion de supervisores redundantes   
18/09/2021 16:53:47[INFO] Supervisor a eliminar   
+-----+-------+---------+----------------------+---------------------+----------------+
| Nro | Plaza | Marcado |     T - Entrada      |      T - Salida     | MAL supervisor |
+-----+-------+---------+----------------------+---------------------+----------------+
|  1  |  P36  |    2    | ['T3', 'T10', 'T17'] | ['T1', 'T9', 'T15'] |     False      |
+-----+-------+---------+----------------------+---------------------+----------------+ 
18/09/2021 16:53:47[INFO] Eliminando supervisor ...   

--------------------------------------------------------------------------   
18/09/2021 16:53:47[INFO] Ejecutando petrinator para conocer estado de la red...   
--------------------------------------------------------------------------
   
18/09/2021 16:54:16[INFO] El supervisor eliminado no era redundante, volviendo a agregar supervisor   
18/09/2021 16:54:16[INFO] Se volvio a agregar correctamente el supervisor eliminado   

--------------------------------------------------------------------------   
18/09/2021 16:54:16[INFO] Ejecutando petrinator para conocer estado de la red...   
--------------------------------------------------------------------------
   
18/09/2021 16:54:53[INFO] Supervisor a eliminar   
+-----+-------+---------+----------------------+---------------------+----------------+
| Nro | Plaza | Marcado |     T - Entrada      |      T - Salida     | MAL supervisor |
+-----+-------+---------+----------------------+---------------------+----------------+
|  2  |  P37  |    2    | ['T2', 'T10', 'T16'] | ['T1', 'T9', 'T14'] |     False      |
+-----+-------+---------+----------------------+---------------------+----------------+ 
18/09/2021 16:54:53[INFO] Eliminando supervisor ...   

--------------------------------------------------------------------------   
18/09/2021 16:54:53[INFO] Ejecutando petrinator para conocer estado de la red...   
--------------------------------------------------------------------------
   
18/09/2021 16:55:18[INFO] El supervisor eliminado no era redundante, volviendo a agregar supervisor   
18/09/2021 16:55:18[INFO] Se volvio a agregar correctamente el supervisor eliminado   

--------------------------------------------------------------------------   
18/09/2021 16:55:18[INFO] Ejecutando petrinator para conocer estado de la red...   
--------------------------------------------------------------------------
   
18/09/2021 16:55:55[INFO] Se eliminaron todos los supervisores redundantes   
+--------+---------+-------------------+----------------+---------+---------+------------------------+-------------------------+
| Plazas | Estados | Tokens trabajando | Sifones vacios | Sifones | Trampas | Supervisores agregados | Supervisores eliminados |
+--------+---------+-------------------+----------------+---------+---------+------------------------+-------------------------+
|   37   |   860   |        2921       |       0        |   2252  |   115   |           2            |            0            |
+--------+---------+-------------------+----------------+---------+---------+------------------------+-------------------------+ 
