21/06/2021 12:48:59[DEBUG] pflow_file:  ../analisis_3_20062021/gen_nets/20210621-121849_9/net.pflow  
21/06/2021 12:48:59[DEBUG] output_folder:  ../analisis_3_20062021/gen_nets/20210621-121849_9/  
21/06/2021 12:48:59[DEBUG] html_path:  ../analisis_3_20062021/gen_nets/20210621-121849_9/  
21/06/2021 12:48:59[DEBUG] txt_path:  ../analisis_3_20062021/gen_nets/20210621-121849_9/txt_info  

--------------------------------------------------------------------------   
21/06/2021 12:48:59[INFO] Ejecutando petrinator para conocer estado de la red...   
--------------------------------------------------------------------------
   
21/06/2021 12:49:01[ERROR] La red ingresada no es S3PR, cerrando analisis 
  
