07/07/2021 20:07:54[DEBUG] pflow_file:  ../analysis/analisis_lucas/20210707-190718_7/net.pflow  
07/07/2021 20:07:54[DEBUG] output_folder:  ../analysis/analisis_lucas/20210707-190718_7/  
07/07/2021 20:07:54[DEBUG] html_path:  ../analysis/analisis_lucas/20210707-190718_7/  
07/07/2021 20:07:54[DEBUG] txt_path:  ../analysis/analisis_lucas/20210707-190718_7/txt_info  

--------------------------------------------------------------------------   
07/07/2021 20:07:54[INFO] Ejecutando petrinator para conocer estado de la red...   
--------------------------------------------------------------------------
   
+----+------+----------------------------------------------------------------------------+
| ID | Nro  |                                   Plazas                                   |
+----+------+----------------------------------------------------------------------------+
| 0  | 201  |               ['P3', 'P8', 'P9', 'P15', 'P25', 'P33', 'P37']               |
| 1  | 215  |           ['P3', 'P8', 'P9', 'P15', 'P16', 'P25', 'P33', 'P37']            |
| 2  | 224  |        ['P3', 'P8', 'P9', 'P15', 'P16', 'P17', 'P25', 'P33', 'P37']        |
| 3  | 240  |           ['P3', 'P8', 'P9', 'P10', 'P15', 'P25', 'P33', 'P37']            |
| 4  | 254  |        ['P3', 'P8', 'P9', 'P10', 'P15', 'P16', 'P25', 'P33', 'P37']        |
| 5  | 278  |        ['P3', 'P8', 'P9', 'P10', 'P11', 'P15', 'P25', 'P33', 'P37']        |
| 6  | 292  |    ['P3', 'P8', 'P9', 'P10', 'P11', 'P15', 'P16', 'P25', 'P33', 'P37']     |
| 7  | 692  |           ['P4', 'P8', 'P9', 'P15', 'P25', 'P33', 'P34', 'P37']            |
| 8  | 724  |           ['P4', 'P8', 'P9', 'P15', 'P25', 'P31', 'P33', 'P37']            |
| 9  | 725  |            ['P3', 'P4', 'P8', 'P9', 'P15', 'P25', 'P33', 'P37']            |
| 10 | 756  |        ['P4', 'P8', 'P9', 'P15', 'P16', 'P25', 'P33', 'P34', 'P37']        |
| 11 | 758  |        ['P4', 'P8', 'P9', 'P15', 'P16', 'P25', 'P31', 'P33', 'P37']        |
| 12 | 759  |        ['P3', 'P4', 'P8', 'P9', 'P15', 'P16', 'P25', 'P33', 'P37']         |
| 13 | 802  |    ['P4', 'P8', 'P9', 'P15', 'P16', 'P17', 'P25', 'P33', 'P34', 'P37']     |
| 14 | 804  |    ['P4', 'P8', 'P9', 'P15', 'P16', 'P17', 'P25', 'P31', 'P33', 'P37']     |
| 15 | 805  |     ['P3', 'P4', 'P8', 'P9', 'P15', 'P16', 'P17', 'P25', 'P33', 'P37']     |
| 16 | 880  |        ['P4', 'P8', 'P9', 'P10', 'P15', 'P25', 'P33', 'P34', 'P37']        |
| 17 | 912  |        ['P4', 'P8', 'P9', 'P10', 'P15', 'P25', 'P31', 'P33', 'P37']        |
| 18 | 913  |        ['P3', 'P4', 'P8', 'P9', 'P10', 'P15', 'P25', 'P33', 'P37']         |
| 19 | 944  |    ['P4', 'P8', 'P9', 'P10', 'P15', 'P16', 'P25', 'P33', 'P34', 'P37']     |
| 20 | 946  |    ['P4', 'P8', 'P9', 'P10', 'P15', 'P16', 'P25', 'P31', 'P33', 'P37']     |
| 21 | 947  |     ['P3', 'P4', 'P8', 'P9', 'P10', 'P15', 'P16', 'P25', 'P33', 'P37']     |
| 22 | 1042 |    ['P4', 'P8', 'P9', 'P10', 'P11', 'P15', 'P25', 'P33', 'P34', 'P37']     |
| 23 | 1074 |    ['P4', 'P8', 'P9', 'P10', 'P11', 'P15', 'P25', 'P31', 'P33', 'P37']     |
| 24 | 1075 |     ['P3', 'P4', 'P8', 'P9', 'P10', 'P11', 'P15', 'P25', 'P33', 'P37']     |
| 25 | 1106 | ['P4', 'P8', 'P9', 'P10', 'P11', 'P15', 'P16', 'P25', 'P33', 'P34', 'P37'] |
| 26 | 1108 | ['P4', 'P8', 'P9', 'P10', 'P11', 'P15', 'P16', 'P25', 'P31', 'P33', 'P37'] |
| 27 | 1109 | ['P3', 'P4', 'P8', 'P9', 'P10', 'P11', 'P15', 'P16', 'P25', 'P33', 'P37']  |
| 28 | 363  |    ['P3', 'P8', 'P11', 'P15', 'P17', 'P22', 'P25', 'P29', 'P33', 'P36']    |
| 29 | 200  |               ['P3', 'P8', 'P9', 'P16', 'P25', 'P30', 'P33']               |
| 30 | 218  |           ['P3', 'P8', 'P9', 'P16', 'P17', 'P25', 'P30', 'P33']            |
| 31 | 239  |           ['P3', 'P8', 'P9', 'P10', 'P16', 'P25', 'P30', 'P33']            |
| 32 | 277  |        ['P3', 'P8', 'P9', 'P10', 'P11', 'P16', 'P25', 'P30', 'P33']        |
| 33 | 348  |        ['P3', 'P8', 'P9', 'P11', 'P17', 'P25', 'P29', 'P30', 'P33']        |
| 34 | 774  |            ['P3', 'P4', 'P8', 'P9', 'P16', 'P25', 'P30', 'P33']            |
| 35 | 820  |        ['P3', 'P4', 'P8', 'P9', 'P16', 'P17', 'P25', 'P30', 'P33']         |
| 36 | 962  |        ['P3', 'P4', 'P8', 'P9', 'P10', 'P16', 'P25', 'P30', 'P33']         |
| 37 | 1124 |     ['P3', 'P4', 'P8', 'P9', 'P10', 'P11', 'P16', 'P25', 'P30', 'P33']     |
+----+------+----------------------------------------------------------------------------+
+----+----+----+----+----+----+----+----+----+----+-----+-----+-----+-----+-----+-----+-----+-----+-----+-----+-----+-----+
| T0 | T1 | T2 | T3 | T4 | T5 | T6 | T7 | T8 | T9 | T10 | T11 | T12 | T13 | T14 | T15 | T16 | T17 | T18 | T19 | T20 | T21 |
+----+----+----+----+----+----+----+----+----+----+-----+-----+-----+-----+-----+-----+-----+-----+-----+-----+-----+-----+
| 1  | 1  | 1  | 1  | 1  | 0  | 0  | 0  | 0  | 0  |  0  |  0  |  0  |  0  |  0  |  0  |  0  |  0  |  0  |  0  |  0  |  0  |
| 0  | 0  | 0  | 0  | 0  | 1  | 1  | 1  | 1  | 1  |  1  |  1  |  0  |  0  |  0  |  0  |  0  |  1  |  1  |  1  |  1  |  1  |
| 0  | 0  | 0  | 0  | 0  | 1  | 1  | 1  | 0  | 0  |  0  |  0  |  1  |  1  |  1  |  1  |  1  |  1  |  1  |  1  |  1  |  1  |
+----+----+----+----+----+----+----+----+----+----+-----+-----+-----+-----+-----+-----+-----+-----+-----+-----+-----+-----+
+-----+---------+------------------------------------------------+--------------+
|  ID | Marcado |                  T - Entrada                   |  T - Salida  |
+-----+---------+------------------------------------------------+--------------+
| P38 |    1    |           ['T3', 'T7', 'T10', 'T14']           | ['T1', 'T6'] |
| P38 |    1    |       ['T3', 'T7', 'T10', 'T14', 'T15']        | ['T1', 'T6'] |
| P38 |    1    |       ['T3', 'T7', 'T10', 'T14', 'T15']        | ['T1', 'T6'] |
| P38 |    1    |           ['T3', 'T7', 'T10', 'T14']           | ['T1', 'T6'] |
| P38 |    1    |       ['T3', 'T7', 'T10', 'T14', 'T15']        | ['T1', 'T6'] |
| P38 |    1    |           ['T3', 'T7', 'T10', 'T14']           | ['T1', 'T6'] |
| P38 |    1    |       ['T3', 'T7', 'T10', 'T14', 'T15']        | ['T1', 'T6'] |
| P38 |    2    |           ['T4', 'T7', 'T10', 'T14']           | ['T1', 'T6'] |
| P38 |    2    |           ['T4', 'T7', 'T10', 'T14']           | ['T1', 'T6'] |
| P38 |    1    |        ['T3', 'T4', 'T7', 'T10', 'T14']        | ['T1', 'T6'] |
| P38 |    2    |       ['T4', 'T7', 'T10', 'T14', 'T15']        | ['T1', 'T6'] |
| P38 |    2    |       ['T4', 'T7', 'T10', 'T14', 'T15']        | ['T1', 'T6'] |
| P38 |    1    |    ['T3', 'T4', 'T7', 'T10', 'T14', 'T15']     | ['T1', 'T6'] |
| P38 |    2    |       ['T4', 'T7', 'T10', 'T14', 'T15']        | ['T1', 'T6'] |
| P38 |    2    |       ['T4', 'T7', 'T10', 'T14', 'T15']        | ['T1', 'T6'] |
| P38 |    1    |    ['T3', 'T4', 'T7', 'T10', 'T14', 'T15']     | ['T1', 'T6'] |
| P38 |    2    |           ['T4', 'T7', 'T10', 'T14']           | ['T1', 'T6'] |
| P38 |    2    |           ['T4', 'T7', 'T10', 'T14']           | ['T1', 'T6'] |
| P38 |    1    |        ['T3', 'T4', 'T7', 'T10', 'T14']        | ['T1', 'T6'] |
| P38 |    2    |       ['T4', 'T7', 'T10', 'T14', 'T15']        | ['T1', 'T6'] |
| P38 |    2    |       ['T4', 'T7', 'T10', 'T14', 'T15']        | ['T1', 'T6'] |
| P38 |    1    |    ['T3', 'T4', 'T7', 'T10', 'T14', 'T15']     | ['T1', 'T6'] |
| P38 |    2    |           ['T4', 'T7', 'T10', 'T14']           | ['T1', 'T6'] |
| P38 |    2    |           ['T4', 'T7', 'T10', 'T14']           | ['T1', 'T6'] |
| P38 |    1    |        ['T3', 'T4', 'T7', 'T10', 'T14']        | ['T1', 'T6'] |
| P38 |    2    |       ['T4', 'T7', 'T10', 'T14', 'T15']        | ['T1', 'T6'] |
| P38 |    2    |       ['T4', 'T7', 'T10', 'T14', 'T15']        | ['T1', 'T6'] |
| P38 |    1    |    ['T3', 'T4', 'T7', 'T10', 'T14', 'T15']     | ['T1', 'T6'] |
| P38 |    2    |       ['T3', 'T8', 'T11', 'T17', 'T21']        | ['T1', 'T6'] |
| P38 |    1    |       ['T3', 'T8', 'T10', 'T15', 'T21']        | ['T1', 'T6'] |
| P38 |    1    |    ['T3', 'T8', 'T10', 'T15', 'T16', 'T21']    | ['T1', 'T6'] |
| P38 |    1    |       ['T3', 'T8', 'T10', 'T15', 'T21']        | ['T1', 'T6'] |
| P38 |    1    |       ['T3', 'T8', 'T10', 'T15', 'T21']        | ['T1', 'T6'] |
| P38 |    2    |       ['T3', 'T8', 'T10', 'T16', 'T21']        | ['T1', 'T6'] |
| P38 |    1    |    ['T3', 'T4', 'T8', 'T10', 'T15', 'T21']     | ['T1', 'T6'] |
| P38 |    1    | ['T3', 'T4', 'T8', 'T10', 'T15', 'T16', 'T21'] | ['T1', 'T6'] |
| P38 |    1    |    ['T3', 'T4', 'T8', 'T10', 'T15', 'T21']     | ['T1', 'T6'] |
| P38 |    1    |    ['T3', 'T4', 'T8', 'T10', 'T15', 'T21']     | ['T1', 'T6'] |
+-----+---------+------------------------------------------------+--------------+
07/07/2021 20:08:28[INFO] Ejecutando accion...   
07/07/2021 20:08:28[INFO] Ejecutando accion...   
07/07/2021 20:08:28[ACTION] Agrego supervisor aleatorio Numero: 9  

--------------------------------------------------------------------------   
07/07/2021 20:08:28[INFO] Ejecutando petrinator para conocer estado de la red...   
--------------------------------------------------------------------------
   

--------------------------------------------------------------------------
   
07/07/2021 20:09:14[INFO] Calculando recompensa..   
07/07/2021 20:09:14[REWARD] El sifon se controlo correctamente, recompensa -1   

--------------------------------------------------------------------------
   
07/07/2021 20:09:14[STATE] Cambie al estado 3: Hay igual cantidad de sifones vacios en deadlock   
+----+------+----------------------------------------------------------------------------+
| ID | Nro  |                                   Plazas                                   |
+----+------+----------------------------------------------------------------------------+
| 38 | 256  |               ['P3', 'P8', 'P9', 'P15', 'P25', 'P33', 'P37']               |
| 39 | 276  |           ['P3', 'P8', 'P9', 'P15', 'P16', 'P25', 'P33', 'P37']            |
| 40 | 287  |        ['P3', 'P8', 'P9', 'P15', 'P16', 'P17', 'P25', 'P33', 'P37']        |
| 41 | 306  |           ['P3', 'P8', 'P9', 'P10', 'P15', 'P25', 'P33', 'P37']            |
| 42 | 326  |        ['P3', 'P8', 'P9', 'P10', 'P15', 'P16', 'P25', 'P33', 'P37']        |
| 43 | 356  |        ['P3', 'P8', 'P9', 'P10', 'P11', 'P15', 'P25', 'P33', 'P37']        |
| 44 | 376  |    ['P3', 'P8', 'P9', 'P10', 'P11', 'P15', 'P16', 'P25', 'P33', 'P37']     |
| 45 | 938  |           ['P4', 'P8', 'P9', 'P15', 'P25', 'P33', 'P34', 'P37']            |
| 46 | 975  |           ['P4', 'P8', 'P9', 'P15', 'P25', 'P31', 'P33', 'P37']            |
| 47 | 976  |            ['P3', 'P4', 'P8', 'P9', 'P15', 'P25', 'P33', 'P37']            |
| 48 | 1009 |        ['P4', 'P8', 'P9', 'P15', 'P16', 'P25', 'P33', 'P34', 'P37']        |
| 49 | 1011 |        ['P4', 'P8', 'P9', 'P15', 'P16', 'P25', 'P31', 'P33', 'P37']        |
| 50 | 1012 |        ['P3', 'P4', 'P8', 'P9', 'P15', 'P16', 'P25', 'P33', 'P37']         |
| 51 | 1057 |    ['P4', 'P8', 'P9', 'P15', 'P16', 'P17', 'P25', 'P33', 'P34', 'P37']     |
| 52 | 1059 |    ['P4', 'P8', 'P9', 'P15', 'P16', 'P17', 'P25', 'P31', 'P33', 'P37']     |
| 53 | 1060 |     ['P3', 'P4', 'P8', 'P9', 'P15', 'P16', 'P17', 'P25', 'P33', 'P37']     |
| 54 | 1138 |        ['P4', 'P8', 'P9', 'P10', 'P15', 'P25', 'P33', 'P34', 'P37']        |
| 55 | 1175 |        ['P4', 'P8', 'P9', 'P10', 'P15', 'P25', 'P31', 'P33', 'P37']        |
| 56 | 1176 |        ['P3', 'P4', 'P8', 'P9', 'P10', 'P15', 'P25', 'P33', 'P37']         |
| 57 | 1209 |    ['P4', 'P8', 'P9', 'P10', 'P15', 'P16', 'P25', 'P33', 'P34', 'P37']     |
| 58 | 1211 |    ['P4', 'P8', 'P9', 'P10', 'P15', 'P16', 'P25', 'P31', 'P33', 'P37']     |
| 59 | 1212 |     ['P3', 'P4', 'P8', 'P9', 'P10', 'P15', 'P16', 'P25', 'P33', 'P37']     |
| 60 | 1314 |    ['P4', 'P8', 'P9', 'P10', 'P11', 'P15', 'P25', 'P33', 'P34', 'P37']     |
| 61 | 1351 |    ['P4', 'P8', 'P9', 'P10', 'P11', 'P15', 'P25', 'P31', 'P33', 'P37']     |
| 62 | 1352 |     ['P3', 'P4', 'P8', 'P9', 'P10', 'P11', 'P15', 'P25', 'P33', 'P37']     |
| 63 | 1385 | ['P4', 'P8', 'P9', 'P10', 'P11', 'P15', 'P16', 'P25', 'P33', 'P34', 'P37'] |
| 64 | 1387 | ['P4', 'P8', 'P9', 'P10', 'P11', 'P15', 'P16', 'P25', 'P31', 'P33', 'P37'] |
| 65 | 1388 | ['P3', 'P4', 'P8', 'P9', 'P10', 'P11', 'P15', 'P16', 'P25', 'P33', 'P37']  |
| 66 | 465  |    ['P3', 'P8', 'P11', 'P15', 'P17', 'P22', 'P25', 'P29', 'P33', 'P36']    |
| 67 | 255  |               ['P3', 'P8', 'P9', 'P16', 'P25', 'P30', 'P33']               |
| 68 | 279  |           ['P3', 'P8', 'P9', 'P16', 'P17', 'P25', 'P30', 'P33']            |
| 69 | 305  |           ['P3', 'P8', 'P9', 'P10', 'P16', 'P25', 'P30', 'P33']            |
| 70 | 355  |        ['P3', 'P8', 'P9', 'P10', 'P11', 'P16', 'P25', 'P30', 'P33']        |
| 71 | 450  |        ['P3', 'P8', 'P9', 'P11', 'P17', 'P25', 'P29', 'P30', 'P33']        |
| 72 | 1027 |            ['P3', 'P4', 'P8', 'P9', 'P16', 'P25', 'P30', 'P33']            |
| 73 | 1075 |        ['P3', 'P4', 'P8', 'P9', 'P16', 'P17', 'P25', 'P30', 'P33']         |
| 74 | 1227 |        ['P3', 'P4', 'P8', 'P9', 'P10', 'P16', 'P25', 'P30', 'P33']         |
| 75 | 1403 |     ['P3', 'P4', 'P8', 'P9', 'P10', 'P11', 'P16', 'P25', 'P30', 'P33']     |
+----+------+----------------------------------------------------------------------------+
++
||
++
++
+-----+---------+------------------------------------------------+--------------+
|  ID | Marcado |                  T - Entrada                   |  T - Salida  |
+-----+---------+------------------------------------------------+--------------+
| P39 |    1    |           ['T3', 'T7', 'T10', 'T14']           | ['T1', 'T6'] |
| P39 |    1    |       ['T3', 'T7', 'T10', 'T14', 'T15']        | ['T1', 'T6'] |
| P39 |    1    |       ['T3', 'T7', 'T10', 'T14', 'T15']        | ['T1', 'T6'] |
| P39 |    1    |           ['T3', 'T7', 'T10', 'T14']           | ['T1', 'T6'] |
| P39 |    1    |       ['T3', 'T7', 'T10', 'T14', 'T15']        | ['T1', 'T6'] |
| P39 |    1    |           ['T3', 'T7', 'T10', 'T14']           | ['T1', 'T6'] |
| P39 |    1    |       ['T3', 'T7', 'T10', 'T14', 'T15']        | ['T1', 'T6'] |
| P39 |    2    |           ['T4', 'T7', 'T10', 'T14']           | ['T1', 'T6'] |
| P39 |    2    |           ['T4', 'T7', 'T10', 'T14']           | ['T1', 'T6'] |
| P39 |    1    |        ['T3', 'T4', 'T7', 'T10', 'T14']        | ['T1', 'T6'] |
| P39 |    2    |       ['T4', 'T7', 'T10', 'T14', 'T15']        | ['T1', 'T6'] |
| P39 |    2    |       ['T4', 'T7', 'T10', 'T14', 'T15']        | ['T1', 'T6'] |
| P39 |    1    |    ['T3', 'T4', 'T7', 'T10', 'T14', 'T15']     | ['T1', 'T6'] |
| P39 |    2    |       ['T4', 'T7', 'T10', 'T14', 'T15']        | ['T1', 'T6'] |
| P39 |    2    |       ['T4', 'T7', 'T10', 'T14', 'T15']        | ['T1', 'T6'] |
| P39 |    1    |    ['T3', 'T4', 'T7', 'T10', 'T14', 'T15']     | ['T1', 'T6'] |
| P39 |    2    |           ['T4', 'T7', 'T10', 'T14']           | ['T1', 'T6'] |
| P39 |    2    |           ['T4', 'T7', 'T10', 'T14']           | ['T1', 'T6'] |
| P39 |    1    |        ['T3', 'T4', 'T7', 'T10', 'T14']        | ['T1', 'T6'] |
| P39 |    2    |       ['T4', 'T7', 'T10', 'T14', 'T15']        | ['T1', 'T6'] |
| P39 |    2    |       ['T4', 'T7', 'T10', 'T14', 'T15']        | ['T1', 'T6'] |
| P39 |    1    |    ['T3', 'T4', 'T7', 'T10', 'T14', 'T15']     | ['T1', 'T6'] |
| P39 |    2    |           ['T4', 'T7', 'T10', 'T14']           | ['T1', 'T6'] |
| P39 |    2    |           ['T4', 'T7', 'T10', 'T14']           | ['T1', 'T6'] |
| P39 |    1    |        ['T3', 'T4', 'T7', 'T10', 'T14']        | ['T1', 'T6'] |
| P39 |    2    |       ['T4', 'T7', 'T10', 'T14', 'T15']        | ['T1', 'T6'] |
| P39 |    2    |       ['T4', 'T7', 'T10', 'T14', 'T15']        | ['T1', 'T6'] |
| P39 |    1    |    ['T3', 'T4', 'T7', 'T10', 'T14', 'T15']     | ['T1', 'T6'] |
| P39 |    2    |       ['T3', 'T8', 'T11', 'T17', 'T21']        | ['T1', 'T6'] |
| P39 |    1    |       ['T3', 'T8', 'T10', 'T15', 'T21']        | ['T1', 'T6'] |
| P39 |    1    |    ['T3', 'T8', 'T10', 'T15', 'T16', 'T21']    | ['T1', 'T6'] |
| P39 |    1    |       ['T3', 'T8', 'T10', 'T15', 'T21']        | ['T1', 'T6'] |
| P39 |    1    |       ['T3', 'T8', 'T10', 'T15', 'T21']        | ['T1', 'T6'] |
| P39 |    2    |       ['T3', 'T8', 'T10', 'T16', 'T21']        | ['T1', 'T6'] |
| P39 |    1    |    ['T3', 'T4', 'T8', 'T10', 'T15', 'T21']     | ['T1', 'T6'] |
| P39 |    1    | ['T3', 'T4', 'T8', 'T10', 'T15', 'T16', 'T21'] | ['T1', 'T6'] |
| P39 |    1    |    ['T3', 'T4', 'T8', 'T10', 'T15', 'T21']     | ['T1', 'T6'] |
| P39 |    1    |    ['T3', 'T4', 'T8', 'T10', 'T15', 'T21']     | ['T1', 'T6'] |
+-----+---------+------------------------------------------------+--------------+
07/07/2021 20:09:14[INFO] Ejecutando accion...   
07/07/2021 20:09:14[ACTION] Agregar o quitar arcos   
07/07/2021 20:09:14[ACTION] Eliminar arco desde T3 hasta P38   
07/07/2021 20:09:14[INFO] Se elimino el arco con metodo 2 desde T3 hasta P38   
07/07/2021 20:09:14[ACTION] Eliminar arco desde T7 hasta P38   
07/07/2021 20:09:14[INFO] Se elimino el arco con metodo 2 desde T7 hasta P38   

--------------------------------------------------------------------------   
07/07/2021 20:09:14[INFO] Ejecutando petrinator para conocer estado de la red...   
--------------------------------------------------------------------------
   

--------------------------------------------------------------------------
   
07/07/2021 20:09:58[INFO] Calculando recompensa..   
07/07/2021 20:09:58[REWARD] Hay menos o igual cantidad de sifones vacios que en el estado anterior, recompensa -1   

--------------------------------------------------------------------------
   
07/07/2021 20:09:58[STATE] Cambie al estado 2: Hay menos sifones vacios en deadlock   
+----+------+--------------------------------------------------------------------+
| ID | Nro  |                               Plazas                               |
+----+------+--------------------------------------------------------------------+
| 76 | 258  |           ['P3', 'P8', 'P9', 'P16', 'P25', 'P30', 'P33']           |
| 77 | 282  |       ['P3', 'P8', 'P9', 'P16', 'P17', 'P25', 'P30', 'P33']        |
| 78 | 308  |       ['P3', 'P8', 'P9', 'P10', 'P16', 'P25', 'P30', 'P33']        |
| 79 | 358  |    ['P3', 'P8', 'P9', 'P10', 'P11', 'P16', 'P25', 'P30', 'P33']    |
| 80 | 453  |    ['P3', 'P8', 'P9', 'P11', 'P17', 'P25', 'P29', 'P30', 'P33']    |
| 81 | 992  |        ['P3', 'P4', 'P8', 'P9', 'P16', 'P25', 'P30', 'P33']        |
| 82 | 1040 |    ['P3', 'P4', 'P8', 'P9', 'P16', 'P17', 'P25', 'P30', 'P33']     |
| 83 | 1192 |    ['P3', 'P4', 'P8', 'P9', 'P10', 'P16', 'P25', 'P30', 'P33']     |
| 84 | 1368 | ['P3', 'P4', 'P8', 'P9', 'P10', 'P11', 'P16', 'P25', 'P30', 'P33'] |
+----+------+--------------------------------------------------------------------+
+----+----+----+----+----+----+----+----+----+----+-----+-----+-----+-----+-----+-----+-----+-----+-----+-----+-----+-----+
| T0 | T1 | T2 | T3 | T4 | T5 | T6 | T7 | T8 | T9 | T10 | T11 | T12 | T13 | T14 | T15 | T16 | T17 | T18 | T19 | T20 | T21 |
+----+----+----+----+----+----+----+----+----+----+-----+-----+-----+-----+-----+-----+-----+-----+-----+-----+-----+-----+
| 1  | 1  | 1  | 1  | 1  | 0  | 0  | 0  | 0  | 0  |  0  |  0  |  0  |  0  |  0  |  0  |  0  |  0  |  0  |  0  |  0  |  0  |
| 0  | 0  | 0  | 0  | 0  | 1  | 1  | 1  | 1  | 1  |  1  |  1  |  0  |  0  |  0  |  0  |  0  |  1  |  1  |  1  |  1  |  1  |
| 0  | 0  | 0  | 0  | 0  | 1  | 1  | 1  | 0  | 0  |  0  |  0  |  1  |  1  |  1  |  1  |  1  |  1  |  1  |  1  |  1  |  1  |
+----+----+----+----+----+----+----+----+----+----+-----+-----+-----+-----+-----+-----+-----+-----+-----+-----+-----+-----+
+-----+---------+------------------------------------------------+--------------+
|  ID | Marcado |                  T - Entrada                   |  T - Salida  |
+-----+---------+------------------------------------------------+--------------+
| P39 |    1    |       ['T3', 'T8', 'T10', 'T15', 'T21']        | ['T1', 'T6'] |
| P39 |    1    |    ['T3', 'T8', 'T10', 'T15', 'T16', 'T21']    | ['T1', 'T6'] |
| P39 |    1    |       ['T3', 'T8', 'T10', 'T15', 'T21']        | ['T1', 'T6'] |
| P39 |    1    |       ['T3', 'T8', 'T10', 'T15', 'T21']        | ['T1', 'T6'] |
| P39 |    2    |       ['T3', 'T8', 'T10', 'T16', 'T21']        | ['T1', 'T6'] |
| P39 |    1    |    ['T3', 'T4', 'T8', 'T10', 'T15', 'T21']     | ['T1', 'T6'] |
| P39 |    1    | ['T3', 'T4', 'T8', 'T10', 'T15', 'T16', 'T21'] | ['T1', 'T6'] |
| P39 |    1    |    ['T3', 'T4', 'T8', 'T10', 'T15', 'T21']     | ['T1', 'T6'] |
| P39 |    1    |    ['T3', 'T4', 'T8', 'T10', 'T15', 'T21']     | ['T1', 'T6'] |
+-----+---------+------------------------------------------------+--------------+
07/07/2021 20:09:58[INFO] Ejecutando accion...   
07/07/2021 20:09:58[ACTION] Agregar o quitar arcos   

--------------------------------------------------------------------------   
07/07/2021 20:09:58[INFO] Ejecutando petrinator para conocer estado de la red...   
--------------------------------------------------------------------------
   

--------------------------------------------------------------------------
   
07/07/2021 20:10:44[INFO] Calculando recompensa..   
07/07/2021 20:10:44[REWARD] Hay menos o igual cantidad de sifones vacios que en el estado anterior, recompensa -1   

--------------------------------------------------------------------------
   
07/07/2021 20:10:44[STATE] Cambie al estado 3: Hay igual cantidad de sifones vacios en deadlock   
+----+------+--------------------------------------------------------------------+
| ID | Nro  |                               Plazas                               |
+----+------+--------------------------------------------------------------------+
| 85 | 258  |           ['P3', 'P8', 'P9', 'P16', 'P25', 'P30', 'P33']           |
| 86 | 282  |       ['P3', 'P8', 'P9', 'P16', 'P17', 'P25', 'P30', 'P33']        |
| 87 | 308  |       ['P3', 'P8', 'P9', 'P10', 'P16', 'P25', 'P30', 'P33']        |
| 88 | 358  |    ['P3', 'P8', 'P9', 'P10', 'P11', 'P16', 'P25', 'P30', 'P33']    |
| 89 | 453  |    ['P3', 'P8', 'P9', 'P11', 'P17', 'P25', 'P29', 'P30', 'P33']    |
| 90 | 992  |        ['P3', 'P4', 'P8', 'P9', 'P16', 'P25', 'P30', 'P33']        |
| 91 | 1040 |    ['P3', 'P4', 'P8', 'P9', 'P16', 'P17', 'P25', 'P30', 'P33']     |
| 92 | 1192 |    ['P3', 'P4', 'P8', 'P9', 'P10', 'P16', 'P25', 'P30', 'P33']     |
| 93 | 1368 | ['P3', 'P4', 'P8', 'P9', 'P10', 'P11', 'P16', 'P25', 'P30', 'P33'] |
+----+------+--------------------------------------------------------------------+
+----+----+----+----+----+----+----+----+----+----+-----+-----+-----+-----+-----+-----+-----+-----+-----+-----+-----+-----+
| T0 | T1 | T2 | T3 | T4 | T5 | T6 | T7 | T8 | T9 | T10 | T11 | T12 | T13 | T14 | T15 | T16 | T17 | T18 | T19 | T20 | T21 |
+----+----+----+----+----+----+----+----+----+----+-----+-----+-----+-----+-----+-----+-----+-----+-----+-----+-----+-----+
| 1  | 1  | 1  | 1  | 1  | 0  | 0  | 0  | 0  | 0  |  0  |  0  |  0  |  0  |  0  |  0  |  0  |  0  |  0  |  0  |  0  |  0  |
| 0  | 0  | 0  | 0  | 0  | 1  | 1  | 1  | 1  | 1  |  1  |  1  |  0  |  0  |  0  |  0  |  0  |  1  |  1  |  1  |  1  |  1  |
| 0  | 0  | 0  | 0  | 0  | 1  | 1  | 1  | 0  | 0  |  0  |  0  |  1  |  1  |  1  |  1  |  1  |  1  |  1  |  1  |  1  |  1  |
+----+----+----+----+----+----+----+----+----+----+-----+-----+-----+-----+-----+-----+-----+-----+-----+-----+-----+-----+
+-----+---------+------------------------------------------------+--------------+
|  ID | Marcado |                  T - Entrada                   |  T - Salida  |
+-----+---------+------------------------------------------------+--------------+
| P39 |    1    |       ['T3', 'T8', 'T10', 'T15', 'T21']        | ['T1', 'T6'] |
| P39 |    1    |    ['T3', 'T8', 'T10', 'T15', 'T16', 'T21']    | ['T1', 'T6'] |
| P39 |    1    |       ['T3', 'T8', 'T10', 'T15', 'T21']        | ['T1', 'T6'] |
| P39 |    1    |       ['T3', 'T8', 'T10', 'T15', 'T21']        | ['T1', 'T6'] |
| P39 |    2    |       ['T3', 'T8', 'T10', 'T16', 'T21']        | ['T1', 'T6'] |
| P39 |    1    |    ['T3', 'T4', 'T8', 'T10', 'T15', 'T21']     | ['T1', 'T6'] |
| P39 |    1    | ['T3', 'T4', 'T8', 'T10', 'T15', 'T16', 'T21'] | ['T1', 'T6'] |
| P39 |    1    |    ['T3', 'T4', 'T8', 'T10', 'T15', 'T21']     | ['T1', 'T6'] |
| P39 |    1    |    ['T3', 'T4', 'T8', 'T10', 'T15', 'T21']     | ['T1', 'T6'] |
+-----+---------+------------------------------------------------+--------------+
07/07/2021 20:10:44[INFO] Ejecutando accion...   
07/07/2021 20:10:44[INFO] Ejecutando accion...   
07/07/2021 20:10:44[ACTION] Agrego supervisor aleatorio Numero: 7  

--------------------------------------------------------------------------   
07/07/2021 20:10:44[INFO] Ejecutando petrinator para conocer estado de la red...   
--------------------------------------------------------------------------
   

--------------------------------------------------------------------------
   
07/07/2021 20:11:38[INFO] Calculando recompensa..   
07/07/2021 20:11:38[REWARD] El sifon se controlo correctamente, recompensa -1   

--------------------------------------------------------------------------
   
07/07/2021 20:11:38[STATE] Cambie al estado 3: Hay igual cantidad de sifones vacios en deadlock   
+-----+------+--------------------------------------------------------------------+
|  ID | Nro  |                               Plazas                               |
+-----+------+--------------------------------------------------------------------+
|  94 | 258  |           ['P3', 'P8', 'P9', 'P16', 'P25', 'P30', 'P33']           |
|  95 | 282  |       ['P3', 'P8', 'P9', 'P16', 'P17', 'P25', 'P30', 'P33']        |
|  96 | 308  |       ['P3', 'P8', 'P9', 'P10', 'P16', 'P25', 'P30', 'P33']        |
|  97 | 358  |    ['P3', 'P8', 'P9', 'P10', 'P11', 'P16', 'P25', 'P30', 'P33']    |
|  98 | 453  |    ['P3', 'P8', 'P9', 'P11', 'P17', 'P25', 'P29', 'P30', 'P33']    |
|  99 | 993  |        ['P3', 'P4', 'P8', 'P9', 'P16', 'P25', 'P30', 'P33']        |
| 100 | 1041 |    ['P3', 'P4', 'P8', 'P9', 'P16', 'P17', 'P25', 'P30', 'P33']     |
| 101 | 1193 |    ['P3', 'P4', 'P8', 'P9', 'P10', 'P16', 'P25', 'P30', 'P33']     |
| 102 | 1369 | ['P3', 'P4', 'P8', 'P9', 'P10', 'P11', 'P16', 'P25', 'P30', 'P33'] |
+-----+------+--------------------------------------------------------------------+
++
||
++
++
+-----+---------+------------------------------------------------+--------------+
|  ID | Marcado |                  T - Entrada                   |  T - Salida  |
+-----+---------+------------------------------------------------+--------------+
| P40 |    1    |       ['T3', 'T8', 'T10', 'T15', 'T21']        | ['T1', 'T6'] |
| P40 |    1    |    ['T3', 'T8', 'T10', 'T15', 'T16', 'T21']    | ['T1', 'T6'] |
| P40 |    1    |       ['T3', 'T8', 'T10', 'T15', 'T21']        | ['T1', 'T6'] |
| P40 |    1    |       ['T3', 'T8', 'T10', 'T15', 'T21']        | ['T1', 'T6'] |
| P40 |    2    |       ['T3', 'T8', 'T10', 'T16', 'T21']        | ['T1', 'T6'] |
| P40 |    1    |    ['T3', 'T4', 'T8', 'T10', 'T15', 'T21']     | ['T1', 'T6'] |
| P40 |    1    | ['T3', 'T4', 'T8', 'T10', 'T15', 'T16', 'T21'] | ['T1', 'T6'] |
| P40 |    1    |    ['T3', 'T4', 'T8', 'T10', 'T15', 'T21']     | ['T1', 'T6'] |
| P40 |    1    |    ['T3', 'T4', 'T8', 'T10', 'T15', 'T21']     | ['T1', 'T6'] |
+-----+---------+------------------------------------------------+--------------+
07/07/2021 20:11:38[INFO] Ejecutando accion...   
07/07/2021 20:11:38[ACTION] Agregar o quitar arcos   
07/07/2021 20:11:38[ACTION] Eliminar arco desde T3 hasta P39   
07/07/2021 20:11:38[INFO] Se elimino el arco con metodo 2 desde T3 hasta P39   
07/07/2021 20:11:38[ACTION] Eliminar arco desde T8 hasta P39   
07/07/2021 20:11:38[INFO] Se elimino el arco con metodo 2 desde T8 hasta P39   
07/07/2021 20:11:38[ACTION] Eliminar arco desde T15 hasta P39   
07/07/2021 20:11:38[INFO] Se elimino el arco con metodo 2 desde T15 hasta P39   

--------------------------------------------------------------------------   
07/07/2021 20:11:38[INFO] Ejecutando petrinator para conocer estado de la red...   
--------------------------------------------------------------------------
   

--------------------------------------------------------------------------
   
07/07/2021 20:12:27[INFO] Calculando recompensa..   
07/07/2021 20:12:27[REWARD] Hay menos o igual cantidad de sifones vacios que en el estado anterior, recompensa -1   

--------------------------------------------------------------------------
   
07/07/2021 20:12:27[STATE] Cambie al estado 3: Hay igual cantidad de sifones vacios en deadlock   
+-----+------+--------------------------------------------------------------------+
|  ID | Nro  |                               Plazas                               |
+-----+------+--------------------------------------------------------------------+
| 103 | 258  |           ['P3', 'P8', 'P9', 'P16', 'P25', 'P30', 'P33']           |
| 104 | 282  |       ['P3', 'P8', 'P9', 'P16', 'P17', 'P25', 'P30', 'P33']        |
| 105 | 308  |       ['P3', 'P8', 'P9', 'P10', 'P16', 'P25', 'P30', 'P33']        |
| 106 | 358  |    ['P3', 'P8', 'P9', 'P10', 'P11', 'P16', 'P25', 'P30', 'P33']    |
| 107 | 453  |    ['P3', 'P8', 'P9', 'P11', 'P17', 'P25', 'P29', 'P30', 'P33']    |
| 108 | 995  |        ['P3', 'P4', 'P8', 'P9', 'P16', 'P25', 'P30', 'P33']        |
| 109 | 1043 |    ['P3', 'P4', 'P8', 'P9', 'P16', 'P17', 'P25', 'P30', 'P33']     |
| 110 | 1195 |    ['P3', 'P4', 'P8', 'P9', 'P10', 'P16', 'P25', 'P30', 'P33']     |
| 111 | 1371 | ['P3', 'P4', 'P8', 'P9', 'P10', 'P11', 'P16', 'P25', 'P30', 'P33'] |
+-----+------+--------------------------------------------------------------------+
+----+----+----+----+----+----+----+----+----+----+-----+-----+-----+-----+-----+-----+-----+-----+-----+-----+-----+-----+
| T0 | T1 | T2 | T3 | T4 | T5 | T6 | T7 | T8 | T9 | T10 | T11 | T12 | T13 | T14 | T15 | T16 | T17 | T18 | T19 | T20 | T21 |
+----+----+----+----+----+----+----+----+----+----+-----+-----+-----+-----+-----+-----+-----+-----+-----+-----+-----+-----+
| 1  | 1  | 1  | 1  | 1  | 0  | 0  | 0  | 0  | 0  |  0  |  0  |  0  |  0  |  0  |  0  |  0  |  0  |  0  |  0  |  0  |  0  |
| 0  | 0  | 0  | 0  | 0  | 1  | 1  | 1  | 0  | 0  |  0  |  0  |  1  |  1  |  1  |  1  |  1  |  1  |  1  |  1  |  1  |  1  |
+----+----+----+----+----+----+----+----+----+----+-----+-----+-----+-----+-----+-----+-----+-----+-----+-----+-----+-----+
+-----+---------+------------------------------------------------+--------------+
|  ID | Marcado |                  T - Entrada                   |  T - Salida  |
+-----+---------+------------------------------------------------+--------------+
| P40 |    1    |       ['T3', 'T8', 'T10', 'T15', 'T21']        | ['T1', 'T6'] |
| P40 |    1    |    ['T3', 'T8', 'T10', 'T15', 'T16', 'T21']    | ['T1', 'T6'] |
| P40 |    1    |       ['T3', 'T8', 'T10', 'T15', 'T21']        | ['T1', 'T6'] |
| P40 |    1    |       ['T3', 'T8', 'T10', 'T15', 'T21']        | ['T1', 'T6'] |
| P40 |    2    |       ['T3', 'T8', 'T10', 'T16', 'T21']        | ['T1', 'T6'] |
| P40 |    1    |    ['T3', 'T4', 'T8', 'T10', 'T15', 'T21']     | ['T1', 'T6'] |
| P40 |    1    | ['T3', 'T4', 'T8', 'T10', 'T15', 'T16', 'T21'] | ['T1', 'T6'] |
| P40 |    1    |    ['T3', 'T4', 'T8', 'T10', 'T15', 'T21']     | ['T1', 'T6'] |
| P40 |    1    |    ['T3', 'T4', 'T8', 'T10', 'T15', 'T21']     | ['T1', 'T6'] |
+-----+---------+------------------------------------------------+--------------+
07/07/2021 20:12:27[INFO] Ejecutando accion...   
07/07/2021 20:12:27[INFO] Ejecutando accion...   
07/07/2021 20:12:27[ACTION] Agrego supervisor aleatorio Numero: 0  

--------------------------------------------------------------------------   
07/07/2021 20:12:27[INFO] Ejecutando petrinator para conocer estado de la red...   
--------------------------------------------------------------------------
   

--------------------------------------------------------------------------
   
07/07/2021 20:13:33[INFO] Calculando recompensa..   
07/07/2021 20:13:33[REWARD] El sifon se controlo correctamente, recompensa -1   

--------------------------------------------------------------------------
   
07/07/2021 20:13:33[STATE] Cambie al estado 3: Hay igual cantidad de sifones vacios en deadlock   
+-----+------+--------------------------------------------------------------------+
|  ID | Nro  |                               Plazas                               |
+-----+------+--------------------------------------------------------------------+
| 112 | 259  |           ['P3', 'P8', 'P9', 'P16', 'P25', 'P30', 'P33']           |
| 113 | 283  |       ['P3', 'P8', 'P9', 'P16', 'P17', 'P25', 'P30', 'P33']        |
| 114 | 309  |       ['P3', 'P8', 'P9', 'P10', 'P16', 'P25', 'P30', 'P33']        |
| 115 | 359  |    ['P3', 'P8', 'P9', 'P10', 'P11', 'P16', 'P25', 'P30', 'P33']    |
| 116 | 454  |    ['P3', 'P8', 'P9', 'P11', 'P17', 'P25', 'P29', 'P30', 'P33']    |
| 117 | 996  |        ['P3', 'P4', 'P8', 'P9', 'P16', 'P25', 'P30', 'P33']        |
| 118 | 1044 |    ['P3', 'P4', 'P8', 'P9', 'P16', 'P17', 'P25', 'P30', 'P33']     |
| 119 | 1196 |    ['P3', 'P4', 'P8', 'P9', 'P10', 'P16', 'P25', 'P30', 'P33']     |
| 120 | 1372 | ['P3', 'P4', 'P8', 'P9', 'P10', 'P11', 'P16', 'P25', 'P30', 'P33'] |
+-----+------+--------------------------------------------------------------------+
+----+----+----+----+----+----+----+----+----+----+-----+-----+-----+-----+-----+-----+-----+-----+-----+-----+-----+-----+
| T0 | T1 | T2 | T3 | T4 | T5 | T6 | T7 | T8 | T9 | T10 | T11 | T12 | T13 | T14 | T15 | T16 | T17 | T18 | T19 | T20 | T21 |
+----+----+----+----+----+----+----+----+----+----+-----+-----+-----+-----+-----+-----+-----+-----+-----+-----+-----+-----+
| 1  | 1  | 1  | 1  | 1  | 0  | 0  | 0  | 0  | 0  |  0  |  0  |  0  |  0  |  0  |  0  |  0  |  0  |  0  |  0  |  0  |  0  |
+----+----+----+----+----+----+----+----+----+----+-----+-----+-----+-----+-----+-----+-----+-----+-----+-----+-----+-----+
+-----+---------+------------------------------------------------+--------------+
|  ID | Marcado |                  T - Entrada                   |  T - Salida  |
+-----+---------+------------------------------------------------+--------------+
| P41 |    1    |       ['T3', 'T8', 'T10', 'T15', 'T21']        | ['T1', 'T6'] |
| P41 |    1    |    ['T3', 'T8', 'T10', 'T15', 'T16', 'T21']    | ['T1', 'T6'] |
| P41 |    1    |       ['T3', 'T8', 'T10', 'T15', 'T21']        | ['T1', 'T6'] |
| P41 |    1    |       ['T3', 'T8', 'T10', 'T15', 'T21']        | ['T1', 'T6'] |
| P41 |    2    |       ['T3', 'T8', 'T10', 'T16', 'T21']        | ['T1', 'T6'] |
| P41 |    1    |    ['T3', 'T4', 'T8', 'T10', 'T15', 'T21']     | ['T1', 'T6'] |
| P41 |    1    | ['T3', 'T4', 'T8', 'T10', 'T15', 'T16', 'T21'] | ['T1', 'T6'] |
| P41 |    1    |    ['T3', 'T4', 'T8', 'T10', 'T15', 'T21']     | ['T1', 'T6'] |
| P41 |    1    |    ['T3', 'T4', 'T8', 'T10', 'T15', 'T21']     | ['T1', 'T6'] |
+-----+---------+------------------------------------------------+--------------+
07/07/2021 20:13:33[INFO] Ejecutando accion...   
07/07/2021 20:13:33[ACTION] Agregar o quitar arcos   
07/07/2021 20:13:33[ACTION] Eliminar arco desde T10 hasta P39   
07/07/2021 20:13:33[INFO] Se elimino el arco con metodo 2 desde T10 hasta P39   
07/07/2021 20:13:33[ACTION] Eliminar arco desde T8 hasta P40   
07/07/2021 20:13:33[INFO] Se elimino el arco con metodo 2 desde T8 hasta P40   
07/07/2021 20:13:33[ACTION] Eliminar arco desde T15 hasta P40   
07/07/2021 20:13:33[INFO] Se elimino el arco con metodo 2 desde T15 hasta P40   

--------------------------------------------------------------------------   
07/07/2021 20:13:33[INFO] Ejecutando petrinator para conocer estado de la red...   
--------------------------------------------------------------------------
   

--------------------------------------------------------------------------
   
07/07/2021 20:14:47[INFO] Calculando recompensa..   
07/07/2021 20:14:47[REWARD] No hay mas deadlock, recompensa 100   

--------------------------------------------------------------------------
   
07/07/2021 20:14:47[STATE] Se llego al estado deseado, NO HAY MAS DEADLOCK   

--------------------------------------------------------------------------
   
07/07/2021 20:14:47[STATE] Cambie al estado 2: Hay menos sifones vacios en deadlock   
