 Minimal siphons 
3 14 16 25
2 14 23
1 7 14 16 24 26
16 17
12 15 22
7 9
6 10
5 14 21
29 5 6 13
5 6 7 8 11
12 13 14 15 16 18 19 20
1 6 14 24
1 7 13 16 26
1 7 9 14 24
1 6 7 14 24
1 7 10 14 16 21 26
1 2 6 14 24
1 2 7 9 14 24
1 2 6 7 14 24
1 2 3 4
1 2 3 4 7 9
1 2 3 4 6 7 10
1 2 3 4 5 6 7 8 11
2 3 14 23
1 2 3 7 9 14 24
1 2 3 6 14 24
1 2 3 4 5 14 21
1 2 3 4 6 10 14 21
1 2 3 4 5 6 14 21
1 2 3 6 7 14 24
1 2 3 4 6 7 10 14 21
1 2 3 4 5 6 7 14 21
1 2 3 4 7 9 10 14 21
1 2 3 4 5 7 9 14 21
1 29 2 3 4 5 7 9 13 14
1 29 2 3 4 5 7 8 9 13 14
29 2 3 5 6 14 15 16 18 19 20 23
1 29 2 3 4 5 7 9 13 14 15 16 22
1 29 2 3 4 5 7 9 13 14 15 16 18 19 20
1 29 2 3 4 5 7 8 9 13 14 15 16 22
1 29 2 3 4 5 7 8 9 13 14 15 16 18 19 20
29 2 3 5 6 7 14 15 16 18 19 20 23
 Minimal traps 
12 15 22
1 5 13 16 21 24 26
5 14 21
6 10
7 9
2 14 23
3 14 16 25
16 17
29 5 13 21
5 6 10
5 6 7 9
5 6 7 8 11
29 5 6 13
1 6 13 16 24 26
1 7 13 16 26
1 2 3 4
1 2 3 4 7 9
1 6 14 24
1 2 3 4 6 10
1 2 3 4 6 7 9
1 2 3 4 5 6 10
1 2 3 4 5 6 7 9
1 2 3 4 5 6 7 8 11
1 5 10 13 16 21 26
1 29 2 5 13 16 21 23 25
1 29 2 3 5 13 16 21 25
2 12 13 14 23
3 12 13 14 16 25
2 3 12 13 14 16 25
1 29 2 5 12 13 16 21 23 25
1 29 2 3 5 12 13 16 21 25
2 12 13 14 15 16 23 25
3 12 13 14 15 16 25
12 13 14 15 16 18 19 20
2 3 12 13 14 15 16 25
1 29 2 5 12 13 15 16 21 23 25
1 29 2 3 5 12 13 15 16 21 25
1 29 2 3 4 5 12 13 15 16 18 19 20 21
1 29 2 5 12 13 15 16 18 19 20 21 23
 Analysis time: 0.953s