20/09/2021 20:50:59[DEBUG] pflow_file:  ../test_networks/20210910-223922_21/net.pflow  
20/09/2021 20:50:59[DEBUG] output_folder:  ../test_networks/20210910-223922_21/  
20/09/2021 20:50:59[DEBUG] html_path:  ../test_networks/20210910-223922_21/  
20/09/2021 20:50:59[DEBUG] txt_path:  ../test_networks/20210910-223922_21/txt_info  

--------------------------------------------------------------------------   
20/09/2021 20:50:59[INFO] Ejecutando petrinator para conocer estado de la red...   
--------------------------------------------------------------------------
   
20/09/2021 20:51:06[INFO] SIFONES   
+----+-----+-------------------------------------------------+
| ID | Nro |                      Plazas                     |
+----+-----+-------------------------------------------------+
| 0  |  24 | ['P2', 'P7', 'P12', 'P14', 'P18', 'P29', 'P30'] |
| 1  |  23 |     ['P2', 'P7', 'P12', 'P18', 'P23', 'P30']    |
+----+-----+-------------------------------------------------+ 

20/09/2021 20:51:06[INFO] T INVARIANTES   
+----+----+----+----+----+----+----+----+----+----+-----+-----+-----+-----+-----+-----+-----+-----+-----+-----+
| T0 | T1 | T2 | T3 | T4 | T5 | T6 | T7 | T8 | T9 | T10 | T11 | T12 | T13 | T14 | T15 | T16 | T17 | T18 | T19 |
+----+----+----+----+----+----+----+----+----+----+-----+-----+-----+-----+-----+-----+-----+-----+-----+-----+
| 1  | 1  | 1  | 1  | 1  | 0  | 0  | 0  | 1  | 1  |  0  |  0  |  0  |  0  |  0  |  0  |  0  |  0  |  0  |  0  |
| 0  | 0  | 0  | 0  | 0  | 1  | 1  | 1  | 1  | 1  |  0  |  0  |  0  |  0  |  0  |  0  |  0  |  0  |  0  |  0  |
| 0  | 0  | 0  | 0  | 0  | 0  | 0  | 0  | 0  | 0  |  1  |  1  |  1  |  1  |  1  |  0  |  0  |  0  |  1  |  1  |
| 0  | 0  | 0  | 0  | 0  | 0  | 0  | 0  | 0  | 0  |  0  |  0  |  0  |  0  |  0  |  1  |  1  |  1  |  1  |  1  |
+----+----+----+----+----+----+----+----+----+----+-----+-----+-----+-----+-----+-----+-----+-----+-----+-----+ 

20/09/2021 20:51:06[INFO] Supervisores para agregar   
+-----+---------+---------------------+---------------------+-------------------------------------------------+
|  ID | Marcado |     T - Entrada     |      T - Salida     |                Sifon a controlar                |
+-----+---------+---------------------+---------------------+-------------------------------------------------+
| P32 |    1    | ['T2', 'T7', 'T17'] | ['T1', 'T6', 'T16'] | ['P2', 'P7', 'P12', 'P14', 'P18', 'P29', 'P30'] |
| P32 |    1    |    ['T2', 'T17']    |    ['T1', 'T16']    |     ['P2', 'P7', 'P12', 'P18', 'P23', 'P30']    |
+-----+---------+---------------------+---------------------+-------------------------------------------------+ 

20/09/2021 20:51:06[INFO] Supervisores agregados   
+-----+-------+---------+-------------+------------+----------------+
| Nro | Plaza | Marcado | T - Entrada | T - Salida | MAL supervisor |
+-----+-------+---------+-------------+------------+----------------+
+-----+-------+---------+-------------+------------+----------------+ 

20/09/2021 20:51:06[INFO] Supervisores eliminados   
+-----+-------+---------+-------------+------------+----------------+
| Nro | Plaza | Marcado | T - Entrada | T - Salida | MAL supervisor |
+-----+-------+---------+-------------+------------+----------------+
+-----+-------+---------+-------------+------------+----------------+ 

20/09/2021 20:51:06[INFO] Ejecutando accion...   
20/09/2021 20:51:06[ACTION] Agrego supervisor con menor numero de arcos de salida (MNAS)   
20/09/2021 20:51:06[INFO] Supervisor con menor cantidad de arcos de salida agregado 1   

--------------------------------------------------------------------------   
20/09/2021 20:51:06[INFO] Ejecutando petrinator para conocer estado de la red...   
--------------------------------------------------------------------------
   
--------------------------------------------------------------------------
   
20/09/2021 20:51:13[INFO] Calculando recompensa..   
20/09/2021 20:51:13[REWARD] Agregue un supervisor que genero menos sifones vacios en deadlock, recompensa -1   

--------------------------------------------------------------------------
   
20/09/2021 20:51:13[STATE] Cambie al estado 2: Hay menos sifones vacios en deadlock   
+--------+---------+-------------------+----------------+---------+---------+------------------------+
| Plazas | Estados | Tokens trabajando | Sifones vacios | Sifones | Trampas | Supervisores agregados |
+--------+---------+-------------------+----------------+---------+---------+------------------------+
|   32   |   614   |        2041       |       1        |    37   |    55   |           1            |
+--------+---------+-------------------+----------------+---------+---------+------------------------+ 
+------------------------------+------------+-----------------+--------------------+-----------------------+
|       Estados/Acciones       | + sup MNAS | + sup aleatorio | - sup MAL agregado | - ultimo sup agregado |
+------------------------------+------------+-----------------+--------------------+-----------------------+
|            Start             |    -1.0    |       0.0       |        0.0         |          0.0          |
| + sifónes vacíos en deadlock |    0.0     |       0.0       |        0.0         |          0.0          |
| - sifónes vacíos en deadlock |    0.0     |       0.0       |        0.0         |          0.0          |
| = sifónes vacíos en deadlock |    0.0     |       0.0       |        0.0         |          0.0          |
|             End              |    0.0     |       0.0       |        0.0         |          0.0          |
+------------------------------+------------+-----------------+--------------------+-----------------------+ 

20/09/2021 20:51:13[INFO] SIFONES   
+----+-----+-------------------------------------------------+
| ID | Nro |                      Plazas                     |
+----+-----+-------------------------------------------------+
| 2  |  29 | ['P2', 'P7', 'P12', 'P14', 'P18', 'P29', 'P30'] |
+----+-----+-------------------------------------------------+ 

20/09/2021 20:51:13[INFO] T INVARIANTES   
+----+----+----+----+----+----+----+----+----+----+-----+-----+-----+-----+-----+-----+-----+-----+-----+-----+
| T0 | T1 | T2 | T3 | T4 | T5 | T6 | T7 | T8 | T9 | T10 | T11 | T12 | T13 | T14 | T15 | T16 | T17 | T18 | T19 |
+----+----+----+----+----+----+----+----+----+----+-----+-----+-----+-----+-----+-----+-----+-----+-----+-----+
| 1  | 1  | 1  | 1  | 1  | 0  | 0  | 0  | 1  | 1  |  0  |  0  |  0  |  0  |  0  |  0  |  0  |  0  |  0  |  0  |
| 0  | 0  | 0  | 0  | 0  | 1  | 1  | 1  | 1  | 1  |  0  |  0  |  0  |  0  |  0  |  0  |  0  |  0  |  0  |  0  |
| 0  | 0  | 0  | 0  | 0  | 0  | 0  | 0  | 0  | 0  |  1  |  1  |  1  |  1  |  1  |  0  |  0  |  0  |  1  |  1  |
| 0  | 0  | 0  | 0  | 0  | 0  | 0  | 0  | 0  | 0  |  0  |  0  |  0  |  0  |  0  |  1  |  1  |  1  |  1  |  1  |
+----+----+----+----+----+----+----+----+----+----+-----+-----+-----+-----+-----+-----+-----+-----+-----+-----+ 

20/09/2021 20:51:13[INFO] Supervisores para agregar   
+-----+---------+---------------------+---------------------+-------------------------------------------------+
|  ID | Marcado |     T - Entrada     |      T - Salida     |                Sifon a controlar                |
+-----+---------+---------------------+---------------------+-------------------------------------------------+
| P33 |    1    | ['T2', 'T7', 'T17'] | ['T1', 'T6', 'T16'] | ['P2', 'P7', 'P12', 'P14', 'P18', 'P29', 'P30'] |
+-----+---------+---------------------+---------------------+-------------------------------------------------+ 

20/09/2021 20:51:13[INFO] Supervisores agregados   
+-----+-------+---------+---------------+---------------+----------------+
| Nro | Plaza | Marcado |  T - Entrada  |   T - Salida  | MAL supervisor |
+-----+-------+---------+---------------+---------------+----------------+
|  1  |  P32  |    1    | ['T2', 'T17'] | ['T1', 'T16'] |     False      |
+-----+-------+---------+---------------+---------------+----------------+ 

20/09/2021 20:51:13[INFO] Supervisores eliminados   
+-----+-------+---------+-------------+------------+----------------+
| Nro | Plaza | Marcado | T - Entrada | T - Salida | MAL supervisor |
+-----+-------+---------+-------------+------------+----------------+
+-----+-------+---------+-------------+------------+----------------+ 

20/09/2021 20:51:13[INFO] Ejecutando accion...   
20/09/2021 20:51:13[ACTION] Agrego supervisor con menor numero de arcos de salida (MNAS)   
20/09/2021 20:51:13[INFO] Supervisor con menor cantidad de arcos de salida agregado 0   

--------------------------------------------------------------------------   
20/09/2021 20:51:13[INFO] Ejecutando petrinator para conocer estado de la red...   
--------------------------------------------------------------------------
   
--------------------------------------------------------------------------
   
20/09/2021 20:51:21[INFO] Calculando recompensa..   
20/09/2021 20:51:21[REWARD] No hay mas deadlock, recompensa 100   

--------------------------------------------------------------------------
   
20/09/2021 20:51:21[STATE] Se llego al estado deseado, NO HAY MAS DEADLOCK   

--------------------------------------------------------------------------
   
+--------+---------+-------------------+----------------+---------+---------+------------------------+
| Plazas | Estados | Tokens trabajando | Sifones vacios | Sifones | Trampas | Supervisores agregados |
+--------+---------+-------------------+----------------+---------+---------+------------------------+
|   32   |   614   |        2041       |       1        |    37   |    55   |           1            |
|   33   |   594   |        1970       |       0        |    38   |    56   |           2            |
+--------+---------+-------------------+----------------+---------+---------+------------------------+ 
+------------------------------+------------+-----------------+--------------------+-----------------------+
|       Estados/Acciones       | + sup MNAS | + sup aleatorio | - sup MAL agregado | - ultimo sup agregado |
+------------------------------+------------+-----------------+--------------------+-----------------------+
|            Start             |    -1.0    |       0.0       |        0.0         |          0.0          |
| + sifónes vacíos en deadlock |    0.0     |       0.0       |        0.0         |          0.0          |
| - sifónes vacíos en deadlock |   100.0    |       0.0       |        0.0         |          0.0          |
| = sifónes vacíos en deadlock |    0.0     |       0.0       |        0.0         |          0.0          |
|             End              |    0.0     |       0.0       |        0.0         |          0.0          |
+------------------------------+------------+-----------------+--------------------+-----------------------+ 

20/09/2021 20:51:21[INFO] Comienza proceso de eliminacion de supervisores redundantes   
20/09/2021 20:51:21[INFO] Supervisor a eliminar   
+-----+-------+---------+---------------+---------------+----------------+
| Nro | Plaza | Marcado |  T - Entrada  |   T - Salida  | MAL supervisor |
+-----+-------+---------+---------------+---------------+----------------+
|  1  |  P32  |    1    | ['T2', 'T17'] | ['T1', 'T16'] |     False      |
+-----+-------+---------+---------------+---------------+----------------+ 
20/09/2021 20:51:21[INFO] Eliminando supervisor ...   

--------------------------------------------------------------------------   
20/09/2021 20:51:21[INFO] Ejecutando petrinator para conocer estado de la red...   
--------------------------------------------------------------------------
   
20/09/2021 20:51:28[INFO] Se elimino correctamente supervisor redundante   
20/09/2021 20:51:28[INFO] Supervisor a eliminar   
+-----+-------+---------+---------------------+---------------------+----------------+
| Nro | Plaza | Marcado |     T - Entrada     |      T - Salida     | MAL supervisor |
+-----+-------+---------+---------------------+---------------------+----------------+
|  2  |  P33  |    1    | ['T2', 'T7', 'T17'] | ['T1', 'T6', 'T16'] |     False      |
+-----+-------+---------+---------------------+---------------------+----------------+ 
20/09/2021 20:51:28[INFO] Eliminando supervisor ...   

--------------------------------------------------------------------------   
20/09/2021 20:51:28[INFO] Ejecutando petrinator para conocer estado de la red...   
--------------------------------------------------------------------------
   
20/09/2021 20:51:34[INFO] El supervisor eliminado no era redundante, volviendo a agregar supervisor   
20/09/2021 20:51:34[INFO] Se volvio a agregar correctamente el supervisor eliminado   

--------------------------------------------------------------------------   
20/09/2021 20:51:34[INFO] Ejecutando petrinator para conocer estado de la red...   
--------------------------------------------------------------------------
   
20/09/2021 20:51:41[INFO] Se eliminaron todos los supervisores redundantes   
+--------+---------+-------------------+----------------+---------+---------+------------------------+-------------------------+
| Plazas | Estados | Tokens trabajando | Sifones vacios | Sifones | Trampas | Supervisores agregados | Supervisores eliminados |
+--------+---------+-------------------+----------------+---------+---------+------------------------+-------------------------+
|   32   |   594   |        1970       |       0        |    30   |    54   |           1            |            1            |
+--------+---------+-------------------+----------------+---------+---------+------------------------+-------------------------+ 
