 Minimal siphons 
3 8 10 18 19 22 23
2 10 18 21
13 14 15 16 17 18 19 20
8 9 10 11 12
1 6
2 8 19 22
2 4
1 2 6
3 10 13 18 23
3 5
2 3 4
1 2 3 7
1 2 3 6
 Minimal traps 
1 6
2 8 10 17 18 22 23
3 10 18 23
13 14 15 16 17 18 19 20
8 9 10 11 12
3 5
2 10 18 21
2 4
2 3 5
2 8 14 17 22
1 2 4
1 2 3 7
1 2 3 5
 Analysis time: 0.419s