19/06/2021 17:52:33[DEBUG] pflow_file:  ../Prueba/gen_nets/20210619-175223_0/net.pflow  
19/06/2021 17:52:33[DEBUG] output_folder:  ../Prueba/gen_nets/20210619-175223_0/  
19/06/2021 17:52:33[DEBUG] html_path:  ../Prueba/gen_nets/20210619-175223_0/  
19/06/2021 17:52:33[DEBUG] txt_path:  ../Prueba/gen_nets/20210619-175223_0/txt_info  

--------------------------------------------------------------------------   
19/06/2021 17:52:33[INFO] Ejecutando petrinator para conocer estado de la red...   
--------------------------------------------------------------------------
   
19/06/2021 17:52:36[INFO] Leyendo archivos...   
19/06/2021 17:52:36[INFO] Cantidad de estados 595  
19/06/2021 17:52:36[INFO] Cantidad de transiciones 17  
19/06/2021 17:52:36[INFO] Cantidad de plazas 23  
19/06/2021 17:52:36[INFO] Cantidad de sifones 13  
19/06/2021 17:52:36[INFO] Cantidad de trampas 18  

--------------------------------------------------------------------------
   
19/06/2021 17:52:36[INFO] Cantidad de entrenamientos a realizar:  1  
19/06/2021 17:52:36[INFO] Entrenamiento numero : 0 
 
19/06/2021 17:52:36[INFO] Q-TABLE   
+-----------------------------------------------------+--------------------+------------------------+
|                   Estados/Acciones                  | Agregar supervisor | Agregar o quitar arcos |
+-----------------------------------------------------+--------------------+------------------------+
|                        Start                        |        0.0         |          0.0           |
|        Más sifónes vacíos en estado deadlock        |        0.0         |          0.0           |
|       Menos sifónes vacíos en estado deadlock       |        0.0         |          0.0           |
| Igual cantidad de sifónes vacíos en estado deadlock |        0.0         |          0.0           |
|                         End                         |        0.0         |          0.0           |
+-----------------------------------------------------+--------------------+------------------------+

--------------------------------------------------------------------------   
19/06/2021 17:52:36[INFO] Ejecutando petrinator para conocer estado de la red...   
--------------------------------------------------------------------------
   
19/06/2021 17:52:40[INFO] Importando datos desde html...   
19/06/2021 17:52:41[INFO] Analizando cantidad de supervisores que se pueden agregar...   
19/06/2021 17:52:41[ERROR] marcado: 1 t_in: 3   
19/06/2021 17:52:41[ERROR] marcado: 1 t_in: 3   
19/06/2021 17:52:41[INFO] Cantidad de transiciones: 17  
19/06/2021 17:52:41[INFO] Estados de deadlock : [9, 23, 47, 189, 256, 287, 395]  
19/06/2021 17:52:41[INFO] Cantidad de sifones: 13  
19/06/2021 17:52:41[INFO] Cantidad de sifones vacios en estado de deadlock: 2 
 
19/06/2021 17:52:41[INFO] SIFONES   
+----+-----+------------------------------------------------+
| ID | Nro |                     Plazas                     |
+----+-----+------------------------------------------------+
| 0  |  2  | ['P2', 'P6', 'P9', 'P12', 'P15', 'P22', 'P23'] |
| 1  |  11 | ['P2', 'P6', 'P9', 'P12', 'P15', 'P21', 'P22'] |
+----+-----+------------------------------------------------+
19/06/2021 17:52:41[INFO] T INVARIANTES   
+----+----+----+----+----+----+----+----+----+----+-----+-----+-----+-----+-----+-----+-----+
| T0 | T1 | T2 | T3 | T4 | T5 | T6 | T7 | T8 | T9 | T10 | T11 | T12 | T13 | T14 | T15 | T16 |
+----+----+----+----+----+----+----+----+----+----+-----+-----+-----+-----+-----+-----+-----+
| 1  | 1  | 1  | 1  | 0  | 0  | 0  | 0  | 0  | 0  |  0  |  0  |  0  |  0  |  0  |  0  |  0  |
| 0  | 0  | 0  | 0  | 1  | 1  | 1  | 0  | 0  | 0  |  0  |  0  |  0  |  0  |  0  |  0  |  0  |
| 0  | 0  | 0  | 0  | 0  | 0  | 0  | 1  | 1  | 1  |  1  |  1  |  0  |  0  |  0  |  1  |  1  |
| 0  | 0  | 0  | 0  | 0  | 0  | 0  | 0  | 0  | 0  |  0  |  0  |  1  |  1  |  1  |  1  |  1  |
+----+----+----+----+----+----+----+----+----+----+-----+-----+-----+-----+-----+-----+-----+
19/06/2021 17:52:41[INFO] POSIBLES SUPERVISORES A AGREGAR   
+-----+---------+---------------------+---------------------+
|  ID | Marcado |     T - Entrada     |      T - Salida     |
+-----+---------+---------------------+---------------------+
| P24 |    1    | ['T2', 'T6', 'T14'] | ['T1', 'T5', 'T16'] |
| P24 |    1    | ['T2', 'T6', 'T14'] | ['T1', 'T5', 'T16'] |
+-----+---------+---------------------+---------------------+

--------------------------------------------------------------------------
   
19/06/2021 17:52:41[INFO] Ejecutando accion...   
19/06/2021 17:52:41[ACTION] Agregar supervisor    
19/06/2021 17:52:41[ACTION] Agrego supervisor Numero: 0  

--------------------------------------------------------------------------   
19/06/2021 17:52:41[INFO] Ejecutando petrinator para conocer estado de la red...   
--------------------------------------------------------------------------
   
19/06/2021 17:52:47[INFO] Importando datos desde html...   
19/06/2021 17:52:47[INFO] Analizando cantidad de supervisores que se pueden agregar...   
19/06/2021 17:52:47[ERROR] marcado: 0 t_in: 0   
19/06/2021 17:52:47[ERROR] marcado: 0 t_in: 1   
19/06/2021 17:52:47[ERROR] marcado: 0 t_in: 1   
19/06/2021 17:52:47[ERROR] marcado: 0 t_in: 2   
19/06/2021 17:52:47[ERROR] marcado: 0 t_in: 1   
19/06/2021 17:52:47[ERROR] marcado: 0 t_in: 1   
19/06/2021 17:52:47[ERROR] marcado: 0 t_in: 2   
19/06/2021 17:52:47[INFO] Cantidad de sifones vacios en estado de deadlock ANTES: 2  
19/06/2021 17:52:47[INFO] Cantidad de sifones vacioes en estado de deadlock AHORA: 7  
19/06/2021 17:52:47[INFO] Cantidad de transiciones: 17  
19/06/2021 17:52:47[INFO] Estados de deadlock : [15]  
19/06/2021 17:52:47[INFO] Cantidad de sifones: 20  
19/06/2021 17:52:47[INFO] Cantidad de sifones vacios en estado de deadlock: 7 
 
19/06/2021 17:52:47[INFO] SIFONES   
+----+-----+------------------------------------------------------------+
| ID | Nro |                           Plazas                           |
+----+-----+------------------------------------------------------------+
| 2  |  8  |             ['P1', 'P5', 'P14', 'P16', 'P24']              |
| 3  |  11 |          ['P1', 'P2', 'P5', 'P14', 'P16', 'P24']           |
| 4  |  12 |       ['P1', 'P2', 'P5', 'P9', 'P14', 'P16', 'P24']        |
| 5  |  13 |    ['P1', 'P2', 'P5', 'P9', 'P14', 'P15', 'P16', 'P24']    |
| 6  |  18 |       ['P1', 'P2', 'P3', 'P5', 'P14', 'P16', 'P24']        |
| 7  |  19 |    ['P1', 'P2', 'P3', 'P5', 'P9', 'P14', 'P16', 'P24']     |
| 8  |  20 | ['P1', 'P2', 'P3', 'P5', 'P9', 'P14', 'P15', 'P16', 'P24'] |
+----+-----+------------------------------------------------------------+
19/06/2021 17:52:47[INFO] T INVARIANTES   
+----+----+----+----+----+----+----+----+----+----+-----+-----+-----+-----+-----+-----+-----+
| T0 | T1 | T2 | T3 | T4 | T5 | T6 | T7 | T8 | T9 | T10 | T11 | T12 | T13 | T14 | T15 | T16 |
+----+----+----+----+----+----+----+----+----+----+-----+-----+-----+-----+-----+-----+-----+
| 1  | 1  | 1  | 1  | 0  | 0  | 0  | 0  | 0  | 0  |  0  |  0  |  0  |  0  |  0  |  0  |  0  |
| 0  | 0  | 0  | 0  | 1  | 1  | 1  | 0  | 0  | 0  |  0  |  0  |  0  |  0  |  0  |  0  |  0  |
| 0  | 0  | 0  | 0  | 0  | 0  | 0  | 0  | 0  | 0  |  0  |  0  |  1  |  1  |  1  |  1  |  1  |
+----+----+----+----+----+----+----+----+----+----+-----+-----+-----+-----+-----+-----+-----+
19/06/2021 17:52:47[INFO] POSIBLES SUPERVISORES A AGREGAR   
+----+---------+-------------+------------+
| ID | Marcado | T - Entrada | T - Salida |
+----+---------+-------------+------------+
+----+---------+-------------+------------+
19/06/2021 17:52:47[INFO] Actualizando estado de la red..   
19/06/2021 17:52:47[STATE] Cambie al estado 1: Hay mas sifones vacios en deadlock   

--------------------------------------------------------------------------
   
19/06/2021 17:52:47[INFO] Calculando recompensa..   
19/06/2021 17:52:47[REWARD] El sifon se controlo correctamente, recompensa -1   

--------------------------------------------------------------------------
   
19/06/2021 17:52:47[INFO] NEW Q-TABLE   
+-----------------------------------------------------+--------------------+------------------------+
|                   Estados/Acciones                  | Agregar supervisor | Agregar o quitar arcos |
+-----------------------------------------------------+--------------------+------------------------+
|                        Start                        |        -0.9        |          0.0           |
|        Más sifónes vacíos en estado deadlock        |        0.0         |          0.0           |
|       Menos sifónes vacíos en estado deadlock       |        0.0         |          0.0           |
| Igual cantidad de sifónes vacíos en estado deadlock |        0.0         |          0.0           |
|                         End                         |        0.0         |          0.0           |
+-----------------------------------------------------+--------------------+------------------------+

--------------------------------------------------------------------------
   
19/06/2021 17:52:47[INFO] Ejecutando accion...   
19/06/2021 17:52:47[ACTION] Agregar o quitar arcos   
19/06/2021 17:52:47[ACTION] La transicion en conflicto T8 le tiene que devolver un token al supervisor P24   
19/06/2021 17:52:47[INFO] Se agrego un arco desde T8 hasta P24   

--------------------------------------------------------------------------   
19/06/2021 17:52:47[INFO] Ejecutando petrinator para conocer estado de la red...   
--------------------------------------------------------------------------
   
19/06/2021 17:52:51[INFO] Importando datos desde html...   
19/06/2021 17:52:51[INFO] Analizando cantidad de supervisores que se pueden agregar...   
19/06/2021 17:52:51[INFO] Cantidad de sifones vacios en estado de deadlock ANTES: 7  
19/06/2021 17:52:51[INFO] Cantidad de sifones vacioes en estado de deadlock AHORA: 0  
19/06/2021 17:52:51[INFO] Cantidad de transiciones: 17  
19/06/2021 17:52:51[INFO] Estados de deadlock : []  
19/06/2021 17:52:51[INFO] Cantidad de sifones: 20  
19/06/2021 17:52:51[INFO] Cantidad de sifones vacios en estado de deadlock: 0 
 
19/06/2021 17:52:51[INFO] SIFONES   
+----+-----+--------+
| ID | Nro | Plazas |
+----+-----+--------+
+----+-----+--------+
19/06/2021 17:52:51[INFO] T INVARIANTES   
+----+----+----+----+----+----+----+----+----+----+-----+-----+-----+-----+-----+-----+-----+
| T0 | T1 | T2 | T3 | T4 | T5 | T6 | T7 | T8 | T9 | T10 | T11 | T12 | T13 | T14 | T15 | T16 |
+----+----+----+----+----+----+----+----+----+----+-----+-----+-----+-----+-----+-----+-----+
| 1  | 1  | 1  | 1  | 0  | 0  | 0  | 0  | 0  | 0  |  0  |  0  |  0  |  0  |  0  |  0  |  0  |
| 0  | 0  | 0  | 0  | 1  | 1  | 1  | 0  | 0  | 0  |  0  |  0  |  0  |  0  |  0  |  0  |  0  |
| 0  | 0  | 0  | 0  | 0  | 0  | 0  | 1  | 1  | 1  |  1  |  1  |  0  |  0  |  0  |  1  |  1  |
| 0  | 0  | 0  | 0  | 0  | 0  | 0  | 0  | 0  | 0  |  0  |  0  |  1  |  1  |  1  |  1  |  1  |
+----+----+----+----+----+----+----+----+----+----+-----+-----+-----+-----+-----+-----+-----+
19/06/2021 17:52:51[INFO] POSIBLES SUPERVISORES A AGREGAR   
+----+---------+-------------+------------+
| ID | Marcado | T - Entrada | T - Salida |
+----+---------+-------------+------------+
+----+---------+-------------+------------+
19/06/2021 17:52:51[INFO] Actualizando estado de la red..   
19/06/2021 17:52:51[STATE] Cambie al estado 2: Hay menos sifones vacios en deadlock   

--------------------------------------------------------------------------
   
19/06/2021 17:52:51[INFO] Calculando recompensa..   
19/06/2021 17:52:51[REWARD] No hay mas deadlock, recompensa 100   

--------------------------------------------------------------------------
   
19/06/2021 17:52:51[INFO] NEW Q-TABLE   
+-----------------------------------------------------+--------------------+------------------------+
|                   Estados/Acciones                  | Agregar supervisor | Agregar o quitar arcos |
+-----------------------------------------------------+--------------------+------------------------+
|                        Start                        |        -0.9        |          0.0           |
|        Más sifónes vacíos en estado deadlock        |        0.0         |          90.0          |
|       Menos sifónes vacíos en estado deadlock       |        0.0         |          0.0           |
| Igual cantidad de sifónes vacíos en estado deadlock |        0.0         |          0.0           |
|                         End                         |        0.0         |          0.0           |
+-----------------------------------------------------+--------------------+------------------------+

--------------------------------------------------------------------------
   
19/06/2021 17:52:51[STATE] Se llego al estado deseado, NO HAY MAS DEADLOCK   

--------------------------------------------------------------------------
   
19/06/2021 17:52:51[INFO] Training complete! 
  
