21/06/2021 17:33:13[DEBUG] pflow_file:  ../analisis_4_21062021/gen_nets/20210621-134757_13/net.pflow  
21/06/2021 17:33:13[DEBUG] output_folder:  ../analisis_4_21062021/gen_nets/20210621-134757_13/  
21/06/2021 17:33:13[DEBUG] html_path:  ../analisis_4_21062021/gen_nets/20210621-134757_13/  
21/06/2021 17:33:13[DEBUG] txt_path:  ../analisis_4_21062021/gen_nets/20210621-134757_13/txt_info  

--------------------------------------------------------------------------   
21/06/2021 17:33:13[INFO] Ejecutando petrinator para conocer estado de la red...   
--------------------------------------------------------------------------
   
21/06/2021 17:33:18[ERROR] La red ingresada no es S3PR, cerrando analisis 
  
