 Minimal siphons 
8 14 25
4 7 13 28 30
3 7 13 30
2 7 27
1 7 13 31
7 13 24
6 13 22
13 16
12 15
11 12 13 14 17
6 9
34 6 11
7 11 18
7 13 15 18 22
1 6 12 29
1 6 20
1 7 19
1 7 12 18 29
1 7 13 18 22 29
1 2 6 20
3 13 26
3 12 21
1 2 3 6 20
2 3 7 27
3 7 13 21 27 31
3 7 13 18 21 22
3 7 13 21 22 27
1 2 3 4 6 20
1 2 3 4 5
4 7 12 28
4 7 23
2 3 4 7 27
4 7 13 26 28
4 7 13 21 27 28 31
4 7 13 22 28
6 7 8 10
2 3 7 8 27
4 7 8 23
2 3 4 7 8 27
 Minimal traps 
1 6 11 18 29
2 6 11 18 22 27 28 30
3 6 11 18 22 28 30
4 6 11 18 22 28
6 11 15 18 22
7 11 18
12 15
13 16
8 14 25
11 12 13 14 17
7 13 24
6 13 22
6 9
6 7 8 10
34 6 11
34 6 9 11
4 7 12 28
4 7 23
4 6 12 22 28
3 12 21
3 13 26
3 7 12 28 30
3 7 13 30
3 7 12 26 28
3 6 12 22 28 30
3 6 12 22 26 28
3 6 11 18 21 22
3 6 11 18 22 26 28
2 7 27
2 6 12 22 27 28 30
2 6 7 27
2 6 7 13 14 25 27
2 6 7 12 13 14 25 27
2 6 12 21 22 27
2 6 12 22 26 27 28
2 6 7 11 12 13 14 25 27
2 6 11 18 21 22 27
2 6 11 18 22 26 27 28
1 2 3 4 5
1 7 12 27 28 30 31
1 7 13 31
1 7 19
1 2 7 27
1 2 7 13 14 25 27
1 7 13 14 19 25
1 7 13 14 19 25 27
1 7 12 21 27 31
1 2 7 12 13 14 25 27
1 7 12 13 14 19 25 27
1 7 12 26 27 28 31
1 2 7 11 12 13 14 25 27
1 7 11 12 13 14 19 25 27
1 6 12 29
1 6 20
1 6 7 19
1 2 6 7 27
1 2 3 4 5 6 9
1 2 6 7 13 14 25 27
1 6 7 13 14 19 25
1 6 7 13 14 19 25 27
1 6 12 22 27 28 30 31
1 2 6 7 12 13 14 25 27
1 6 7 12 13 14 19 25 27
1 6 12 21 22 27 31
1 6 12 19 21 22 27
1 6 12 22 26 27 28 31
1 6 12 19 22 26 27 28
1 6 12 19 22 27 28 30
1 34 6 11 20
1 34 2 3 4 5 6 11
1 2 6 7 11 12 13 14 25 27
1 6 7 11 12 13 14 19 25 27
1 6 11 18 22 27 28 30 31
1 6 11 18 21 22 27 31
1 6 11 18 19 21 22 27
1 6 11 18 22 26 27 28 31
1 6 11 18 19 22 26 27 28
1 6 11 18 19 22 27 28 30
 Analysis time: 2.877s