 p 24 
 t 16 
 Reachable states from S0 [0, 0, 0, 0, 1, 1, 1, 0, 0, 2, 0, 0, 0, 0, 0, 0, 1, 1, 1, 1, 1, 1, 1, 1] 
 T1 => S1 [1, 0, 0, 0, 1, 1, 0, 0, 0, 2, 0, 0, 0, 0, 0, 0, 1, 1, 0, 1, 1, 1, 0, 0] 
 T6 => S6 [0, 0, 0, 0, 1, 1, 1, 1, 0, 1, 0, 0, 0, 0, 0, 0, 1, 1, 0, 0, 1, 0, 0, 0] 
 T15 => S11 [0, 0, 0, 0, 1, 1, 1, 0, 0, 2, 0, 0, 0, 0, 1, 0, 0, 1, 1, 1, 1, 1, 1, 0] 
 
 Reachable states from S1 [1, 0, 0, 0, 1, 1, 0, 0, 0, 2, 0, 0, 0, 0, 0, 0, 1, 1, 0, 1, 1, 1, 0, 0] 
 T2 => S2 [0, 1, 0, 0, 1, 0, 0, 0, 0, 2, 0, 0, 0, 0, 0, 0, 1, 0, 1, 0, 1, 0, 1, 1] 
 
 Reachable states from S2 [0, 1, 0, 0, 1, 0, 0, 0, 0, 2, 0, 0, 0, 0, 0, 0, 1, 0, 1, 0, 1, 0, 1, 1] 
 T3 => S3 [0, 0, 1, 0, 1, 1, 0, 0, 0, 2, 0, 0, 0, 0, 0, 0, 1, 1, 1, 1, 0, 1, 1, 1] 
 T15 => S46 [0, 1, 0, 0, 1, 0, 0, 0, 0, 2, 0, 0, 0, 0, 1, 0, 0, 0, 1, 0, 1, 0, 1, 0] 
 
 Reachable states from S3 [0, 0, 1, 0, 1, 1, 0, 0, 0, 2, 0, 0, 0, 0, 0, 0, 1, 1, 1, 1, 0, 1, 1, 1] 
 T4 => S4 [0, 0, 0, 1, 0, 1, 0, 0, 0, 2, 0, 0, 0, 0, 0, 0, 1, 1, 1, 1, 1, 1, 1, 1] 
 T6 => S41 [0, 0, 1, 0, 1, 1, 0, 1, 0, 1, 0, 0, 0, 0, 0, 0, 1, 1, 0, 0, 0, 0, 0, 0] 
 T15 => S42 [0, 0, 1, 0, 1, 1, 0, 0, 0, 2, 0, 0, 0, 0, 1, 0, 0, 1, 1, 1, 0, 1, 1, 0] 
 
 Reachable states from S4 [0, 0, 0, 1, 0, 1, 0, 0, 0, 2, 0, 0, 0, 0, 0, 0, 1, 1, 1, 1, 1, 1, 1, 1] 
 T5 => S0 [0, 0, 0, 0, 1, 1, 1, 0, 0, 2, 0, 0, 0, 0, 0, 0, 1, 1, 1, 1, 1, 1, 1, 1] 
 T6 => S5 [0, 0, 0, 1, 0, 1, 0, 1, 0, 1, 0, 0, 0, 0, 0, 0, 1, 1, 0, 0, 1, 0, 0, 0] 
 T15 => S29 [0, 0, 0, 1, 0, 1, 0, 0, 0, 2, 0, 0, 0, 0, 1, 0, 0, 1, 1, 1, 1, 1, 1, 0] 
 
 Reachable states from S5 [0, 0, 0, 1, 0, 1, 0, 1, 0, 1, 0, 0, 0, 0, 0, 0, 1, 1, 0, 0, 1, 0, 0, 0] 
 T5 => S6 [0, 0, 0, 0, 1, 1, 1, 1, 0, 1, 0, 0, 0, 0, 0, 0, 1, 1, 0, 0, 1, 0, 0, 0] 
 T7 => S27 [0, 0, 0, 1, 0, 1, 0, 0, 1, 1, 0, 0, 0, 0, 0, 0, 1, 0, 1, 1, 0, 1, 1, 1] 
 
 Reachable states from S6 [0, 0, 0, 0, 1, 1, 1, 1, 0, 1, 0, 0, 0, 0, 0, 0, 1, 1, 0, 0, 1, 0, 0, 0] 
 T7 => S7 [0, 0, 0, 0, 1, 1, 1, 0, 1, 1, 0, 0, 0, 0, 0, 0, 1, 0, 1, 1, 0, 1, 1, 1] 
 
 Reachable states from S7 [0, 0, 0, 0, 1, 1, 1, 0, 1, 1, 0, 0, 0, 0, 0, 0, 1, 0, 1, 1, 0, 1, 1, 1] 
 T8 => S0 [0, 0, 0, 0, 1, 1, 1, 0, 0, 2, 0, 0, 0, 0, 0, 0, 1, 1, 1, 1, 1, 1, 1, 1] 
 T1 => S8 [1, 0, 0, 0, 1, 1, 0, 0, 1, 1, 0, 0, 0, 0, 0, 0, 1, 0, 0, 1, 0, 1, 0, 0] 
 T6 => S9 [0, 0, 0, 0, 1, 1, 1, 1, 1, 0, 0, 0, 0, 0, 0, 0, 1, 0, 0, 0, 0, 0, 0, 0] 
 T15 => S10 [0, 0, 0, 0, 1, 1, 1, 0, 1, 1, 0, 0, 0, 0, 1, 0, 0, 0, 1, 1, 0, 1, 1, 0] 
 
 Reachable states from S8 [1, 0, 0, 0, 1, 1, 0, 0, 1, 1, 0, 0, 0, 0, 0, 0, 1, 0, 0, 1, 0, 1, 0, 0] 
 T8 => S1 [1, 0, 0, 0, 1, 1, 0, 0, 0, 2, 0, 0, 0, 0, 0, 0, 1, 1, 0, 1, 1, 1, 0, 0] 
 
 Reachable states from S9 [0, 0, 0, 0, 1, 1, 1, 1, 1, 0, 0, 0, 0, 0, 0, 0, 1, 0, 0, 0, 0, 0, 0, 0] 
 T8 => S6 [0, 0, 0, 0, 1, 1, 1, 1, 0, 1, 0, 0, 0, 0, 0, 0, 1, 1, 0, 0, 1, 0, 0, 0] 
 
 Reachable states from S10 [0, 0, 0, 0, 1, 1, 1, 0, 1, 1, 0, 0, 0, 0, 1, 0, 0, 0, 1, 1, 0, 1, 1, 0] 
 T8 => S11 [0, 0, 0, 0, 1, 1, 1, 0, 0, 2, 0, 0, 0, 0, 1, 0, 0, 1, 1, 1, 1, 1, 1, 0] 
 T12 => S37 [0, 0, 0, 0, 1, 1, 1, 0, 1, 1, 0, 0, 1, 0, 0, 0, 0, 0, 1, 1, 0, 0, 1, 0] 
 
 Reachable states from S11 [0, 0, 0, 0, 1, 1, 1, 0, 0, 2, 0, 0, 0, 0, 1, 0, 0, 1, 1, 1, 1, 1, 1, 0] 
 T9 => S12 [0, 0, 0, 0, 1, 1, 1, 0, 0, 2, 1, 0, 0, 0, 0, 0, 0, 0, 1, 1, 1, 1, 0, 0] 
 T12 => S33 [0, 0, 0, 0, 1, 1, 1, 0, 0, 2, 0, 0, 1, 0, 0, 0, 0, 1, 1, 1, 1, 0, 1, 0] 
 
 Reachable states from S12 [0, 0, 0, 0, 1, 1, 1, 0, 0, 2, 1, 0, 0, 0, 0, 0, 0, 0, 1, 1, 1, 1, 0, 0] 
 T10 => S13 [0, 0, 0, 0, 1, 1, 1, 0, 0, 2, 0, 1, 0, 0, 0, 0, 0, 1, 0, 0, 0, 0, 1, 0] 
 
 Reachable states from S13 [0, 0, 0, 0, 1, 1, 1, 0, 0, 2, 0, 1, 0, 0, 0, 0, 0, 1, 0, 0, 0, 0, 1, 0] 
 T11 => S14 [0, 0, 0, 0, 1, 1, 1, 0, 0, 2, 0, 0, 0, 0, 0, 1, 0, 1, 1, 1, 1, 1, 1, 1] 
 
 Reachable states from S14 [0, 0, 0, 0, 1, 1, 1, 0, 0, 2, 0, 0, 0, 0, 0, 1, 0, 1, 1, 1, 1, 1, 1, 1] 
 T16 => S0 [0, 0, 0, 0, 1, 1, 1, 0, 0, 2, 0, 0, 0, 0, 0, 0, 1, 1, 1, 1, 1, 1, 1, 1] 
 T1 => S15 [1, 0, 0, 0, 1, 1, 0, 0, 0, 2, 0, 0, 0, 0, 0, 1, 0, 1, 0, 1, 1, 1, 0, 0] 
 T6 => S20 [0, 0, 0, 0, 1, 1, 1, 1, 0, 1, 0, 0, 0, 0, 0, 1, 0, 1, 0, 0, 1, 0, 0, 0] 
 
 Reachable states from S15 [1, 0, 0, 0, 1, 1, 0, 0, 0, 2, 0, 0, 0, 0, 0, 1, 0, 1, 0, 1, 1, 1, 0, 0] 
 T16 => S1 [1, 0, 0, 0, 1, 1, 0, 0, 0, 2, 0, 0, 0, 0, 0, 0, 1, 1, 0, 1, 1, 1, 0, 0] 
 T2 => S16 [0, 1, 0, 0, 1, 0, 0, 0, 0, 2, 0, 0, 0, 0, 0, 1, 0, 0, 1, 0, 1, 0, 1, 1] 
 
 Reachable states from S16 [0, 1, 0, 0, 1, 0, 0, 0, 0, 2, 0, 0, 0, 0, 0, 1, 0, 0, 1, 0, 1, 0, 1, 1] 
 T16 => S2 [0, 1, 0, 0, 1, 0, 0, 0, 0, 2, 0, 0, 0, 0, 0, 0, 1, 0, 1, 0, 1, 0, 1, 1] 
 T3 => S17 [0, 0, 1, 0, 1, 1, 0, 0, 0, 2, 0, 0, 0, 0, 0, 1, 0, 1, 1, 1, 0, 1, 1, 1] 
 
 Reachable states from S17 [0, 0, 1, 0, 1, 1, 0, 0, 0, 2, 0, 0, 0, 0, 0, 1, 0, 1, 1, 1, 0, 1, 1, 1] 
 T16 => S3 [0, 0, 1, 0, 1, 1, 0, 0, 0, 2, 0, 0, 0, 0, 0, 0, 1, 1, 1, 1, 0, 1, 1, 1] 
 T4 => S18 [0, 0, 0, 1, 0, 1, 0, 0, 0, 2, 0, 0, 0, 0, 0, 1, 0, 1, 1, 1, 1, 1, 1, 1] 
 T6 => S40 [0, 0, 1, 0, 1, 1, 0, 1, 0, 1, 0, 0, 0, 0, 0, 1, 0, 1, 0, 0, 0, 0, 0, 0] 
 
 Reachable states from S18 [0, 0, 0, 1, 0, 1, 0, 0, 0, 2, 0, 0, 0, 0, 0, 1, 0, 1, 1, 1, 1, 1, 1, 1] 
 T16 => S4 [0, 0, 0, 1, 0, 1, 0, 0, 0, 2, 0, 0, 0, 0, 0, 0, 1, 1, 1, 1, 1, 1, 1, 1] 
 T5 => S14 [0, 0, 0, 0, 1, 1, 1, 0, 0, 2, 0, 0, 0, 0, 0, 1, 0, 1, 1, 1, 1, 1, 1, 1] 
 T6 => S19 [0, 0, 0, 1, 0, 1, 0, 1, 0, 1, 0, 0, 0, 0, 0, 1, 0, 1, 0, 0, 1, 0, 0, 0] 
 
 Reachable states from S19 [0, 0, 0, 1, 0, 1, 0, 1, 0, 1, 0, 0, 0, 0, 0, 1, 0, 1, 0, 0, 1, 0, 0, 0] 
 T16 => S5 [0, 0, 0, 1, 0, 1, 0, 1, 0, 1, 0, 0, 0, 0, 0, 0, 1, 1, 0, 0, 1, 0, 0, 0] 
 T5 => S20 [0, 0, 0, 0, 1, 1, 1, 1, 0, 1, 0, 0, 0, 0, 0, 1, 0, 1, 0, 0, 1, 0, 0, 0] 
 T7 => S24 [0, 0, 0, 1, 0, 1, 0, 0, 1, 1, 0, 0, 0, 0, 0, 1, 0, 0, 1, 1, 0, 1, 1, 1] 
 
 Reachable states from S20 [0, 0, 0, 0, 1, 1, 1, 1, 0, 1, 0, 0, 0, 0, 0, 1, 0, 1, 0, 0, 1, 0, 0, 0] 
 T16 => S6 [0, 0, 0, 0, 1, 1, 1, 1, 0, 1, 0, 0, 0, 0, 0, 0, 1, 1, 0, 0, 1, 0, 0, 0] 
 T7 => S21 [0, 0, 0, 0, 1, 1, 1, 0, 1, 1, 0, 0, 0, 0, 0, 1, 0, 0, 1, 1, 0, 1, 1, 1] 
 
 Reachable states from S21 [0, 0, 0, 0, 1, 1, 1, 0, 1, 1, 0, 0, 0, 0, 0, 1, 0, 0, 1, 1, 0, 1, 1, 1] 
 T16 => S7 [0, 0, 0, 0, 1, 1, 1, 0, 1, 1, 0, 0, 0, 0, 0, 0, 1, 0, 1, 1, 0, 1, 1, 1] 
 T8 => S14 [0, 0, 0, 0, 1, 1, 1, 0, 0, 2, 0, 0, 0, 0, 0, 1, 0, 1, 1, 1, 1, 1, 1, 1] 
 T1 => S22 [1, 0, 0, 0, 1, 1, 0, 0, 1, 1, 0, 0, 0, 0, 0, 1, 0, 0, 0, 1, 0, 1, 0, 0] 
 T6 => S23 [0, 0, 0, 0, 1, 1, 1, 1, 1, 0, 0, 0, 0, 0, 0, 1, 0, 0, 0, 0, 0, 0, 0, 0] 
 
 Reachable states from S22 [1, 0, 0, 0, 1, 1, 0, 0, 1, 1, 0, 0, 0, 0, 0, 1, 0, 0, 0, 1, 0, 1, 0, 0] 
 T16 => S8 [1, 0, 0, 0, 1, 1, 0, 0, 1, 1, 0, 0, 0, 0, 0, 0, 1, 0, 0, 1, 0, 1, 0, 0] 
 T8 => S15 [1, 0, 0, 0, 1, 1, 0, 0, 0, 2, 0, 0, 0, 0, 0, 1, 0, 1, 0, 1, 1, 1, 0, 0] 
 
 Reachable states from S23 [0, 0, 0, 0, 1, 1, 1, 1, 1, 0, 0, 0, 0, 0, 0, 1, 0, 0, 0, 0, 0, 0, 0, 0] 
 T16 => S9 [0, 0, 0, 0, 1, 1, 1, 1, 1, 0, 0, 0, 0, 0, 0, 0, 1, 0, 0, 0, 0, 0, 0, 0] 
 T8 => S20 [0, 0, 0, 0, 1, 1, 1, 1, 0, 1, 0, 0, 0, 0, 0, 1, 0, 1, 0, 0, 1, 0, 0, 0] 
 
 Reachable states from S24 [0, 0, 0, 1, 0, 1, 0, 0, 1, 1, 0, 0, 0, 0, 0, 1, 0, 0, 1, 1, 0, 1, 1, 1] 
 T8 => S18 [0, 0, 0, 1, 0, 1, 0, 0, 0, 2, 0, 0, 0, 0, 0, 1, 0, 1, 1, 1, 1, 1, 1, 1] 
 T5 => S21 [0, 0, 0, 0, 1, 1, 1, 0, 1, 1, 0, 0, 0, 0, 0, 1, 0, 0, 1, 1, 0, 1, 1, 1] 
 T6 => S25 [0, 0, 0, 1, 0, 1, 0, 1, 1, 0, 0, 0, 0, 0, 0, 1, 0, 0, 0, 0, 0, 0, 0, 0] 
 T16 => S27 [0, 0, 0, 1, 0, 1, 0, 0, 1, 1, 0, 0, 0, 0, 0, 0, 1, 0, 1, 1, 0, 1, 1, 1] 
 
 Reachable states from S25 [0, 0, 0, 1, 0, 1, 0, 1, 1, 0, 0, 0, 0, 0, 0, 1, 0, 0, 0, 0, 0, 0, 0, 0] 
 T8 => S19 [0, 0, 0, 1, 0, 1, 0, 1, 0, 1, 0, 0, 0, 0, 0, 1, 0, 1, 0, 0, 1, 0, 0, 0] 
 T5 => S23 [0, 0, 0, 0, 1, 1, 1, 1, 1, 0, 0, 0, 0, 0, 0, 1, 0, 0, 0, 0, 0, 0, 0, 0] 
 T16 => S26 [0, 0, 0, 1, 0, 1, 0, 1, 1, 0, 0, 0, 0, 0, 0, 0, 1, 0, 0, 0, 0, 0, 0, 0] 
 
 Reachable states from S26 [0, 0, 0, 1, 0, 1, 0, 1, 1, 0, 0, 0, 0, 0, 0, 0, 1, 0, 0, 0, 0, 0, 0, 0] 
 T8 => S5 [0, 0, 0, 1, 0, 1, 0, 1, 0, 1, 0, 0, 0, 0, 0, 0, 1, 1, 0, 0, 1, 0, 0, 0] 
 T5 => S9 [0, 0, 0, 0, 1, 1, 1, 1, 1, 0, 0, 0, 0, 0, 0, 0, 1, 0, 0, 0, 0, 0, 0, 0] 
 
 Reachable states from S27 [0, 0, 0, 1, 0, 1, 0, 0, 1, 1, 0, 0, 0, 0, 0, 0, 1, 0, 1, 1, 0, 1, 1, 1] 
 T8 => S4 [0, 0, 0, 1, 0, 1, 0, 0, 0, 2, 0, 0, 0, 0, 0, 0, 1, 1, 1, 1, 1, 1, 1, 1] 
 T5 => S7 [0, 0, 0, 0, 1, 1, 1, 0, 1, 1, 0, 0, 0, 0, 0, 0, 1, 0, 1, 1, 0, 1, 1, 1] 
 T6 => S26 [0, 0, 0, 1, 0, 1, 0, 1, 1, 0, 0, 0, 0, 0, 0, 0, 1, 0, 0, 0, 0, 0, 0, 0] 
 T15 => S28 [0, 0, 0, 1, 0, 1, 0, 0, 1, 1, 0, 0, 0, 0, 1, 0, 0, 0, 1, 1, 0, 1, 1, 0] 
 
 Reachable states from S28 [0, 0, 0, 1, 0, 1, 0, 0, 1, 1, 0, 0, 0, 0, 1, 0, 0, 0, 1, 1, 0, 1, 1, 0] 
 T5 => S10 [0, 0, 0, 0, 1, 1, 1, 0, 1, 1, 0, 0, 0, 0, 1, 0, 0, 0, 1, 1, 0, 1, 1, 0] 
 T8 => S29 [0, 0, 0, 1, 0, 1, 0, 0, 0, 2, 0, 0, 0, 0, 1, 0, 0, 1, 1, 1, 1, 1, 1, 0] 
 T12 => S36 [0, 0, 0, 1, 0, 1, 0, 0, 1, 1, 0, 0, 1, 0, 0, 0, 0, 0, 1, 1, 0, 0, 1, 0] 
 
 Reachable states from S29 [0, 0, 0, 1, 0, 1, 0, 0, 0, 2, 0, 0, 0, 0, 1, 0, 0, 1, 1, 1, 1, 1, 1, 0] 
 T5 => S11 [0, 0, 0, 0, 1, 1, 1, 0, 0, 2, 0, 0, 0, 0, 1, 0, 0, 1, 1, 1, 1, 1, 1, 0] 
 T9 => S30 [0, 0, 0, 1, 0, 1, 0, 0, 0, 2, 1, 0, 0, 0, 0, 0, 0, 0, 1, 1, 1, 1, 0, 0] 
 T12 => S32 [0, 0, 0, 1, 0, 1, 0, 0, 0, 2, 0, 0, 1, 0, 0, 0, 0, 1, 1, 1, 1, 0, 1, 0] 
 
 Reachable states from S30 [0, 0, 0, 1, 0, 1, 0, 0, 0, 2, 1, 0, 0, 0, 0, 0, 0, 0, 1, 1, 1, 1, 0, 0] 
 T5 => S12 [0, 0, 0, 0, 1, 1, 1, 0, 0, 2, 1, 0, 0, 0, 0, 0, 0, 0, 1, 1, 1, 1, 0, 0] 
 T10 => S31 [0, 0, 0, 1, 0, 1, 0, 0, 0, 2, 0, 1, 0, 0, 0, 0, 0, 1, 0, 0, 0, 0, 1, 0] 
 
 Reachable states from S31 [0, 0, 0, 1, 0, 1, 0, 0, 0, 2, 0, 1, 0, 0, 0, 0, 0, 1, 0, 0, 0, 0, 1, 0] 
 T5 => S13 [0, 0, 0, 0, 1, 1, 1, 0, 0, 2, 0, 1, 0, 0, 0, 0, 0, 1, 0, 0, 0, 0, 1, 0] 
 T11 => S18 [0, 0, 0, 1, 0, 1, 0, 0, 0, 2, 0, 0, 0, 0, 0, 1, 0, 1, 1, 1, 1, 1, 1, 1] 
 
 Reachable states from S32 [0, 0, 0, 1, 0, 1, 0, 0, 0, 2, 0, 0, 1, 0, 0, 0, 0, 1, 1, 1, 1, 0, 1, 0] 
 T5 => S33 [0, 0, 0, 0, 1, 1, 1, 0, 0, 2, 0, 0, 1, 0, 0, 0, 0, 1, 1, 1, 1, 0, 1, 0] 
 T13 => S35 [0, 0, 0, 1, 0, 1, 0, 0, 0, 2, 0, 0, 0, 1, 0, 0, 0, 1, 0, 0, 1, 1, 1, 1] 
 
 Reachable states from S33 [0, 0, 0, 0, 1, 1, 1, 0, 0, 2, 0, 0, 1, 0, 0, 0, 0, 1, 1, 1, 1, 0, 1, 0] 
 T13 => S34 [0, 0, 0, 0, 1, 1, 1, 0, 0, 2, 0, 0, 0, 1, 0, 0, 0, 1, 0, 0, 1, 1, 1, 1] 
 
 Reachable states from S34 [0, 0, 0, 0, 1, 1, 1, 0, 0, 2, 0, 0, 0, 1, 0, 0, 0, 1, 0, 0, 1, 1, 1, 1] 
 T14 => S14 [0, 0, 0, 0, 1, 1, 1, 0, 0, 2, 0, 0, 0, 0, 0, 1, 0, 1, 1, 1, 1, 1, 1, 1] 
 
 Reachable states from S35 [0, 0, 0, 1, 0, 1, 0, 0, 0, 2, 0, 0, 0, 1, 0, 0, 0, 1, 0, 0, 1, 1, 1, 1] 
 T14 => S18 [0, 0, 0, 1, 0, 1, 0, 0, 0, 2, 0, 0, 0, 0, 0, 1, 0, 1, 1, 1, 1, 1, 1, 1] 
 T5 => S34 [0, 0, 0, 0, 1, 1, 1, 0, 0, 2, 0, 0, 0, 1, 0, 0, 0, 1, 0, 0, 1, 1, 1, 1] 
 
 Reachable states from S36 [0, 0, 0, 1, 0, 1, 0, 0, 1, 1, 0, 0, 1, 0, 0, 0, 0, 0, 1, 1, 0, 0, 1, 0] 
 T8 => S32 [0, 0, 0, 1, 0, 1, 0, 0, 0, 2, 0, 0, 1, 0, 0, 0, 0, 1, 1, 1, 1, 0, 1, 0] 
 T5 => S37 [0, 0, 0, 0, 1, 1, 1, 0, 1, 1, 0, 0, 1, 0, 0, 0, 0, 0, 1, 1, 0, 0, 1, 0] 
 T13 => S39 [0, 0, 0, 1, 0, 1, 0, 0, 1, 1, 0, 0, 0, 1, 0, 0, 0, 0, 0, 0, 0, 1, 1, 1] 
 
 Reachable states from S37 [0, 0, 0, 0, 1, 1, 1, 0, 1, 1, 0, 0, 1, 0, 0, 0, 0, 0, 1, 1, 0, 0, 1, 0] 
 T8 => S33 [0, 0, 0, 0, 1, 1, 1, 0, 0, 2, 0, 0, 1, 0, 0, 0, 0, 1, 1, 1, 1, 0, 1, 0] 
 T13 => S38 [0, 0, 0, 0, 1, 1, 1, 0, 1, 1, 0, 0, 0, 1, 0, 0, 0, 0, 0, 0, 0, 1, 1, 1] 
 
 Reachable states from S38 [0, 0, 0, 0, 1, 1, 1, 0, 1, 1, 0, 0, 0, 1, 0, 0, 0, 0, 0, 0, 0, 1, 1, 1] 
 T14 => S21 [0, 0, 0, 0, 1, 1, 1, 0, 1, 1, 0, 0, 0, 0, 0, 1, 0, 0, 1, 1, 0, 1, 1, 1] 
 T8 => S34 [0, 0, 0, 0, 1, 1, 1, 0, 0, 2, 0, 0, 0, 1, 0, 0, 0, 1, 0, 0, 1, 1, 1, 1] 
 
 Reachable states from S39 [0, 0, 0, 1, 0, 1, 0, 0, 1, 1, 0, 0, 0, 1, 0, 0, 0, 0, 0, 0, 0, 1, 1, 1] 
 T14 => S24 [0, 0, 0, 1, 0, 1, 0, 0, 1, 1, 0, 0, 0, 0, 0, 1, 0, 0, 1, 1, 0, 1, 1, 1] 
 T8 => S35 [0, 0, 0, 1, 0, 1, 0, 0, 0, 2, 0, 0, 0, 1, 0, 0, 0, 1, 0, 0, 1, 1, 1, 1] 
 T5 => S38 [0, 0, 0, 0, 1, 1, 1, 0, 1, 1, 0, 0, 0, 1, 0, 0, 0, 0, 0, 0, 0, 1, 1, 1] 
 
 Reachable states from S40 [0, 0, 1, 0, 1, 1, 0, 1, 0, 1, 0, 0, 0, 0, 0, 1, 0, 1, 0, 0, 0, 0, 0, 0] 
 T4 => S19 [0, 0, 0, 1, 0, 1, 0, 1, 0, 1, 0, 0, 0, 0, 0, 1, 0, 1, 0, 0, 1, 0, 0, 0] 
 T16 => S41 [0, 0, 1, 0, 1, 1, 0, 1, 0, 1, 0, 0, 0, 0, 0, 0, 1, 1, 0, 0, 0, 0, 0, 0] 
 
 Reachable states from S41 [0, 0, 1, 0, 1, 1, 0, 1, 0, 1, 0, 0, 0, 0, 0, 0, 1, 1, 0, 0, 0, 0, 0, 0] 
 T4 => S5 [0, 0, 0, 1, 0, 1, 0, 1, 0, 1, 0, 0, 0, 0, 0, 0, 1, 1, 0, 0, 1, 0, 0, 0] 
 
 Reachable states from S42 [0, 0, 1, 0, 1, 1, 0, 0, 0, 2, 0, 0, 0, 0, 1, 0, 0, 1, 1, 1, 0, 1, 1, 0] 
 T4 => S29 [0, 0, 0, 1, 0, 1, 0, 0, 0, 2, 0, 0, 0, 0, 1, 0, 0, 1, 1, 1, 1, 1, 1, 0] 
 T9 => S43 [0, 0, 1, 0, 1, 1, 0, 0, 0, 2, 1, 0, 0, 0, 0, 0, 0, 0, 1, 1, 0, 1, 0, 0] 
 T12 => S44 [0, 0, 1, 0, 1, 1, 0, 0, 0, 2, 0, 0, 1, 0, 0, 0, 0, 1, 1, 1, 0, 0, 1, 0] 
 
 Reachable states from S43 [0, 0, 1, 0, 1, 1, 0, 0, 0, 2, 1, 0, 0, 0, 0, 0, 0, 0, 1, 1, 0, 1, 0, 0] 
 T4 => S30 [0, 0, 0, 1, 0, 1, 0, 0, 0, 2, 1, 0, 0, 0, 0, 0, 0, 0, 1, 1, 1, 1, 0, 0] 
 
 Reachable states from S44 [0, 0, 1, 0, 1, 1, 0, 0, 0, 2, 0, 0, 1, 0, 0, 0, 0, 1, 1, 1, 0, 0, 1, 0] 
 T4 => S32 [0, 0, 0, 1, 0, 1, 0, 0, 0, 2, 0, 0, 1, 0, 0, 0, 0, 1, 1, 1, 1, 0, 1, 0] 
 T13 => S45 [0, 0, 1, 0, 1, 1, 0, 0, 0, 2, 0, 0, 0, 1, 0, 0, 0, 1, 0, 0, 0, 1, 1, 1] 
 
 Reachable states from S45 [0, 0, 1, 0, 1, 1, 0, 0, 0, 2, 0, 0, 0, 1, 0, 0, 0, 1, 0, 0, 0, 1, 1, 1] 
 T14 => S17 [0, 0, 1, 0, 1, 1, 0, 0, 0, 2, 0, 0, 0, 0, 0, 1, 0, 1, 1, 1, 0, 1, 1, 1] 
 T4 => S35 [0, 0, 0, 1, 0, 1, 0, 0, 0, 2, 0, 0, 0, 1, 0, 0, 0, 1, 0, 0, 1, 1, 1, 1] 
 
 Reachable states from S46 [0, 1, 0, 0, 1, 0, 0, 0, 0, 2, 0, 0, 0, 0, 1, 0, 0, 0, 1, 0, 1, 0, 1, 0] 
 T3 => S42 [0, 0, 1, 0, 1, 1, 0, 0, 0, 2, 0, 0, 0, 0, 1, 0, 0, 1, 1, 1, 0, 1, 1, 0] 
