 Minimal siphons 
2 7 12 14 18 24 27
1 7 10 14 28
14 15
6 8
6 7 9 10 11 12 13 14 16 17 18 19 20 21 22
1 3
1 6 26
1 3 6 8
1 6 12 13 18 24
1 6 12 23
1 6 7 26
1 3 6 7 8
1 29 6 7 9 10 11 13 16
2 4
1 2 5
1 2 3
1 2 6 26
1 2 5 6 8
1 2 3 6 8
2 7 11 14 27
1 2 6 7 26
1 2 5 6 7 8
1 2 3 6 7 8
2 4 6 7 26
2 4 6 7 8
2 7 12 25
2 7 12 14 23 27
 Minimal traps 
1 6 10 13 18 24 27 28
6 8
2 7 11 14 27
14 15
2 4
2 7 12 25
6 7 9 10 11 12 13 14 16 17 18 19 20 21 22
1 7 10 14 28
1 3
1 2 5
1 2 4
1 2 7 12 25
1 3 7 12 25
1 6 11 13 18 24 27
1 6 12 13 18 24
1 29 6 13 18 24
1 6 26
1 29 6 23
1 29 6 7 25
1 6 12 23
1 29 6 12 13 23
1 29 6 12 13 18 19 20 21 22 23
1 29 6 7 11 27
1 6 11 14 23 27
1 29 6 7 10 28
1 6 10 14 23 27 28
1 29 6 7 9 10 11 13 16
 Analysis time: 1.321s