 Minimal siphons 
5 10 11 12 14 15 18 19
4 10 11 12 14 18 19
3 19
2 10 11 12
8 18
1 10 11
6 7 8 9 10 16
2 9 12
1 37 2 6 7 8 9
1 2 10 11
3 10 11 12 13
3 9 12 13
3 8 13
4 9 12 14 18 19
4 7 14
28 4 6
4 8 13 14
4 9 12 13 14
4 10 11 12 13 14
5 9 12 14 15 18 19
5 7 14 15
5 6 15
1 2 3 4 5 17
5 8 13 14 15
5 9 12 13 14 15
5 10 11 12 13 14 15
 Minimal traps 
1 6 11 12 14 15 18 19
2 6 12 14 15 18 19
3 19
4 6 14 15
8 18
5 6 15
6 7 8 9 10 16
4 7 14
4 5 6 15
28 4 6
3 6 13 14 15
3 7 13 14
3 8 13
3 4 5 6 15
28 3 4 6
28 3 6 13 14
2 7 12 14 18 19
2 9 12
2 8 12 13
2 7 12 13 14
2 3 5 6 15 19
28 2 3 6 19
28 2 6 12 14 18 19
28 2 6 12 13 14
2 6 12 13 14 15
1 7 11 12 14 18 19
1 9 11 12
1 10 11
1 2 3 4 5 17
1 9 10 11
1 8 11 12 13
1 7 11 12 13 14
1 37 2 6 14 15 19
1 37 2 5 6 15
1 37 28 2 6 19
1 37 2 6 7 8 13
1 37 2 6 7 8 9
1 37 28 2 6 8 13
1 37 28 2 5 6 17 19
1 37 2 6 7 14 19
1 37 28 2 6 13 14
1 37 2 6 7 13 14
1 37 2 6 13 14 15
1 2 3 5 6 15 19
1 28 2 3 6 19
1 28 2 3 5 6 17 19
1 37 6 11 14 15 19
1 5 6 10 11 15
1 4 5 6 10 11 15
1 28 4 6 10 11
1 28 4 5 6 10 11 17
1 37 5 6 11 15
1 37 28 6 11 19
1 37 6 7 8 11 13
1 37 6 7 8 9 11
1 37 28 6 8 11 13
1 37 28 5 6 11 17 19
1 37 6 7 11 14 19
1 37 28 6 11 13 14
1 37 6 7 11 13 14
1 37 6 11 13 14 15
1 37 3 5 6 11 15 19
1 37 28 3 6 11 19
1 37 28 3 5 6 11 17 19
1 37 3 5 6 8 11 13 15
1 3 5 6 10 11 15 19
1 28 3 6 10 11 19
1 28 3 5 6 10 11 17 19
1 28 6 11 12 14 18 19
1 28 6 11 12 13 14
1 6 11 12 13 14 15
 Analysis time: 0.594s