20/09/2021 21:06:24[DEBUG] pflow_file:  ../test_networks/20210910-223922_28/net.pflow  
20/09/2021 21:06:24[DEBUG] output_folder:  ../test_networks/20210910-223922_28/  
20/09/2021 21:06:24[DEBUG] html_path:  ../test_networks/20210910-223922_28/  
20/09/2021 21:06:24[DEBUG] txt_path:  ../test_networks/20210910-223922_28/txt_info  

--------------------------------------------------------------------------   
20/09/2021 21:06:24[INFO] Ejecutando petrinator para conocer estado de la red...   
--------------------------------------------------------------------------
   
20/09/2021 21:06:36[INFO] SIFONES   
+----+-----+-------------------------------------------------+
| ID | Nro |                      Plazas                     |
+----+-----+-------------------------------------------------+
| 0  |  7  |           ['P9', 'P19', 'P26', 'P29']           |
| 1  |  13 |        ['P9', 'P19', 'P20', 'P26', 'P29']       |
| 2  |  2  | ['P4', 'P9', 'P14', 'P20', 'P30', 'P32', 'P33'] |
| 3  |  3  |     ['P3', 'P9', 'P14', 'P20', 'P32', 'P33']    |
+----+-----+-------------------------------------------------+ 

20/09/2021 21:06:36[INFO] T INVARIANTES   
+----+----+----+----+----+----+----+----+----+----+-----+-----+-----+-----+-----+-----+-----+-----+-----+-----+
| T0 | T1 | T2 | T3 | T4 | T5 | T6 | T7 | T8 | T9 | T10 | T11 | T12 | T13 | T14 | T15 | T16 | T17 | T18 | T19 |
+----+----+----+----+----+----+----+----+----+----+-----+-----+-----+-----+-----+-----+-----+-----+-----+-----+
| 1  | 1  | 1  | 1  | 1  | 0  | 0  | 0  | 1  | 1  |  0  |  0  |  0  |  0  |  0  |  0  |  0  |  0  |  0  |  0  |
| 0  | 0  | 0  | 0  | 0  | 1  | 1  | 1  | 1  | 1  |  0  |  0  |  0  |  0  |  0  |  0  |  0  |  0  |  0  |  0  |
| 0  | 0  | 0  | 0  | 0  | 0  | 0  | 0  | 0  | 0  |  1  |  1  |  1  |  0  |  0  |  0  |  0  |  0  |  1  |  1  |
| 0  | 0  | 0  | 0  | 0  | 0  | 0  | 0  | 0  | 0  |  0  |  0  |  0  |  1  |  1  |  1  |  1  |  1  |  1  |  1  |
+----+----+----+----+----+----+----+----+----+----+-----+-----+-----+-----+-----+-----+-----+-----+-----+-----+ 

20/09/2021 21:06:36[INFO] Supervisores para agregar   
+-----+---------+---------------+---------------+-------------------------------------------------+
|  ID | Marcado |  T - Entrada  |   T - Salida  |                Sifon a controlar                |
+-----+---------+---------------+---------------+-------------------------------------------------+
| P34 |    1    | ['T7', 'T16'] | ['T6', 'T15'] |           ['P9', 'P19', 'P26', 'P29']           |
| P34 |    1    | ['T7', 'T16'] | ['T6', 'T15'] |        ['P9', 'P19', 'P20', 'P26', 'P29']       |
| P34 |    2    | ['T4', 'T17'] | ['T2', 'T16'] | ['P4', 'P9', 'P14', 'P20', 'P30', 'P32', 'P33'] |
| P34 |    1    | ['T3', 'T17'] | ['T2', 'T16'] |     ['P3', 'P9', 'P14', 'P20', 'P32', 'P33']    |
+-----+---------+---------------+---------------+-------------------------------------------------+ 

20/09/2021 21:06:36[INFO] Supervisores agregados   
+-----+-------+---------+-------------+------------+----------------+
| Nro | Plaza | Marcado | T - Entrada | T - Salida | MAL supervisor |
+-----+-------+---------+-------------+------------+----------------+
+-----+-------+---------+-------------+------------+----------------+ 

20/09/2021 21:06:36[INFO] Supervisores eliminados   
+-----+-------+---------+-------------+------------+----------------+
| Nro | Plaza | Marcado | T - Entrada | T - Salida | MAL supervisor |
+-----+-------+---------+-------------+------------+----------------+
+-----+-------+---------+-------------+------------+----------------+ 

20/09/2021 21:06:36[INFO] Ejecutando accion...   
20/09/2021 21:06:36[ACTION] Agrego supervisor con menor numero de arcos de salida (MNAS)   
20/09/2021 21:06:36[INFO] Supervisor con menor cantidad de arcos de salida agregado 3   

--------------------------------------------------------------------------   
20/09/2021 21:06:36[INFO] Ejecutando petrinator para conocer estado de la red...   
--------------------------------------------------------------------------
   
--------------------------------------------------------------------------
   
20/09/2021 21:06:49[INFO] Calculando recompensa..   
20/09/2021 21:06:49[REWARD] Agregue un supervisor que genero menos sifones vacios en deadlock, recompensa -1   

--------------------------------------------------------------------------
   
20/09/2021 21:06:49[STATE] Cambie al estado 2: Hay menos sifones vacios en deadlock   
+--------+---------+-------------------+----------------+---------+---------+------------------------+
| Plazas | Estados | Tokens trabajando | Sifones vacios | Sifones | Trampas | Supervisores agregados |
+--------+---------+-------------------+----------------+---------+---------+------------------------+
|   34   |   1971  |        8042       |       2        |    46   |    51   |           1            |
+--------+---------+-------------------+----------------+---------+---------+------------------------+ 
+------------------------------+------------+-----------------+--------------------+-----------------------+
|       Estados/Acciones       | + sup MNAS | + sup aleatorio | - sup MAL agregado | - ultimo sup agregado |
+------------------------------+------------+-----------------+--------------------+-----------------------+
|            Start             |    -1.0    |       0.0       |        0.0         |          0.0          |
| + sifónes vacíos en deadlock |    0.0     |       0.0       |        0.0         |          0.0          |
| - sifónes vacíos en deadlock |    0.0     |       0.0       |        0.0         |          0.0          |
| = sifónes vacíos en deadlock |    0.0     |       0.0       |        0.0         |          0.0          |
|             End              |    0.0     |       0.0       |        0.0         |          0.0          |
+------------------------------+------------+-----------------+--------------------+-----------------------+ 

20/09/2021 21:06:49[INFO] SIFONES   
+----+-----+------------------------------------+
| ID | Nro |               Plazas               |
+----+-----+------------------------------------+
| 4  |  7  |    ['P9', 'P19', 'P26', 'P29']     |
| 5  |  13 | ['P9', 'P19', 'P20', 'P26', 'P29'] |
+----+-----+------------------------------------+ 

20/09/2021 21:06:49[INFO] T INVARIANTES   
+----+----+----+----+----+----+----+----+----+----+-----+-----+-----+-----+-----+-----+-----+-----+-----+-----+
| T0 | T1 | T2 | T3 | T4 | T5 | T6 | T7 | T8 | T9 | T10 | T11 | T12 | T13 | T14 | T15 | T16 | T17 | T18 | T19 |
+----+----+----+----+----+----+----+----+----+----+-----+-----+-----+-----+-----+-----+-----+-----+-----+-----+
| 1  | 1  | 1  | 1  | 1  | 0  | 0  | 0  | 1  | 1  |  0  |  0  |  0  |  0  |  0  |  0  |  0  |  0  |  0  |  0  |
| 0  | 0  | 0  | 0  | 0  | 1  | 1  | 1  | 1  | 1  |  0  |  0  |  0  |  0  |  0  |  0  |  0  |  0  |  0  |  0  |
| 0  | 0  | 0  | 0  | 0  | 0  | 0  | 0  | 0  | 0  |  1  |  1  |  1  |  0  |  0  |  0  |  0  |  0  |  1  |  1  |
| 0  | 0  | 0  | 0  | 0  | 0  | 0  | 0  | 0  | 0  |  0  |  0  |  0  |  1  |  1  |  1  |  1  |  1  |  1  |  1  |
+----+----+----+----+----+----+----+----+----+----+-----+-----+-----+-----+-----+-----+-----+-----+-----+-----+ 

20/09/2021 21:06:49[INFO] Supervisores para agregar   
+-----+---------+---------------+---------------+------------------------------------+
|  ID | Marcado |  T - Entrada  |   T - Salida  |         Sifon a controlar          |
+-----+---------+---------------+---------------+------------------------------------+
| P35 |    1    | ['T7', 'T16'] | ['T6', 'T15'] |    ['P9', 'P19', 'P26', 'P29']     |
| P35 |    1    | ['T7', 'T16'] | ['T6', 'T15'] | ['P9', 'P19', 'P20', 'P26', 'P29'] |
+-----+---------+---------------+---------------+------------------------------------+ 

20/09/2021 21:06:49[INFO] Supervisores agregados   
+-----+-------+---------+---------------+---------------+----------------+
| Nro | Plaza | Marcado |  T - Entrada  |   T - Salida  | MAL supervisor |
+-----+-------+---------+---------------+---------------+----------------+
|  1  |  P34  |    1    | ['T3', 'T17'] | ['T2', 'T16'] |     False      |
+-----+-------+---------+---------------+---------------+----------------+ 

20/09/2021 21:06:49[INFO] Supervisores eliminados   
+-----+-------+---------+-------------+------------+----------------+
| Nro | Plaza | Marcado | T - Entrada | T - Salida | MAL supervisor |
+-----+-------+---------+-------------+------------+----------------+
+-----+-------+---------+-------------+------------+----------------+ 

20/09/2021 21:06:49[INFO] Ejecutando accion...   
20/09/2021 21:06:49[ACTION] Agrego supervisor con menor numero de arcos de salida (MNAS)   
20/09/2021 21:06:49[INFO] Supervisor con menor cantidad de arcos de salida agregado 0   

--------------------------------------------------------------------------   
20/09/2021 21:06:49[INFO] Ejecutando petrinator para conocer estado de la red...   
--------------------------------------------------------------------------
   
--------------------------------------------------------------------------
   
20/09/2021 21:07:03[INFO] Calculando recompensa..   
20/09/2021 21:07:03[REWARD] No hay mas deadlock, recompensa 100   

--------------------------------------------------------------------------
   
20/09/2021 21:07:03[STATE] Se llego al estado deseado, NO HAY MAS DEADLOCK   

--------------------------------------------------------------------------
   
+--------+---------+-------------------+----------------+---------+---------+------------------------+
| Plazas | Estados | Tokens trabajando | Sifones vacios | Sifones | Trampas | Supervisores agregados |
+--------+---------+-------------------+----------------+---------+---------+------------------------+
|   34   |   1971  |        8042       |       2        |    46   |    51   |           1            |
|   35   |   1835  |        7436       |       0        |    60   |    60   |           2            |
+--------+---------+-------------------+----------------+---------+---------+------------------------+ 
+------------------------------+------------+-----------------+--------------------+-----------------------+
|       Estados/Acciones       | + sup MNAS | + sup aleatorio | - sup MAL agregado | - ultimo sup agregado |
+------------------------------+------------+-----------------+--------------------+-----------------------+
|            Start             |    -1.0    |       0.0       |        0.0         |          0.0          |
| + sifónes vacíos en deadlock |    0.0     |       0.0       |        0.0         |          0.0          |
| - sifónes vacíos en deadlock |   100.0    |       0.0       |        0.0         |          0.0          |
| = sifónes vacíos en deadlock |    0.0     |       0.0       |        0.0         |          0.0          |
|             End              |    0.0     |       0.0       |        0.0         |          0.0          |
+------------------------------+------------+-----------------+--------------------+-----------------------+ 

20/09/2021 21:07:03[INFO] Comienza proceso de eliminacion de supervisores redundantes   
20/09/2021 21:07:03[INFO] Supervisor a eliminar   
+-----+-------+---------+---------------+---------------+----------------+
| Nro | Plaza | Marcado |  T - Entrada  |   T - Salida  | MAL supervisor |
+-----+-------+---------+---------------+---------------+----------------+
|  1  |  P34  |    1    | ['T3', 'T17'] | ['T2', 'T16'] |     False      |
+-----+-------+---------+---------------+---------------+----------------+ 
20/09/2021 21:07:03[INFO] Eliminando supervisor ...   

--------------------------------------------------------------------------   
20/09/2021 21:07:03[INFO] Ejecutando petrinator para conocer estado de la red...   
--------------------------------------------------------------------------
   
20/09/2021 21:07:16[INFO] El supervisor eliminado no era redundante, volviendo a agregar supervisor   
20/09/2021 21:07:16[INFO] Se volvio a agregar correctamente el supervisor eliminado   

--------------------------------------------------------------------------   
20/09/2021 21:07:16[INFO] Ejecutando petrinator para conocer estado de la red...   
--------------------------------------------------------------------------
   
20/09/2021 21:07:31[INFO] Supervisor a eliminar   
+-----+-------+---------+---------------+---------------+----------------+
| Nro | Plaza | Marcado |  T - Entrada  |   T - Salida  | MAL supervisor |
+-----+-------+---------+---------------+---------------+----------------+
|  2  |  P35  |    1    | ['T7', 'T16'] | ['T6', 'T15'] |     False      |
+-----+-------+---------+---------------+---------------+----------------+ 
20/09/2021 21:07:31[INFO] Eliminando supervisor ...   

--------------------------------------------------------------------------   
20/09/2021 21:07:31[INFO] Ejecutando petrinator para conocer estado de la red...   
--------------------------------------------------------------------------
   
20/09/2021 21:07:44[INFO] El supervisor eliminado no era redundante, volviendo a agregar supervisor   
20/09/2021 21:07:44[INFO] Se volvio a agregar correctamente el supervisor eliminado   

--------------------------------------------------------------------------   
20/09/2021 21:07:44[INFO] Ejecutando petrinator para conocer estado de la red...   
--------------------------------------------------------------------------
   
20/09/2021 21:07:58[INFO] Se eliminaron todos los supervisores redundantes   
+--------+---------+-------------------+----------------+---------+---------+------------------------+-------------------------+
| Plazas | Estados | Tokens trabajando | Sifones vacios | Sifones | Trampas | Supervisores agregados | Supervisores eliminados |
+--------+---------+-------------------+----------------+---------+---------+------------------------+-------------------------+
|   35   |   1835  |        7436       |       0        |    60   |    60   |           2            |            0            |
+--------+---------+-------------------+----------------+---------+---------+------------------------+-------------------------+ 
