 Minimal siphons 
15 20 28
4 9 14 20 30 32 33
3 9 14 20 32 33
2 9 14 20 32
20 22
14 16
9 19 26 29
8 19 29
1 17 27
17 21
8 10
35 8 18
9 18 26
9 19 20 26 29
8 19 20 29
1 17 18 19 20 27
1 8 10 17 18 19 20 27
35 8 18 19 20
35 8 10 18 19 20
1 35 8 18 19 20 27
1 35 8 10 18 19 20 27
8 9 19 20 29
1 8 9 10 17 18 19 20 27
35 8 9 18 19 20
35 8 9 10 18 19 20
1 35 8 9 18 19 20 27
1 35 8 9 10 18 19 20 27
9 18 19 20 26
2 7
1 2 17 27
1 35 2 8 19 27 29
1 35 2 8 18 27
1 35 2 8 18 19 27
1 35 2 8 19 20 27 29
1 35 2 8 18 19 20 27
34 2 19
34 2 19 20
3 14 20 31
3 5
2 3 7
1 2 3 17 27
34 2 3 19
34 2 3 19 20
3 9 14 19 33
4 14 20 30 31
4 19 30
4 6
3 4 5
2 3 4 7
1 2 3 4 17 27
34 2 3 4 19
4 19 20 30
34 2 3 4 19 20
1 2 3 4 8 9 11 12 13
4 5 9 14 20 30 32
14 15 17 18 19 20 23 24 25
34 2 14 15 19 20 23 24 25
34 2 3 14 15 19 20 23 24 25
34 2 3 4 14 15 19 20 23 24 25
4 14 15 19 20 23 24 25 30
 Minimal traps 
1 17 27
17 21
8 18 26 29
9 18 26
2 7
3 14 19 30 31
14 16
4 19 30
15 20 28
20 22
4 6
3 5
3 4 6
3 14 20 31
34 2 19
2 3 4 6
2 9 14 19 32 33
3 9 14 19 33
2 9 14 20 32
2 9 14 19 30 31 32
2 5 9 14 19 30 32
8 19 29
8 10
4 8 10 19 30
35 8 18
4 8 10 18 19 30
35 4 8 18 19 30
4 17 18 19 30
14 15 17 18 19 20 23 24 25
4 8 10 17 18 19 30
35 4 8 17 18 19 30
1 2 3 4 6
1 2 3 4 6 9 18 26
1 2 3 4 8 10 11 12 13
1 2 3 4 8 9 11 12 13
1 2 3 4 6 8 10
1 2 3 4 6 8 10 11
1 35 2 3 4 8 11 12 13 18 26
1 35 2 3 4 6 8 18 26
1 35 2 3 4 6 8 11 18 26
1 2 3 4 8 9 11 12 13 18 26
1 2 3 4 6 8 9 18 26
1 2 3 4 6 8 9 11 18 26
1 2 3 4 8 10 11 12 13 18 26
1 2 3 4 6 8 10 18 26
1 2 3 4 6 8 10 11 18 26
1 2 3 5 8 10
1 2 3 5 8 9 11 12 13
1 2 7 8 10
1 2 7 8 9 11 12 13
1 2 3 4 6 9 17 18 26
1 35 2 3 4 8 11 12 13 17 18 26
1 35 2 3 4 6 8 17 18 26
1 35 2 3 4 6 8 11 17 18 26
1 2 3 4 8 9 11 12 13 17 18 26
1 2 3 4 6 8 9 17 18 26
1 2 3 4 6 8 9 11 17 18 26
1 2 3 4 8 10 11 12 13 17 18 26
1 2 3 4 6 8 10 17 18 26
1 2 3 4 6 8 10 11 17 18 26
 Analysis time: 5.88s