14/07/2021 15:33:46[DEBUG] pflow_file:  ../prueba/gen_nets/20210713-184900_3/net.pflow  
14/07/2021 15:33:46[DEBUG] output_folder:  ../prueba/gen_nets/20210713-184900_3/  
14/07/2021 15:33:46[DEBUG] html_path:  ../prueba/gen_nets/20210713-184900_3/  
14/07/2021 15:33:46[DEBUG] txt_path:  ../prueba/gen_nets/20210713-184900_3/txt_info  

--------------------------------------------------------------------------   
14/07/2021 15:33:46[INFO] Ejecutando petrinator para conocer estado de la red...   
--------------------------------------------------------------------------
   
+----+-----+------------------------------------------------+
| ID | Nro |                     Plazas                     |
+----+-----+------------------------------------------------+
| 0  |  42 | ['P1', 'P3', 'P8', 'P12', 'P14', 'P22', 'P24'] |
| 1  |  43 | ['P1', 'P3', 'P8', 'P12', 'P15', 'P24', 'P25'] |
| 2  |  2  |    ['P3', 'P8', 'P12', 'P15', 'P23', 'P25']    |
| 3  |  41 |    ['P3', 'P8', 'P12', 'P14', 'P22', 'P23']    |
+----+-----+------------------------------------------------+
+----+----+----+----+----+----+----+----+----+----+-----+-----+-----+-----+-----+
| T0 | T1 | T2 | T3 | T4 | T5 | T6 | T7 | T8 | T9 | T10 | T11 | T12 | T13 | T14 |
+----+----+----+----+----+----+----+----+----+----+-----+-----+-----+-----+-----+
| 1  | 1  | 1  | 1  | 0  | 0  | 0  | 0  | 0  | 0  |  0  |  0  |  0  |  0  |  0  |
| 0  | 0  | 0  | 0  | 1  | 1  | 1  | 0  | 0  | 0  |  0  |  0  |  0  |  0  |  0  |
| 0  | 0  | 0  | 0  | 0  | 0  | 0  | 1  | 1  | 1  |  0  |  0  |  0  |  0  |  0  |
| 0  | 0  | 0  | 0  | 0  | 0  | 0  | 0  | 0  | 0  |  1  |  1  |  1  |  1  |  1  |
+----+----+----+----+----+----+----+----+----+----+-----+-----+-----+-----+-----+
14/07/2021 15:33:50[INFO] Supervisores para agregar   
+-----+---------+---------------------+---------------------------+
|  ID | Marcado |     T - Entrada     |         T - Salida        |
+-----+---------+---------------------+---------------------------+
| P26 |    1    |     ['T6', 'T9']    | ['T1', 'T5', 'T8', 'T11'] |
| P26 |    1    |     ['T6', 'T9']    | ['T1', 'T5', 'T8', 'T11'] |
| P26 |    1    | ['T3', 'T6', 'T10'] | ['T1', 'T5', 'T8', 'T11'] |
| P26 |    1    | ['T3', 'T6', 'T10'] | ['T1', 'T5', 'T8', 'T11'] |
+-----+---------+---------------------+---------------------------+
+-----+---------+-------------+------------+
| Nro | Marcado | T - Entrada | T - Salida |
+-----+---------+-------------+------------+
+-----+---------+-------------+------------+
14/07/2021 15:33:50[INFO] Ejecutando accion...   
14/07/2021 15:33:50[INFO] Ejecutando accion...   
14/07/2021 15:33:50[ACTION] Agrego supervisor aleatorio Numero: 1  

--------------------------------------------------------------------------   
14/07/2021 15:33:50[INFO] Ejecutando petrinator para conocer estado de la red...   
--------------------------------------------------------------------------
   

--------------------------------------------------------------------------
   
14/07/2021 15:33:54[INFO] Calculando recompensa..   
14/07/2021 15:33:54[REWARD] El sifon se controlo correctamente, recompensa -1   

--------------------------------------------------------------------------
   
14/07/2021 15:33:54[STATE] Cambie al estado 1: Hay mas sifones vacios en deadlock   
+-----------------------------------------------------+--------------------+------------------------+
|                   Estados/Acciones                  | Agregar supervisor | Agregar o quitar arcos |
+-----------------------------------------------------+--------------------+------------------------+
|                        Start                        |        -1.0        |          0.0           |
|        Más sifónes vacíos en estado deadlock        |        0.0         |          0.0           |
|       Menos sifónes vacíos en estado deadlock       |        0.0         |          0.0           |
| Igual cantidad de sifónes vacíos en estado deadlock |        0.0         |          0.0           |
|                         End                         |        0.0         |          0.0           |
+-----------------------------------------------------+--------------------+------------------------+
+----+-----+--------------------------------------------------------------------------+
| ID | Nro |                                  Plazas                                  |
+----+-----+--------------------------------------------------------------------------+
| 4  |  9  |                           ['P7', 'P11', 'P26']                           |
| 5  |  13 |                        ['P1', 'P7', 'P11', 'P26']                        |
| 6  |  17 |                     ['P1', 'P2', 'P7', 'P11', 'P26']                     |
| 7  |  48 |    ['P1', 'P2', 'P3', 'P7', 'P8', 'P11', 'P12', 'P14', 'P15', 'P26']     |
| 8  |  51 | ['P1', 'P2', 'P3', 'P7', 'P8', 'P11', 'P12', 'P14', 'P15', 'P16', 'P26'] |
+----+-----+--------------------------------------------------------------------------+
+----+----+----+----+----+----+----+----+----+----+-----+-----+-----+-----+-----+
| T0 | T1 | T2 | T3 | T4 | T5 | T6 | T7 | T8 | T9 | T10 | T11 | T12 | T13 | T14 |
+----+----+----+----+----+----+----+----+----+----+-----+-----+-----+-----+-----+
| 0  | 0  | 0  | 0  | 1  | 1  | 1  | 0  | 0  | 0  |  0  |  0  |  0  |  0  |  0  |
| 0  | 0  | 0  | 0  | 0  | 0  | 0  | 1  | 1  | 1  |  0  |  0  |  0  |  0  |  0  |
+----+----+----+----+----+----+----+----+----+----+-----+-----+-----+-----+-----+
14/07/2021 15:33:54[INFO] Supervisores para agregar   
+----+---------+-------------+------------+
| ID | Marcado | T - Entrada | T - Salida |
+----+---------+-------------+------------+
+----+---------+-------------+------------+
+-----+---------+--------------+---------------------------+
| Nro | Marcado | T - Entrada  |         T - Salida        |
+-----+---------+--------------+---------------------------+
|  1  |    1    | ['T6', 'T9'] | ['T1', 'T5', 'T8', 'T11'] |
+-----+---------+--------------+---------------------------+
14/07/2021 15:33:54[INFO] Ejecutando accion...   
14/07/2021 15:33:54[ACTION] Agregar o quitar arcos   
14/07/2021 15:33:54[ACTION] Eliminar arco desde P26 hasta T1   
14/07/2021 15:33:54[INFO] Se elimino el arco desde P26 hasta T1   
14/07/2021 15:33:54[ACTION] Eliminar arco desde P26 hasta T11   
14/07/2021 15:33:54[INFO] Se elimino el arco desde P26 hasta T11   

--------------------------------------------------------------------------   
14/07/2021 15:33:54[INFO] Ejecutando petrinator para conocer estado de la red...   
--------------------------------------------------------------------------
   

--------------------------------------------------------------------------
   
14/07/2021 15:33:58[INFO] Calculando recompensa..   
14/07/2021 15:33:58[REWARD] Hay menos o igual cantidad de sifones vacios que en el estado anterior, recompensa -1   

--------------------------------------------------------------------------
   
14/07/2021 15:33:58[STATE] Cambie al estado 2: Hay menos sifones vacios en deadlock   
+-----------------------------------------------------+--------------------+------------------------+
|                   Estados/Acciones                  | Agregar supervisor | Agregar o quitar arcos |
+-----------------------------------------------------+--------------------+------------------------+
|                        Start                        |        -1.0        |          0.0           |
|        Más sifónes vacíos en estado deadlock        |        0.0         |          -1.0          |
|       Menos sifónes vacíos en estado deadlock       |        0.0         |          0.0           |
| Igual cantidad de sifónes vacíos en estado deadlock |        0.0         |          0.0           |
|                         End                         |        0.0         |          0.0           |
+-----------------------------------------------------+--------------------+------------------------+
+----+-----+------------------------------------------+
| ID | Nro |                  Plazas                  |
+----+-----+------------------------------------------+
| 9  |  2  | ['P3', 'P8', 'P12', 'P15', 'P23', 'P25'] |
| 10 |  53 | ['P3', 'P8', 'P12', 'P14', 'P22', 'P23'] |
+----+-----+------------------------------------------+
+----+----+----+----+----+----+----+----+----+----+-----+-----+-----+-----+-----+
| T0 | T1 | T2 | T3 | T4 | T5 | T6 | T7 | T8 | T9 | T10 | T11 | T12 | T13 | T14 |
+----+----+----+----+----+----+----+----+----+----+-----+-----+-----+-----+-----+
| 1  | 1  | 1  | 1  | 0  | 0  | 0  | 0  | 0  | 0  |  0  |  0  |  0  |  0  |  0  |
| 0  | 0  | 0  | 0  | 1  | 1  | 1  | 0  | 0  | 0  |  0  |  0  |  0  |  0  |  0  |
| 0  | 0  | 0  | 0  | 0  | 0  | 0  | 1  | 1  | 1  |  0  |  0  |  0  |  0  |  0  |
| 0  | 0  | 0  | 0  | 0  | 0  | 0  | 0  | 0  | 0  |  1  |  1  |  1  |  1  |  1  |
+----+----+----+----+----+----+----+----+----+----+-----+-----+-----+-----+-----+
14/07/2021 15:33:58[INFO] Supervisores para agregar   
+-----+---------+---------------------+---------------------------+
|  ID | Marcado |     T - Entrada     |         T - Salida        |
+-----+---------+---------------------+---------------------------+
| P27 |    1    | ['T3', 'T6', 'T10'] | ['T1', 'T5', 'T8', 'T11'] |
| P27 |    1    | ['T3', 'T6', 'T10'] | ['T1', 'T5', 'T8', 'T11'] |
+-----+---------+---------------------+---------------------------+
+-----+---------+--------------+---------------------------+
| Nro | Marcado | T - Entrada  |         T - Salida        |
+-----+---------+--------------+---------------------------+
|  1  |    1    | ['T6', 'T9'] | ['T1', 'T5', 'T8', 'T11'] |
+-----+---------+--------------+---------------------------+
14/07/2021 15:33:58[INFO] Ejecutando accion...   
14/07/2021 15:33:58[ACTION] Agregar o quitar arcos   

--------------------------------------------------------------------------   
14/07/2021 15:33:58[INFO] Ejecutando petrinator para conocer estado de la red...   
--------------------------------------------------------------------------
   

--------------------------------------------------------------------------
   
14/07/2021 15:34:02[INFO] Calculando recompensa..   
14/07/2021 15:34:02[REWARD] Hay menos o igual cantidad de sifones vacios que en el estado anterior, recompensa -1   

--------------------------------------------------------------------------
   
14/07/2021 15:34:02[STATE] Cambie al estado 3: Hay igual cantidad de sifones vacios en deadlock   
+-----------------------------------------------------+--------------------+------------------------+
|                   Estados/Acciones                  | Agregar supervisor | Agregar o quitar arcos |
+-----------------------------------------------------+--------------------+------------------------+
|                        Start                        |        -1.0        |          0.0           |
|        Más sifónes vacíos en estado deadlock        |        0.0         |          -1.0          |
|       Menos sifónes vacíos en estado deadlock       |        0.0         |          -1.0          |
| Igual cantidad de sifónes vacíos en estado deadlock |        0.0         |          0.0           |
|                         End                         |        0.0         |          0.0           |
+-----------------------------------------------------+--------------------+------------------------+
+----+-----+------------------------------------------+
| ID | Nro |                  Plazas                  |
+----+-----+------------------------------------------+
| 11 |  2  | ['P3', 'P8', 'P12', 'P15', 'P23', 'P25'] |
| 12 |  53 | ['P3', 'P8', 'P12', 'P14', 'P22', 'P23'] |
+----+-----+------------------------------------------+
+----+----+----+----+----+----+----+----+----+----+-----+-----+-----+-----+-----+
| T0 | T1 | T2 | T3 | T4 | T5 | T6 | T7 | T8 | T9 | T10 | T11 | T12 | T13 | T14 |
+----+----+----+----+----+----+----+----+----+----+-----+-----+-----+-----+-----+
| 1  | 1  | 1  | 1  | 0  | 0  | 0  | 0  | 0  | 0  |  0  |  0  |  0  |  0  |  0  |
| 0  | 0  | 0  | 0  | 1  | 1  | 1  | 0  | 0  | 0  |  0  |  0  |  0  |  0  |  0  |
| 0  | 0  | 0  | 0  | 0  | 0  | 0  | 1  | 1  | 1  |  0  |  0  |  0  |  0  |  0  |
| 0  | 0  | 0  | 0  | 0  | 0  | 0  | 0  | 0  | 0  |  1  |  1  |  1  |  1  |  1  |
+----+----+----+----+----+----+----+----+----+----+-----+-----+-----+-----+-----+
14/07/2021 15:34:02[INFO] Supervisores para agregar   
+-----+---------+---------------------+---------------------------+
|  ID | Marcado |     T - Entrada     |         T - Salida        |
+-----+---------+---------------------+---------------------------+
| P27 |    1    | ['T3', 'T6', 'T10'] | ['T1', 'T5', 'T8', 'T11'] |
| P27 |    1    | ['T3', 'T6', 'T10'] | ['T1', 'T5', 'T8', 'T11'] |
+-----+---------+---------------------+---------------------------+
+-----+---------+--------------+---------------------------+
| Nro | Marcado | T - Entrada  |         T - Salida        |
+-----+---------+--------------+---------------------------+
|  1  |    1    | ['T6', 'T9'] | ['T1', 'T5', 'T8', 'T11'] |
+-----+---------+--------------+---------------------------+
14/07/2021 15:34:02[INFO] Ejecutando accion...   
14/07/2021 15:34:02[ACTION] Agregar o quitar arcos   

--------------------------------------------------------------------------   
14/07/2021 15:34:02[INFO] Ejecutando petrinator para conocer estado de la red...   
--------------------------------------------------------------------------
   

--------------------------------------------------------------------------
   
14/07/2021 15:34:06[INFO] Calculando recompensa..   
14/07/2021 15:34:06[REWARD] Hay menos o igual cantidad de sifones vacios que en el estado anterior, recompensa -1   

--------------------------------------------------------------------------
   
14/07/2021 15:34:06[STATE] Cambie al estado 3: Hay igual cantidad de sifones vacios en deadlock   
+-----------------------------------------------------+--------------------+------------------------+
|                   Estados/Acciones                  | Agregar supervisor | Agregar o quitar arcos |
+-----------------------------------------------------+--------------------+------------------------+
|                        Start                        |        -1.0        |          0.0           |
|        Más sifónes vacíos en estado deadlock        |        0.0         |          -1.0          |
|       Menos sifónes vacíos en estado deadlock       |        0.0         |          -1.0          |
| Igual cantidad de sifónes vacíos en estado deadlock |        0.0         |          -1.0          |
|                         End                         |        0.0         |          0.0           |
+-----------------------------------------------------+--------------------+------------------------+
+----+-----+------------------------------------------+
| ID | Nro |                  Plazas                  |
+----+-----+------------------------------------------+
| 13 |  2  | ['P3', 'P8', 'P12', 'P15', 'P23', 'P25'] |
| 14 |  53 | ['P3', 'P8', 'P12', 'P14', 'P22', 'P23'] |
+----+-----+------------------------------------------+
+----+----+----+----+----+----+----+----+----+----+-----+-----+-----+-----+-----+
| T0 | T1 | T2 | T3 | T4 | T5 | T6 | T7 | T8 | T9 | T10 | T11 | T12 | T13 | T14 |
+----+----+----+----+----+----+----+----+----+----+-----+-----+-----+-----+-----+
| 1  | 1  | 1  | 1  | 0  | 0  | 0  | 0  | 0  | 0  |  0  |  0  |  0  |  0  |  0  |
| 0  | 0  | 0  | 0  | 1  | 1  | 1  | 0  | 0  | 0  |  0  |  0  |  0  |  0  |  0  |
| 0  | 0  | 0  | 0  | 0  | 0  | 0  | 1  | 1  | 1  |  0  |  0  |  0  |  0  |  0  |
| 0  | 0  | 0  | 0  | 0  | 0  | 0  | 0  | 0  | 0  |  1  |  1  |  1  |  1  |  1  |
+----+----+----+----+----+----+----+----+----+----+-----+-----+-----+-----+-----+
14/07/2021 15:34:06[INFO] Supervisores para agregar   
+-----+---------+---------------------+---------------------------+
|  ID | Marcado |     T - Entrada     |         T - Salida        |
+-----+---------+---------------------+---------------------------+
| P27 |    1    | ['T3', 'T6', 'T10'] | ['T1', 'T5', 'T8', 'T11'] |
| P27 |    1    | ['T3', 'T6', 'T10'] | ['T1', 'T5', 'T8', 'T11'] |
+-----+---------+---------------------+---------------------------+
+-----+---------+--------------+---------------------------+
| Nro | Marcado | T - Entrada  |         T - Salida        |
+-----+---------+--------------+---------------------------+
|  1  |    1    | ['T6', 'T9'] | ['T1', 'T5', 'T8', 'T11'] |
+-----+---------+--------------+---------------------------+
14/07/2021 15:34:06[INFO] Ejecutando accion...   
14/07/2021 15:34:06[INFO] Ejecutando accion...   
14/07/2021 15:34:06[ACTION] Agrego supervisor aleatorio Numero: 1  

--------------------------------------------------------------------------   
14/07/2021 15:34:06[INFO] Ejecutando petrinator para conocer estado de la red...   
--------------------------------------------------------------------------
   

--------------------------------------------------------------------------
   
14/07/2021 15:34:10[INFO] Calculando recompensa..   
14/07/2021 15:34:10[REWARD] El sifon se controlo correctamente, recompensa -1   

--------------------------------------------------------------------------
   
14/07/2021 15:34:10[STATE] Cambie al estado 2: Hay menos sifones vacios en deadlock   
+-----------------------------------------------------+--------------------+------------------------+
|                   Estados/Acciones                  | Agregar supervisor | Agregar o quitar arcos |
+-----------------------------------------------------+--------------------+------------------------+
|                        Start                        |        -1.0        |          0.0           |
|        Más sifónes vacíos en estado deadlock        |        0.0         |          -1.0          |
|       Menos sifónes vacíos en estado deadlock       |        0.0         |          -1.0          |
| Igual cantidad de sifónes vacíos en estado deadlock |        -1.0        |          -1.0          |
|                         End                         |        0.0         |          0.0           |
+-----------------------------------------------------+--------------------+------------------------+
+----+-----+-----------------------------------------+
| ID | Nro |                  Plazas                 |
+----+-----+-----------------------------------------+
| 15 |  16 | ['P1', 'P2', 'P7', 'P11', 'P12', 'P27'] |
+----+-----+-----------------------------------------+
+----+----+----+----+----+----+----+----+----+----+-----+-----+-----+-----+-----+
| T0 | T1 | T2 | T3 | T4 | T5 | T6 | T7 | T8 | T9 | T10 | T11 | T12 | T13 | T14 |
+----+----+----+----+----+----+----+----+----+----+-----+-----+-----+-----+-----+
| 1  | 1  | 1  | 1  | 0  | 0  | 0  | 0  | 0  | 0  |  0  |  0  |  0  |  0  |  0  |
| 0  | 0  | 0  | 0  | 1  | 1  | 1  | 0  | 0  | 0  |  0  |  0  |  0  |  0  |  0  |
| 0  | 0  | 0  | 0  | 0  | 0  | 0  | 1  | 1  | 1  |  0  |  0  |  0  |  0  |  0  |
+----+----+----+----+----+----+----+----+----+----+-----+-----+-----+-----+-----+
14/07/2021 15:34:10[INFO] Supervisores para agregar   
+----+---------+-------------+------------+
| ID | Marcado | T - Entrada | T - Salida |
+----+---------+-------------+------------+
+----+---------+-------------+------------+
+-----+---------+---------------------+---------------------------+
| Nro | Marcado |     T - Entrada     |         T - Salida        |
+-----+---------+---------------------+---------------------------+
|  1  |    1    |     ['T6', 'T9']    | ['T1', 'T5', 'T8', 'T11'] |
|  2  |    1    | ['T3', 'T6', 'T10'] | ['T1', 'T5', 'T8', 'T11'] |
+-----+---------+---------------------+---------------------------+
14/07/2021 15:34:10[INFO] Ejecutando accion...   
14/07/2021 15:34:10[INFO] Ejecutando accion...   
14/07/2021 15:34:10[ERROR] No hay supervisores en la lista, deberiamos penalizar la accion con -50   

--------------------------------------------------------------------------   
14/07/2021 15:34:10[INFO] Ejecutando petrinator para conocer estado de la red...   
--------------------------------------------------------------------------
   

--------------------------------------------------------------------------
   
14/07/2021 15:34:14[INFO] Calculando recompensa..   
14/07/2021 15:34:14[REWARD] El sifon se controlo correctamente, recompensa -1   

--------------------------------------------------------------------------
   
14/07/2021 15:34:14[STATE] Cambie al estado 3: Hay igual cantidad de sifones vacios en deadlock   
+-----------------------------------------------------+--------------------+------------------------+
|                   Estados/Acciones                  | Agregar supervisor | Agregar o quitar arcos |
+-----------------------------------------------------+--------------------+------------------------+
|                        Start                        |        -1.0        |          0.0           |
|        Más sifónes vacíos en estado deadlock        |        0.0         |          -1.0          |
|       Menos sifónes vacíos en estado deadlock       |        -1.9        |          -1.0          |
| Igual cantidad de sifónes vacíos en estado deadlock |        -1.0        |          -1.0          |
|                         End                         |        0.0         |          0.0           |
+-----------------------------------------------------+--------------------+------------------------+
+----+-----+-----------------------------------------+
| ID | Nro |                  Plazas                 |
+----+-----+-----------------------------------------+
| 16 |  16 | ['P1', 'P2', 'P7', 'P11', 'P12', 'P27'] |
+----+-----+-----------------------------------------+
+----+----+----+----+----+----+----+----+----+----+-----+-----+-----+-----+-----+
| T0 | T1 | T2 | T3 | T4 | T5 | T6 | T7 | T8 | T9 | T10 | T11 | T12 | T13 | T14 |
+----+----+----+----+----+----+----+----+----+----+-----+-----+-----+-----+-----+
| 1  | 1  | 1  | 1  | 0  | 0  | 0  | 0  | 0  | 0  |  0  |  0  |  0  |  0  |  0  |
| 0  | 0  | 0  | 0  | 1  | 1  | 1  | 0  | 0  | 0  |  0  |  0  |  0  |  0  |  0  |
| 0  | 0  | 0  | 0  | 0  | 0  | 0  | 1  | 1  | 1  |  0  |  0  |  0  |  0  |  0  |
+----+----+----+----+----+----+----+----+----+----+-----+-----+-----+-----+-----+
14/07/2021 15:34:14[INFO] Supervisores para agregar   
+----+---------+-------------+------------+
| ID | Marcado | T - Entrada | T - Salida |
+----+---------+-------------+------------+
+----+---------+-------------+------------+
+-----+---------+---------------------+---------------------------+
| Nro | Marcado |     T - Entrada     |         T - Salida        |
+-----+---------+---------------------+---------------------------+
|  1  |    1    |     ['T6', 'T9']    | ['T1', 'T5', 'T8', 'T11'] |
|  2  |    1    | ['T3', 'T6', 'T10'] | ['T1', 'T5', 'T8', 'T11'] |
+-----+---------+---------------------+---------------------------+
14/07/2021 15:34:14[INFO] Ejecutando accion...   
14/07/2021 15:34:14[ACTION] Agregar o quitar arcos   
14/07/2021 15:34:14[ACTION] Eliminar arco desde P27 hasta T11   
14/07/2021 15:34:14[INFO] Se elimino el arco desde P27 hasta T11   

--------------------------------------------------------------------------   
14/07/2021 15:34:14[INFO] Ejecutando petrinator para conocer estado de la red...   
--------------------------------------------------------------------------
   

--------------------------------------------------------------------------
   
14/07/2021 15:34:19[INFO] Calculando recompensa..   
14/07/2021 15:34:19[REWARD] No hay mas deadlock, recompensa 100   

--------------------------------------------------------------------------
   
14/07/2021 15:34:19[STATE] Se llego al estado deseado, NO HAY MAS DEADLOCK   

--------------------------------------------------------------------------
   
14/07/2021 15:34:19[STATE] Cambie al estado 2: Hay menos sifones vacios en deadlock   
+-----------------------------------------------------+--------------------+------------------------+
|                   Estados/Acciones                  | Agregar supervisor | Agregar o quitar arcos |
+-----------------------------------------------------+--------------------+------------------------+
|                        Start                        |        -1.0        |          0.0           |
|        Más sifónes vacíos en estado deadlock        |        0.0         |          -1.0          |
|       Menos sifónes vacíos en estado deadlock       |        -1.9        |          -1.0          |
| Igual cantidad de sifónes vacíos en estado deadlock |        -1.0        |         100.0          |
|                         End                         |        0.0         |          0.0           |
+-----------------------------------------------------+--------------------+------------------------+
