21/07/2021 10:15:58[DEBUG] pflow_file:  ../analysis/analisis_12_20072021/gen_nets2/20210720-191422_42/net.pflow  
21/07/2021 10:15:58[DEBUG] output_folder:  ../analysis/analisis_12_20072021/gen_nets2/20210720-191422_42/  
21/07/2021 10:15:58[DEBUG] html_path:  ../analysis/analisis_12_20072021/gen_nets2/20210720-191422_42/  
21/07/2021 10:15:58[DEBUG] txt_path:  ../analysis/analisis_12_20072021/gen_nets2/20210720-191422_42/txt_info  

--------------------------------------------------------------------------   
21/07/2021 10:15:58[INFO] Ejecutando petrinator para conocer estado de la red...   
--------------------------------------------------------------------------
   
21/07/2021 10:16:01[ERROR] La red ingresada no tiene deadlock, cerrando analisis 
  
