19/07/2021 23:27:05[DEBUG] pflow_file:  ../analysis/analisis_11_19072021/gen_nets/20210719-224351_23/net.pflow  
19/07/2021 23:27:05[DEBUG] output_folder:  ../analysis/analisis_11_19072021/gen_nets/20210719-224351_23/  
19/07/2021 23:27:05[DEBUG] html_path:  ../analysis/analisis_11_19072021/gen_nets/20210719-224351_23/  
19/07/2021 23:27:05[DEBUG] txt_path:  ../analysis/analisis_11_19072021/gen_nets/20210719-224351_23/txt_info  

--------------------------------------------------------------------------   
19/07/2021 23:27:05[INFO] Ejecutando petrinator para conocer estado de la red...   
--------------------------------------------------------------------------
   
19/07/2021 23:27:09[ERROR] La red ingresada no tiene deadlock, cerrando analisis 
  
