 Minimal siphons 
4 11 14 22 23 24 25
3 11 14 22 23 25
2 11 21
1 10 14 22
14 17
27 10 13
13 15
12 16
8 9 10 11 12 13 14 18 19 20
1 26 9
1 26 9 10
2 10 14 15 22 23
2 6
2 9 12 23
1 29 2 9 10 12 13
2 10 12 14 22 23
27 2 10 14 22 23
28 3 10 14 15 22 23
28 3 9 10
28 3 10 12 14 22 23
28 27 3 10 14 22 23
28 3 6 10 14 22
2 3 6
3 11 13 25
28 3 11 21
29 2 3 9 11 12 13 21
3 11 14 21 22 25
3 6 11 14 22 25
1 3 11 14 22 25
2 4 10 14 22 23 24
28 4 10 14 22 23 24
4 5
4 9 13 24
1 26 4 5 9
1 4 5 7
1 26 4 5 7 9
1 26 4 5 9 10
1 26 4 5 7 9 10
28 4 6 10 14 22 24
2 4 5 6
2 3 4 6
1 2 3 4 7
1 2 4 5 7
27 4 11 13 24 25
2 3 4 11 21
28 3 4 11 21
2 4 5 11 21
28 4 5 11 21
28 27 4 11 13 21 24
1 26 4 5 9 10 11
29 2 3 4 9 11 12 13 21
29 28 3 4 9 11 12 13 21
29 28 3 4 9 10 11 12 13
29 2 4 5 9 11 12 13 21
29 28 3 4 9 11 12 13 14 21
29 28 3 4 9 10 11 12 13 14
4 11 14 21 22 24 25
4 6 11 14 22 24 25
1 4 11 14 22 24 25
28 4 11 14 21 22 24
 Minimal traps 
1 9 12 22 23 25
2 9 12 23
12 16
3 11 13 25
4 9 13 24
27 10 13
13 15
14 17
4 5
27 3 9 13 24 25
28 3 9 13 24
3 4 5
28 3 9 10
28 27 3 9 10 13
8 9 10 11 12 13 14 18 19 20
28 27 3 9 10 12 13
2 11 21
2 6
2 3 4 5
27 2 9 13 21 24 25
28 2 9 13 21 24
28 2 9 10 21
28 2 6 9 10
28 2 3 9 10
28 27 2 3 9 10 13
2 9 10 11 21
27 2 9 10 11 13 21
28 27 2 3 9 10 12 13
27 2 6 8 9 10 11 12 13 18 19 20
27 2 9 10 11 12 13 21
27 2 8 9 10 11 12 13 21
1 2 11 21
1 2 6
1 2 3 4 7
1 2 3 4 5
1 10 13 21 22 25
1 10 14 22
1 6 10 13 22 25
1 3 10 13 22 25
1 9 13 21 22 24 25
1 26 9
1 6 9 13 22 24 25
1 3 9 13 22 24 25
1 28 27 26 3 9 13
1 27 26 3 4 7 9 13
1 27 26 3 4 5 9 13
1 27 26 2 3 4 7 9 13
1 28 27 26 2 3 9 13
1 27 26 2 3 4 5 9 13
1 28 27 2 3 9 10 13
1 28 6 9 13 22 24
1 28 9 13 21 22 24
1 29 26 8 9 11 12 13 18 19 20
1 29 2 9 12 13 24 25
1 29 2 9 10 12 13
1 29 28 2 9 12 13 24
1 27 26 2 3 4 7 9 12 13
1 28 27 26 2 3 9 12 13
1 27 26 2 3 4 5 9 12 13
1 28 27 2 3 9 10 12 13
1 29 26 2 8 9 11 12 13 18 19 20
1 29 9 12 13 22 24 25
1 29 9 10 12 13 22
1 29 28 9 12 13 22 24
1 4 9 12 22 23 24
1 28 9 12 22 23 24
1 9 12 15 22 23
1 9 12 14 22 23
1 27 9 12 22 23
1 29 9 12 22 23
 Analysis time: 1.958s