 Minimal siphons 
2 15 39
1 24 42
19 24 35
18 24 30
24 27
21 25
13 23 37
10 23 32
6 9 29
5 23 41
23 26
4 5 6 7
8 9 10 11
13 16
12 13 14 15 17
21 22 23 24 28
18 22 38
46 18 21 22 23
6 10 19 23 29 32 44
8 19 31
5 19 44
19 23 34
18 19 20
10 18 19 20 23 32
10 12 13 14 15 17 18 19 20 23 32
10 13 16 18 19 20 23 32
13 18 19 20 23 37
5 19 40
5 18 19 23 38 41
5 18 19 20 23 41
46 5 18 19 23 41
5 8 10 11 19 23 32 44
8 9 10 11 18 19 20
8 9 10 11 13 18 19 20 23 37
8 10 11 18 19 23 32 38
8 10 11 18 19 20 23 32
46 8 10 11 18 19 23 32
5 8 9 10 11 19 44
5 8 9 10 11 19 40
5 8 9 10 11 18 19 20 23 41
5 8 9 10 11 12 13 14 15 17 18 19 20 23 41
5 8 9 10 11 13 16 18 19 20 23 41
5 8 9 10 11 13 18 19 20 23 37 41
5 8 10 11 19 23 32 40
5 8 10 11 18 19 23 32 38 41
5 8 10 11 18 19 20 23 32 41
46 5 8 10 11 18 19 23 32 41
6 9 19 29 44
5 6 19 44
5 6 8 19 23 31 41
5 6 19 40
4 5 6 7 18 19 20
5 6 18 19 23 38 41
5 6 18 19 20 23 41
46 5 6 18 19 23 41
4 5 6 7 13 18 19 20 23 37
5 6 8 19 31 40
4 5 6 7 8 19 31
5 6 8 9 19 31 44
5 6 8 9 19 23 31 41
5 6 8 9 19 31 40
4 5 6 7 8 9 19 31
6 9 19 29 40
6 9 19 29 31
6 9 18 19 20 29
6 9 18 19 20 23 29 41
6 9 12 13 14 15 17 18 19 20 23 29 41
6 9 13 16 18 19 20 23 29 41
6 9 13 18 19 20 23 29 37
6 9 10 19 29 44
5 6 8 9 10 19 31 44
5 6 8 9 10 11 19 44
5 6 8 9 10 11 19 40
4 5 6 7 8 9 10 11 18 19 20
5 6 8 9 10 19 31 40
4 5 6 7 8 9 10 19 31
6 9 10 19 29 40
6 9 10 19 29 31
6 9 10 18 19 20 29
5 6 10 19 23 32 44
5 6 8 9 10 11 18 19 20 23 41
5 6 8 9 10 11 12 13 14 15 17 18 19 20 23 41
5 6 8 9 10 11 13 16 18 19 20 23 41
5 6 8 9 10 11 13 18 19 20 23 37 41
4 5 6 7 8 9 10 11 13 18 19 20 23 37
5 6 8 10 19 23 31 32 41
5 6 10 19 23 32 40
5 6 10 18 19 23 32 38 41
5 6 10 18 19 20 23 32 41
46 5 6 10 18 19 23 32 41
46 4 5 6 7 10 18 19 23 32
4 5 6 7 10 18 19 20 23 32
4 5 6 7 10 18 19 23 32 38
5 6 8 10 11 19 23 32 40
5 6 8 10 11 18 19 23 32 38 41
5 6 8 10 11 18 19 20 23 32 41
46 5 6 8 10 11 18 19 23 32 41
46 4 5 6 7 8 10 11 18 19 23 32
4 5 6 7 8 10 11 18 19 20 23 32
4 5 6 7 8 10 11 18 19 23 32 38
5 6 8 10 19 23 31 32 40
4 5 6 7 8 10 19 23 31 32
6 9 10 18 19 20 23 29 41
6 9 10 12 13 14 15 17 18 19 20 23 29 41
6 9 10 13 16 18 19 20 23 29 41
6 9 10 13 18 19 20 23 29 37
6 10 19 23 29 32 40
6 10 19 23 29 31 32
6 10 18 19 23 29 32 38
6 10 18 19 20 23 29 32
46 6 10 18 19 23 29 32
6 10 19 24 29 30 32 44
19 24 30 34
5 6 19 24 30 44
5 6 10 19 24 30 32 44
5 6 10 19 23 24 32 44
5 6 8 10 19 23 24 31 32 41
5 6 10 19 23 24 32 40
5 6 10 18 19 23 24 32 38 41
46 5 6 10 18 19 23 24 32 41
46 4 5 6 7 10 18 19 23 24 32
4 5 6 7 10 18 19 23 24 32 38
5 6 8 10 11 19 23 24 32 40
5 6 8 10 11 18 19 23 24 32 38 41
46 5 6 8 10 11 18 19 23 24 32 41
46 4 5 6 7 8 10 11 18 19 23 24 32
4 5 6 7 8 10 11 18 19 23 24 32 38
5 6 8 10 19 23 24 31 32 40
4 5 6 7 8 10 19 23 24 31 32
6 10 19 23 24 29 32 44
6 10 19 23 24 29 32 40
6 10 19 23 24 29 31 32
6 10 18 19 23 24 29 32 38
46 6 10 18 19 23 24 29 32
6 10 19 24 29 30 32 40
6 10 19 24 29 30 31 32
1 10 43
1 45 18 21 22 23
1 45 6 10 19 23 29 32 44
1 45 8 10 19 23 31 32
1 45 5 10 19 23 32 44
1 45 10 18 23 32
1 45 10 18 19 23 32
1 45 5 10 18 23 32 41
1 45 5 10 19 23 32 40
1 45 5 10 18 19 23 32 41
1 45 8 10 11 18 23 32
1 45 5 8 10 11 19 23 32 44
1 45 8 10 11 18 19 23 32
1 45 5 8 10 11 19 23 32 40
1 45 5 8 10 11 18 19 23 32 41
1 45 6 10 18 23 29 32
1 45 5 6 10 18 23 32 41
1 45 5 6 8 9 10 11 18 23 41
1 45 4 5 6 7 10 18 23 32
1 45 5 6 10 19 23 32 44
1 45 5 6 8 10 19 23 31 32 41
1 45 5 6 10 19 23 32 40
1 45 5 6 10 18 19 23 32 41
1 45 4 5 6 7 10 18 19 23 32
1 45 5 6 8 10 11 19 23 32 40
1 45 5 6 8 10 11 18 19 23 32 41
1 45 4 5 6 7 8 10 11 18 19 23 32
1 45 5 6 8 10 19 23 31 32 40
1 45 4 5 6 7 8 10 19 23 31 32
1 45 6 10 19 23 29 32 40
1 45 6 10 19 23 29 31 32
1 45 6 10 18 19 23 29 32
1 45 5 6 19 24 30 44
1 5 6 10 19 24 30 43 44
1 45 5 6 10 19 24 30 32 44
2 6 10 19 29 36 43 44
2 18 36
1 2 10 43
1 2 3
1 2 3 10 23 32
2 18 33
1 45 2 18 21 22 24 42
1 46 2 18 21 22 24 42
1 45 2 10 18 21 22 24 42 43
1 46 2 10 18 21 22 24 42 43
1 45 2 13 16 18 21 22 24 42
1 46 2 13 16 18 21 22 24 42
1 45 2 10 13 16 18 21 22 24 42 43
1 46 2 10 13 16 18 21 22 24 42 43
2 18 19 36
2 18 19 33
1 2 3 18 19 20
1 2 10 18 19 20 43
1 2 10 18 19 20 23 32 43
1 2 3 10 18 19 20 23 32
1 2 3 13 18 19 20 23 37
1 2 10 13 16 18 19 20 23 32 43
1 2 3 10 13 16 18 19 20 23 32
1 2 10 13 18 19 20 23 37 43
1 2 3 10 13 18 19 20 23 32 37
2 19 24 34 36 42
1 45 2 18 19 21 22 24 42
1 46 2 18 19 21 22 24 42
1 45 2 10 18 19 21 22 24 42 43
1 46 2 10 18 19 21 22 24 42 43
1 45 2 13 16 18 19 21 22 24 42
1 46 2 13 16 18 19 21 22 24 42
1 45 2 10 13 16 18 19 21 22 24 42 43
1 46 2 10 13 16 18 19 21 22 24 42 43
2 19 24 33 34 42
1 2 5 10 23 41 43
1 2 3 5 23 41
1 2 3 5 10 23 32 41
1 2 3 5 23 24 41
1 2 5 10 23 24 41 43
1 2 3 5 10 23 24 32 41
2 5 18 23 36 41
2 5 18 23 33 41
1 2 5 10 18 23 38 41 43
1 2 3 5 18 23 38 41
1 45 2 5 18 23 41
1 45 2 3 5 18 23 41
1 46 2 3 5 18 23 41
1 45 2 5 10 18 23 41 43
1 46 2 5 10 18 23 41 43
1 46 2 3 5 10 18 23 32 41
1 45 2 5 10 18 23 32 41
1 2 3 5 10 18 23 32 38 41
1 45 2 5 10 18 23 32 38 41
1 46 2 3 5 18 23 24 41
1 45 2 5 18 23 24 41
1 46 2 5 10 18 23 24 41 43
1 46 2 3 5 10 18 23 24 32 41
1 45 2 5 10 18 23 24 41 43
1 45 2 5 10 18 23 24 32 41
1 45 2 5 18 23 24 38 41
1 2 3 5 18 23 24 38 41
1 2 5 10 18 23 24 38 41 43
1 2 3 5 10 18 23 24 32 38 41
1 45 2 5 10 18 23 24 32 38 41
2 5 18 23 24 33 41
2 5 18 23 24 36 41
1 2 5 10 19 43 44
1 2 3 5 19 44
1 2 3 5 19 40
1 2 3 5 18 19 23 38 41
1 2 3 5 18 19 20 23 41
1 45 2 3 5 18 19 23 41
1 46 2 3 5 18 19 23 41
1 2 3 5 10 19 23 32 44
1 45 2 5 10 19 23 32 44
1 45 2 5 10 19 23 32 40
1 45 2 5 10 18 19 23 32 41
1 2 3 5 10 19 23 32 40
1 2 3 5 10 18 19 23 32 38 41
1 2 3 5 10 18 19 20 23 32 41
1 45 2 3 5 10 18 19 23 32 41
1 46 2 3 5 10 18 19 23 32 41
1 2 5 10 19 40 43
1 2 5 10 18 19 23 38 41 43
1 2 5 10 18 19 20 23 41 43
1 45 2 5 10 18 19 23 41 43
1 46 2 5 10 18 19 23 41 43
2 5 18 19 23 33 41
2 5 18 19 23 24 33 41
2 5 18 19 23 36 41
2 5 18 19 23 24 36 41
1 2 8 10 11 43
1 2 3 8 10 11 23 32
1 2 3 8 9 10 11
1 2 3 8 9 10 11 13 23 37
1 2 3 5 8 9 10 11 23 41
1 2 3 5 8 9 10 11 13 16 23 41
1 2 3 8 10 11 23 24 32
1 45 2 8 10 11 18 21 22 24 42 43
1 46 2 8 10 11 18 21 22 24 42 43
1 46 2 8 9 10 11 18 21 22 24 42
1 45 2 8 9 10 11 18 21 22 24 42
1 45 2 8 10 11 13 16 18 21 22 24 42 43
1 46 2 8 10 11 13 16 18 21 22 24 42 43
1 46 2 8 9 10 11 13 16 18 21 22 24 42
1 45 2 8 9 10 11 13 16 18 21 22 24 42
2 8 10 11 18 23 32 33
2 8 9 10 11 18 33
2 8 10 11 18 23 24 32 33
2 8 10 11 18 23 32 36
2 8 9 10 11 18 36
2 8 10 11 18 23 24 32 36
2 8 10 11 18 19 36 43
2 8 10 11 18 19 33 43
1 2 8 10 11 18 19 20 43
1 2 3 8 9 10 11 18 19 20
2 8 9 10 11 18 19 33
2 8 9 10 11 18 19 36
1 2 8 10 11 18 19 20 23 32 43
1 2 3 8 10 11 18 19 20 23 32
1 2 8 10 11 13 16 18 19 20 23 32 43
1 2 3 8 10 11 13 16 18 19 20 23 32
1 2 8 10 11 13 18 19 20 23 37 43
1 2 3 8 10 11 13 18 19 20 23 32 37
1 2 3 8 9 10 11 13 18 19 20 23 37
1 45 2 8 10 11 18 19 21 22 24 42 43
1 46 2 8 10 11 18 19 21 22 24 42 43
1 46 2 8 9 10 11 18 19 21 22 24 42
1 45 2 8 9 10 11 18 19 21 22 24 42
1 45 2 8 10 11 13 16 18 19 21 22 24 42 43
1 46 2 8 10 11 13 16 18 19 21 22 24 42 43
1 46 2 8 9 10 11 13 16 18 19 21 22 24 42
1 45 2 8 9 10 11 13 16 18 19 21 22 24 42
1 2 3 5 8 10 11 19 23 32 44
1 45 2 5 8 10 11 19 23 32 44
1 45 2 5 8 10 11 19 23 32 40
1 45 2 5 8 10 11 18 19 23 32 41
1 2 3 5 8 9 10 11 19 44
1 2 3 5 8 9 10 11 19 40
1 2 3 5 8 9 10 11 18 19 20 23 41
1 2 3 5 8 9 10 11 13 16 18 19 20 23 41
1 2 3 5 8 9 10 11 13 18 19 20 23 37 41
1 2 3 5 8 10 11 19 23 32 40
1 2 3 5 8 10 11 18 19 23 32 38 41
1 2 3 5 8 10 11 18 19 20 23 32 41
1 45 2 3 5 8 10 11 18 19 23 32 41
1 46 2 3 5 8 10 11 18 19 23 32 41
1 45 2 5 8 10 11 19 23 24 32 44
1 45 2 5 8 10 11 19 23 24 32 40
1 45 2 5 8 10 11 18 19 23 24 32 41
1 2 3 5 8 10 11 19 23 24 32 44
1 2 3 5 8 10 11 19 23 24 32 40
1 2 3 5 8 10 11 18 19 23 24 32 38 41
1 45 2 3 5 8 10 11 18 19 23 24 32 41
1 46 2 3 5 8 10 11 18 19 23 24 32 41
1 2 5 8 10 11 18 19 23 38 41 43
1 2 5 8 10 11 18 19 20 23 41 43
1 45 2 5 8 10 11 18 19 23 41 43
1 46 2 5 8 10 11 18 19 23 41 43
1 46 2 5 8 10 11 18 19 23 24 41 43
1 45 2 5 8 10 11 18 19 23 24 41 43
1 2 5 8 10 11 18 19 23 24 38 41 43
2 5 8 10 11 19 23 32 33 44
2 5 8 9 10 11 19 33 44
2 5 8 9 10 11 19 33 40
2 5 8 10 11 19 23 32 33 40
2 5 8 10 11 18 19 23 32 33 41
2 5 8 10 11 19 23 24 32 33 44
2 5 8 10 11 19 23 24 32 33 40
2 5 8 10 11 18 19 23 24 32 33 41
2 5 8 10 11 18 19 23 33 41 43
2 5 8 10 11 18 19 23 24 33 41 43
2 5 8 10 11 19 23 32 36 44
2 5 8 9 10 11 19 36 44
2 5 8 9 10 11 19 36 40
2 5 8 10 11 19 23 32 36 40
2 5 8 10 11 18 19 23 32 36 41
2 5 8 10 11 19 23 24 32 36 44
2 5 8 10 11 19 23 24 32 36 40
2 5 8 10 11 18 19 23 24 32 36 41
2 5 8 10 11 18 19 23 36 41 43
2 5 8 10 11 18 19 23 24 36 41 43
1 2 8 10 19 31 43
1 2 3 8 19 31
1 2 3 8 10 19 23 31 32
1 45 2 8 10 19 23 31 32
1 2 3 8 9 10 19 31
2 5 6 19 36 44
1 2 3 5 6 23 41
1 2 3 4 5 6 7
1 2 3 4 5 6 7 13 23 37
1 2 3 5 6 23 24 41
2 5 6 18 23 36 41
2 4 5 6 7 18 36
2 4 5 6 7 18 33
2 5 6 18 23 33 41
1 2 3 5 6 18 23 38 41
1 45 2 5 6 18 23 41
1 45 2 3 5 6 18 23 41
1 46 2 3 5 6 18 23 41
1 46 2 3 5 6 18 23 24 41
1 45 2 5 6 18 23 24 41
1 45 2 5 6 18 23 24 38 41
1 2 3 5 6 18 23 24 38 41
2 5 6 18 23 24 33 41
2 5 6 18 23 24 36 41
2 5 6 19 33 44
1 2 5 6 19 24 42 44
1 2 3 5 6 19 44
1 2 3 5 6 8 19 23 31 41
1 2 3 5 6 19 40
1 2 3 4 5 6 7 18 19 20
1 2 3 5 6 18 19 23 38 41
1 2 3 5 6 18 19 20 23 41
1 45 2 3 5 6 18 19 23 41
1 46 2 3 5 6 18 19 23 41
1 2 3 4 5 6 7 13 18 19 20 23 37
1 2 3 5 6 8 19 31 40
1 2 3 4 5 6 7 8 19 31
1 45 2 5 6 19 24 30 44
1 2 3 5 6 19 24 30 44
2 4 5 6 7 18 19 33
2 5 6 18 19 23 33 41
2 5 6 18 19 23 24 33 41
2 5 6 8 19 23 31 33 41
2 5 6 8 19 31 33 40
2 4 5 6 7 8 19 31 33
2 5 6 8 19 23 24 31 33 41
2 4 5 6 7 18 19 36
2 5 6 18 19 23 36 41
2 5 6 18 19 23 24 36 41
2 5 6 8 19 23 31 36 41
2 5 6 8 19 31 36 40
2 4 5 6 7 8 19 31 36
2 5 6 8 19 23 24 31 36 41
1 2 3 6 9 29
1 2 3 5 6 8 9 19 31 44
1 2 3 5 6 8 9 19 23 31 41
1 2 3 5 6 8 9 19 31 40
1 2 3 4 5 6 7 8 9 19 31
2 5 6 8 9 19 23 31 33 41
2 5 6 8 9 19 31 33 40
2 4 5 6 7 8 9 19 31 33
2 5 6 8 9 19 23 24 31 33 41
2 5 6 8 9 19 23 31 36 41
2 5 6 8 9 19 31 36 40
2 4 5 6 7 8 9 19 31 36
2 5 6 8 9 19 23 24 31 36 41
1 2 3 6 9 19 29 44
1 2 3 6 9 19 29 40
1 2 3 6 9 19 29 31
1 2 3 6 9 18 19 20 29
1 2 3 6 9 18 19 20 23 29 41
1 2 3 6 9 13 16 18 19 20 23 29 41
1 2 3 6 9 13 18 19 20 23 29 37
2 6 9 19 29 31 33
2 6 9 18 19 29 33
2 6 9 19 29 31 36
2 6 9 18 19 29 36
1 2 6 10 29 43
1 2 5 6 10 23 41 43
1 2 4 5 6 7 10 43
1 2 3 4 5 6 7 8 9 10 11
1 2 4 5 6 7 10 13 23 37 43
1 2 4 5 6 7 10 23 32 43
1 2 3 4 5 6 7 10 23 32
1 2 4 5 6 7 10 13 16 23 32 43
1 2 3 4 5 6 7 10 13 16 23 32
1 2 3 4 5 6 7 10 13 23 32 37
1 2 3 4 5 6 7 8 9 10 11 13 23 37
1 2 3 5 6 10 23 32 41
1 2 3 5 6 8 9 10 11 23 41
1 2 5 6 10 23 24 41 43
1 2 3 5 6 10 23 24 32 41
1 2 3 5 6 8 9 10 11 23 24 41
1 2 3 6 10 23 29 32
1 2 3 6 9 10 29
1 2 3 6 9 10 13 23 29 37
1 2 3 6 9 10 23 29 41
1 2 3 6 9 10 13 16 23 29 41
1 2 3 6 10 23 24 29 32
2 5 6 10 18 23 36 41 43
2 4 5 6 7 10 18 36 43
2 4 5 6 7 10 18 33 43
2 4 5 6 7 8 9 10 11 18 33
2 4 5 6 7 8 9 10 11 18 36
2 5 6 10 18 23 33 41 43
1 2 5 6 10 18 23 38 41 43
1 45 2 5 6 10 18 23 41 43
1 46 2 5 6 10 18 23 41 43
1 46 2 3 5 6 10 18 23 32 41
1 46 2 3 5 6 8 9 10 11 18 23 41
1 45 2 5 6 10 18 23 32 41
1 45 2 5 6 8 9 10 11 18 23 41
1 2 3 5 6 10 18 23 32 38 41
1 45 2 5 6 10 18 23 32 38 41
1 45 2 5 6 8 9 10 11 18 23 38 41
1 2 3 5 6 8 9 10 11 18 23 38 41
2 5 6 10 18 23 32 33 41
2 5 6 8 9 10 11 18 23 33 41
2 5 6 10 18 23 32 36 41
2 5 6 8 9 10 11 18 23 36 41
1 46 2 5 6 10 18 23 24 41 43
1 46 2 3 5 6 10 18 23 24 32 41
1 46 2 3 5 6 8 9 10 11 18 23 24 41
1 45 2 5 6 10 18 23 24 41 43
1 45 2 5 6 10 18 23 24 32 41
1 45 2 5 6 8 9 10 11 18 23 24 41
1 2 5 6 10 18 23 24 38 41 43
1 2 3 5 6 10 18 23 24 32 38 41
1 45 2 5 6 10 18 23 24 32 38 41
1 45 2 5 6 8 9 10 11 18 23 24 38 41
1 2 3 5 6 8 9 10 11 18 23 24 38 41
2 5 6 10 18 23 24 33 41 43
2 5 6 10 18 23 24 32 33 41
2 5 6 8 9 10 11 18 23 24 33 41
2 5 6 10 18 23 24 36 41 43
2 5 6 10 18 23 24 32 36 41
2 5 6 8 9 10 11 18 23 24 36 41
2 6 10 18 23 29 32 33
2 6 9 10 18 29 33
2 6 10 18 23 24 29 32 33
2 6 10 18 23 29 32 36
2 6 9 10 18 29 36
2 6 10 18 23 24 29 32 36
2 5 6 10 19 36 43 44
2 5 6 10 19 33 43 44
1 2 5 6 10 19 43 44
1 2 5 6 10 19 24 32 42 44
1 2 3 5 6 10 19 23 32 44
1 45 2 5 6 10 19 23 32 44
1 45 2 5 6 8 10 19 23 31 32 41
1 45 2 5 6 10 19 23 32 40
1 45 2 5 6 10 18 19 23 32 41
1 45 2 4 5 6 7 10 18 19 23 32
1 45 2 5 6 8 10 11 19 23 32 40
1 45 2 5 6 8 10 11 18 19 23 32 41
1 45 2 4 5 6 7 8 10 11 18 19 23 32
1 45 2 5 6 8 10 19 23 31 32 40
1 45 2 4 5 6 7 8 10 19 23 31 32
1 2 3 5 6 8 9 10 19 31 44
1 2 3 5 6 8 9 10 11 19 44
1 2 3 5 6 8 9 10 11 19 40
1 2 3 4 5 6 7 8 9 10 11 18 19 20
1 2 3 5 6 8 9 10 19 31 40
1 2 3 4 5 6 7 8 9 10 19 31
1 2 3 5 6 8 9 10 11 18 19 20 23 41
1 2 3 5 6 8 9 10 11 13 16 18 19 20 23 41
1 2 3 5 6 8 9 10 11 13 18 19 20 23 37 41
1 2 3 4 5 6 7 8 9 10 11 13 18 19 20 23 37
1 2 3 5 6 8 10 19 23 31 32 41
1 2 3 5 6 10 19 23 32 40
1 2 3 5 6 10 18 19 23 32 38 41
1 2 3 5 6 10 18 19 20 23 32 41
1 45 2 3 5 6 10 18 19 23 32 41
1 46 2 3 5 6 10 18 19 23 32 41
1 46 2 3 4 5 6 7 10 18 19 23 32
1 45 2 3 4 5 6 7 10 18 19 23 32
1 2 3 4 5 6 7 10 18 19 20 23 32
1 2 3 4 5 6 7 10 18 19 23 32 38
1 2 3 5 6 8 10 11 19 23 32 40
1 2 3 5 6 8 10 11 18 19 23 32 38 41
1 2 3 5 6 8 10 11 18 19 20 23 32 41
1 45 2 3 5 6 8 10 11 18 19 23 32 41
1 46 2 3 5 6 8 10 11 18 19 23 32 41
1 46 2 3 4 5 6 7 8 10 11 18 19 23 32
1 45 2 3 4 5 6 7 8 10 11 18 19 23 32
1 2 3 4 5 6 7 8 10 11 18 19 20 23 32
1 2 3 4 5 6 7 8 10 11 18 19 23 32 38
1 2 3 5 6 8 10 19 23 31 32 40
1 2 3 4 5 6 7 8 10 19 23 31 32
1 45 2 5 6 10 19 24 30 32 44
1 45 2 5 6 10 19 23 24 32 44
1 45 2 5 6 8 10 19 23 24 31 32 41
1 45 2 5 6 10 19 23 24 32 40
1 45 2 5 6 10 18 19 23 24 32 41
1 45 2 4 5 6 7 10 18 19 23 24 32
1 45 2 5 6 8 10 11 19 23 24 32 40
1 45 2 5 6 8 10 11 18 19 23 24 32 41
1 45 2 4 5 6 7 8 10 11 18 19 23 24 32
1 45 2 5 6 8 10 19 23 24 31 32 40
1 45 2 4 5 6 7 8 10 19 23 24 31 32
1 2 3 5 6 10 19 24 30 32 44
1 2 3 5 6 10 19 23 24 32 44
1 2 3 5 6 8 10 19 23 24 31 32 41
1 2 3 5 6 10 19 23 24 32 40
1 2 3 5 6 10 18 19 23 24 32 38 41
1 45 2 3 5 6 10 18 19 23 24 32 41
1 46 2 3 5 6 10 18 19 23 24 32 41
1 46 2 3 4 5 6 7 10 18 19 23 24 32
1 45 2 3 4 5 6 7 10 18 19 23 24 32
1 2 3 4 5 6 7 10 18 19 23 24 32 38
1 2 3 5 6 8 10 11 19 23 24 32 40
1 2 3 5 6 8 10 11 18 19 23 24 32 38 41
1 45 2 3 5 6 8 10 11 18 19 23 24 32 41
1 46 2 3 5 6 8 10 11 18 19 23 24 32 41
1 46 2 3 4 5 6 7 8 10 11 18 19 23 24 32
1 45 2 3 4 5 6 7 8 10 11 18 19 23 24 32
1 2 3 4 5 6 7 8 10 11 18 19 23 24 32 38
1 2 3 5 6 8 10 19 23 24 31 32 40
1 2 3 4 5 6 7 8 10 19 23 24 31 32
1 2 4 5 6 7 10 18 19 20 43
1 2 5 6 10 18 19 23 38 41 43
1 2 5 6 10 18 19 20 23 41 43
1 45 2 5 6 10 18 19 23 41 43
1 46 2 5 6 10 18 19 23 41 43
1 2 4 5 6 7 10 13 18 19 20 23 37 43
1 2 4 5 6 7 10 18 19 20 23 32 43
1 2 4 5 6 7 10 13 16 18 19 20 23 32 43
1 46 2 5 6 10 18 19 23 24 41 43
1 45 2 5 6 10 18 19 23 24 41 43
1 2 5 6 10 18 19 23 24 38 41 43
1 2 5 6 8 10 19 23 31 41 43
1 2 5 6 8 10 19 31 40 43
1 2 5 6 8 10 11 19 40 43
1 2 4 5 6 7 8 10 11 18 19 20 43
1 2 4 5 6 7 8 10 19 31 43
1 2 5 6 8 10 11 18 19 20 23 41 43
1 2 4 5 6 7 8 10 11 18 19 20 23 32 43
1 2 5 6 8 10 11 13 16 18 19 20 23 41 43
1 2 4 5 6 7 8 10 11 13 16 18 19 20 23 32 43
1 2 5 6 8 10 11 13 18 19 20 23 37 41 43
1 2 4 5 6 7 8 10 11 13 18 19 20 23 37 43
1 46 2 5 6 8 10 11 18 19 23 24 41 43
1 45 2 5 6 8 10 11 18 19 23 24 41 43
1 2 5 6 8 10 11 18 19 23 24 38 41 43
1 2 5 6 8 10 19 23 24 31 41 43
2 5 6 10 19 24 32 33 42 44
2 5 6 10 19 23 32 33 44
2 5 6 8 9 10 19 31 33 44
2 5 6 8 9 10 11 19 33 44
2 5 6 8 9 10 11 19 33 40
2 4 5 6 7 8 9 10 11 18 19 33
2 5 6 8 9 10 19 31 33 40
2 4 5 6 7 8 9 10 19 31 33
2 5 6 8 10 19 23 31 32 33 41
2 5 6 10 19 23 32 33 40
2 5 6 10 18 19 23 32 33 41
2 4 5 6 7 10 18 19 23 32 33
2 5 6 8 10 11 19 23 32 33 40
2 5 6 8 10 11 18 19 23 32 33 41
2 4 5 6 7 8 10 11 18 19 23 32 33
2 5 6 8 10 19 23 31 32 33 40
2 4 5 6 7 8 10 19 23 31 32 33
2 5 6 10 19 24 30 32 33 44
2 5 6 10 19 23 24 32 33 44
2 5 6 8 10 19 23 24 31 32 33 41
2 5 6 10 19 23 24 32 33 40
2 5 6 10 18 19 23 24 32 33 41
2 4 5 6 7 10 18 19 23 24 32 33
2 5 6 8 10 11 19 23 24 32 33 40
2 5 6 8 10 11 18 19 23 24 32 33 41
2 4 5 6 7 8 10 11 18 19 23 24 32 33
2 5 6 8 10 19 23 24 31 32 33 40
2 4 5 6 7 8 10 19 23 24 31 32 33
2 4 5 6 7 10 18 19 33 43
2 5 6 10 18 19 23 33 41 43
2 5 6 10 18 19 23 24 33 41 43
2 5 6 8 10 19 23 31 33 41 43
2 5 6 8 10 19 31 33 40 43
2 5 6 8 10 11 19 33 40 43
2 4 5 6 7 8 10 11 18 19 33 43
2 4 5 6 7 8 10 19 31 33 43
2 5 6 8 10 11 18 19 23 24 33 41 43
2 5 6 8 10 19 23 24 31 33 41 43
2 5 6 10 19 24 32 36 42 44
2 5 6 10 19 23 32 36 44
2 5 6 8 9 10 19 31 36 44
2 5 6 8 9 10 11 19 36 44
2 5 6 8 9 10 11 19 36 40
2 4 5 6 7 8 9 10 11 18 19 36
2 5 6 8 9 10 19 31 36 40
2 4 5 6 7 8 9 10 19 31 36
2 5 6 8 10 19 23 31 32 36 41
2 5 6 10 19 23 32 36 40
2 5 6 10 18 19 23 32 36 41
2 4 5 6 7 10 18 19 23 32 36
2 5 6 8 10 11 19 23 32 36 40
2 5 6 8 10 11 18 19 23 32 36 41
2 4 5 6 7 8 10 11 18 19 23 32 36
2 5 6 8 10 19 23 31 32 36 40
2 4 5 6 7 8 10 19 23 31 32 36
2 5 6 10 19 24 30 32 36 44
2 5 6 10 19 23 24 32 36 44
2 5 6 8 10 19 23 24 31 32 36 41
2 5 6 10 19 23 24 32 36 40
2 5 6 10 18 19 23 24 32 36 41
2 4 5 6 7 10 18 19 23 24 32 36
2 5 6 8 10 11 19 23 24 32 36 40
2 5 6 8 10 11 18 19 23 24 32 36 41
2 4 5 6 7 8 10 11 18 19 23 24 32 36
2 5 6 8 10 19 23 24 31 32 36 40
2 4 5 6 7 8 10 19 23 24 31 32 36
2 4 5 6 7 10 18 19 36 43
2 5 6 10 18 19 23 36 41 43
2 5 6 10 18 19 23 24 36 41 43
2 5 6 8 10 19 23 31 36 41 43
2 5 6 8 10 19 31 36 40 43
2 5 6 8 10 11 19 36 40 43
2 4 5 6 7 8 10 11 18 19 36 43
2 4 5 6 7 8 10 19 31 36 43
2 5 6 8 10 11 18 19 23 24 36 41 43
2 5 6 8 10 19 23 24 31 36 41 43
2 6 10 19 29 33 43 44
1 2 6 10 19 29 43 44
1 2 3 6 10 19 23 29 32 44
1 45 2 6 10 19 23 29 32 44
1 45 2 6 10 19 23 29 32 40
1 45 2 6 10 19 23 29 31 32
1 45 2 6 10 18 19 23 29 32
1 2 3 6 9 10 19 29 44
1 2 3 6 9 10 19 29 40
1 2 3 6 9 10 19 29 31
1 2 3 6 9 10 18 19 20 29
1 2 3 6 9 10 18 19 20 23 29 41
1 2 3 6 9 10 13 16 18 19 20 23 29 41
1 2 3 6 9 10 13 18 19 20 23 29 37
1 2 3 6 10 19 23 29 32 40
1 2 3 6 10 19 23 29 31 32
1 2 3 6 10 18 19 23 29 32 38
1 2 3 6 10 18 19 20 23 29 32
1 45 2 3 6 10 18 19 23 29 32
1 46 2 3 6 10 18 19 23 29 32
1 45 2 6 10 19 23 24 29 32 44
1 45 2 6 10 19 23 24 29 32 40
1 45 2 6 10 19 23 24 29 31 32
1 45 2 6 10 18 19 23 24 29 32
1 2 3 6 10 19 23 24 29 32 44
1 2 3 6 10 19 23 24 29 32 40
1 2 3 6 10 19 23 24 29 31 32
1 2 3 6 10 18 19 23 24 29 32 38
1 45 2 3 6 10 18 19 23 24 29 32
1 46 2 3 6 10 18 19 23 24 29 32
1 2 6 10 19 29 40 43
1 2 6 10 19 29 31 43
1 2 6 10 18 19 20 29 43
1 2 6 10 18 19 20 23 29 41 43
1 2 6 10 18 19 20 23 29 32 43
1 2 6 10 13 16 18 19 20 23 29 41 43
1 2 6 10 13 16 18 19 20 23 29 32 43
1 2 6 10 13 18 19 20 23 29 37 43
2 6 10 19 24 29 32 33 42 44
2 6 10 19 23 29 32 33 44
2 6 9 10 19 29 33 44
2 6 9 10 19 29 33 40
2 6 9 10 19 29 31 33
2 6 9 10 18 19 29 33
2 6 10 19 23 29 32 33 40
2 6 10 19 23 29 31 32 33
2 6 10 18 19 23 29 32 33
2 6 10 19 23 24 29 32 33 44
2 6 10 19 23 24 29 32 33 40
2 6 10 19 23 24 29 31 32 33
2 6 10 18 19 23 24 29 32 33
2 6 10 19 24 29 32 33 40 42
2 6 10 19 24 29 31 32 33 42
2 6 10 19 29 33 40 43
2 6 10 19 29 31 33 43
2 6 10 18 19 29 33 43
2 6 10 19 24 29 32 36 42 44
2 6 10 19 23 29 32 36 44
2 6 9 10 19 29 36 44
2 6 9 10 19 29 36 40
2 6 9 10 19 29 31 36
2 6 9 10 18 19 29 36
2 6 10 19 23 29 32 36 40
2 6 10 19 23 29 31 32 36
2 6 10 18 19 23 29 32 36
2 6 10 19 23 24 29 32 36 44
2 6 10 19 23 24 29 32 36 40
2 6 10 19 23 24 29 31 32 36
2 6 10 18 19 23 24 29 32 36
2 6 10 19 24 29 32 36 40 42
2 6 10 19 24 29 31 32 36 42
2 6 10 19 29 36 40 43
2 6 10 19 29 31 36 43
2 6 10 18 19 29 36 43
1 2 10 13 14 15 23 37 43
1 2 3 13 14 15 23 37
1 2 3 13 14 15 16
1 2 3 12 13 14 15 17
1 2 10 13 14 15 16 43
1 2 10 12 13 14 15 17 43
1 2 10 13 14 15 16 23 32 43
1 2 10 12 13 14 15 17 23 32 43
1 2 3 10 12 13 14 15 17 23 32
1 2 3 10 13 14 15 16 23 32
1 2 3 10 13 14 15 23 32 37
2 13 14 15 16 18 36
2 12 13 14 15 17 18 36
2 12 13 14 15 17 18 33
2 13 14 15 16 18 33
1 45 2 12 13 14 15 17 18 21 22 24 42
1 46 2 12 13 14 15 17 18 21 22 24 42
1 45 2 13 14 15 16 18 21 22 24 42
1 46 2 13 14 15 16 18 21 22 24 42
1 45 2 10 12 13 14 15 17 18 21 22 24 42 43
1 46 2 10 12 13 14 15 17 18 21 22 24 42 43
1 45 2 10 13 14 15 16 18 21 22 24 42 43
1 46 2 10 13 14 15 16 18 21 22 24 42 43
2 13 14 15 16 18 19 36
2 12 13 14 15 17 18 19 36
2 12 13 14 15 17 18 19 33
1 2 3 12 13 14 15 17 18 19 20
1 2 10 12 13 14 15 17 18 19 20 43
2 13 14 15 16 18 19 33
1 2 3 13 14 15 16 18 19 20
1 2 10 13 14 15 16 18 19 20 43
1 2 3 13 14 15 18 19 20 23 37
1 2 10 12 13 14 15 17 18 19 20 23 32 43
1 2 3 10 12 13 14 15 17 18 19 20 23 32
1 2 10 13 14 15 16 18 19 20 23 32 43
1 2 3 10 13 14 15 16 18 19 20 23 32
1 2 10 13 14 15 18 19 20 23 37 43
1 2 3 10 13 14 15 18 19 20 23 32 37
1 45 2 12 13 14 15 17 18 19 21 22 24 42
1 46 2 12 13 14 15 17 18 19 21 22 24 42
1 45 2 13 14 15 16 18 19 21 22 24 42
1 46 2 13 14 15 16 18 19 21 22 24 42
1 45 2 10 12 13 14 15 17 18 19 21 22 24 42 43
1 46 2 10 12 13 14 15 17 18 19 21 22 24 42 43
1 45 2 10 13 14 15 16 18 19 21 22 24 42 43
1 46 2 10 13 14 15 16 18 19 21 22 24 42 43
1 2 5 10 13 14 15 23 37 41 43
1 2 3 5 13 14 15 23 37 41
1 2 3 5 13 14 15 16 23 41
1 2 3 5 12 13 14 15 17 23 41
1 2 5 10 13 14 15 16 23 41 43
1 2 5 10 12 13 14 15 17 23 41 43
1 2 3 5 10 12 13 14 15 17 23 32 41
1 2 3 5 10 13 14 15 16 23 32 41
1 2 3 5 10 13 14 15 23 32 37 41
1 2 3 5 12 13 14 15 17 18 19 20 23 41
1 2 3 5 13 14 15 16 18 19 20 23 41
1 2 3 5 13 14 15 18 19 20 23 37 41
1 2 3 5 10 12 13 14 15 17 18 19 20 23 32 41
1 2 5 10 12 13 14 15 17 18 19 20 23 41 43
1 2 3 5 10 13 14 15 16 18 19 20 23 32 41
1 2 5 10 13 14 15 16 18 19 20 23 41 43
1 2 3 5 10 13 14 15 18 19 20 23 32 37 41
1 2 5 10 13 14 15 18 19 20 23 37 41 43
1 2 8 10 11 13 14 15 23 37 43
1 2 8 10 11 13 14 15 16 43
1 2 8 10 11 12 13 14 15 17 43
1 2 3 8 9 10 11 12 13 14 15 17
1 2 3 8 9 10 11 13 14 15 16
1 2 5 8 10 11 13 14 15 16 23 41 43
1 2 8 10 11 13 14 15 16 23 32 43
1 2 8 10 11 12 13 14 15 17 23 32 43
1 2 3 8 10 11 12 13 14 15 17 23 32
1 2 3 8 10 11 13 14 15 16 23 32
1 2 5 8 10 11 12 13 14 15 17 23 41 43
1 2 3 5 8 10 11 12 13 14 15 17 23 32 41
1 2 3 5 8 9 10 11 12 13 14 15 17 23 41
1 2 3 5 8 10 11 13 14 15 16 23 32 41
1 2 3 5 8 9 10 11 13 14 15 16 23 41
1 2 3 8 10 11 13 14 15 23 32 37
1 2 3 8 9 10 11 13 14 15 23 37
2 8 10 11 13 14 15 16 18 36 43
2 8 10 11 12 13 14 15 17 18 36 43
2 8 10 11 12 13 14 15 17 18 33 43
2 8 9 10 11 12 13 14 15 17 18 33
2 8 9 10 11 12 13 14 15 17 18 36
2 8 10 11 13 14 15 16 18 33 43
2 8 9 10 11 13 14 15 16 18 33
2 8 9 10 11 13 14 15 16 18 36
1 45 2 8 10 11 12 13 14 15 17 18 21 22 24 42 43
1 46 2 8 10 11 12 13 14 15 17 18 21 22 24 42 43
1 46 2 8 9 10 11 12 13 14 15 17 18 21 22 24 42
1 45 2 8 9 10 11 12 13 14 15 17 18 21 22 24 42
1 45 2 8 10 11 13 14 15 16 18 21 22 24 42 43
1 46 2 8 10 11 13 14 15 16 18 21 22 24 42 43
1 46 2 8 9 10 11 13 14 15 16 18 21 22 24 42
1 45 2 8 9 10 11 13 14 15 16 18 21 22 24 42
2 8 10 11 12 13 14 15 17 18 19 36 43
2 8 10 11 12 13 14 15 17 18 19 33 43
1 2 8 10 11 12 13 14 15 17 18 19 20 43
1 2 3 8 9 10 11 12 13 14 15 17 18 19 20
2 8 9 10 11 12 13 14 15 17 18 19 33
2 8 9 10 11 12 13 14 15 17 18 19 36
2 8 10 11 13 14 15 16 18 19 36 43
2 8 10 11 13 14 15 16 18 19 33 43
1 2 8 10 11 13 14 15 16 18 19 20 43
1 2 3 8 9 10 11 13 14 15 16 18 19 20
2 8 9 10 11 13 14 15 16 18 19 33
2 8 9 10 11 13 14 15 16 18 19 36
1 2 8 10 11 12 13 14 15 17 18 19 20 23 32 43
1 2 3 8 10 11 12 13 14 15 17 18 19 20 23 32
1 2 8 10 11 13 14 15 16 18 19 20 23 32 43
1 2 3 8 10 11 13 14 15 16 18 19 20 23 32
1 2 8 10 11 13 14 15 18 19 20 23 37 43
1 2 3 8 10 11 13 14 15 18 19 20 23 32 37
1 2 3 8 9 10 11 13 14 15 18 19 20 23 37
1 2 3 5 8 9 10 11 12 13 14 15 17 18 19 20 23 41
1 2 3 5 8 10 11 12 13 14 15 17 18 19 20 23 32 41
1 2 5 8 10 11 12 13 14 15 17 18 19 20 23 41 43
1 2 3 5 8 9 10 11 13 14 15 16 18 19 20 23 41
1 2 3 5 8 10 11 13 14 15 16 18 19 20 23 32 41
1 2 5 8 10 11 13 14 15 16 18 19 20 23 41 43
1 2 3 5 8 9 10 11 13 14 15 18 19 20 23 37 41
1 2 3 5 8 10 11 13 14 15 18 19 20 23 32 37 41
1 2 5 8 10 11 13 14 15 18 19 20 23 37 41 43
1 45 2 8 10 11 12 13 14 15 17 18 19 21 22 24 42 43
1 46 2 8 10 11 12 13 14 15 17 18 19 21 22 24 42 43
1 46 2 8 9 10 11 12 13 14 15 17 18 19 21 22 24 42
1 45 2 8 9 10 11 12 13 14 15 17 18 19 21 22 24 42
1 45 2 8 10 11 13 14 15 16 18 19 21 22 24 42 43
1 46 2 8 10 11 13 14 15 16 18 19 21 22 24 42 43
1 46 2 8 9 10 11 13 14 15 16 18 19 21 22 24 42
1 45 2 8 9 10 11 13 14 15 16 18 19 21 22 24 42
2 5 6 13 14 15 19 24 36 37 42 44
1 2 3 5 6 13 14 15 23 37 41
1 2 3 4 5 6 7 13 14 15 16
1 2 3 4 5 6 7 12 13 14 15 17
1 2 3 5 6 13 14 15 16 23 41
1 2 3 5 6 12 13 14 15 17 23 41
1 2 3 4 5 6 7 13 14 15 23 37
2 4 5 6 7 13 14 15 16 18 36
2 4 5 6 7 12 13 14 15 17 18 36
2 4 5 6 7 12 13 14 15 17 18 33
2 4 5 6 7 13 14 15 16 18 33
1 2 3 4 5 6 7 12 13 14 15 17 18 19 20
2 4 5 6 7 12 13 14 15 17 18 19 33
2 4 5 6 7 12 13 14 15 17 18 19 36
1 2 3 4 5 6 7 13 14 15 16 18 19 20
2 4 5 6 7 13 14 15 16 18 19 33
2 4 5 6 7 13 14 15 16 18 19 36
1 2 3 5 6 12 13 14 15 17 18 19 20 23 41
1 2 3 5 6 13 14 15 16 18 19 20 23 41
1 2 3 5 6 13 14 15 18 19 20 23 37 41
1 2 3 4 5 6 7 13 14 15 18 19 20 23 37
2 5 6 13 14 15 19 24 33 37 42 44
1 2 5 6 13 14 15 19 24 37 42 44
1 45 2 5 6 13 14 15 19 24 30 37 44
1 2 3 5 6 13 14 15 19 24 30 37 44
2 5 6 13 14 15 19 24 30 33 37 44
2 5 6 13 14 15 19 24 30 36 37 44
1 2 3 6 9 13 14 15 23 29 37
1 2 3 6 9 13 14 15 16 29
1 2 3 6 9 12 13 14 15 17 29
1 2 3 6 9 13 14 15 16 23 29 41
1 2 3 6 9 12 13 14 15 17 23 29 41
2 6 9 13 14 15 16 18 29 36
2 6 9 12 13 14 15 17 18 29 36
2 6 9 12 13 14 15 17 18 29 33
2 6 9 13 14 15 16 18 29 33
1 2 3 6 9 12 13 14 15 17 18 19 20 29
2 6 9 12 13 14 15 17 18 19 29 33
2 6 9 12 13 14 15 17 18 19 29 36
1 2 3 6 9 13 14 15 16 18 19 20 29
2 6 9 13 14 15 16 18 19 29 33
2 6 9 13 14 15 16 18 19 29 36
1 2 3 6 9 12 13 14 15 17 18 19 20 23 29 41
1 2 3 6 9 13 14 15 16 18 19 20 23 29 41
1 2 3 6 9 13 14 15 18 19 20 23 29 37
1 2 6 10 13 14 15 23 29 37 43
1 2 6 10 13 14 15 16 29 43
1 2 6 10 12 13 14 15 17 29 43
1 2 4 5 6 7 10 12 13 14 15 17 43
1 2 3 4 5 6 7 8 9 10 11 12 13 14 15 17
1 2 3 6 9 10 12 13 14 15 17 29
1 2 4 5 6 7 10 13 14 15 16 43
1 2 3 4 5 6 7 8 9 10 11 13 14 15 16
1 2 3 6 9 10 13 14 15 16 29
1 2 5 6 10 13 14 15 23 37 41 43
1 2 5 6 10 13 14 15 16 23 41 43
1 2 5 6 10 12 13 14 15 17 23 41 43
1 2 4 5 6 7 10 12 13 14 15 17 23 32 43
1 2 3 4 5 6 7 10 12 13 14 15 17 23 32
1 2 3 5 6 10 12 13 14 15 17 23 32 41
1 2 3 5 6 8 9 10 11 12 13 14 15 17 23 41
1 2 4 5 6 7 10 13 14 15 16 23 32 43
1 2 3 4 5 6 7 10 13 14 15 16 23 32
1 2 3 5 6 10 13 14 15 16 23 32 41
1 2 3 5 6 8 9 10 11 13 14 15 16 23 41
1 2 4 5 6 7 10 13 14 15 23 37 43
1 2 3 4 5 6 7 10 13 14 15 23 32 37
1 2 3 4 5 6 7 8 9 10 11 13 14 15 23 37
1 2 3 5 6 10 13 14 15 23 32 37 41
1 2 3 5 6 8 9 10 11 13 14 15 23 37 41
1 2 6 10 13 14 15 16 23 29 41 43
1 2 6 10 12 13 14 15 17 23 29 41 43
1 2 6 10 12 13 14 15 17 23 29 32 43
1 2 3 6 10 12 13 14 15 17 23 29 32
1 2 3 6 10 12 13 14 15 17 23 29 32 41
1 2 3 6 9 10 12 13 14 15 17 23 29 41
1 2 6 10 13 14 15 16 23 29 32 43
1 2 3 6 10 13 14 15 16 23 29 32
1 2 3 6 10 13 14 15 16 23 29 32 41
1 2 3 6 9 10 13 14 15 16 23 29 41
1 2 3 6 10 13 14 15 23 29 32 37
1 2 3 6 9 10 13 14 15 23 29 37
2 6 10 13 14 15 16 18 29 36 43
2 6 10 12 13 14 15 17 18 29 36 43
2 4 5 6 7 10 12 13 14 15 17 18 36 43
2 4 5 6 7 10 12 13 14 15 17 18 33 43
2 4 5 6 7 8 9 10 11 12 13 14 15 17 18 33
2 4 5 6 7 8 9 10 11 12 13 14 15 17 18 36
2 6 10 12 13 14 15 17 18 29 33 43
2 6 9 10 12 13 14 15 17 18 29 33
2 6 9 10 12 13 14 15 17 18 29 36
2 4 5 6 7 10 13 14 15 16 18 36 43
2 4 5 6 7 10 13 14 15 16 18 33 43
2 4 5 6 7 8 9 10 11 13 14 15 16 18 33
2 4 5 6 7 8 9 10 11 13 14 15 16 18 36
2 6 10 13 14 15 16 18 29 33 43
2 6 9 10 13 14 15 16 18 29 33
2 6 9 10 13 14 15 16 18 29 36
1 2 3 4 5 6 7 8 9 10 11 12 13 14 15 17 18 19 20
1 2 4 5 6 7 10 12 13 14 15 17 18 19 20 43
1 2 4 5 6 7 8 10 11 12 13 14 15 17 18 19 20 43
2 4 5 6 7 8 9 10 11 12 13 14 15 17 18 19 33
2 4 5 6 7 10 12 13 14 15 17 18 19 33 43
2 4 5 6 7 8 10 11 12 13 14 15 17 18 19 33 43
2 4 5 6 7 8 9 10 11 12 13 14 15 17 18 19 36
2 4 5 6 7 10 12 13 14 15 17 18 19 36 43
2 4 5 6 7 8 10 11 12 13 14 15 17 18 19 36 43
1 2 3 6 9 10 12 13 14 15 17 18 19 20 29
1 2 6 10 12 13 14 15 17 18 19 20 29 43
2 6 9 10 12 13 14 15 17 18 19 29 33
2 6 10 12 13 14 15 17 18 19 29 33 43
2 6 9 10 12 13 14 15 17 18 19 29 36
2 6 10 12 13 14 15 17 18 19 29 36 43
1 2 3 4 5 6 7 8 9 10 11 13 14 15 16 18 19 20
1 2 4 5 6 7 10 13 14 15 16 18 19 20 43
1 2 4 5 6 7 8 10 11 13 14 15 16 18 19 20 43
2 4 5 6 7 8 9 10 11 13 14 15 16 18 19 33
2 4 5 6 7 10 13 14 15 16 18 19 33 43
2 4 5 6 7 8 10 11 13 14 15 16 18 19 33 43
2 4 5 6 7 8 9 10 11 13 14 15 16 18 19 36
2 4 5 6 7 10 13 14 15 16 18 19 36 43
2 4 5 6 7 8 10 11 13 14 15 16 18 19 36 43
1 2 3 6 9 10 13 14 15 16 18 19 20 29
1 2 6 10 13 14 15 16 18 19 20 29 43
2 6 9 10 13 14 15 16 18 19 29 33
2 6 10 13 14 15 16 18 19 29 33 43
2 6 9 10 13 14 15 16 18 19 29 36
2 6 10 13 14 15 16 18 19 29 36 43
1 2 3 4 5 6 7 10 12 13 14 15 17 18 19 20 23 32
1 2 4 5 6 7 10 12 13 14 15 17 18 19 20 23 32 43
1 2 3 5 6 10 12 13 14 15 17 18 19 20 23 32 41
1 2 5 6 10 12 13 14 15 17 18 19 20 23 41 43
1 2 3 4 5 6 7 10 13 14 15 16 18 19 20 23 32
1 2 4 5 6 7 10 13 14 15 16 18 19 20 23 32 43
1 2 3 5 6 10 13 14 15 16 18 19 20 23 32 41
1 2 5 6 10 13 14 15 16 18 19 20 23 41 43
1 2 3 4 5 6 7 8 10 11 12 13 14 15 17 18 19 20 23 32
1 2 4 5 6 7 8 10 11 12 13 14 15 17 18 19 20 23 32 43
1 2 3 5 6 8 9 10 11 12 13 14 15 17 18 19 20 23 41
1 2 3 5 6 8 10 11 12 13 14 15 17 18 19 20 23 32 41
1 2 5 6 8 10 11 12 13 14 15 17 18 19 20 23 41 43
1 2 3 4 5 6 7 8 10 11 13 14 15 16 18 19 20 23 32
1 2 4 5 6 7 8 10 11 13 14 15 16 18 19 20 23 32 43
1 2 3 5 6 8 9 10 11 13 14 15 16 18 19 20 23 41
1 2 3 5 6 8 10 11 13 14 15 16 18 19 20 23 32 41
1 2 5 6 8 10 11 13 14 15 16 18 19 20 23 41 43
1 2 3 5 6 8 9 10 11 13 14 15 18 19 20 23 37 41
1 2 3 4 5 6 7 8 9 10 11 13 14 15 18 19 20 23 37
1 2 3 5 6 10 13 14 15 18 19 20 23 32 37 41
1 2 3 4 5 6 7 10 13 14 15 18 19 20 23 32 37
1 2 3 5 6 8 10 11 13 14 15 18 19 20 23 32 37 41
1 2 3 4 5 6 7 8 10 11 13 14 15 18 19 20 23 32 37
1 2 5 6 10 13 14 15 18 19 20 23 37 41 43
1 2 4 5 6 7 10 13 14 15 18 19 20 23 37 43
1 2 5 6 8 10 11 13 14 15 18 19 20 23 37 41 43
1 2 4 5 6 7 8 10 11 13 14 15 18 19 20 23 37 43
1 2 3 6 10 12 13 14 15 17 18 19 20 23 29 32
1 2 6 10 12 13 14 15 17 18 19 20 23 29 32 43
1 2 3 6 9 10 12 13 14 15 17 18 19 20 23 29 41
1 2 3 6 10 12 13 14 15 17 18 19 20 23 29 32 41
1 2 6 10 12 13 14 15 17 18 19 20 23 29 41 43
1 2 3 6 10 13 14 15 16 18 19 20 23 29 32
1 2 6 10 13 14 15 16 18 19 20 23 29 32 43
1 2 3 6 9 10 13 14 15 16 18 19 20 23 29 41
1 2 3 6 10 13 14 15 16 18 19 20 23 29 32 41
1 2 6 10 13 14 15 16 18 19 20 23 29 41 43
1 2 3 6 9 10 13 14 15 18 19 20 23 29 37
1 2 3 6 10 13 14 15 18 19 20 23 29 32 37
1 2 6 10 13 14 15 18 19 20 23 29 37 43
2 5 6 10 13 14 15 19 24 36 37 42 43 44
2 5 6 10 13 14 15 19 24 33 37 42 43 44
1 2 5 6 10 13 14 15 19 24 37 42 43 44
1 2 5 6 10 13 14 15 19 24 30 37 43 44
1 2 3 5 6 10 13 14 15 19 24 30 32 37 44
1 45 2 5 6 10 13 14 15 19 24 30 32 37 44
1 2 5 6 10 13 14 15 19 24 32 37 42 44
2 5 6 10 13 14 15 19 24 30 33 37 43 44
2 5 6 10 13 14 15 19 24 30 32 33 37 44
2 5 6 10 13 14 15 19 24 32 33 37 42 44
2 5 6 10 13 14 15 19 24 30 36 37 43 44
2 5 6 10 13 14 15 19 24 30 32 36 37 44
2 5 6 10 13 14 15 19 24 32 36 37 42 44
 Minimal traps 
21 25
18 22 38
13 23 37
8 19 31
5 23 41
19 23 34
6 9 29
10 23 32
23 26
1 24 42
24 27
2 15 39
1 2 3
1 10 43
19 24 35
5 19 44
4 5 6 7
5 19 40
1 8 9 10 43
8 9 10 11
4 5 6 7 8 9 10 11
5 8 9 19 29 44
1 5 8 9 10 19 43 44
5 8 9 10 11 19 44
5 8 9 10 11 19 40
1 5 8 9 10 19 40 43
5 8 9 19 29 40
13 16
1 13 14 15 24 39 42
2 13 14 15 39
12 13 14 15 17
1 10 13 14 15 39 43
1 2 13 14 15 39
2 5 13 14 15 23 39 41
2 4 5 6 7 13 14 15 19 23 34 39
2 4 5 6 7 8 13 14 15 19 23 31 34 39
1 5 8 18 29 31 36 43 44
2 18 36
18 23 30 34
18 24 30
18 19 20
6 8 18 23 29 30 31 32
5 18 19 44
5 18 19 40
4 5 6 7 18 19 23 34
4 5 6 7 8 18 19 23 31 34
5 8 18 23 29 30 31 32 44
5 9 18 23 29 30 32 44
5 9 18 23 29 30 32 40
5 8 18 23 29 30 31 32 40
4 5 6 7 18 23 30 34
4 5 6 7 8 18 23 30 31 34
2 18 33
2 5 15 18 19 39 44
2 5 15 18 19 39 40
2 4 5 6 7 15 18 19 23 34 39
2 4 5 6 7 8 15 18 19 23 31 34 39
2 4 5 6 7 15 18 23 30 34 39
2 4 5 6 7 8 15 18 23 30 31 34 39
2 4 5 6 7 13 14 15 18 19 23 34 39
2 4 5 6 7 8 13 14 15 18 19 23 31 34 39
2 4 5 6 7 13 14 15 18 23 30 34 39
2 4 5 6 7 8 13 14 15 18 23 30 31 34 39
1 6 8 18 29 31 36 43
1 10 18 36 43
1 18 23 34 36 42
1 18 23 33 34 42
1 10 18 33 43
1 10 18 23 32 33 42
1 8 10 11 18 24 31 33 42
1 2 8 10 11 18 31 33
1 2 8 9 10 11 18 33
1 8 9 10 11 18 24 33 42
1 2 8 9 10 11 18 24 33 35
1 2 8 10 11 18 24 31 33 35
1 2 10 18 23 32 33
1 10 18 23 32 36 42
1 8 10 11 18 24 31 36 42
1 2 8 10 11 18 31 36
1 2 8 9 10 11 18 36
1 8 9 10 11 18 24 36 42
1 2 8 9 10 11 18 24 35 36
1 2 8 10 11 18 24 31 35 36
1 2 10 18 23 32 36
1 6 9 18 29 36 43
1 6 9 18 29 33 43
1 6 8 9 18 29 36 43
1 6 8 9 18 29 33 43
1 6 8 18 29 31 33 43
1 6 8 18 23 29 31 32 33 42
1 6 8 18 23 29 31 32 36 42
1 5 9 18 29 36 43 44
1 5 10 18 36 43 44
1 5 10 18 33 43 44
1 5 10 18 23 32 33 42 44
1 2 5 10 18 23 32 33 44
1 2 5 10 18 23 32 33 41
1 2 5 10 18 23 32 33 40
1 2 4 5 6 7 10 18 23 32 33
1 5 10 18 23 32 33 41 42
1 5 10 18 23 32 33 40 42
1 4 5 6 7 10 18 23 32 33 42
1 5 10 18 23 33 41 43
1 5 10 18 33 40 43
1 4 5 6 7 10 18 33 43
1 5 10 18 23 32 36 42 44
1 2 5 10 18 23 32 36 44
1 2 5 10 18 23 32 36 41
1 2 5 10 18 23 32 36 40
1 2 4 5 6 7 10 18 23 32 36
1 5 10 18 23 32 36 41 42
1 5 10 18 23 32 36 40 42
1 4 5 6 7 10 18 23 32 36 42
1 5 10 18 23 36 41 43
1 5 10 18 36 40 43
1 4 5 6 7 10 18 36 43
1 5 9 10 18 36 43 44
1 5 9 10 18 33 43 44
1 5 9 10 18 23 32 33 42 44
1 2 5 9 10 18 23 32 33 44
1 2 5 9 10 18 23 32 33 41
1 2 5 9 10 18 23 32 33 40
1 2 4 5 6 7 9 10 18 23 32 33
1 5 9 10 18 23 32 33 41 42
1 5 9 10 18 23 32 33 40 42
1 4 5 6 7 9 10 18 23 32 33 42
1 5 9 10 18 23 33 41 43
1 5 9 10 18 33 40 43
1 4 5 6 7 9 10 18 33 43
1 5 9 10 18 23 32 36 42 44
1 2 5 9 10 18 23 32 36 44
1 2 5 9 10 18 23 32 36 41
1 2 5 9 10 18 23 32 36 40
1 2 4 5 6 7 9 10 18 23 32 36
1 5 9 10 18 23 32 36 41 42
1 5 9 10 18 23 32 36 40 42
1 4 5 6 7 9 10 18 23 32 36 42
1 5 9 10 18 23 36 41 43
1 5 9 10 18 36 40 43
1 4 5 6 7 9 10 18 36 43
1 5 9 18 29 33 43 44
1 5 9 18 23 29 32 33 42 44
1 5 9 18 23 29 32 33 40 42
1 5 9 18 23 29 33 41 43
1 5 9 18 29 33 40 43
1 5 6 9 18 29 33 43
1 5 9 18 23 29 32 36 42 44
1 5 9 18 23 29 32 36 40 42
1 5 9 18 23 29 36 41 43
1 5 9 18 29 36 40 43
1 5 6 9 18 29 36 43
1 5 8 10 18 31 36 43 44
1 5 8 9 10 18 36 43 44
1 5 8 9 10 18 33 43 44
1 5 8 9 10 18 23 32 33 42 44
1 5 8 9 10 11 18 24 33 42 44
1 2 5 8 9 10 11 18 33 44
1 2 5 8 9 10 11 18 33 40
1 2 4 5 6 7 8 9 10 11 18 33
1 2 5 8 9 10 11 18 24 33 35 44
1 2 5 8 9 10 11 18 24 33 35 40
1 2 4 5 6 7 8 9 10 11 18 24 33 35
1 5 8 9 10 11 18 24 33 40 42
1 4 5 6 7 8 9 10 11 18 24 33 42
1 2 5 8 9 10 18 23 32 33 44
1 2 5 8 9 10 18 23 32 33 41
1 2 5 8 9 10 18 23 32 33 40
1 2 4 5 6 7 8 9 10 18 23 32 33
1 5 8 9 10 18 23 32 33 41 42
1 5 8 9 10 18 23 32 33 40 42
1 4 5 6 7 8 9 10 18 23 32 33 42
1 5 8 9 10 18 23 33 41 43
1 5 8 9 10 18 33 40 43
1 4 5 6 7 8 9 10 18 33 43
1 5 8 9 10 18 23 32 36 42 44
1 5 8 9 10 11 18 24 36 42 44
1 2 5 8 9 10 11 18 36 44
1 2 5 8 9 10 11 18 36 40
1 2 4 5 6 7 8 9 10 11 18 36
1 2 5 8 9 10 11 18 24 35 36 44
1 2 5 8 9 10 11 18 24 35 36 40
1 2 4 5 6 7 8 9 10 11 18 24 35 36
1 5 8 9 10 11 18 24 36 40 42
1 4 5 6 7 8 9 10 11 18 24 36 42
1 2 5 8 9 10 18 23 32 36 44
1 2 5 8 9 10 18 23 32 36 41
1 2 5 8 9 10 18 23 32 36 40
1 2 4 5 6 7 8 9 10 18 23 32 36
1 5 8 9 10 18 23 32 36 41 42
1 5 8 9 10 18 23 32 36 40 42
1 4 5 6 7 8 9 10 18 23 32 36 42
1 5 8 9 10 18 23 36 41 43
1 5 8 9 10 18 36 40 43
1 4 5 6 7 8 9 10 18 36 43
1 5 8 10 18 31 33 43 44
1 5 8 10 18 23 31 32 33 42 44
1 5 8 10 11 18 24 31 33 42 44
1 2 5 8 10 11 18 31 33 44
1 2 5 8 10 11 18 31 33 40
1 2 4 5 6 7 8 10 11 18 31 33
1 2 5 8 10 11 18 24 31 33 35 44
1 2 5 8 10 11 18 24 31 33 35 40
1 2 4 5 6 7 8 10 11 18 24 31 33 35
1 5 8 10 11 18 24 31 33 40 42
1 4 5 6 7 8 10 11 18 24 31 33 42
1 2 5 8 10 18 23 31 32 33 44
1 2 5 8 10 18 23 31 32 33 41
1 2 5 8 10 18 23 31 32 33 40
1 2 4 5 6 7 8 10 18 23 31 32 33
1 5 8 10 18 23 31 32 33 41 42
1 5 8 10 18 23 31 32 33 40 42
1 4 5 6 7 8 10 18 23 31 32 33 42
1 5 8 10 18 23 31 33 41 43
1 5 8 10 18 31 33 40 43
1 4 5 6 7 8 10 18 31 33 43
1 5 8 10 18 23 31 32 36 42 44
1 5 8 10 11 18 24 31 36 42 44
1 2 5 8 10 11 18 31 36 44
1 2 5 8 10 11 18 31 36 40
1 2 4 5 6 7 8 10 11 18 31 36
1 2 5 8 10 11 18 24 31 35 36 44
1 2 5 8 10 11 18 24 31 35 36 40
1 2 4 5 6 7 8 10 11 18 24 31 35 36
1 5 8 10 11 18 24 31 36 40 42
1 4 5 6 7 8 10 11 18 24 31 36 42
1 2 5 8 10 18 23 31 32 36 44
1 2 5 8 10 18 23 31 32 36 41
1 2 5 8 10 18 23 31 32 36 40
1 2 4 5 6 7 8 10 18 23 31 32 36
1 5 8 10 18 23 31 32 36 41 42
1 5 8 10 18 23 31 32 36 40 42
1 4 5 6 7 8 10 18 23 31 32 36 42
1 5 8 10 18 23 31 36 41 43
1 5 8 10 18 31 36 40 43
1 4 5 6 7 8 10 18 31 36 43
1 5 8 9 18 29 36 43 44
1 5 8 9 18 29 33 43 44
1 5 8 9 18 23 29 33 41 43
1 5 8 9 18 29 33 40 43
1 5 6 8 9 18 29 33 43
1 5 8 9 18 23 29 36 41 43
1 5 8 9 18 29 36 40 43
1 5 6 8 9 18 29 36 43
1 5 8 18 29 31 33 43 44
1 5 8 18 23 29 31 32 33 42 44
1 5 8 18 23 29 31 32 33 40 42
1 5 8 18 23 29 31 33 41 43
1 5 8 18 29 31 33 40 43
1 5 6 8 18 29 31 33 43
1 5 8 18 23 29 31 32 36 42 44
1 5 8 18 23 29 31 32 36 40 42
1 5 8 18 23 29 31 36 41 43
1 5 8 18 29 31 36 40 43
1 5 6 8 18 29 31 36 43
4 5 6 7 18 19 22 23 34
4 5 6 7 8 18 19 22 23 31 34
4 5 6 7 18 22 23 30 34
4 5 6 7 8 18 22 23 30 31 34
2 4 5 6 7 15 18 19 22 23 34 39
2 4 5 6 7 8 15 18 19 22 23 31 34 39
2 4 5 6 7 15 18 22 23 30 34 39
2 4 5 6 7 8 15 18 22 23 30 31 34 39
2 4 5 6 7 18 22 23 33 34
2 4 5 6 7 8 18 22 23 31 33 34
2 4 5 6 7 18 22 23 34 36
2 4 5 6 7 8 18 22 23 31 34 36
2 4 5 6 7 13 14 15 18 19 22 23 34 39
2 4 5 6 7 8 13 14 15 18 19 22 23 31 34 39
2 4 5 6 7 13 14 15 18 22 23 30 34 39
2 4 5 6 7 8 13 14 15 18 22 23 30 31 34 39
2 4 5 6 7 13 14 15 18 22 23 33 34 39
2 4 5 6 7 8 13 14 15 18 22 23 31 33 34 39
2 4 5 6 7 13 14 15 18 22 23 34 36 39
2 4 5 6 7 8 13 14 15 18 22 23 31 34 36 39
5 21 22 23 41
21 22 23 24 28
2 5 13 14 15 21 22 23 39 41
2 4 5 6 7 13 14 15 19 21 22 23 34 39
2 4 5 6 7 8 13 14 15 19 21 22 23 31 34 39
46 18 21 22 23
46 4 5 6 7 18 21 22 23
4 5 6 7 18 19 21 22 23 34
46 4 5 6 7 8 18 21 22 23 31
4 5 6 7 8 18 19 21 22 23 31 34
4 5 6 7 18 21 22 23 30 34
4 5 6 7 8 18 21 22 23 30 31 34
46 2 4 5 6 7 15 18 21 22 23 39
2 4 5 6 7 15 18 19 21 22 23 34 39
46 2 4 5 6 7 8 15 18 21 22 23 31 39
2 4 5 6 7 8 15 18 19 21 22 23 31 34 39
2 4 5 6 7 15 18 21 22 23 30 34 39
2 4 5 6 7 8 15 18 21 22 23 30 31 34 39
46 2 5 18 21 22 23 33 44
46 2 5 18 21 22 23 33 40
46 2 5 9 18 21 22 23 29 33 44
46 2 5 9 18 21 22 23 29 33 40
46 2 5 8 18 21 22 23 31 33 44
46 2 5 8 18 21 22 23 31 33 40
46 2 5 8 10 11 18 21 22 23 31 33 44
46 2 5 8 10 11 18 21 22 23 31 33 40
46 2 5 8 9 18 21 22 23 29 33 44
46 2 5 8 9 18 21 22 23 29 33 40
46 2 5 8 18 21 22 23 29 31 33 44
46 2 5 8 18 21 22 23 29 31 33 40
46 2 5 6 8 18 21 22 23 29 31 33
2 4 5 6 7 18 21 22 23 33 34
2 4 5 6 7 8 18 21 22 23 31 33 34
46 2 5 18 21 22 23 36 44
46 2 5 18 21 22 23 36 40
46 2 5 9 18 21 22 23 29 36 44
46 2 5 9 18 21 22 23 29 36 40
46 2 5 8 18 21 22 23 31 36 44
46 2 5 8 18 21 22 23 31 36 40
46 2 5 8 10 11 18 21 22 23 31 36 44
46 2 5 8 10 11 18 21 22 23 31 36 40
46 2 5 8 9 18 21 22 23 29 36 44
46 2 5 8 9 18 21 22 23 29 36 40
46 2 5 8 18 21 22 23 29 31 36 44
46 2 5 8 18 21 22 23 29 31 36 40
46 2 5 6 8 18 21 22 23 29 31 36
2 4 5 6 7 18 21 22 23 34 36
2 4 5 6 7 8 18 21 22 23 31 34 36
46 2 13 14 15 18 21 22 23 39
46 2 4 5 6 7 13 14 15 18 21 22 23 39
2 4 5 6 7 13 14 15 18 19 21 22 23 34 39
2 4 5 6 7 8 13 14 15 18 19 21 22 23 31 34 39
2 4 5 6 7 13 14 15 18 21 22 23 30 34 39
2 4 5 6 7 8 13 14 15 18 21 22 23 30 31 34 39
2 4 5 6 7 13 14 15 18 21 22 23 33 34 39
2 4 5 6 7 8 13 14 15 18 21 22 23 31 33 34 39
2 4 5 6 7 13 14 15 18 21 22 23 34 36 39
2 4 5 6 7 8 13 14 15 18 21 22 23 31 34 36 39
1 45 18 21 22 23
1 45 10 18 21 22 23 32
1 45 8 10 18 21 22 23 31 32
1 45 8 9 10 18 21 22 23 32
1 46 2 5 18 21 22 23 33 44
1 46 2 5 18 21 22 23 33 40
1 46 2 5 18 21 22 23 36 44
1 46 2 5 18 21 22 23 36 40
1 46 2 5 9 18 21 22 23 29 33 44
1 46 2 5 9 18 21 22 23 29 33 40
1 46 2 5 9 18 21 22 23 29 36 44
1 46 2 5 9 18 21 22 23 29 36 40
1 46 2 5 8 18 21 22 23 31 33 44
1 46 2 5 8 18 21 22 23 31 33 40
1 46 2 5 8 18 21 22 23 31 36 44
1 46 2 5 8 18 21 22 23 31 36 40
1 46 2 5 8 10 11 18 21 22 23 31 33 44
1 46 2 5 8 10 11 18 21 22 23 31 33 40
1 46 2 5 8 10 11 18 21 22 23 31 36 44
1 46 2 5 8 10 11 18 21 22 23 31 36 40
1 46 2 5 8 9 18 21 22 23 29 33 44
1 46 2 5 8 9 18 21 22 23 29 33 40
1 46 2 5 8 9 18 21 22 23 29 36 44
1 46 2 5 8 9 18 21 22 23 29 36 40
1 46 2 5 8 18 21 22 23 29 31 33 44
1 46 2 5 8 18 21 22 23 29 31 33 40
1 46 2 5 6 8 18 21 22 23 29 31 33
1 46 2 5 8 18 21 22 23 29 31 36 44
1 46 2 5 8 18 21 22 23 29 31 36 40
1 46 2 5 6 8 18 21 22 23 29 31 36
 Analysis time: 155.232s