18/07/2021 14:15:43[DEBUG] pflow_file:  ../analysis/analisis_8_08072021/gen_nets/20210708-094213_31/net.pflow  
18/07/2021 14:15:43[DEBUG] output_folder:  ../analysis/analisis_8_08072021/gen_nets/20210708-094213_31/  
18/07/2021 14:15:43[DEBUG] html_path:  ../analysis/analisis_8_08072021/gen_nets/20210708-094213_31/  
18/07/2021 14:15:43[DEBUG] txt_path:  ../analysis/analisis_8_08072021/gen_nets/20210708-094213_31/txt_info  

--------------------------------------------------------------------------   
18/07/2021 14:15:43[INFO] Ejecutando petrinator para conocer estado de la red...   
--------------------------------------------------------------------------
   
+----+-----+-----------------------------------------------------------------------+
| ID | Nro |                                 Plazas                                |
+----+-----+-----------------------------------------------------------------------+
| 0  |  2  |     ['P3', 'P11', 'P17', 'P19', 'P21', 'P25', 'P28', 'P31', 'P32']    |
| 1  |  13 |        ['P3', 'P10', 'P16', 'P19', 'P21', 'P24', 'P28', 'P31']        |
| 2  |  16 |     ['P3', 'P11', 'P16', 'P19', 'P21', 'P24', 'P27', 'P28', 'P31']    |
| 3  |  23 |     ['P4', 'P10', 'P16', 'P19', 'P21', 'P24', 'P28', 'P29', 'P31']    |
| 4  |  25 | ['P4', 'P11', 'P16', 'P19', 'P21', 'P24', 'P27', 'P28', 'P29', 'P31'] |
| 5  |  38 | ['P4', 'P11', 'P17', 'P19', 'P21', 'P25', 'P28', 'P29', 'P31', 'P32'] |
| 6  |  1  |     ['P4', 'P11', 'P17', 'P19', 'P21', 'P25', 'P28', 'P30', 'P32']    |
| 7  |  19 |         ['P3', 'P9', 'P11', 'P17', 'P21', 'P25', 'P28', 'P32']        |
+----+-----+-----------------------------------------------------------------------+
+----+----+----+----+----+----+----+----+----+----+-----+-----+-----+-----+-----+-----+-----+-----+-----+-----+-----+
| T0 | T1 | T2 | T3 | T4 | T5 | T6 | T7 | T8 | T9 | T10 | T11 | T12 | T13 | T14 | T15 | T16 | T17 | T18 | T19 | T20 |
+----+----+----+----+----+----+----+----+----+----+-----+-----+-----+-----+-----+-----+-----+-----+-----+-----+-----+
| 1  | 1  | 1  | 1  | 1  | 0  | 0  | 0  | 0  | 0  |  0  |  0  |  0  |  0  |  0  |  0  |  0  |  0  |  0  |  0  |  0  |
| 0  | 0  | 0  | 0  | 0  | 1  | 1  | 1  | 1  | 1  |  1  |  1  |  1  |  0  |  0  |  0  |  0  |  0  |  1  |  1  |  1  |
| 0  | 0  | 0  | 0  | 0  | 1  | 1  | 1  | 1  | 1  |  0  |  0  |  0  |  1  |  1  |  1  |  1  |  1  |  1  |  1  |  1  |
+----+----+----+----+----+----+----+----+----+----+-----+-----+-----+-----+-----+-----+-----+-----+-----+-----+-----+
18/07/2021 14:15:56[INFO] Supervisores para agregar   
+-----+---------+-----------------------------------------------+--------------+
|  ID | Marcado |                  T - Entrada                  |  T - Salida  |
+-----+---------+-----------------------------------------------+--------------+
| P33 |    2    |       ['T3', 'T8', 'T12', 'T18', 'T20']       | ['T1', 'T6'] |
| P33 |    1    |              ['T3', 'T7', 'T12']              | ['T1', 'T6'] |
| P33 |    2    |              ['T3', 'T8', 'T12']              | ['T1', 'T6'] |
| P33 |    2    |              ['T4', 'T7', 'T12']              | ['T1', 'T6'] |
| P33 |    3    |        ['T3', 'T4', 'T7', 'T8', 'T12']        | ['T1', 'T6'] |
| P33 |    3    | ['T3', 'T4', 'T7', 'T8', 'T12', 'T18', 'T20'] | ['T1', 'T6'] |
| P33 |    2    |       ['T4', 'T8', 'T13', 'T18', 'T20']       | ['T1', 'T6'] |
| P33 |    1    |          ['T3', 'T12', 'T18', 'T20']          | ['T1', 'T6'] |
+-----+---------+-----------------------------------------------+--------------+
18/07/2021 14:15:56[INFO] Supervisores agregados   
+-----+---------+-------------+------------+
| Nro | Marcado | T - Entrada | T - Salida |
+-----+---------+-------------+------------+
+-----+---------+-------------+------------+
18/07/2021 14:15:56[INFO] Ejecutando accion...   
18/07/2021 14:15:56[INFO] Ejecutando accion...   
18/07/2021 14:15:56[ACTION] Agrego supervisor aleatorio Numero: 1  

--------------------------------------------------------------------------   
18/07/2021 14:15:56[INFO] Ejecutando petrinator para conocer estado de la red...   
--------------------------------------------------------------------------
   

--------------------------------------------------------------------------
   
18/07/2021 14:16:36[INFO] Calculando recompensa..   
18/07/2021 14:16:36[REWARD] El sifon se controlo correctamente, recompensa -1   

--------------------------------------------------------------------------
   
18/07/2021 14:16:36[STATE] Cambie al estado 3: Hay igual cantidad de sifones vacios en deadlock   
+-----------------------------------------------------+--------------------+------------------------+
|                   Estados/Acciones                  | Agregar supervisor | Agregar o quitar arcos |
+-----------------------------------------------------+--------------------+------------------------+
|                        Start                        |        -1.0        |          0.0           |
|        Más sifónes vacíos en estado deadlock        |        0.0         |          0.0           |
|       Menos sifónes vacíos en estado deadlock       |        0.0         |          0.0           |
| Igual cantidad de sifónes vacíos en estado deadlock |        0.0         |          0.0           |
|                         End                         |        0.0         |          0.0           |
+-----------------------------------------------------+--------------------+------------------------+
+----+-----+-----------------------------------------------------------------------+
| ID | Nro |                                 Plazas                                |
+----+-----+-----------------------------------------------------------------------+
| 8  |  1  |     ['P4', 'P11', 'P17', 'P19', 'P21', 'P25', 'P28', 'P30', 'P32']    |
| 9  |  2  |     ['P3', 'P11', 'P17', 'P19', 'P21', 'P25', 'P28', 'P31', 'P32']    |
| 10 |  20 |         ['P3', 'P9', 'P11', 'P17', 'P21', 'P25', 'P28', 'P32']        |
| 11 |  14 |        ['P3', 'P10', 'P16', 'P19', 'P21', 'P24', 'P28', 'P31']        |
| 12 |  17 |     ['P3', 'P11', 'P16', 'P19', 'P21', 'P24', 'P27', 'P28', 'P31']    |
| 13 |  24 |     ['P4', 'P10', 'P16', 'P19', 'P21', 'P24', 'P28', 'P29', 'P31']    |
| 14 |  26 | ['P4', 'P11', 'P16', 'P19', 'P21', 'P24', 'P27', 'P28', 'P29', 'P31'] |
| 15 |  39 | ['P4', 'P11', 'P17', 'P19', 'P21', 'P25', 'P28', 'P29', 'P31', 'P32'] |
+----+-----+-----------------------------------------------------------------------+
+----+----+----+----+----+----+----+----+----+----+-----+-----+-----+-----+-----+-----+-----+-----+-----+-----+-----+
| T0 | T1 | T2 | T3 | T4 | T5 | T6 | T7 | T8 | T9 | T10 | T11 | T12 | T13 | T14 | T15 | T16 | T17 | T18 | T19 | T20 |
+----+----+----+----+----+----+----+----+----+----+-----+-----+-----+-----+-----+-----+-----+-----+-----+-----+-----+
| 1  | 1  | 1  | 1  | 1  | 0  | 0  | 0  | 0  | 0  |  0  |  0  |  0  |  0  |  0  |  0  |  0  |  0  |  0  |  0  |  0  |
| 0  | 0  | 0  | 0  | 0  | 1  | 1  | 1  | 1  | 1  |  0  |  0  |  0  |  1  |  1  |  1  |  1  |  1  |  1  |  1  |  1  |
+----+----+----+----+----+----+----+----+----+----+-----+-----+-----+-----+-----+-----+-----+-----+-----+-----+-----+
18/07/2021 14:16:36[INFO] Supervisores para agregar   
+-----+---------+-----------------------------------------------+--------------+
|  ID | Marcado |                  T - Entrada                  |  T - Salida  |
+-----+---------+-----------------------------------------------+--------------+
| P34 |    2    |       ['T4', 'T8', 'T13', 'T18', 'T20']       | ['T1', 'T6'] |
| P34 |    2    |       ['T3', 'T8', 'T12', 'T18', 'T20']       | ['T1', 'T6'] |
| P34 |    1    |          ['T3', 'T12', 'T18', 'T20']          | ['T1', 'T6'] |
| P34 |    1    |              ['T3', 'T7', 'T12']              | ['T1', 'T6'] |
| P34 |    2    |              ['T3', 'T8', 'T12']              | ['T1', 'T6'] |
| P34 |    2    |              ['T4', 'T7', 'T12']              | ['T1', 'T6'] |
| P34 |    3    |        ['T3', 'T4', 'T7', 'T8', 'T12']        | ['T1', 'T6'] |
| P34 |    3    | ['T3', 'T4', 'T7', 'T8', 'T12', 'T18', 'T20'] | ['T1', 'T6'] |
+-----+---------+-----------------------------------------------+--------------+
18/07/2021 14:16:36[INFO] Supervisores agregados   
+-----+---------+---------------------+--------------+
| Nro | Marcado |     T - Entrada     |  T - Salida  |
+-----+---------+---------------------+--------------+
|  1  |    1    | ['T3', 'T7', 'T12'] | ['T1', 'T6'] |
+-----+---------+---------------------+--------------+
18/07/2021 14:16:36[INFO] Ejecutando accion...   
18/07/2021 14:16:36[ACTION] Agregar o quitar arcos   
18/07/2021 14:16:36[ACTION] Eliminar arco desde T7 hasta P33   
18/07/2021 14:16:36[INFO] Se elimino el arco con metodo 2 desde T7 hasta P33   
18/07/2021 14:16:36[ACTION] La transicion en conflicto T14 le tiene que devolver un token al supervisor P33   
18/07/2021 14:16:36[INFO] Se agrego un arco desde T14 hasta P33   

--------------------------------------------------------------------------   
18/07/2021 14:16:36[INFO] Ejecutando petrinator para conocer estado de la red...   
--------------------------------------------------------------------------
   

--------------------------------------------------------------------------
   
18/07/2021 14:16:47[INFO] Calculando recompensa..   
18/07/2021 14:16:47[REWARD] Hay menos o igual cantidad de sifones vacios que en el estado anterior, recompensa -1   

--------------------------------------------------------------------------
   
18/07/2021 14:16:47[STATE] Cambie al estado 2: Hay menos sifones vacios en deadlock   
+-----------------------------------------------------+--------------------+------------------------+
|                   Estados/Acciones                  | Agregar supervisor | Agregar o quitar arcos |
+-----------------------------------------------------+--------------------+------------------------+
|                        Start                        |        -1.0        |          0.0           |
|        Más sifónes vacíos en estado deadlock        |        0.0         |          0.0           |
|       Menos sifónes vacíos en estado deadlock       |        0.0         |          0.0           |
| Igual cantidad de sifónes vacíos en estado deadlock |        0.0         |          -1.0          |
|                         End                         |        0.0         |          0.0           |
+-----------------------------------------------------+--------------------+------------------------+
+----+-----+----------------------------------------------------------------+
| ID | Nro |                             Plazas                             |
+----+-----+----------------------------------------------------------------+
| 16 |  1  | ['P4', 'P11', 'P17', 'P19', 'P21', 'P25', 'P28', 'P30', 'P32'] |
| 17 |  2  | ['P3', 'P11', 'P17', 'P19', 'P21', 'P25', 'P28', 'P31', 'P32'] |
| 18 |  20 |     ['P3', 'P9', 'P11', 'P17', 'P21', 'P25', 'P28', 'P32']     |
+----+-----+----------------------------------------------------------------+
+----+----+----+----+----+----+----+----+----+----+-----+-----+-----+-----+-----+-----+-----+-----+-----+-----+-----+
| T0 | T1 | T2 | T3 | T4 | T5 | T6 | T7 | T8 | T9 | T10 | T11 | T12 | T13 | T14 | T15 | T16 | T17 | T18 | T19 | T20 |
+----+----+----+----+----+----+----+----+----+----+-----+-----+-----+-----+-----+-----+-----+-----+-----+-----+-----+
| 1  | 1  | 1  | 1  | 1  | 0  | 0  | 0  | 0  | 0  |  0  |  0  |  0  |  0  |  0  |  0  |  0  |  0  |  0  |  0  |  0  |
| 0  | 0  | 0  | 0  | 0  | 1  | 1  | 1  | 1  | 1  |  1  |  1  |  1  |  0  |  0  |  0  |  0  |  0  |  1  |  1  |  1  |
| 0  | 0  | 0  | 0  | 0  | 1  | 1  | 1  | 1  | 1  |  0  |  0  |  0  |  1  |  1  |  1  |  1  |  1  |  1  |  1  |  1  |
+----+----+----+----+----+----+----+----+----+----+-----+-----+-----+-----+-----+-----+-----+-----+-----+-----+-----+
18/07/2021 14:16:47[INFO] Supervisores para agregar   
+-----+---------+-----------------------------------+--------------+
|  ID | Marcado |            T - Entrada            |  T - Salida  |
+-----+---------+-----------------------------------+--------------+
| P34 |    2    | ['T4', 'T8', 'T13', 'T18', 'T20'] | ['T1', 'T6'] |
| P34 |    2    | ['T3', 'T8', 'T12', 'T18', 'T20'] | ['T1', 'T6'] |
| P34 |    1    |    ['T3', 'T12', 'T18', 'T20']    | ['T1', 'T6'] |
+-----+---------+-----------------------------------+--------------+
18/07/2021 14:16:47[INFO] Supervisores agregados   
+-----+---------+---------------------+--------------+
| Nro | Marcado |     T - Entrada     |  T - Salida  |
+-----+---------+---------------------+--------------+
|  1  |    1    | ['T3', 'T7', 'T12'] | ['T1', 'T6'] |
+-----+---------+---------------------+--------------+
18/07/2021 14:16:47[INFO] Ejecutando accion...   
18/07/2021 14:16:47[ACTION] Agregar o quitar arcos   

--------------------------------------------------------------------------   
18/07/2021 14:16:47[INFO] Ejecutando petrinator para conocer estado de la red...   
--------------------------------------------------------------------------
   

--------------------------------------------------------------------------
   
18/07/2021 14:16:56[INFO] Calculando recompensa..   
18/07/2021 14:16:56[REWARD] Hay menos o igual cantidad de sifones vacios que en el estado anterior, recompensa -1   

--------------------------------------------------------------------------
   
18/07/2021 14:16:56[STATE] Cambie al estado 3: Hay igual cantidad de sifones vacios en deadlock   
+-----------------------------------------------------+--------------------+------------------------+
|                   Estados/Acciones                  | Agregar supervisor | Agregar o quitar arcos |
+-----------------------------------------------------+--------------------+------------------------+
|                        Start                        |        -1.0        |          0.0           |
|        Más sifónes vacíos en estado deadlock        |        0.0         |          0.0           |
|       Menos sifónes vacíos en estado deadlock       |        0.0         |          -1.0          |
| Igual cantidad de sifónes vacíos en estado deadlock |        0.0         |          -1.0          |
|                         End                         |        0.0         |          0.0           |
+-----------------------------------------------------+--------------------+------------------------+
+----+-----+----------------------------------------------------------------+
| ID | Nro |                             Plazas                             |
+----+-----+----------------------------------------------------------------+
| 19 |  1  | ['P4', 'P11', 'P17', 'P19', 'P21', 'P25', 'P28', 'P30', 'P32'] |
| 20 |  2  | ['P3', 'P11', 'P17', 'P19', 'P21', 'P25', 'P28', 'P31', 'P32'] |
| 21 |  20 |     ['P3', 'P9', 'P11', 'P17', 'P21', 'P25', 'P28', 'P32']     |
+----+-----+----------------------------------------------------------------+
+----+----+----+----+----+----+----+----+----+----+-----+-----+-----+-----+-----+-----+-----+-----+-----+-----+-----+
| T0 | T1 | T2 | T3 | T4 | T5 | T6 | T7 | T8 | T9 | T10 | T11 | T12 | T13 | T14 | T15 | T16 | T17 | T18 | T19 | T20 |
+----+----+----+----+----+----+----+----+----+----+-----+-----+-----+-----+-----+-----+-----+-----+-----+-----+-----+
| 1  | 1  | 1  | 1  | 1  | 0  | 0  | 0  | 0  | 0  |  0  |  0  |  0  |  0  |  0  |  0  |  0  |  0  |  0  |  0  |  0  |
| 0  | 0  | 0  | 0  | 0  | 1  | 1  | 1  | 1  | 1  |  1  |  1  |  1  |  0  |  0  |  0  |  0  |  0  |  1  |  1  |  1  |
| 0  | 0  | 0  | 0  | 0  | 1  | 1  | 1  | 1  | 1  |  0  |  0  |  0  |  1  |  1  |  1  |  1  |  1  |  1  |  1  |  1  |
+----+----+----+----+----+----+----+----+----+----+-----+-----+-----+-----+-----+-----+-----+-----+-----+-----+-----+
18/07/2021 14:16:56[INFO] Supervisores para agregar   
+-----+---------+-----------------------------------+--------------+
|  ID | Marcado |            T - Entrada            |  T - Salida  |
+-----+---------+-----------------------------------+--------------+
| P34 |    2    | ['T4', 'T8', 'T13', 'T18', 'T20'] | ['T1', 'T6'] |
| P34 |    2    | ['T3', 'T8', 'T12', 'T18', 'T20'] | ['T1', 'T6'] |
| P34 |    1    |    ['T3', 'T12', 'T18', 'T20']    | ['T1', 'T6'] |
+-----+---------+-----------------------------------+--------------+
18/07/2021 14:16:56[INFO] Supervisores agregados   
+-----+---------+---------------------+--------------+
| Nro | Marcado |     T - Entrada     |  T - Salida  |
+-----+---------+---------------------+--------------+
|  1  |    1    | ['T3', 'T7', 'T12'] | ['T1', 'T6'] |
+-----+---------+---------------------+--------------+
18/07/2021 14:16:56[INFO] Ejecutando accion...   
18/07/2021 14:16:56[INFO] Ejecutando accion...   
18/07/2021 14:16:56[ACTION] Agrego supervisor aleatorio Numero: 1  

--------------------------------------------------------------------------   
18/07/2021 14:16:56[INFO] Ejecutando petrinator para conocer estado de la red...   
--------------------------------------------------------------------------
   

--------------------------------------------------------------------------
   
18/07/2021 14:17:10[INFO] Calculando recompensa..   
18/07/2021 14:17:10[REWARD] El sifon se controlo correctamente, recompensa -1   

--------------------------------------------------------------------------
   
18/07/2021 14:17:10[STATE] Cambie al estado 3: Hay igual cantidad de sifones vacios en deadlock   
+-----------------------------------------------------+--------------------+------------------------+
|                   Estados/Acciones                  | Agregar supervisor | Agregar o quitar arcos |
+-----------------------------------------------------+--------------------+------------------------+
|                        Start                        |        -1.0        |          0.0           |
|        Más sifónes vacíos en estado deadlock        |        0.0         |          0.0           |
|       Menos sifónes vacíos en estado deadlock       |        0.0         |          -1.0          |
| Igual cantidad de sifónes vacíos en estado deadlock |        -1.0        |          -1.0          |
|                         End                         |        0.0         |          0.0           |
+-----------------------------------------------------+--------------------+------------------------+
+----+-----+----------------------------------------------------------------+
| ID | Nro |                             Plazas                             |
+----+-----+----------------------------------------------------------------+
| 22 |  1  | ['P4', 'P11', 'P17', 'P19', 'P21', 'P25', 'P28', 'P30', 'P32'] |
| 23 |  2  | ['P3', 'P11', 'P17', 'P19', 'P21', 'P25', 'P28', 'P31', 'P32'] |
| 24 |  21 |     ['P3', 'P9', 'P11', 'P17', 'P21', 'P25', 'P28', 'P32']     |
+----+-----+----------------------------------------------------------------+
+----+----+----+----+----+----+----+----+----+----+-----+-----+-----+-----+-----+-----+-----+-----+-----+-----+-----+
| T0 | T1 | T2 | T3 | T4 | T5 | T6 | T7 | T8 | T9 | T10 | T11 | T12 | T13 | T14 | T15 | T16 | T17 | T18 | T19 | T20 |
+----+----+----+----+----+----+----+----+----+----+-----+-----+-----+-----+-----+-----+-----+-----+-----+-----+-----+
| 1  | 1  | 1  | 1  | 1  | 0  | 0  | 0  | 0  | 0  |  0  |  0  |  0  |  0  |  0  |  0  |  0  |  0  |  0  |  0  |  0  |
+----+----+----+----+----+----+----+----+----+----+-----+-----+-----+-----+-----+-----+-----+-----+-----+-----+-----+
18/07/2021 14:17:10[INFO] Supervisores para agregar   
+-----+---------+-----------------------------------+--------------+
|  ID | Marcado |            T - Entrada            |  T - Salida  |
+-----+---------+-----------------------------------+--------------+
| P35 |    2    | ['T4', 'T8', 'T13', 'T18', 'T20'] | ['T1', 'T6'] |
| P35 |    2    | ['T3', 'T8', 'T12', 'T18', 'T20'] | ['T1', 'T6'] |
| P35 |    1    |    ['T3', 'T12', 'T18', 'T20']    | ['T1', 'T6'] |
+-----+---------+-----------------------------------+--------------+
18/07/2021 14:17:10[INFO] Supervisores agregados   
+-----+---------+-----------------------------------+--------------+
| Nro | Marcado |            T - Entrada            |  T - Salida  |
+-----+---------+-----------------------------------+--------------+
|  1  |    1    |        ['T3', 'T7', 'T12']        | ['T1', 'T6'] |
|  2  |    2    | ['T3', 'T8', 'T12', 'T18', 'T20'] | ['T1', 'T6'] |
+-----+---------+-----------------------------------+--------------+
18/07/2021 14:17:10[INFO] Ejecutando accion...   
18/07/2021 14:17:10[ACTION] Agregar o quitar arcos   
18/07/2021 14:17:10[ACTION] Eliminar arco desde T8 hasta P34   
18/07/2021 14:17:10[INFO] Se elimino el arco con metodo 2 desde T8 hasta P34   
18/07/2021 14:17:10[ACTION] Eliminar arco desde T18 hasta P34   
18/07/2021 14:17:10[INFO] Se elimino el arco con metodo 2 desde T18 hasta P34   

--------------------------------------------------------------------------   
18/07/2021 14:17:10[INFO] Ejecutando petrinator para conocer estado de la red...   
--------------------------------------------------------------------------
   

--------------------------------------------------------------------------
   
18/07/2021 14:17:24[INFO] Calculando recompensa..   
18/07/2021 14:17:24[REWARD] Hay menos o igual cantidad de sifones vacios que en el estado anterior, recompensa -1   

--------------------------------------------------------------------------
   
18/07/2021 14:17:24[STATE] Cambie al estado 3: Hay igual cantidad de sifones vacios en deadlock   
+-----------------------------------------------------+--------------------+------------------------+
|                   Estados/Acciones                  | Agregar supervisor | Agregar o quitar arcos |
+-----------------------------------------------------+--------------------+------------------------+
|                        Start                        |        -1.0        |          0.0           |
|        Más sifónes vacíos en estado deadlock        |        0.0         |          0.0           |
|       Menos sifónes vacíos en estado deadlock       |        0.0         |          -1.0          |
| Igual cantidad de sifónes vacíos en estado deadlock |        -1.0        |          -1.9          |
|                         End                         |        0.0         |          0.0           |
+-----------------------------------------------------+--------------------+------------------------+
+----+-----+----------------------------------------------------------------+
| ID | Nro |                             Plazas                             |
+----+-----+----------------------------------------------------------------+
| 25 |  1  | ['P4', 'P11', 'P17', 'P19', 'P21', 'P25', 'P28', 'P30', 'P32'] |
| 26 |  2  | ['P3', 'P11', 'P17', 'P19', 'P21', 'P25', 'P28', 'P31', 'P32'] |
| 27 |  21 |     ['P3', 'P9', 'P11', 'P17', 'P21', 'P25', 'P28', 'P32']     |
+----+-----+----------------------------------------------------------------+
+----+----+----+----+----+----+----+----+----+----+-----+-----+-----+-----+-----+-----+-----+-----+-----+-----+-----+
| T0 | T1 | T2 | T3 | T4 | T5 | T6 | T7 | T8 | T9 | T10 | T11 | T12 | T13 | T14 | T15 | T16 | T17 | T18 | T19 | T20 |
+----+----+----+----+----+----+----+----+----+----+-----+-----+-----+-----+-----+-----+-----+-----+-----+-----+-----+
| 1  | 1  | 1  | 1  | 1  | 0  | 0  | 0  | 0  | 0  |  0  |  0  |  0  |  0  |  0  |  0  |  0  |  0  |  0  |  0  |  0  |
| 0  | 0  | 0  | 0  | 0  | 1  | 1  | 1  | 1  | 1  |  0  |  0  |  0  |  1  |  1  |  1  |  1  |  1  |  1  |  1  |  1  |
+----+----+----+----+----+----+----+----+----+----+-----+-----+-----+-----+-----+-----+-----+-----+-----+-----+-----+
18/07/2021 14:17:24[INFO] Supervisores para agregar   
+-----+---------+-----------------------------------+--------------+
|  ID | Marcado |            T - Entrada            |  T - Salida  |
+-----+---------+-----------------------------------+--------------+
| P35 |    2    | ['T4', 'T8', 'T13', 'T18', 'T20'] | ['T1', 'T6'] |
| P35 |    2    | ['T3', 'T8', 'T12', 'T18', 'T20'] | ['T1', 'T6'] |
| P35 |    1    |    ['T3', 'T12', 'T18', 'T20']    | ['T1', 'T6'] |
+-----+---------+-----------------------------------+--------------+
18/07/2021 14:17:24[INFO] Supervisores agregados   
+-----+---------+-----------------------------------+--------------+
| Nro | Marcado |            T - Entrada            |  T - Salida  |
+-----+---------+-----------------------------------+--------------+
|  1  |    1    |        ['T3', 'T7', 'T12']        | ['T1', 'T6'] |
|  2  |    2    | ['T3', 'T8', 'T12', 'T18', 'T20'] | ['T1', 'T6'] |
+-----+---------+-----------------------------------+--------------+
18/07/2021 14:17:24[INFO] Ejecutando accion...   
18/07/2021 14:17:24[INFO] Ejecutando accion...   
18/07/2021 14:17:24[ACTION] Agrego supervisor aleatorio Numero: 1  

--------------------------------------------------------------------------   
18/07/2021 14:17:24[INFO] Ejecutando petrinator para conocer estado de la red...   
--------------------------------------------------------------------------
   

--------------------------------------------------------------------------
   
18/07/2021 14:17:48[INFO] Calculando recompensa..   
18/07/2021 14:17:48[REWARD] El sifon se controlo correctamente, recompensa -1   

--------------------------------------------------------------------------
   
18/07/2021 14:17:48[STATE] Cambie al estado 3: Hay igual cantidad de sifones vacios en deadlock   
+-----------------------------------------------------+--------------------+------------------------+
|                   Estados/Acciones                  | Agregar supervisor | Agregar o quitar arcos |
+-----------------------------------------------------+--------------------+------------------------+
|                        Start                        |        -1.0        |          0.0           |
|        Más sifónes vacíos en estado deadlock        |        0.0         |          0.0           |
|       Menos sifónes vacíos en estado deadlock       |        0.0         |          -1.0          |
| Igual cantidad de sifónes vacíos en estado deadlock |        -1.9        |          -1.9          |
|                         End                         |        0.0         |          0.0           |
+-----------------------------------------------------+--------------------+------------------------+
+----+-----+----------------------------------------------------------------+
| ID | Nro |                             Plazas                             |
+----+-----+----------------------------------------------------------------+
| 28 |  1  | ['P4', 'P11', 'P17', 'P19', 'P21', 'P25', 'P28', 'P30', 'P32'] |
| 29 |  2  | ['P3', 'P11', 'P17', 'P19', 'P21', 'P25', 'P28', 'P31', 'P32'] |
| 30 |  22 |     ['P3', 'P9', 'P11', 'P17', 'P21', 'P25', 'P28', 'P32']     |
+----+-----+----------------------------------------------------------------+
+----+----+----+----+----+----+----+----+----+----+-----+-----+-----+-----+-----+-----+-----+-----+-----+-----+-----+
| T0 | T1 | T2 | T3 | T4 | T5 | T6 | T7 | T8 | T9 | T10 | T11 | T12 | T13 | T14 | T15 | T16 | T17 | T18 | T19 | T20 |
+----+----+----+----+----+----+----+----+----+----+-----+-----+-----+-----+-----+-----+-----+-----+-----+-----+-----+
| 1  | 1  | 1  | 1  | 1  | 0  | 0  | 0  | 0  | 0  |  0  |  0  |  0  |  0  |  0  |  0  |  0  |  0  |  0  |  0  |  0  |
+----+----+----+----+----+----+----+----+----+----+-----+-----+-----+-----+-----+-----+-----+-----+-----+-----+-----+
18/07/2021 14:17:48[INFO] Supervisores para agregar   
+-----+---------+-----------------------------------+--------------+
|  ID | Marcado |            T - Entrada            |  T - Salida  |
+-----+---------+-----------------------------------+--------------+
| P36 |    2    | ['T4', 'T8', 'T13', 'T18', 'T20'] | ['T1', 'T6'] |
| P36 |    2    | ['T3', 'T8', 'T12', 'T18', 'T20'] | ['T1', 'T6'] |
| P36 |    1    |    ['T3', 'T12', 'T18', 'T20']    | ['T1', 'T6'] |
+-----+---------+-----------------------------------+--------------+
18/07/2021 14:17:48[INFO] Supervisores agregados   
+-----+---------+-----------------------------------+--------------+
| Nro | Marcado |            T - Entrada            |  T - Salida  |
+-----+---------+-----------------------------------+--------------+
|  1  |    1    |        ['T3', 'T7', 'T12']        | ['T1', 'T6'] |
|  2  |    2    | ['T3', 'T8', 'T12', 'T18', 'T20'] | ['T1', 'T6'] |
|  3  |    2    | ['T3', 'T8', 'T12', 'T18', 'T20'] | ['T1', 'T6'] |
+-----+---------+-----------------------------------+--------------+
18/07/2021 14:17:48[INFO] Ejecutando accion...   
18/07/2021 14:17:48[ACTION] Agregar o quitar arcos   
18/07/2021 14:17:48[ACTION] Eliminar arco desde T12 hasta P34   
18/07/2021 14:17:48[INFO] Se elimino el arco con metodo 2 desde T12 hasta P34   
18/07/2021 14:17:48[ACTION] Eliminar arco desde T8 hasta P35   
18/07/2021 14:17:48[INFO] Se elimino el arco con metodo 2 desde T8 hasta P35   
18/07/2021 14:17:48[ACTION] Eliminar arco desde T18 hasta P35   
18/07/2021 14:17:48[INFO] Se elimino el arco con metodo 2 desde T18 hasta P35   

--------------------------------------------------------------------------   
18/07/2021 14:17:48[INFO] Ejecutando petrinator para conocer estado de la red...   
--------------------------------------------------------------------------
   

--------------------------------------------------------------------------
   
18/07/2021 14:18:01[INFO] Calculando recompensa..   
18/07/2021 14:18:01[REWARD] Hay menos o igual cantidad de sifones vacios que en el estado anterior, recompensa -1   

--------------------------------------------------------------------------
   
18/07/2021 14:18:01[STATE] Cambie al estado 3: Hay igual cantidad de sifones vacios en deadlock   
+-----------------------------------------------------+--------------------+------------------------+
|                   Estados/Acciones                  | Agregar supervisor | Agregar o quitar arcos |
+-----------------------------------------------------+--------------------+------------------------+
|                        Start                        |        -1.0        |          0.0           |
|        Más sifónes vacíos en estado deadlock        |        0.0         |          0.0           |
|       Menos sifónes vacíos en estado deadlock       |        0.0         |          -1.0          |
| Igual cantidad de sifónes vacíos en estado deadlock |        -1.9        |         -2.71          |
|                         End                         |        0.0         |          0.0           |
+-----------------------------------------------------+--------------------+------------------------+
+----+-----+----------------------------------------------------------------+
| ID | Nro |                             Plazas                             |
+----+-----+----------------------------------------------------------------+
| 31 |  1  | ['P4', 'P11', 'P17', 'P19', 'P21', 'P25', 'P28', 'P30', 'P32'] |
| 32 |  2  | ['P3', 'P11', 'P17', 'P19', 'P21', 'P25', 'P28', 'P31', 'P32'] |
| 33 |  22 |     ['P3', 'P9', 'P11', 'P17', 'P21', 'P25', 'P28', 'P32']     |
+----+-----+----------------------------------------------------------------+
+----+----+----+----+----+----+----+----+----+----+-----+-----+-----+-----+-----+-----+-----+-----+-----+-----+-----+
| T0 | T1 | T2 | T3 | T4 | T5 | T6 | T7 | T8 | T9 | T10 | T11 | T12 | T13 | T14 | T15 | T16 | T17 | T18 | T19 | T20 |
+----+----+----+----+----+----+----+----+----+----+-----+-----+-----+-----+-----+-----+-----+-----+-----+-----+-----+
| 1  | 1  | 1  | 1  | 1  | 0  | 0  | 0  | 0  | 0  |  0  |  0  |  0  |  0  |  0  |  0  |  0  |  0  |  0  |  0  |  0  |
| 0  | 0  | 0  | 0  | 0  | 1  | 1  | 1  | 1  | 1  |  0  |  0  |  0  |  1  |  1  |  1  |  1  |  1  |  1  |  1  |  1  |
+----+----+----+----+----+----+----+----+----+----+-----+-----+-----+-----+-----+-----+-----+-----+-----+-----+-----+
18/07/2021 14:18:01[INFO] Supervisores para agregar   
+-----+---------+-----------------------------------+--------------+
|  ID | Marcado |            T - Entrada            |  T - Salida  |
+-----+---------+-----------------------------------+--------------+
| P36 |    2    | ['T4', 'T8', 'T13', 'T18', 'T20'] | ['T1', 'T6'] |
| P36 |    2    | ['T3', 'T8', 'T12', 'T18', 'T20'] | ['T1', 'T6'] |
| P36 |    1    |    ['T3', 'T12', 'T18', 'T20']    | ['T1', 'T6'] |
+-----+---------+-----------------------------------+--------------+
18/07/2021 14:18:01[INFO] Supervisores agregados   
+-----+---------+-----------------------------------+--------------+
| Nro | Marcado |            T - Entrada            |  T - Salida  |
+-----+---------+-----------------------------------+--------------+
|  1  |    1    |        ['T3', 'T7', 'T12']        | ['T1', 'T6'] |
|  2  |    2    | ['T3', 'T8', 'T12', 'T18', 'T20'] | ['T1', 'T6'] |
|  3  |    2    | ['T3', 'T8', 'T12', 'T18', 'T20'] | ['T1', 'T6'] |
+-----+---------+-----------------------------------+--------------+
18/07/2021 14:18:01[INFO] Ejecutando accion...   
18/07/2021 14:18:01[INFO] Ejecutando accion...   
18/07/2021 14:18:01[ACTION] Agrego supervisor aleatorio Numero: 1  

--------------------------------------------------------------------------   
18/07/2021 14:18:01[INFO] Ejecutando petrinator para conocer estado de la red...   
--------------------------------------------------------------------------
   

--------------------------------------------------------------------------
   
18/07/2021 14:18:14[INFO] Calculando recompensa..   
18/07/2021 14:18:14[REWARD] El sifon se controlo correctamente, recompensa -1   

--------------------------------------------------------------------------
   
18/07/2021 14:18:14[STATE] Cambie al estado 3: Hay igual cantidad de sifones vacios en deadlock   
+-----------------------------------------------------+--------------------+------------------------+
|                   Estados/Acciones                  | Agregar supervisor | Agregar o quitar arcos |
+-----------------------------------------------------+--------------------+------------------------+
|                        Start                        |        -1.0        |          0.0           |
|        Más sifónes vacíos en estado deadlock        |        0.0         |          0.0           |
|       Menos sifónes vacíos en estado deadlock       |        0.0         |          -1.0          |
| Igual cantidad de sifónes vacíos en estado deadlock |       -2.71        |         -2.71          |
|                         End                         |        0.0         |          0.0           |
+-----------------------------------------------------+--------------------+------------------------+
+----+-----+----------------------------------------------------------------+
| ID | Nro |                             Plazas                             |
+----+-----+----------------------------------------------------------------+
| 34 |  1  | ['P4', 'P11', 'P17', 'P19', 'P21', 'P25', 'P28', 'P30', 'P32'] |
| 35 |  2  | ['P3', 'P11', 'P17', 'P19', 'P21', 'P25', 'P28', 'P31', 'P32'] |
| 36 |  23 |     ['P3', 'P9', 'P11', 'P17', 'P21', 'P25', 'P28', 'P32']     |
+----+-----+----------------------------------------------------------------+
+----+----+----+----+----+----+----+----+----+----+-----+-----+-----+-----+-----+-----+-----+-----+-----+-----+-----+
| T0 | T1 | T2 | T3 | T4 | T5 | T6 | T7 | T8 | T9 | T10 | T11 | T12 | T13 | T14 | T15 | T16 | T17 | T18 | T19 | T20 |
+----+----+----+----+----+----+----+----+----+----+-----+-----+-----+-----+-----+-----+-----+-----+-----+-----+-----+
| 1  | 1  | 1  | 1  | 1  | 0  | 0  | 0  | 0  | 0  |  0  |  0  |  0  |  0  |  0  |  0  |  0  |  0  |  0  |  0  |  0  |
+----+----+----+----+----+----+----+----+----+----+-----+-----+-----+-----+-----+-----+-----+-----+-----+-----+-----+
18/07/2021 14:18:14[INFO] Supervisores para agregar   
+-----+---------+-----------------------------------+--------------+
|  ID | Marcado |            T - Entrada            |  T - Salida  |
+-----+---------+-----------------------------------+--------------+
| P37 |    2    | ['T4', 'T8', 'T13', 'T18', 'T20'] | ['T1', 'T6'] |
| P37 |    2    | ['T3', 'T8', 'T12', 'T18', 'T20'] | ['T1', 'T6'] |
| P37 |    1    |    ['T3', 'T12', 'T18', 'T20']    | ['T1', 'T6'] |
+-----+---------+-----------------------------------+--------------+
18/07/2021 14:18:14[INFO] Supervisores agregados   
+-----+---------+-----------------------------------+--------------+
| Nro | Marcado |            T - Entrada            |  T - Salida  |
+-----+---------+-----------------------------------+--------------+
|  1  |    1    |        ['T3', 'T7', 'T12']        | ['T1', 'T6'] |
|  2  |    2    | ['T3', 'T8', 'T12', 'T18', 'T20'] | ['T1', 'T6'] |
|  3  |    2    | ['T3', 'T8', 'T12', 'T18', 'T20'] | ['T1', 'T6'] |
|  4  |    2    | ['T3', 'T8', 'T12', 'T18', 'T20'] | ['T1', 'T6'] |
+-----+---------+-----------------------------------+--------------+
18/07/2021 14:18:14[INFO] Ejecutando accion...   
18/07/2021 14:18:14[ACTION] Agregar o quitar arcos   
18/07/2021 14:18:14[ACTION] Eliminar arco desde T12 hasta P35   
18/07/2021 14:18:14[INFO] Se elimino el arco con metodo 2 desde T12 hasta P35   
18/07/2021 14:18:14[ACTION] Eliminar arco desde T8 hasta P36   
18/07/2021 14:18:14[INFO] Se elimino el arco con metodo 2 desde T8 hasta P36   
18/07/2021 14:18:14[ACTION] Eliminar arco desde T18 hasta P36   
18/07/2021 14:18:14[INFO] Se elimino el arco con metodo 2 desde T18 hasta P36   

--------------------------------------------------------------------------   
18/07/2021 14:18:14[INFO] Ejecutando petrinator para conocer estado de la red...   
--------------------------------------------------------------------------
   

--------------------------------------------------------------------------
   
18/07/2021 14:18:27[INFO] Calculando recompensa..   
18/07/2021 14:18:27[REWARD] Hay menos o igual cantidad de sifones vacios que en el estado anterior, recompensa -1   

--------------------------------------------------------------------------
   
18/07/2021 14:18:27[STATE] Cambie al estado 3: Hay igual cantidad de sifones vacios en deadlock   
+-----------------------------------------------------+--------------------+------------------------+
|                   Estados/Acciones                  | Agregar supervisor | Agregar o quitar arcos |
+-----------------------------------------------------+--------------------+------------------------+
|                        Start                        |        -1.0        |          0.0           |
|        Más sifónes vacíos en estado deadlock        |        0.0         |          0.0           |
|       Menos sifónes vacíos en estado deadlock       |        0.0         |          -1.0          |
| Igual cantidad de sifónes vacíos en estado deadlock |       -2.71        |         -3.439         |
|                         End                         |        0.0         |          0.0           |
+-----------------------------------------------------+--------------------+------------------------+
+----+-----+----------------------------------------------------------------+
| ID | Nro |                             Plazas                             |
+----+-----+----------------------------------------------------------------+
| 37 |  1  | ['P4', 'P11', 'P17', 'P19', 'P21', 'P25', 'P28', 'P30', 'P32'] |
| 38 |  2  | ['P3', 'P11', 'P17', 'P19', 'P21', 'P25', 'P28', 'P31', 'P32'] |
| 39 |  23 |     ['P3', 'P9', 'P11', 'P17', 'P21', 'P25', 'P28', 'P32']     |
+----+-----+----------------------------------------------------------------+
+----+----+----+----+----+----+----+----+----+----+-----+-----+-----+-----+-----+-----+-----+-----+-----+-----+-----+
| T0 | T1 | T2 | T3 | T4 | T5 | T6 | T7 | T8 | T9 | T10 | T11 | T12 | T13 | T14 | T15 | T16 | T17 | T18 | T19 | T20 |
+----+----+----+----+----+----+----+----+----+----+-----+-----+-----+-----+-----+-----+-----+-----+-----+-----+-----+
| 1  | 1  | 1  | 1  | 1  | 0  | 0  | 0  | 0  | 0  |  0  |  0  |  0  |  0  |  0  |  0  |  0  |  0  |  0  |  0  |  0  |
| 0  | 0  | 0  | 0  | 0  | 1  | 1  | 1  | 1  | 1  |  0  |  0  |  0  |  1  |  1  |  1  |  1  |  1  |  1  |  1  |  1  |
+----+----+----+----+----+----+----+----+----+----+-----+-----+-----+-----+-----+-----+-----+-----+-----+-----+-----+
18/07/2021 14:18:27[INFO] Supervisores para agregar   
+-----+---------+-----------------------------------+--------------+
|  ID | Marcado |            T - Entrada            |  T - Salida  |
+-----+---------+-----------------------------------+--------------+
| P37 |    2    | ['T4', 'T8', 'T13', 'T18', 'T20'] | ['T1', 'T6'] |
| P37 |    2    | ['T3', 'T8', 'T12', 'T18', 'T20'] | ['T1', 'T6'] |
| P37 |    1    |    ['T3', 'T12', 'T18', 'T20']    | ['T1', 'T6'] |
+-----+---------+-----------------------------------+--------------+
18/07/2021 14:18:27[INFO] Supervisores agregados   
+-----+---------+-----------------------------------+--------------+
| Nro | Marcado |            T - Entrada            |  T - Salida  |
+-----+---------+-----------------------------------+--------------+
|  1  |    1    |        ['T3', 'T7', 'T12']        | ['T1', 'T6'] |
|  2  |    2    | ['T3', 'T8', 'T12', 'T18', 'T20'] | ['T1', 'T6'] |
|  3  |    2    | ['T3', 'T8', 'T12', 'T18', 'T20'] | ['T1', 'T6'] |
|  4  |    2    | ['T3', 'T8', 'T12', 'T18', 'T20'] | ['T1', 'T6'] |
+-----+---------+-----------------------------------+--------------+
18/07/2021 14:18:27[INFO] Ejecutando accion...   
18/07/2021 14:18:27[INFO] Ejecutando accion...   
18/07/2021 14:18:27[ACTION] Agrego supervisor aleatorio Numero: 0  

--------------------------------------------------------------------------   
18/07/2021 14:18:27[INFO] Ejecutando petrinator para conocer estado de la red...   
--------------------------------------------------------------------------
   

--------------------------------------------------------------------------
   
18/07/2021 14:18:43[INFO] Calculando recompensa..   
18/07/2021 14:18:43[REWARD] El sifon se controlo correctamente, recompensa -1   

--------------------------------------------------------------------------
   
18/07/2021 14:18:43[STATE] Cambie al estado 3: Hay igual cantidad de sifones vacios en deadlock   
+-----------------------------------------------------+--------------------+------------------------+
|                   Estados/Acciones                  | Agregar supervisor | Agregar o quitar arcos |
+-----------------------------------------------------+--------------------+------------------------+
|                        Start                        |        -1.0        |          0.0           |
|        Más sifónes vacíos en estado deadlock        |        0.0         |          0.0           |
|       Menos sifónes vacíos en estado deadlock       |        0.0         |          -1.0          |
| Igual cantidad de sifónes vacíos en estado deadlock |       -3.439       |         -3.439         |
|                         End                         |        0.0         |          0.0           |
+-----------------------------------------------------+--------------------+------------------------+
+----+-----+----------------------------------------------------------------+
| ID | Nro |                             Plazas                             |
+----+-----+----------------------------------------------------------------+
| 40 |  1  | ['P4', 'P11', 'P17', 'P19', 'P21', 'P25', 'P28', 'P30', 'P32'] |
| 41 |  2  | ['P3', 'P11', 'P17', 'P19', 'P21', 'P25', 'P28', 'P31', 'P32'] |
| 42 |  23 |     ['P3', 'P9', 'P11', 'P17', 'P21', 'P25', 'P28', 'P32']     |
+----+-----+----------------------------------------------------------------+
+----+----+----+----+----+----+----+----+----+----+-----+-----+-----+-----+-----+-----+-----+-----+-----+-----+-----+
| T0 | T1 | T2 | T3 | T4 | T5 | T6 | T7 | T8 | T9 | T10 | T11 | T12 | T13 | T14 | T15 | T16 | T17 | T18 | T19 | T20 |
+----+----+----+----+----+----+----+----+----+----+-----+-----+-----+-----+-----+-----+-----+-----+-----+-----+-----+
| 1  | 1  | 1  | 1  | 1  | 0  | 0  | 0  | 0  | 0  |  0  |  0  |  0  |  0  |  0  |  0  |  0  |  0  |  0  |  0  |  0  |
+----+----+----+----+----+----+----+----+----+----+-----+-----+-----+-----+-----+-----+-----+-----+-----+-----+-----+
18/07/2021 14:18:43[INFO] Supervisores para agregar   
+-----+---------+-----------------------------------+--------------+
|  ID | Marcado |            T - Entrada            |  T - Salida  |
+-----+---------+-----------------------------------+--------------+
| P38 |    2    | ['T4', 'T8', 'T13', 'T18', 'T20'] | ['T1', 'T6'] |
| P38 |    2    | ['T3', 'T8', 'T12', 'T18', 'T20'] | ['T1', 'T6'] |
| P38 |    1    |    ['T3', 'T12', 'T18', 'T20']    | ['T1', 'T6'] |
+-----+---------+-----------------------------------+--------------+
18/07/2021 14:18:43[INFO] Supervisores agregados   
+-----+---------+-----------------------------------+--------------+
| Nro | Marcado |            T - Entrada            |  T - Salida  |
+-----+---------+-----------------------------------+--------------+
|  1  |    1    |        ['T3', 'T7', 'T12']        | ['T1', 'T6'] |
|  2  |    2    | ['T3', 'T8', 'T12', 'T18', 'T20'] | ['T1', 'T6'] |
|  3  |    2    | ['T3', 'T8', 'T12', 'T18', 'T20'] | ['T1', 'T6'] |
|  4  |    2    | ['T3', 'T8', 'T12', 'T18', 'T20'] | ['T1', 'T6'] |
|  5  |    2    | ['T4', 'T8', 'T13', 'T18', 'T20'] | ['T1', 'T6'] |
+-----+---------+-----------------------------------+--------------+
18/07/2021 14:18:43[INFO] Ejecutando accion...   
18/07/2021 14:18:43[ACTION] Agregar o quitar arcos   
18/07/2021 14:18:43[ACTION] Eliminar arco desde T12 hasta P36   
18/07/2021 14:18:43[INFO] Se elimino el arco con metodo 2 desde T12 hasta P36   
18/07/2021 14:18:43[ACTION] Eliminar arco desde T8 hasta P37   
18/07/2021 14:18:43[INFO] Se elimino el arco con metodo 2 desde T8 hasta P37   
18/07/2021 14:18:43[ACTION] Eliminar arco desde T18 hasta P37   
18/07/2021 14:18:43[INFO] Se elimino el arco con metodo 2 desde T18 hasta P37   

--------------------------------------------------------------------------   
18/07/2021 14:18:43[INFO] Ejecutando petrinator para conocer estado de la red...   
--------------------------------------------------------------------------
   

--------------------------------------------------------------------------
   
18/07/2021 14:18:59[INFO] Calculando recompensa..   
18/07/2021 14:18:59[REWARD] Hay menos o igual cantidad de sifones vacios que en el estado anterior, recompensa -1   

--------------------------------------------------------------------------
   
18/07/2021 14:18:59[STATE] Cambie al estado 3: Hay igual cantidad de sifones vacios en deadlock   
+-----------------------------------------------------+--------------------+------------------------+
|                   Estados/Acciones                  | Agregar supervisor | Agregar o quitar arcos |
+-----------------------------------------------------+--------------------+------------------------+
|                        Start                        |        -1.0        |          0.0           |
|        Más sifónes vacíos en estado deadlock        |        0.0         |          0.0           |
|       Menos sifónes vacíos en estado deadlock       |        0.0         |          -1.0          |
| Igual cantidad de sifónes vacíos en estado deadlock |       -3.439       |        -4.0951         |
|                         End                         |        0.0         |          0.0           |
+-----------------------------------------------------+--------------------+------------------------+
+----+-----+----------------------------------------------------------------+
| ID | Nro |                             Plazas                             |
+----+-----+----------------------------------------------------------------+
| 43 |  1  | ['P4', 'P11', 'P17', 'P19', 'P21', 'P25', 'P28', 'P30', 'P32'] |
| 44 |  2  | ['P3', 'P11', 'P17', 'P19', 'P21', 'P25', 'P28', 'P31', 'P32'] |
| 45 |  23 |     ['P3', 'P9', 'P11', 'P17', 'P21', 'P25', 'P28', 'P32']     |
+----+-----+----------------------------------------------------------------+
+----+----+----+----+----+----+----+----+----+----+-----+-----+-----+-----+-----+-----+-----+-----+-----+-----+-----+
| T0 | T1 | T2 | T3 | T4 | T5 | T6 | T7 | T8 | T9 | T10 | T11 | T12 | T13 | T14 | T15 | T16 | T17 | T18 | T19 | T20 |
+----+----+----+----+----+----+----+----+----+----+-----+-----+-----+-----+-----+-----+-----+-----+-----+-----+-----+
| 1  | 1  | 1  | 1  | 1  | 0  | 0  | 0  | 0  | 0  |  0  |  0  |  0  |  0  |  0  |  0  |  0  |  0  |  0  |  0  |  0  |
| 0  | 0  | 0  | 0  | 0  | 1  | 1  | 1  | 1  | 1  |  0  |  0  |  0  |  1  |  1  |  1  |  1  |  1  |  1  |  1  |  1  |
+----+----+----+----+----+----+----+----+----+----+-----+-----+-----+-----+-----+-----+-----+-----+-----+-----+-----+
18/07/2021 14:18:59[INFO] Supervisores para agregar   
+-----+---------+-----------------------------------+--------------+
|  ID | Marcado |            T - Entrada            |  T - Salida  |
+-----+---------+-----------------------------------+--------------+
| P38 |    2    | ['T4', 'T8', 'T13', 'T18', 'T20'] | ['T1', 'T6'] |
| P38 |    2    | ['T3', 'T8', 'T12', 'T18', 'T20'] | ['T1', 'T6'] |
| P38 |    1    |    ['T3', 'T12', 'T18', 'T20']    | ['T1', 'T6'] |
+-----+---------+-----------------------------------+--------------+
18/07/2021 14:18:59[INFO] Supervisores agregados   
+-----+---------+-----------------------------------+--------------+
| Nro | Marcado |            T - Entrada            |  T - Salida  |
+-----+---------+-----------------------------------+--------------+
|  1  |    1    |        ['T3', 'T7', 'T12']        | ['T1', 'T6'] |
|  2  |    2    | ['T3', 'T8', 'T12', 'T18', 'T20'] | ['T1', 'T6'] |
|  3  |    2    | ['T3', 'T8', 'T12', 'T18', 'T20'] | ['T1', 'T6'] |
|  4  |    2    | ['T3', 'T8', 'T12', 'T18', 'T20'] | ['T1', 'T6'] |
|  5  |    2    | ['T4', 'T8', 'T13', 'T18', 'T20'] | ['T1', 'T6'] |
+-----+---------+-----------------------------------+--------------+
18/07/2021 14:18:59[INFO] Ejecutando accion...   
18/07/2021 14:18:59[INFO] Ejecutando accion...   
18/07/2021 14:18:59[ACTION] Agrego supervisor aleatorio Numero: 2  

--------------------------------------------------------------------------   
18/07/2021 14:18:59[INFO] Ejecutando petrinator para conocer estado de la red...   
--------------------------------------------------------------------------
   

--------------------------------------------------------------------------
   
18/07/2021 14:19:17[INFO] Calculando recompensa..   
18/07/2021 14:19:17[REWARD] El sifon se controlo correctamente, recompensa -1   

--------------------------------------------------------------------------
   
18/07/2021 14:19:17[STATE] Cambie al estado 3: Hay igual cantidad de sifones vacios en deadlock   
+-----------------------------------------------------+--------------------+------------------------+
|                   Estados/Acciones                  | Agregar supervisor | Agregar o quitar arcos |
+-----------------------------------------------------+--------------------+------------------------+
|                        Start                        |        -1.0        |          0.0           |
|        Más sifónes vacíos en estado deadlock        |        0.0         |          0.0           |
|       Menos sifónes vacíos en estado deadlock       |        0.0         |          -1.0          |
| Igual cantidad de sifónes vacíos en estado deadlock |      -4.0951       |        -4.0951         |
|                         End                         |        0.0         |          0.0           |
+-----------------------------------------------------+--------------------+------------------------+
+----+-----+----------------------------------------------------------------+
| ID | Nro |                             Plazas                             |
+----+-----+----------------------------------------------------------------+
| 46 |  1  | ['P4', 'P11', 'P17', 'P19', 'P21', 'P25', 'P28', 'P30', 'P32'] |
| 47 |  2  | ['P3', 'P11', 'P17', 'P19', 'P21', 'P25', 'P28', 'P31', 'P32'] |
| 48 |  24 |     ['P3', 'P9', 'P11', 'P17', 'P21', 'P25', 'P28', 'P32']     |
+----+-----+----------------------------------------------------------------+
+----+----+----+----+----+----+----+----+----+----+-----+-----+-----+-----+-----+-----+-----+-----+-----+-----+-----+
| T0 | T1 | T2 | T3 | T4 | T5 | T6 | T7 | T8 | T9 | T10 | T11 | T12 | T13 | T14 | T15 | T16 | T17 | T18 | T19 | T20 |
+----+----+----+----+----+----+----+----+----+----+-----+-----+-----+-----+-----+-----+-----+-----+-----+-----+-----+
| 1  | 1  | 1  | 1  | 1  | 0  | 0  | 0  | 0  | 0  |  0  |  0  |  0  |  0  |  0  |  0  |  0  |  0  |  0  |  0  |  0  |
+----+----+----+----+----+----+----+----+----+----+-----+-----+-----+-----+-----+-----+-----+-----+-----+-----+-----+
18/07/2021 14:19:17[INFO] Supervisores para agregar   
+-----+---------+-----------------------------------+--------------+
|  ID | Marcado |            T - Entrada            |  T - Salida  |
+-----+---------+-----------------------------------+--------------+
| P39 |    2    | ['T4', 'T8', 'T13', 'T18', 'T20'] | ['T1', 'T6'] |
| P39 |    2    | ['T3', 'T8', 'T12', 'T18', 'T20'] | ['T1', 'T6'] |
| P39 |    1    |    ['T3', 'T12', 'T18', 'T20']    | ['T1', 'T6'] |
+-----+---------+-----------------------------------+--------------+
18/07/2021 14:19:17[INFO] Supervisores agregados   
+-----+---------+-----------------------------------+--------------+
| Nro | Marcado |            T - Entrada            |  T - Salida  |
+-----+---------+-----------------------------------+--------------+
|  1  |    1    |        ['T3', 'T7', 'T12']        | ['T1', 'T6'] |
|  2  |    2    | ['T3', 'T8', 'T12', 'T18', 'T20'] | ['T1', 'T6'] |
|  3  |    2    | ['T3', 'T8', 'T12', 'T18', 'T20'] | ['T1', 'T6'] |
|  4  |    2    | ['T3', 'T8', 'T12', 'T18', 'T20'] | ['T1', 'T6'] |
|  5  |    2    | ['T4', 'T8', 'T13', 'T18', 'T20'] | ['T1', 'T6'] |
|  6  |    1    |    ['T3', 'T12', 'T18', 'T20']    | ['T1', 'T6'] |
+-----+---------+-----------------------------------+--------------+
18/07/2021 14:19:17[INFO] Ejecutando accion...   
18/07/2021 14:19:17[ACTION] Agregar o quitar arcos   
18/07/2021 14:19:17[ACTION] Eliminar arco desde T13 hasta P37   
18/07/2021 14:19:17[INFO] Se elimino el arco con metodo 2 desde T13 hasta P37   
18/07/2021 14:19:17[ACTION] Eliminar arco desde T12 hasta P38   
18/07/2021 14:19:17[INFO] Se elimino el arco con metodo 2 desde T12 hasta P38   
18/07/2021 14:19:17[ACTION] Eliminar arco desde T18 hasta P38   
18/07/2021 14:19:17[INFO] Se elimino el arco con metodo 2 desde T18 hasta P38   

--------------------------------------------------------------------------   
18/07/2021 14:19:17[INFO] Ejecutando petrinator para conocer estado de la red...   
--------------------------------------------------------------------------
   

--------------------------------------------------------------------------
   
18/07/2021 14:19:32[INFO] Calculando recompensa..   
18/07/2021 14:19:32[REWARD] No hay mas deadlock, recompensa 100   

--------------------------------------------------------------------------
   
18/07/2021 14:19:32[STATE] Se llego al estado deseado, NO HAY MAS DEADLOCK   

--------------------------------------------------------------------------
   
18/07/2021 14:19:32[STATE] Cambie al estado 2: Hay menos sifones vacios en deadlock   
+-----------------------------------------------------+--------------------+------------------------+
|                   Estados/Acciones                  | Agregar supervisor | Agregar o quitar arcos |
+-----------------------------------------------------+--------------------+------------------------+
|                        Start                        |        -1.0        |          0.0           |
|        Más sifónes vacíos en estado deadlock        |        0.0         |          0.0           |
|       Menos sifónes vacíos en estado deadlock       |        0.0         |          -1.0          |
| Igual cantidad de sifónes vacíos en estado deadlock |      -4.0951       |         100.0          |
|                         End                         |        0.0         |          0.0           |
+-----------------------------------------------------+--------------------+------------------------+
