 Minimal siphons 
4 11 17 19 21 25 28 30 32
3 11 17 19 21 25 28 31 32
2 11 17 21 25 32
11 14
10 15
9 13
1 5
9 10 11 12 16 17 18 19 20 21 22 23 24 25 26
2 10 16 19 31
2 7
1 2 5
2 11 16 27
1 33 2 9 10 11 12 16 22
1 38 2 9 10 11 12 16 17 18 19 20 21 22 23 24
1 36 2 9 10 11 12 16 17 18 19 20 21 22 23 24
1 35 2 9 10 11 12 16 17 18 19 20 21 22 23 24
1 34 2 9 10 11 12 16 17 18 19 20 21 22 23 24
3 10 16 19 21 24 28 31
3 9 16 21 24 28
3 6
3 11 16 19 21 24 27 28 31
3 11 15 16 21 24 27 28
3 11 15 17 21 25 28 32
3 9 11 17 21 25 28 32
1 37 2 3 9 10 11 12 16 17 18 19 20 21 22 23 24
4 10 17 19 24 30
4 9 16 29
1 2 3 4 8
4 10 16 19 21 24 28 29 31
4 6 10 16 19 29 31
4 11 16 19 21 24 27 28 29 31
4 11 15 16 21 24 27 28 29
4 6 11 15 16 27 29
4 6 11 16 19 27 29 31
4 11 15 17 21 25 28 29 32
4 9 11 17 21 25 28 29 32
4 6 9 11 17 21 25 29 32
4 6 11 15 17 21 25 29 32
4 6 11 17 19 24 27 30
2 4 11 17 19 24 27 30
4 11 17 19 21 24 27 28 30
4 6 11 17 19 21 25 30 32
4 6 11 17 19 21 25 29 31 32
4 11 17 19 21 25 28 29 31 32
 Minimal traps 
1 5
2 9 16 19 21 24 28 31
3 9 16 21 24 28
4 9 16 29
9 13
10 15
11 14
9 10 11 12 16 17 18 19 20 21 22 23 24 25 26
4 10 17 19 24 30
3 6
2 10 16 19 31
2 11 16 27
2 7
2 11 17 21 25 32
2 6 10 17 19 21 24 30 32
2 6 10 16 19 24 27 30
2 4 10 16 19 24 27 30
2 9 15 16 21 24 28 32
2 9 11 16 21 24 28 32
2 6 9 11 16 21 25 29 32
2 6 9 15 16 27 29
2 6 9 15 16 21 25 29 32
2 9 15 16 21 24 27 28
2 6 9 16 19 29 31
2 6 9 16 19 24 27 29 30
2 6 9 16 19 21 24 29 30 32
2 9 16 19 21 24 28 30 32
2 9 16 19 21 24 27 28 30
1 2 3 4 8
1 33 2 9 10 11 21 25 32
1 34 33 2 9 10 11 21 32
1 35 33 2 9 10 11 21 32
1 36 33 2 9 10 11 21 32
1 38 33 2 9 10 11 21 32
1 34 2 9 10 11 17 21 32
1 35 2 9 10 11 17 21 32
1 36 2 9 10 11 17 21 32
1 38 2 9 10 11 17 21 32
1 37 2 9 10 17 19 21 24 30 32
1 37 33 2 9 10 19 24 30
1 37 33 2 9 10 11 21 32
1 37 33 2 9 10 11 19 20 21 32
1 37 33 2 9 10 11 19 20 21 24 32
1 37 2 9 10 11 17 21 32
1 37 2 3 9 10 17 19 24 30
1 37 34 2 9 10 17 19 24 30
1 37 35 2 9 10 17 19 24 30
1 37 36 2 9 10 17 19 24 30
1 38 37 2 9 10 17 19 24 30
1 37 2 9 10 11 17 19 20 21 32
1 37 2 9 10 11 17 19 20 21 24 32
1 33 2 4 9 10 19 24 30
1 33 2 6 9 10 19 24 30
1 34 2 6 9 10 17 19 24 30
1 35 2 6 9 10 17 19 24 30
1 36 2 6 9 10 17 19 24 30
1 38 2 6 9 10 17 19 24 30
1 33 2 9 16 21 24 28
1 34 2 9 16 21 24 28
1 35 2 9 16 21 24 28
1 36 2 9 16 21 24 28
1 38 2 9 16 21 24 28
1 38 2 6 9 16 29
1 38 37 2 9 16 29
1 36 2 6 9 16 29
1 37 36 2 9 16 29
1 35 2 6 9 16 29
1 37 35 2 9 16 29
1 34 2 6 9 16 29
1 37 34 2 9 16 29
1 37 2 3 9 16 29
1 33 2 6 9 16 29
1 37 33 2 9 16 29
1 33 2 9 10 11 12 16 22
1 37 2 9 11 16 21 29 32
1 37 33 2 9 10 11 16 21 32
1 37 2 9 10 11 16 17 21 32
1 37 33 2 9 10 11 16 21 24 32
1 37 2 9 10 11 16 17 21 24 32
1 37 2 9 15 16 27 29
1 37 2 9 15 16 21 29 32
1 38 2 6 9 15 16 21 23 24 29
1 36 2 6 9 15 16 21 23 24 29
1 35 2 6 9 15 16 21 23 24 29
1 34 2 6 9 15 16 21 23 24 29
1 37 2 9 16 19 29 31
1 37 2 9 10 16 19 24 27 30
1 37 2 9 16 19 24 27 29 30
1 37 2 9 10 11 16 17 19 20 21 32
1 37 33 2 9 10 11 16 19 20 21 32
1 38 2 9 10 11 12 16 17 18 19 20 21 22 23 24
1 36 2 9 10 11 12 16 17 18 19 20 21 22 23 24
1 35 2 9 10 11 12 16 17 18 19 20 21 22 23 24
1 34 2 9 10 11 12 16 17 18 19 20 21 22 23 24
1 37 33 2 9 10 11 16 19 20 21 24 32
1 37 2 9 10 11 16 17 19 20 21 24 32
1 37 2 3 9 10 11 12 16 17 18 19 20 21 22 23 24
1 37 2 7 9 10 11 12 16 17 18 19 20 21 22 23 24
1 37 2 9 16 19 21 24 29 30 32
1 38 2 6 9 15 16 19 20 21 23 24 29
1 36 2 6 9 15 16 19 20 21 23 24 29
1 35 2 6 9 15 16 19 20 21 23 24 29
1 34 2 6 9 15 16 19 20 21 23 24 29
 Analysis time: 9.896s