 Minimal siphons 
2 8 14 25
17 19
1 7 27
14 15
7 9
6 11
5 10
5 6 7 8 12
1 6 14 26
1 37 5 6 13 20
1 36 5 6 13 20
1 35 5 6 13 20
1 34 5 6 13 20
1 33 5 6 13 20
1 32 5 6 13 20
1 31 5 6 13 20
1 30 5 6 13 20
1 29 5 6 13 20
1 28 5 6 13 20
13 14 16 17 18 20 21 22
2 7 14 17 24 26 27
2 6 14 17 24 26
2 3
1 2 4
2 6 13 17 24
2 3 6 11
1 2 4 6 11
1 2 4 5 6 10
2 3 5 6 10
2 7 13 17 24 27
2 3 7 27
1 2 7 27
1 2 4 7 9
1 2 4 6 7 11
1 2 4 5 6 7 10
2 3 7 9
2 3 6 7 11
2 3 5 6 7 10
2 8 23
2 3 7 8 27
1 2 7 8 27
1 2 4 7 8 9
1 2 4 6 7 8 11
1 2 4 5 6 7 8 12
1 2 4 5 6 7 8 10
2 3 7 8 9
2 3 6 7 8 11
2 3 5 6 7 8 12
2 3 5 6 7 8 10
 Minimal traps 
5 10
1 6 13 17 24 27
2 6 13 17 24
17 19
14 15
6 11
7 9
13 14 16 17 18 20 21 22
2 7 9 14 25
2 8 14 25
2 3
2 8 23
2 8 14 15 23
2 8 13 14 15 23
2 7 8 14 25
2 7 8 23
2 7 8 14 15 23
2 7 8 13 14 15 23
2 7 9 23
2 3 7 9
2 7 9 14 15 23
2 3 7 9 14 15
2 7 9 13 14 15 23
2 3 7 9 13 14 15
2 6 9 11 14 25
2 6 8 11 14 25
2 3 6 11
2 6 7 8 14 25
2 6 7 8 23
2 6 7 8 14 15 23
2 6 8 11 23
2 6 8 11 14 15 23
2 6 7 9 14 25
2 6 7 9 23
2 3 6 7 9
2 6 7 9 14 15 23
2 3 6 7 9 14 15
2 6 9 11 23
2 3 6 9 11
2 6 9 11 14 15 23
2 3 6 9 11 14 15
1 7 27
1 2 8 14 25
1 2 4
1 2 3
1 2 8 23
1 2 8 14 15 23
1 2 8 13 14 15 23
1 2 7 9 14 25
1 2 7 8 14 25
1 2 7 8 23
1 2 7 8 14 15 23
1 2 7 8 13 14 15 23
1 2 7 9 23
1 2 4 7 9
1 2 3 7 9
1 2 7 9 14 15 23
1 2 4 7 9 14 15
1 2 3 7 9 14 15
1 2 7 9 13 14 15 23
1 2 4 7 9 13 14 15
1 2 3 7 9 13 14 15
1 6 14 26
1 6 11 27
1 6 7 27
1 2 6 7 9 23
1 2 6 7 8 23
1 2 4 6 7 9
1 2 3 6 7 9
1 2 6 9 11 23
1 2 6 8 11 23
1 2 4 6 11
1 2 3 6 11
1 2 4 6 9 11
1 2 3 6 9 11
1 6 11 14 25 27
1 6 7 14 25 27
1 6 7 14 15 27
1 2 6 7 9 14 15 23
1 2 6 7 8 14 15 23
1 2 4 6 7 9 14 15
1 2 3 6 7 9 14 15
1 2 6 7 9 14 25
1 2 6 7 8 14 25
1 6 11 14 15 27
1 2 6 9 11 14 15 23
1 2 6 8 11 14 15 23
1 2 4 6 11 14 15
1 2 3 6 11 14 15
1 2 4 6 9 11 14 15
1 2 3 6 9 11 14 15
1 2 6 9 11 14 25
1 2 6 8 11 14 25
1 6 13 17 24 26
5 6 11
5 6 7 9
5 6 7 8 12
2 5 6 9 11 14 25
2 5 6 8 11 14 25
2 3 5 6 11
2 5 6 7 8 14 25
2 5 6 7 8 23
2 3 5 6 7 8 12
2 5 6 7 8 14 15 23
2 3 5 6 7 8 12 14 15
2 5 6 8 11 23
2 3 5 6 8 11 12
2 5 6 8 11 14 15 23
2 3 5 6 8 11 12 14 15
2 5 6 7 9 14 25
2 5 6 7 9 23
2 3 5 6 7 9
2 5 6 7 9 14 15 23
2 3 5 6 7 9 14 15
2 5 6 9 11 23
2 3 5 6 9 11
2 5 6 9 11 14 15 23
2 3 5 6 9 11 14 15
1 5 6 14 26
1 5 6 11 27
1 5 6 7 27
1 2 5 6 7 9 23
1 2 5 6 7 8 23
1 2 4 5 6 7 8 12
1 2 3 5 6 7 8 12
1 2 4 5 6 7 9
1 2 3 5 6 7 9
1 2 5 6 9 11 23
1 2 5 6 8 11 23
1 2 4 5 6 11
1 2 3 5 6 11
1 2 4 5 6 8 11 12
1 2 3 5 6 8 11 12
1 2 4 5 6 9 11
1 2 3 5 6 9 11
1 5 6 11 14 25 27
1 5 6 7 14 25 27
1 5 6 7 14 15 27
1 2 5 6 7 9 14 15 23
1 2 5 6 7 8 14 15 23
1 2 4 5 6 7 8 12 14 15
1 2 3 5 6 7 8 12 14 15
1 2 4 5 6 7 9 14 15
1 2 3 5 6 7 9 14 15
1 2 5 6 7 9 14 25
1 2 5 6 7 8 14 25
1 5 6 11 14 15 27
1 2 5 6 9 11 14 15 23
1 2 5 6 8 11 14 15 23
1 2 4 5 6 11 14 15
1 2 3 5 6 11 14 15
1 2 4 5 6 8 11 12 14 15
1 2 3 5 6 8 11 12 14 15
1 2 4 5 6 9 11 14 15
1 2 3 5 6 9 11 14 15
1 2 5 6 9 11 14 25
1 2 5 6 8 11 14 25
1 28 5 6 13 20
1 29 5 6 13 20
1 30 5 6 13 20
1 31 5 6 13 20
1 32 5 6 13 20
1 33 5 6 13 20
1 34 5 6 13 20
1 35 5 6 13 20
1 36 5 6 13 20
1 37 5 6 13 20
 Analysis time: 7.076s