 Minimal siphons 
3 9 19 30
11 23 29
17 20
16 21
2 5
34 7 22
1 4
1 2 4
1 35 2 7 22
16 17 18 19 22 23 24 25 26 27
11 19 28
1 8 11 17 22 31
7 8 9 10 11 12 13 14 15
1 4 7 8 9 10 11 12 13 14 15
1 2 4 7 8 9 10 11 12 13 14 15
1 35 2 7 8 9 10 11 12 13 14 15 22
2 5 7 8 9 10 11 12 13 14 15
2 5 8 11 17 22 23 31
1 8 11 17 22 23 31
11 19 22 23 24 25 26 27 28
34 7 8 9 10 11 12 13 14 15 22 23
34 7 11 19 22 23 28
34 7 11 19 22 23 24 28
1 34 4 7 11 19 22 23 28
1 4 11 19 22 23 24 25 26 27 28
1 34 4 7 8 9 10 11 12 13 14 15 22 23
1 34 4 7 8 9 10 11 12 13 14 15 19 22 23 28
1 34 4 7 8 9 10 11 12 13 14 15 19 22 23 24 28
1 2 8 11 17 22 23 31
1 34 2 4 7 11 19 22 23 28
1 35 2 7 11 19 22 23 28
1 2 4 11 19 22 23 24 25 26 27 28
1 35 34 2 7 11 19 22 23 28
1 35 2 7 8 9 10 11 12 13 14 15 22 23
1 34 2 4 7 8 9 10 11 12 13 14 15 22 23
1 35 2 4 7 8 9 10 11 12 13 14 15 22 23
1 34 2 4 7 8 9 10 11 12 13 14 15 19 22 23 28
1 35 2 4 7 8 9 10 11 12 13 14 15 19 22 23 28
1 34 2 4 7 8 9 10 11 12 13 14 15 19 22 23 24 28
1 35 2 4 7 8 9 10 11 12 13 14 15 19 22 23 24 28
34 2 5 7 11 19 22 23 28
35 2 5 7 11 19 22 23 28
2 5 11 19 22 23 24 25 26 27 28
34 2 5 7 8 9 10 11 12 13 14 15 22 23
35 2 5 7 8 9 10 11 12 13 14 15 22 23
34 2 5 7 8 9 10 11 12 13 14 15 19 22 23 28
35 2 5 7 8 9 10 11 12 13 14 15 19 22 23 28
34 2 5 7 8 9 10 11 12 13 14 15 19 22 23 24 28
35 2 5 7 8 9 10 11 12 13 14 15 19 22 23 24 28
3 5 8 11 17 23 31 32
1 3 8 11 17 23 31 32
3 7 23 32
1 3 6 7 23 32
1 3 4 7 23 32
1 35 3 7 23 32
1 35 2 3 7 22
1 35 2 3 7 11 23 29
1 35 2 3 7 22 23
1 35 2 3 7 11 19 22 23 28
1 2 3 4
1 34 2 3 4 7 22
1 35 2 3 4 7 22
1 34 2 3 4 7 11 23 29
1 35 2 3 4 7 11 23 29
1 35 2 3 4 7 22 23
1 35 2 3 4 7 11 19 22 23 28
1 34 2 3 4 7 22 23
1 34 2 3 4 7 11 19 22 23 28
1 2 3 6
1 34 2 3 6 7 22
1 35 2 3 6 7 22
1 34 2 3 6 7 11 23 29
1 35 2 3 6 7 11 23 29
1 35 2 3 6 7 22 23
1 35 2 3 6 7 11 19 22 23 28
1 34 2 3 6 7 22 23
1 34 2 3 6 7 11 19 22 23 28
1 3 6 7 8 23 32
1 3 4 7 8 23 32
1 35 3 7 8 23 32
1 35 2 3 7 8 22
1 35 2 3 7 8 22 23
1 34 2 3 4 7 8 22
1 35 2 3 4 7 8 22
1 34 2 3 4 7 8 22 23
1 35 2 3 4 7 8 22 23
1 34 2 3 6 7 8 22
1 35 2 3 6 7 8 22
1 34 2 3 6 7 8 22 23
1 35 2 3 6 7 8 22 23
1 35 3 7 8 11 23 29 32
1 35 2 3 7 8 11 23 29
1 35 2 3 7 8 11 19 22 28
1 3 4 7 8 11 23 29 32
1 34 2 3 4 7 8 11 23 29
1 35 2 3 4 7 8 11 23 29
1 34 2 3 4 7 8 11 19 22 28
1 35 2 3 4 7 8 11 19 22 28
1 3 6 7 8 11 23 29 32
1 34 2 3 6 7 8 11 23 29
1 35 2 3 6 7 8 11 23 29
1 34 2 3 6 7 8 11 19 22 28
1 35 2 3 6 7 8 11 19 22 28
1 2 3 8 11 17 22 31
1 2 3 8 11 17 22 23 31
3 5 7 23 32
2 3 5
34 2 3 5 7 22
35 2 3 5 7 22
34 2 3 5 7 11 23 29
35 2 3 5 7 11 23 29
35 2 3 5 7 22 23
35 2 3 5 7 11 19 22 23 28
34 2 3 5 7 22 23
34 2 3 5 7 11 19 22 23 28
3 5 7 8 23 32
34 2 3 5 7 8 22
35 2 3 5 7 8 22
34 2 3 5 7 8 22 23
35 2 3 5 7 8 22 23
3 5 7 8 11 23 29 32
34 2 3 5 7 8 11 23 29
35 2 3 5 7 8 11 23 29
34 2 3 5 7 8 11 19 22 28
35 2 3 5 7 8 11 19 22 28
2 3 5 8 11 17 22 31
2 3 5 8 11 17 22 23 31
3 7 8 9 23 32
1 3 6 7 8 9 23 32
1 3 4 7 8 9 23 32
1 35 3 7 8 9 23 32
1 35 2 3 7 8 9 22
1 35 2 3 7 8 9 22 23
1 34 2 3 4 7 8 9 22
1 35 2 3 4 7 8 9 22
1 34 2 3 4 7 8 9 22 23
1 35 2 3 4 7 8 9 22 23
1 34 2 3 6 7 8 9 22
1 35 2 3 6 7 8 9 22
1 34 2 3 6 7 8 9 22 23
1 35 2 3 6 7 8 9 22 23
1 3 6 7 8 9 11 23 29 32
1 3 4 7 8 9 11 23 29 32
1 35 3 7 8 9 11 23 29 32
1 35 2 3 7 8 9 10 11 12 13 14 15 22
1 35 3 7 8 9 10 11 12 13 14 15 23 32
1 35 2 3 7 8 9 10 11 12 13 14 15 22 23
1 35 2 3 7 8 9 11 23 29
1 2 3 4 7 8 9 10 11 12 13 14 15
1 3 4 7 8 9 10 11 12 13 14 15 23 32
1 34 2 3 4 7 8 9 10 11 12 13 14 15 22 23
1 35 2 3 4 7 8 9 10 11 12 13 14 15 22 23
1 34 2 3 4 7 8 9 11 23 29
1 35 2 3 4 7 8 9 11 23 29
1 2 3 4 7 8 9 10 11 12 13 14 15 23 29
1 2 3 6 7 8 9 10 11 12 13 14 15
1 3 6 7 8 9 10 11 12 13 14 15 23 32
1 34 2 3 6 7 8 9 10 11 12 13 14 15 22 23
1 35 2 3 6 7 8 9 10 11 12 13 14 15 22 23
1 34 2 3 6 7 8 9 11 23 29
1 35 2 3 6 7 8 9 11 23 29
1 2 3 6 7 8 9 10 11 12 13 14 15 23 29
3 5 7 8 9 23 32
34 2 3 5 7 8 9 22
35 2 3 5 7 8 9 22
34 2 3 5 7 8 9 22 23
35 2 3 5 7 8 9 22 23
3 5 7 8 9 11 23 29 32
2 3 5 7 8 9 10 11 12 13 14 15
3 5 7 8 9 10 11 12 13 14 15 23 32
34 2 3 5 7 8 9 10 11 12 13 14 15 22 23
35 2 3 5 7 8 9 10 11 12 13 14 15 22 23
34 2 3 5 7 8 9 11 23 29
35 2 3 5 7 8 9 11 23 29
2 3 5 7 8 9 10 11 12 13 14 15 23 29
3 7 8 9 11 19 23 28 32
1 35 2 3 7 8 9 11 19 22 28
1 34 2 3 4 7 8 9 11 19 22 28
1 35 2 3 4 7 8 9 11 19 22 28
1 2 3 4 7 8 9 10 11 12 13 14 15 19 28
1 34 2 3 4 7 8 9 10 11 12 13 14 15 19 22 23 28
1 35 2 3 4 7 8 9 10 11 12 13 14 15 19 22 23 28
1 34 2 3 4 7 8 9 10 11 12 13 14 15 19 22 23 24 28
1 35 2 3 4 7 8 9 10 11 12 13 14 15 19 22 23 24 28
1 34 2 3 6 7 8 9 11 19 22 28
1 35 2 3 6 7 8 9 11 19 22 28
1 2 3 6 7 8 9 10 11 12 13 14 15 19 28
1 34 2 3 6 7 8 9 10 11 12 13 14 15 19 22 23 28
1 35 2 3 6 7 8 9 10 11 12 13 14 15 19 22 23 28
1 34 2 3 6 7 8 9 10 11 12 13 14 15 19 22 23 24 28
1 35 2 3 6 7 8 9 10 11 12 13 14 15 19 22 23 24 28
34 2 3 5 7 8 9 11 19 22 28
35 2 3 5 7 8 9 11 19 22 28
2 3 5 7 8 9 10 11 12 13 14 15 19 28
34 2 3 5 7 8 9 10 11 12 13 14 15 19 22 23 28
35 2 3 5 7 8 9 10 11 12 13 14 15 19 22 23 28
34 2 3 5 7 8 9 10 11 12 13 14 15 19 22 23 24 28
35 2 3 5 7 8 9 10 11 12 13 14 15 19 22 23 24 28
 Minimal traps 
16 21
1 5 7 11 17 22 31 32
17 20
11 23 29
2 5
3 9 19 30
34 7 22
3 7 23 32
34 7 11 22 29
11 19 28
7 8 9 10 11 12 13 14 15
34 7 11 12 13 14 15 22
2 5 9 17 18 19 30
3 9 17 18 19 30
11 17 18 19 28
2 3 9 17 18 19 30
1 3 7 11 17 22 31 32
1 35 7 11 17 22 31
1 8 11 17 22 31
1 34 7 11 17 22 31
1 4
1 34 4 7 22
1 4 7 8 9 10 11 13 14 15 17 18 19 28
1 35 4 7 22
1 35 2 7 22
1 3 4 9 19 30
1 2 3 9 19 30
1 2 3 6
1 3 4 6
1 3 4 8 9 19 30
1 2 3 8 9 19 30
1 3 4 7 23 32
1 2 3 7 23 32
1 34 2 3 7 9 19 22 30
1 35 2 3 7 9 19 22 30
1 2 3 7 8 9 19 30
1 35 2 3 7 22 32
1 35 2 3 6 7 22
1 34 2 3 7 22 32
1 34 2 3 6 7 22
1 34 3 4 7 9 19 22 30
1 35 3 4 7 9 19 22 30
1 3 4 7 8 9 19 30
1 35 3 4 7 22 32
1 35 3 4 6 7 22
1 34 3 4 7 22 32
1 34 3 4 6 7 22
1 35 2 3 6 7 11 22 23 29
1 34 2 3 6 7 11 22 23 29
1 35 3 4 6 7 11 22 23 29
1 34 3 4 6 7 11 22 23 29
1 4 5
1 2 5
1 4 5 8 9 19 30
1 2 5 8 9 19 30
1 4 5 7 23 32
1 2 5 7 23 32
1 34 2 5 7 22
1 35 2 5 7 22
1 2 5 7 8 9 19 30
1 34 4 5 7 22
1 35 4 5 7 22
1 4 5 7 8 9 19 30
2 5 9 16 17 18 19 30
3 9 16 17 18 19 30
11 16 17 18 19 28
16 17 18 19 22 23 24 25 26 27
2 3 9 16 17 18 19 30
1 8 11 16 17 22 31
1 34 7 11 16 17 22 31
1 4 11 16 17 18 19 28
1 4 7 8 9 10 11 13 14 15 16 17 18 19 28
1 2 3 6 11 16 17 18 19 28
1 2 3 9 16 17 18 19 30
1 3 4 6 11 16 17 18 19 28
1 3 4 9 16 17 18 19 30
1 2 3 8 9 16 17 18 19 30
1 3 4 8 9 16 17 18 19 30
1 2 5 9 16 17 18 19 30
1 2 5 11 16 17 18 19 28
1 4 5 9 16 17 18 19 30
1 4 5 11 16 17 18 19 28
1 2 5 8 9 16 17 18 19 30
1 4 5 8 9 16 17 18 19 30
 Analysis time: 7.683s