+-----------------------------------------------------+--------------------+------------------------+
|                   Estados/Acciones                  | Agregar supervisor | Agregar o quitar arcos |
+-----------------------------------------------------+--------------------+------------------------+
|                        Start                        |        0.0         |          0.0           |
|        Más sifónes vacíos en estado deadlock        |        0.0         |          0.0           |
|       Menos sifónes vacíos en estado deadlock       |        0.0         |          0.0           |
| Igual cantidad de sifónes vacíos en estado deadlock |        0.0         |          0.0           |
|                         End                         |        0.0         |          0.0           |
+-----------------------------------------------------+--------------------+------------------------+
+----+-----+------------------------------------------------+
| ID | Nro |                     Plazas                     |
+----+-----+------------------------------------------------+
| 0  |  9  | ['P2', 'P5', 'P8', 'P14', 'P15', 'P18', 'P20'] |
| 1  |  15 | ['P2', 'P5', 'P8', 'P15', 'P16', 'P18', 'P19'] |
| 2  |  2  |           ['P1', 'P5', 'P16', 'P19']           |
+----+-----+------------------------------------------------+
+----+----+----+----+----+----+----+----+----+----+-----+-----+-----+-----+-----+-----+-----+
| T0 | T1 | T2 | T3 | T4 | T5 | T6 | T7 | T8 | T9 | T10 | T11 | T12 | T13 | T14 | T15 | T16 |
+----+----+----+----+----+----+----+----+----+----+-----+-----+-----+-----+-----+-----+-----+
| 1  | 1  | 1  | 0  | 0  | 0  | 0  | 0  | 0  | 0  |  0  |  0  |  0  |  0  |  0  |  0  |  0  |
| 0  | 0  | 0  | 1  | 1  | 1  | 1  | 0  | 0  | 0  |  0  |  0  |  0  |  0  |  0  |  0  |  0  |
| 0  | 0  | 0  | 0  | 0  | 0  | 0  | 1  | 1  | 1  |  1  |  1  |  0  |  0  |  0  |  1  |  1  |
| 0  | 0  | 0  | 0  | 0  | 0  | 0  | 0  | 0  | 0  |  0  |  0  |  1  |  1  |  1  |  1  |  1  |
+----+----+----+----+----+----+----+----+----+----+-----+-----+-----+-----+-----+-----+-----+
+-----+---------+----------------------------+---------------------+
|  ID | Marcado |        T - Entrada         |      T - Salida     |
+-----+---------+----------------------------+---------------------+
| P22 |    1    | ['T2', 'T5', 'T8', 'T13']  | ['T1', 'T4', 'T16'] |
| P22 |    1    | ['T2', 'T5', 'T12', 'T15'] | ['T1', 'T4', 'T16'] |
| P22 |    0    |       ['T12', 'T15']       | ['T1', 'T4', 'T16'] |
+-----+---------+----------------------------+---------------------+
+----+-----+------------------------------------------------+
| ID | Nro |                     Plazas                     |
+----+-----+------------------------------------------------+
| 3  |  2  |           ['P1', 'P5', 'P16', 'P19']           |
| 4  |  16 | ['P2', 'P5', 'P8', 'P15', 'P16', 'P18', 'P19'] |
+----+-----+------------------------------------------------+
+----+----+----+----+----+----+----+----+----+----+-----+-----+-----+-----+-----+-----+-----+
| T0 | T1 | T2 | T3 | T4 | T5 | T6 | T7 | T8 | T9 | T10 | T11 | T12 | T13 | T14 | T15 | T16 |
+----+----+----+----+----+----+----+----+----+----+-----+-----+-----+-----+-----+-----+-----+
| 1  | 1  | 1  | 0  | 0  | 0  | 0  | 0  | 0  | 0  |  0  |  0  |  0  |  0  |  0  |  0  |  0  |
| 0  | 0  | 0  | 1  | 1  | 1  | 1  | 0  | 0  | 0  |  0  |  0  |  0  |  0  |  0  |  0  |  0  |
| 0  | 0  | 0  | 0  | 0  | 0  | 0  | 1  | 1  | 1  |  1  |  1  |  0  |  0  |  0  |  1  |  1  |
| 0  | 0  | 0  | 0  | 0  | 0  | 0  | 0  | 0  | 0  |  0  |  0  |  1  |  1  |  1  |  1  |  1  |
+----+----+----+----+----+----+----+----+----+----+-----+-----+-----+-----+-----+-----+-----+
+-----+---------+----------------------------+---------------------+
|  ID | Marcado |        T - Entrada         |      T - Salida     |
+-----+---------+----------------------------+---------------------+
| P23 |    0    |       ['T12', 'T15']       | ['T1', 'T4', 'T16'] |
| P23 |    1    | ['T2', 'T5', 'T12', 'T15'] | ['T1', 'T4', 'T16'] |
+-----+---------+----------------------------+---------------------+
+-----------------------------------------------------+--------------------+------------------------+
|                   Estados/Acciones                  | Agregar supervisor | Agregar o quitar arcos |
+-----------------------------------------------------+--------------------+------------------------+
|                        Start                        |        -0.9        |          0.0           |
|        Más sifónes vacíos en estado deadlock        |        0.0         |          0.0           |
|       Menos sifónes vacíos en estado deadlock       |        0.0         |          0.0           |
| Igual cantidad de sifónes vacíos en estado deadlock |        0.0         |          0.0           |
|                         End                         |        0.0         |          0.0           |
+-----------------------------------------------------+--------------------+------------------------+
+----+-----+------------------------------------------------+
| ID | Nro |                     Plazas                     |
+----+-----+------------------------------------------------+
| 5  |  2  |           ['P1', 'P5', 'P16', 'P19']           |
| 6  |  16 | ['P2', 'P5', 'P8', 'P15', 'P16', 'P18', 'P19'] |
+----+-----+------------------------------------------------+
+----+----+----+----+----+----+----+----+----+----+-----+-----+-----+-----+-----+-----+-----+
| T0 | T1 | T2 | T3 | T4 | T5 | T6 | T7 | T8 | T9 | T10 | T11 | T12 | T13 | T14 | T15 | T16 |
+----+----+----+----+----+----+----+----+----+----+-----+-----+-----+-----+-----+-----+-----+
| 1  | 1  | 1  | 0  | 0  | 0  | 0  | 0  | 0  | 0  |  0  |  0  |  0  |  0  |  0  |  0  |  0  |
| 0  | 0  | 0  | 1  | 1  | 1  | 1  | 0  | 0  | 0  |  0  |  0  |  0  |  0  |  0  |  0  |  0  |
| 0  | 0  | 0  | 0  | 0  | 0  | 0  | 1  | 1  | 1  |  1  |  1  |  0  |  0  |  0  |  1  |  1  |
| 0  | 0  | 0  | 0  | 0  | 0  | 0  | 0  | 0  | 0  |  0  |  0  |  1  |  1  |  1  |  1  |  1  |
+----+----+----+----+----+----+----+----+----+----+-----+-----+-----+-----+-----+-----+-----+
+-----+---------+----------------------------+---------------------+
|  ID | Marcado |        T - Entrada         |      T - Salida     |
+-----+---------+----------------------------+---------------------+
| P23 |    0    |       ['T12', 'T15']       | ['T1', 'T4', 'T16'] |
| P23 |    1    | ['T2', 'T5', 'T12', 'T15'] | ['T1', 'T4', 'T16'] |
+-----+---------+----------------------------+---------------------+
+-----------------------------------------------------+--------------------+------------------------+
|                   Estados/Acciones                  | Agregar supervisor | Agregar o quitar arcos |
+-----------------------------------------------------+--------------------+------------------------+
|                        Start                        |        -0.9        |          0.0           |
|        Más sifónes vacíos en estado deadlock        |        0.0         |          0.0           |
|       Menos sifónes vacíos en estado deadlock       |        0.0         |          -0.9          |
| Igual cantidad de sifónes vacíos en estado deadlock |        0.0         |          0.0           |
|                         End                         |        0.0         |          0.0           |
+-----------------------------------------------------+--------------------+------------------------+
+----+-----+------------------------------------------------+
| ID | Nro |                     Plazas                     |
+----+-----+------------------------------------------------+
| 7  |  2  |           ['P1', 'P5', 'P16', 'P19']           |
| 8  |  16 | ['P2', 'P5', 'P8', 'P15', 'P16', 'P18', 'P19'] |
+----+-----+------------------------------------------------+
+----+----+----+----+----+----+----+----+----+----+-----+-----+-----+-----+-----+-----+-----+
| T0 | T1 | T2 | T3 | T4 | T5 | T6 | T7 | T8 | T9 | T10 | T11 | T12 | T13 | T14 | T15 | T16 |
+----+----+----+----+----+----+----+----+----+----+-----+-----+-----+-----+-----+-----+-----+
| 1  | 1  | 1  | 0  | 0  | 0  | 0  | 0  | 0  | 0  |  0  |  0  |  0  |  0  |  0  |  0  |  0  |
| 0  | 0  | 0  | 1  | 1  | 1  | 1  | 0  | 0  | 0  |  0  |  0  |  0  |  0  |  0  |  0  |  0  |
| 0  | 0  | 0  | 0  | 0  | 0  | 0  | 1  | 1  | 1  |  1  |  1  |  0  |  0  |  0  |  1  |  1  |
| 0  | 0  | 0  | 0  | 0  | 0  | 0  | 0  | 0  | 0  |  0  |  0  |  1  |  1  |  1  |  1  |  1  |
+----+----+----+----+----+----+----+----+----+----+-----+-----+-----+-----+-----+-----+-----+
+-----+---------+----------------------------+---------------------+
|  ID | Marcado |        T - Entrada         |      T - Salida     |
+-----+---------+----------------------------+---------------------+
| P23 |    0    |       ['T12', 'T15']       | ['T1', 'T4', 'T16'] |
| P23 |    1    | ['T2', 'T5', 'T12', 'T15'] | ['T1', 'T4', 'T16'] |
+-----+---------+----------------------------+---------------------+
+-----------------------------------------------------+--------------------+------------------------+
|                   Estados/Acciones                  | Agregar supervisor | Agregar o quitar arcos |
+-----------------------------------------------------+--------------------+------------------------+
|                        Start                        |        -0.9        |          0.0           |
|        Más sifónes vacíos en estado deadlock        |        0.0         |          0.0           |
|       Menos sifónes vacíos en estado deadlock       |        0.0         |          -0.9          |
| Igual cantidad de sifónes vacíos en estado deadlock |        0.0         |          -0.9          |
|                         End                         |        0.0         |          0.0           |
+-----------------------------------------------------+--------------------+------------------------+
+----+-----+------------------------------------------------+
| ID | Nro |                     Plazas                     |
+----+-----+------------------------------------------------+
| 9  |  2  |           ['P1', 'P5', 'P16', 'P19']           |
| 10 |  16 | ['P2', 'P5', 'P8', 'P15', 'P16', 'P18', 'P19'] |
+----+-----+------------------------------------------------+
+----+----+----+----+----+----+----+----+----+----+-----+-----+-----+-----+-----+-----+-----+
| T0 | T1 | T2 | T3 | T4 | T5 | T6 | T7 | T8 | T9 | T10 | T11 | T12 | T13 | T14 | T15 | T16 |
+----+----+----+----+----+----+----+----+----+----+-----+-----+-----+-----+-----+-----+-----+
| 1  | 1  | 1  | 0  | 0  | 0  | 0  | 0  | 0  | 0  |  0  |  0  |  0  |  0  |  0  |  0  |  0  |
| 0  | 0  | 0  | 1  | 1  | 1  | 1  | 0  | 0  | 0  |  0  |  0  |  0  |  0  |  0  |  0  |  0  |
| 0  | 0  | 0  | 0  | 0  | 0  | 0  | 1  | 1  | 1  |  1  |  1  |  0  |  0  |  0  |  1  |  1  |
| 0  | 0  | 0  | 0  | 0  | 0  | 0  | 0  | 0  | 0  |  0  |  0  |  1  |  1  |  1  |  1  |  1  |
+----+----+----+----+----+----+----+----+----+----+-----+-----+-----+-----+-----+-----+-----+
+-----+---------+----------------------------+---------------------+
|  ID | Marcado |        T - Entrada         |      T - Salida     |
+-----+---------+----------------------------+---------------------+
| P23 |    0    |       ['T12', 'T15']       | ['T1', 'T4', 'T16'] |
| P23 |    1    | ['T2', 'T5', 'T12', 'T15'] | ['T1', 'T4', 'T16'] |
+-----+---------+----------------------------+---------------------+
+-----------------------------------------------------+--------------------+------------------------+
|                   Estados/Acciones                  | Agregar supervisor | Agregar o quitar arcos |
+-----------------------------------------------------+--------------------+------------------------+
|                        Start                        |        -0.9        |          0.0           |
|        Más sifónes vacíos en estado deadlock        |        0.0         |          0.0           |
|       Menos sifónes vacíos en estado deadlock       |        0.0         |          -0.9          |
| Igual cantidad de sifónes vacíos en estado deadlock |       -90.0        |          -0.9          |
|                         End                         |        0.0         |          0.0           |
+-----------------------------------------------------+--------------------+------------------------+
+----+-----+------------------------------------------------+
| ID | Nro |                     Plazas                     |
+----+-----+------------------------------------------------+
| 11 |  2  |           ['P1', 'P5', 'P16', 'P19']           |
| 12 |  16 | ['P2', 'P5', 'P8', 'P15', 'P16', 'P18', 'P19'] |
+----+-----+------------------------------------------------+
+----+----+----+----+----+----+----+----+----+----+-----+-----+-----+-----+-----+-----+-----+
| T0 | T1 | T2 | T3 | T4 | T5 | T6 | T7 | T8 | T9 | T10 | T11 | T12 | T13 | T14 | T15 | T16 |
+----+----+----+----+----+----+----+----+----+----+-----+-----+-----+-----+-----+-----+-----+
| 1  | 1  | 1  | 0  | 0  | 0  | 0  | 0  | 0  | 0  |  0  |  0  |  0  |  0  |  0  |  0  |  0  |
| 0  | 0  | 0  | 1  | 1  | 1  | 1  | 0  | 0  | 0  |  0  |  0  |  0  |  0  |  0  |  0  |  0  |
| 0  | 0  | 0  | 0  | 0  | 0  | 0  | 1  | 1  | 1  |  1  |  1  |  0  |  0  |  0  |  1  |  1  |
| 0  | 0  | 0  | 0  | 0  | 0  | 0  | 0  | 0  | 0  |  0  |  0  |  1  |  1  |  1  |  1  |  1  |
+----+----+----+----+----+----+----+----+----+----+-----+-----+-----+-----+-----+-----+-----+
+-----+---------+----------------------------+---------------------+
|  ID | Marcado |        T - Entrada         |      T - Salida     |
+-----+---------+----------------------------+---------------------+
| P23 |    0    |       ['T12', 'T15']       | ['T1', 'T4', 'T16'] |
| P23 |    1    | ['T2', 'T5', 'T12', 'T15'] | ['T1', 'T4', 'T16'] |
+-----+---------+----------------------------+---------------------+
+-----------------------------------------------------+--------------------+------------------------+
|                   Estados/Acciones                  | Agregar supervisor | Agregar o quitar arcos |
+-----------------------------------------------------+--------------------+------------------------+
|                        Start                        |        -0.9        |          0.0           |
|        Más sifónes vacíos en estado deadlock        |        0.0         |          0.0           |
|       Menos sifónes vacíos en estado deadlock       |        0.0         |          -0.9          |
| Igual cantidad de sifónes vacíos en estado deadlock |      -99.729       |          -0.9          |
|                         End                         |        0.0         |          0.0           |
+-----------------------------------------------------+--------------------+------------------------+
+----+-----+------------------------------------------------+
| ID | Nro |                     Plazas                     |
+----+-----+------------------------------------------------+
| 13 |  2  |           ['P1', 'P5', 'P16', 'P19']           |
| 14 |  16 | ['P2', 'P5', 'P8', 'P15', 'P16', 'P18', 'P19'] |
+----+-----+------------------------------------------------+
+----+----+----+----+----+----+----+----+----+----+-----+-----+-----+-----+-----+-----+-----+
| T0 | T1 | T2 | T3 | T4 | T5 | T6 | T7 | T8 | T9 | T10 | T11 | T12 | T13 | T14 | T15 | T16 |
+----+----+----+----+----+----+----+----+----+----+-----+-----+-----+-----+-----+-----+-----+
| 1  | 1  | 1  | 0  | 0  | 0  | 0  | 0  | 0  | 0  |  0  |  0  |  0  |  0  |  0  |  0  |  0  |
| 0  | 0  | 0  | 1  | 1  | 1  | 1  | 0  | 0  | 0  |  0  |  0  |  0  |  0  |  0  |  0  |  0  |
| 0  | 0  | 0  | 0  | 0  | 0  | 0  | 1  | 1  | 1  |  1  |  1  |  0  |  0  |  0  |  1  |  1  |
| 0  | 0  | 0  | 0  | 0  | 0  | 0  | 0  | 0  | 0  |  0  |  0  |  1  |  1  |  1  |  1  |  1  |
+----+----+----+----+----+----+----+----+----+----+-----+-----+-----+-----+-----+-----+-----+
+-----+---------+----------------------------+---------------------+
|  ID | Marcado |        T - Entrada         |      T - Salida     |
+-----+---------+----------------------------+---------------------+
| P23 |    0    |       ['T12', 'T15']       | ['T1', 'T4', 'T16'] |
| P23 |    1    | ['T2', 'T5', 'T12', 'T15'] | ['T1', 'T4', 'T16'] |
+-----+---------+----------------------------+---------------------+
+-----------------------------------------------------+--------------------+------------------------+
|                   Estados/Acciones                  | Agregar supervisor | Agregar o quitar arcos |
+-----------------------------------------------------+--------------------+------------------------+
|                        Start                        |        -0.9        |          0.0           |
|        Más sifónes vacíos en estado deadlock        |        0.0         |          0.0           |
|       Menos sifónes vacíos en estado deadlock       |        0.0         |          -0.9          |
| Igual cantidad de sifónes vacíos en estado deadlock |      -99.729       |         -1.719         |
|                         End                         |        0.0         |          0.0           |
+-----------------------------------------------------+--------------------+------------------------+
+----+-----+------------------------------------------------+
| ID | Nro |                     Plazas                     |
+----+-----+------------------------------------------------+
| 15 |  2  |           ['P1', 'P5', 'P16', 'P19']           |
| 16 |  16 | ['P2', 'P5', 'P8', 'P15', 'P16', 'P18', 'P19'] |
+----+-----+------------------------------------------------+
+----+----+----+----+----+----+----+----+----+----+-----+-----+-----+-----+-----+-----+-----+
| T0 | T1 | T2 | T3 | T4 | T5 | T6 | T7 | T8 | T9 | T10 | T11 | T12 | T13 | T14 | T15 | T16 |
+----+----+----+----+----+----+----+----+----+----+-----+-----+-----+-----+-----+-----+-----+
| 1  | 1  | 1  | 0  | 0  | 0  | 0  | 0  | 0  | 0  |  0  |  0  |  0  |  0  |  0  |  0  |  0  |
| 0  | 0  | 0  | 1  | 1  | 1  | 1  | 0  | 0  | 0  |  0  |  0  |  0  |  0  |  0  |  0  |  0  |
| 0  | 0  | 0  | 0  | 0  | 0  | 0  | 1  | 1  | 1  |  1  |  1  |  0  |  0  |  0  |  1  |  1  |
| 0  | 0  | 0  | 0  | 0  | 0  | 0  | 0  | 0  | 0  |  0  |  0  |  1  |  1  |  1  |  1  |  1  |
+----+----+----+----+----+----+----+----+----+----+-----+-----+-----+-----+-----+-----+-----+
+-----+---------+----------------------------+---------------------+
|  ID | Marcado |        T - Entrada         |      T - Salida     |
+-----+---------+----------------------------+---------------------+
| P23 |    0    |       ['T12', 'T15']       | ['T1', 'T4', 'T16'] |
| P23 |    1    | ['T2', 'T5', 'T12', 'T15'] | ['T1', 'T4', 'T16'] |
+-----+---------+----------------------------+---------------------+
+-----------------------------------------------------+--------------------+------------------------+
|                   Estados/Acciones                  | Agregar supervisor | Agregar o quitar arcos |
+-----------------------------------------------------+--------------------+------------------------+
|                        Start                        |        -0.9        |          0.0           |
|        Más sifónes vacíos en estado deadlock        |        0.0         |          0.0           |
|       Menos sifónes vacíos en estado deadlock       |        0.0         |          -0.9          |
| Igual cantidad de sifónes vacíos en estado deadlock |      -99.729       |        -2.46429        |
|                         End                         |        0.0         |          0.0           |
+-----------------------------------------------------+--------------------+------------------------+
+----+-----+------------------------------------------------+
| ID | Nro |                     Plazas                     |
+----+-----+------------------------------------------------+
| 17 |  2  |           ['P1', 'P5', 'P16', 'P19']           |
| 18 |  16 | ['P2', 'P5', 'P8', 'P15', 'P16', 'P18', 'P19'] |
+----+-----+------------------------------------------------+
+----+----+----+----+----+----+----+----+----+----+-----+-----+-----+-----+-----+-----+-----+
| T0 | T1 | T2 | T3 | T4 | T5 | T6 | T7 | T8 | T9 | T10 | T11 | T12 | T13 | T14 | T15 | T16 |
+----+----+----+----+----+----+----+----+----+----+-----+-----+-----+-----+-----+-----+-----+
| 1  | 1  | 1  | 0  | 0  | 0  | 0  | 0  | 0  | 0  |  0  |  0  |  0  |  0  |  0  |  0  |  0  |
| 0  | 0  | 0  | 1  | 1  | 1  | 1  | 0  | 0  | 0  |  0  |  0  |  0  |  0  |  0  |  0  |  0  |
| 0  | 0  | 0  | 0  | 0  | 0  | 0  | 1  | 1  | 1  |  1  |  1  |  0  |  0  |  0  |  1  |  1  |
| 0  | 0  | 0  | 0  | 0  | 0  | 0  | 0  | 0  | 0  |  0  |  0  |  1  |  1  |  1  |  1  |  1  |
+----+----+----+----+----+----+----+----+----+----+-----+-----+-----+-----+-----+-----+-----+
+-----+---------+----------------------------+---------------------+
|  ID | Marcado |        T - Entrada         |      T - Salida     |
+-----+---------+----------------------------+---------------------+
| P23 |    0    |       ['T12', 'T15']       | ['T1', 'T4', 'T16'] |
| P23 |    1    | ['T2', 'T5', 'T12', 'T15'] | ['T1', 'T4', 'T16'] |
+-----+---------+----------------------------+---------------------+
+-----------------------------------------------------+--------------------+------------------------+
|                   Estados/Acciones                  | Agregar supervisor | Agregar o quitar arcos |
+-----------------------------------------------------+--------------------+------------------------+
|                        Start                        |        -0.9        |          0.0           |
|        Más sifónes vacíos en estado deadlock        |        0.0         |          0.0           |
|       Menos sifónes vacíos en estado deadlock       |        0.0         |          -0.9          |
| Igual cantidad de sifónes vacíos en estado deadlock |      -99.729       |  -3.1425039000000003   |
|                         End                         |        0.0         |          0.0           |
+-----------------------------------------------------+--------------------+------------------------+
+----+-----+------------------------------------------------+
| ID | Nro |                     Plazas                     |
+----+-----+------------------------------------------------+
| 19 |  2  |           ['P1', 'P5', 'P16', 'P19']           |
| 20 |  16 | ['P2', 'P5', 'P8', 'P15', 'P16', 'P18', 'P19'] |
+----+-----+------------------------------------------------+
+----+----+----+----+----+----+----+----+----+----+-----+-----+-----+-----+-----+-----+-----+
| T0 | T1 | T2 | T3 | T4 | T5 | T6 | T7 | T8 | T9 | T10 | T11 | T12 | T13 | T14 | T15 | T16 |
+----+----+----+----+----+----+----+----+----+----+-----+-----+-----+-----+-----+-----+-----+
| 1  | 1  | 1  | 0  | 0  | 0  | 0  | 0  | 0  | 0  |  0  |  0  |  0  |  0  |  0  |  0  |  0  |
| 0  | 0  | 0  | 1  | 1  | 1  | 1  | 0  | 0  | 0  |  0  |  0  |  0  |  0  |  0  |  0  |  0  |
| 0  | 0  | 0  | 0  | 0  | 0  | 0  | 1  | 1  | 1  |  1  |  1  |  0  |  0  |  0  |  1  |  1  |
| 0  | 0  | 0  | 0  | 0  | 0  | 0  | 0  | 0  | 0  |  0  |  0  |  1  |  1  |  1  |  1  |  1  |
+----+----+----+----+----+----+----+----+----+----+-----+-----+-----+-----+-----+-----+-----+
+-----+---------+----------------------------+---------------------+
|  ID | Marcado |        T - Entrada         |      T - Salida     |
+-----+---------+----------------------------+---------------------+
| P23 |    0    |       ['T12', 'T15']       | ['T1', 'T4', 'T16'] |
| P23 |    1    | ['T2', 'T5', 'T12', 'T15'] | ['T1', 'T4', 'T16'] |
+-----+---------+----------------------------+---------------------+
+-----------------------------------------------------+--------------------+------------------------+
|                   Estados/Acciones                  | Agregar supervisor | Agregar o quitar arcos |
+-----------------------------------------------------+--------------------+------------------------+
|                        Start                        |        -0.9        |          0.0           |
|        Más sifónes vacíos en estado deadlock        |        0.0         |          0.0           |
|       Menos sifónes vacíos en estado deadlock       |        0.0         |          -0.9          |
| Igual cantidad de sifónes vacíos en estado deadlock |      -99.729       |  -3.7596785490000006   |
|                         End                         |        0.0         |          0.0           |
+-----------------------------------------------------+--------------------+------------------------+
+----+-----+------------------------------------------------+
| ID | Nro |                     Plazas                     |
+----+-----+------------------------------------------------+
| 21 |  2  |           ['P1', 'P5', 'P16', 'P19']           |
| 22 |  16 | ['P2', 'P5', 'P8', 'P15', 'P16', 'P18', 'P19'] |
+----+-----+------------------------------------------------+
+----+----+----+----+----+----+----+----+----+----+-----+-----+-----+-----+-----+-----+-----+
| T0 | T1 | T2 | T3 | T4 | T5 | T6 | T7 | T8 | T9 | T10 | T11 | T12 | T13 | T14 | T15 | T16 |
+----+----+----+----+----+----+----+----+----+----+-----+-----+-----+-----+-----+-----+-----+
| 1  | 1  | 1  | 0  | 0  | 0  | 0  | 0  | 0  | 0  |  0  |  0  |  0  |  0  |  0  |  0  |  0  |
| 0  | 0  | 0  | 1  | 1  | 1  | 1  | 0  | 0  | 0  |  0  |  0  |  0  |  0  |  0  |  0  |  0  |
| 0  | 0  | 0  | 0  | 0  | 0  | 0  | 1  | 1  | 1  |  1  |  1  |  0  |  0  |  0  |  1  |  1  |
| 0  | 0  | 0  | 0  | 0  | 0  | 0  | 0  | 0  | 0  |  0  |  0  |  1  |  1  |  1  |  1  |  1  |
+----+----+----+----+----+----+----+----+----+----+-----+-----+-----+-----+-----+-----+-----+
+-----+---------+----------------------------+---------------------+
|  ID | Marcado |        T - Entrada         |      T - Salida     |
+-----+---------+----------------------------+---------------------+
| P23 |    0    |       ['T12', 'T15']       | ['T1', 'T4', 'T16'] |
| P23 |    1    | ['T2', 'T5', 'T12', 'T15'] | ['T1', 'T4', 'T16'] |
+-----+---------+----------------------------+---------------------+
+-----------------------------------------------------+--------------------+------------------------+
|                   Estados/Acciones                  | Agregar supervisor | Agregar o quitar arcos |
+-----------------------------------------------------+--------------------+------------------------+
|                        Start                        |        -0.9        |          0.0           |
|        Más sifónes vacíos en estado deadlock        |        0.0         |          0.0           |
|       Menos sifónes vacíos en estado deadlock       |        0.0         |          -0.9          |
| Igual cantidad de sifónes vacíos en estado deadlock |  -103.01823962469  |  -3.7596785490000006   |
|                         End                         |        0.0         |          0.0           |
+-----------------------------------------------------+--------------------+------------------------+
+----+-----+------------------------------------------------+
| ID | Nro |                     Plazas                     |
+----+-----+------------------------------------------------+
| 23 |  2  |           ['P1', 'P5', 'P16', 'P19']           |
| 24 |  16 | ['P2', 'P5', 'P8', 'P15', 'P16', 'P18', 'P19'] |
+----+-----+------------------------------------------------+
+----+----+----+----+----+----+----+----+----+----+-----+-----+-----+-----+-----+-----+-----+
| T0 | T1 | T2 | T3 | T4 | T5 | T6 | T7 | T8 | T9 | T10 | T11 | T12 | T13 | T14 | T15 | T16 |
+----+----+----+----+----+----+----+----+----+----+-----+-----+-----+-----+-----+-----+-----+
| 1  | 1  | 1  | 0  | 0  | 0  | 0  | 0  | 0  | 0  |  0  |  0  |  0  |  0  |  0  |  0  |  0  |
| 0  | 0  | 0  | 1  | 1  | 1  | 1  | 0  | 0  | 0  |  0  |  0  |  0  |  0  |  0  |  0  |  0  |
| 0  | 0  | 0  | 0  | 0  | 0  | 0  | 1  | 1  | 1  |  1  |  1  |  0  |  0  |  0  |  1  |  1  |
| 0  | 0  | 0  | 0  | 0  | 0  | 0  | 0  | 0  | 0  |  0  |  0  |  1  |  1  |  1  |  1  |  1  |
+----+----+----+----+----+----+----+----+----+----+-----+-----+-----+-----+-----+-----+-----+
+-----+---------+----------------------------+---------------------+
|  ID | Marcado |        T - Entrada         |      T - Salida     |
+-----+---------+----------------------------+---------------------+
| P23 |    0    |       ['T12', 'T15']       | ['T1', 'T4', 'T16'] |
| P23 |    1    | ['T2', 'T5', 'T12', 'T15'] | ['T1', 'T4', 'T16'] |
+-----+---------+----------------------------+---------------------+
+-----------------------------------------------------+--------------------+------------------------+
|                   Estados/Acciones                  | Agregar supervisor | Agregar o quitar arcos |
+-----------------------------------------------------+--------------------+------------------------+
|                        Start                        |        -0.9        |          0.0           |
|        Más sifónes vacíos en estado deadlock        |        0.0         |          0.0           |
|       Menos sifónes vacíos en estado deadlock       |        0.0         |          -0.9          |
| Igual cantidad de sifónes vacíos en estado deadlock |  -103.01823962469  |  -4.3213074795900015   |
|                         End                         |        0.0         |          0.0           |
+-----------------------------------------------------+--------------------+------------------------+
+----+-----+------------------------------------------------+
| ID | Nro |                     Plazas                     |
+----+-----+------------------------------------------------+
| 25 |  2  |           ['P1', 'P5', 'P16', 'P19']           |
| 26 |  16 | ['P2', 'P5', 'P8', 'P15', 'P16', 'P18', 'P19'] |
+----+-----+------------------------------------------------+
+----+----+----+----+----+----+----+----+----+----+-----+-----+-----+-----+-----+-----+-----+
| T0 | T1 | T2 | T3 | T4 | T5 | T6 | T7 | T8 | T9 | T10 | T11 | T12 | T13 | T14 | T15 | T16 |
+----+----+----+----+----+----+----+----+----+----+-----+-----+-----+-----+-----+-----+-----+
| 1  | 1  | 1  | 0  | 0  | 0  | 0  | 0  | 0  | 0  |  0  |  0  |  0  |  0  |  0  |  0  |  0  |
| 0  | 0  | 0  | 1  | 1  | 1  | 1  | 0  | 0  | 0  |  0  |  0  |  0  |  0  |  0  |  0  |  0  |
| 0  | 0  | 0  | 0  | 0  | 0  | 0  | 1  | 1  | 1  |  1  |  1  |  0  |  0  |  0  |  1  |  1  |
| 0  | 0  | 0  | 0  | 0  | 0  | 0  | 0  | 0  | 0  |  0  |  0  |  1  |  1  |  1  |  1  |  1  |
+----+----+----+----+----+----+----+----+----+----+-----+-----+-----+-----+-----+-----+-----+
+-----+---------+----------------------------+---------------------+
|  ID | Marcado |        T - Entrada         |      T - Salida     |
+-----+---------+----------------------------+---------------------+
| P23 |    0    |       ['T12', 'T15']       | ['T1', 'T4', 'T16'] |
| P23 |    1    | ['T2', 'T5', 'T12', 'T15'] | ['T1', 'T4', 'T16'] |
+-----+---------+----------------------------+---------------------+
+-----------------------------------------------------+--------------------+------------------------+
|                   Estados/Acciones                  | Agregar supervisor | Agregar o quitar arcos |
+-----------------------------------------------------+--------------------+------------------------+
|                        Start                        |        -0.9        |          0.0           |
|        Más sifónes vacíos en estado deadlock        |        0.0         |          0.0           |
|       Menos sifónes vacíos en estado deadlock       |        0.0         |          -0.9          |
| Igual cantidad de sifónes vacíos en estado deadlock |  -103.01823962469  |   -4.832389806426902   |
|                         End                         |        0.0         |          0.0           |
+-----------------------------------------------------+--------------------+------------------------+
+----+-----+------------------------------------------------+
| ID | Nro |                     Plazas                     |
+----+-----+------------------------------------------------+
| 27 |  2  |           ['P1', 'P5', 'P16', 'P19']           |
| 28 |  16 | ['P2', 'P5', 'P8', 'P15', 'P16', 'P18', 'P19'] |
+----+-----+------------------------------------------------+
+----+----+----+----+----+----+----+----+----+----+-----+-----+-----+-----+-----+-----+-----+
| T0 | T1 | T2 | T3 | T4 | T5 | T6 | T7 | T8 | T9 | T10 | T11 | T12 | T13 | T14 | T15 | T16 |
+----+----+----+----+----+----+----+----+----+----+-----+-----+-----+-----+-----+-----+-----+
| 1  | 1  | 1  | 0  | 0  | 0  | 0  | 0  | 0  | 0  |  0  |  0  |  0  |  0  |  0  |  0  |  0  |
| 0  | 0  | 0  | 1  | 1  | 1  | 1  | 0  | 0  | 0  |  0  |  0  |  0  |  0  |  0  |  0  |  0  |
| 0  | 0  | 0  | 0  | 0  | 0  | 0  | 1  | 1  | 1  |  1  |  1  |  0  |  0  |  0  |  1  |  1  |
| 0  | 0  | 0  | 0  | 0  | 0  | 0  | 0  | 0  | 0  |  0  |  0  |  1  |  1  |  1  |  1  |  1  |
+----+----+----+----+----+----+----+----+----+----+-----+-----+-----+-----+-----+-----+-----+
+-----+---------+----------------------------+---------------------+
|  ID | Marcado |        T - Entrada         |      T - Salida     |
+-----+---------+----------------------------+---------------------+
| P23 |    0    |       ['T12', 'T15']       | ['T1', 'T4', 'T16'] |
| P23 |    1    | ['T2', 'T5', 'T12', 'T15'] | ['T1', 'T4', 'T16'] |
+-----+---------+----------------------------+---------------------+
+-----------------------------------------------------+--------------------+------------------------+
|                   Estados/Acciones                  | Agregar supervisor | Agregar o quitar arcos |
+-----------------------------------------------------+--------------------+------------------------+
|                        Start                        |        -0.9        |          0.0           |
|        Más sifónes vacíos en estado deadlock        |        0.0         |          0.0           |
|       Menos sifónes vacíos en estado deadlock       |        0.0         |          -0.9          |
| Igual cantidad de sifónes vacíos en estado deadlock |  -103.01823962469  |   -5.297474723848481   |
|                         End                         |        0.0         |          0.0           |
+-----------------------------------------------------+--------------------+------------------------+
+----+-----+------------------------------------------------+
| ID | Nro |                     Plazas                     |
+----+-----+------------------------------------------------+
| 29 |  2  |           ['P1', 'P5', 'P16', 'P19']           |
| 30 |  16 | ['P2', 'P5', 'P8', 'P15', 'P16', 'P18', 'P19'] |
+----+-----+------------------------------------------------+
+----+----+----+----+----+----+----+----+----+----+-----+-----+-----+-----+-----+-----+-----+
| T0 | T1 | T2 | T3 | T4 | T5 | T6 | T7 | T8 | T9 | T10 | T11 | T12 | T13 | T14 | T15 | T16 |
+----+----+----+----+----+----+----+----+----+----+-----+-----+-----+-----+-----+-----+-----+
| 1  | 1  | 1  | 0  | 0  | 0  | 0  | 0  | 0  | 0  |  0  |  0  |  0  |  0  |  0  |  0  |  0  |
| 0  | 0  | 0  | 1  | 1  | 1  | 1  | 0  | 0  | 0  |  0  |  0  |  0  |  0  |  0  |  0  |  0  |
| 0  | 0  | 0  | 0  | 0  | 0  | 0  | 1  | 1  | 1  |  1  |  1  |  0  |  0  |  0  |  1  |  1  |
| 0  | 0  | 0  | 0  | 0  | 0  | 0  | 0  | 0  | 0  |  0  |  0  |  1  |  1  |  1  |  1  |  1  |
+----+----+----+----+----+----+----+----+----+----+-----+-----+-----+-----+-----+-----+-----+
+-----+---------+----------------------------+---------------------+
|  ID | Marcado |        T - Entrada         |      T - Salida     |
+-----+---------+----------------------------+---------------------+
| P23 |    0    |       ['T12', 'T15']       | ['T1', 'T4', 'T16'] |
| P23 |    1    | ['T2', 'T5', 'T12', 'T15'] | ['T1', 'T4', 'T16'] |
+-----+---------+----------------------------+---------------------+
+-----------------------------------------------------+--------------------+------------------------+
|                   Estados/Acciones                  | Agregar supervisor | Agregar o quitar arcos |
+-----------------------------------------------------+--------------------+------------------------+
|                        Start                        |        -0.9        |          0.0           |
|        Más sifónes vacíos en estado deadlock        |        0.0         |          0.0           |
|       Menos sifónes vacíos en estado deadlock       |        0.0         |          -0.9          |
| Igual cantidad de sifónes vacíos en estado deadlock |  -103.01823962469  |  -5.7207019987021175   |
|                         End                         |        0.0         |          0.0           |
+-----------------------------------------------------+--------------------+------------------------+
+----+-----+------------------------------------------------+
| ID | Nro |                     Plazas                     |
+----+-----+------------------------------------------------+
| 31 |  2  |           ['P1', 'P5', 'P16', 'P19']           |
| 32 |  16 | ['P2', 'P5', 'P8', 'P15', 'P16', 'P18', 'P19'] |
+----+-----+------------------------------------------------+
+----+----+----+----+----+----+----+----+----+----+-----+-----+-----+-----+-----+-----+-----+
| T0 | T1 | T2 | T3 | T4 | T5 | T6 | T7 | T8 | T9 | T10 | T11 | T12 | T13 | T14 | T15 | T16 |
+----+----+----+----+----+----+----+----+----+----+-----+-----+-----+-----+-----+-----+-----+
| 1  | 1  | 1  | 0  | 0  | 0  | 0  | 0  | 0  | 0  |  0  |  0  |  0  |  0  |  0  |  0  |  0  |
| 0  | 0  | 0  | 1  | 1  | 1  | 1  | 0  | 0  | 0  |  0  |  0  |  0  |  0  |  0  |  0  |  0  |
| 0  | 0  | 0  | 0  | 0  | 0  | 0  | 1  | 1  | 1  |  1  |  1  |  0  |  0  |  0  |  1  |  1  |
| 0  | 0  | 0  | 0  | 0  | 0  | 0  | 0  | 0  | 0  |  0  |  0  |  1  |  1  |  1  |  1  |  1  |
+----+----+----+----+----+----+----+----+----+----+-----+-----+-----+-----+-----+-----+-----+
+-----+---------+----------------------------+---------------------+
|  ID | Marcado |        T - Entrada         |      T - Salida     |
+-----+---------+----------------------------+---------------------+
| P23 |    0    |       ['T12', 'T15']       | ['T1', 'T4', 'T16'] |
| P23 |    1    | ['T2', 'T5', 'T12', 'T15'] | ['T1', 'T4', 'T16'] |
+-----+---------+----------------------------+---------------------+
+-----------------------------------------------------+--------------------+------------------------+
|                   Estados/Acciones                  | Agregar supervisor | Agregar o quitar arcos |
+-----------------------------------------------------+--------------------+------------------------+
|                        Start                        |        -0.9        |          0.0           |
|        Más sifónes vacíos en estado deadlock        |        0.0         |          0.0           |
|       Menos sifónes vacíos en estado deadlock       |        0.0         |          -0.9          |
| Igual cantidad de sifónes vacíos en estado deadlock |  -103.01823962469  |   -6.105838818818927   |
|                         End                         |        0.0         |          0.0           |
+-----------------------------------------------------+--------------------+------------------------+
+----+-----+------------------------------------------------+
| ID | Nro |                     Plazas                     |
+----+-----+------------------------------------------------+
| 33 |  2  |           ['P1', 'P5', 'P16', 'P19']           |
| 34 |  16 | ['P2', 'P5', 'P8', 'P15', 'P16', 'P18', 'P19'] |
+----+-----+------------------------------------------------+
+----+----+----+----+----+----+----+----+----+----+-----+-----+-----+-----+-----+-----+-----+
| T0 | T1 | T2 | T3 | T4 | T5 | T6 | T7 | T8 | T9 | T10 | T11 | T12 | T13 | T14 | T15 | T16 |
+----+----+----+----+----+----+----+----+----+----+-----+-----+-----+-----+-----+-----+-----+
| 1  | 1  | 1  | 0  | 0  | 0  | 0  | 0  | 0  | 0  |  0  |  0  |  0  |  0  |  0  |  0  |  0  |
| 0  | 0  | 0  | 1  | 1  | 1  | 1  | 0  | 0  | 0  |  0  |  0  |  0  |  0  |  0  |  0  |  0  |
| 0  | 0  | 0  | 0  | 0  | 0  | 0  | 1  | 1  | 1  |  1  |  1  |  0  |  0  |  0  |  1  |  1  |
| 0  | 0  | 0  | 0  | 0  | 0  | 0  | 0  | 0  | 0  |  0  |  0  |  1  |  1  |  1  |  1  |  1  |
+----+----+----+----+----+----+----+----+----+----+-----+-----+-----+-----+-----+-----+-----+
+-----+---------+----------------------------+---------------------+
|  ID | Marcado |        T - Entrada         |      T - Salida     |
+-----+---------+----------------------------+---------------------+
| P23 |    0    |       ['T12', 'T15']       | ['T1', 'T4', 'T16'] |
| P23 |    1    | ['T2', 'T5', 'T12', 'T15'] | ['T1', 'T4', 'T16'] |
+-----+---------+----------------------------+---------------------+
+-----------------------------------------------------+--------------------+------------------------+
|                   Estados/Acciones                  | Agregar supervisor | Agregar o quitar arcos |
+-----------------------------------------------------+--------------------+------------------------+
|                        Start                        |        -0.9        |          0.0           |
|        Más sifónes vacíos en estado deadlock        |        0.0         |          0.0           |
|       Menos sifónes vacíos en estado deadlock       |        0.0         |          -0.9          |
| Igual cantidad de sifónes vacíos en estado deadlock |  -103.01823962469  |   -6.456313325125223   |
|                         End                         |        0.0         |          0.0           |
+-----------------------------------------------------+--------------------+------------------------+
+----+-----+------------------------------------------------+
| ID | Nro |                     Plazas                     |
+----+-----+------------------------------------------------+
| 35 |  2  |           ['P1', 'P5', 'P16', 'P19']           |
| 36 |  16 | ['P2', 'P5', 'P8', 'P15', 'P16', 'P18', 'P19'] |
+----+-----+------------------------------------------------+
+----+----+----+----+----+----+----+----+----+----+-----+-----+-----+-----+-----+-----+-----+
| T0 | T1 | T2 | T3 | T4 | T5 | T6 | T7 | T8 | T9 | T10 | T11 | T12 | T13 | T14 | T15 | T16 |
+----+----+----+----+----+----+----+----+----+----+-----+-----+-----+-----+-----+-----+-----+
| 1  | 1  | 1  | 0  | 0  | 0  | 0  | 0  | 0  | 0  |  0  |  0  |  0  |  0  |  0  |  0  |  0  |
| 0  | 0  | 0  | 1  | 1  | 1  | 1  | 0  | 0  | 0  |  0  |  0  |  0  |  0  |  0  |  0  |  0  |
| 0  | 0  | 0  | 0  | 0  | 0  | 0  | 1  | 1  | 1  |  1  |  1  |  0  |  0  |  0  |  1  |  1  |
| 0  | 0  | 0  | 0  | 0  | 0  | 0  | 0  | 0  | 0  |  0  |  0  |  1  |  1  |  1  |  1  |  1  |
+----+----+----+----+----+----+----+----+----+----+-----+-----+-----+-----+-----+-----+-----+
+-----+---------+----------------------------+---------------------+
|  ID | Marcado |        T - Entrada         |      T - Salida     |
+-----+---------+----------------------------+---------------------+
| P23 |    0    |       ['T12', 'T15']       | ['T1', 'T4', 'T16'] |
| P23 |    1    | ['T2', 'T5', 'T12', 'T15'] | ['T1', 'T4', 'T16'] |
+-----+---------+----------------------------+---------------------+
+-----------------------------------------------------+---------------------+------------------------+
|                   Estados/Acciones                  |  Agregar supervisor | Agregar o quitar arcos |
+-----------------------------------------------------+---------------------+------------------------+
|                        Start                        |         -0.9        |          0.0           |
|        Más sifónes vacíos en estado deadlock        |         0.0         |          0.0           |
|       Menos sifónes vacíos en estado deadlock       |         0.0         |          -0.9          |
| Igual cantidad de sifónes vacíos en estado deadlock | -105.53143775582043 |   -6.456313325125223   |
|                         End                         |         0.0         |          0.0           |
+-----------------------------------------------------+---------------------+------------------------+
+----+-----+------------------------------------------------+
| ID | Nro |                     Plazas                     |
+----+-----+------------------------------------------------+
| 37 |  2  |           ['P1', 'P5', 'P16', 'P19']           |
| 38 |  16 | ['P2', 'P5', 'P8', 'P15', 'P16', 'P18', 'P19'] |
+----+-----+------------------------------------------------+
+----+----+----+----+----+----+----+----+----+----+-----+-----+-----+-----+-----+-----+-----+
| T0 | T1 | T2 | T3 | T4 | T5 | T6 | T7 | T8 | T9 | T10 | T11 | T12 | T13 | T14 | T15 | T16 |
+----+----+----+----+----+----+----+----+----+----+-----+-----+-----+-----+-----+-----+-----+
| 1  | 1  | 1  | 0  | 0  | 0  | 0  | 0  | 0  | 0  |  0  |  0  |  0  |  0  |  0  |  0  |  0  |
| 0  | 0  | 0  | 1  | 1  | 1  | 1  | 0  | 0  | 0  |  0  |  0  |  0  |  0  |  0  |  0  |  0  |
| 0  | 0  | 0  | 0  | 0  | 0  | 0  | 1  | 1  | 1  |  1  |  1  |  0  |  0  |  0  |  1  |  1  |
| 0  | 0  | 0  | 0  | 0  | 0  | 0  | 0  | 0  | 0  |  0  |  0  |  1  |  1  |  1  |  1  |  1  |
+----+----+----+----+----+----+----+----+----+----+-----+-----+-----+-----+-----+-----+-----+
+-----+---------+----------------------------+---------------------+
|  ID | Marcado |        T - Entrada         |      T - Salida     |
+-----+---------+----------------------------+---------------------+
| P23 |    0    |       ['T12', 'T15']       | ['T1', 'T4', 'T16'] |
| P23 |    1    | ['T2', 'T5', 'T12', 'T15'] | ['T1', 'T4', 'T16'] |
+-----+---------+----------------------------+---------------------+
+-----------------------------------------------------+---------------------+------------------------+
|                   Estados/Acciones                  |  Agregar supervisor | Agregar o quitar arcos |
+-----------------------------------------------------+---------------------+------------------------+
|                        Start                        |         -0.9        |          0.0           |
|        Más sifónes vacíos en estado deadlock        |         0.0         |          0.0           |
|       Menos sifónes vacíos en estado deadlock       |         0.0         |          -0.9          |
| Igual cantidad de sifónes vacíos en estado deadlock | -105.53143775582043 |   -6.775245125863953   |
|                         End                         |         0.0         |          0.0           |
+-----------------------------------------------------+---------------------+------------------------+
+----+-----+------------------------------------------------+
| ID | Nro |                     Plazas                     |
+----+-----+------------------------------------------------+
| 39 |  2  |           ['P1', 'P5', 'P16', 'P19']           |
| 40 |  16 | ['P2', 'P5', 'P8', 'P15', 'P16', 'P18', 'P19'] |
+----+-----+------------------------------------------------+
+----+----+----+----+----+----+----+----+----+----+-----+-----+-----+-----+-----+-----+-----+
| T0 | T1 | T2 | T3 | T4 | T5 | T6 | T7 | T8 | T9 | T10 | T11 | T12 | T13 | T14 | T15 | T16 |
+----+----+----+----+----+----+----+----+----+----+-----+-----+-----+-----+-----+-----+-----+
| 1  | 1  | 1  | 0  | 0  | 0  | 0  | 0  | 0  | 0  |  0  |  0  |  0  |  0  |  0  |  0  |  0  |
| 0  | 0  | 0  | 1  | 1  | 1  | 1  | 0  | 0  | 0  |  0  |  0  |  0  |  0  |  0  |  0  |  0  |
| 0  | 0  | 0  | 0  | 0  | 0  | 0  | 1  | 1  | 1  |  1  |  1  |  0  |  0  |  0  |  1  |  1  |
| 0  | 0  | 0  | 0  | 0  | 0  | 0  | 0  | 0  | 0  |  0  |  0  |  1  |  1  |  1  |  1  |  1  |
+----+----+----+----+----+----+----+----+----+----+-----+-----+-----+-----+-----+-----+-----+
+-----+---------+----------------------------+---------------------+
|  ID | Marcado |        T - Entrada         |      T - Salida     |
+-----+---------+----------------------------+---------------------+
| P23 |    0    |       ['T12', 'T15']       | ['T1', 'T4', 'T16'] |
| P23 |    1    | ['T2', 'T5', 'T12', 'T15'] | ['T1', 'T4', 'T16'] |
+-----+---------+----------------------------+---------------------+
+-----------------------------------------------------+---------------------+------------------------+
|                   Estados/Acciones                  |  Agregar supervisor | Agregar o quitar arcos |
+-----------------------------------------------------+---------------------+------------------------+
|                        Start                        |         -0.9        |          0.0           |
|        Más sifónes vacíos en estado deadlock        |         0.0         |          0.0           |
|       Menos sifónes vacíos en estado deadlock       |         0.0         |          -0.9          |
| Igual cantidad de sifónes vacíos en estado deadlock | -105.53143775582043 |   -7.065473064536197   |
|                         End                         |         0.0         |          0.0           |
+-----------------------------------------------------+---------------------+------------------------+
+----+-----+------------------------------------------------+
| ID | Nro |                     Plazas                     |
+----+-----+------------------------------------------------+
| 41 |  2  |           ['P1', 'P5', 'P16', 'P19']           |
| 42 |  16 | ['P2', 'P5', 'P8', 'P15', 'P16', 'P18', 'P19'] |
+----+-----+------------------------------------------------+
+----+----+----+----+----+----+----+----+----+----+-----+-----+-----+-----+-----+-----+-----+
| T0 | T1 | T2 | T3 | T4 | T5 | T6 | T7 | T8 | T9 | T10 | T11 | T12 | T13 | T14 | T15 | T16 |
+----+----+----+----+----+----+----+----+----+----+-----+-----+-----+-----+-----+-----+-----+
| 1  | 1  | 1  | 0  | 0  | 0  | 0  | 0  | 0  | 0  |  0  |  0  |  0  |  0  |  0  |  0  |  0  |
| 0  | 0  | 0  | 1  | 1  | 1  | 1  | 0  | 0  | 0  |  0  |  0  |  0  |  0  |  0  |  0  |  0  |
| 0  | 0  | 0  | 0  | 0  | 0  | 0  | 1  | 1  | 1  |  1  |  1  |  0  |  0  |  0  |  1  |  1  |
| 0  | 0  | 0  | 0  | 0  | 0  | 0  | 0  | 0  | 0  |  0  |  0  |  1  |  1  |  1  |  1  |  1  |
+----+----+----+----+----+----+----+----+----+----+-----+-----+-----+-----+-----+-----+-----+
+-----+---------+----------------------------+---------------------+
|  ID | Marcado |        T - Entrada         |      T - Salida     |
+-----+---------+----------------------------+---------------------+
| P23 |    0    |       ['T12', 'T15']       | ['T1', 'T4', 'T16'] |
| P23 |    1    | ['T2', 'T5', 'T12', 'T15'] | ['T1', 'T4', 'T16'] |
+-----+---------+----------------------------+---------------------+
+-----------------------------------------------------+---------------------+------------------------+
|                   Estados/Acciones                  |  Agregar supervisor | Agregar o quitar arcos |
+-----------------------------------------------------+---------------------+------------------------+
|                        Start                        |         -0.9        |          0.0           |
|        Más sifónes vacíos en estado deadlock        |         0.0         |          0.0           |
|       Menos sifónes vacíos en estado deadlock       |         0.0         |          -0.9          |
| Igual cantidad de sifónes vacíos en estado deadlock | -106.27617695785636 |   -7.065473064536197   |
|                         End                         |         0.0         |          0.0           |
+-----------------------------------------------------+---------------------+------------------------+
+----+-----+------------------------------------------------+
| ID | Nro |                     Plazas                     |
+----+-----+------------------------------------------------+
| 43 |  2  |           ['P1', 'P5', 'P16', 'P19']           |
| 44 |  16 | ['P2', 'P5', 'P8', 'P15', 'P16', 'P18', 'P19'] |
+----+-----+------------------------------------------------+
+----+----+----+----+----+----+----+----+----+----+-----+-----+-----+-----+-----+-----+-----+
| T0 | T1 | T2 | T3 | T4 | T5 | T6 | T7 | T8 | T9 | T10 | T11 | T12 | T13 | T14 | T15 | T16 |
+----+----+----+----+----+----+----+----+----+----+-----+-----+-----+-----+-----+-----+-----+
| 1  | 1  | 1  | 0  | 0  | 0  | 0  | 0  | 0  | 0  |  0  |  0  |  0  |  0  |  0  |  0  |  0  |
| 0  | 0  | 0  | 1  | 1  | 1  | 1  | 0  | 0  | 0  |  0  |  0  |  0  |  0  |  0  |  0  |  0  |
| 0  | 0  | 0  | 0  | 0  | 0  | 0  | 1  | 1  | 1  |  1  |  1  |  0  |  0  |  0  |  1  |  1  |
| 0  | 0  | 0  | 0  | 0  | 0  | 0  | 0  | 0  | 0  |  0  |  0  |  1  |  1  |  1  |  1  |  1  |
+----+----+----+----+----+----+----+----+----+----+-----+-----+-----+-----+-----+-----+-----+
+-----+---------+----------------------------+---------------------+
|  ID | Marcado |        T - Entrada         |      T - Salida     |
+-----+---------+----------------------------+---------------------+
| P23 |    0    |       ['T12', 'T15']       | ['T1', 'T4', 'T16'] |
| P23 |    1    | ['T2', 'T5', 'T12', 'T15'] | ['T1', 'T4', 'T16'] |
+-----+---------+----------------------------+---------------------+
+-----------------------------------------------------+---------------------+------------------------+
|                   Estados/Acciones                  |  Agregar supervisor | Agregar o quitar arcos |
+-----------------------------------------------------+---------------------+------------------------+
|                        Start                        |         -0.9        |          0.0           |
|        Más sifónes vacíos en estado deadlock        |         0.0         |          0.0           |
|       Menos sifónes vacíos en estado deadlock       |         0.0         |          -0.9          |
| Igual cantidad de sifónes vacíos en estado deadlock | -106.27617695785636 |   -7.329580488727939   |
|                         End                         |         0.0         |          0.0           |
+-----------------------------------------------------+---------------------+------------------------+
+----+-----+------------------------------------------------+
| ID | Nro |                     Plazas                     |
+----+-----+------------------------------------------------+
| 45 |  2  |           ['P1', 'P5', 'P16', 'P19']           |
| 46 |  16 | ['P2', 'P5', 'P8', 'P15', 'P16', 'P18', 'P19'] |
+----+-----+------------------------------------------------+
+----+----+----+----+----+----+----+----+----+----+-----+-----+-----+-----+-----+-----+-----+
| T0 | T1 | T2 | T3 | T4 | T5 | T6 | T7 | T8 | T9 | T10 | T11 | T12 | T13 | T14 | T15 | T16 |
+----+----+----+----+----+----+----+----+----+----+-----+-----+-----+-----+-----+-----+-----+
| 1  | 1  | 1  | 0  | 0  | 0  | 0  | 0  | 0  | 0  |  0  |  0  |  0  |  0  |  0  |  0  |  0  |
| 0  | 0  | 0  | 1  | 1  | 1  | 1  | 0  | 0  | 0  |  0  |  0  |  0  |  0  |  0  |  0  |  0  |
| 0  | 0  | 0  | 0  | 0  | 0  | 0  | 1  | 1  | 1  |  1  |  1  |  0  |  0  |  0  |  1  |  1  |
| 0  | 0  | 0  | 0  | 0  | 0  | 0  | 0  | 0  | 0  |  0  |  0  |  1  |  1  |  1  |  1  |  1  |
+----+----+----+----+----+----+----+----+----+----+-----+-----+-----+-----+-----+-----+-----+
+-----+---------+----------------------------+---------------------+
|  ID | Marcado |        T - Entrada         |      T - Salida     |
+-----+---------+----------------------------+---------------------+
| P23 |    0    |       ['T12', 'T15']       | ['T1', 'T4', 'T16'] |
| P23 |    1    | ['T2', 'T5', 'T12', 'T15'] | ['T1', 'T4', 'T16'] |
+-----+---------+----------------------------+---------------------+
+-----------------------------------------------------+---------------------+------------------------+
|                   Estados/Acciones                  |  Agregar supervisor | Agregar o quitar arcos |
+-----------------------------------------------------+---------------------+------------------------+
|                        Start                        |         -0.9        |          0.0           |
|        Más sifónes vacíos en estado deadlock        |         0.0         |          0.0           |
|       Menos sifónes vacíos en estado deadlock       |         0.0         |          -0.9          |
| Igual cantidad de sifónes vacíos en estado deadlock | -106.27617695785636 |   -7.569918244742425   |
|                         End                         |         0.0         |          0.0           |
+-----------------------------------------------------+---------------------+------------------------+
+----+-----+------------------------------------------------+
| ID | Nro |                     Plazas                     |
+----+-----+------------------------------------------------+
| 47 |  2  |           ['P1', 'P5', 'P16', 'P19']           |
| 48 |  16 | ['P2', 'P5', 'P8', 'P15', 'P16', 'P18', 'P19'] |
+----+-----+------------------------------------------------+
+----+----+----+----+----+----+----+----+----+----+-----+-----+-----+-----+-----+-----+-----+
| T0 | T1 | T2 | T3 | T4 | T5 | T6 | T7 | T8 | T9 | T10 | T11 | T12 | T13 | T14 | T15 | T16 |
+----+----+----+----+----+----+----+----+----+----+-----+-----+-----+-----+-----+-----+-----+
| 1  | 1  | 1  | 0  | 0  | 0  | 0  | 0  | 0  | 0  |  0  |  0  |  0  |  0  |  0  |  0  |  0  |
| 0  | 0  | 0  | 1  | 1  | 1  | 1  | 0  | 0  | 0  |  0  |  0  |  0  |  0  |  0  |  0  |  0  |
| 0  | 0  | 0  | 0  | 0  | 0  | 0  | 1  | 1  | 1  |  1  |  1  |  0  |  0  |  0  |  1  |  1  |
| 0  | 0  | 0  | 0  | 0  | 0  | 0  | 0  | 0  | 0  |  0  |  0  |  1  |  1  |  1  |  1  |  1  |
+----+----+----+----+----+----+----+----+----+----+-----+-----+-----+-----+-----+-----+-----+
+-----+---------+----------------------------+---------------------+
|  ID | Marcado |        T - Entrada         |      T - Salida     |
+-----+---------+----------------------------+---------------------+
| P23 |    0    |       ['T12', 'T15']       | ['T1', 'T4', 'T16'] |
| P23 |    1    | ['T2', 'T5', 'T12', 'T15'] | ['T1', 'T4', 'T16'] |
+-----+---------+----------------------------+---------------------+
+-----------------------------------------------------+--------------------+------------------------+
|                   Estados/Acciones                  | Agregar supervisor | Agregar o quitar arcos |
+-----------------------------------------------------+--------------------+------------------------+
|                        Start                        |        -0.9        |          0.0           |
|        Más sifónes vacíos en estado deadlock        |        0.0         |          0.0           |
|       Menos sifónes vacíos en estado deadlock       |        0.0         |          -0.9          |
| Igual cantidad de sifónes vacíos en estado deadlock | -106.759251474027  |   -7.569918244742425   |
|                         End                         |        0.0         |          0.0           |
+-----------------------------------------------------+--------------------+------------------------+
+----+-----+------------------------------------------------+
| ID | Nro |                     Plazas                     |
+----+-----+------------------------------------------------+
| 49 |  2  |           ['P1', 'P5', 'P16', 'P19']           |
| 50 |  16 | ['P2', 'P5', 'P8', 'P15', 'P16', 'P18', 'P19'] |
+----+-----+------------------------------------------------+
+----+----+----+----+----+----+----+----+----+----+-----+-----+-----+-----+-----+-----+-----+
| T0 | T1 | T2 | T3 | T4 | T5 | T6 | T7 | T8 | T9 | T10 | T11 | T12 | T13 | T14 | T15 | T16 |
+----+----+----+----+----+----+----+----+----+----+-----+-----+-----+-----+-----+-----+-----+
| 1  | 1  | 1  | 0  | 0  | 0  | 0  | 0  | 0  | 0  |  0  |  0  |  0  |  0  |  0  |  0  |  0  |
| 0  | 0  | 0  | 1  | 1  | 1  | 1  | 0  | 0  | 0  |  0  |  0  |  0  |  0  |  0  |  0  |  0  |
| 0  | 0  | 0  | 0  | 0  | 0  | 0  | 1  | 1  | 1  |  1  |  1  |  0  |  0  |  0  |  1  |  1  |
| 0  | 0  | 0  | 0  | 0  | 0  | 0  | 0  | 0  | 0  |  0  |  0  |  1  |  1  |  1  |  1  |  1  |
+----+----+----+----+----+----+----+----+----+----+-----+-----+-----+-----+-----+-----+-----+
+-----+---------+----------------------------+---------------------+
|  ID | Marcado |        T - Entrada         |      T - Salida     |
+-----+---------+----------------------------+---------------------+
| P23 |    0    |       ['T12', 'T15']       | ['T1', 'T4', 'T16'] |
| P23 |    1    | ['T2', 'T5', 'T12', 'T15'] | ['T1', 'T4', 'T16'] |
+-----+---------+----------------------------+---------------------+
+-----------------------------------------------------+--------------------+------------------------+
|                   Estados/Acciones                  | Agregar supervisor | Agregar o quitar arcos |
+-----------------------------------------------------+--------------------+------------------------+
|                        Start                        |        -0.9        |          0.0           |
|        Más sifónes vacíos en estado deadlock        |        0.0         |          0.0           |
|       Menos sifónes vacíos en estado deadlock       |        0.0         |          -0.9          |
| Igual cantidad de sifónes vacíos en estado deadlock | -106.759251474027  |   -7.788625602715607   |
|                         End                         |        0.0         |          0.0           |
+-----------------------------------------------------+--------------------+------------------------+
