21/06/2021 19:03:52[DEBUG] pflow_file:  ../analisis_5_21062021/gen_nets/20210621-175515_35/net.pflow  
21/06/2021 19:03:52[DEBUG] output_folder:  ../analisis_5_21062021/gen_nets/20210621-175515_35/  
21/06/2021 19:03:52[DEBUG] html_path:  ../analisis_5_21062021/gen_nets/20210621-175515_35/  
21/06/2021 19:03:52[DEBUG] txt_path:  ../analisis_5_21062021/gen_nets/20210621-175515_35/txt_info  

--------------------------------------------------------------------------   
21/06/2021 19:03:52[INFO] Ejecutando petrinator para conocer estado de la red...   
--------------------------------------------------------------------------
   
21/06/2021 19:03:59[INFO] Leyendo archivos...   
21/06/2021 19:03:59[INFO] Cantidad de estados: 77  
21/06/2021 19:03:59[INFO] Cantidad de transiciones: 17  
21/06/2021 19:03:59[INFO] Cantidad de plazas: 20  
21/06/2021 19:03:59[INFO] Cantidad de sifones: 9  
21/06/2021 19:03:59[INFO] Cantidad de trampas: 9  

--------------------------------------------------------------------------
   
21/06/2021 19:03:59[INFO] Cantidad de entrenamientos a realizar:  1  
21/06/2021 19:03:59[INFO] Entrenamiento numero: 0 
 
21/06/2021 19:03:59[INFO] Q-TABLE   
+-----------------------------------------------------+--------------------+------------------------+
|                   Estados/Acciones                  | Agregar supervisor | Agregar o quitar arcos |
+-----------------------------------------------------+--------------------+------------------------+
|                        Start                        |        0.0         |          0.0           |
|        Más sifónes vacíos en estado deadlock        |        0.0         |          0.0           |
|       Menos sifónes vacíos en estado deadlock       |        0.0         |          0.0           |
| Igual cantidad de sifónes vacíos en estado deadlock |        0.0         |          0.0           |
|                         End                         |        0.0         |          0.0           |
+-----------------------------------------------------+--------------------+------------------------+

--------------------------------------------------------------------------   
21/06/2021 19:03:59[INFO] Ejecutando petrinator para conocer estado de la red...   
--------------------------------------------------------------------------
   
21/06/2021 19:04:08[INFO] Importando datos desde html...   
21/06/2021 19:04:09[INFO] Analizando cantidad de supervisores que se pueden agregar...   
21/06/2021 19:04:09[INFO] Cantidad de transiciones: 17  
21/06/2021 19:04:09[INFO] Estados de deadlock: [61]  
21/06/2021 19:04:09[INFO] Cantidad de sifones: 9  
21/06/2021 19:04:09[INFO] Cantidad de sifones vacios en estado de deadlock: 2 
 
21/06/2021 19:04:09[INFO] SIFONES   
+----+-----+-----------------------------------------+
| ID | Nro |                  Plazas                 |
+----+-----+-----------------------------------------+
| 0  |  1  | ['P3', 'P6', 'P9', 'P12', 'P18', 'P20'] |
| 1  |  9  | ['P3', 'P6', 'P9', 'P12', 'P17', 'P18'] |
+----+-----+-----------------------------------------+
21/06/2021 19:04:09[INFO] T INVARIANTES   
+----+----+----+----+----+----+----+----+----+----+-----+-----+-----+-----+-----+-----+-----+
| T0 | T1 | T2 | T3 | T4 | T5 | T6 | T7 | T8 | T9 | T10 | T11 | T12 | T13 | T14 | T15 | T16 |
+----+----+----+----+----+----+----+----+----+----+-----+-----+-----+-----+-----+-----+-----+
| 1  | 1  | 1  | 1  | 0  | 0  | 0  | 0  | 0  | 0  |  0  |  0  |  0  |  0  |  0  |  0  |  0  |
| 0  | 0  | 0  | 0  | 1  | 1  | 1  | 0  | 0  | 0  |  0  |  0  |  0  |  0  |  0  |  0  |  0  |
| 0  | 0  | 0  | 0  | 0  | 0  | 0  | 1  | 1  | 1  |  1  |  0  |  0  |  0  |  0  |  1  |  1  |
| 0  | 0  | 0  | 0  | 0  | 0  | 0  | 0  | 0  | 0  |  0  |  1  |  1  |  1  |  1  |  1  |  1  |
+----+----+----+----+----+----+----+----+----+----+-----+-----+-----+-----+-----+-----+-----+
21/06/2021 19:04:09[INFO] POSIBLES SUPERVISORES A AGREGAR   
+-----+---------+---------------------------+---------------------+
|  ID | Marcado |        T - Entrada        |      T - Salida     |
+-----+---------+---------------------------+---------------------+
| P21 |    1    | ['T4', 'T6', 'T9', 'T14'] | ['T1', 'T5', 'T16'] |
| P21 |    1    |     ['T4', 'T6', 'T9']    | ['T1', 'T5', 'T16'] |
+-----+---------+---------------------------+---------------------+

--------------------------------------------------------------------------
   
21/06/2021 19:04:09[INFO] Ejecutando accion...   
21/06/2021 19:04:09[ACTION] Agregar supervisor    
21/06/2021 19:04:09[ACTION] Agrego supervisor Numero: 0  

--------------------------------------------------------------------------   
21/06/2021 19:04:09[INFO] Ejecutando petrinator para conocer estado de la red...   
--------------------------------------------------------------------------
   
21/06/2021 19:04:17[INFO] Importando datos desde html...   
21/06/2021 19:04:18[INFO] Analizando cantidad de supervisores que se pueden agregar...   
21/06/2021 19:04:18[INFO] Cantidad de sifones vacios en estado de deadlock ANTES: 2  
21/06/2021 19:04:18[INFO] Cantidad de sifones vacioes en estado de deadlock AHORA: 0  
21/06/2021 19:04:18[INFO] Cantidad de transiciones: 17  
21/06/2021 19:04:18[INFO] Estados de deadlock: []  
21/06/2021 19:04:18[INFO] Cantidad de sifones: 10  
21/06/2021 19:04:18[INFO] Cantidad de sifones vacios en estado de deadlock: 0 
 
21/06/2021 19:04:18[INFO] SIFONES   
+----+-----+--------+
| ID | Nro | Plazas |
+----+-----+--------+
+----+-----+--------+
21/06/2021 19:04:18[INFO] T INVARIANTES   
+----+----+----+----+----+----+----+----+----+----+-----+-----+-----+-----+-----+-----+-----+
| T0 | T1 | T2 | T3 | T4 | T5 | T6 | T7 | T8 | T9 | T10 | T11 | T12 | T13 | T14 | T15 | T16 |
+----+----+----+----+----+----+----+----+----+----+-----+-----+-----+-----+-----+-----+-----+
| 1  | 1  | 1  | 1  | 0  | 0  | 0  | 0  | 0  | 0  |  0  |  0  |  0  |  0  |  0  |  0  |  0  |
| 0  | 0  | 0  | 0  | 1  | 1  | 1  | 0  | 0  | 0  |  0  |  0  |  0  |  0  |  0  |  0  |  0  |
| 0  | 0  | 0  | 0  | 0  | 0  | 0  | 1  | 1  | 1  |  1  |  0  |  0  |  0  |  0  |  1  |  1  |
| 0  | 0  | 0  | 0  | 0  | 0  | 0  | 0  | 0  | 0  |  0  |  1  |  1  |  1  |  1  |  1  |  1  |
+----+----+----+----+----+----+----+----+----+----+-----+-----+-----+-----+-----+-----+-----+
21/06/2021 19:04:18[INFO] POSIBLES SUPERVISORES A AGREGAR   
+----+---------+-------------+------------+
| ID | Marcado | T - Entrada | T - Salida |
+----+---------+-------------+------------+
+----+---------+-------------+------------+
21/06/2021 19:04:18[INFO] Actualizando estado de la red..   
21/06/2021 19:04:18[STATE] Cambie al estado 2: Hay menos sifones vacios en deadlock   

--------------------------------------------------------------------------
   
21/06/2021 19:04:18[INFO] Calculando recompensa..   
21/06/2021 19:04:18[REWARD] No hay mas deadlock, recompensa 100   

--------------------------------------------------------------------------
   
21/06/2021 19:04:18[INFO] NEW Q-TABLE   
+-----------------------------------------------------+--------------------+------------------------+
|                   Estados/Acciones                  | Agregar supervisor | Agregar o quitar arcos |
+-----------------------------------------------------+--------------------+------------------------+
|                        Start                        |        90.0        |          0.0           |
|        Más sifónes vacíos en estado deadlock        |        0.0         |          0.0           |
|       Menos sifónes vacíos en estado deadlock       |        0.0         |          0.0           |
| Igual cantidad de sifónes vacíos en estado deadlock |        0.0         |          0.0           |
|                         End                         |        0.0         |          0.0           |
+-----------------------------------------------------+--------------------+------------------------+

--------------------------------------------------------------------------
   
21/06/2021 19:04:18[STATE] Se llego al estado deseado, NO HAY MAS DEADLOCK   

--------------------------------------------------------------------------
   
21/06/2021 19:04:18[INFO] Training complete! 
  
