 p 34 
 t 14 
 Reachable states from S0 [0, 0, 0, 0, 1, 1, 2, 0, 0, 0, 1, 3, 0, 0, 0, 0, 1, 1, 1, 1, 2, 1, 1, 1, 1, 1, 1, 1, 1, 1, 1, 1, 2, 1] 
 T1 => S1 [1, 0, 0, 0, 1, 1, 1, 0, 0, 0, 1, 3, 0, 0, 0, 0, 1, 1, 1, 1, 2, 1, 1, 0, 1, 1, 1, 1, 1, 1, 1, 1, 1, 1] 
 T10 => S35 [0, 0, 0, 0, 1, 1, 2, 0, 0, 0, 1, 3, 1, 0, 0, 0, 1, 1, 1, 0, 1, 1, 1, 1, 1, 1, 1, 1, 1, 1, 0, 1, 2, 0] 
 T6 => S49 [0, 0, 0, 0, 1, 1, 2, 1, 0, 0, 1, 2, 0, 0, 0, 0, 1, 1, 1, 1, 2, 1, 1, 1, 1, 1, 1, 1, 1, 0, 1, 0, 1, 0] 
 
 Reachable states from S1 [1, 0, 0, 0, 1, 1, 1, 0, 0, 0, 1, 3, 0, 0, 0, 0, 1, 1, 1, 1, 2, 1, 1, 0, 1, 1, 1, 1, 1, 1, 1, 1, 1, 1] 
 T2 => S2 [0, 1, 0, 0, 1, 0, 1, 0, 0, 0, 1, 3, 0, 0, 0, 0, 1, 1, 1, 1, 2, 1, 1, 1, 1, 1, 1, 1, 1, 1, 1, 1, 1, 1] 
 T10 => S27 [1, 0, 0, 0, 1, 1, 1, 0, 0, 0, 1, 3, 1, 0, 0, 0, 1, 1, 1, 0, 1, 1, 1, 0, 1, 1, 1, 1, 1, 1, 0, 1, 1, 0] 
 T6 => S48 [1, 0, 0, 0, 1, 1, 1, 1, 0, 0, 1, 2, 0, 0, 0, 0, 1, 1, 1, 1, 2, 1, 1, 0, 1, 1, 1, 1, 1, 0, 1, 0, 0, 0] 
 
 Reachable states from S2 [0, 1, 0, 0, 1, 0, 1, 0, 0, 0, 1, 3, 0, 0, 0, 0, 1, 1, 1, 1, 2, 1, 1, 1, 1, 1, 1, 1, 1, 1, 1, 1, 1, 1] 
 T1 => S3 [1, 1, 0, 0, 1, 0, 0, 0, 0, 0, 1, 3, 0, 0, 0, 0, 1, 1, 1, 1, 2, 1, 1, 0, 1, 1, 1, 1, 1, 1, 1, 1, 0, 1] 
 T3 => S8 [0, 0, 1, 0, 0, 1, 1, 0, 0, 0, 1, 3, 0, 0, 0, 0, 1, 1, 1, 1, 2, 1, 1, 1, 1, 1, 1, 1, 0, 0, 0, 1, 2, 0] 
 T10 => S13 [0, 1, 0, 0, 1, 0, 1, 0, 0, 0, 1, 3, 1, 0, 0, 0, 1, 1, 1, 0, 1, 1, 1, 1, 1, 1, 1, 1, 1, 1, 0, 1, 1, 0] 
 T6 => S42 [0, 1, 0, 0, 1, 0, 1, 1, 0, 0, 1, 2, 0, 0, 0, 0, 1, 1, 1, 1, 2, 1, 1, 1, 1, 1, 1, 1, 1, 0, 1, 0, 0, 0] 
 
 Reachable states from S3 [1, 1, 0, 0, 1, 0, 0, 0, 0, 0, 1, 3, 0, 0, 0, 0, 1, 1, 1, 1, 2, 1, 1, 0, 1, 1, 1, 1, 1, 1, 1, 1, 0, 1] 
 T3 => S4 [1, 0, 1, 0, 0, 1, 0, 0, 0, 0, 1, 3, 0, 0, 0, 0, 1, 1, 1, 1, 2, 1, 1, 0, 1, 1, 1, 1, 0, 0, 0, 1, 1, 0] 
 T10 => S14 [1, 1, 0, 0, 1, 0, 0, 0, 0, 0, 1, 3, 1, 0, 0, 0, 1, 1, 1, 0, 1, 1, 1, 0, 1, 1, 1, 1, 1, 1, 0, 1, 0, 0] 
 
 Reachable states from S4 [1, 0, 1, 0, 0, 1, 0, 0, 0, 0, 1, 3, 0, 0, 0, 0, 1, 1, 1, 1, 2, 1, 1, 0, 1, 1, 1, 1, 0, 0, 0, 1, 1, 0] 
 T2 => S5 [0, 1, 1, 0, 0, 0, 0, 0, 0, 0, 1, 3, 0, 0, 0, 0, 1, 1, 1, 1, 2, 1, 1, 1, 1, 1, 1, 1, 0, 0, 0, 1, 1, 0] 
 T4 => S10 [1, 0, 0, 1, 1, 1, 0, 0, 0, 0, 1, 3, 0, 0, 0, 0, 1, 1, 1, 1, 2, 0, 1, 0, 1, 0, 0, 0, 1, 1, 1, 0, 1, 1] 
 
 Reachable states from S5 [0, 1, 1, 0, 0, 0, 0, 0, 0, 0, 1, 3, 0, 0, 0, 0, 1, 1, 1, 1, 2, 1, 1, 1, 1, 1, 1, 1, 0, 0, 0, 1, 1, 0] 
 T4 => S6 [0, 1, 0, 1, 1, 0, 0, 0, 0, 0, 1, 3, 0, 0, 0, 0, 1, 1, 1, 1, 2, 0, 1, 1, 1, 0, 0, 0, 1, 1, 1, 0, 1, 1] 
 
 Reachable states from S6 [0, 1, 0, 1, 1, 0, 0, 0, 0, 0, 1, 3, 0, 0, 0, 0, 1, 1, 1, 1, 2, 0, 1, 1, 1, 0, 0, 0, 1, 1, 1, 0, 1, 1] 
 T5 => S2 [0, 1, 0, 0, 1, 0, 1, 0, 0, 0, 1, 3, 0, 0, 0, 0, 1, 1, 1, 1, 2, 1, 1, 1, 1, 1, 1, 1, 1, 1, 1, 1, 1, 1] 
 T3 => S7 [0, 0, 1, 1, 0, 1, 0, 0, 0, 0, 1, 3, 0, 0, 0, 0, 1, 1, 1, 1, 2, 0, 1, 1, 1, 0, 0, 0, 0, 0, 0, 0, 2, 0] 
 T10 => S12 [0, 1, 0, 1, 1, 0, 0, 0, 0, 0, 1, 3, 1, 0, 0, 0, 1, 1, 1, 0, 1, 0, 1, 1, 1, 0, 0, 0, 1, 1, 0, 0, 1, 0] 
 
 Reachable states from S7 [0, 0, 1, 1, 0, 1, 0, 0, 0, 0, 1, 3, 0, 0, 0, 0, 1, 1, 1, 1, 2, 0, 1, 1, 1, 0, 0, 0, 0, 0, 0, 0, 2, 0] 
 T5 => S8 [0, 0, 1, 0, 0, 1, 1, 0, 0, 0, 1, 3, 0, 0, 0, 0, 1, 1, 1, 1, 2, 1, 1, 1, 1, 1, 1, 1, 0, 0, 0, 1, 2, 0] 
 
 Reachable states from S8 [0, 0, 1, 0, 0, 1, 1, 0, 0, 0, 1, 3, 0, 0, 0, 0, 1, 1, 1, 1, 2, 1, 1, 1, 1, 1, 1, 1, 0, 0, 0, 1, 2, 0] 
 T1 => S4 [1, 0, 1, 0, 0, 1, 0, 0, 0, 0, 1, 3, 0, 0, 0, 0, 1, 1, 1, 1, 2, 1, 1, 0, 1, 1, 1, 1, 0, 0, 0, 1, 1, 0] 
 T4 => S9 [0, 0, 0, 1, 1, 1, 1, 0, 0, 0, 1, 3, 0, 0, 0, 0, 1, 1, 1, 1, 2, 0, 1, 1, 1, 0, 0, 0, 1, 1, 1, 0, 2, 1] 
 
 Reachable states from S9 [0, 0, 0, 1, 1, 1, 1, 0, 0, 0, 1, 3, 0, 0, 0, 0, 1, 1, 1, 1, 2, 0, 1, 1, 1, 0, 0, 0, 1, 1, 1, 0, 2, 1] 
 T5 => S0 [0, 0, 0, 0, 1, 1, 2, 0, 0, 0, 1, 3, 0, 0, 0, 0, 1, 1, 1, 1, 2, 1, 1, 1, 1, 1, 1, 1, 1, 1, 1, 1, 2, 1] 
 T1 => S10 [1, 0, 0, 1, 1, 1, 0, 0, 0, 0, 1, 3, 0, 0, 0, 0, 1, 1, 1, 1, 2, 0, 1, 0, 1, 0, 0, 0, 1, 1, 1, 0, 1, 1] 
 T10 => S34 [0, 0, 0, 1, 1, 1, 1, 0, 0, 0, 1, 3, 1, 0, 0, 0, 1, 1, 1, 0, 1, 0, 1, 1, 1, 0, 0, 0, 1, 1, 0, 0, 2, 0] 
 
 Reachable states from S10 [1, 0, 0, 1, 1, 1, 0, 0, 0, 0, 1, 3, 0, 0, 0, 0, 1, 1, 1, 1, 2, 0, 1, 0, 1, 0, 0, 0, 1, 1, 1, 0, 1, 1] 
 T5 => S1 [1, 0, 0, 0, 1, 1, 1, 0, 0, 0, 1, 3, 0, 0, 0, 0, 1, 1, 1, 1, 2, 1, 1, 0, 1, 1, 1, 1, 1, 1, 1, 1, 1, 1] 
 T2 => S6 [0, 1, 0, 1, 1, 0, 0, 0, 0, 0, 1, 3, 0, 0, 0, 0, 1, 1, 1, 1, 2, 0, 1, 1, 1, 0, 0, 0, 1, 1, 1, 0, 1, 1] 
 T10 => S11 [1, 0, 0, 1, 1, 1, 0, 0, 0, 0, 1, 3, 1, 0, 0, 0, 1, 1, 1, 0, 1, 0, 1, 0, 1, 0, 0, 0, 1, 1, 0, 0, 1, 0] 
 
 Reachable states from S11 [1, 0, 0, 1, 1, 1, 0, 0, 0, 0, 1, 3, 1, 0, 0, 0, 1, 1, 1, 0, 1, 0, 1, 0, 1, 0, 0, 0, 1, 1, 0, 0, 1, 0] 
 T2 => S12 [0, 1, 0, 1, 1, 0, 0, 0, 0, 0, 1, 3, 1, 0, 0, 0, 1, 1, 1, 0, 1, 0, 1, 1, 1, 0, 0, 0, 1, 1, 0, 0, 1, 0] 
 T5 => S27 [1, 0, 0, 0, 1, 1, 1, 0, 0, 0, 1, 3, 1, 0, 0, 0, 1, 1, 1, 0, 1, 1, 1, 0, 1, 1, 1, 1, 1, 1, 0, 1, 1, 0] 
 
 Reachable states from S12 [0, 1, 0, 1, 1, 0, 0, 0, 0, 0, 1, 3, 1, 0, 0, 0, 1, 1, 1, 0, 1, 0, 1, 1, 1, 0, 0, 0, 1, 1, 0, 0, 1, 0] 
 T5 => S13 [0, 1, 0, 0, 1, 0, 1, 0, 0, 0, 1, 3, 1, 0, 0, 0, 1, 1, 1, 0, 1, 1, 1, 1, 1, 1, 1, 1, 1, 1, 0, 1, 1, 0] 
 
 Reachable states from S13 [0, 1, 0, 0, 1, 0, 1, 0, 0, 0, 1, 3, 1, 0, 0, 0, 1, 1, 1, 0, 1, 1, 1, 1, 1, 1, 1, 1, 1, 1, 0, 1, 1, 0] 
 T1 => S14 [1, 1, 0, 0, 1, 0, 0, 0, 0, 0, 1, 3, 1, 0, 0, 0, 1, 1, 1, 0, 1, 1, 1, 0, 1, 1, 1, 1, 1, 1, 0, 1, 0, 0] 
 T11 => S21 [0, 1, 0, 0, 1, 0, 1, 0, 0, 0, 1, 3, 0, 1, 0, 0, 1, 0, 1, 1, 1, 1, 1, 1, 1, 1, 1, 0, 1, 1, 1, 1, 1, 0] 
 
 Reachable states from S14 [1, 1, 0, 0, 1, 0, 0, 0, 0, 0, 1, 3, 1, 0, 0, 0, 1, 1, 1, 0, 1, 1, 1, 0, 1, 1, 1, 1, 1, 1, 0, 1, 0, 0] 
 T11 => S15 [1, 1, 0, 0, 1, 0, 0, 0, 0, 0, 1, 3, 0, 1, 0, 0, 1, 0, 1, 1, 1, 1, 1, 0, 1, 1, 1, 0, 1, 1, 1, 1, 0, 0] 
 
 Reachable states from S15 [1, 1, 0, 0, 1, 0, 0, 0, 0, 0, 1, 3, 0, 1, 0, 0, 1, 0, 1, 1, 1, 1, 1, 0, 1, 1, 1, 0, 1, 1, 1, 1, 0, 0] 
 T12 => S16 [1, 1, 0, 0, 1, 0, 0, 0, 0, 0, 1, 3, 0, 0, 1, 0, 1, 1, 0, 1, 1, 1, 0, 0, 0, 1, 1, 1, 1, 1, 1, 0, 0, 0] 
 
 Reachable states from S16 [1, 1, 0, 0, 1, 0, 0, 0, 0, 0, 1, 3, 0, 0, 1, 0, 1, 1, 0, 1, 1, 1, 0, 0, 0, 1, 1, 1, 1, 1, 1, 0, 0, 0] 
 T13 => S17 [1, 1, 0, 0, 1, 0, 0, 0, 0, 0, 1, 3, 0, 0, 0, 1, 0, 1, 1, 1, 1, 1, 1, 0, 1, 1, 1, 1, 0, 0, 1, 1, 0, 1] 
 
 Reachable states from S17 [1, 1, 0, 0, 1, 0, 0, 0, 0, 0, 1, 3, 0, 0, 0, 1, 0, 1, 1, 1, 1, 1, 1, 0, 1, 1, 1, 1, 0, 0, 1, 1, 0, 1] 
 T14 => S3 [1, 1, 0, 0, 1, 0, 0, 0, 0, 0, 1, 3, 0, 0, 0, 0, 1, 1, 1, 1, 2, 1, 1, 0, 1, 1, 1, 1, 1, 1, 1, 1, 0, 1] 
 T10 => S18 [1, 1, 0, 0, 1, 0, 0, 0, 0, 0, 1, 3, 1, 0, 0, 1, 0, 1, 1, 0, 0, 1, 1, 0, 1, 1, 1, 1, 0, 0, 0, 1, 0, 0] 
 
 Reachable states from S18 [1, 1, 0, 0, 1, 0, 0, 0, 0, 0, 1, 3, 1, 0, 0, 1, 0, 1, 1, 0, 0, 1, 1, 0, 1, 1, 1, 1, 0, 0, 0, 1, 0, 0] 
 T14 => S14 [1, 1, 0, 0, 1, 0, 0, 0, 0, 0, 1, 3, 1, 0, 0, 0, 1, 1, 1, 0, 1, 1, 1, 0, 1, 1, 1, 1, 1, 1, 0, 1, 0, 0] 
 T11 => S19 [1, 1, 0, 0, 1, 0, 0, 0, 0, 0, 1, 3, 0, 1, 0, 1, 0, 0, 1, 1, 0, 1, 1, 0, 1, 1, 1, 0, 0, 0, 1, 1, 0, 0] 
 
 Reachable states from S19 [1, 1, 0, 0, 1, 0, 0, 0, 0, 0, 1, 3, 0, 1, 0, 1, 0, 0, 1, 1, 0, 1, 1, 0, 1, 1, 1, 0, 0, 0, 1, 1, 0, 0] 
 T14 => S15 [1, 1, 0, 0, 1, 0, 0, 0, 0, 0, 1, 3, 0, 1, 0, 0, 1, 0, 1, 1, 1, 1, 1, 0, 1, 1, 1, 0, 1, 1, 1, 1, 0, 0] 
 T12 => S20 [1, 1, 0, 0, 1, 0, 0, 0, 0, 0, 1, 3, 0, 0, 1, 1, 0, 1, 0, 1, 0, 1, 0, 0, 0, 1, 1, 1, 0, 0, 1, 0, 0, 0] 
 
 Reachable states from S20 [1, 1, 0, 0, 1, 0, 0, 0, 0, 0, 1, 3, 0, 0, 1, 1, 0, 1, 0, 1, 0, 1, 0, 0, 0, 1, 1, 1, 0, 0, 1, 0, 0, 0] 
 T14 => S16 [1, 1, 0, 0, 1, 0, 0, 0, 0, 0, 1, 3, 0, 0, 1, 0, 1, 1, 0, 1, 1, 1, 0, 0, 0, 1, 1, 1, 1, 1, 1, 0, 0, 0] 
 
 Reachable states from S21 [0, 1, 0, 0, 1, 0, 1, 0, 0, 0, 1, 3, 0, 1, 0, 0, 1, 0, 1, 1, 1, 1, 1, 1, 1, 1, 1, 0, 1, 1, 1, 1, 1, 0] 
 T1 => S15 [1, 1, 0, 0, 1, 0, 0, 0, 0, 0, 1, 3, 0, 1, 0, 0, 1, 0, 1, 1, 1, 1, 1, 0, 1, 1, 1, 0, 1, 1, 1, 1, 0, 0] 
 T12 => S22 [0, 1, 0, 0, 1, 0, 1, 0, 0, 0, 1, 3, 0, 0, 1, 0, 1, 1, 0, 1, 1, 1, 0, 1, 0, 1, 1, 1, 1, 1, 1, 0, 1, 0] 
 
 Reachable states from S22 [0, 1, 0, 0, 1, 0, 1, 0, 0, 0, 1, 3, 0, 0, 1, 0, 1, 1, 0, 1, 1, 1, 0, 1, 0, 1, 1, 1, 1, 1, 1, 0, 1, 0] 
 T1 => S16 [1, 1, 0, 0, 1, 0, 0, 0, 0, 0, 1, 3, 0, 0, 1, 0, 1, 1, 0, 1, 1, 1, 0, 0, 0, 1, 1, 1, 1, 1, 1, 0, 0, 0] 
 T13 => S23 [0, 1, 0, 0, 1, 0, 1, 0, 0, 0, 1, 3, 0, 0, 0, 1, 0, 1, 1, 1, 1, 1, 1, 1, 1, 1, 1, 1, 0, 0, 1, 1, 1, 1] 
 
 Reachable states from S23 [0, 1, 0, 0, 1, 0, 1, 0, 0, 0, 1, 3, 0, 0, 0, 1, 0, 1, 1, 1, 1, 1, 1, 1, 1, 1, 1, 1, 0, 0, 1, 1, 1, 1] 
 T14 => S2 [0, 1, 0, 0, 1, 0, 1, 0, 0, 0, 1, 3, 0, 0, 0, 0, 1, 1, 1, 1, 2, 1, 1, 1, 1, 1, 1, 1, 1, 1, 1, 1, 1, 1] 
 T1 => S17 [1, 1, 0, 0, 1, 0, 0, 0, 0, 0, 1, 3, 0, 0, 0, 1, 0, 1, 1, 1, 1, 1, 1, 0, 1, 1, 1, 1, 0, 0, 1, 1, 0, 1] 
 T10 => S24 [0, 1, 0, 0, 1, 0, 1, 0, 0, 0, 1, 3, 1, 0, 0, 1, 0, 1, 1, 0, 0, 1, 1, 1, 1, 1, 1, 1, 0, 0, 0, 1, 1, 0] 
 
 Reachable states from S24 [0, 1, 0, 0, 1, 0, 1, 0, 0, 0, 1, 3, 1, 0, 0, 1, 0, 1, 1, 0, 0, 1, 1, 1, 1, 1, 1, 1, 0, 0, 0, 1, 1, 0] 
 T14 => S13 [0, 1, 0, 0, 1, 0, 1, 0, 0, 0, 1, 3, 1, 0, 0, 0, 1, 1, 1, 0, 1, 1, 1, 1, 1, 1, 1, 1, 1, 1, 0, 1, 1, 0] 
 T1 => S18 [1, 1, 0, 0, 1, 0, 0, 0, 0, 0, 1, 3, 1, 0, 0, 1, 0, 1, 1, 0, 0, 1, 1, 0, 1, 1, 1, 1, 0, 0, 0, 1, 0, 0] 
 T11 => S25 [0, 1, 0, 0, 1, 0, 1, 0, 0, 0, 1, 3, 0, 1, 0, 1, 0, 0, 1, 1, 0, 1, 1, 1, 1, 1, 1, 0, 0, 0, 1, 1, 1, 0] 
 
 Reachable states from S25 [0, 1, 0, 0, 1, 0, 1, 0, 0, 0, 1, 3, 0, 1, 0, 1, 0, 0, 1, 1, 0, 1, 1, 1, 1, 1, 1, 0, 0, 0, 1, 1, 1, 0] 
 T1 => S19 [1, 1, 0, 0, 1, 0, 0, 0, 0, 0, 1, 3, 0, 1, 0, 1, 0, 0, 1, 1, 0, 1, 1, 0, 1, 1, 1, 0, 0, 0, 1, 1, 0, 0] 
 T14 => S21 [0, 1, 0, 0, 1, 0, 1, 0, 0, 0, 1, 3, 0, 1, 0, 0, 1, 0, 1, 1, 1, 1, 1, 1, 1, 1, 1, 0, 1, 1, 1, 1, 1, 0] 
 T12 => S26 [0, 1, 0, 0, 1, 0, 1, 0, 0, 0, 1, 3, 0, 0, 1, 1, 0, 1, 0, 1, 0, 1, 0, 1, 0, 1, 1, 1, 0, 0, 1, 0, 1, 0] 
 
 Reachable states from S26 [0, 1, 0, 0, 1, 0, 1, 0, 0, 0, 1, 3, 0, 0, 1, 1, 0, 1, 0, 1, 0, 1, 0, 1, 0, 1, 1, 1, 0, 0, 1, 0, 1, 0] 
 T1 => S20 [1, 1, 0, 0, 1, 0, 0, 0, 0, 0, 1, 3, 0, 0, 1, 1, 0, 1, 0, 1, 0, 1, 0, 0, 0, 1, 1, 1, 0, 0, 1, 0, 0, 0] 
 T14 => S22 [0, 1, 0, 0, 1, 0, 1, 0, 0, 0, 1, 3, 0, 0, 1, 0, 1, 1, 0, 1, 1, 1, 0, 1, 0, 1, 1, 1, 1, 1, 1, 0, 1, 0] 
 
 Reachable states from S27 [1, 0, 0, 0, 1, 1, 1, 0, 0, 0, 1, 3, 1, 0, 0, 0, 1, 1, 1, 0, 1, 1, 1, 0, 1, 1, 1, 1, 1, 1, 0, 1, 1, 0] 
 T2 => S13 [0, 1, 0, 0, 1, 0, 1, 0, 0, 0, 1, 3, 1, 0, 0, 0, 1, 1, 1, 0, 1, 1, 1, 1, 1, 1, 1, 1, 1, 1, 0, 1, 1, 0] 
 T11 => S28 [1, 0, 0, 0, 1, 1, 1, 0, 0, 0, 1, 3, 0, 1, 0, 0, 1, 0, 1, 1, 1, 1, 1, 0, 1, 1, 1, 0, 1, 1, 1, 1, 1, 0] 
 
 Reachable states from S28 [1, 0, 0, 0, 1, 1, 1, 0, 0, 0, 1, 3, 0, 1, 0, 0, 1, 0, 1, 1, 1, 1, 1, 0, 1, 1, 1, 0, 1, 1, 1, 1, 1, 0] 
 T2 => S21 [0, 1, 0, 0, 1, 0, 1, 0, 0, 0, 1, 3, 0, 1, 0, 0, 1, 0, 1, 1, 1, 1, 1, 1, 1, 1, 1, 0, 1, 1, 1, 1, 1, 0] 
 T12 => S29 [1, 0, 0, 0, 1, 1, 1, 0, 0, 0, 1, 3, 0, 0, 1, 0, 1, 1, 0, 1, 1, 1, 0, 0, 0, 1, 1, 1, 1, 1, 1, 0, 1, 0] 
 
 Reachable states from S29 [1, 0, 0, 0, 1, 1, 1, 0, 0, 0, 1, 3, 0, 0, 1, 0, 1, 1, 0, 1, 1, 1, 0, 0, 0, 1, 1, 1, 1, 1, 1, 0, 1, 0] 
 T2 => S22 [0, 1, 0, 0, 1, 0, 1, 0, 0, 0, 1, 3, 0, 0, 1, 0, 1, 1, 0, 1, 1, 1, 0, 1, 0, 1, 1, 1, 1, 1, 1, 0, 1, 0] 
 T13 => S30 [1, 0, 0, 0, 1, 1, 1, 0, 0, 0, 1, 3, 0, 0, 0, 1, 0, 1, 1, 1, 1, 1, 1, 0, 1, 1, 1, 1, 0, 0, 1, 1, 1, 1] 
 
 Reachable states from S30 [1, 0, 0, 0, 1, 1, 1, 0, 0, 0, 1, 3, 0, 0, 0, 1, 0, 1, 1, 1, 1, 1, 1, 0, 1, 1, 1, 1, 0, 0, 1, 1, 1, 1] 
 T14 => S1 [1, 0, 0, 0, 1, 1, 1, 0, 0, 0, 1, 3, 0, 0, 0, 0, 1, 1, 1, 1, 2, 1, 1, 0, 1, 1, 1, 1, 1, 1, 1, 1, 1, 1] 
 T2 => S23 [0, 1, 0, 0, 1, 0, 1, 0, 0, 0, 1, 3, 0, 0, 0, 1, 0, 1, 1, 1, 1, 1, 1, 1, 1, 1, 1, 1, 0, 0, 1, 1, 1, 1] 
 T10 => S31 [1, 0, 0, 0, 1, 1, 1, 0, 0, 0, 1, 3, 1, 0, 0, 1, 0, 1, 1, 0, 0, 1, 1, 0, 1, 1, 1, 1, 0, 0, 0, 1, 1, 0] 
 
 Reachable states from S31 [1, 0, 0, 0, 1, 1, 1, 0, 0, 0, 1, 3, 1, 0, 0, 1, 0, 1, 1, 0, 0, 1, 1, 0, 1, 1, 1, 1, 0, 0, 0, 1, 1, 0] 
 T2 => S24 [0, 1, 0, 0, 1, 0, 1, 0, 0, 0, 1, 3, 1, 0, 0, 1, 0, 1, 1, 0, 0, 1, 1, 1, 1, 1, 1, 1, 0, 0, 0, 1, 1, 0] 
 T14 => S27 [1, 0, 0, 0, 1, 1, 1, 0, 0, 0, 1, 3, 1, 0, 0, 0, 1, 1, 1, 0, 1, 1, 1, 0, 1, 1, 1, 1, 1, 1, 0, 1, 1, 0] 
 T11 => S32 [1, 0, 0, 0, 1, 1, 1, 0, 0, 0, 1, 3, 0, 1, 0, 1, 0, 0, 1, 1, 0, 1, 1, 0, 1, 1, 1, 0, 0, 0, 1, 1, 1, 0] 
 
 Reachable states from S32 [1, 0, 0, 0, 1, 1, 1, 0, 0, 0, 1, 3, 0, 1, 0, 1, 0, 0, 1, 1, 0, 1, 1, 0, 1, 1, 1, 0, 0, 0, 1, 1, 1, 0] 
 T2 => S25 [0, 1, 0, 0, 1, 0, 1, 0, 0, 0, 1, 3, 0, 1, 0, 1, 0, 0, 1, 1, 0, 1, 1, 1, 1, 1, 1, 0, 0, 0, 1, 1, 1, 0] 
 T14 => S28 [1, 0, 0, 0, 1, 1, 1, 0, 0, 0, 1, 3, 0, 1, 0, 0, 1, 0, 1, 1, 1, 1, 1, 0, 1, 1, 1, 0, 1, 1, 1, 1, 1, 0] 
 T12 => S33 [1, 0, 0, 0, 1, 1, 1, 0, 0, 0, 1, 3, 0, 0, 1, 1, 0, 1, 0, 1, 0, 1, 0, 0, 0, 1, 1, 1, 0, 0, 1, 0, 1, 0] 
 
 Reachable states from S33 [1, 0, 0, 0, 1, 1, 1, 0, 0, 0, 1, 3, 0, 0, 1, 1, 0, 1, 0, 1, 0, 1, 0, 0, 0, 1, 1, 1, 0, 0, 1, 0, 1, 0] 
 T2 => S26 [0, 1, 0, 0, 1, 0, 1, 0, 0, 0, 1, 3, 0, 0, 1, 1, 0, 1, 0, 1, 0, 1, 0, 1, 0, 1, 1, 1, 0, 0, 1, 0, 1, 0] 
 T14 => S29 [1, 0, 0, 0, 1, 1, 1, 0, 0, 0, 1, 3, 0, 0, 1, 0, 1, 1, 0, 1, 1, 1, 0, 0, 0, 1, 1, 1, 1, 1, 1, 0, 1, 0] 
 
 Reachable states from S34 [0, 0, 0, 1, 1, 1, 1, 0, 0, 0, 1, 3, 1, 0, 0, 0, 1, 1, 1, 0, 1, 0, 1, 1, 1, 0, 0, 0, 1, 1, 0, 0, 2, 0] 
 T1 => S11 [1, 0, 0, 1, 1, 1, 0, 0, 0, 0, 1, 3, 1, 0, 0, 0, 1, 1, 1, 0, 1, 0, 1, 0, 1, 0, 0, 0, 1, 1, 0, 0, 1, 0] 
 T5 => S35 [0, 0, 0, 0, 1, 1, 2, 0, 0, 0, 1, 3, 1, 0, 0, 0, 1, 1, 1, 0, 1, 1, 1, 1, 1, 1, 1, 1, 1, 1, 0, 1, 2, 0] 
 
 Reachable states from S35 [0, 0, 0, 0, 1, 1, 2, 0, 0, 0, 1, 3, 1, 0, 0, 0, 1, 1, 1, 0, 1, 1, 1, 1, 1, 1, 1, 1, 1, 1, 0, 1, 2, 0] 
 T1 => S27 [1, 0, 0, 0, 1, 1, 1, 0, 0, 0, 1, 3, 1, 0, 0, 0, 1, 1, 1, 0, 1, 1, 1, 0, 1, 1, 1, 1, 1, 1, 0, 1, 1, 0] 
 T11 => S36 [0, 0, 0, 0, 1, 1, 2, 0, 0, 0, 1, 3, 0, 1, 0, 0, 1, 0, 1, 1, 1, 1, 1, 1, 1, 1, 1, 0, 1, 1, 1, 1, 2, 0] 
 
 Reachable states from S36 [0, 0, 0, 0, 1, 1, 2, 0, 0, 0, 1, 3, 0, 1, 0, 0, 1, 0, 1, 1, 1, 1, 1, 1, 1, 1, 1, 0, 1, 1, 1, 1, 2, 0] 
 T1 => S28 [1, 0, 0, 0, 1, 1, 1, 0, 0, 0, 1, 3, 0, 1, 0, 0, 1, 0, 1, 1, 1, 1, 1, 0, 1, 1, 1, 0, 1, 1, 1, 1, 1, 0] 
 T12 => S37 [0, 0, 0, 0, 1, 1, 2, 0, 0, 0, 1, 3, 0, 0, 1, 0, 1, 1, 0, 1, 1, 1, 0, 1, 0, 1, 1, 1, 1, 1, 1, 0, 2, 0] 
 
 Reachable states from S37 [0, 0, 0, 0, 1, 1, 2, 0, 0, 0, 1, 3, 0, 0, 1, 0, 1, 1, 0, 1, 1, 1, 0, 1, 0, 1, 1, 1, 1, 1, 1, 0, 2, 0] 
 T1 => S29 [1, 0, 0, 0, 1, 1, 1, 0, 0, 0, 1, 3, 0, 0, 1, 0, 1, 1, 0, 1, 1, 1, 0, 0, 0, 1, 1, 1, 1, 1, 1, 0, 1, 0] 
 T13 => S38 [0, 0, 0, 0, 1, 1, 2, 0, 0, 0, 1, 3, 0, 0, 0, 1, 0, 1, 1, 1, 1, 1, 1, 1, 1, 1, 1, 1, 0, 0, 1, 1, 2, 1] 
 
 Reachable states from S38 [0, 0, 0, 0, 1, 1, 2, 0, 0, 0, 1, 3, 0, 0, 0, 1, 0, 1, 1, 1, 1, 1, 1, 1, 1, 1, 1, 1, 0, 0, 1, 1, 2, 1] 
 T14 => S0 [0, 0, 0, 0, 1, 1, 2, 0, 0, 0, 1, 3, 0, 0, 0, 0, 1, 1, 1, 1, 2, 1, 1, 1, 1, 1, 1, 1, 1, 1, 1, 1, 2, 1] 
 T1 => S30 [1, 0, 0, 0, 1, 1, 1, 0, 0, 0, 1, 3, 0, 0, 0, 1, 0, 1, 1, 1, 1, 1, 1, 0, 1, 1, 1, 1, 0, 0, 1, 1, 1, 1] 
 T10 => S39 [0, 0, 0, 0, 1, 1, 2, 0, 0, 0, 1, 3, 1, 0, 0, 1, 0, 1, 1, 0, 0, 1, 1, 1, 1, 1, 1, 1, 0, 0, 0, 1, 2, 0] 
 
 Reachable states from S39 [0, 0, 0, 0, 1, 1, 2, 0, 0, 0, 1, 3, 1, 0, 0, 1, 0, 1, 1, 0, 0, 1, 1, 1, 1, 1, 1, 1, 0, 0, 0, 1, 2, 0] 
 T1 => S31 [1, 0, 0, 0, 1, 1, 1, 0, 0, 0, 1, 3, 1, 0, 0, 1, 0, 1, 1, 0, 0, 1, 1, 0, 1, 1, 1, 1, 0, 0, 0, 1, 1, 0] 
 T14 => S35 [0, 0, 0, 0, 1, 1, 2, 0, 0, 0, 1, 3, 1, 0, 0, 0, 1, 1, 1, 0, 1, 1, 1, 1, 1, 1, 1, 1, 1, 1, 0, 1, 2, 0] 
 T11 => S40 [0, 0, 0, 0, 1, 1, 2, 0, 0, 0, 1, 3, 0, 1, 0, 1, 0, 0, 1, 1, 0, 1, 1, 1, 1, 1, 1, 0, 0, 0, 1, 1, 2, 0] 
 
 Reachable states from S40 [0, 0, 0, 0, 1, 1, 2, 0, 0, 0, 1, 3, 0, 1, 0, 1, 0, 0, 1, 1, 0, 1, 1, 1, 1, 1, 1, 0, 0, 0, 1, 1, 2, 0] 
 T1 => S32 [1, 0, 0, 0, 1, 1, 1, 0, 0, 0, 1, 3, 0, 1, 0, 1, 0, 0, 1, 1, 0, 1, 1, 0, 1, 1, 1, 0, 0, 0, 1, 1, 1, 0] 
 T14 => S36 [0, 0, 0, 0, 1, 1, 2, 0, 0, 0, 1, 3, 0, 1, 0, 0, 1, 0, 1, 1, 1, 1, 1, 1, 1, 1, 1, 0, 1, 1, 1, 1, 2, 0] 
 T12 => S41 [0, 0, 0, 0, 1, 1, 2, 0, 0, 0, 1, 3, 0, 0, 1, 1, 0, 1, 0, 1, 0, 1, 0, 1, 0, 1, 1, 1, 0, 0, 1, 0, 2, 0] 
 
 Reachable states from S41 [0, 0, 0, 0, 1, 1, 2, 0, 0, 0, 1, 3, 0, 0, 1, 1, 0, 1, 0, 1, 0, 1, 0, 1, 0, 1, 1, 1, 0, 0, 1, 0, 2, 0] 
 T1 => S33 [1, 0, 0, 0, 1, 1, 1, 0, 0, 0, 1, 3, 0, 0, 1, 1, 0, 1, 0, 1, 0, 1, 0, 0, 0, 1, 1, 1, 0, 0, 1, 0, 1, 0] 
 T14 => S37 [0, 0, 0, 0, 1, 1, 2, 0, 0, 0, 1, 3, 0, 0, 1, 0, 1, 1, 0, 1, 1, 1, 0, 1, 0, 1, 1, 1, 1, 1, 1, 0, 2, 0] 
 
 Reachable states from S42 [0, 1, 0, 0, 1, 0, 1, 1, 0, 0, 1, 2, 0, 0, 0, 0, 1, 1, 1, 1, 2, 1, 1, 1, 1, 1, 1, 1, 1, 0, 1, 0, 0, 0] 
 T7 => S43 [0, 1, 0, 0, 1, 0, 1, 0, 1, 0, 0, 2, 0, 0, 0, 0, 1, 1, 1, 1, 2, 1, 1, 0, 1, 0, 1, 1, 1, 1, 1, 1, 1, 0] 
 
 Reachable states from S43 [0, 1, 0, 0, 1, 0, 1, 0, 1, 0, 0, 2, 0, 0, 0, 0, 1, 1, 1, 1, 2, 1, 1, 0, 1, 0, 1, 1, 1, 1, 1, 1, 1, 0] 
 T8 => S44 [0, 1, 0, 0, 1, 0, 1, 0, 0, 1, 1, 2, 0, 0, 0, 0, 1, 1, 1, 1, 2, 0, 0, 1, 0, 1, 0, 1, 0, 1, 0, 1, 1, 1] 
 
 Reachable states from S44 [0, 1, 0, 0, 1, 0, 1, 0, 0, 1, 1, 2, 0, 0, 0, 0, 1, 1, 1, 1, 2, 0, 0, 1, 0, 1, 0, 1, 0, 1, 0, 1, 1, 1] 
 T9 => S2 [0, 1, 0, 0, 1, 0, 1, 0, 0, 0, 1, 3, 0, 0, 0, 0, 1, 1, 1, 1, 2, 1, 1, 1, 1, 1, 1, 1, 1, 1, 1, 1, 1, 1] 
 T1 => S45 [1, 1, 0, 0, 1, 0, 0, 0, 0, 1, 1, 2, 0, 0, 0, 0, 1, 1, 1, 1, 2, 0, 0, 0, 0, 1, 0, 1, 0, 1, 0, 1, 0, 1] 
 T6 => S46 [0, 1, 0, 0, 1, 0, 1, 1, 0, 1, 1, 1, 0, 0, 0, 0, 1, 1, 1, 1, 2, 0, 0, 1, 0, 1, 0, 1, 0, 0, 0, 0, 0, 0] 
 
 Reachable states from S45 [1, 1, 0, 0, 1, 0, 0, 0, 0, 1, 1, 2, 0, 0, 0, 0, 1, 1, 1, 1, 2, 0, 0, 0, 0, 1, 0, 1, 0, 1, 0, 1, 0, 1] 
 T9 => S3 [1, 1, 0, 0, 1, 0, 0, 0, 0, 0, 1, 3, 0, 0, 0, 0, 1, 1, 1, 1, 2, 1, 1, 0, 1, 1, 1, 1, 1, 1, 1, 1, 0, 1] 
 
 Reachable states from S46 [0, 1, 0, 0, 1, 0, 1, 1, 0, 1, 1, 1, 0, 0, 0, 0, 1, 1, 1, 1, 2, 0, 0, 1, 0, 1, 0, 1, 0, 0, 0, 0, 0, 0] 
 T9 => S42 [0, 1, 0, 0, 1, 0, 1, 1, 0, 0, 1, 2, 0, 0, 0, 0, 1, 1, 1, 1, 2, 1, 1, 1, 1, 1, 1, 1, 1, 0, 1, 0, 0, 0] 
 T7 => S47 [0, 1, 0, 0, 1, 0, 1, 0, 1, 1, 0, 1, 0, 0, 0, 0, 1, 1, 1, 1, 2, 0, 0, 0, 0, 0, 0, 1, 0, 1, 0, 1, 1, 0] 
 
 Reachable states from S47 [0, 1, 0, 0, 1, 0, 1, 0, 1, 1, 0, 1, 0, 0, 0, 0, 1, 1, 1, 1, 2, 0, 0, 0, 0, 0, 0, 1, 0, 1, 0, 1, 1, 0] 
 T9 => S43 [0, 1, 0, 0, 1, 0, 1, 0, 1, 0, 0, 2, 0, 0, 0, 0, 1, 1, 1, 1, 2, 1, 1, 0, 1, 0, 1, 1, 1, 1, 1, 1, 1, 0] 
 
 Reachable states from S48 [1, 0, 0, 0, 1, 1, 1, 1, 0, 0, 1, 2, 0, 0, 0, 0, 1, 1, 1, 1, 2, 1, 1, 0, 1, 1, 1, 1, 1, 0, 1, 0, 0, 0] 
 T2 => S42 [0, 1, 0, 0, 1, 0, 1, 1, 0, 0, 1, 2, 0, 0, 0, 0, 1, 1, 1, 1, 2, 1, 1, 1, 1, 1, 1, 1, 1, 0, 1, 0, 0, 0] 
 
 Reachable states from S49 [0, 0, 0, 0, 1, 1, 2, 1, 0, 0, 1, 2, 0, 0, 0, 0, 1, 1, 1, 1, 2, 1, 1, 1, 1, 1, 1, 1, 1, 0, 1, 0, 1, 0] 
 T1 => S48 [1, 0, 0, 0, 1, 1, 1, 1, 0, 0, 1, 2, 0, 0, 0, 0, 1, 1, 1, 1, 2, 1, 1, 0, 1, 1, 1, 1, 1, 0, 1, 0, 0, 0] 
 T7 => S50 [0, 0, 0, 0, 1, 1, 2, 0, 1, 0, 0, 2, 0, 0, 0, 0, 1, 1, 1, 1, 2, 1, 1, 0, 1, 0, 1, 1, 1, 1, 1, 1, 2, 0] 
 
 Reachable states from S50 [0, 0, 0, 0, 1, 1, 2, 0, 1, 0, 0, 2, 0, 0, 0, 0, 1, 1, 1, 1, 2, 1, 1, 0, 1, 0, 1, 1, 1, 1, 1, 1, 2, 0] 
 T8 => S51 [0, 0, 0, 0, 1, 1, 2, 0, 0, 1, 1, 2, 0, 0, 0, 0, 1, 1, 1, 1, 2, 0, 0, 1, 0, 1, 0, 1, 0, 1, 0, 1, 2, 1] 
 
 Reachable states from S51 [0, 0, 0, 0, 1, 1, 2, 0, 0, 1, 1, 2, 0, 0, 0, 0, 1, 1, 1, 1, 2, 0, 0, 1, 0, 1, 0, 1, 0, 1, 0, 1, 2, 1] 
 T9 => S0 [0, 0, 0, 0, 1, 1, 2, 0, 0, 0, 1, 3, 0, 0, 0, 0, 1, 1, 1, 1, 2, 1, 1, 1, 1, 1, 1, 1, 1, 1, 1, 1, 2, 1] 
 T1 => S52 [1, 0, 0, 0, 1, 1, 1, 0, 0, 1, 1, 2, 0, 0, 0, 0, 1, 1, 1, 1, 2, 0, 0, 0, 0, 1, 0, 1, 0, 1, 0, 1, 1, 1] 
 T6 => S54 [0, 0, 0, 0, 1, 1, 2, 1, 0, 1, 1, 1, 0, 0, 0, 0, 1, 1, 1, 1, 2, 0, 0, 1, 0, 1, 0, 1, 0, 0, 0, 0, 1, 0] 
 
 Reachable states from S52 [1, 0, 0, 0, 1, 1, 1, 0, 0, 1, 1, 2, 0, 0, 0, 0, 1, 1, 1, 1, 2, 0, 0, 0, 0, 1, 0, 1, 0, 1, 0, 1, 1, 1] 
 T9 => S1 [1, 0, 0, 0, 1, 1, 1, 0, 0, 0, 1, 3, 0, 0, 0, 0, 1, 1, 1, 1, 2, 1, 1, 0, 1, 1, 1, 1, 1, 1, 1, 1, 1, 1] 
 T2 => S44 [0, 1, 0, 0, 1, 0, 1, 0, 0, 1, 1, 2, 0, 0, 0, 0, 1, 1, 1, 1, 2, 0, 0, 1, 0, 1, 0, 1, 0, 1, 0, 1, 1, 1] 
 T6 => S53 [1, 0, 0, 0, 1, 1, 1, 1, 0, 1, 1, 1, 0, 0, 0, 0, 1, 1, 1, 1, 2, 0, 0, 0, 0, 1, 0, 1, 0, 0, 0, 0, 0, 0] 
 
 Reachable states from S53 [1, 0, 0, 0, 1, 1, 1, 1, 0, 1, 1, 1, 0, 0, 0, 0, 1, 1, 1, 1, 2, 0, 0, 0, 0, 1, 0, 1, 0, 0, 0, 0, 0, 0] 
 T2 => S46 [0, 1, 0, 0, 1, 0, 1, 1, 0, 1, 1, 1, 0, 0, 0, 0, 1, 1, 1, 1, 2, 0, 0, 1, 0, 1, 0, 1, 0, 0, 0, 0, 0, 0] 
 T9 => S48 [1, 0, 0, 0, 1, 1, 1, 1, 0, 0, 1, 2, 0, 0, 0, 0, 1, 1, 1, 1, 2, 1, 1, 0, 1, 1, 1, 1, 1, 0, 1, 0, 0, 0] 
 
 Reachable states from S54 [0, 0, 0, 0, 1, 1, 2, 1, 0, 1, 1, 1, 0, 0, 0, 0, 1, 1, 1, 1, 2, 0, 0, 1, 0, 1, 0, 1, 0, 0, 0, 0, 1, 0] 
 T9 => S49 [0, 0, 0, 0, 1, 1, 2, 1, 0, 0, 1, 2, 0, 0, 0, 0, 1, 1, 1, 1, 2, 1, 1, 1, 1, 1, 1, 1, 1, 0, 1, 0, 1, 0] 
 T1 => S53 [1, 0, 0, 0, 1, 1, 1, 1, 0, 1, 1, 1, 0, 0, 0, 0, 1, 1, 1, 1, 2, 0, 0, 0, 0, 1, 0, 1, 0, 0, 0, 0, 0, 0] 
 T7 => S55 [0, 0, 0, 0, 1, 1, 2, 0, 1, 1, 0, 1, 0, 0, 0, 0, 1, 1, 1, 1, 2, 0, 0, 0, 0, 0, 0, 1, 0, 1, 0, 1, 2, 0] 
 
 Reachable states from S55 [0, 0, 0, 0, 1, 1, 2, 0, 1, 1, 0, 1, 0, 0, 0, 0, 1, 1, 1, 1, 2, 0, 0, 0, 0, 0, 0, 1, 0, 1, 0, 1, 2, 0] 
 T9 => S50 [0, 0, 0, 0, 1, 1, 2, 0, 1, 0, 0, 2, 0, 0, 0, 0, 1, 1, 1, 1, 2, 1, 1, 0, 1, 0, 1, 1, 1, 1, 1, 1, 2, 0] 
