 Minimal siphons 
3 6 9 12 15 18 21 24 25 26 27 28 29
2 6 9 12 15 18 21 24 25 27 28 29
21 23 29
15 17 28
9 11 27
4 5 6
31 8 11
34 8 11 14 17
37 8 11 14 17 20 23
32 14 17
36 14 17 20 23
16 17 18
40 8 11 20 23
10 11 12
35 20 23
22 23 24
7 8 9
31 8 9 11
34 8 9 11 14 17
37 8 9 11 14 17 20 23
40 8 9 11 20 23
31 7 8 9 11
34 7 8 9 11 14 17
37 7 8 9 11 14 17 20 23
40 7 8 9 11 20 23
13 14 15
32 14 15 17
36 14 15 17 20 23
37 8 11 14 15 17 20 23
37 8 9 11 14 15 17 20 23
34 8 11 14 15 17
34 8 9 11 14 15 17
32 13 14 15 17
36 13 14 15 17 20 23
37 8 11 13 14 15 17 20 23
37 8 9 11 13 14 15 17 20 23
34 8 11 13 14 15 17
34 8 9 11 13 14 15 17
19 20 21
35 20 21 23
40 9 11 20 21 23 27
40 8 11 20 21 23
40 8 9 11 20 21 23
37 8 11 14 17 20 21 23
37 8 11 14 15 17 20 21 23
37 8 9 11 14 17 20 21 23
37 8 9 11 14 15 17 20 21 23
36 14 17 20 21 23
36 14 15 17 20 21 23
35 19 20 21 23
40 9 11 19 20 21 23 27
40 8 11 19 20 21 23
40 8 9 11 19 20 21 23
37 8 11 14 17 19 20 21 23
37 8 11 14 15 17 19 20 21 23
37 8 9 11 14 17 19 20 21 23
37 8 9 11 14 15 17 19 20 21 23
36 14 17 19 20 21 23
36 14 15 17 19 20 21 23
30 2 5
33 2 5 15 17 28
38 2 5 9 11 27
39 2 5 20 23
39 2 5 20 21 23
38 2 5 8 11
38 2 5 8 9 11
33 2 5 14 17
33 2 5 14 15 17
2 6 8 12 15 18 21 24 25 28 29
30 2 5 6
33 2 5 6 15 17 28
39 2 5 6 20 23
39 2 5 6 20 21 23
33 2 5 6 14 17
33 2 5 6 14 15 17
31 30 2 5 6 8 11
34 30 2 5 6 8 11 15 17 28
38 2 5 6 8 11
40 39 2 5 6 8 11 20 23
40 39 2 5 6 8 11 20 21 23
40 30 2 5 6 8 11 20 23
40 30 2 5 6 8 11 20 21 23
38 37 2 5 6 8 11 14 17 20 23
38 37 2 5 6 8 11 14 17 20 21 23
38 37 2 5 6 8 11 14 15 17 20 23
38 37 2 5 6 8 11 14 15 17 20 21 23
38 37 2 5 6 8 11 15 17 20 21 23 28
34 33 2 5 6 8 11 15 17 28
38 34 2 5 6 8 11 15 17 28
38 34 2 5 6 8 11 14 17
38 34 2 5 6 8 11 14 15 17
34 33 2 5 6 8 11 14 17
34 33 2 5 6 8 11 14 15 17
34 30 2 5 6 8 11 14 17
34 30 2 5 6 8 11 14 15 17
33 31 2 5 6 8 11 15 17 28
38 31 2 5 6 8 11
39 31 2 5 6 8 11 20 23
39 31 2 5 6 8 11 20 21 23
33 31 2 5 6 8 11 14 17
33 31 2 5 6 8 11 14 15 17
2 6 8 12 14 18 21 24 25 29
31 30 2 5 6 8 11 12
38 2 5 6 8 11 12
40 39 2 5 6 8 11 12 20 23
40 39 2 5 6 8 11 12 20 21 23
40 30 2 5 6 8 11 12 20 23
40 30 2 5 6 8 11 12 20 21 23
38 31 2 5 6 8 11 12
39 31 2 5 6 8 11 12 20 23
39 31 2 5 6 8 11 12 20 21 23
32 31 30 2 5 6 8 11 12 14 17
33 31 2 5 6 8 11 12 14 17
34 30 2 5 6 8 11 12 14 17
38 34 2 5 6 8 11 12 14 17
34 33 2 5 6 8 11 12 14 17
38 33 2 5 6 8 11 12 14 17
37 33 2 5 6 8 11 12 14 17 20 23
37 33 2 5 6 8 11 12 14 17 20 21 23
34 32 30 2 5 6 8 11 12 14 17
38 32 2 5 6 8 11 12 14 17
38 37 32 2 5 6 8 11 12 14 17 20 21 23
34 33 32 2 5 6 8 11 12 14 17
38 34 32 2 5 6 8 11 12 14 17
33 32 31 2 5 6 8 11 12 14 17
38 32 31 2 5 6 8 11 12 14 17
2 6 8 12 14 18 20 24 25
32 31 30 2 5 6 8 11 12 14 17 18
33 31 2 5 6 8 11 12 14 17 18
34 30 2 5 6 8 11 12 14 17 18
38 34 2 5 6 8 11 12 14 17 18
34 33 2 5 6 8 11 12 14 17 18
38 33 2 5 6 8 11 12 14 17 18
34 32 30 2 5 6 8 11 12 14 17 18
38 32 2 5 6 8 11 12 14 17 18
34 33 32 2 5 6 8 11 12 14 17 18
38 34 32 2 5 6 8 11 12 14 17 18
33 32 31 2 5 6 8 11 12 14 17 18
38 32 31 2 5 6 8 11 12 14 17 18
40 39 32 2 5 6 8 11 12 14 17 18 20 23
39 37 2 5 6 8 11 12 14 17 18 20 23
40 39 36 2 5 6 8 11 12 14 17 18 20 23
35 34 33 2 5 6 8 11 12 14 17 18 20 23
37 35 33 2 5 6 8 11 12 14 17 18 20 23
40 39 32 2 5 6 8 11 12 14 17 18 20 23 24
39 37 2 5 6 8 11 12 14 17 18 20 23 24
40 39 36 2 5 6 8 11 12 14 17 18 20 23 24
35 34 33 2 5 6 8 11 12 14 17 18 20 23 24
37 35 33 2 5 6 8 11 12 14 17 18 20 23 24
37 33 2 5 6 8 11 12 14 17 18 20 21 23
35 34 33 2 5 6 8 11 12 14 17 18 20 21 23
36 34 33 2 5 6 8 11 12 14 17 18 20 21 23
37 34 33 2 5 6 8 11 12 14 17 18 20 21 23
36 33 31 2 5 6 8 11 12 14 17 18 20 21 23
37 33 31 2 5 6 8 11 12 14 17 18 20 21 23
40 38 32 2 5 6 8 11 12 14 17 18 20 21 23
37 33 2 5 6 8 11 12 14 17 18 20 21 23 24
35 34 33 2 5 6 8 11 12 14 17 18 20 21 23 24
36 34 33 2 5 6 8 11 12 14 17 18 20 21 23 24
37 34 33 2 5 6 8 11 12 14 17 18 20 21 23 24
35 34 33 2 5 6 8 11 12 14 17 18 19 20 21 23 24
36 34 33 2 5 6 8 11 12 14 17 18 19 20 21 23 24
37 34 33 2 5 6 8 11 12 14 17 18 19 20 21 23 24
36 33 31 2 5 6 8 11 12 14 17 18 20 21 23 24
37 33 31 2 5 6 8 11 12 14 17 18 20 21 23 24
36 33 31 2 5 6 8 11 12 14 17 18 19 20 21 23 24
37 33 31 2 5 6 8 11 12 14 17 18 19 20 21 23 24
40 38 32 2 5 6 8 11 12 14 17 18 20 21 23 24
40 38 32 2 5 6 8 11 12 14 17 18 19 20 21 23 24
38 37 32 2 5 6 8 11 12 14 17 18 20 21 23 24
31 30 2 5 6 8 11 12 15 17 28
34 30 2 5 6 8 11 12 15 17 28
38 2 5 6 8 11 12 15 17 28
38 2 5 6 8 11 12 13 14 15
38 32 2 5 6 8 11 12 14 15 17
38 33 2 5 6 8 11 12 14 15 17
38 37 2 5 6 8 11 12 14 15 17 20 23
38 37 2 5 6 8 11 12 14 15 17 20 21 23
38 37 2 5 6 8 11 12 15 17 20 21 23 28
34 33 2 5 6 8 11 12 15 17 28
38 34 2 5 6 8 11 12 15 17 28
38 34 2 5 6 8 11 12 14 15 17
34 33 2 5 6 8 11 12 14 15 17
34 30 2 5 6 8 11 12 14 15 17
33 31 2 5 6 8 11 12 15 17 28
38 31 2 5 6 8 11 12 15 17 28
38 31 2 5 6 8 11 12 13 14 15
38 32 31 2 5 6 8 11 12 14 15 17
38 34 31 2 5 6 8 11 12 14 15 17
33 31 2 5 6 8 11 12 14 15 17
31 30 2 5 6 8 11 12 13 14 15
32 31 30 2 5 6 8 11 12 14 15 17
33 31 30 2 5 6 8 11 12 14 15 17
34 31 30 2 5 6 8 11 12 14 15 17
2 6 8 12 15 18 20 24 25 28
31 30 2 5 6 8 11 12 15 17 18 28
34 30 2 5 6 8 11 12 15 17 18 28
38 2 5 6 8 11 12 15 17 18 28
38 2 5 6 8 11 12 13 14 15 16 17 18
38 32 2 5 6 8 11 12 14 15 17 18
38 33 2 5 6 8 11 12 14 15 17 18
38 32 2 5 6 8 11 12 13 14 15 17 18
38 33 2 5 6 8 11 12 13 14 15 17 18
34 33 2 5 6 8 11 12 15 17 18 28
38 34 2 5 6 8 11 12 15 17 18 28
38 34 2 5 6 8 11 12 14 15 17 18
34 33 2 5 6 8 11 12 14 15 17 18
34 30 2 5 6 8 11 12 14 15 17 18
33 31 2 5 6 8 11 12 15 17 18 28
38 31 2 5 6 8 11 12 15 17 18 28
38 31 2 5 6 8 11 12 13 14 15 16 17 18
38 32 31 2 5 6 8 11 12 14 15 17 18
38 34 31 2 5 6 8 11 12 14 15 17 18
38 32 31 2 5 6 8 11 12 13 14 15 17 18
38 34 31 2 5 6 8 11 12 13 14 15 17 18
33 31 2 5 6 8 11 12 14 15 17 18
31 30 2 5 6 8 11 12 13 14 15 16 17 18
32 31 30 2 5 6 8 11 12 14 15 17 18
33 31 30 2 5 6 8 11 12 14 15 17 18
34 31 30 2 5 6 8 11 12 14 15 17 18
32 31 30 2 5 6 8 11 12 13 14 15 17 18
33 31 30 2 5 6 8 11 12 13 14 15 17 18
34 31 30 2 5 6 8 11 12 13 14 15 17 18
40 39 32 2 5 6 8 11 12 14 15 17 18 20 23
40 39 32 2 5 6 8 11 12 13 14 15 17 18 20 23
39 37 2 5 6 8 11 12 14 15 17 18 20 23
40 39 36 2 5 6 8 11 12 14 15 17 18 20 23
40 36 30 2 5 6 8 11 12 14 15 17 18 20 23
39 36 31 2 5 6 8 11 12 14 15 17 18 20 23
38 37 35 2 5 6 8 11 12 14 15 17 18 20 23
38 35 34 2 5 6 8 11 12 14 15 17 18 20 23
40 39 32 2 5 6 8 11 12 14 15 17 18 20 23 24
40 39 32 2 5 6 8 11 12 13 14 15 17 18 20 23 24
39 37 2 5 6 8 11 12 14 15 17 18 20 23 24
40 39 36 2 5 6 8 11 12 14 15 17 18 20 23 24
40 36 30 2 5 6 8 11 12 14 15 17 18 20 23 24
39 36 31 2 5 6 8 11 12 14 15 17 18 20 23 24
38 37 35 2 5 6 8 11 12 14 15 17 18 20 23 24
38 35 34 2 5 6 8 11 12 14 15 17 18 20 23 24
40 38 32 2 5 6 8 11 12 14 15 17 18 20 21 23
40 38 32 2 5 6 8 11 12 13 14 15 17 18 20 21 23
38 37 2 5 6 8 11 12 14 15 17 18 20 21 23
38 35 34 2 5 6 8 11 12 14 15 17 18 20 21 23
40 38 34 2 5 6 8 11 12 14 15 17 18 20 21 23
40 34 30 2 5 6 8 11 12 14 15 17 18 20 21 23
39 33 31 2 5 6 8 11 12 14 15 17 18 20 21 23
40 38 32 2 5 6 8 11 12 14 15 17 18 20 21 23 24
40 38 32 2 5 6 8 11 12 14 15 17 18 19 20 21 23 24
40 38 32 2 5 6 8 11 12 13 14 15 17 18 20 21 23 24
40 38 32 2 5 6 8 11 12 13 14 15 17 18 19 20 21 23 24
38 37 2 5 6 8 11 12 14 15 17 18 20 21 23 24
38 37 2 5 6 8 11 12 15 17 18 20 21 23 24 28
38 35 34 2 5 6 8 11 12 14 15 17 18 20 21 23 24
40 38 34 2 5 6 8 11 12 14 15 17 18 20 21 23 24
38 35 34 2 5 6 8 11 12 14 15 17 18 19 20 21 23 24
40 38 34 2 5 6 8 11 12 14 15 17 18 19 20 21 23 24
40 34 30 2 5 6 8 11 12 14 15 17 18 20 21 23 24
40 34 30 2 5 6 8 11 12 14 15 17 18 19 20 21 23 24
39 33 31 2 5 6 8 11 12 14 15 17 18 20 21 23 24
39 33 31 2 5 6 8 11 12 14 15 17 18 19 20 21 23 24
30 2 5 6 9 11 27
33 2 5 6 9 11 15 17 27 28
38 2 5 6 9 11 27
39 2 5 6 7 8 9 20 23
39 2 5 6 7 8 9 20 21 23
39 2 5 6 9 11 20 23 27
39 31 2 5 6 8 9 11 20 23
40 39 2 5 6 8 9 11 20 23
40 39 2 5 6 8 9 11 20 21 23
39 31 2 5 6 8 9 11 20 21 23
39 2 5 6 9 11 20 21 23 27
38 2 5 6 8 9 11
33 2 5 6 7 8 9 15 17 28
33 2 5 6 7 8 9 14 17
33 2 5 6 7 8 9 14 15 17
33 2 5 6 9 11 14 17 27
33 31 2 5 6 8 9 11 14 17
34 33 2 5 6 8 9 11 14 17
38 33 2 5 6 8 9 11 14 17
33 31 2 5 6 8 9 11 15 17 28
34 33 2 5 6 8 9 11 15 17 28
38 33 2 5 6 8 9 11 15 17 28
38 33 2 5 6 8 9 11 14 15 17
34 33 2 5 6 8 9 11 14 15 17
33 31 2 5 6 8 9 11 14 15 17
33 2 5 6 9 11 14 15 17 27
30 2 5 6 7 8 9
31 30 2 5 6 8 9 11
34 30 2 5 6 8 9 11 15 17 28
38 30 2 5 6 8 9 11
40 30 2 5 6 8 9 11 20 23
40 30 2 5 6 8 9 11 20 21 23
34 30 2 5 6 8 9 11 14 17
34 30 2 5 6 8 9 11 14 15 17
2 6 9 12 14 18 21 24 25 27 29
30 2 5 6 9 11 12 27
38 2 5 6 9 11 12 27
39 2 5 6 9 11 12 20 23 27
39 2 5 6 7 8 9 10 11 12 20 23
39 31 2 5 6 8 9 11 12 20 23
40 39 2 5 6 8 9 11 12 20 23
39 31 2 5 6 7 8 9 11 12 20 23
40 39 2 5 6 7 8 9 11 12 20 23
40 39 2 5 6 8 9 11 12 20 21 23
39 31 2 5 6 8 9 11 12 20 21 23
40 39 2 5 6 7 8 9 11 12 20 21 23
39 31 2 5 6 7 8 9 11 12 20 21 23
39 2 5 6 7 8 9 10 11 12 20 21 23
39 2 5 6 9 11 12 20 21 23 27
38 2 5 6 8 9 11 12
30 2 5 6 7 8 9 10 11 12
31 30 2 5 6 8 9 11 12
38 30 2 5 6 8 9 11 12
40 30 2 5 6 8 9 11 12 20 23
40 30 2 5 6 8 9 11 12 20 21 23
31 30 2 5 6 7 8 9 11 12
38 30 2 5 6 7 8 9 11 12
40 30 2 5 6 7 8 9 11 12 20 23
40 30 2 5 6 7 8 9 11 12 20 21 23
32 30 2 5 6 9 11 12 14 17 27
33 2 5 6 9 11 12 14 17 27
34 30 2 5 6 9 11 12 14 17 27
38 34 2 5 6 9 11 12 14 17 27
38 34 2 5 6 8 9 11 12 14 17
34 30 2 5 6 8 9 11 12 14 17
33 2 5 6 7 8 9 10 11 12 14 17
33 31 2 5 6 8 9 11 12 14 17
34 33 2 5 6 8 9 11 12 14 17
38 33 2 5 6 8 9 11 12 14 17
37 33 2 5 6 8 9 11 12 14 17 20 23
37 33 2 5 6 8 9 11 12 14 17 20 21 23
33 31 2 5 6 7 8 9 11 12 14 17
34 33 2 5 6 7 8 9 11 12 14 17
38 33 2 5 6 7 8 9 11 12 14 17
37 33 2 5 6 7 8 9 11 12 14 17 20 23
37 33 2 5 6 7 8 9 11 12 14 17 20 21 23
33 32 2 5 6 9 11 12 14 17 27
38 32 2 5 6 9 11 12 14 17 27
38 32 2 5 6 8 9 11 12 14 17
33 32 2 5 6 7 8 9 10 11 12 14 17
33 32 31 2 5 6 8 9 11 12 14 17
34 33 32 2 5 6 8 9 11 12 14 17
38 33 32 2 5 6 8 9 11 12 14 17
33 32 31 2 5 6 7 8 9 11 12 14 17
34 33 32 2 5 6 7 8 9 11 12 14 17
38 33 32 2 5 6 7 8 9 11 12 14 17
32 30 2 5 6 7 8 9 10 11 12 14 17
32 31 30 2 5 6 8 9 11 12 14 17
34 32 30 2 5 6 8 9 11 12 14 17
38 32 30 2 5 6 8 9 11 12 14 17
32 31 30 2 5 6 7 8 9 11 12 14 17
34 32 30 2 5 6 7 8 9 11 12 14 17
38 32 30 2 5 6 7 8 9 11 12 14 17
2 6 9 12 14 18 20 24 25 27
32 30 2 5 6 9 11 12 14 17 18 27
33 2 5 6 9 11 12 14 17 18 27
34 30 2 5 6 9 11 12 14 17 18 27
38 34 2 5 6 9 11 12 14 17 18 27
38 34 2 5 6 8 9 11 12 14 17 18
34 30 2 5 6 8 9 11 12 14 17 18
33 2 5 6 7 8 9 10 11 12 14 17 18
33 31 2 5 6 8 9 11 12 14 17 18
34 33 2 5 6 8 9 11 12 14 17 18
38 33 2 5 6 8 9 11 12 14 17 18
33 31 2 5 6 7 8 9 11 12 14 17 18
34 33 2 5 6 7 8 9 11 12 14 17 18
38 33 2 5 6 7 8 9 11 12 14 17 18
33 32 2 5 6 9 11 12 14 17 18 27
38 32 2 5 6 9 11 12 14 17 18 27
38 32 2 5 6 8 9 11 12 14 17 18
33 32 2 5 6 7 8 9 10 11 12 14 17 18
33 32 31 2 5 6 8 9 11 12 14 17 18
34 33 32 2 5 6 8 9 11 12 14 17 18
38 33 32 2 5 6 8 9 11 12 14 17 18
33 32 31 2 5 6 7 8 9 11 12 14 17 18
34 33 32 2 5 6 7 8 9 11 12 14 17 18
38 33 32 2 5 6 7 8 9 11 12 14 17 18
32 30 2 5 6 7 8 9 10 11 12 14 17 18
32 31 30 2 5 6 8 9 11 12 14 17 18
34 32 30 2 5 6 8 9 11 12 14 17 18
38 32 30 2 5 6 8 9 11 12 14 17 18
32 31 30 2 5 6 7 8 9 11 12 14 17 18
34 32 30 2 5 6 7 8 9 11 12 14 17 18
38 32 30 2 5 6 7 8 9 11 12 14 17 18
40 39 32 2 5 6 8 9 11 12 14 17 18 20 23
40 39 32 2 5 6 7 8 9 11 12 14 17 18 20 23
39 37 2 5 6 8 9 11 12 14 17 18 20 23
40 39 36 2 5 6 8 9 11 12 14 17 18 20 23
40 39 36 2 5 6 7 8 9 11 12 14 17 18 20 23
35 34 33 2 5 6 8 9 11 12 14 17 18 20 23
37 35 33 2 5 6 8 9 11 12 14 17 18 20 23
35 34 33 2 5 6 7 8 9 11 12 14 17 18 20 23
37 35 33 2 5 6 7 8 9 11 12 14 17 18 20 23
40 39 32 2 5 6 8 9 11 12 14 17 18 20 23 24
40 39 32 2 5 6 7 8 9 11 12 14 17 18 20 23 24
39 37 2 5 6 8 9 11 12 14 17 18 20 23 24
40 39 36 2 5 6 8 9 11 12 14 17 18 20 23 24
40 39 36 2 5 6 7 8 9 11 12 14 17 18 20 23 24
35 34 33 2 5 6 8 9 11 12 14 17 18 20 23 24
37 35 33 2 5 6 8 9 11 12 14 17 18 20 23 24
35 34 33 2 5 6 7 8 9 11 12 14 17 18 20 23 24
37 35 33 2 5 6 7 8 9 11 12 14 17 18 20 23 24
36 34 30 2 5 6 8 9 11 12 14 17 18 20 21 23
37 33 2 5 6 8 9 11 12 14 17 18 20 21 23
35 34 33 2 5 6 8 9 11 12 14 17 18 20 21 23
36 34 33 2 5 6 8 9 11 12 14 17 18 20 21 23
37 34 33 2 5 6 8 9 11 12 14 17 18 20 21 23
36 33 31 2 5 6 8 9 11 12 14 17 18 20 21 23
37 33 31 2 5 6 8 9 11 12 14 17 18 20 21 23
37 33 2 5 6 7 8 9 11 12 14 17 18 20 21 23
35 34 33 2 5 6 7 8 9 11 12 14 17 18 20 21 23
36 34 33 2 5 6 7 8 9 11 12 14 17 18 20 21 23
37 34 33 2 5 6 7 8 9 11 12 14 17 18 20 21 23
36 33 31 2 5 6 7 8 9 11 12 14 17 18 20 21 23
37 33 31 2 5 6 7 8 9 11 12 14 17 18 20 21 23
37 33 2 5 6 7 8 9 10 11 12 14 17 18 20 21 23
39 38 32 2 5 6 8 9 11 12 14 17 18 20 21 23
36 34 30 2 5 6 8 9 11 12 14 17 18 20 21 23 24
36 34 30 2 5 6 8 9 11 12 14 17 18 19 20 21 23 24
37 33 2 5 6 8 9 11 12 14 17 18 20 21 23 24
35 34 33 2 5 6 8 9 11 12 14 17 18 20 21 23 24
36 34 33 2 5 6 8 9 11 12 14 17 18 20 21 23 24
37 34 33 2 5 6 8 9 11 12 14 17 18 20 21 23 24
35 34 33 2 5 6 8 9 11 12 14 17 18 19 20 21 23 24
36 34 33 2 5 6 8 9 11 12 14 17 18 19 20 21 23 24
37 34 33 2 5 6 8 9 11 12 14 17 18 19 20 21 23 24
36 33 31 2 5 6 8 9 11 12 14 17 18 20 21 23 24
37 33 31 2 5 6 8 9 11 12 14 17 18 20 21 23 24
36 33 31 2 5 6 8 9 11 12 14 17 18 19 20 21 23 24
37 33 31 2 5 6 8 9 11 12 14 17 18 19 20 21 23 24
37 33 2 5 6 7 8 9 11 12 14 17 18 20 21 23 24
35 34 33 2 5 6 7 8 9 11 12 14 17 18 20 21 23 24
36 34 33 2 5 6 7 8 9 11 12 14 17 18 20 21 23 24
37 34 33 2 5 6 7 8 9 11 12 14 17 18 20 21 23 24
35 34 33 2 5 6 7 8 9 11 12 14 17 18 19 20 21 23 24
36 34 33 2 5 6 7 8 9 11 12 14 17 18 19 20 21 23 24
37 34 33 2 5 6 7 8 9 11 12 14 17 18 19 20 21 23 24
36 33 31 2 5 6 7 8 9 11 12 14 17 18 20 21 23 24
37 33 31 2 5 6 7 8 9 11 12 14 17 18 20 21 23 24
36 33 31 2 5 6 7 8 9 11 12 14 17 18 19 20 21 23 24
37 33 31 2 5 6 7 8 9 11 12 14 17 18 19 20 21 23 24
37 33 2 5 6 7 8 9 10 11 12 14 17 18 20 21 23 24
37 33 2 5 6 7 8 9 10 11 12 14 17 18 19 20 21 23 24
39 38 32 2 5 6 8 9 11 12 14 17 18 20 21 23 24
39 38 32 2 5 6 8 9 11 12 14 17 18 19 20 21 23 24
30 2 5 6 9 11 12 15 17 27 28
33 2 5 6 9 11 12 15 17 27 28
38 2 5 6 9 11 12 15 17 27 28
38 2 5 6 9 11 12 13 14 15 27
38 2 5 6 8 9 11 12 13 14 15
38 2 5 6 8 9 11 12 15 17 28
38 32 2 5 6 8 9 11 12 14 15 17
38 34 2 5 6 8 9 11 12 14 15 17
38 32 2 5 6 9 11 12 14 15 17 27
38 34 2 5 6 9 11 12 14 15 17 27
33 2 5 6 7 8 9 10 11 12 15 17 28
33 31 2 5 6 8 9 11 12 15 17 28
34 33 2 5 6 8 9 11 12 15 17 28
38 33 2 5 6 8 9 11 12 15 17 28
38 33 2 5 6 8 9 11 12 14 15 17
34 33 2 5 6 8 9 11 12 14 15 17
33 31 2 5 6 8 9 11 12 14 15 17
33 31 2 5 6 7 8 9 11 12 15 17 28
34 33 2 5 6 7 8 9 11 12 15 17 28
38 33 2 5 6 7 8 9 11 12 15 17 28
38 33 2 5 6 7 8 9 11 12 14 15 17
34 33 2 5 6 7 8 9 11 12 14 15 17
33 31 2 5 6 7 8 9 11 12 14 15 17
33 2 5 6 7 8 9 10 11 12 14 15 17
33 2 5 6 9 11 12 14 15 17 27
30 2 5 6 9 11 12 13 14 15 27
30 2 5 6 7 8 9 10 11 12 13 14 15
31 30 2 5 6 8 9 11 12 13 14 15
38 30 2 5 6 8 9 11 12 13 14 15
31 30 2 5 6 7 8 9 11 12 13 14 15
38 30 2 5 6 7 8 9 11 12 13 14 15
30 2 5 6 7 8 9 10 11 12 15 17 28
31 30 2 5 6 8 9 11 12 15 17 28
34 30 2 5 6 8 9 11 12 15 17 28
38 30 2 5 6 8 9 11 12 15 17 28
38 32 30 2 5 6 8 9 11 12 14 15 17
38 33 30 2 5 6 8 9 11 12 14 15 17
34 30 2 5 6 8 9 11 12 14 15 17
32 31 30 2 5 6 8 9 11 12 14 15 17
33 31 30 2 5 6 8 9 11 12 14 15 17
34 31 30 2 5 6 8 9 11 12 14 15 17
31 30 2 5 6 7 8 9 11 12 15 17 28
34 30 2 5 6 7 8 9 11 12 15 17 28
38 30 2 5 6 7 8 9 11 12 15 17 28
38 32 30 2 5 6 7 8 9 11 12 14 15 17
38 33 30 2 5 6 7 8 9 11 12 14 15 17
34 30 2 5 6 7 8 9 11 12 14 15 17
32 31 30 2 5 6 7 8 9 11 12 14 15 17
33 31 30 2 5 6 7 8 9 11 12 14 15 17
34 31 30 2 5 6 7 8 9 11 12 14 15 17
32 30 2 5 6 7 8 9 10 11 12 14 15 17
33 30 2 5 6 7 8 9 10 11 12 14 15 17
34 30 2 5 6 7 8 9 10 11 12 14 15 17
32 30 2 5 6 9 11 12 14 15 17 27
33 30 2 5 6 9 11 12 14 15 17 27
34 30 2 5 6 9 11 12 14 15 17 27
2 6 9 12 15 18 20 24 25 27 28
30 2 5 6 9 11 12 15 17 18 27 28
33 2 5 6 9 11 12 15 17 18 27 28
38 2 5 6 9 11 12 15 17 18 27 28
38 2 5 6 8 9 11 12 15 17 18 28
38 2 5 6 8 9 11 12 13 14 15 16 17 18
38 32 2 5 6 8 9 11 12 14 15 17 18
38 34 2 5 6 8 9 11 12 14 15 17 18
38 32 2 5 6 8 9 11 12 13 14 15 17 18
38 34 2 5 6 8 9 11 12 13 14 15 17 18
38 2 5 6 9 11 12 13 14 15 16 17 18 27
38 32 2 5 6 9 11 12 14 15 17 18 27
38 34 2 5 6 9 11 12 14 15 17 18 27
38 32 2 5 6 9 11 12 13 14 15 17 18 27
38 34 2 5 6 9 11 12 13 14 15 17 18 27
33 2 5 6 7 8 9 10 11 12 15 17 18 28
33 31 2 5 6 8 9 11 12 15 17 18 28
34 33 2 5 6 8 9 11 12 15 17 18 28
38 33 2 5 6 8 9 11 12 15 17 18 28
38 33 2 5 6 8 9 11 12 14 15 17 18
34 33 2 5 6 8 9 11 12 14 15 17 18
33 31 2 5 6 8 9 11 12 14 15 17 18
33 31 2 5 6 7 8 9 11 12 15 17 18 28
34 33 2 5 6 7 8 9 11 12 15 17 18 28
38 33 2 5 6 7 8 9 11 12 15 17 18 28
38 33 2 5 6 7 8 9 11 12 14 15 17 18
34 33 2 5 6 7 8 9 11 12 14 15 17 18
33 31 2 5 6 7 8 9 11 12 14 15 17 18
33 2 5 6 7 8 9 10 11 12 14 15 17 18
33 2 5 6 9 11 12 14 15 17 18 27
30 2 5 6 7 8 9 10 11 12 15 17 18 28
31 30 2 5 6 8 9 11 12 15 17 18 28
34 30 2 5 6 8 9 11 12 15 17 18 28
38 30 2 5 6 8 9 11 12 15 17 18 28
38 30 2 5 6 8 9 11 12 13 14 15 16 17 18
38 32 30 2 5 6 8 9 11 12 14 15 17 18
38 33 30 2 5 6 8 9 11 12 14 15 17 18
38 32 30 2 5 6 8 9 11 12 13 14 15 17 18
38 33 30 2 5 6 8 9 11 12 13 14 15 17 18
34 30 2 5 6 8 9 11 12 14 15 17 18
31 30 2 5 6 8 9 11 12 13 14 15 16 17 18
32 31 30 2 5 6 8 9 11 12 14 15 17 18
33 31 30 2 5 6 8 9 11 12 14 15 17 18
34 31 30 2 5 6 8 9 11 12 14 15 17 18
32 31 30 2 5 6 8 9 11 12 13 14 15 17 18
33 31 30 2 5 6 8 9 11 12 13 14 15 17 18
34 31 30 2 5 6 8 9 11 12 13 14 15 17 18
31 30 2 5 6 7 8 9 11 12 15 17 18 28
34 30 2 5 6 7 8 9 11 12 15 17 18 28
38 30 2 5 6 7 8 9 11 12 15 17 18 28
38 30 2 5 6 7 8 9 11 12 13 14 15 16 17 18
38 32 30 2 5 6 7 8 9 11 12 14 15 17 18
38 33 30 2 5 6 7 8 9 11 12 14 15 17 18
38 32 30 2 5 6 7 8 9 11 12 13 14 15 17 18
38 33 30 2 5 6 7 8 9 11 12 13 14 15 17 18
34 30 2 5 6 7 8 9 11 12 14 15 17 18
31 30 2 5 6 7 8 9 11 12 13 14 15 16 17 18
32 31 30 2 5 6 7 8 9 11 12 14 15 17 18
33 31 30 2 5 6 7 8 9 11 12 14 15 17 18
34 31 30 2 5 6 7 8 9 11 12 14 15 17 18
32 31 30 2 5 6 7 8 9 11 12 13 14 15 17 18
33 31 30 2 5 6 7 8 9 11 12 13 14 15 17 18
34 31 30 2 5 6 7 8 9 11 12 13 14 15 17 18
30 2 5 6 7 8 9 10 11 12 13 14 15 16 17 18
32 30 2 5 6 7 8 9 10 11 12 14 15 17 18
33 30 2 5 6 7 8 9 10 11 12 14 15 17 18
34 30 2 5 6 7 8 9 10 11 12 14 15 17 18
32 30 2 5 6 7 8 9 10 11 12 13 14 15 17 18
33 30 2 5 6 7 8 9 10 11 12 13 14 15 17 18
34 30 2 5 6 7 8 9 10 11 12 13 14 15 17 18
30 2 5 6 9 11 12 13 14 15 16 17 18 27
32 30 2 5 6 9 11 12 14 15 17 18 27
33 30 2 5 6 9 11 12 14 15 17 18 27
34 30 2 5 6 9 11 12 14 15 17 18 27
32 30 2 5 6 9 11 12 13 14 15 17 18 27
33 30 2 5 6 9 11 12 13 14 15 17 18 27
34 30 2 5 6 9 11 12 13 14 15 17 18 27
40 39 32 2 5 6 8 9 11 12 14 15 17 18 20 23
40 39 32 2 5 6 8 9 11 12 13 14 15 17 18 20 23
40 39 32 2 5 6 7 8 9 11 12 14 15 17 18 20 23
40 39 32 2 5 6 7 8 9 11 12 13 14 15 17 18 20 23
39 37 2 5 6 8 9 11 12 14 15 17 18 20 23
39 37 2 5 6 9 11 12 14 15 17 18 20 23 27
40 39 36 2 5 6 8 9 11 12 14 15 17 18 20 23
39 36 31 2 5 6 8 9 11 12 14 15 17 18 20 23
40 39 36 2 5 6 7 8 9 11 12 14 15 17 18 20 23
39 36 31 2 5 6 7 8 9 11 12 14 15 17 18 20 23
39 36 2 5 6 7 8 9 10 11 12 14 15 17 18 20 23
39 36 2 5 6 9 11 12 14 15 17 18 20 23 27
40 36 30 2 5 6 8 9 11 12 14 15 17 18 20 23
40 36 30 2 5 6 7 8 9 11 12 14 15 17 18 20 23
38 35 33 2 5 6 8 9 11 12 14 15 17 18 20 23
38 35 33 2 5 6 7 8 9 11 12 14 15 17 18 20 23
40 39 32 2 5 6 8 9 11 12 14 15 17 18 20 23 24
40 39 32 2 5 6 8 9 11 12 13 14 15 17 18 20 23 24
40 39 32 2 5 6 7 8 9 11 12 14 15 17 18 20 23 24
40 39 32 2 5 6 7 8 9 11 12 13 14 15 17 18 20 23 24
39 37 2 5 6 8 9 11 12 14 15 17 18 20 23 24
39 37 2 5 6 9 11 12 14 15 17 18 20 23 24 27
40 39 36 2 5 6 8 9 11 12 14 15 17 18 20 23 24
39 36 31 2 5 6 8 9 11 12 14 15 17 18 20 23 24
40 39 36 2 5 6 7 8 9 11 12 14 15 17 18 20 23 24
39 36 31 2 5 6 7 8 9 11 12 14 15 17 18 20 23 24
39 36 2 5 6 7 8 9 10 11 12 14 15 17 18 20 23 24
39 36 2 5 6 9 11 12 14 15 17 18 20 23 24 27
40 36 30 2 5 6 8 9 11 12 14 15 17 18 20 23 24
40 36 30 2 5 6 7 8 9 11 12 14 15 17 18 20 23 24
38 35 33 2 5 6 8 9 11 12 14 15 17 18 20 23 24
38 35 33 2 5 6 7 8 9 11 12 14 15 17 18 20 23 24
39 38 32 2 5 6 8 9 11 12 14 15 17 18 20 21 23
39 38 32 2 5 6 8 9 11 12 13 14 15 17 18 20 21 23
38 35 33 2 5 6 8 9 11 12 14 15 17 18 20 21 23
39 38 33 2 5 6 8 9 11 12 14 15 17 18 20 21 23
39 33 31 2 5 6 8 9 11 12 14 15 17 18 20 21 23
38 35 33 2 5 6 7 8 9 11 12 14 15 17 18 20 21 23
39 38 33 2 5 6 7 8 9 11 12 14 15 17 18 20 21 23
39 33 31 2 5 6 7 8 9 11 12 14 15 17 18 20 21 23
39 33 2 5 6 7 8 9 10 11 12 14 15 17 18 20 21 23
39 33 2 5 6 9 11 12 14 15 17 18 20 21 23 27
40 34 30 2 5 6 8 9 11 12 14 15 17 18 20 21 23
40 34 30 2 5 6 7 8 9 11 12 14 15 17 18 20 21 23
39 38 32 2 5 6 8 9 11 12 14 15 17 18 20 21 23 24
39 38 32 2 5 6 8 9 11 12 14 15 17 18 19 20 21 23 24
39 38 32 2 5 6 8 9 11 12 13 14 15 17 18 20 21 23 24
39 38 32 2 5 6 8 9 11 12 13 14 15 17 18 19 20 21 23 24
38 35 33 2 5 6 8 9 11 12 14 15 17 18 20 21 23 24
39 38 33 2 5 6 8 9 11 12 14 15 17 18 20 21 23 24
38 35 33 2 5 6 8 9 11 12 14 15 17 18 19 20 21 23 24
39 38 33 2 5 6 8 9 11 12 14 15 17 18 19 20 21 23 24
39 33 31 2 5 6 8 9 11 12 14 15 17 18 20 21 23 24
39 33 31 2 5 6 8 9 11 12 14 15 17 18 19 20 21 23 24
38 35 33 2 5 6 7 8 9 11 12 14 15 17 18 20 21 23 24
39 38 33 2 5 6 7 8 9 11 12 14 15 17 18 20 21 23 24
38 35 33 2 5 6 7 8 9 11 12 14 15 17 18 19 20 21 23 24
39 38 33 2 5 6 7 8 9 11 12 14 15 17 18 19 20 21 23 24
39 33 31 2 5 6 7 8 9 11 12 14 15 17 18 20 21 23 24
39 33 31 2 5 6 7 8 9 11 12 14 15 17 18 19 20 21 23 24
39 33 2 5 6 7 8 9 10 11 12 14 15 17 18 20 21 23 24
39 33 2 5 6 7 8 9 10 11 12 14 15 17 18 19 20 21 23 24
39 33 2 5 6 9 11 12 14 15 17 18 20 21 23 24 27
39 33 2 5 6 9 11 12 14 15 17 18 19 20 21 23 24 27
40 34 30 2 5 6 8 9 11 12 14 15 17 18 20 21 23 24
40 34 30 2 5 6 8 9 11 12 14 15 17 18 19 20 21 23 24
40 34 30 2 5 6 7 8 9 11 12 14 15 17 18 20 21 23 24
40 34 30 2 5 6 7 8 9 11 12 14 15 17 18 19 20 21 23 24
3 5 26
1 2 3
30 2 3 5
33 2 3 5 15 17 28
38 2 3 5 9 11 27
39 2 3 5 20 23
39 2 3 5 20 21 23
38 2 3 5 8 11
38 2 3 5 8 9 11
33 2 3 5 14 17
33 2 3 5 14 15 17
3 6 8 12 15 18 21 24 25 26 28 29
3 5 6 26
30 2 3 5 6
33 2 3 5 6 15 17 28
1 2 3 4 5 6
39 2 3 5 6 20 23
39 2 3 5 6 20 21 23
33 2 3 5 6 14 17
33 2 3 5 6 14 15 17
31 3 5 6 8 11 26
34 3 5 6 8 11 15 17 26 28
38 3 5 6 8 11 26
40 3 5 6 8 11 20 23 26
40 30 2 3 5 6 8 11 20 23
40 39 2 3 5 6 8 11 20 23
1 40 2 3 4 5 6 8 11 20 23
1 40 2 3 4 5 6 8 11 20 21 23
40 39 2 3 5 6 8 11 20 21 23
40 30 2 3 5 6 8 11 20 21 23
40 3 5 6 8 11 20 21 23 26
38 2 3 5 6 8 11
38 37 2 3 5 6 8 11 14 17 20 23
38 37 2 3 5 6 8 11 14 17 20 21 23
38 37 2 3 5 6 8 11 14 15 17 20 23
38 37 2 3 5 6 8 11 14 15 17 20 21 23
38 37 2 3 5 6 8 11 15 17 20 21 23 28
34 3 5 6 8 11 14 17 26
34 30 2 3 5 6 8 11 14 17
34 33 2 3 5 6 8 11 14 17
38 34 2 3 5 6 8 11 14 17
1 34 2 3 4 5 6 8 11 14 17
34 30 2 3 5 6 8 11 15 17 28
34 33 2 3 5 6 8 11 15 17 28
38 34 2 3 5 6 8 11 15 17 28
1 34 2 3 4 5 6 8 11 15 17 28
1 34 2 3 4 5 6 8 11 14 15 17
38 34 2 3 5 6 8 11 14 15 17
34 33 2 3 5 6 8 11 14 15 17
34 30 2 3 5 6 8 11 14 15 17
34 3 5 6 8 11 14 15 17 26
31 30 2 3 5 6 8 11
33 31 2 3 5 6 8 11 15 17 28
38 31 2 3 5 6 8 11
1 31 2 3 4 5 6 8 11
39 31 2 3 5 6 8 11 20 23
39 31 2 3 5 6 8 11 20 21 23
33 31 2 3 5 6 8 11 14 17
33 31 2 3 5 6 8 11 14 15 17
3 6 8 12 14 18 21 24 25 26 29
31 3 5 6 8 11 12 26
38 3 5 6 8 11 12 26
40 3 5 6 8 11 12 20 23 26
40 30 2 3 5 6 8 11 12 20 23
40 39 2 3 5 6 8 11 12 20 23
1 40 2 3 4 5 6 8 11 12 20 23
1 40 2 3 4 5 6 8 11 12 20 21 23
40 39 2 3 5 6 8 11 12 20 21 23
40 30 2 3 5 6 8 11 12 20 21 23
40 3 5 6 8 11 12 20 21 23 26
38 2 3 5 6 8 11 12
31 30 2 3 5 6 8 11 12
38 31 2 3 5 6 8 11 12
1 31 2 3 4 5 6 8 11 12
39 31 2 3 5 6 8 11 12 20 23
39 31 2 3 5 6 8 11 12 20 21 23
32 31 3 5 6 8 11 12 14 17 26
33 31 3 5 6 8 11 12 14 17 26
34 3 5 6 8 11 12 14 17 26
34 30 2 3 5 6 8 11 12 14 17
38 34 2 3 5 6 8 11 12 14 17
1 34 2 3 4 5 6 8 11 12 14 17
34 33 3 5 6 8 11 12 14 17 26
38 33 3 5 6 8 11 12 14 17 26
38 33 2 3 5 6 8 11 12 14 17
37 33 2 3 5 6 8 11 12 14 17 20 23
37 33 2 3 5 6 8 11 12 14 17 20 21 23
34 33 2 3 5 6 8 11 12 14 17
33 31 2 3 5 6 8 11 12 14 17
34 32 3 5 6 8 11 12 14 17 26
38 32 3 5 6 8 11 12 14 17 26
38 32 2 3 5 6 8 11 12 14 17
38 37 32 2 3 5 6 8 11 12 14 17 20 21 23
34 32 30 2 3 5 6 8 11 12 14 17
34 33 32 2 3 5 6 8 11 12 14 17
38 34 32 2 3 5 6 8 11 12 14 17
1 34 32 2 3 4 5 6 8 11 12 14 17
32 31 30 2 3 5 6 8 11 12 14 17
33 32 31 2 3 5 6 8 11 12 14 17
38 32 31 2 3 5 6 8 11 12 14 17
1 32 31 2 3 4 5 6 8 11 12 14 17
3 6 8 12 14 18 20 24 25 26
32 31 3 5 6 8 11 12 14 17 18 26
33 31 3 5 6 8 11 12 14 17 18 26
34 3 5 6 8 11 12 14 17 18 26
34 30 2 3 5 6 8 11 12 14 17 18
38 34 2 3 5 6 8 11 12 14 17 18
1 34 2 3 4 5 6 8 11 12 14 17 18
34 33 3 5 6 8 11 12 14 17 18 26
38 33 3 5 6 8 11 12 14 17 18 26
38 33 2 3 5 6 8 11 12 14 17 18
34 33 2 3 5 6 8 11 12 14 17 18
33 31 2 3 5 6 8 11 12 14 17 18
34 32 3 5 6 8 11 12 14 17 18 26
38 32 3 5 6 8 11 12 14 17 18 26
38 32 2 3 5 6 8 11 12 14 17 18
34 32 30 2 3 5 6 8 11 12 14 17 18
34 33 32 2 3 5 6 8 11 12 14 17 18
38 34 32 2 3 5 6 8 11 12 14 17 18
1 34 32 2 3 4 5 6 8 11 12 14 17 18
32 31 30 2 3 5 6 8 11 12 14 17 18
33 32 31 2 3 5 6 8 11 12 14 17 18
38 32 31 2 3 5 6 8 11 12 14 17 18
1 32 31 2 3 4 5 6 8 11 12 14 17 18
40 39 32 2 3 5 6 8 11 12 14 17 18 20 23
39 37 2 3 5 6 8 11 12 14 17 18 20 23
40 39 36 2 3 5 6 8 11 12 14 17 18 20 23
37 35 33 2 3 5 6 8 11 12 14 17 18 20 23
35 34 33 2 3 5 6 8 11 12 14 17 18 20 23
40 39 32 2 3 5 6 8 11 12 14 17 18 20 23 24
39 37 2 3 5 6 8 11 12 14 17 18 20 23 24
40 39 36 2 3 5 6 8 11 12 14 17 18 20 23 24
37 35 33 2 3 5 6 8 11 12 14 17 18 20 23 24
35 34 33 2 3 5 6 8 11 12 14 17 18 20 23 24
37 33 2 3 5 6 8 11 12 14 17 18 20 21 23
35 34 33 2 3 5 6 8 11 12 14 17 18 20 21 23
36 34 33 2 3 5 6 8 11 12 14 17 18 20 21 23
37 34 33 2 3 5 6 8 11 12 14 17 18 20 21 23
36 33 31 2 3 5 6 8 11 12 14 17 18 20 21 23
37 33 31 2 3 5 6 8 11 12 14 17 18 20 21 23
40 38 32 2 3 5 6 8 11 12 14 17 18 20 21 23
37 33 2 3 5 6 8 11 12 14 17 18 20 21 23 24
35 34 33 2 3 5 6 8 11 12 14 17 18 20 21 23 24
36 34 33 2 3 5 6 8 11 12 14 17 18 20 21 23 24
37 34 33 2 3 5 6 8 11 12 14 17 18 20 21 23 24
35 34 33 2 3 5 6 8 11 12 14 17 18 19 20 21 23 24
36 34 33 2 3 5 6 8 11 12 14 17 18 19 20 21 23 24
37 34 33 2 3 5 6 8 11 12 14 17 18 19 20 21 23 24
36 33 31 2 3 5 6 8 11 12 14 17 18 20 21 23 24
37 33 31 2 3 5 6 8 11 12 14 17 18 20 21 23 24
36 33 31 2 3 5 6 8 11 12 14 17 18 19 20 21 23 24
37 33 31 2 3 5 6 8 11 12 14 17 18 19 20 21 23 24
40 38 32 2 3 5 6 8 11 12 14 17 18 20 21 23 24
40 38 32 2 3 5 6 8 11 12 14 17 18 19 20 21 23 24
38 37 32 2 3 5 6 8 11 12 14 17 18 20 21 23 24
31 3 5 6 8 11 12 15 17 26 28
34 3 5 6 8 11 12 15 17 26 28
38 3 5 6 8 11 12 15 17 26 28
38 3 5 6 8 11 12 13 14 15 26
38 2 3 5 6 8 11 12 13 14 15
38 2 3 5 6 8 11 12 15 17 28
38 32 2 3 5 6 8 11 12 14 15 17
38 33 2 3 5 6 8 11 12 14 15 17
38 32 3 5 6 8 11 12 14 15 17 26
38 33 3 5 6 8 11 12 14 15 17 26
38 37 2 3 5 6 8 11 12 14 15 17 20 23
38 37 2 3 5 6 8 11 12 14 15 17 20 21 23
38 37 2 3 5 6 8 11 12 15 17 20 21 23 28
34 30 2 3 5 6 8 11 12 15 17 28
34 33 2 3 5 6 8 11 12 15 17 28
38 34 2 3 5 6 8 11 12 15 17 28
1 34 2 3 4 5 6 8 11 12 15 17 28
1 34 2 3 4 5 6 8 11 12 14 15 17
38 34 2 3 5 6 8 11 12 14 15 17
34 33 2 3 5 6 8 11 12 14 15 17
34 30 2 3 5 6 8 11 12 14 15 17
34 3 5 6 8 11 12 14 15 17 26
31 3 5 6 8 11 12 13 14 15 26
31 30 2 3 5 6 8 11 12 13 14 15
38 31 2 3 5 6 8 11 12 13 14 15
1 31 2 3 4 5 6 8 11 12 13 14 15
31 30 2 3 5 6 8 11 12 15 17 28
33 31 2 3 5 6 8 11 12 15 17 28
38 31 2 3 5 6 8 11 12 15 17 28
1 31 2 3 4 5 6 8 11 12 15 17 28
1 32 31 2 3 4 5 6 8 11 12 14 15 17
1 34 31 2 3 4 5 6 8 11 12 14 15 17
38 32 31 2 3 5 6 8 11 12 14 15 17
38 34 31 2 3 5 6 8 11 12 14 15 17
33 31 2 3 5 6 8 11 12 14 15 17
32 31 30 2 3 5 6 8 11 12 14 15 17
33 31 30 2 3 5 6 8 11 12 14 15 17
34 31 30 2 3 5 6 8 11 12 14 15 17
32 31 3 5 6 8 11 12 14 15 17 26
33 31 3 5 6 8 11 12 14 15 17 26
34 31 3 5 6 8 11 12 14 15 17 26
3 6 8 12 15 18 20 24 25 26 28
31 3 5 6 8 11 12 15 17 18 26 28
34 3 5 6 8 11 12 15 17 18 26 28
38 3 5 6 8 11 12 15 17 18 26 28
38 2 3 5 6 8 11 12 15 17 18 28
38 2 3 5 6 8 11 12 13 14 15 16 17 18
38 32 2 3 5 6 8 11 12 14 15 17 18
38 33 2 3 5 6 8 11 12 14 15 17 18
38 32 2 3 5 6 8 11 12 13 14 15 17 18
38 33 2 3 5 6 8 11 12 13 14 15 17 18
38 3 5 6 8 11 12 13 14 15 16 17 18 26
38 32 3 5 6 8 11 12 14 15 17 18 26
38 33 3 5 6 8 11 12 14 15 17 18 26
38 32 3 5 6 8 11 12 13 14 15 17 18 26
38 33 3 5 6 8 11 12 13 14 15 17 18 26
34 30 2 3 5 6 8 11 12 15 17 18 28
34 33 2 3 5 6 8 11 12 15 17 18 28
38 34 2 3 5 6 8 11 12 15 17 18 28
1 34 2 3 4 5 6 8 11 12 15 17 18 28
1 34 2 3 4 5 6 8 11 12 14 15 17 18
38 34 2 3 5 6 8 11 12 14 15 17 18
34 33 2 3 5 6 8 11 12 14 15 17 18
34 30 2 3 5 6 8 11 12 14 15 17 18
34 3 5 6 8 11 12 14 15 17 18 26
31 30 2 3 5 6 8 11 12 15 17 18 28
33 31 2 3 5 6 8 11 12 15 17 18 28
38 31 2 3 5 6 8 11 12 15 17 18 28
1 31 2 3 4 5 6 8 11 12 15 17 18 28
1 31 2 3 4 5 6 8 11 12 13 14 15 16 17 18
1 32 31 2 3 4 5 6 8 11 12 14 15 17 18
1 34 31 2 3 4 5 6 8 11 12 14 15 17 18
1 32 31 2 3 4 5 6 8 11 12 13 14 15 17 18
1 34 31 2 3 4 5 6 8 11 12 13 14 15 17 18
38 31 2 3 5 6 8 11 12 13 14 15 16 17 18
38 32 31 2 3 5 6 8 11 12 14 15 17 18
38 34 31 2 3 5 6 8 11 12 14 15 17 18
38 32 31 2 3 5 6 8 11 12 13 14 15 17 18
38 34 31 2 3 5 6 8 11 12 13 14 15 17 18
33 31 2 3 5 6 8 11 12 14 15 17 18
31 30 2 3 5 6 8 11 12 13 14 15 16 17 18
32 31 30 2 3 5 6 8 11 12 14 15 17 18
33 31 30 2 3 5 6 8 11 12 14 15 17 18
34 31 30 2 3 5 6 8 11 12 14 15 17 18
32 31 30 2 3 5 6 8 11 12 13 14 15 17 18
33 31 30 2 3 5 6 8 11 12 13 14 15 17 18
34 31 30 2 3 5 6 8 11 12 13 14 15 17 18
31 3 5 6 8 11 12 13 14 15 16 17 18 26
32 31 3 5 6 8 11 12 14 15 17 18 26
33 31 3 5 6 8 11 12 14 15 17 18 26
34 31 3 5 6 8 11 12 14 15 17 18 26
32 31 3 5 6 8 11 12 13 14 15 17 18 26
33 31 3 5 6 8 11 12 13 14 15 17 18 26
34 31 3 5 6 8 11 12 13 14 15 17 18 26
40 39 32 2 3 5 6 8 11 12 14 15 17 18 20 23
40 39 32 2 3 5 6 8 11 12 13 14 15 17 18 20 23
39 37 2 3 5 6 8 11 12 14 15 17 18 20 23
1 40 36 2 3 4 5 6 8 11 12 14 15 17 18 20 23
40 39 36 2 3 5 6 8 11 12 14 15 17 18 20 23
40 36 30 2 3 5 6 8 11 12 14 15 17 18 20 23
40 36 3 5 6 8 11 12 14 15 17 18 20 23 26
39 36 31 2 3 5 6 8 11 12 14 15 17 18 20 23
38 37 35 2 3 5 6 8 11 12 14 15 17 18 20 23
38 35 34 2 3 5 6 8 11 12 14 15 17 18 20 23
40 39 32 2 3 5 6 8 11 12 14 15 17 18 20 23 24
40 39 32 2 3 5 6 8 11 12 13 14 15 17 18 20 23 24
39 37 2 3 5 6 8 11 12 14 15 17 18 20 23 24
1 40 36 2 3 4 5 6 8 11 12 14 15 17 18 20 23 24
40 39 36 2 3 5 6 8 11 12 14 15 17 18 20 23 24
40 36 30 2 3 5 6 8 11 12 14 15 17 18 20 23 24
40 36 3 5 6 8 11 12 14 15 17 18 20 23 24 26
39 36 31 2 3 5 6 8 11 12 14 15 17 18 20 23 24
38 37 35 2 3 5 6 8 11 12 14 15 17 18 20 23 24
38 35 34 2 3 5 6 8 11 12 14 15 17 18 20 23 24
40 38 32 2 3 5 6 8 11 12 14 15 17 18 20 21 23
40 38 32 2 3 5 6 8 11 12 13 14 15 17 18 20 21 23
38 37 2 3 5 6 8 11 12 14 15 17 18 20 21 23
1 40 34 2 3 4 5 6 8 11 12 14 15 17 18 20 21 23
38 35 34 2 3 5 6 8 11 12 14 15 17 18 20 21 23
40 38 34 2 3 5 6 8 11 12 14 15 17 18 20 21 23
40 34 30 2 3 5 6 8 11 12 14 15 17 18 20 21 23
40 34 3 5 6 8 11 12 14 15 17 18 20 21 23 26
39 33 31 2 3 5 6 8 11 12 14 15 17 18 20 21 23
40 38 32 2 3 5 6 8 11 12 14 15 17 18 20 21 23 24
40 38 32 2 3 5 6 8 11 12 14 15 17 18 19 20 21 23 24
40 38 32 2 3 5 6 8 11 12 13 14 15 17 18 20 21 23 24
40 38 32 2 3 5 6 8 11 12 13 14 15 17 18 19 20 21 23 24
38 37 2 3 5 6 8 11 12 14 15 17 18 20 21 23 24
38 37 2 3 5 6 8 11 12 15 17 18 20 21 23 24 28
1 40 34 2 3 4 5 6 8 11 12 14 15 17 18 20 21 23 24
1 40 34 2 3 4 5 6 8 11 12 14 15 17 18 19 20 21 23 24
38 35 34 2 3 5 6 8 11 12 14 15 17 18 20 21 23 24
40 38 34 2 3 5 6 8 11 12 14 15 17 18 20 21 23 24
38 35 34 2 3 5 6 8 11 12 14 15 17 18 19 20 21 23 24
40 38 34 2 3 5 6 8 11 12 14 15 17 18 19 20 21 23 24
40 34 30 2 3 5 6 8 11 12 14 15 17 18 20 21 23 24
40 34 30 2 3 5 6 8 11 12 14 15 17 18 19 20 21 23 24
40 34 3 5 6 8 11 12 14 15 17 18 20 21 23 24 26
40 34 3 5 6 8 11 12 14 15 17 18 19 20 21 23 24 26
39 33 31 2 3 5 6 8 11 12 14 15 17 18 20 21 23 24
39 33 31 2 3 5 6 8 11 12 14 15 17 18 19 20 21 23 24
3 5 6 9 11 26 27
3 5 6 7 8 9 26
30 2 3 5 6 7 8 9
33 2 3 5 6 7 8 9 15 17 28
1 2 3 4 5 6 7 8 9
39 2 3 5 6 7 8 9 20 23
39 2 3 5 6 7 8 9 20 21 23
33 2 3 5 6 7 8 9 14 17
33 2 3 5 6 7 8 9 14 15 17
30 2 3 5 6 9 11 27
33 2 3 5 6 9 11 15 17 27 28
38 2 3 5 6 9 11 27
1 2 3 4 5 6 9 11 27
1 31 2 3 4 5 6 8 9 11
1 34 2 3 4 5 6 8 9 11 15 17 28
1 40 2 3 4 5 6 8 9 11 20 23
1 40 2 3 4 5 6 8 9 11 20 21 23
1 34 2 3 4 5 6 8 9 11 14 17
1 34 2 3 4 5 6 8 9 11 14 15 17
39 2 3 5 6 9 11 20 23 27
39 31 2 3 5 6 8 9 11 20 23
40 39 2 3 5 6 8 9 11 20 23
40 39 2 3 5 6 8 9 11 20 21 23
39 31 2 3 5 6 8 9 11 20 21 23
39 2 3 5 6 9 11 20 21 23 27
38 2 3 5 6 8 9 11
33 2 3 5 6 9 11 14 17 27
33 31 2 3 5 6 8 9 11 14 17
34 33 2 3 5 6 8 9 11 14 17
38 33 2 3 5 6 8 9 11 14 17
33 31 2 3 5 6 8 9 11 15 17 28
34 33 2 3 5 6 8 9 11 15 17 28
38 33 2 3 5 6 8 9 11 15 17 28
38 33 2 3 5 6 8 9 11 14 15 17
34 33 2 3 5 6 8 9 11 14 15 17
33 31 2 3 5 6 8 9 11 14 15 17
33 2 3 5 6 9 11 14 15 17 27
31 30 2 3 5 6 8 9 11
34 30 2 3 5 6 8 9 11 15 17 28
38 30 2 3 5 6 8 9 11
40 30 2 3 5 6 8 9 11 20 23
40 30 2 3 5 6 8 9 11 20 21 23
34 30 2 3 5 6 8 9 11 14 17
34 30 2 3 5 6 8 9 11 14 15 17
31 3 5 6 8 9 11 26
34 3 5 6 8 9 11 15 17 26 28
38 3 5 6 8 9 11 26
40 3 5 6 8 9 11 20 23 26
40 3 5 6 8 9 11 20 21 23 26
34 3 5 6 8 9 11 14 17 26
34 3 5 6 8 9 11 14 15 17 26
3 6 9 12 14 18 21 24 25 26 27 29
3 5 6 9 11 12 26 27
30 2 3 5 6 9 11 12 27
38 2 3 5 6 9 11 12 27
1 2 3 4 5 6 9 11 12 27
1 2 3 4 5 6 7 8 9 10 11 12
1 31 2 3 4 5 6 8 9 11 12
1 40 2 3 4 5 6 8 9 11 12 20 23
1 40 2 3 4 5 6 8 9 11 12 20 21 23
1 31 2 3 4 5 6 7 8 9 11 12
1 40 2 3 4 5 6 7 8 9 11 12 20 23
1 40 2 3 4 5 6 7 8 9 11 12 20 21 23
39 2 3 5 6 9 11 12 20 23 27
39 2 3 5 6 7 8 9 10 11 12 20 23
39 31 2 3 5 6 8 9 11 12 20 23
40 39 2 3 5 6 8 9 11 12 20 23
39 31 2 3 5 6 7 8 9 11 12 20 23
40 39 2 3 5 6 7 8 9 11 12 20 23
40 39 2 3 5 6 8 9 11 12 20 21 23
39 31 2 3 5 6 8 9 11 12 20 21 23
40 39 2 3 5 6 7 8 9 11 12 20 21 23
39 31 2 3 5 6 7 8 9 11 12 20 21 23
39 2 3 5 6 7 8 9 10 11 12 20 21 23
39 2 3 5 6 9 11 12 20 21 23 27
38 2 3 5 6 8 9 11 12
30 2 3 5 6 7 8 9 10 11 12
31 30 2 3 5 6 8 9 11 12
38 30 2 3 5 6 8 9 11 12
40 30 2 3 5 6 8 9 11 12 20 23
40 30 2 3 5 6 8 9 11 12 20 21 23
31 30 2 3 5 6 7 8 9 11 12
38 30 2 3 5 6 7 8 9 11 12
40 30 2 3 5 6 7 8 9 11 12 20 23
40 30 2 3 5 6 7 8 9 11 12 20 21 23
3 5 6 7 8 9 10 11 12 26
31 3 5 6 8 9 11 12 26
38 3 5 6 8 9 11 12 26
40 3 5 6 8 9 11 12 20 23 26
40 3 5 6 8 9 11 12 20 21 23 26
31 3 5 6 7 8 9 11 12 26
38 3 5 6 7 8 9 11 12 26
40 3 5 6 7 8 9 11 12 20 23 26
40 3 5 6 7 8 9 11 12 20 21 23 26
32 3 5 6 9 11 12 14 17 26 27
33 3 5 6 9 11 12 14 17 26 27
34 3 5 6 9 11 12 14 17 26 27
34 30 2 3 5 6 9 11 12 14 17 27
38 34 2 3 5 6 9 11 12 14 17 27
1 34 2 3 4 5 6 9 11 12 14 17 27
1 34 2 3 4 5 6 8 9 11 12 14 17
38 34 2 3 5 6 8 9 11 12 14 17
34 30 2 3 5 6 8 9 11 12 14 17
34 3 5 6 8 9 11 12 14 17 26
33 2 3 5 6 9 11 12 14 17 27
33 2 3 5 6 7 8 9 10 11 12 14 17
33 31 2 3 5 6 8 9 11 12 14 17
34 33 2 3 5 6 8 9 11 12 14 17
38 33 2 3 5 6 8 9 11 12 14 17
37 33 2 3 5 6 8 9 11 12 14 17 20 23
37 33 2 3 5 6 8 9 11 12 14 17 20 21 23
33 31 2 3 5 6 7 8 9 11 12 14 17
34 33 2 3 5 6 7 8 9 11 12 14 17
38 33 2 3 5 6 7 8 9 11 12 14 17
37 33 2 3 5 6 7 8 9 11 12 14 17 20 23
37 33 2 3 5 6 7 8 9 11 12 14 17 20 21 23
33 3 5 6 7 8 9 10 11 12 14 17 26
33 31 3 5 6 8 9 11 12 14 17 26
34 33 3 5 6 8 9 11 12 14 17 26
38 33 3 5 6 8 9 11 12 14 17 26
33 31 3 5 6 7 8 9 11 12 14 17 26
34 33 3 5 6 7 8 9 11 12 14 17 26
38 33 3 5 6 7 8 9 11 12 14 17 26
32 30 2 3 5 6 9 11 12 14 17 27
33 32 2 3 5 6 9 11 12 14 17 27
38 32 2 3 5 6 9 11 12 14 17 27
1 32 2 3 4 5 6 9 11 12 14 17 27
1 32 2 3 4 5 6 7 8 9 10 11 12 14 17
1 32 31 2 3 4 5 6 8 9 11 12 14 17
1 34 32 2 3 4 5 6 8 9 11 12 14 17
1 32 31 2 3 4 5 6 7 8 9 11 12 14 17
1 34 32 2 3 4 5 6 7 8 9 11 12 14 17
38 32 2 3 5 6 8 9 11 12 14 17
33 32 2 3 5 6 7 8 9 10 11 12 14 17
33 32 31 2 3 5 6 8 9 11 12 14 17
34 33 32 2 3 5 6 8 9 11 12 14 17
38 33 32 2 3 5 6 8 9 11 12 14 17
33 32 31 2 3 5 6 7 8 9 11 12 14 17
34 33 32 2 3 5 6 7 8 9 11 12 14 17
38 33 32 2 3 5 6 7 8 9 11 12 14 17
32 30 2 3 5 6 7 8 9 10 11 12 14 17
32 31 30 2 3 5 6 8 9 11 12 14 17
34 32 30 2 3 5 6 8 9 11 12 14 17
38 32 30 2 3 5 6 8 9 11 12 14 17
32 31 30 2 3 5 6 7 8 9 11 12 14 17
34 32 30 2 3 5 6 7 8 9 11 12 14 17
38 32 30 2 3 5 6 7 8 9 11 12 14 17
32 3 5 6 7 8 9 10 11 12 14 17 26
32 31 3 5 6 8 9 11 12 14 17 26
34 32 3 5 6 8 9 11 12 14 17 26
38 32 3 5 6 8 9 11 12 14 17 26
32 31 3 5 6 7 8 9 11 12 14 17 26
34 32 3 5 6 7 8 9 11 12 14 17 26
38 32 3 5 6 7 8 9 11 12 14 17 26
3 6 9 12 14 18 20 24 25 26 27
32 3 5 6 9 11 12 14 17 18 26 27
33 3 5 6 9 11 12 14 17 18 26 27
34 3 5 6 9 11 12 14 17 18 26 27
34 30 2 3 5 6 9 11 12 14 17 18 27
38 34 2 3 5 6 9 11 12 14 17 18 27
1 34 2 3 4 5 6 9 11 12 14 17 18 27
1 34 2 3 4 5 6 8 9 11 12 14 17 18
38 34 2 3 5 6 8 9 11 12 14 17 18
34 30 2 3 5 6 8 9 11 12 14 17 18
34 3 5 6 8 9 11 12 14 17 18 26
33 2 3 5 6 9 11 12 14 17 18 27
33 2 3 5 6 7 8 9 10 11 12 14 17 18
33 31 2 3 5 6 8 9 11 12 14 17 18
34 33 2 3 5 6 8 9 11 12 14 17 18
38 33 2 3 5 6 8 9 11 12 14 17 18
33 31 2 3 5 6 7 8 9 11 12 14 17 18
34 33 2 3 5 6 7 8 9 11 12 14 17 18
38 33 2 3 5 6 7 8 9 11 12 14 17 18
33 3 5 6 7 8 9 10 11 12 14 17 18 26
33 31 3 5 6 8 9 11 12 14 17 18 26
34 33 3 5 6 8 9 11 12 14 17 18 26
38 33 3 5 6 8 9 11 12 14 17 18 26
33 31 3 5 6 7 8 9 11 12 14 17 18 26
34 33 3 5 6 7 8 9 11 12 14 17 18 26
38 33 3 5 6 7 8 9 11 12 14 17 18 26
32 30 2 3 5 6 9 11 12 14 17 18 27
33 32 2 3 5 6 9 11 12 14 17 18 27
38 32 2 3 5 6 9 11 12 14 17 18 27
1 32 2 3 4 5 6 9 11 12 14 17 18 27
1 32 2 3 4 5 6 7 8 9 10 11 12 14 17 18
1 32 31 2 3 4 5 6 8 9 11 12 14 17 18
1 34 32 2 3 4 5 6 8 9 11 12 14 17 18
1 32 31 2 3 4 5 6 7 8 9 11 12 14 17 18
1 34 32 2 3 4 5 6 7 8 9 11 12 14 17 18
38 32 2 3 5 6 8 9 11 12 14 17 18
33 32 2 3 5 6 7 8 9 10 11 12 14 17 18
33 32 31 2 3 5 6 8 9 11 12 14 17 18
34 33 32 2 3 5 6 8 9 11 12 14 17 18
38 33 32 2 3 5 6 8 9 11 12 14 17 18
33 32 31 2 3 5 6 7 8 9 11 12 14 17 18
34 33 32 2 3 5 6 7 8 9 11 12 14 17 18
38 33 32 2 3 5 6 7 8 9 11 12 14 17 18
32 30 2 3 5 6 7 8 9 10 11 12 14 17 18
32 31 30 2 3 5 6 8 9 11 12 14 17 18
34 32 30 2 3 5 6 8 9 11 12 14 17 18
38 32 30 2 3 5 6 8 9 11 12 14 17 18
32 31 30 2 3 5 6 7 8 9 11 12 14 17 18
34 32 30 2 3 5 6 7 8 9 11 12 14 17 18
38 32 30 2 3 5 6 7 8 9 11 12 14 17 18
32 3 5 6 7 8 9 10 11 12 14 17 18 26
32 31 3 5 6 8 9 11 12 14 17 18 26
34 32 3 5 6 8 9 11 12 14 17 18 26
38 32 3 5 6 8 9 11 12 14 17 18 26
32 31 3 5 6 7 8 9 11 12 14 17 18 26
34 32 3 5 6 7 8 9 11 12 14 17 18 26
38 32 3 5 6 7 8 9 11 12 14 17 18 26
40 39 32 2 3 5 6 8 9 11 12 14 17 18 20 23
40 39 32 2 3 5 6 7 8 9 11 12 14 17 18 20 23
39 37 2 3 5 6 8 9 11 12 14 17 18 20 23
40 39 36 2 3 5 6 8 9 11 12 14 17 18 20 23
40 39 36 2 3 5 6 7 8 9 11 12 14 17 18 20 23
35 34 33 2 3 5 6 8 9 11 12 14 17 18 20 23
37 35 33 2 3 5 6 8 9 11 12 14 17 18 20 23
35 34 33 2 3 5 6 7 8 9 11 12 14 17 18 20 23
37 35 33 2 3 5 6 7 8 9 11 12 14 17 18 20 23
40 39 32 2 3 5 6 8 9 11 12 14 17 18 20 23 24
40 39 32 2 3 5 6 7 8 9 11 12 14 17 18 20 23 24
39 37 2 3 5 6 8 9 11 12 14 17 18 20 23 24
40 39 36 2 3 5 6 8 9 11 12 14 17 18 20 23 24
40 39 36 2 3 5 6 7 8 9 11 12 14 17 18 20 23 24
35 34 33 2 3 5 6 8 9 11 12 14 17 18 20 23 24
37 35 33 2 3 5 6 8 9 11 12 14 17 18 20 23 24
35 34 33 2 3 5 6 7 8 9 11 12 14 17 18 20 23 24
37 35 33 2 3 5 6 7 8 9 11 12 14 17 18 20 23 24
1 36 34 2 3 4 5 6 8 9 11 12 14 17 18 20 21 23
36 34 30 2 3 5 6 8 9 11 12 14 17 18 20 21 23
36 34 3 5 6 8 9 11 12 14 17 18 20 21 23 26
37 33 2 3 5 6 8 9 11 12 14 17 18 20 21 23
35 34 33 2 3 5 6 8 9 11 12 14 17 18 20 21 23
36 34 33 2 3 5 6 8 9 11 12 14 17 18 20 21 23
37 34 33 2 3 5 6 8 9 11 12 14 17 18 20 21 23
36 33 31 2 3 5 6 8 9 11 12 14 17 18 20 21 23
37 33 31 2 3 5 6 8 9 11 12 14 17 18 20 21 23
37 33 2 3 5 6 7 8 9 11 12 14 17 18 20 21 23
35 34 33 2 3 5 6 7 8 9 11 12 14 17 18 20 21 23
36 34 33 2 3 5 6 7 8 9 11 12 14 17 18 20 21 23
37 34 33 2 3 5 6 7 8 9 11 12 14 17 18 20 21 23
36 33 31 2 3 5 6 7 8 9 11 12 14 17 18 20 21 23
37 33 31 2 3 5 6 7 8 9 11 12 14 17 18 20 21 23
37 33 2 3 5 6 7 8 9 10 11 12 14 17 18 20 21 23
39 38 32 2 3 5 6 8 9 11 12 14 17 18 20 21 23
1 36 34 2 3 4 5 6 8 9 11 12 14 17 18 20 21 23 24
1 36 34 2 3 4 5 6 8 9 11 12 14 17 18 19 20 21 23 24
36 34 30 2 3 5 6 8 9 11 12 14 17 18 20 21 23 24
36 34 30 2 3 5 6 8 9 11 12 14 17 18 19 20 21 23 24
36 34 3 5 6 8 9 11 12 14 17 18 20 21 23 24 26
36 34 3 5 6 8 9 11 12 14 17 18 19 20 21 23 24 26
37 33 2 3 5 6 8 9 11 12 14 17 18 20 21 23 24
35 34 33 2 3 5 6 8 9 11 12 14 17 18 20 21 23 24
36 34 33 2 3 5 6 8 9 11 12 14 17 18 20 21 23 24
37 34 33 2 3 5 6 8 9 11 12 14 17 18 20 21 23 24
35 34 33 2 3 5 6 8 9 11 12 14 17 18 19 20 21 23 24
36 34 33 2 3 5 6 8 9 11 12 14 17 18 19 20 21 23 24
37 34 33 2 3 5 6 8 9 11 12 14 17 18 19 20 21 23 24
36 33 31 2 3 5 6 8 9 11 12 14 17 18 20 21 23 24
37 33 31 2 3 5 6 8 9 11 12 14 17 18 20 21 23 24
36 33 31 2 3 5 6 8 9 11 12 14 17 18 19 20 21 23 24
37 33 31 2 3 5 6 8 9 11 12 14 17 18 19 20 21 23 24
37 33 2 3 5 6 7 8 9 11 12 14 17 18 20 21 23 24
35 34 33 2 3 5 6 7 8 9 11 12 14 17 18 20 21 23 24
36 34 33 2 3 5 6 7 8 9 11 12 14 17 18 20 21 23 24
37 34 33 2 3 5 6 7 8 9 11 12 14 17 18 20 21 23 24
35 34 33 2 3 5 6 7 8 9 11 12 14 17 18 19 20 21 23 24
36 34 33 2 3 5 6 7 8 9 11 12 14 17 18 19 20 21 23 24
37 34 33 2 3 5 6 7 8 9 11 12 14 17 18 19 20 21 23 24
36 33 31 2 3 5 6 7 8 9 11 12 14 17 18 20 21 23 24
37 33 31 2 3 5 6 7 8 9 11 12 14 17 18 20 21 23 24
36 33 31 2 3 5 6 7 8 9 11 12 14 17 18 19 20 21 23 24
37 33 31 2 3 5 6 7 8 9 11 12 14 17 18 19 20 21 23 24
37 33 2 3 5 6 7 8 9 10 11 12 14 17 18 20 21 23 24
37 33 2 3 5 6 7 8 9 10 11 12 14 17 18 19 20 21 23 24
39 38 32 2 3 5 6 8 9 11 12 14 17 18 20 21 23 24
39 38 32 2 3 5 6 8 9 11 12 14 17 18 19 20 21 23 24
3 5 6 9 11 12 15 17 26 27 28
3 5 6 9 11 12 13 14 15 26 27
30 2 3 5 6 9 11 12 13 14 15 27
38 2 3 5 6 9 11 12 13 14 15 27
1 2 3 4 5 6 9 11 12 13 14 15 27
1 2 3 4 5 6 7 8 9 10 11 12 13 14 15
1 31 2 3 4 5 6 8 9 11 12 13 14 15
1 31 2 3 4 5 6 7 8 9 11 12 13 14 15
38 2 3 5 6 8 9 11 12 13 14 15
30 2 3 5 6 7 8 9 10 11 12 13 14 15
31 30 2 3 5 6 8 9 11 12 13 14 15
38 30 2 3 5 6 8 9 11 12 13 14 15
31 30 2 3 5 6 7 8 9 11 12 13 14 15
38 30 2 3 5 6 7 8 9 11 12 13 14 15
3 5 6 7 8 9 10 11 12 13 14 15 26
31 3 5 6 8 9 11 12 13 14 15 26
38 3 5 6 8 9 11 12 13 14 15 26
31 3 5 6 7 8 9 11 12 13 14 15 26
38 3 5 6 7 8 9 11 12 13 14 15 26
30 2 3 5 6 9 11 12 15 17 27 28
33 2 3 5 6 9 11 12 15 17 27 28
38 2 3 5 6 9 11 12 15 17 27 28
1 2 3 4 5 6 9 11 12 15 17 27 28
1 2 3 4 5 6 7 8 9 10 11 12 15 17 28
1 31 2 3 4 5 6 8 9 11 12 15 17 28
1 34 2 3 4 5 6 8 9 11 12 15 17 28
1 34 2 3 4 5 6 8 9 11 12 14 15 17
1 32 31 2 3 4 5 6 8 9 11 12 14 15 17
1 34 31 2 3 4 5 6 8 9 11 12 14 15 17
1 31 2 3 4 5 6 7 8 9 11 12 15 17 28
1 34 2 3 4 5 6 7 8 9 11 12 15 17 28
1 34 2 3 4 5 6 7 8 9 11 12 14 15 17
1 32 31 2 3 4 5 6 7 8 9 11 12 14 15 17
1 34 31 2 3 4 5 6 7 8 9 11 12 14 15 17
1 32 2 3 4 5 6 7 8 9 10 11 12 14 15 17
1 34 2 3 4 5 6 7 8 9 10 11 12 14 15 17
1 32 2 3 4 5 6 9 11 12 14 15 17 27
1 34 2 3 4 5 6 9 11 12 14 15 17 27
38 2 3 5 6 8 9 11 12 15 17 28
38 32 2 3 5 6 8 9 11 12 14 15 17
38 34 2 3 5 6 8 9 11 12 14 15 17
38 32 2 3 5 6 9 11 12 14 15 17 27
38 34 2 3 5 6 9 11 12 14 15 17 27
33 2 3 5 6 7 8 9 10 11 12 15 17 28
33 31 2 3 5 6 8 9 11 12 15 17 28
34 33 2 3 5 6 8 9 11 12 15 17 28
38 33 2 3 5 6 8 9 11 12 15 17 28
38 33 2 3 5 6 8 9 11 12 14 15 17
34 33 2 3 5 6 8 9 11 12 14 15 17
33 31 2 3 5 6 8 9 11 12 14 15 17
33 31 2 3 5 6 7 8 9 11 12 15 17 28
34 33 2 3 5 6 7 8 9 11 12 15 17 28
38 33 2 3 5 6 7 8 9 11 12 15 17 28
38 33 2 3 5 6 7 8 9 11 12 14 15 17
34 33 2 3 5 6 7 8 9 11 12 14 15 17
33 31 2 3 5 6 7 8 9 11 12 14 15 17
33 2 3 5 6 7 8 9 10 11 12 14 15 17
33 2 3 5 6 9 11 12 14 15 17 27
30 2 3 5 6 7 8 9 10 11 12 15 17 28
31 30 2 3 5 6 8 9 11 12 15 17 28
34 30 2 3 5 6 8 9 11 12 15 17 28
38 30 2 3 5 6 8 9 11 12 15 17 28
38 32 30 2 3 5 6 8 9 11 12 14 15 17
38 33 30 2 3 5 6 8 9 11 12 14 15 17
34 30 2 3 5 6 8 9 11 12 14 15 17
32 31 30 2 3 5 6 8 9 11 12 14 15 17
33 31 30 2 3 5 6 8 9 11 12 14 15 17
34 31 30 2 3 5 6 8 9 11 12 14 15 17
31 30 2 3 5 6 7 8 9 11 12 15 17 28
34 30 2 3 5 6 7 8 9 11 12 15 17 28
38 30 2 3 5 6 7 8 9 11 12 15 17 28
38 32 30 2 3 5 6 7 8 9 11 12 14 15 17
38 33 30 2 3 5 6 7 8 9 11 12 14 15 17
34 30 2 3 5 6 7 8 9 11 12 14 15 17
32 31 30 2 3 5 6 7 8 9 11 12 14 15 17
33 31 30 2 3 5 6 7 8 9 11 12 14 15 17
34 31 30 2 3 5 6 7 8 9 11 12 14 15 17
32 30 2 3 5 6 7 8 9 10 11 12 14 15 17
33 30 2 3 5 6 7 8 9 10 11 12 14 15 17
34 30 2 3 5 6 7 8 9 10 11 12 14 15 17
32 30 2 3 5 6 9 11 12 14 15 17 27
33 30 2 3 5 6 9 11 12 14 15 17 27
34 30 2 3 5 6 9 11 12 14 15 17 27
3 5 6 7 8 9 10 11 12 15 17 26 28
31 3 5 6 8 9 11 12 15 17 26 28
34 3 5 6 8 9 11 12 15 17 26 28
38 3 5 6 8 9 11 12 15 17 26 28
38 32 3 5 6 8 9 11 12 14 15 17 26
38 33 3 5 6 8 9 11 12 14 15 17 26
34 3 5 6 8 9 11 12 14 15 17 26
32 31 3 5 6 8 9 11 12 14 15 17 26
33 31 3 5 6 8 9 11 12 14 15 17 26
34 31 3 5 6 8 9 11 12 14 15 17 26
31 3 5 6 7 8 9 11 12 15 17 26 28
34 3 5 6 7 8 9 11 12 15 17 26 28
38 3 5 6 7 8 9 11 12 15 17 26 28
38 32 3 5 6 7 8 9 11 12 14 15 17 26
38 33 3 5 6 7 8 9 11 12 14 15 17 26
34 3 5 6 7 8 9 11 12 14 15 17 26
32 31 3 5 6 7 8 9 11 12 14 15 17 26
33 31 3 5 6 7 8 9 11 12 14 15 17 26
34 31 3 5 6 7 8 9 11 12 14 15 17 26
32 3 5 6 7 8 9 10 11 12 14 15 17 26
33 3 5 6 7 8 9 10 11 12 14 15 17 26
34 3 5 6 7 8 9 10 11 12 14 15 17 26
32 3 5 6 9 11 12 14 15 17 26 27
33 3 5 6 9 11 12 14 15 17 26 27
34 3 5 6 9 11 12 14 15 17 26 27
3 6 9 12 15 18 20 24 25 26 27 28
3 5 6 9 11 12 15 17 18 26 27 28
30 2 3 5 6 9 11 12 15 17 18 27 28
33 2 3 5 6 9 11 12 15 17 18 27 28
38 2 3 5 6 9 11 12 15 17 18 27 28
1 2 3 4 5 6 9 11 12 15 17 18 27 28
1 2 3 4 5 6 7 8 9 10 11 12 15 17 18 28
1 31 2 3 4 5 6 8 9 11 12 15 17 18 28
1 34 2 3 4 5 6 8 9 11 12 15 17 18 28
1 34 2 3 4 5 6 8 9 11 12 14 15 17 18
1 31 2 3 4 5 6 8 9 11 12 13 14 15 16 17 18
1 32 31 2 3 4 5 6 8 9 11 12 14 15 17 18
1 34 31 2 3 4 5 6 8 9 11 12 14 15 17 18
1 32 31 2 3 4 5 6 8 9 11 12 13 14 15 17 18
1 34 31 2 3 4 5 6 8 9 11 12 13 14 15 17 18
1 31 2 3 4 5 6 7 8 9 11 12 15 17 18 28
1 34 2 3 4 5 6 7 8 9 11 12 15 17 18 28
1 34 2 3 4 5 6 7 8 9 11 12 14 15 17 18
1 31 2 3 4 5 6 7 8 9 11 12 13 14 15 16 17 18
1 32 31 2 3 4 5 6 7 8 9 11 12 14 15 17 18
1 34 31 2 3 4 5 6 7 8 9 11 12 14 15 17 18
1 32 31 2 3 4 5 6 7 8 9 11 12 13 14 15 17 18
1 34 31 2 3 4 5 6 7 8 9 11 12 13 14 15 17 18
1 2 3 4 5 6 7 8 9 10 11 12 13 14 15 16 17 18
1 32 2 3 4 5 6 7 8 9 10 11 12 14 15 17 18
1 34 2 3 4 5 6 7 8 9 10 11 12 14 15 17 18
1 32 2 3 4 5 6 7 8 9 10 11 12 13 14 15 17 18
1 34 2 3 4 5 6 7 8 9 10 11 12 13 14 15 17 18
1 2 3 4 5 6 9 11 12 13 14 15 16 17 18 27
1 32 2 3 4 5 6 9 11 12 14 15 17 18 27
1 34 2 3 4 5 6 9 11 12 14 15 17 18 27
1 32 2 3 4 5 6 9 11 12 13 14 15 17 18 27
1 34 2 3 4 5 6 9 11 12 13 14 15 17 18 27
38 2 3 5 6 8 9 11 12 15 17 18 28
38 2 3 5 6 8 9 11 12 13 14 15 16 17 18
38 32 2 3 5 6 8 9 11 12 14 15 17 18
38 34 2 3 5 6 8 9 11 12 14 15 17 18
38 32 2 3 5 6 8 9 11 12 13 14 15 17 18
38 34 2 3 5 6 8 9 11 12 13 14 15 17 18
38 2 3 5 6 9 11 12 13 14 15 16 17 18 27
38 32 2 3 5 6 9 11 12 14 15 17 18 27
38 34 2 3 5 6 9 11 12 14 15 17 18 27
38 32 2 3 5 6 9 11 12 13 14 15 17 18 27
38 34 2 3 5 6 9 11 12 13 14 15 17 18 27
33 2 3 5 6 7 8 9 10 11 12 15 17 18 28
33 31 2 3 5 6 8 9 11 12 15 17 18 28
34 33 2 3 5 6 8 9 11 12 15 17 18 28
38 33 2 3 5 6 8 9 11 12 15 17 18 28
38 33 2 3 5 6 8 9 11 12 14 15 17 18
34 33 2 3 5 6 8 9 11 12 14 15 17 18
33 31 2 3 5 6 8 9 11 12 14 15 17 18
33 31 2 3 5 6 7 8 9 11 12 15 17 18 28
34 33 2 3 5 6 7 8 9 11 12 15 17 18 28
38 33 2 3 5 6 7 8 9 11 12 15 17 18 28
38 33 2 3 5 6 7 8 9 11 12 14 15 17 18
34 33 2 3 5 6 7 8 9 11 12 14 15 17 18
33 31 2 3 5 6 7 8 9 11 12 14 15 17 18
33 2 3 5 6 7 8 9 10 11 12 14 15 17 18
33 2 3 5 6 9 11 12 14 15 17 18 27
30 2 3 5 6 7 8 9 10 11 12 15 17 18 28
31 30 2 3 5 6 8 9 11 12 15 17 18 28
34 30 2 3 5 6 8 9 11 12 15 17 18 28
38 30 2 3 5 6 8 9 11 12 15 17 18 28
38 30 2 3 5 6 8 9 11 12 13 14 15 16 17 18
38 32 30 2 3 5 6 8 9 11 12 14 15 17 18
38 33 30 2 3 5 6 8 9 11 12 14 15 17 18
38 32 30 2 3 5 6 8 9 11 12 13 14 15 17 18
38 33 30 2 3 5 6 8 9 11 12 13 14 15 17 18
34 30 2 3 5 6 8 9 11 12 14 15 17 18
31 30 2 3 5 6 8 9 11 12 13 14 15 16 17 18
32 31 30 2 3 5 6 8 9 11 12 14 15 17 18
33 31 30 2 3 5 6 8 9 11 12 14 15 17 18
34 31 30 2 3 5 6 8 9 11 12 14 15 17 18
32 31 30 2 3 5 6 8 9 11 12 13 14 15 17 18
33 31 30 2 3 5 6 8 9 11 12 13 14 15 17 18
34 31 30 2 3 5 6 8 9 11 12 13 14 15 17 18
31 30 2 3 5 6 7 8 9 11 12 15 17 18 28
34 30 2 3 5 6 7 8 9 11 12 15 17 18 28
38 30 2 3 5 6 7 8 9 11 12 15 17 18 28
38 30 2 3 5 6 7 8 9 11 12 13 14 15 16 17 18
38 32 30 2 3 5 6 7 8 9 11 12 14 15 17 18
38 33 30 2 3 5 6 7 8 9 11 12 14 15 17 18
38 32 30 2 3 5 6 7 8 9 11 12 13 14 15 17 18
38 33 30 2 3 5 6 7 8 9 11 12 13 14 15 17 18
34 30 2 3 5 6 7 8 9 11 12 14 15 17 18
31 30 2 3 5 6 7 8 9 11 12 13 14 15 16 17 18
32 31 30 2 3 5 6 7 8 9 11 12 14 15 17 18
33 31 30 2 3 5 6 7 8 9 11 12 14 15 17 18
34 31 30 2 3 5 6 7 8 9 11 12 14 15 17 18
32 31 30 2 3 5 6 7 8 9 11 12 13 14 15 17 18
33 31 30 2 3 5 6 7 8 9 11 12 13 14 15 17 18
34 31 30 2 3 5 6 7 8 9 11 12 13 14 15 17 18
30 2 3 5 6 7 8 9 10 11 12 13 14 15 16 17 18
32 30 2 3 5 6 7 8 9 10 11 12 14 15 17 18
33 30 2 3 5 6 7 8 9 10 11 12 14 15 17 18
34 30 2 3 5 6 7 8 9 10 11 12 14 15 17 18
32 30 2 3 5 6 7 8 9 10 11 12 13 14 15 17 18
33 30 2 3 5 6 7 8 9 10 11 12 13 14 15 17 18
34 30 2 3 5 6 7 8 9 10 11 12 13 14 15 17 18
30 2 3 5 6 9 11 12 13 14 15 16 17 18 27
32 30 2 3 5 6 9 11 12 14 15 17 18 27
33 30 2 3 5 6 9 11 12 14 15 17 18 27
34 30 2 3 5 6 9 11 12 14 15 17 18 27
32 30 2 3 5 6 9 11 12 13 14 15 17 18 27
33 30 2 3 5 6 9 11 12 13 14 15 17 18 27
34 30 2 3 5 6 9 11 12 13 14 15 17 18 27
3 5 6 7 8 9 10 11 12 15 17 18 26 28
31 3 5 6 8 9 11 12 15 17 18 26 28
34 3 5 6 8 9 11 12 15 17 18 26 28
38 3 5 6 8 9 11 12 15 17 18 26 28
38 3 5 6 8 9 11 12 13 14 15 16 17 18 26
38 32 3 5 6 8 9 11 12 14 15 17 18 26
38 33 3 5 6 8 9 11 12 14 15 17 18 26
38 32 3 5 6 8 9 11 12 13 14 15 17 18 26
38 33 3 5 6 8 9 11 12 13 14 15 17 18 26
34 3 5 6 8 9 11 12 14 15 17 18 26
31 3 5 6 8 9 11 12 13 14 15 16 17 18 26
32 31 3 5 6 8 9 11 12 14 15 17 18 26
33 31 3 5 6 8 9 11 12 14 15 17 18 26
34 31 3 5 6 8 9 11 12 14 15 17 18 26
32 31 3 5 6 8 9 11 12 13 14 15 17 18 26
33 31 3 5 6 8 9 11 12 13 14 15 17 18 26
34 31 3 5 6 8 9 11 12 13 14 15 17 18 26
31 3 5 6 7 8 9 11 12 15 17 18 26 28
34 3 5 6 7 8 9 11 12 15 17 18 26 28
38 3 5 6 7 8 9 11 12 15 17 18 26 28
38 3 5 6 7 8 9 11 12 13 14 15 16 17 18 26
38 32 3 5 6 7 8 9 11 12 14 15 17 18 26
38 33 3 5 6 7 8 9 11 12 14 15 17 18 26
38 32 3 5 6 7 8 9 11 12 13 14 15 17 18 26
38 33 3 5 6 7 8 9 11 12 13 14 15 17 18 26
34 3 5 6 7 8 9 11 12 14 15 17 18 26
31 3 5 6 7 8 9 11 12 13 14 15 16 17 18 26
32 31 3 5 6 7 8 9 11 12 14 15 17 18 26
33 31 3 5 6 7 8 9 11 12 14 15 17 18 26
34 31 3 5 6 7 8 9 11 12 14 15 17 18 26
32 31 3 5 6 7 8 9 11 12 13 14 15 17 18 26
33 31 3 5 6 7 8 9 11 12 13 14 15 17 18 26
34 31 3 5 6 7 8 9 11 12 13 14 15 17 18 26
3 5 6 7 8 9 10 11 12 13 14 15 16 17 18 26
32 3 5 6 7 8 9 10 11 12 14 15 17 18 26
33 3 5 6 7 8 9 10 11 12 14 15 17 18 26
34 3 5 6 7 8 9 10 11 12 14 15 17 18 26
32 3 5 6 7 8 9 10 11 12 13 14 15 17 18 26
33 3 5 6 7 8 9 10 11 12 13 14 15 17 18 26
34 3 5 6 7 8 9 10 11 12 13 14 15 17 18 26
3 5 6 9 11 12 13 14 15 16 17 18 26 27
32 3 5 6 9 11 12 14 15 17 18 26 27
33 3 5 6 9 11 12 14 15 17 18 26 27
34 3 5 6 9 11 12 14 15 17 18 26 27
32 3 5 6 9 11 12 13 14 15 17 18 26 27
33 3 5 6 9 11 12 13 14 15 17 18 26 27
34 3 5 6 9 11 12 13 14 15 17 18 26 27
40 39 32 2 3 5 6 8 9 11 12 14 15 17 18 20 23
40 39 32 2 3 5 6 8 9 11 12 13 14 15 17 18 20 23
40 39 32 2 3 5 6 7 8 9 11 12 14 15 17 18 20 23
40 39 32 2 3 5 6 7 8 9 11 12 13 14 15 17 18 20 23
39 37 2 3 5 6 8 9 11 12 14 15 17 18 20 23
39 37 2 3 5 6 9 11 12 14 15 17 18 20 23 27
1 40 36 2 3 4 5 6 8 9 11 12 14 15 17 18 20 23
1 40 36 2 3 4 5 6 7 8 9 11 12 14 15 17 18 20 23
40 39 36 2 3 5 6 8 9 11 12 14 15 17 18 20 23
39 36 31 2 3 5 6 8 9 11 12 14 15 17 18 20 23
40 39 36 2 3 5 6 7 8 9 11 12 14 15 17 18 20 23
39 36 31 2 3 5 6 7 8 9 11 12 14 15 17 18 20 23
39 36 2 3 5 6 7 8 9 10 11 12 14 15 17 18 20 23
39 36 2 3 5 6 9 11 12 14 15 17 18 20 23 27
40 36 30 2 3 5 6 8 9 11 12 14 15 17 18 20 23
40 36 30 2 3 5 6 7 8 9 11 12 14 15 17 18 20 23
40 36 3 5 6 8 9 11 12 14 15 17 18 20 23 26
40 36 3 5 6 7 8 9 11 12 14 15 17 18 20 23 26
38 35 33 2 3 5 6 8 9 11 12 14 15 17 18 20 23
38 35 33 2 3 5 6 7 8 9 11 12 14 15 17 18 20 23
40 39 32 2 3 5 6 8 9 11 12 14 15 17 18 20 23 24
40 39 32 2 3 5 6 8 9 11 12 13 14 15 17 18 20 23 24
40 39 32 2 3 5 6 7 8 9 11 12 14 15 17 18 20 23 24
40 39 32 2 3 5 6 7 8 9 11 12 13 14 15 17 18 20 23 24
39 37 2 3 5 6 8 9 11 12 14 15 17 18 20 23 24
39 37 2 3 5 6 9 11 12 14 15 17 18 20 23 24 27
1 40 36 2 3 4 5 6 8 9 11 12 14 15 17 18 20 23 24
1 40 36 2 3 4 5 6 7 8 9 11 12 14 15 17 18 20 23 24
40 39 36 2 3 5 6 8 9 11 12 14 15 17 18 20 23 24
39 36 31 2 3 5 6 8 9 11 12 14 15 17 18 20 23 24
40 39 36 2 3 5 6 7 8 9 11 12 14 15 17 18 20 23 24
39 36 31 2 3 5 6 7 8 9 11 12 14 15 17 18 20 23 24
39 36 2 3 5 6 7 8 9 10 11 12 14 15 17 18 20 23 24
39 36 2 3 5 6 9 11 12 14 15 17 18 20 23 24 27
40 36 30 2 3 5 6 8 9 11 12 14 15 17 18 20 23 24
40 36 30 2 3 5 6 7 8 9 11 12 14 15 17 18 20 23 24
40 36 3 5 6 8 9 11 12 14 15 17 18 20 23 24 26
40 36 3 5 6 7 8 9 11 12 14 15 17 18 20 23 24 26
38 35 33 2 3 5 6 8 9 11 12 14 15 17 18 20 23 24
38 35 33 2 3 5 6 7 8 9 11 12 14 15 17 18 20 23 24
1 40 34 2 3 4 5 6 8 9 11 12 14 15 17 18 20 21 23
1 40 34 2 3 4 5 6 7 8 9 11 12 14 15 17 18 20 21 23
39 38 32 2 3 5 6 8 9 11 12 14 15 17 18 20 21 23
39 38 32 2 3 5 6 8 9 11 12 13 14 15 17 18 20 21 23
38 35 33 2 3 5 6 8 9 11 12 14 15 17 18 20 21 23
39 38 33 2 3 5 6 8 9 11 12 14 15 17 18 20 21 23
39 33 31 2 3 5 6 8 9 11 12 14 15 17 18 20 21 23
38 35 33 2 3 5 6 7 8 9 11 12 14 15 17 18 20 21 23
39 38 33 2 3 5 6 7 8 9 11 12 14 15 17 18 20 21 23
39 33 31 2 3 5 6 7 8 9 11 12 14 15 17 18 20 21 23
39 33 2 3 5 6 7 8 9 10 11 12 14 15 17 18 20 21 23
39 33 2 3 5 6 9 11 12 14 15 17 18 20 21 23 27
40 34 30 2 3 5 6 8 9 11 12 14 15 17 18 20 21 23
40 34 30 2 3 5 6 7 8 9 11 12 14 15 17 18 20 21 23
40 34 3 5 6 8 9 11 12 14 15 17 18 20 21 23 26
40 34 3 5 6 7 8 9 11 12 14 15 17 18 20 21 23 26
1 40 34 2 3 4 5 6 8 9 11 12 14 15 17 18 20 21 23 24
1 40 34 2 3 4 5 6 8 9 11 12 14 15 17 18 19 20 21 23 24
1 40 34 2 3 4 5 6 7 8 9 11 12 14 15 17 18 20 21 23 24
1 40 34 2 3 4 5 6 7 8 9 11 12 14 15 17 18 19 20 21 23 24
39 38 32 2 3 5 6 8 9 11 12 14 15 17 18 20 21 23 24
39 38 32 2 3 5 6 8 9 11 12 14 15 17 18 19 20 21 23 24
39 38 32 2 3 5 6 8 9 11 12 13 14 15 17 18 20 21 23 24
39 38 32 2 3 5 6 8 9 11 12 13 14 15 17 18 19 20 21 23 24
38 35 33 2 3 5 6 8 9 11 12 14 15 17 18 20 21 23 24
39 38 33 2 3 5 6 8 9 11 12 14 15 17 18 20 21 23 24
38 35 33 2 3 5 6 8 9 11 12 14 15 17 18 19 20 21 23 24
39 38 33 2 3 5 6 8 9 11 12 14 15 17 18 19 20 21 23 24
39 33 31 2 3 5 6 8 9 11 12 14 15 17 18 20 21 23 24
39 33 31 2 3 5 6 8 9 11 12 14 15 17 18 19 20 21 23 24
38 35 33 2 3 5 6 7 8 9 11 12 14 15 17 18 20 21 23 24
39 38 33 2 3 5 6 7 8 9 11 12 14 15 17 18 20 21 23 24
38 35 33 2 3 5 6 7 8 9 11 12 14 15 17 18 19 20 21 23 24
39 38 33 2 3 5 6 7 8 9 11 12 14 15 17 18 19 20 21 23 24
39 33 31 2 3 5 6 7 8 9 11 12 14 15 17 18 20 21 23 24
39 33 31 2 3 5 6 7 8 9 11 12 14 15 17 18 19 20 21 23 24
39 33 2 3 5 6 7 8 9 10 11 12 14 15 17 18 20 21 23 24
39 33 2 3 5 6 7 8 9 10 11 12 14 15 17 18 19 20 21 23 24
39 33 2 3 5 6 9 11 12 14 15 17 18 20 21 23 24 27
39 33 2 3 5 6 9 11 12 14 15 17 18 19 20 21 23 24 27
40 34 30 2 3 5 6 8 9 11 12 14 15 17 18 20 21 23 24
40 34 30 2 3 5 6 8 9 11 12 14 15 17 18 19 20 21 23 24
40 34 30 2 3 5 6 7 8 9 11 12 14 15 17 18 20 21 23 24
40 34 30 2 3 5 6 7 8 9 11 12 14 15 17 18 19 20 21 23 24
40 34 3 5 6 8 9 11 12 14 15 17 18 20 21 23 24 26
40 34 3 5 6 8 9 11 12 14 15 17 18 19 20 21 23 24 26
40 34 3 5 6 7 8 9 11 12 14 15 17 18 20 21 23 24 26
40 34 3 5 6 7 8 9 11 12 14 15 17 18 19 20 21 23 24 26
 Minimal traps 
2 5 8 11 14 17 20 23 25 26 27 28 29
21 23 29
15 17 28
9 11 27
3 5 26
4 5 6
31 8 11
34 8 11 14 17
37 8 11 14 17 20 23
32 14 17
36 14 17 20 23
16 17 18
40 8 11 20 23
10 11 12
35 20 23
22 23 24
7 8 9
31 7 8 9 11
34 7 8 9 11 14 17
37 7 8 9 11 14 17 20 23
40 7 8 9 11 20 23
31 7 8 9 10 11
34 7 8 9 10 11 14 17
37 7 8 9 10 11 14 17 20 23
40 7 8 9 10 11 20 23
13 14 15
32 13 14 15 17
34 8 11 13 14 15 17
36 13 14 15 17 20 23
37 8 11 13 14 15 17 20 23
32 13 14 15 16 17
34 8 11 13 14 15 16 17
36 13 14 15 16 17 20 23
37 8 11 13 14 15 16 17 20 23
19 20 21
35 19 20 21 23
36 14 17 19 20 21 23
37 8 11 14 17 19 20 21 23
40 8 11 19 20 21 23
35 19 20 21 22 23
36 14 17 19 20 21 22 23
37 8 11 14 17 19 20 21 22 23
40 8 11 19 20 21 22 23
2 6 8 11 14 17 20 23 25 27 28 29
1 2 3
2 6 8 12 14 17 20 23 25 28 29
2 6 8 12 14 18 20 23 25 29
2 6 8 12 14 18 20 24 25
2 6 8 12 14 17 20 24 25 28
2 6 8 11 14 18 20 23 25 27 29
2 6 8 11 14 18 20 24 25 27
2 6 8 11 14 17 20 24 25 27 28
2 3 5 26
30 2 5
33 2 5 14 17
39 2 5 20 23
1 2 3 4 5 6
1 30 2 3 5
1 33 2 3 5 14 17
1 39 2 3 5 20 23
1 30 2 3 4 5
1 33 2 3 4 5 14 17
1 39 2 3 4 5 20 23
2 5 8 12 14 17 20 23 25 26 28 29
2 3 5 7 8 9 26
30 2 5 7 8 9
33 2 5 7 8 9 14 17
39 2 5 7 8 9 20 23
1 2 3 4 5 6 7 8 9
1 30 2 3 5 7 8 9
1 33 2 3 5 7 8 9 14 17
1 39 2 3 5 7 8 9 20 23
1 30 2 3 4 5 7 8 9
1 33 2 3 4 5 7 8 9 14 17
1 39 2 3 4 5 7 8 9 20 23
2 5 8 12 14 18 20 23 25 26 29
2 5 8 12 14 18 20 24 25 26
2 5 8 12 14 17 20 24 25 26 28
2 3 5 8 9 11 26 27
30 2 5 8 9 11 27
38 2 5 8 11
39 2 5 8 9 11 20 23 27
39 31 2 5 8 11 20 23
40 39 2 5 8 11 20 23
39 2 5 7 8 9 10 11 12 20 23
39 31 2 5 7 8 9 11 20 23
40 39 2 5 7 8 9 11 20 23
39 31 2 5 7 8 9 10 11 20 23
40 39 2 5 7 8 9 10 11 20 23
31 30 2 5 8 11
38 30 2 5 8 11
40 30 2 5 8 11 20 23
30 2 5 7 8 9 10 11 12
31 30 2 5 7 8 9 11
38 30 2 5 7 8 9 11
40 30 2 5 7 8 9 11 20 23
31 30 2 5 7 8 9 10 11
38 30 2 5 7 8 9 10 11
40 30 2 5 7 8 9 10 11 20 23
31 2 3 5 8 11 26
38 2 3 5 8 11 26
40 2 3 5 8 11 20 23 26
1 40 2 3 4 5 6 8 11 20 23
1 40 30 2 3 5 8 11 20 23
1 40 39 2 3 5 8 11 20 23
1 40 30 2 3 4 5 8 11 20 23
1 40 39 2 3 4 5 8 11 20 23
1 38 2 3 5 8 11
1 31 2 3 4 5 6 8 11
1 31 30 2 3 5 8 11
1 38 31 2 3 5 8 11
1 39 31 2 3 5 8 11 20 23
1 31 30 2 3 4 5 8 11
1 38 31 2 3 4 5 8 11
1 39 31 2 3 4 5 8 11 20 23
1 2 3 4 5 6 8 9 11 27
1 30 2 3 5 8 9 11 27
1 38 2 3 5 8 9 11 27
1 39 2 3 5 8 9 11 20 23 27
1 39 2 3 5 7 8 9 10 11 12 20 23
1 39 31 2 3 5 7 8 9 11 20 23
1 40 39 2 3 5 7 8 9 11 20 23
1 39 31 2 3 5 7 8 9 10 11 20 23
1 40 39 2 3 5 7 8 9 10 11 20 23
1 38 2 3 5 7 8 9 11
1 30 2 3 5 7 8 9 10 11 12
1 31 30 2 3 5 7 8 9 11
1 38 30 2 3 5 7 8 9 11
1 40 30 2 3 5 7 8 9 11 20 23
1 31 30 2 3 5 7 8 9 10 11
1 38 30 2 3 5 7 8 9 10 11
1 40 30 2 3 5 7 8 9 10 11 20 23
1 30 2 3 4 5 8 9 11 27
1 38 2 3 4 5 8 9 11 27
1 39 2 3 4 5 8 9 11 20 23 27
1 39 2 3 4 5 7 8 9 10 11 12 20 23
1 39 31 2 3 4 5 7 8 9 11 20 23
1 40 39 2 3 4 5 7 8 9 11 20 23
1 39 31 2 3 4 5 7 8 9 10 11 20 23
1 40 39 2 3 4 5 7 8 9 10 11 20 23
1 38 2 3 4 5 7 8 9 11
1 30 2 3 4 5 7 8 9 10 11 12
1 31 30 2 3 4 5 7 8 9 11
1 38 30 2 3 4 5 7 8 9 11
1 40 30 2 3 4 5 7 8 9 11 20 23
1 31 30 2 3 4 5 7 8 9 10 11
1 38 30 2 3 4 5 7 8 9 10 11
1 40 30 2 3 4 5 7 8 9 10 11 20 23
1 2 3 4 5 6 7 8 9 10 11 12
1 31 2 3 4 5 6 7 8 9 11
1 38 2 3 4 5 6 7 8 9 11
1 40 2 3 4 5 6 7 8 9 11 20 23
1 31 2 3 4 5 6 7 8 9 10 11
1 38 2 3 4 5 6 7 8 9 10 11
1 40 2 3 4 5 6 7 8 9 10 11 20 23
2 3 5 7 8 9 10 11 12 26
31 2 3 5 7 8 9 11 26
38 2 3 5 7 8 9 11 26
40 2 3 5 7 8 9 11 20 23 26
31 2 3 5 7 8 9 10 11 26
38 2 3 5 7 8 9 10 11 26
40 2 3 5 7 8 9 10 11 20 23 26
2 5 8 11 14 18 20 23 25 26 27 29
2 3 5 8 9 11 13 14 15 26 27
30 2 5 8 9 11 13 14 15 27
38 2 5 8 11 13 14 15
31 30 2 5 8 11 13 14 15
38 30 2 5 8 11 13 14 15
30 2 5 7 8 9 10 11 12 13 14 15
31 30 2 5 7 8 9 11 13 14 15
38 30 2 5 7 8 9 11 13 14 15
31 30 2 5 7 8 9 10 11 13 14 15
38 30 2 5 7 8 9 10 11 13 14 15
31 2 3 5 8 11 13 14 15 26
38 2 3 5 8 11 13 14 15 26
1 38 2 3 5 8 11 13 14 15
1 31 2 3 4 5 6 8 11 13 14 15
1 31 30 2 3 5 8 11 13 14 15
1 38 31 2 3 5 8 11 13 14 15
1 31 30 2 3 4 5 8 11 13 14 15
1 38 31 2 3 4 5 8 11 13 14 15
1 2 3 4 5 6 8 9 11 13 14 15 27
1 30 2 3 5 8 9 11 13 14 15 27
1 38 2 3 5 8 9 11 13 14 15 27
1 38 2 3 5 7 8 9 11 13 14 15
1 30 2 3 5 7 8 9 10 11 12 13 14 15
1 31 30 2 3 5 7 8 9 11 13 14 15
1 38 30 2 3 5 7 8 9 11 13 14 15
1 31 30 2 3 5 7 8 9 10 11 13 14 15
1 38 30 2 3 5 7 8 9 10 11 13 14 15
1 30 2 3 4 5 8 9 11 13 14 15 27
1 38 2 3 4 5 8 9 11 13 14 15 27
1 38 2 3 4 5 7 8 9 11 13 14 15
1 30 2 3 4 5 7 8 9 10 11 12 13 14 15
1 31 30 2 3 4 5 7 8 9 11 13 14 15
1 38 30 2 3 4 5 7 8 9 11 13 14 15
1 31 30 2 3 4 5 7 8 9 10 11 13 14 15
1 38 30 2 3 4 5 7 8 9 10 11 13 14 15
1 2 3 4 5 6 7 8 9 10 11 12 13 14 15
1 31 2 3 4 5 6 7 8 9 11 13 14 15
1 38 2 3 4 5 6 7 8 9 11 13 14 15
1 31 2 3 4 5 6 7 8 9 10 11 13 14 15
1 38 2 3 4 5 6 7 8 9 10 11 13 14 15
2 3 5 7 8 9 10 11 12 13 14 15 26
31 2 3 5 7 8 9 11 13 14 15 26
38 2 3 5 7 8 9 11 13 14 15 26
31 2 3 5 7 8 9 10 11 13 14 15 26
38 2 3 5 7 8 9 10 11 13 14 15 26
2 5 8 11 14 18 20 24 25 26 27
2 3 5 8 9 11 14 15 17 26 27 28
30 2 5 8 9 11 14 15 17 27 28
33 2 5 8 9 11 14 17 27
38 2 5 8 11 14 15 17 28
38 32 2 5 8 11 14 17
38 34 2 5 8 11 14 17
38 2 5 8 11 13 14 15 16 17 18
38 32 2 5 8 11 13 14 15 17
38 34 2 5 8 11 13 14 15 17
38 32 2 5 8 11 13 14 15 16 17
38 34 2 5 8 11 13 14 15 16 17
33 31 2 5 8 11 14 17
34 33 2 5 8 11 14 17
38 33 2 5 8 11 14 17
33 2 5 7 8 9 10 11 12 14 17
33 31 2 5 7 8 9 11 14 17
34 33 2 5 7 8 9 11 14 17
38 33 2 5 7 8 9 11 14 17
33 31 2 5 7 8 9 10 11 14 17
34 33 2 5 7 8 9 10 11 14 17
38 33 2 5 7 8 9 10 11 14 17
31 30 2 5 8 11 14 15 17 28
34 30 2 5 8 11 14 17
38 30 2 5 8 11 14 15 17 28
38 32 30 2 5 8 11 14 17
38 33 30 2 5 8 11 14 17
38 30 2 5 8 11 13 14 15 16 17 18
38 32 30 2 5 8 11 13 14 15 17
38 33 30 2 5 8 11 13 14 15 17
38 32 30 2 5 8 11 13 14 15 16 17
38 33 30 2 5 8 11 13 14 15 16 17
32 31 30 2 5 8 11 14 17
33 31 30 2 5 8 11 14 17
34 31 30 2 5 8 11 14 17
31 30 2 5 8 11 13 14 15 16 17 18
32 31 30 2 5 8 11 13 14 15 17
33 31 30 2 5 8 11 13 14 15 17
34 31 30 2 5 8 11 13 14 15 17
32 31 30 2 5 8 11 13 14 15 16 17
33 31 30 2 5 8 11 13 14 15 16 17
34 31 30 2 5 8 11 13 14 15 16 17
32 30 2 5 8 9 11 14 17 27
33 30 2 5 8 9 11 14 17 27
34 30 2 5 8 9 11 14 17 27
34 30 2 5 7 8 9 11 14 17
33 30 2 5 7 8 9 10 11 12 14 17
33 31 30 2 5 7 8 9 11 14 17
34 33 30 2 5 7 8 9 11 14 17
38 33 30 2 5 7 8 9 11 14 17
33 31 30 2 5 7 8 9 10 11 14 17
34 33 30 2 5 7 8 9 10 11 14 17
38 33 30 2 5 7 8 9 10 11 14 17
32 30 2 5 7 8 9 10 11 12 14 17
32 31 30 2 5 7 8 9 11 14 17
34 32 30 2 5 7 8 9 11 14 17
38 32 30 2 5 7 8 9 11 14 17
32 31 30 2 5 7 8 9 10 11 14 17
34 32 30 2 5 7 8 9 10 11 14 17
38 32 30 2 5 7 8 9 10 11 14 17
30 2 5 7 8 9 10 11 12 14 15 17 28
31 30 2 5 7 8 9 11 14 15 17 28
34 30 2 5 7 8 9 11 14 15 17 28
38 30 2 5 7 8 9 11 14 15 17 28
38 30 2 5 7 8 9 11 13 14 15 16 17 18
38 32 30 2 5 7 8 9 11 13 14 15 17
38 33 30 2 5 7 8 9 11 13 14 15 17
38 32 30 2 5 7 8 9 11 13 14 15 16 17
38 33 30 2 5 7 8 9 11 13 14 15 16 17
34 30 2 5 7 8 9 11 13 14 15 17
31 30 2 5 7 8 9 11 13 14 15 16 17 18
32 31 30 2 5 7 8 9 11 13 14 15 17
33 31 30 2 5 7 8 9 11 13 14 15 17
34 31 30 2 5 7 8 9 11 13 14 15 17
32 31 30 2 5 7 8 9 11 13 14 15 16 17
33 31 30 2 5 7 8 9 11 13 14 15 16 17
34 31 30 2 5 7 8 9 11 13 14 15 16 17
31 30 2 5 7 8 9 10 11 14 15 17 28
34 30 2 5 7 8 9 10 11 14 15 17 28
38 30 2 5 7 8 9 10 11 14 15 17 28
38 30 2 5 7 8 9 10 11 13 14 15 16 17 18
38 32 30 2 5 7 8 9 10 11 13 14 15 17
38 33 30 2 5 7 8 9 10 11 13 14 15 17
38 32 30 2 5 7 8 9 10 11 13 14 15 16 17
38 33 30 2 5 7 8 9 10 11 13 14 15 16 17
34 30 2 5 7 8 9 10 11 13 14 15 17
31 30 2 5 7 8 9 10 11 13 14 15 16 17 18
32 31 30 2 5 7 8 9 10 11 13 14 15 17
33 31 30 2 5 7 8 9 10 11 13 14 15 17
34 31 30 2 5 7 8 9 10 11 13 14 15 17
32 31 30 2 5 7 8 9 10 11 13 14 15 16 17
33 31 30 2 5 7 8 9 10 11 13 14 15 16 17
34 31 30 2 5 7 8 9 10 11 13 14 15 16 17
30 2 5 7 8 9 10 11 12 13 14 15 16 17 18
32 30 2 5 7 8 9 10 11 12 13 14 15 17
33 30 2 5 7 8 9 10 11 12 13 14 15 17
34 30 2 5 7 8 9 10 11 12 13 14 15 17
32 30 2 5 7 8 9 10 11 12 13 14 15 16 17
33 30 2 5 7 8 9 10 11 12 13 14 15 16 17
34 30 2 5 7 8 9 10 11 12 13 14 15 16 17
30 2 5 8 9 11 13 14 15 16 17 18 27
32 30 2 5 8 9 11 13 14 15 17 27
33 30 2 5 8 9 11 13 14 15 17 27
34 30 2 5 8 9 11 13 14 15 17 27
32 30 2 5 8 9 11 13 14 15 16 17 27
33 30 2 5 8 9 11 13 14 15 16 17 27
34 30 2 5 8 9 11 13 14 15 16 17 27
31 2 3 5 8 11 14 15 17 26 28
34 2 3 5 8 11 14 17 26
38 2 3 5 8 11 14 15 17 26 28
38 32 2 3 5 8 11 14 17 26
38 33 2 3 5 8 11 14 17 26
1 38 33 2 3 5 8 11 14 17
1 38 32 2 3 5 8 11 14 17
1 38 2 3 5 8 11 14 15 17 28
1 38 2 3 5 8 11 13 14 15 16 17 18
1 38 32 2 3 5 8 11 13 14 15 17
1 38 33 2 3 5 8 11 13 14 15 17
1 38 32 2 3 5 8 11 13 14 15 16 17
1 38 33 2 3 5 8 11 13 14 15 16 17
38 2 3 5 8 11 13 14 15 16 17 18 26
38 32 2 3 5 8 11 13 14 15 17 26
38 33 2 3 5 8 11 13 14 15 17 26
38 32 2 3 5 8 11 13 14 15 16 17 26
38 33 2 3 5 8 11 13 14 15 16 17 26
1 34 2 3 4 5 6 8 11 14 17
1 34 30 2 3 5 8 11 14 17
1 34 33 2 3 5 8 11 14 17
1 38 34 2 3 5 8 11 14 17
1 34 30 2 3 4 5 8 11 14 17
1 34 33 2 3 4 5 8 11 14 17
1 38 34 2 3 4 5 8 11 14 17
32 31 2 3 5 8 11 14 17 26
33 31 2 3 5 8 11 14 17 26
34 31 2 3 5 8 11 14 17 26
1 34 31 2 3 4 5 6 8 11 14 17
1 34 31 30 2 3 5 8 11 14 17
1 38 34 31 2 3 5 8 11 14 17
1 34 31 30 2 3 4 5 8 11 14 17
1 38 34 31 2 3 4 5 8 11 14 17
1 33 31 2 3 5 8 11 14 17
1 32 31 2 3 4 5 6 8 11 14 17
1 32 31 30 2 3 5 8 11 14 17
1 33 32 31 2 3 5 8 11 14 17
1 38 32 31 2 3 5 8 11 14 17
1 32 31 30 2 3 4 5 8 11 14 17
1 33 32 31 2 3 4 5 8 11 14 17
1 38 32 31 2 3 4 5 8 11 14 17
1 31 2 3 4 5 6 8 11 14 15 17 28
1 31 30 2 3 5 8 11 14 15 17 28
1 33 31 2 3 5 8 11 14 15 17 28
1 38 31 2 3 5 8 11 14 15 17 28
1 38 31 2 3 5 8 11 13 14 15 16 17 18
1 38 32 31 2 3 5 8 11 13 14 15 17
1 38 34 31 2 3 5 8 11 13 14 15 17
1 38 32 31 2 3 5 8 11 13 14 15 16 17
1 38 34 31 2 3 5 8 11 13 14 15 16 17
1 33 31 2 3 5 8 11 13 14 15 17
1 31 30 2 3 5 8 11 13 14 15 16 17 18
1 32 31 30 2 3 5 8 11 13 14 15 17
1 33 31 30 2 3 5 8 11 13 14 15 17
1 34 31 30 2 3 5 8 11 13 14 15 17
1 32 31 30 2 3 5 8 11 13 14 15 16 17
1 33 31 30 2 3 5 8 11 13 14 15 16 17
1 34 31 30 2 3 5 8 11 13 14 15 16 17
1 31 30 2 3 4 5 8 11 14 15 17 28
1 33 31 2 3 4 5 8 11 14 15 17 28
1 38 31 2 3 4 5 8 11 14 15 17 28
1 38 31 2 3 4 5 8 11 13 14 15 16 17 18
1 38 32 31 2 3 4 5 8 11 13 14 15 17
1 38 34 31 2 3 4 5 8 11 13 14 15 17
1 38 32 31 2 3 4 5 8 11 13 14 15 16 17
1 38 34 31 2 3 4 5 8 11 13 14 15 16 17
1 33 31 2 3 4 5 8 11 13 14 15 17
1 31 30 2 3 4 5 8 11 13 14 15 16 17 18
1 32 31 30 2 3 4 5 8 11 13 14 15 17
1 33 31 30 2 3 4 5 8 11 13 14 15 17
1 34 31 30 2 3 4 5 8 11 13 14 15 17
1 32 31 30 2 3 4 5 8 11 13 14 15 16 17
1 33 31 30 2 3 4 5 8 11 13 14 15 16 17
1 34 31 30 2 3 4 5 8 11 13 14 15 16 17
1 31 2 3 4 5 6 8 11 13 14 15 16 17 18
1 32 31 2 3 4 5 6 8 11 13 14 15 17
1 33 31 2 3 4 5 6 8 11 13 14 15 17
1 34 31 2 3 4 5 6 8 11 13 14 15 17
1 32 31 2 3 4 5 6 8 11 13 14 15 16 17
1 33 31 2 3 4 5 6 8 11 13 14 15 16 17
1 34 31 2 3 4 5 6 8 11 13 14 15 16 17
31 2 3 5 8 11 13 14 15 16 17 18 26
32 31 2 3 5 8 11 13 14 15 17 26
33 31 2 3 5 8 11 13 14 15 17 26
34 31 2 3 5 8 11 13 14 15 17 26
32 31 2 3 5 8 11 13 14 15 16 17 26
33 31 2 3 5 8 11 13 14 15 16 17 26
34 31 2 3 5 8 11 13 14 15 16 17 26
32 2 3 5 8 9 11 14 17 26 27
33 2 3 5 8 9 11 14 17 26 27
34 2 3 5 8 9 11 14 17 26 27
1 34 2 3 4 5 6 8 9 11 14 17 27
1 34 30 2 3 5 8 9 11 14 17 27
1 38 34 2 3 5 8 9 11 14 17 27
1 38 34 2 3 5 7 8 9 11 14 17
1 34 30 2 3 5 7 8 9 11 14 17
1 34 30 2 3 4 5 8 9 11 14 17 27
1 38 34 2 3 4 5 8 9 11 14 17 27
1 38 34 2 3 4 5 7 8 9 11 14 17
1 34 30 2 3 4 5 7 8 9 11 14 17
1 34 2 3 4 5 6 7 8 9 11 14 17
34 2 3 5 7 8 9 11 14 17 26
1 33 2 3 5 8 9 11 14 17 27
1 33 2 3 5 7 8 9 10 11 12 14 17
1 33 31 2 3 5 7 8 9 11 14 17
1 34 33 2 3 5 7 8 9 11 14 17
1 38 33 2 3 5 7 8 9 11 14 17
1 33 31 2 3 5 7 8 9 10 11 14 17
1 34 33 2 3 5 7 8 9 10 11 14 17
1 38 33 2 3 5 7 8 9 10 11 14 17
33 2 3 5 7 8 9 10 11 12 14 17 26
33 31 2 3 5 7 8 9 11 14 17 26
34 33 2 3 5 7 8 9 11 14 17 26
38 33 2 3 5 7 8 9 11 14 17 26
33 31 2 3 5 7 8 9 10 11 14 17 26
34 33 2 3 5 7 8 9 10 11 14 17 26
38 33 2 3 5 7 8 9 10 11 14 17 26
1 32 2 3 4 5 6 8 9 11 14 17 27
1 32 30 2 3 5 8 9 11 14 17 27
1 33 32 2 3 5 8 9 11 14 17 27
1 38 32 2 3 5 8 9 11 14 17 27
1 38 32 2 3 5 7 8 9 11 14 17
1 33 32 2 3 5 7 8 9 10 11 12 14 17
1 33 32 31 2 3 5 7 8 9 11 14 17
1 34 33 32 2 3 5 7 8 9 11 14 17
1 38 33 32 2 3 5 7 8 9 11 14 17
1 33 32 31 2 3 5 7 8 9 10 11 14 17
1 34 33 32 2 3 5 7 8 9 10 11 14 17
1 38 33 32 2 3 5 7 8 9 10 11 14 17
1 32 30 2 3 5 7 8 9 10 11 12 14 17
1 32 31 30 2 3 5 7 8 9 11 14 17
1 34 32 30 2 3 5 7 8 9 11 14 17
1 38 32 30 2 3 5 7 8 9 11 14 17
1 32 31 30 2 3 5 7 8 9 10 11 14 17
1 34 32 30 2 3 5 7 8 9 10 11 14 17
1 38 32 30 2 3 5 7 8 9 10 11 14 17
1 32 30 2 3 4 5 8 9 11 14 17 27
1 33 32 2 3 4 5 8 9 11 14 17 27
1 38 32 2 3 4 5 8 9 11 14 17 27
1 38 32 2 3 4 5 7 8 9 11 14 17
1 33 32 2 3 4 5 7 8 9 10 11 12 14 17
1 33 32 31 2 3 4 5 7 8 9 11 14 17
1 34 33 32 2 3 4 5 7 8 9 11 14 17
1 38 33 32 2 3 4 5 7 8 9 11 14 17
1 33 32 31 2 3 4 5 7 8 9 10 11 14 17
1 34 33 32 2 3 4 5 7 8 9 10 11 14 17
1 38 33 32 2 3 4 5 7 8 9 10 11 14 17
1 32 30 2 3 4 5 7 8 9 10 11 12 14 17
1 32 31 30 2 3 4 5 7 8 9 11 14 17
1 34 32 30 2 3 4 5 7 8 9 11 14 17
1 38 32 30 2 3 4 5 7 8 9 11 14 17
1 32 31 30 2 3 4 5 7 8 9 10 11 14 17
1 34 32 30 2 3 4 5 7 8 9 10 11 14 17
1 38 32 30 2 3 4 5 7 8 9 10 11 14 17
1 32 2 3 4 5 6 7 8 9 10 11 12 14 17
1 32 31 2 3 4 5 6 7 8 9 11 14 17
1 34 32 2 3 4 5 6 7 8 9 11 14 17
1 38 32 2 3 4 5 6 7 8 9 11 14 17
1 32 31 2 3 4 5 6 7 8 9 10 11 14 17
1 34 32 2 3 4 5 6 7 8 9 10 11 14 17
1 38 32 2 3 4 5 6 7 8 9 10 11 14 17
32 2 3 5 7 8 9 10 11 12 14 17 26
32 31 2 3 5 7 8 9 11 14 17 26
34 32 2 3 5 7 8 9 11 14 17 26
38 32 2 3 5 7 8 9 11 14 17 26
32 31 2 3 5 7 8 9 10 11 14 17 26
34 32 2 3 5 7 8 9 10 11 14 17 26
38 32 2 3 5 7 8 9 10 11 14 17 26
1 2 3 4 5 6 8 9 11 14 15 17 27 28
1 30 2 3 5 8 9 11 14 15 17 27 28
1 33 2 3 5 8 9 11 14 15 17 27 28
1 38 2 3 5 8 9 11 14 15 17 27 28
1 38 2 3 5 7 8 9 11 14 15 17 28
1 38 2 3 5 7 8 9 11 13 14 15 16 17 18
1 38 32 2 3 5 7 8 9 11 13 14 15 17
1 38 34 2 3 5 7 8 9 11 13 14 15 17
1 38 32 2 3 5 7 8 9 11 13 14 15 16 17
1 38 34 2 3 5 7 8 9 11 13 14 15 16 17
1 38 2 3 5 8 9 11 13 14 15 16 17 18 27
1 38 32 2 3 5 8 9 11 13 14 15 17 27
1 38 34 2 3 5 8 9 11 13 14 15 17 27
1 38 32 2 3 5 8 9 11 13 14 15 16 17 27
1 38 34 2 3 5 8 9 11 13 14 15 16 17 27
1 33 2 3 5 7 8 9 10 11 12 14 15 17 28
1 33 31 2 3 5 7 8 9 11 14 15 17 28
1 34 33 2 3 5 7 8 9 11 14 15 17 28
1 38 33 2 3 5 7 8 9 11 14 15 17 28
1 38 33 2 3 5 7 8 9 11 13 14 15 17
1 34 33 2 3 5 7 8 9 11 13 14 15 17
1 33 31 2 3 5 7 8 9 11 13 14 15 17
1 33 31 2 3 5 7 8 9 10 11 14 15 17 28
1 34 33 2 3 5 7 8 9 10 11 14 15 17 28
1 38 33 2 3 5 7 8 9 10 11 14 15 17 28
1 38 33 2 3 5 7 8 9 10 11 13 14 15 17
1 34 33 2 3 5 7 8 9 10 11 13 14 15 17
1 33 31 2 3 5 7 8 9 10 11 13 14 15 17
1 33 2 3 5 7 8 9 10 11 12 13 14 15 17
1 33 2 3 5 8 9 11 13 14 15 17 27
1 30 2 3 5 7 8 9 10 11 12 14 15 17 28
1 31 30 2 3 5 7 8 9 11 14 15 17 28
1 34 30 2 3 5 7 8 9 11 14 15 17 28
1 38 30 2 3 5 7 8 9 11 14 15 17 28
1 38 30 2 3 5 7 8 9 11 13 14 15 16 17 18
1 38 32 30 2 3 5 7 8 9 11 13 14 15 17
1 38 33 30 2 3 5 7 8 9 11 13 14 15 17
1 38 32 30 2 3 5 7 8 9 11 13 14 15 16 17
1 38 33 30 2 3 5 7 8 9 11 13 14 15 16 17
1 34 30 2 3 5 7 8 9 11 13 14 15 17
1 31 30 2 3 5 7 8 9 11 13 14 15 16 17 18
1 32 31 30 2 3 5 7 8 9 11 13 14 15 17
1 33 31 30 2 3 5 7 8 9 11 13 14 15 17
1 34 31 30 2 3 5 7 8 9 11 13 14 15 17
1 32 31 30 2 3 5 7 8 9 11 13 14 15 16 17
1 33 31 30 2 3 5 7 8 9 11 13 14 15 16 17
1 34 31 30 2 3 5 7 8 9 11 13 14 15 16 17
1 31 30 2 3 5 7 8 9 10 11 14 15 17 28
1 34 30 2 3 5 7 8 9 10 11 14 15 17 28
1 38 30 2 3 5 7 8 9 10 11 14 15 17 28
1 38 30 2 3 5 7 8 9 10 11 13 14 15 16 17 18
1 38 32 30 2 3 5 7 8 9 10 11 13 14 15 17
1 38 33 30 2 3 5 7 8 9 10 11 13 14 15 17
1 38 32 30 2 3 5 7 8 9 10 11 13 14 15 16 17
1 38 33 30 2 3 5 7 8 9 10 11 13 14 15 16 17
1 34 30 2 3 5 7 8 9 10 11 13 14 15 17
1 31 30 2 3 5 7 8 9 10 11 13 14 15 16 17 18
1 32 31 30 2 3 5 7 8 9 10 11 13 14 15 17
1 33 31 30 2 3 5 7 8 9 10 11 13 14 15 17
1 34 31 30 2 3 5 7 8 9 10 11 13 14 15 17
1 32 31 30 2 3 5 7 8 9 10 11 13 14 15 16 17
1 33 31 30 2 3 5 7 8 9 10 11 13 14 15 16 17
1 34 31 30 2 3 5 7 8 9 10 11 13 14 15 16 17
1 30 2 3 5 7 8 9 10 11 12 13 14 15 16 17 18
1 32 30 2 3 5 7 8 9 10 11 12 13 14 15 17
1 33 30 2 3 5 7 8 9 10 11 12 13 14 15 17
1 34 30 2 3 5 7 8 9 10 11 12 13 14 15 17
1 32 30 2 3 5 7 8 9 10 11 12 13 14 15 16 17
1 33 30 2 3 5 7 8 9 10 11 12 13 14 15 16 17
1 34 30 2 3 5 7 8 9 10 11 12 13 14 15 16 17
1 30 2 3 5 8 9 11 13 14 15 16 17 18 27
1 32 30 2 3 5 8 9 11 13 14 15 17 27
1 33 30 2 3 5 8 9 11 13 14 15 17 27
1 34 30 2 3 5 8 9 11 13 14 15 17 27
1 32 30 2 3 5 8 9 11 13 14 15 16 17 27
1 33 30 2 3 5 8 9 11 13 14 15 16 17 27
1 34 30 2 3 5 8 9 11 13 14 15 16 17 27
1 30 2 3 4 5 8 9 11 14 15 17 27 28
1 33 2 3 4 5 8 9 11 14 15 17 27 28
1 38 2 3 4 5 8 9 11 14 15 17 27 28
1 38 2 3 4 5 7 8 9 11 14 15 17 28
1 38 2 3 4 5 7 8 9 11 13 14 15 16 17 18
1 38 32 2 3 4 5 7 8 9 11 13 14 15 17
1 38 34 2 3 4 5 7 8 9 11 13 14 15 17
1 38 32 2 3 4 5 7 8 9 11 13 14 15 16 17
1 38 34 2 3 4 5 7 8 9 11 13 14 15 16 17
1 38 2 3 4 5 8 9 11 13 14 15 16 17 18 27
1 38 32 2 3 4 5 8 9 11 13 14 15 17 27
1 38 34 2 3 4 5 8 9 11 13 14 15 17 27
1 38 32 2 3 4 5 8 9 11 13 14 15 16 17 27
1 38 34 2 3 4 5 8 9 11 13 14 15 16 17 27
1 33 2 3 4 5 7 8 9 10 11 12 14 15 17 28
1 33 31 2 3 4 5 7 8 9 11 14 15 17 28
1 34 33 2 3 4 5 7 8 9 11 14 15 17 28
1 38 33 2 3 4 5 7 8 9 11 14 15 17 28
1 38 33 2 3 4 5 7 8 9 11 13 14 15 17
1 34 33 2 3 4 5 7 8 9 11 13 14 15 17
1 33 31 2 3 4 5 7 8 9 11 13 14 15 17
1 33 31 2 3 4 5 7 8 9 10 11 14 15 17 28
1 34 33 2 3 4 5 7 8 9 10 11 14 15 17 28
1 38 33 2 3 4 5 7 8 9 10 11 14 15 17 28
1 38 33 2 3 4 5 7 8 9 10 11 13 14 15 17
1 34 33 2 3 4 5 7 8 9 10 11 13 14 15 17
1 33 31 2 3 4 5 7 8 9 10 11 13 14 15 17
1 33 2 3 4 5 7 8 9 10 11 12 13 14 15 17
1 33 2 3 4 5 8 9 11 13 14 15 17 27
1 30 2 3 4 5 7 8 9 10 11 12 14 15 17 28
1 31 30 2 3 4 5 7 8 9 11 14 15 17 28
1 34 30 2 3 4 5 7 8 9 11 14 15 17 28
1 38 30 2 3 4 5 7 8 9 11 14 15 17 28
1 38 30 2 3 4 5 7 8 9 11 13 14 15 16 17 18
1 38 32 30 2 3 4 5 7 8 9 11 13 14 15 17
1 38 33 30 2 3 4 5 7 8 9 11 13 14 15 17
1 38 32 30 2 3 4 5 7 8 9 11 13 14 15 16 17
1 38 33 30 2 3 4 5 7 8 9 11 13 14 15 16 17
1 34 30 2 3 4 5 7 8 9 11 13 14 15 17
1 31 30 2 3 4 5 7 8 9 11 13 14 15 16 17 18
1 32 31 30 2 3 4 5 7 8 9 11 13 14 15 17
1 33 31 30 2 3 4 5 7 8 9 11 13 14 15 17
1 34 31 30 2 3 4 5 7 8 9 11 13 14 15 17
1 32 31 30 2 3 4 5 7 8 9 11 13 14 15 16 17
1 33 31 30 2 3 4 5 7 8 9 11 13 14 15 16 17
1 34 31 30 2 3 4 5 7 8 9 11 13 14 15 16 17
1 31 30 2 3 4 5 7 8 9 10 11 14 15 17 28
1 34 30 2 3 4 5 7 8 9 10 11 14 15 17 28
1 38 30 2 3 4 5 7 8 9 10 11 14 15 17 28
1 38 30 2 3 4 5 7 8 9 10 11 13 14 15 16 17 18
1 38 32 30 2 3 4 5 7 8 9 10 11 13 14 15 17
1 38 33 30 2 3 4 5 7 8 9 10 11 13 14 15 17
1 38 32 30 2 3 4 5 7 8 9 10 11 13 14 15 16 17
1 38 33 30 2 3 4 5 7 8 9 10 11 13 14 15 16 17
1 34 30 2 3 4 5 7 8 9 10 11 13 14 15 17
1 31 30 2 3 4 5 7 8 9 10 11 13 14 15 16 17 18
1 32 31 30 2 3 4 5 7 8 9 10 11 13 14 15 17
1 33 31 30 2 3 4 5 7 8 9 10 11 13 14 15 17
1 34 31 30 2 3 4 5 7 8 9 10 11 13 14 15 17
1 32 31 30 2 3 4 5 7 8 9 10 11 13 14 15 16 17
1 33 31 30 2 3 4 5 7 8 9 10 11 13 14 15 16 17
1 34 31 30 2 3 4 5 7 8 9 10 11 13 14 15 16 17
1 30 2 3 4 5 7 8 9 10 11 12 13 14 15 16 17 18
1 32 30 2 3 4 5 7 8 9 10 11 12 13 14 15 17
1 33 30 2 3 4 5 7 8 9 10 11 12 13 14 15 17
1 34 30 2 3 4 5 7 8 9 10 11 12 13 14 15 17
1 32 30 2 3 4 5 7 8 9 10 11 12 13 14 15 16 17
1 33 30 2 3 4 5 7 8 9 10 11 12 13 14 15 16 17
1 34 30 2 3 4 5 7 8 9 10 11 12 13 14 15 16 17
1 30 2 3 4 5 8 9 11 13 14 15 16 17 18 27
1 32 30 2 3 4 5 8 9 11 13 14 15 17 27
1 33 30 2 3 4 5 8 9 11 13 14 15 17 27
1 34 30 2 3 4 5 8 9 11 13 14 15 17 27
1 32 30 2 3 4 5 8 9 11 13 14 15 16 17 27
1 33 30 2 3 4 5 8 9 11 13 14 15 16 17 27
1 34 30 2 3 4 5 8 9 11 13 14 15 16 17 27
1 2 3 4 5 6 7 8 9 10 11 12 14 15 17 28
1 31 2 3 4 5 6 7 8 9 11 14 15 17 28
1 34 2 3 4 5 6 7 8 9 11 14 15 17 28
1 38 2 3 4 5 6 7 8 9 11 14 15 17 28
1 38 2 3 4 5 6 7 8 9 11 13 14 15 16 17 18
1 38 32 2 3 4 5 6 7 8 9 11 13 14 15 17
1 38 33 2 3 4 5 6 7 8 9 11 13 14 15 17
1 38 32 2 3 4 5 6 7 8 9 11 13 14 15 16 17
1 38 33 2 3 4 5 6 7 8 9 11 13 14 15 16 17
1 34 2 3 4 5 6 7 8 9 11 13 14 15 17
1 31 2 3 4 5 6 7 8 9 11 13 14 15 16 17 18
1 32 31 2 3 4 5 6 7 8 9 11 13 14 15 17
1 33 31 2 3 4 5 6 7 8 9 11 13 14 15 17
1 34 31 2 3 4 5 6 7 8 9 11 13 14 15 17
1 32 31 2 3 4 5 6 7 8 9 11 13 14 15 16 17
1 33 31 2 3 4 5 6 7 8 9 11 13 14 15 16 17
1 34 31 2 3 4 5 6 7 8 9 11 13 14 15 16 17
1 31 2 3 4 5 6 7 8 9 10 11 14 15 17 28
1 34 2 3 4 5 6 7 8 9 10 11 14 15 17 28
1 38 2 3 4 5 6 7 8 9 10 11 14 15 17 28
1 38 2 3 4 5 6 7 8 9 10 11 13 14 15 16 17 18
1 38 32 2 3 4 5 6 7 8 9 10 11 13 14 15 17
1 38 33 2 3 4 5 6 7 8 9 10 11 13 14 15 17
1 38 32 2 3 4 5 6 7 8 9 10 11 13 14 15 16 17
1 38 33 2 3 4 5 6 7 8 9 10 11 13 14 15 16 17
1 34 2 3 4 5 6 7 8 9 10 11 13 14 15 17
1 31 2 3 4 5 6 7 8 9 10 11 13 14 15 16 17 18
1 32 31 2 3 4 5 6 7 8 9 10 11 13 14 15 17
1 33 31 2 3 4 5 6 7 8 9 10 11 13 14 15 17
1 34 31 2 3 4 5 6 7 8 9 10 11 13 14 15 17
1 32 31 2 3 4 5 6 7 8 9 10 11 13 14 15 16 17
1 33 31 2 3 4 5 6 7 8 9 10 11 13 14 15 16 17
1 34 31 2 3 4 5 6 7 8 9 10 11 13 14 15 16 17
1 2 3 4 5 6 7 8 9 10 11 12 13 14 15 16 17 18
1 32 2 3 4 5 6 7 8 9 10 11 12 13 14 15 17
1 33 2 3 4 5 6 7 8 9 10 11 12 13 14 15 17
1 34 2 3 4 5 6 7 8 9 10 11 12 13 14 15 17
1 32 2 3 4 5 6 7 8 9 10 11 12 13 14 15 16 17
1 33 2 3 4 5 6 7 8 9 10 11 12 13 14 15 16 17
1 34 2 3 4 5 6 7 8 9 10 11 12 13 14 15 16 17
1 2 3 4 5 6 8 9 11 13 14 15 16 17 18 27
1 32 2 3 4 5 6 8 9 11 13 14 15 17 27
1 33 2 3 4 5 6 8 9 11 13 14 15 17 27
1 34 2 3 4 5 6 8 9 11 13 14 15 17 27
1 32 2 3 4 5 6 8 9 11 13 14 15 16 17 27
1 33 2 3 4 5 6 8 9 11 13 14 15 16 17 27
1 34 2 3 4 5 6 8 9 11 13 14 15 16 17 27
2 3 5 7 8 9 10 11 12 14 15 17 26 28
31 2 3 5 7 8 9 11 14 15 17 26 28
34 2 3 5 7 8 9 11 14 15 17 26 28
38 2 3 5 7 8 9 11 14 15 17 26 28
38 2 3 5 7 8 9 11 13 14 15 16 17 18 26
38 32 2 3 5 7 8 9 11 13 14 15 17 26
38 33 2 3 5 7 8 9 11 13 14 15 17 26
38 32 2 3 5 7 8 9 11 13 14 15 16 17 26
38 33 2 3 5 7 8 9 11 13 14 15 16 17 26
34 2 3 5 7 8 9 11 13 14 15 17 26
31 2 3 5 7 8 9 11 13 14 15 16 17 18 26
32 31 2 3 5 7 8 9 11 13 14 15 17 26
33 31 2 3 5 7 8 9 11 13 14 15 17 26
34 31 2 3 5 7 8 9 11 13 14 15 17 26
32 31 2 3 5 7 8 9 11 13 14 15 16 17 26
33 31 2 3 5 7 8 9 11 13 14 15 16 17 26
34 31 2 3 5 7 8 9 11 13 14 15 16 17 26
31 2 3 5 7 8 9 10 11 14 15 17 26 28
34 2 3 5 7 8 9 10 11 14 15 17 26 28
38 2 3 5 7 8 9 10 11 14 15 17 26 28
38 2 3 5 7 8 9 10 11 13 14 15 16 17 18 26
38 32 2 3 5 7 8 9 10 11 13 14 15 17 26
38 33 2 3 5 7 8 9 10 11 13 14 15 17 26
38 32 2 3 5 7 8 9 10 11 13 14 15 16 17 26
38 33 2 3 5 7 8 9 10 11 13 14 15 16 17 26
34 2 3 5 7 8 9 10 11 13 14 15 17 26
31 2 3 5 7 8 9 10 11 13 14 15 16 17 18 26
32 31 2 3 5 7 8 9 10 11 13 14 15 17 26
33 31 2 3 5 7 8 9 10 11 13 14 15 17 26
34 31 2 3 5 7 8 9 10 11 13 14 15 17 26
32 31 2 3 5 7 8 9 10 11 13 14 15 16 17 26
33 31 2 3 5 7 8 9 10 11 13 14 15 16 17 26
34 31 2 3 5 7 8 9 10 11 13 14 15 16 17 26
2 3 5 7 8 9 10 11 12 13 14 15 16 17 18 26
32 2 3 5 7 8 9 10 11 12 13 14 15 17 26
33 2 3 5 7 8 9 10 11 12 13 14 15 17 26
34 2 3 5 7 8 9 10 11 12 13 14 15 17 26
32 2 3 5 7 8 9 10 11 12 13 14 15 16 17 26
33 2 3 5 7 8 9 10 11 12 13 14 15 16 17 26
34 2 3 5 7 8 9 10 11 12 13 14 15 16 17 26
2 3 5 8 9 11 13 14 15 16 17 18 26 27
32 2 3 5 8 9 11 13 14 15 17 26 27
33 2 3 5 8 9 11 13 14 15 17 26 27
34 2 3 5 8 9 11 13 14 15 17 26 27
32 2 3 5 8 9 11 13 14 15 16 17 26 27
33 2 3 5 8 9 11 13 14 15 16 17 26 27
34 2 3 5 8 9 11 13 14 15 16 17 26 27
2 5 8 11 14 17 20 24 25 26 27 28
39 38 32 2 5 8 11 14 17 20 23
39 38 32 2 5 8 11 14 17 19 20 21 23
39 38 32 2 5 8 11 14 17 19 20 21 22 23
39 38 32 2 5 8 11 13 14 15 17 20 23
39 38 32 2 5 8 11 13 14 15 16 17 20 23
39 38 32 2 5 8 11 13 14 15 17 19 20 21 23
39 38 32 2 5 8 11 13 14 15 17 19 20 21 22 23
39 38 32 2 5 8 11 13 14 15 16 17 19 20 21 23
39 38 32 2 5 8 11 13 14 15 16 17 19 20 21 22 23
38 35 33 2 5 8 11 14 17 20 23
39 38 33 2 5 8 11 14 17 20 23
38 35 33 2 5 8 11 14 17 19 20 21 23
39 38 33 2 5 8 11 14 17 19 20 21 23
38 35 33 2 5 8 11 14 17 19 20 21 22 23
39 38 33 2 5 8 11 14 17 19 20 21 22 23
39 33 31 2 5 8 11 14 17 20 23
39 33 31 2 5 8 11 14 17 19 20 21 23
39 33 31 2 5 8 11 14 17 19 20 21 22 23
39 33 2 5 8 9 11 14 17 20 23 27
39 33 2 5 7 8 9 10 11 12 14 17 20 23
39 33 31 2 5 7 8 9 11 14 17 20 23
39 38 33 2 5 7 8 9 11 14 17 20 23
39 33 31 2 5 7 8 9 10 11 14 17 20 23
39 38 33 2 5 7 8 9 10 11 14 17 20 23
38 35 33 2 5 7 8 9 11 14 17 20 23
38 35 33 2 5 7 8 9 10 11 14 17 20 23
38 35 33 2 5 7 8 9 11 14 17 19 20 21 23
39 38 33 2 5 7 8 9 11 14 17 19 20 21 23
38 35 33 2 5 7 8 9 11 14 17 19 20 21 22 23
39 38 33 2 5 7 8 9 11 14 17 19 20 21 22 23
39 33 31 2 5 7 8 9 11 14 17 19 20 21 23
39 33 31 2 5 7 8 9 11 14 17 19 20 21 22 23
38 35 33 2 5 7 8 9 10 11 14 17 19 20 21 23
39 38 33 2 5 7 8 9 10 11 14 17 19 20 21 23
38 35 33 2 5 7 8 9 10 11 14 17 19 20 21 22 23
39 38 33 2 5 7 8 9 10 11 14 17 19 20 21 22 23
39 33 31 2 5 7 8 9 10 11 14 17 19 20 21 23
39 33 31 2 5 7 8 9 10 11 14 17 19 20 21 22 23
39 33 2 5 7 8 9 10 11 12 14 17 19 20 21 23
39 33 2 5 7 8 9 10 11 12 14 17 19 20 21 22 23
39 33 2 5 8 9 11 14 17 19 20 21 23 27
39 33 2 5 8 9 11 14 17 19 20 21 22 23 27
40 34 30 2 5 8 11 14 17 20 23
40 34 30 2 5 8 11 14 17 19 20 21 23
40 34 30 2 5 8 11 14 17 19 20 21 22 23
36 34 30 2 5 7 8 9 11 14 17 20 23
36 34 30 2 5 7 8 9 11 14 17 19 20 21 23
36 34 30 2 5 7 8 9 11 14 17 19 20 21 22 23
40 36 30 2 5 7 8 9 11 13 14 15 17 20 23
40 36 30 2 5 7 8 9 10 11 13 14 15 17 20 23
40 34 30 2 5 7 8 9 11 13 14 15 17 19 20 21 23
40 34 30 2 5 7 8 9 11 13 14 15 17 19 20 21 22 23
40 34 30 2 5 7 8 9 10 11 13 14 15 17 19 20 21 23
40 34 30 2 5 7 8 9 10 11 13 14 15 17 19 20 21 22 23
1 40 38 32 2 3 5 8 11 14 17 20 23
1 40 38 32 2 3 5 8 11 14 17 19 20 21 23
1 40 38 32 2 3 5 8 11 14 17 19 20 21 22 23
1 40 38 32 2 3 5 8 11 13 14 15 17 20 23
1 40 38 32 2 3 5 8 11 13 14 15 16 17 20 23
1 40 38 32 2 3 5 8 11 13 14 15 17 19 20 21 23
1 40 38 32 2 3 5 8 11 13 14 15 17 19 20 21 22 23
1 40 38 32 2 3 5 8 11 13 14 15 16 17 19 20 21 23
1 40 38 32 2 3 5 8 11 13 14 15 16 17 19 20 21 22 23
1 38 37 2 3 5 8 11 14 17 20 23
1 38 37 2 3 4 5 8 11 14 17 20 23
40 34 2 3 5 8 11 14 17 20 23 26
1 40 34 2 3 4 5 6 8 11 14 17 20 23
1 40 34 30 2 3 5 8 11 14 17 20 23
1 40 38 34 2 3 5 8 11 14 17 20 23
1 40 34 30 2 3 4 5 8 11 14 17 20 23
1 40 38 34 2 3 4 5 8 11 14 17 20 23
1 38 35 34 2 3 5 8 11 14 17 20 23
1 38 35 34 2 3 4 5 8 11 14 17 20 23
1 38 35 34 2 3 5 8 11 14 17 19 20 21 23
1 40 38 34 2 3 5 8 11 14 17 19 20 21 23
1 38 35 34 2 3 5 8 11 14 17 19 20 21 22 23
1 40 38 34 2 3 5 8 11 14 17 19 20 21 22 23
1 40 34 30 2 3 5 8 11 14 17 19 20 21 23
1 40 34 30 2 3 5 8 11 14 17 19 20 21 22 23
1 38 35 34 2 3 4 5 8 11 14 17 19 20 21 23
1 40 38 34 2 3 4 5 8 11 14 17 19 20 21 23
1 38 35 34 2 3 4 5 8 11 14 17 19 20 21 22 23
1 40 38 34 2 3 4 5 8 11 14 17 19 20 21 22 23
1 40 34 30 2 3 4 5 8 11 14 17 19 20 21 23
1 40 34 30 2 3 4 5 8 11 14 17 19 20 21 22 23
1 40 34 2 3 4 5 6 8 11 14 17 19 20 21 23
1 40 34 2 3 4 5 6 8 11 14 17 19 20 21 22 23
40 34 2 3 5 8 11 14 17 19 20 21 23 26
40 34 2 3 5 8 11 14 17 19 20 21 22 23 26
1 37 33 31 2 3 5 8 11 14 17 20 23
1 36 33 31 2 3 5 8 11 14 17 20 23
1 36 33 31 2 3 5 8 11 14 17 19 20 21 23
1 37 33 31 2 3 5 8 11 14 17 19 20 21 23
1 36 33 31 2 3 5 8 11 14 17 19 20 21 22 23
1 37 33 31 2 3 5 8 11 14 17 19 20 21 22 23
1 39 37 31 2 3 5 8 11 13 14 15 17 20 23
1 39 37 31 2 3 4 5 8 11 13 14 15 17 20 23
1 39 36 31 2 3 5 8 11 13 14 15 17 20 23
1 39 36 31 2 3 4 5 8 11 13 14 15 17 20 23
1 39 33 31 2 3 5 8 11 13 14 15 17 19 20 21 23
1 39 33 31 2 3 5 8 11 13 14 15 17 19 20 21 22 23
1 39 33 31 2 3 4 5 8 11 13 14 15 17 19 20 21 23
1 39 33 31 2 3 4 5 8 11 13 14 15 17 19 20 21 22 23
1 36 34 30 2 3 5 7 8 9 11 14 17 20 23
1 36 34 30 2 3 4 5 7 8 9 11 14 17 20 23
1 36 34 2 3 4 5 6 7 8 9 11 14 17 20 23
36 34 2 3 5 7 8 9 11 14 17 20 23 26
1 36 34 30 2 3 5 7 8 9 11 14 17 19 20 21 23
1 36 34 30 2 3 5 7 8 9 11 14 17 19 20 21 22 23
1 36 34 30 2 3 4 5 7 8 9 11 14 17 19 20 21 23
1 36 34 30 2 3 4 5 7 8 9 11 14 17 19 20 21 22 23
1 36 34 2 3 4 5 6 7 8 9 11 14 17 19 20 21 23
1 36 34 2 3 4 5 6 7 8 9 11 14 17 19 20 21 22 23
36 34 2 3 5 7 8 9 11 14 17 19 20 21 23 26
36 34 2 3 5 7 8 9 11 14 17 19 20 21 22 23 26
1 37 33 2 3 5 8 9 11 14 17 20 23 27
1 37 33 2 3 5 7 8 9 11 14 17 20 23
1 36 33 31 2 3 5 7 8 9 11 14 17 20 23
1 36 34 33 2 3 5 7 8 9 11 14 17 20 23
1 37 36 33 2 3 5 7 8 9 11 14 17 20 23
1 36 33 31 2 3 5 7 8 9 10 11 14 17 20 23
1 36 34 33 2 3 5 7 8 9 10 11 14 17 20 23
1 37 36 33 2 3 5 7 8 9 10 11 14 17 20 23
1 35 34 33 2 3 5 7 8 9 11 14 17 20 23
1 37 35 33 2 3 5 7 8 9 11 14 17 20 23
1 35 34 33 2 3 5 7 8 9 10 11 14 17 20 23
1 37 35 33 2 3 5 7 8 9 10 11 14 17 20 23
1 37 33 2 3 5 7 8 9 11 14 17 20 21 23 29
1 37 33 2 3 5 7 8 9 11 14 17 19 20 21 23
1 35 34 33 2 3 5 7 8 9 11 14 17 19 20 21 23
1 36 34 33 2 3 5 7 8 9 11 14 17 19 20 21 23
1 37 34 33 2 3 5 7 8 9 11 14 17 19 20 21 23
1 35 34 33 2 3 5 7 8 9 11 14 17 19 20 21 22 23
1 36 34 33 2 3 5 7 8 9 11 14 17 19 20 21 22 23
1 37 34 33 2 3 5 7 8 9 11 14 17 19 20 21 22 23
1 36 33 31 2 3 5 7 8 9 11 14 17 19 20 21 23
1 37 33 31 2 3 5 7 8 9 11 14 17 19 20 21 23
1 36 33 31 2 3 5 7 8 9 11 14 17 19 20 21 22 23
1 37 33 31 2 3 5 7 8 9 11 14 17 19 20 21 22 23
1 37 33 2 3 5 7 8 9 10 11 14 17 20 21 23 29
1 37 33 2 3 5 7 8 9 10 11 14 17 19 20 21 23
1 35 34 33 2 3 5 7 8 9 10 11 14 17 19 20 21 23
1 36 34 33 2 3 5 7 8 9 10 11 14 17 19 20 21 23
1 37 34 33 2 3 5 7 8 9 10 11 14 17 19 20 21 23
1 35 34 33 2 3 5 7 8 9 10 11 14 17 19 20 21 22 23
1 36 34 33 2 3 5 7 8 9 10 11 14 17 19 20 21 22 23
1 37 34 33 2 3 5 7 8 9 10 11 14 17 19 20 21 22 23
1 36 33 31 2 3 5 7 8 9 10 11 14 17 19 20 21 23
1 37 33 31 2 3 5 7 8 9 10 11 14 17 19 20 21 23
1 36 33 31 2 3 5 7 8 9 10 11 14 17 19 20 21 22 23
1 37 33 31 2 3 5 7 8 9 10 11 14 17 19 20 21 22 23
1 37 33 2 3 5 7 8 9 10 11 12 14 17 19 20 21 23
1 37 33 2 3 5 7 8 9 10 11 12 14 17 19 20 21 22 23
1 37 33 2 3 5 8 9 11 14 17 19 20 21 23 27
1 37 33 2 3 5 8 9 11 14 17 19 20 21 22 23 27
1 40 39 32 2 3 5 7 8 9 11 14 17 20 23
1 40 39 32 2 3 5 7 8 9 10 11 14 17 20 23
1 39 37 32 2 3 5 7 8 9 11 14 17 20 23
1 39 37 32 2 3 4 5 7 8 9 11 14 17 20 23
1 39 38 32 2 3 5 7 8 9 11 14 17 19 20 21 23
1 39 38 32 2 3 5 7 8 9 11 14 17 19 20 21 22 23
1 39 38 32 2 3 4 5 7 8 9 11 14 17 19 20 21 23
1 39 38 32 2 3 4 5 7 8 9 11 14 17 19 20 21 22 23
1 40 39 32 2 3 5 7 8 9 11 13 14 15 17 20 23
1 40 39 32 2 3 5 7 8 9 11 13 14 15 16 17 20 23
1 40 39 32 2 3 5 7 8 9 10 11 13 14 15 17 20 23
1 40 39 32 2 3 5 7 8 9 10 11 13 14 15 16 17 20 23
1 39 37 2 3 5 7 8 9 11 13 14 15 17 20 23
1 39 37 2 3 5 8 9 11 13 14 15 17 20 23 27
1 39 37 2 3 4 5 7 8 9 11 13 14 15 17 20 23
1 39 37 2 3 4 5 8 9 11 13 14 15 17 20 23 27
1 40 39 36 2 3 5 7 8 9 11 13 14 15 17 20 23
1 39 36 31 2 3 5 7 8 9 11 13 14 15 17 20 23
1 40 39 36 2 3 5 7 8 9 10 11 13 14 15 17 20 23
1 39 36 31 2 3 5 7 8 9 10 11 13 14 15 17 20 23
1 39 36 2 3 5 7 8 9 10 11 12 13 14 15 17 20 23
1 39 36 2 3 5 8 9 11 13 14 15 17 20 23 27
1 40 36 30 2 3 5 7 8 9 11 13 14 15 17 20 23
1 40 36 30 2 3 5 7 8 9 10 11 13 14 15 17 20 23
1 40 39 36 2 3 4 5 7 8 9 11 13 14 15 17 20 23
1 39 36 31 2 3 4 5 7 8 9 11 13 14 15 17 20 23
1 40 39 36 2 3 4 5 7 8 9 10 11 13 14 15 17 20 23
1 39 36 31 2 3 4 5 7 8 9 10 11 13 14 15 17 20 23
1 39 36 2 3 4 5 7 8 9 10 11 12 13 14 15 17 20 23
1 39 36 2 3 4 5 8 9 11 13 14 15 17 20 23 27
1 40 36 30 2 3 4 5 7 8 9 11 13 14 15 17 20 23
1 40 36 30 2 3 4 5 7 8 9 10 11 13 14 15 17 20 23
1 40 36 2 3 4 5 6 7 8 9 11 13 14 15 17 20 23
1 40 36 2 3 4 5 6 7 8 9 10 11 13 14 15 17 20 23
40 36 2 3 5 7 8 9 11 13 14 15 17 20 23 26
40 36 2 3 5 7 8 9 10 11 13 14 15 17 20 23 26
1 38 35 33 2 3 5 7 8 9 11 13 14 15 17 20 23
1 38 35 33 2 3 5 7 8 9 10 11 13 14 15 17 20 23
1 38 35 33 2 3 4 5 7 8 9 11 13 14 15 17 20 23
1 38 35 33 2 3 4 5 7 8 9 10 11 13 14 15 17 20 23
1 39 38 32 2 3 5 7 8 9 11 13 14 15 17 19 20 21 23
1 39 38 32 2 3 5 7 8 9 11 13 14 15 17 19 20 21 22 23
1 39 38 32 2 3 5 7 8 9 11 13 14 15 16 17 19 20 21 23
1 39 38 32 2 3 5 7 8 9 11 13 14 15 16 17 19 20 21 22 23
1 38 35 33 2 3 5 7 8 9 11 13 14 15 17 19 20 21 23
1 39 38 33 2 3 5 7 8 9 11 13 14 15 17 19 20 21 23
1 38 35 33 2 3 5 7 8 9 11 13 14 15 17 19 20 21 22 23
1 39 38 33 2 3 5 7 8 9 11 13 14 15 17 19 20 21 22 23
1 39 33 31 2 3 5 7 8 9 11 13 14 15 17 19 20 21 23
1 39 33 31 2 3 5 7 8 9 11 13 14 15 17 19 20 21 22 23
1 38 35 33 2 3 5 7 8 9 10 11 13 14 15 17 19 20 21 23
1 39 38 33 2 3 5 7 8 9 10 11 13 14 15 17 19 20 21 23
1 38 35 33 2 3 5 7 8 9 10 11 13 14 15 17 19 20 21 22 23
1 39 38 33 2 3 5 7 8 9 10 11 13 14 15 17 19 20 21 22 23
1 39 33 31 2 3 5 7 8 9 10 11 13 14 15 17 19 20 21 23
1 39 33 31 2 3 5 7 8 9 10 11 13 14 15 17 19 20 21 22 23
1 39 33 2 3 5 7 8 9 10 11 12 13 14 15 17 19 20 21 23
1 39 33 2 3 5 7 8 9 10 11 12 13 14 15 17 19 20 21 22 23
1 39 33 2 3 5 8 9 11 13 14 15 17 19 20 21 23 27
1 39 33 2 3 5 8 9 11 13 14 15 17 19 20 21 22 23 27
1 40 34 30 2 3 5 7 8 9 11 13 14 15 17 19 20 21 23
1 40 34 30 2 3 5 7 8 9 11 13 14 15 17 19 20 21 22 23
1 40 34 30 2 3 5 7 8 9 10 11 13 14 15 17 19 20 21 23
1 40 34 30 2 3 5 7 8 9 10 11 13 14 15 17 19 20 21 22 23
1 39 38 32 2 3 4 5 7 8 9 11 13 14 15 17 19 20 21 23
1 39 38 32 2 3 4 5 7 8 9 11 13 14 15 17 19 20 21 22 23
1 39 38 32 2 3 4 5 7 8 9 11 13 14 15 16 17 19 20 21 23
1 39 38 32 2 3 4 5 7 8 9 11 13 14 15 16 17 19 20 21 22 23
1 38 35 33 2 3 4 5 7 8 9 11 13 14 15 17 19 20 21 23
1 39 38 33 2 3 4 5 7 8 9 11 13 14 15 17 19 20 21 23
1 38 35 33 2 3 4 5 7 8 9 11 13 14 15 17 19 20 21 22 23
1 39 38 33 2 3 4 5 7 8 9 11 13 14 15 17 19 20 21 22 23
1 39 33 31 2 3 4 5 7 8 9 11 13 14 15 17 19 20 21 23
1 39 33 31 2 3 4 5 7 8 9 11 13 14 15 17 19 20 21 22 23
1 38 35 33 2 3 4 5 7 8 9 10 11 13 14 15 17 19 20 21 23
1 39 38 33 2 3 4 5 7 8 9 10 11 13 14 15 17 19 20 21 23
1 38 35 33 2 3 4 5 7 8 9 10 11 13 14 15 17 19 20 21 22 23
1 39 38 33 2 3 4 5 7 8 9 10 11 13 14 15 17 19 20 21 22 23
1 39 33 31 2 3 4 5 7 8 9 10 11 13 14 15 17 19 20 21 23
1 39 33 31 2 3 4 5 7 8 9 10 11 13 14 15 17 19 20 21 22 23
1 39 33 2 3 4 5 7 8 9 10 11 12 13 14 15 17 19 20 21 23
1 39 33 2 3 4 5 7 8 9 10 11 12 13 14 15 17 19 20 21 22 23
1 39 33 2 3 4 5 8 9 11 13 14 15 17 19 20 21 23 27
1 39 33 2 3 4 5 8 9 11 13 14 15 17 19 20 21 22 23 27
1 40 34 30 2 3 4 5 7 8 9 11 13 14 15 17 19 20 21 23
1 40 34 30 2 3 4 5 7 8 9 11 13 14 15 17 19 20 21 22 23
1 40 34 30 2 3 4 5 7 8 9 10 11 13 14 15 17 19 20 21 23
1 40 34 30 2 3 4 5 7 8 9 10 11 13 14 15 17 19 20 21 22 23
1 40 34 2 3 4 5 6 7 8 9 11 13 14 15 17 19 20 21 23
1 40 34 2 3 4 5 6 7 8 9 11 13 14 15 17 19 20 21 22 23
1 40 34 2 3 4 5 6 7 8 9 10 11 13 14 15 17 19 20 21 23
1 40 34 2 3 4 5 6 7 8 9 10 11 13 14 15 17 19 20 21 22 23
40 34 2 3 5 7 8 9 11 13 14 15 17 19 20 21 23 26
40 34 2 3 5 7 8 9 11 13 14 15 17 19 20 21 22 23 26
40 34 2 3 5 7 8 9 10 11 13 14 15 17 19 20 21 23 26
40 34 2 3 5 7 8 9 10 11 13 14 15 17 19 20 21 22 23 26
 Analysis time: 35.251s