21/07/2021 09:29:00[DEBUG] pflow_file:  ../analysis/analisis_12_20072021/gen_nets1/20210720-191422_3/net.pflow  
21/07/2021 09:29:00[DEBUG] output_folder:  ../analysis/analisis_12_20072021/gen_nets1/20210720-191422_3/  
21/07/2021 09:29:00[DEBUG] html_path:  ../analysis/analisis_12_20072021/gen_nets1/20210720-191422_3/  
21/07/2021 09:29:00[DEBUG] txt_path:  ../analysis/analisis_12_20072021/gen_nets1/20210720-191422_3/txt_info  

--------------------------------------------------------------------------   
21/07/2021 09:29:00[INFO] Ejecutando petrinator para conocer estado de la red...   
--------------------------------------------------------------------------
   
21/07/2021 09:29:04[ERROR] La red ingresada no tiene deadlock, cerrando analisis 
  
