 Minimal siphons 
2 6 10 20
12 13
1 6 17
5 8
4 7
1 24 4 5
4 5 6 9 10 11 12 14 15 16
2 5 12 18
2 4 9 21
1 2 3
1 2 3 4 7
2 6 9 19
2 6 12 17 18
2 6 8 9 17 21
 Minimal traps 
1 4 9 12 17 18 21
2 4 9 21
4 7
12 13
5 8
4 5 6 9 10 11 12 14 15 16
2 5 12 18
2 6 9 19
2 6 10 20
2 6 9 10 20
1 5 12 17 18
1 6 17
1 2 3
1 2 6 9 19
1 2 6 10 20
1 2 6 9 10 20
1 24 4 5
1 4 8 9 17 21
1 24 4 9 21
 Analysis time: 0.644s