07/07/2021 19:26:45[DEBUG] pflow_file:  ../analysis/analisis_lucas/20210707-190718_13/net.pflow  
07/07/2021 19:26:45[DEBUG] output_folder:  ../analysis/analisis_lucas/20210707-190718_13/  
07/07/2021 19:26:45[DEBUG] html_path:  ../analysis/analisis_lucas/20210707-190718_13/  
07/07/2021 19:26:45[DEBUG] txt_path:  ../analysis/analisis_lucas/20210707-190718_13/txt_info  

--------------------------------------------------------------------------   
07/07/2021 19:26:45[INFO] Ejecutando petrinator para conocer estado de la red...   
--------------------------------------------------------------------------
   
+----+-----+--------------------------------------------------------------------------------------------------+
| ID | Nro |                                              Plazas                                              |
+----+-----+--------------------------------------------------------------------------------------------------+
| 0  |  12 |                         ['P4', 'P7', 'P11', 'P13', 'P14', 'P25', 'P27']                          |
| 1  |  20 |                      ['P4', 'P8', 'P11', 'P13', 'P14', 'P25', 'P27', 'P31']                      |
| 2  |  24 |                      ['P4', 'P8', 'P11', 'P13', 'P14', 'P25', 'P27', 'P28']                      |
| 3  |  25 |                      ['P4', 'P8', 'P11', 'P13', 'P14', 'P25', 'P27', 'P29']                      |
| 4  |  30 | ['P4', 'P8', 'P11', 'P13', 'P14', 'P15', 'P16', 'P19', 'P20', 'P21', 'P22', 'P25', 'P27', 'P29'] |
| 5  |  3  |                             ['P3', 'P8', 'P11', 'P14', 'P25', 'P31']                             |
| 6  |  11 |                             ['P3', 'P8', 'P11', 'P14', 'P25', 'P28']                             |
| 7  |  21 |                         ['P4', 'P8', 'P11', 'P14', 'P25', 'P30', 'P31']                          |
| 8  |  23 |                         ['P4', 'P8', 'P11', 'P14', 'P25', 'P28', 'P30']                          |
+----+-----+--------------------------------------------------------------------------------------------------+
+----+----+----+----+----+----+----+----+----+----+-----+-----+-----+-----+-----+-----+-----+-----+-----+-----+-----+-----+
| T0 | T1 | T2 | T3 | T4 | T5 | T6 | T7 | T8 | T9 | T10 | T11 | T12 | T13 | T14 | T15 | T16 | T17 | T18 | T19 | T20 | T21 |
+----+----+----+----+----+----+----+----+----+----+-----+-----+-----+-----+-----+-----+-----+-----+-----+-----+-----+-----+
| 1  | 1  | 1  | 1  | 1  | 0  | 0  | 0  | 0  | 0  |  0  |  0  |  0  |  0  |  0  |  0  |  0  |  0  |  0  |  0  |  0  |  0  |
| 0  | 0  | 0  | 0  | 0  | 1  | 1  | 1  | 1  | 1  |  1  |  1  |  1  |  1  |  0  |  0  |  0  |  0  |  1  |  1  |  1  |  1  |
| 0  | 0  | 0  | 0  | 0  | 1  | 1  | 1  | 1  | 0  |  0  |  0  |  0  |  0  |  1  |  1  |  1  |  1  |  1  |  1  |  1  |  1  |
+----+----+----+----+----+----+----+----+----+----+-----+-----+-----+-----+-----+-----+-----+-----+-----+-----+-----+-----+
+-----+---------+----------------------------+--------------+
|  ID | Marcado |        T - Entrada         |  T - Salida  |
+-----+---------+----------------------------+--------------+
| P32 |    1    |        ['T4', 'T7']        | ['T1', 'T6'] |
| P32 |    2    | ['T4', 'T8', 'T11', 'T16'] | ['T1', 'T6'] |
| P32 |    2    |        ['T4', 'T8']        | ['T1', 'T6'] |
| P32 |    2    |        ['T4', 'T8']        | ['T1', 'T6'] |
| P32 |    2    | ['T4', 'T8', 'T14', 'T16'] | ['T1', 'T6'] |
| P32 |    1    | ['T3', 'T8', 'T11', 'T16'] | ['T1', 'T6'] |
| P32 |    1    |        ['T3', 'T8']        | ['T1', 'T6'] |
| P32 |    2    | ['T4', 'T8', 'T12', 'T16'] | ['T1', 'T6'] |
| P32 |    2    |    ['T4', 'T8', 'T12']     | ['T1', 'T6'] |
+-----+---------+----------------------------+--------------+
07/07/2021 19:26:58[INFO] Ejecutando accion...   
07/07/2021 19:26:58[INFO] Ejecutando accion...   
07/07/2021 19:26:58[ACTION] Agrego supervisor aleatorio Numero: 7  

--------------------------------------------------------------------------   
07/07/2021 19:26:58[INFO] Ejecutando petrinator para conocer estado de la red...   
--------------------------------------------------------------------------
   

--------------------------------------------------------------------------
   
07/07/2021 19:27:13[INFO] Calculando recompensa..   
07/07/2021 19:27:13[REWARD] El sifon se controlo correctamente, recompensa -1   

--------------------------------------------------------------------------
   
07/07/2021 19:27:13[STATE] Cambie al estado 3: Hay igual cantidad de sifones vacios en deadlock   
+----+-----+--------------------------------------------------------------------------------------------------+
| ID | Nro |                                              Plazas                                              |
+----+-----+--------------------------------------------------------------------------------------------------+
| 9  |  13 |                         ['P4', 'P7', 'P11', 'P13', 'P14', 'P25', 'P27']                          |
| 10 |  26 |                      ['P4', 'P8', 'P11', 'P13', 'P14', 'P25', 'P27', 'P29']                      |
| 11 |  31 | ['P4', 'P8', 'P11', 'P13', 'P14', 'P15', 'P16', 'P19', 'P20', 'P21', 'P22', 'P25', 'P27', 'P29'] |
| 12 |  3  |                             ['P3', 'P8', 'P11', 'P14', 'P25', 'P31']                             |
| 13 |  12 |                             ['P3', 'P8', 'P11', 'P14', 'P25', 'P28']                             |
| 14 |  22 |                         ['P4', 'P8', 'P11', 'P14', 'P25', 'P30', 'P31']                          |
| 15 |  24 |                         ['P4', 'P8', 'P11', 'P14', 'P25', 'P28', 'P30']                          |
| 16 |  21 |                      ['P4', 'P8', 'P11', 'P13', 'P14', 'P25', 'P27', 'P31']                      |
| 17 |  25 |                      ['P4', 'P8', 'P11', 'P13', 'P14', 'P25', 'P27', 'P28']                      |
+----+-----+--------------------------------------------------------------------------------------------------+
+----+----+----+----+----+----+----+----+----+----+-----+-----+-----+-----+-----+-----+-----+-----+-----+-----+-----+-----+
| T0 | T1 | T2 | T3 | T4 | T5 | T6 | T7 | T8 | T9 | T10 | T11 | T12 | T13 | T14 | T15 | T16 | T17 | T18 | T19 | T20 | T21 |
+----+----+----+----+----+----+----+----+----+----+-----+-----+-----+-----+-----+-----+-----+-----+-----+-----+-----+-----+
| 1  | 1  | 1  | 1  | 1  | 0  | 0  | 0  | 0  | 0  |  0  |  0  |  0  |  0  |  0  |  0  |  0  |  0  |  0  |  0  |  0  |  0  |
+----+----+----+----+----+----+----+----+----+----+-----+-----+-----+-----+-----+-----+-----+-----+-----+-----+-----+-----+
+-----+---------+----------------------------+--------------+
|  ID | Marcado |        T - Entrada         |  T - Salida  |
+-----+---------+----------------------------+--------------+
| P33 |    1    |        ['T4', 'T7']        | ['T1', 'T6'] |
| P33 |    2    |        ['T4', 'T8']        | ['T1', 'T6'] |
| P33 |    2    | ['T4', 'T8', 'T14', 'T16'] | ['T1', 'T6'] |
| P33 |    1    | ['T3', 'T8', 'T11', 'T16'] | ['T1', 'T6'] |
| P33 |    1    |        ['T3', 'T8']        | ['T1', 'T6'] |
| P33 |    2    | ['T4', 'T8', 'T12', 'T16'] | ['T1', 'T6'] |
| P33 |    2    |    ['T4', 'T8', 'T12']     | ['T1', 'T6'] |
| P33 |    2    | ['T4', 'T8', 'T11', 'T16'] | ['T1', 'T6'] |
| P33 |    2    |        ['T4', 'T8']        | ['T1', 'T6'] |
+-----+---------+----------------------------+--------------+
07/07/2021 19:27:13[INFO] Ejecutando accion...   
07/07/2021 19:27:13[ACTION] Agregar o quitar arcos   
07/07/2021 19:27:13[ACTION] Eliminar arco desde T8 hasta P32   
07/07/2021 19:27:13[INFO] Se elimino el arco con metodo 2 desde T8 hasta P32   

--------------------------------------------------------------------------   
07/07/2021 19:27:13[INFO] Ejecutando petrinator para conocer estado de la red...   
--------------------------------------------------------------------------
   

--------------------------------------------------------------------------
   
07/07/2021 19:27:25[INFO] Calculando recompensa..   
07/07/2021 19:27:25[REWARD] Hay menos o igual cantidad de sifones vacios que en el estado anterior, recompensa -1   

--------------------------------------------------------------------------
   
07/07/2021 19:27:25[STATE] Cambie al estado 2: Hay menos sifones vacios en deadlock   
+----+-----+--------------------------------------------------------------------------------------------------+
| ID | Nro |                                              Plazas                                              |
+----+-----+--------------------------------------------------------------------------------------------------+
| 18 |  13 |                         ['P4', 'P7', 'P11', 'P13', 'P14', 'P25', 'P27']                          |
| 19 |  26 |                      ['P4', 'P8', 'P11', 'P13', 'P14', 'P25', 'P27', 'P29']                      |
| 20 |  31 | ['P4', 'P8', 'P11', 'P13', 'P14', 'P15', 'P16', 'P19', 'P20', 'P21', 'P22', 'P25', 'P27', 'P29'] |
| 21 |  3  |                             ['P3', 'P8', 'P11', 'P14', 'P25', 'P31']                             |
| 22 |  12 |                             ['P3', 'P8', 'P11', 'P14', 'P25', 'P28']                             |
| 23 |  22 |                         ['P4', 'P8', 'P11', 'P14', 'P25', 'P30', 'P31']                          |
| 24 |  24 |                         ['P4', 'P8', 'P11', 'P14', 'P25', 'P28', 'P30']                          |
+----+-----+--------------------------------------------------------------------------------------------------+
+----+----+----+----+----+----+----+----+----+----+-----+-----+-----+-----+-----+-----+-----+-----+-----+-----+-----+-----+
| T0 | T1 | T2 | T3 | T4 | T5 | T6 | T7 | T8 | T9 | T10 | T11 | T12 | T13 | T14 | T15 | T16 | T17 | T18 | T19 | T20 | T21 |
+----+----+----+----+----+----+----+----+----+----+-----+-----+-----+-----+-----+-----+-----+-----+-----+-----+-----+-----+
| 1  | 1  | 1  | 1  | 1  | 0  | 0  | 0  | 0  | 0  |  0  |  0  |  0  |  0  |  0  |  0  |  0  |  0  |  0  |  0  |  0  |  0  |
| 0  | 0  | 0  | 0  | 0  | 1  | 1  | 1  | 1  | 1  |  1  |  1  |  1  |  1  |  0  |  0  |  0  |  0  |  1  |  1  |  1  |  1  |
| 0  | 0  | 0  | 0  | 0  | 1  | 1  | 1  | 1  | 0  |  0  |  0  |  0  |  0  |  1  |  1  |  1  |  1  |  1  |  1  |  1  |  1  |
+----+----+----+----+----+----+----+----+----+----+-----+-----+-----+-----+-----+-----+-----+-----+-----+-----+-----+-----+
+-----+---------+----------------------------+--------------+
|  ID | Marcado |        T - Entrada         |  T - Salida  |
+-----+---------+----------------------------+--------------+
| P33 |    1    |        ['T4', 'T7']        | ['T1', 'T6'] |
| P33 |    2    |        ['T4', 'T8']        | ['T1', 'T6'] |
| P33 |    2    | ['T4', 'T8', 'T14', 'T16'] | ['T1', 'T6'] |
| P33 |    1    | ['T3', 'T8', 'T11', 'T16'] | ['T1', 'T6'] |
| P33 |    1    |        ['T3', 'T8']        | ['T1', 'T6'] |
| P33 |    2    | ['T4', 'T8', 'T12', 'T16'] | ['T1', 'T6'] |
| P33 |    2    |    ['T4', 'T8', 'T12']     | ['T1', 'T6'] |
+-----+---------+----------------------------+--------------+
07/07/2021 19:27:25[INFO] Ejecutando accion...   
07/07/2021 19:27:25[ACTION] Agregar o quitar arcos   

--------------------------------------------------------------------------   
07/07/2021 19:27:25[INFO] Ejecutando petrinator para conocer estado de la red...   
--------------------------------------------------------------------------
   

--------------------------------------------------------------------------
   
07/07/2021 19:27:37[INFO] Calculando recompensa..   
07/07/2021 19:27:37[REWARD] Hay menos o igual cantidad de sifones vacios que en el estado anterior, recompensa -1   

--------------------------------------------------------------------------
   
07/07/2021 19:27:37[STATE] Cambie al estado 3: Hay igual cantidad de sifones vacios en deadlock   
+----+-----+--------------------------------------------------------------------------------------------------+
| ID | Nro |                                              Plazas                                              |
+----+-----+--------------------------------------------------------------------------------------------------+
| 25 |  13 |                         ['P4', 'P7', 'P11', 'P13', 'P14', 'P25', 'P27']                          |
| 26 |  26 |                      ['P4', 'P8', 'P11', 'P13', 'P14', 'P25', 'P27', 'P29']                      |
| 27 |  31 | ['P4', 'P8', 'P11', 'P13', 'P14', 'P15', 'P16', 'P19', 'P20', 'P21', 'P22', 'P25', 'P27', 'P29'] |
| 28 |  3  |                             ['P3', 'P8', 'P11', 'P14', 'P25', 'P31']                             |
| 29 |  12 |                             ['P3', 'P8', 'P11', 'P14', 'P25', 'P28']                             |
| 30 |  22 |                         ['P4', 'P8', 'P11', 'P14', 'P25', 'P30', 'P31']                          |
| 31 |  24 |                         ['P4', 'P8', 'P11', 'P14', 'P25', 'P28', 'P30']                          |
+----+-----+--------------------------------------------------------------------------------------------------+
+----+----+----+----+----+----+----+----+----+----+-----+-----+-----+-----+-----+-----+-----+-----+-----+-----+-----+-----+
| T0 | T1 | T2 | T3 | T4 | T5 | T6 | T7 | T8 | T9 | T10 | T11 | T12 | T13 | T14 | T15 | T16 | T17 | T18 | T19 | T20 | T21 |
+----+----+----+----+----+----+----+----+----+----+-----+-----+-----+-----+-----+-----+-----+-----+-----+-----+-----+-----+
| 1  | 1  | 1  | 1  | 1  | 0  | 0  | 0  | 0  | 0  |  0  |  0  |  0  |  0  |  0  |  0  |  0  |  0  |  0  |  0  |  0  |  0  |
| 0  | 0  | 0  | 0  | 0  | 1  | 1  | 1  | 1  | 1  |  1  |  1  |  1  |  1  |  0  |  0  |  0  |  0  |  1  |  1  |  1  |  1  |
| 0  | 0  | 0  | 0  | 0  | 1  | 1  | 1  | 1  | 0  |  0  |  0  |  0  |  0  |  1  |  1  |  1  |  1  |  1  |  1  |  1  |  1  |
+----+----+----+----+----+----+----+----+----+----+-----+-----+-----+-----+-----+-----+-----+-----+-----+-----+-----+-----+
+-----+---------+----------------------------+--------------+
|  ID | Marcado |        T - Entrada         |  T - Salida  |
+-----+---------+----------------------------+--------------+
| P33 |    1    |        ['T4', 'T7']        | ['T1', 'T6'] |
| P33 |    2    |        ['T4', 'T8']        | ['T1', 'T6'] |
| P33 |    2    | ['T4', 'T8', 'T14', 'T16'] | ['T1', 'T6'] |
| P33 |    1    | ['T3', 'T8', 'T11', 'T16'] | ['T1', 'T6'] |
| P33 |    1    |        ['T3', 'T8']        | ['T1', 'T6'] |
| P33 |    2    | ['T4', 'T8', 'T12', 'T16'] | ['T1', 'T6'] |
| P33 |    2    |    ['T4', 'T8', 'T12']     | ['T1', 'T6'] |
+-----+---------+----------------------------+--------------+
07/07/2021 19:27:37[INFO] Ejecutando accion...   
07/07/2021 19:27:37[INFO] Ejecutando accion...   
07/07/2021 19:27:37[ACTION] Agrego supervisor aleatorio Numero: 4  

--------------------------------------------------------------------------   
07/07/2021 19:27:37[INFO] Ejecutando petrinator para conocer estado de la red...   
--------------------------------------------------------------------------
   

--------------------------------------------------------------------------
   
07/07/2021 19:27:49[INFO] Calculando recompensa..   
07/07/2021 19:27:49[REWARD] El sifon se controlo correctamente, recompensa -1   

--------------------------------------------------------------------------
   
07/07/2021 19:27:49[STATE] Cambie al estado 2: Hay menos sifones vacios en deadlock   
+----+-----+--------------------------------------------------------------------------------------------------+
| ID | Nro |                                              Plazas                                              |
+----+-----+--------------------------------------------------------------------------------------------------+
| 32 |  17 |                         ['P4', 'P7', 'P11', 'P13', 'P14', 'P25', 'P27']                          |
| 33 |  32 |                      ['P4', 'P8', 'P11', 'P13', 'P14', 'P25', 'P27', 'P29']                      |
| 34 |  37 | ['P4', 'P8', 'P11', 'P13', 'P14', 'P15', 'P16', 'P19', 'P20', 'P21', 'P22', 'P25', 'P27', 'P29'] |
+----+-----+--------------------------------------------------------------------------------------------------+
+----+----+----+----+----+----+----+----+----+----+-----+-----+-----+-----+-----+-----+-----+-----+-----+-----+-----+-----+
| T0 | T1 | T2 | T3 | T4 | T5 | T6 | T7 | T8 | T9 | T10 | T11 | T12 | T13 | T14 | T15 | T16 | T17 | T18 | T19 | T20 | T21 |
+----+----+----+----+----+----+----+----+----+----+-----+-----+-----+-----+-----+-----+-----+-----+-----+-----+-----+-----+
| 1  | 1  | 1  | 1  | 1  | 0  | 0  | 0  | 0  | 0  |  0  |  0  |  0  |  0  |  0  |  0  |  0  |  0  |  0  |  0  |  0  |  0  |
| 0  | 0  | 0  | 0  | 0  | 1  | 1  | 1  | 1  | 1  |  1  |  1  |  1  |  1  |  0  |  0  |  0  |  0  |  1  |  1  |  1  |  1  |
| 0  | 0  | 0  | 0  | 0  | 1  | 1  | 1  | 1  | 0  |  0  |  0  |  0  |  0  |  1  |  1  |  1  |  1  |  1  |  1  |  1  |  1  |
+----+----+----+----+----+----+----+----+----+----+-----+-----+-----+-----+-----+-----+-----+-----+-----+-----+-----+-----+
+-----+---------+----------------------------+--------------+
|  ID | Marcado |        T - Entrada         |  T - Salida  |
+-----+---------+----------------------------+--------------+
| P34 |    1    |        ['T4', 'T7']        | ['T1', 'T6'] |
| P34 |    2    |        ['T4', 'T8']        | ['T1', 'T6'] |
| P34 |    2    | ['T4', 'T8', 'T14', 'T16'] | ['T1', 'T6'] |
+-----+---------+----------------------------+--------------+
07/07/2021 19:27:49[INFO] Ejecutando accion...   
07/07/2021 19:27:49[INFO] Ejecutando accion...   
07/07/2021 19:27:49[ACTION] Agrego supervisor aleatorio Numero: 1  

--------------------------------------------------------------------------   
07/07/2021 19:27:49[INFO] Ejecutando petrinator para conocer estado de la red...   
--------------------------------------------------------------------------
   

--------------------------------------------------------------------------
   
07/07/2021 19:28:00[INFO] Calculando recompensa..   
07/07/2021 19:28:00[REWARD] El sifon se controlo correctamente, recompensa -1   

--------------------------------------------------------------------------
   
07/07/2021 19:28:00[STATE] Cambie al estado 3: Hay igual cantidad de sifones vacios en deadlock   
+----+-----+--------------------------------------------------------------------------------------------------+
| ID | Nro |                                              Plazas                                              |
+----+-----+--------------------------------------------------------------------------------------------------+
| 35 |  19 |                         ['P4', 'P7', 'P11', 'P13', 'P14', 'P25', 'P27']                          |
| 36 |  36 |                      ['P4', 'P8', 'P11', 'P13', 'P14', 'P25', 'P27', 'P29']                      |
| 37 |  41 | ['P4', 'P8', 'P11', 'P13', 'P14', 'P15', 'P16', 'P19', 'P20', 'P21', 'P22', 'P25', 'P27', 'P29'] |
+----+-----+--------------------------------------------------------------------------------------------------+
+----+----+----+----+----+----+----+----+----+----+-----+-----+-----+-----+-----+-----+-----+-----+-----+-----+-----+-----+
| T0 | T1 | T2 | T3 | T4 | T5 | T6 | T7 | T8 | T9 | T10 | T11 | T12 | T13 | T14 | T15 | T16 | T17 | T18 | T19 | T20 | T21 |
+----+----+----+----+----+----+----+----+----+----+-----+-----+-----+-----+-----+-----+-----+-----+-----+-----+-----+-----+
| 1  | 1  | 1  | 1  | 1  | 0  | 0  | 0  | 0  | 0  |  0  |  0  |  0  |  0  |  0  |  0  |  0  |  0  |  0  |  0  |  0  |  0  |
| 0  | 0  | 0  | 0  | 0  | 1  | 1  | 1  | 1  | 1  |  1  |  1  |  1  |  1  |  0  |  0  |  0  |  0  |  1  |  1  |  1  |  1  |
| 0  | 0  | 0  | 0  | 0  | 1  | 1  | 1  | 1  | 0  |  0  |  0  |  0  |  0  |  1  |  1  |  1  |  1  |  1  |  1  |  1  |  1  |
+----+----+----+----+----+----+----+----+----+----+-----+-----+-----+-----+-----+-----+-----+-----+-----+-----+-----+-----+
+-----+---------+----------------------------+--------------+
|  ID | Marcado |        T - Entrada         |  T - Salida  |
+-----+---------+----------------------------+--------------+
| P35 |    1    |        ['T4', 'T7']        | ['T1', 'T6'] |
| P35 |    2    |        ['T4', 'T8']        | ['T1', 'T6'] |
| P35 |    2    | ['T4', 'T8', 'T14', 'T16'] | ['T1', 'T6'] |
+-----+---------+----------------------------+--------------+
07/07/2021 19:28:00[INFO] Ejecutando accion...   
07/07/2021 19:28:00[ACTION] Agregar o quitar arcos   

--------------------------------------------------------------------------   
07/07/2021 19:28:00[INFO] Ejecutando petrinator para conocer estado de la red...   
--------------------------------------------------------------------------
   

--------------------------------------------------------------------------
   
07/07/2021 19:28:11[INFO] Calculando recompensa..   
07/07/2021 19:28:11[REWARD] Hay menos o igual cantidad de sifones vacios que en el estado anterior, recompensa -1   

--------------------------------------------------------------------------
   
07/07/2021 19:28:11[STATE] Cambie al estado 3: Hay igual cantidad de sifones vacios en deadlock   
+----+-----+--------------------------------------------------------------------------------------------------+
| ID | Nro |                                              Plazas                                              |
+----+-----+--------------------------------------------------------------------------------------------------+
| 38 |  19 |                         ['P4', 'P7', 'P11', 'P13', 'P14', 'P25', 'P27']                          |
| 39 |  36 |                      ['P4', 'P8', 'P11', 'P13', 'P14', 'P25', 'P27', 'P29']                      |
| 40 |  41 | ['P4', 'P8', 'P11', 'P13', 'P14', 'P15', 'P16', 'P19', 'P20', 'P21', 'P22', 'P25', 'P27', 'P29'] |
+----+-----+--------------------------------------------------------------------------------------------------+
+----+----+----+----+----+----+----+----+----+----+-----+-----+-----+-----+-----+-----+-----+-----+-----+-----+-----+-----+
| T0 | T1 | T2 | T3 | T4 | T5 | T6 | T7 | T8 | T9 | T10 | T11 | T12 | T13 | T14 | T15 | T16 | T17 | T18 | T19 | T20 | T21 |
+----+----+----+----+----+----+----+----+----+----+-----+-----+-----+-----+-----+-----+-----+-----+-----+-----+-----+-----+
| 1  | 1  | 1  | 1  | 1  | 0  | 0  | 0  | 0  | 0  |  0  |  0  |  0  |  0  |  0  |  0  |  0  |  0  |  0  |  0  |  0  |  0  |
| 0  | 0  | 0  | 0  | 0  | 1  | 1  | 1  | 1  | 1  |  1  |  1  |  1  |  1  |  0  |  0  |  0  |  0  |  1  |  1  |  1  |  1  |
| 0  | 0  | 0  | 0  | 0  | 1  | 1  | 1  | 1  | 0  |  0  |  0  |  0  |  0  |  1  |  1  |  1  |  1  |  1  |  1  |  1  |  1  |
+----+----+----+----+----+----+----+----+----+----+-----+-----+-----+-----+-----+-----+-----+-----+-----+-----+-----+-----+
+-----+---------+----------------------------+--------------+
|  ID | Marcado |        T - Entrada         |  T - Salida  |
+-----+---------+----------------------------+--------------+
| P35 |    1    |        ['T4', 'T7']        | ['T1', 'T6'] |
| P35 |    2    |        ['T4', 'T8']        | ['T1', 'T6'] |
| P35 |    2    | ['T4', 'T8', 'T14', 'T16'] | ['T1', 'T6'] |
+-----+---------+----------------------------+--------------+
07/07/2021 19:28:11[INFO] Ejecutando accion...   
07/07/2021 19:28:11[INFO] Ejecutando accion...   
07/07/2021 19:28:11[ACTION] Agrego supervisor aleatorio Numero: 0  

--------------------------------------------------------------------------   
07/07/2021 19:28:11[INFO] Ejecutando petrinator para conocer estado de la red...   
--------------------------------------------------------------------------
   

--------------------------------------------------------------------------
   
07/07/2021 19:28:23[INFO] Calculando recompensa..   
07/07/2021 19:28:23[REWARD] No hay mas deadlock, recompensa 100   

--------------------------------------------------------------------------
   
07/07/2021 19:28:23[STATE] Se llego al estado deseado, NO HAY MAS DEADLOCK   

--------------------------------------------------------------------------
   
07/07/2021 19:28:23[STATE] Cambie al estado 2: Hay menos sifones vacios en deadlock   
