 Minimal siphons 
22 23
4 8 11 29 30
3 8 11 14 25 31
2 8 10 14 31
1 8 26
7 9
14 17
1 33 2 7 9
1 33 2 6 7
2 8 28
3 7 11 14 25
1 35 2 3 6
1 33 2 3 7 9
1 34 2 3 7 9
1 35 2 3 7 9
1 35 2 3 6 7
1 34 2 3 6 7
1 33 2 3 6 7
3 8 29
1 32 2 3 6 7 8 10 11 14 18
3 8 11 14 25 28
4 7 11 13 14 25 27
4 6 13 27
1 2 3 4 5
1 35 2 3 4 6
4 7 9 13 27
4 6 7 13 27
1 33 2 3 4 6 7
1 34 2 3 4 6 7
1 35 2 3 4 6 7
1 33 2 3 4 7 9
1 34 2 3 4 7 9
1 35 2 3 4 7 9
1 2 3 4 5 7 9
4 7 11 30
4 8 9 13 27 29
4 8 11 13 14 25 27 31
4 8 11 14 25 30 31
2 4 8 11 14 30 31
4 8 11 14 25 28 30
4 8 11 13 14 25 27 28
4 8 11 13 14 25 27 29
3 4 8 11 14 25 29
3 4 8 11 12 13 14 25 29
6 7 8 10 11 12 13 14 15 16 18 19 20 21 22 24
3 4 8 11 12 13 14 15 16 19 20 21 22 25 29
4 8 11 13 14 15 16 19 20 21 22 25 27 29
 Minimal traps 
1 6 10 13 14 26 27 29 30 31
2 6 10 13 14 27 29 30 31
3 6 11 13 14 25 27
14 17
4 6 13 27
7 9
22 23
4 7 11 30
6 7 8 10 11 12 13 14 15 16 18 19 20 21 22 24
3 7 11 14 25
3 8 29
3 7 9 29
3 7 8 29
3 7 11 29 30
3 4 7 11 30
3 7 11 14 17 29 30
3 4 7 11 14 17 30
3 6 9 13 27 29
3 6 8 13 27 29
3 4 6 13 27
3 6 7 8 29
3 6 7 8 13 19 20 21 22 24 29
3 6 7 9 29
3 6 7 9 13 19 20 21 22 24 29
3 4 6 9 13 27
3 6 11 13 27 29 30
2 7 10 14 29 30 31
2 8 10 14 31
2 8 28
2 3 8 29
2 7 11 14 25 28
2 7 9 28
2 7 8 28
2 3 7 8 29
2 3 7 9 29
2 7 11 28 29 30
2 3 7 11 29 30
2 3 4 7 11 30
2 4 7 11 28 30
2 7 11 14 17 28 29 30
2 3 7 11 14 17 29 30
2 3 4 7 11 14 17 30
2 4 7 11 14 17 28 30
2 3 7 11 14 25
2 7 10 11 28 29 30
2 3 7 10 11 29 30
2 3 4 7 10 11 30
2 4 7 10 11 28 30
2 7 10 14 25 31
2 4 7 10 14 30 31
2 7 9 10 14 31
2 7 8 10 14 31
2 4 7 10 11 14 17 28 30
2 3 4 7 10 11 14 17 30
2 7 10 11 14 25 28
2 3 7 10 11 14 25
2 7 10 14 25 29 31
2 7 9 10 14 29 31
2 7 8 10 14 29 31
2 7 10 11 14 25 28 29
2 3 7 10 11 14 25 29
2 7 10 11 14 25 28 29 30
2 7 10 11 14 17 28 29 30
2 3 7 10 11 14 17 29 30
2 3 7 10 11 14 25 29 30
2 6 11 13 14 25 27 28
2 6 9 13 27 28 29
2 6 8 13 27 28 29
2 3 4 6 13 27
2 6 7 8 28
2 3 6 7 8 29
2 6 7 8 13 19 20 21 22 24 28
2 3 6 7 8 13 19 20 21 22 24 29
2 3 6 8 13 27 29
2 4 6 8 13 27 28
2 6 7 9 28
2 3 6 7 9 29
2 6 7 9 13 19 20 21 22 24 28
2 3 6 7 9 13 19 20 21 22 24 29
2 3 6 9 13 27 29
2 3 4 6 9 13 27
2 4 6 9 13 27 28
2 6 11 13 27 28 29 30
2 6 10 13 14 25 27 31
2 6 9 10 13 14 27 29 31
1 7 10 14 26 29 30 31
1 8 26
1 2 3 4 5
1 2 8 10 14 31
1 2 8 28
1 2 3 8 29
1 7 11 14 25 26 28
1 7 9 26
1 7 8 26
1 2 7 8 28
1 2 3 7 8 29
1 2 7 9 28
1 2 3 7 9 29
1 2 3 4 5 7 9
1 7 11 26 28 29 30
1 2 7 11 28 29 30
1 2 3 7 11 29 30
1 2 3 4 7 11 30
1 2 4 7 11 28 30
1 3 7 11 26 29 30
1 4 7 11 26 30
1 3 4 7 11 26 30
1 4 7 11 26 28 30
1 7 11 14 17 26 28 29 30
1 2 7 11 14 17 28 29 30
1 2 3 7 11 14 17 29 30
1 2 3 4 7 11 14 17 30
1 2 4 7 11 14 17 28 30
1 3 7 11 14 17 26 29 30
1 4 7 11 14 17 26 30
1 3 4 7 11 14 17 26 30
1 4 7 11 14 17 26 28 30
1 2 7 11 14 25 28
1 2 3 7 11 14 25
1 3 7 11 14 25 26
1 7 10 11 26 28 29 30
1 2 7 10 11 28 29 30
1 2 3 7 10 11 29 30
1 2 3 4 7 10 11 30
1 2 4 7 10 11 28 30
1 3 7 10 11 26 29 30
1 4 7 10 11 26 30
1 3 4 7 10 11 26 30
1 4 7 10 11 26 28 30
1 2 7 10 14 29 30 31
1 2 7 10 14 25 31
1 2 4 7 10 14 30 31
1 2 7 9 10 14 31
1 2 7 8 10 14 31
1 2 4 5 7 9 10 14 31
1 2 4 5 7 8 10 14 31
1 2 4 7 10 11 14 17 28 30
1 2 3 4 7 10 11 14 17 30
1 2 7 10 11 14 25 28
1 2 3 7 10 11 14 25
1 2 7 10 14 25 29 31
1 2 7 9 10 14 29 31
1 2 7 8 10 14 29 31
1 2 7 10 11 14 25 28 29
1 2 3 7 10 11 14 25 29
1 2 7 10 11 14 25 28 29 30
1 2 7 10 11 14 17 28 29 30
1 2 3 7 10 11 14 17 29 30
1 2 3 7 10 11 14 25 29 30
1 7 10 14 25 26 31
1 4 7 10 14 26 30 31
1 7 9 10 14 26 31
1 7 8 10 14 26 31
1 4 5 7 9 10 14 26 31
1 4 5 7 8 10 14 26 31
1 4 7 10 11 14 17 26 30
1 7 10 11 14 25 26 28
1 3 7 10 11 14 25 26
1 7 10 14 25 26 29 31
1 7 9 10 14 26 29 31
1 7 8 10 14 26 29 31
1 7 10 11 14 25 26 28 29
1 3 7 10 11 14 25 26 29
1 7 10 11 14 25 26 28 29 30
1 7 10 11 14 17 26 28 29 30
1 3 7 10 11 14 17 26 29 30
1 3 7 10 11 14 25 26 29 30
1 6 11 13 14 25 26 27 28
1 6 9 13 26 27 28 29
1 6 8 13 26 27 28 29
1 33 6 13 26 27 29
1 34 6 13 26 27
1 2 3 4 6 13 27
1 32 2 3 6 13 27
1 35 2 3 6
1 35 32 2 3 6
1 35 32 2 3 6 13 19 20 21 22 24
1 35 2 3 4 5 6
1 35 2 3 4 5 6 13 19 20 21 22 24
1 34 6 7 26
1 35 34 6 26
1 35 34 2 6 28
1 35 34 2 3 6
1 34 2 6 7 28
1 34 2 3 6 7
1 34 2 6 13 27 28
1 34 2 6 7 13 19 20 21 22 24 28
1 35 34 2 6 13 19 20 21 22 24 28
1 35 34 2 3 6 13 19 20 21 22 24
1 34 2 3 6 7 13 19 20 21 22 24
1 34 2 3 6 13 27
1 34 6 7 13 19 20 21 22 24 26
1 35 34 6 13 19 20 21 22 24 26
1 33 6 7 26
1 35 33 6 26
1 35 33 2 6
1 33 2 6 7
1 33 2 6 13 27 29
1 33 2 6 7 13 19 20 21 22 24
1 35 33 2 6 13 19 20 21 22 24
1 33 2 4 6 13 27
1 33 32 2 6 13 27
1 34 33 2 6 13 27
1 35 33 2 6 13 27
1 33 6 7 13 19 20 21 22 24 26
1 35 33 6 13 19 20 21 22 24 26
1 33 4 6 13 26 27
1 33 32 6 13 26 27
1 34 33 6 13 26 27
1 35 33 6 13 26 27
1 6 7 8 26
1 35 6 8 26
1 35 2 6 8 28
1 35 2 3 6 8 29
1 35 33 2 6 8 29
1 2 6 7 8 28
1 2 3 6 7 8 29
1 33 2 6 7 8 29
1 2 6 8 13 27 28 29
1 2 6 7 8 13 19 20 21 22 24 28
1 35 2 6 8 13 19 20 21 22 24 28
1 35 2 3 6 8 13 19 20 21 22 24 29
1 35 33 2 6 8 13 19 20 21 22 24 29
1 2 3 6 7 8 13 19 20 21 22 24 29
1 33 2 6 7 8 13 19 20 21 22 24 29
1 2 3 6 8 13 27 29
1 33 2 6 8 13 27 29
1 2 4 6 8 13 27 28
1 34 2 6 8 13 27 28
1 35 2 6 8 13 27 28
1 6 7 8 13 19 20 21 22 24 26
1 35 6 8 13 19 20 21 22 24 26
1 3 6 8 13 26 27 29
1 33 6 8 13 26 27 29
1 4 6 8 13 26 27
1 34 6 8 13 26 27
1 35 6 8 13 26 27
1 33 4 6 8 13 26 27
1 34 33 6 8 13 26 27
1 35 33 6 8 13 26 27
1 3 4 6 8 13 26 27
1 34 3 6 8 13 26 27
1 35 3 6 8 13 26 27
1 4 6 8 13 26 27 28
1 34 6 8 13 26 27 28
1 35 6 8 13 26 27 28
1 6 7 9 26
1 35 6 9 26
1 35 2 6 9 28
1 35 2 3 6 9
1 35 33 2 6 9
1 2 6 7 9 28
1 2 3 6 7 9 29
1 33 2 6 7 9
1 2 3 4 5 6 7 9
1 34 2 3 6 7 9
1 35 2 3 6 7 9
1 2 6 9 13 27 28 29
1 2 6 7 9 13 19 20 21 22 24 28
1 35 2 6 9 13 19 20 21 22 24 28
1 35 2 3 6 9 13 19 20 21 22 24
1 35 33 2 6 9 13 19 20 21 22 24
1 2 3 6 7 9 13 19 20 21 22 24 29
1 33 2 6 7 9 13 19 20 21 22 24
1 2 3 4 5 6 7 9 13 19 20 21 22 24
1 34 2 3 6 7 9 13 19 20 21 22 24
1 35 2 3 6 7 9 13 19 20 21 22 24
1 2 3 6 9 13 27 29
1 33 2 6 9 13 27 29
1 33 2 4 6 9 13 27
1 34 33 2 6 9 13 27
1 35 33 2 6 9 13 27
1 2 3 4 6 9 13 27
1 34 2 3 6 9 13 27
1 35 2 3 6 9 13 27
1 2 4 6 9 13 27 28
1 32 2 6 9 13 27 28
1 34 2 6 9 13 27 28
1 35 2 6 9 13 27 28
1 6 7 9 13 19 20 21 22 24 26
1 35 6 9 13 19 20 21 22 24 26
1 3 6 9 13 26 27 29
1 33 6 9 13 26 27 29
1 4 6 9 13 26 27
1 32 6 9 13 26 27
1 34 6 9 13 26 27
1 35 6 9 13 26 27
1 33 4 6 9 13 26 27
1 34 33 6 9 13 26 27
1 35 33 6 9 13 26 27
1 3 4 6 9 13 26 27
1 34 3 6 9 13 26 27
1 35 3 6 9 13 26 27
1 4 6 9 13 26 27 28
1 34 6 9 13 26 27 28
1 35 6 9 13 26 27 28
1 35 6 11 14 25 26 28
1 35 6 11 26 30
1 35 2 6 11 28 30
1 35 2 6 11 14 25 28
1 35 3 6 11 14 25 26
1 32 2 3 6 7 11 30
1 32 2 6 7 11 28 30
1 32 6 7 11 26 30
1 33 32 6 7 11 26
1 33 32 4 5 6 7 11 26
1 32 6 7 11 14 26 30
1 32 2 6 7 11 14 28 30
1 32 2 3 6 7 11 14 30
1 33 32 6 7 11 14 15 16 19 20 21 22 24 26
1 33 32 4 5 6 7 11 14 15 16 19 20 21 22 24 26
1 33 32 6 7 11 14 17 26
1 6 11 13 26 27 28 29 30
1 34 2 6 7 11 12 13 19 20 21 22 24 28
1 32 2 6 11 13 27 28 30
1 34 6 7 11 12 13 19 20 21 22 24 26
1 33 32 6 7 11 13 19 20 21 22 24 26
1 33 6 7 11 12 13 19 20 21 22 24 26
1 35 33 6 7 11 12 13 19 20 21 22 24 26
1 34 33 6 7 11 12 13 19 20 21 22 24 26
1 33 4 5 6 7 11 12 13 19 20 21 22 24 26
1 33 32 4 5 6 7 11 13 19 20 21 22 24 26
1 34 3 6 7 11 12 13 19 20 21 22 24 26
1 34 6 7 11 12 13 19 20 21 22 24 26 28
1 32 6 11 13 26 27 30
1 33 32 6 11 13 26 27
1 35 33 6 11 12 13 26 27
1 33 32 4 6 11 13 26 27
1 32 6 11 13 14 26 27 30
1 32 2 6 11 13 14 27 28 30
1 32 2 6 7 11 13 14 19 20 21 22 24 28 30
1 32 2 3 6 7 11 13 14 19 20 21 22 24 30
1 32 2 3 6 11 13 14 27
1 33 32 2 6 11 13 14 27
1 32 2 6 9 11 13 14 27 28
1 33 32 2 6 11 13 14 27 28
1 32 6 7 11 13 14 19 20 21 22 24 26 30
1 32 6 9 11 13 14 26 27
1 33 32 6 11 13 14 26 27
1 34 2 6 7 11 12 13 14 15 16 19 20 21 22 24 28
1 34 6 7 11 12 13 14 15 16 19 20 21 22 24 26
1 33 32 6 7 11 13 14 15 16 19 20 21 22 24 26
1 33 6 7 11 12 13 14 15 16 19 20 21 22 24 26
1 35 33 6 7 11 12 13 14 15 16 19 20 21 22 24 26
1 34 33 6 7 11 12 13 14 15 16 19 20 21 22 24 26
1 33 4 5 6 7 11 12 13 14 15 16 19 20 21 22 24 26
1 33 32 4 5 6 7 11 13 14 15 16 19 20 21 22 24 26
1 34 3 6 7 11 12 13 14 15 16 19 20 21 22 24 26
1 34 6 7 11 12 13 14 15 16 19 20 21 22 24 26 28
1 33 32 6 11 13 14 15 16 19 20 21 22 24 26 27
1 35 33 6 11 12 13 14 15 16 19 20 21 22 24 26 27
1 33 32 4 6 11 13 14 15 16 19 20 21 22 24 26 27
1 33 32 6 7 11 13 14 17 19 20 21 22 24 26
1 33 32 6 11 13 14 17 26 27
1 33 32 4 6 11 13 14 17 26 27
1 33 2 6 11 13 14 25 27
1 33 6 11 13 14 25 26 27
1 35 6 10 14 26 30 31
1 35 2 6 10 14 30 31
1 35 2 6 10 14 25 31
1 35 2 6 9 10 14 31
1 35 34 2 6 10 14 31
1 35 6 10 14 25 26 31
1 33 32 6 7 10 11 26
1 33 32 4 5 6 7 10 11 26
1 32 2 6 7 10 14 30 31
1 34 2 6 7 10 14 31
1 32 2 3 6 7 8 10 11 14 18
1 32 6 7 10 14 26 30 31
1 34 2 6 7 10 11 12 13 19 20 21 22 24 28
1 34 6 7 10 11 12 13 19 20 21 22 24 26
1 33 32 6 7 10 11 13 19 20 21 22 24 26
1 33 6 7 10 11 12 13 19 20 21 22 24 26
1 35 33 6 7 10 11 12 13 19 20 21 22 24 26
1 34 33 6 7 10 11 12 13 19 20 21 22 24 26
1 33 4 5 6 7 10 11 12 13 19 20 21 22 24 26
1 33 32 4 5 6 7 10 11 13 19 20 21 22 24 26
1 34 3 6 7 10 11 12 13 19 20 21 22 24 26
1 34 6 7 10 11 12 13 19 20 21 22 24 26 28
1 33 32 6 10 11 13 26 27
1 35 33 6 10 11 12 13 26 27
1 33 32 4 6 10 11 13 26 27
1 34 2 6 7 10 11 12 13 14 15 16 19 20 21 22 24 28
1 34 32 2 6 7 10 11 13 14 19 20 21 22 24 28
1 34 32 2 3 6 7 10 11 13 14 19 20 21 22 24
1 33 32 2 6 7 10 11 13 14 19 20 21 22 24
1 32 2 6 7 8 10 11 13 14 19 20 21 22 24 28
1 33 32 2 6 7 8 10 11 13 14 18 19 20 21 22 24
1 32 2 6 7 9 10 11 13 14 19 20 21 22 24 28
1 33 32 2 6 7 9 10 11 13 14 19 20 21 22 24
1 32 2 6 10 13 14 27 30 31
1 34 2 6 10 13 14 27 31
1 32 2 6 9 10 13 14 27 31
1 34 32 2 6 10 11 13 14 27 28
1 34 32 2 3 6 10 11 13 14 27
1 34 6 7 10 11 12 13 14 15 16 19 20 21 22 24 26
1 34 32 6 7 10 11 13 14 19 20 21 22 24 26
1 33 32 6 7 10 11 13 14 19 20 21 22 24 26
1 32 6 7 8 10 11 13 14 19 20 21 22 24 26
1 32 6 7 9 10 11 13 14 19 20 21 22 24 26
1 6 10 13 14 25 26 27 31
1 32 6 10 13 14 26 27 30 31
1 34 32 6 10 11 13 14 26 27
1 6 9 10 13 14 26 27 29 31
 Analysis time: 7.045s