23/06/2021 15:51:11[DEBUG] pflow_file:  ../analisis_2_19062021/re_analisis_failed/20210619-175223_46/net.pflow  
23/06/2021 15:51:11[DEBUG] output_folder:  ../analisis_2_19062021/re_analisis_failed/20210619-175223_46/  
23/06/2021 15:51:11[DEBUG] html_path:  ../analisis_2_19062021/re_analisis_failed/20210619-175223_46/  
23/06/2021 15:51:11[DEBUG] txt_path:  ../analisis_2_19062021/re_analisis_failed/20210619-175223_46/txt_info  

--------------------------------------------------------------------------   
23/06/2021 15:51:11[INFO] Ejecutando petrinator para conocer estado de la red...   
--------------------------------------------------------------------------
   
23/06/2021 15:51:14[INFO] Leyendo archivos...   
23/06/2021 15:51:14[INFO] Cantidad de estados: 168  
23/06/2021 15:51:14[INFO] Cantidad de transiciones: 17  
23/06/2021 15:51:14[INFO] Cantidad de plazas: 25  
23/06/2021 15:51:14[INFO] Cantidad de sifones: 21  
23/06/2021 15:51:14[INFO] Cantidad de trampas: 19  

--------------------------------------------------------------------------
   
23/06/2021 15:51:14[INFO] Cantidad de entrenamientos a realizar:  1  
23/06/2021 15:51:14[INFO] Entrenamiento numero: 0 
 
23/06/2021 15:51:14[INFO] Q-TABLE   
+-----------------------------------------------------+--------------------+------------------------+
|                   Estados/Acciones                  | Agregar supervisor | Agregar o quitar arcos |
+-----------------------------------------------------+--------------------+------------------------+
|                        Start                        |        0.0         |          0.0           |
|        Más sifónes vacíos en estado deadlock        |        0.0         |          0.0           |
|       Menos sifónes vacíos en estado deadlock       |        0.0         |          0.0           |
| Igual cantidad de sifónes vacíos en estado deadlock |        0.0         |          0.0           |
|                         End                         |        0.0         |          0.0           |
+-----------------------------------------------------+--------------------+------------------------+

--------------------------------------------------------------------------   
23/06/2021 15:51:14[INFO] Ejecutando petrinator para conocer estado de la red...   
--------------------------------------------------------------------------
   
23/06/2021 15:51:18[INFO] Importando datos desde html...   
23/06/2021 15:51:18[INFO] Analizando cantidad de supervisores que se pueden agregar...   
23/06/2021 15:51:18[INFO] Cantidad de transiciones: 17  
23/06/2021 15:51:18[INFO] Estados de deadlock: [15, 27, 28, 90]  
23/06/2021 15:51:18[INFO] Cantidad de sifones: 21  
23/06/2021 15:51:18[INFO] Cantidad de sifones vacios en estado de deadlock: 4 
 
23/06/2021 15:51:18[INFO] SIFONES   
+----+-----+-------------------------------------------------+
| ID | Nro |                      Plazas                     |
+----+-----+-------------------------------------------------+
| 0  |  13 |     ['P2', 'P7', 'P10', 'P16', 'P21', 'P25']    |
| 1  |  17 | ['P2', 'P7', 'P11', 'P16', 'P20', 'P21', 'P25'] |
| 2  |  16 | ['P2', 'P7', 'P11', 'P16', 'P21', 'P23', 'P25'] |
| 3  |  14 |     ['P2', 'P7', 'P11', 'P15', 'P23', 'P25']    |
+----+-----+-------------------------------------------------+
23/06/2021 15:51:18[INFO] T INVARIANTES   
+----+----+----+----+----+----+----+----+----+----+-----+-----+-----+-----+-----+-----+-----+
| T0 | T1 | T2 | T3 | T4 | T5 | T6 | T7 | T8 | T9 | T10 | T11 | T12 | T13 | T14 | T15 | T16 |
+----+----+----+----+----+----+----+----+----+----+-----+-----+-----+-----+-----+-----+-----+
| 1  | 1  | 1  | 1  | 0  | 0  | 0  | 0  | 0  | 0  |  0  |  0  |  0  |  0  |  0  |  0  |  0  |
| 0  | 0  | 0  | 0  | 1  | 1  | 1  | 0  | 0  | 0  |  0  |  0  |  0  |  0  |  0  |  0  |  0  |
| 0  | 0  | 0  | 0  | 0  | 0  | 0  | 1  | 1  | 1  |  1  |  1  |  0  |  0  |  0  |  1  |  1  |
| 0  | 0  | 0  | 0  | 0  | 0  | 0  | 0  | 0  | 0  |  0  |  0  |  1  |  1  |  1  |  1  |  1  |
+----+----+----+----+----+----+----+----+----+----+-----+-----+-----+-----+-----+-----+-----+
23/06/2021 15:51:18[INFO] POSIBLES SUPERVISORES A AGREGAR   
+-----+---------+----------------------------+---------------------+
|  ID | Marcado |        T - Entrada         |      T - Salida     |
+-----+---------+----------------------------+---------------------+
| P26 |    1    | ['T2', 'T6', 'T9', 'T14']  | ['T1', 'T5', 'T16'] |
| P26 |    2    | ['T3', 'T6', 'T10', 'T14'] | ['T1', 'T5', 'T16'] |
| P26 |    2    | ['T2', 'T7', 'T10', 'T14'] | ['T1', 'T5', 'T16'] |
| P26 |    1    |    ['T2', 'T6', 'T10']     | ['T1', 'T5', 'T16'] |
+-----+---------+----------------------------+---------------------+

--------------------------------------------------------------------------
   
23/06/2021 15:51:18[INFO] Ejecutando accion...   
23/06/2021 15:51:18[ACTION] Agregar supervisor    
23/06/2021 15:51:18[ACTION] Agrego supervisor aleatorio Numero: 1  

--------------------------------------------------------------------------   
23/06/2021 15:51:18[INFO] Ejecutando petrinator para conocer estado de la red...   
--------------------------------------------------------------------------
   
23/06/2021 15:51:21[INFO] Importando datos desde html...   
23/06/2021 15:51:21[INFO] Analizando cantidad de supervisores que se pueden agregar...   
23/06/2021 15:51:21[INFO] Cantidad de sifones vacios en estado de deadlock ANTES: 4  
23/06/2021 15:51:21[INFO] Cantidad de sifones vacioes en estado de deadlock AHORA: 4  
23/06/2021 15:51:21[INFO] Cantidad de transiciones: 17  
23/06/2021 15:51:21[INFO] Estados de deadlock: [14, 19, 45, 103]  
23/06/2021 15:51:21[INFO] Cantidad de sifones: 22  
23/06/2021 15:51:21[INFO] Cantidad de sifones vacios en estado de deadlock: 4 
 
23/06/2021 15:51:21[INFO] SIFONES   
+----+-----+-------------------------------------------------+
| ID | Nro |                      Plazas                     |
+----+-----+-------------------------------------------------+
| 4  |  14 |     ['P2', 'P7', 'P10', 'P16', 'P21', 'P25']    |
| 5  |  18 | ['P2', 'P7', 'P11', 'P16', 'P20', 'P21', 'P25'] |
| 6  |  17 | ['P2', 'P7', 'P11', 'P16', 'P21', 'P23', 'P25'] |
| 7  |  15 |     ['P2', 'P7', 'P11', 'P15', 'P23', 'P25']    |
+----+-----+-------------------------------------------------+
23/06/2021 15:51:21[INFO] T INVARIANTES   
+----+----+----+----+----+----+----+----+----+----+-----+-----+-----+-----+-----+-----+-----+
| T0 | T1 | T2 | T3 | T4 | T5 | T6 | T7 | T8 | T9 | T10 | T11 | T12 | T13 | T14 | T15 | T16 |
+----+----+----+----+----+----+----+----+----+----+-----+-----+-----+-----+-----+-----+-----+
| 1  | 1  | 1  | 1  | 0  | 0  | 0  | 0  | 0  | 0  |  0  |  0  |  0  |  0  |  0  |  0  |  0  |
| 0  | 0  | 0  | 0  | 1  | 1  | 1  | 0  | 0  | 0  |  0  |  0  |  0  |  0  |  0  |  0  |  0  |
| 0  | 0  | 0  | 0  | 0  | 0  | 0  | 1  | 1  | 1  |  1  |  1  |  0  |  0  |  0  |  1  |  1  |
| 0  | 0  | 0  | 0  | 0  | 0  | 0  | 0  | 0  | 0  |  0  |  0  |  1  |  1  |  1  |  1  |  1  |
+----+----+----+----+----+----+----+----+----+----+-----+-----+-----+-----+-----+-----+-----+
23/06/2021 15:51:21[INFO] POSIBLES SUPERVISORES A AGREGAR   
+-----+---------+----------------------------+---------------------+
|  ID | Marcado |        T - Entrada         |      T - Salida     |
+-----+---------+----------------------------+---------------------+
| P27 |    1    | ['T2', 'T6', 'T9', 'T14']  | ['T1', 'T5', 'T16'] |
| P27 |    2    | ['T3', 'T6', 'T10', 'T14'] | ['T1', 'T5', 'T16'] |
| P27 |    2    | ['T2', 'T7', 'T10', 'T14'] | ['T1', 'T5', 'T16'] |
| P27 |    1    |    ['T2', 'T6', 'T10']     | ['T1', 'T5', 'T16'] |
+-----+---------+----------------------------+---------------------+
23/06/2021 15:51:21[INFO] Actualizando estado de la red..   
23/06/2021 15:51:21[STATE] Cambie al estado 3: Hay igual cantidad de sifones vacios en deadlock   

--------------------------------------------------------------------------
   
23/06/2021 15:51:21[INFO] Calculando recompensa..   
23/06/2021 15:51:21[REWARD] El sifon se controlo correctamente, recompensa -1   

--------------------------------------------------------------------------
   
23/06/2021 15:51:21[INFO] NEW Q-TABLE   
+-----------------------------------------------------+--------------------+------------------------+
|                   Estados/Acciones                  | Agregar supervisor | Agregar o quitar arcos |
+-----------------------------------------------------+--------------------+------------------------+
|                        Start                        |        -0.9        |          0.0           |
|        Más sifónes vacíos en estado deadlock        |        0.0         |          0.0           |
|       Menos sifónes vacíos en estado deadlock       |        0.0         |          0.0           |
| Igual cantidad de sifónes vacíos en estado deadlock |        0.0         |          0.0           |
|                         End                         |        0.0         |          0.0           |
+-----------------------------------------------------+--------------------+------------------------+

--------------------------------------------------------------------------
   
23/06/2021 15:51:21[INFO] Ejecutando accion...   
23/06/2021 15:51:21[ACTION] Agregar o quitar arcos   

--------------------------------------------------------------------------   
23/06/2021 15:51:21[INFO] Ejecutando petrinator para conocer estado de la red...   
--------------------------------------------------------------------------
   
23/06/2021 15:51:25[INFO] Importando datos desde html...   
23/06/2021 15:51:25[INFO] Analizando cantidad de supervisores que se pueden agregar...   
23/06/2021 15:51:25[INFO] Cantidad de sifones vacios en estado de deadlock ANTES: 4  
23/06/2021 15:51:25[INFO] Cantidad de sifones vacioes en estado de deadlock AHORA: 4  
23/06/2021 15:51:25[INFO] Cantidad de transiciones: 17  
23/06/2021 15:51:25[INFO] Estados de deadlock: [14, 19, 45, 103]  
23/06/2021 15:51:25[INFO] Cantidad de sifones: 22  
23/06/2021 15:51:25[INFO] Cantidad de sifones vacios en estado de deadlock: 4 
 
23/06/2021 15:51:25[INFO] SIFONES   
+----+-----+-------------------------------------------------+
| ID | Nro |                      Plazas                     |
+----+-----+-------------------------------------------------+
| 8  |  14 |     ['P2', 'P7', 'P10', 'P16', 'P21', 'P25']    |
| 9  |  18 | ['P2', 'P7', 'P11', 'P16', 'P20', 'P21', 'P25'] |
| 10 |  17 | ['P2', 'P7', 'P11', 'P16', 'P21', 'P23', 'P25'] |
| 11 |  15 |     ['P2', 'P7', 'P11', 'P15', 'P23', 'P25']    |
+----+-----+-------------------------------------------------+
23/06/2021 15:51:25[INFO] T INVARIANTES   
+----+----+----+----+----+----+----+----+----+----+-----+-----+-----+-----+-----+-----+-----+
| T0 | T1 | T2 | T3 | T4 | T5 | T6 | T7 | T8 | T9 | T10 | T11 | T12 | T13 | T14 | T15 | T16 |
+----+----+----+----+----+----+----+----+----+----+-----+-----+-----+-----+-----+-----+-----+
| 1  | 1  | 1  | 1  | 0  | 0  | 0  | 0  | 0  | 0  |  0  |  0  |  0  |  0  |  0  |  0  |  0  |
| 0  | 0  | 0  | 0  | 1  | 1  | 1  | 0  | 0  | 0  |  0  |  0  |  0  |  0  |  0  |  0  |  0  |
| 0  | 0  | 0  | 0  | 0  | 0  | 0  | 1  | 1  | 1  |  1  |  1  |  0  |  0  |  0  |  1  |  1  |
| 0  | 0  | 0  | 0  | 0  | 0  | 0  | 0  | 0  | 0  |  0  |  0  |  1  |  1  |  1  |  1  |  1  |
+----+----+----+----+----+----+----+----+----+----+-----+-----+-----+-----+-----+-----+-----+
23/06/2021 15:51:25[INFO] POSIBLES SUPERVISORES A AGREGAR   
+-----+---------+----------------------------+---------------------+
|  ID | Marcado |        T - Entrada         |      T - Salida     |
+-----+---------+----------------------------+---------------------+
| P27 |    1    | ['T2', 'T6', 'T9', 'T14']  | ['T1', 'T5', 'T16'] |
| P27 |    2    | ['T3', 'T6', 'T10', 'T14'] | ['T1', 'T5', 'T16'] |
| P27 |    2    | ['T2', 'T7', 'T10', 'T14'] | ['T1', 'T5', 'T16'] |
| P27 |    1    |    ['T2', 'T6', 'T10']     | ['T1', 'T5', 'T16'] |
+-----+---------+----------------------------+---------------------+
23/06/2021 15:51:25[INFO] Actualizando estado de la red..   
23/06/2021 15:51:25[STATE] Cambie al estado 3: Hay igual cantidad de sifones vacios en deadlock   

--------------------------------------------------------------------------
   
23/06/2021 15:51:25[INFO] Calculando recompensa..   
23/06/2021 15:51:25[REWARD] Hay menos o igual cantidad de sifones vacios que en el estado anterior, recompensa -1   

--------------------------------------------------------------------------
   
23/06/2021 15:51:25[INFO] NEW Q-TABLE   
+-----------------------------------------------------+--------------------+------------------------+
|                   Estados/Acciones                  | Agregar supervisor | Agregar o quitar arcos |
+-----------------------------------------------------+--------------------+------------------------+
|                        Start                        |        -0.9        |          0.0           |
|        Más sifónes vacíos en estado deadlock        |        0.0         |          0.0           |
|       Menos sifónes vacíos en estado deadlock       |        0.0         |          0.0           |
| Igual cantidad de sifónes vacíos en estado deadlock |        0.0         |          -0.9          |
|                         End                         |        0.0         |          0.0           |
+-----------------------------------------------------+--------------------+------------------------+

--------------------------------------------------------------------------
   
23/06/2021 15:51:25[INFO] Ejecutando accion...   
23/06/2021 15:51:25[ACTION] Agregar supervisor    
23/06/2021 15:51:25[ACTION] Agrego supervisor aleatorio Numero: 3  

--------------------------------------------------------------------------   
23/06/2021 15:51:25[INFO] Ejecutando petrinator para conocer estado de la red...   
--------------------------------------------------------------------------
   
23/06/2021 15:51:28[INFO] Importando datos desde html...   
23/06/2021 15:51:29[INFO] Analizando cantidad de supervisores que se pueden agregar...   
23/06/2021 15:51:29[INFO] Cantidad de sifones vacios en estado de deadlock ANTES: 4  
23/06/2021 15:51:29[INFO] Cantidad de sifones vacioes en estado de deadlock AHORA: 1  
23/06/2021 15:51:29[INFO] Cantidad de transiciones: 17  
23/06/2021 15:51:29[INFO] Estados de deadlock: [69]  
23/06/2021 15:51:29[INFO] Cantidad de sifones: 23  
23/06/2021 15:51:29[INFO] Cantidad de sifones vacios en estado de deadlock: 1 
 
23/06/2021 15:51:29[INFO] SIFONES   
+----+-----+-----------------------------------------+
| ID | Nro |                  Plazas                 |
+----+-----+-----------------------------------------+
| 12 |  9  | ['P1', 'P6', 'P9', 'P10', 'P17', 'P27'] |
+----+-----+-----------------------------------------+
23/06/2021 15:51:29[INFO] T INVARIANTES   
+----+----+----+----+----+----+----+----+----+----+-----+-----+-----+-----+-----+-----+-----+
| T0 | T1 | T2 | T3 | T4 | T5 | T6 | T7 | T8 | T9 | T10 | T11 | T12 | T13 | T14 | T15 | T16 |
+----+----+----+----+----+----+----+----+----+----+-----+-----+-----+-----+-----+-----+-----+
| 1  | 1  | 1  | 1  | 0  | 0  | 0  | 0  | 0  | 0  |  0  |  0  |  0  |  0  |  0  |  0  |  0  |
| 0  | 0  | 0  | 0  | 1  | 1  | 1  | 0  | 0  | 0  |  0  |  0  |  0  |  0  |  0  |  0  |  0  |
| 0  | 0  | 0  | 0  | 0  | 0  | 0  | 1  | 1  | 1  |  1  |  1  |  0  |  0  |  0  |  1  |  1  |
+----+----+----+----+----+----+----+----+----+----+-----+-----+-----+-----+-----+-----+-----+
23/06/2021 15:51:29[INFO] POSIBLES SUPERVISORES A AGREGAR   
+----+---------+-------------+------------+
| ID | Marcado | T - Entrada | T - Salida |
+----+---------+-------------+------------+
+----+---------+-------------+------------+
23/06/2021 15:51:29[INFO] Actualizando estado de la red..   
23/06/2021 15:51:29[STATE] Cambie al estado 2: Hay menos sifones vacios en deadlock   

--------------------------------------------------------------------------
   
23/06/2021 15:51:29[INFO] Calculando recompensa..   
23/06/2021 15:51:29[REWARD] El sifon se controlo correctamente, recompensa -1   

--------------------------------------------------------------------------
   
23/06/2021 15:51:29[INFO] NEW Q-TABLE   
+-----------------------------------------------------+--------------------+------------------------+
|                   Estados/Acciones                  | Agregar supervisor | Agregar o quitar arcos |
+-----------------------------------------------------+--------------------+------------------------+
|                        Start                        |        -0.9        |          0.0           |
|        Más sifónes vacíos en estado deadlock        |        0.0         |          0.0           |
|       Menos sifónes vacíos en estado deadlock       |        0.0         |          0.0           |
| Igual cantidad de sifónes vacíos en estado deadlock |        -0.9        |          -0.9          |
|                         End                         |        0.0         |          0.0           |
+-----------------------------------------------------+--------------------+------------------------+

--------------------------------------------------------------------------
   
23/06/2021 15:51:29[INFO] Ejecutando accion...   
23/06/2021 15:51:29[ACTION] Agregar o quitar arcos   
23/06/2021 15:51:29[ACTION] La transicion en conflicto T13 le tiene que devolver un token al supervisor P27   
23/06/2021 15:51:29[INFO] Se agrego un arco desde T13 hasta P27   

--------------------------------------------------------------------------   
23/06/2021 15:51:29[INFO] Ejecutando petrinator para conocer estado de la red...   
--------------------------------------------------------------------------
   
23/06/2021 15:51:32[INFO] Importando datos desde html...   
23/06/2021 15:51:32[INFO] Analizando cantidad de supervisores que se pueden agregar...   
23/06/2021 15:51:32[INFO] Cantidad de sifones vacios en estado de deadlock ANTES: 1  
23/06/2021 15:51:32[INFO] Cantidad de sifones vacioes en estado de deadlock AHORA: 2  
23/06/2021 15:51:32[INFO] Cantidad de transiciones: 17  
23/06/2021 15:51:32[INFO] Estados de deadlock: [67, 77]  
23/06/2021 15:51:32[INFO] Cantidad de sifones: 23  
23/06/2021 15:51:32[INFO] Cantidad de sifones vacios en estado de deadlock: 2 
 
23/06/2021 15:51:32[INFO] SIFONES   
+----+-----+-------------------------------------------------+
| ID | Nro |                      Plazas                     |
+----+-----+-------------------------------------------------+
| 13 |  15 |     ['P2', 'P7', 'P10', 'P16', 'P21', 'P25']    |
| 14 |  18 | ['P2', 'P7', 'P11', 'P16', 'P21', 'P23', 'P25'] |
+----+-----+-------------------------------------------------+
23/06/2021 15:51:32[INFO] T INVARIANTES   
+----+----+----+----+----+----+----+----+----+----+-----+-----+-----+-----+-----+-----+-----+
| T0 | T1 | T2 | T3 | T4 | T5 | T6 | T7 | T8 | T9 | T10 | T11 | T12 | T13 | T14 | T15 | T16 |
+----+----+----+----+----+----+----+----+----+----+-----+-----+-----+-----+-----+-----+-----+
| 1  | 1  | 1  | 1  | 0  | 0  | 0  | 0  | 0  | 0  |  0  |  0  |  0  |  0  |  0  |  0  |  0  |
| 0  | 0  | 0  | 0  | 1  | 1  | 1  | 0  | 0  | 0  |  0  |  0  |  0  |  0  |  0  |  0  |  0  |
| 0  | 0  | 0  | 0  | 0  | 0  | 0  | 1  | 1  | 1  |  1  |  1  |  0  |  0  |  0  |  1  |  1  |
| 0  | 0  | 0  | 0  | 0  | 0  | 0  | 0  | 0  | 0  |  0  |  0  |  1  |  1  |  1  |  1  |  1  |
+----+----+----+----+----+----+----+----+----+----+-----+-----+-----+-----+-----+-----+-----+
23/06/2021 15:51:32[INFO] POSIBLES SUPERVISORES A AGREGAR   
+-----+---------+----------------------------+---------------------+
|  ID | Marcado |        T - Entrada         |      T - Salida     |
+-----+---------+----------------------------+---------------------+
| P28 |    1    | ['T2', 'T6', 'T9', 'T14']  | ['T1', 'T5', 'T16'] |
| P28 |    2    | ['T2', 'T7', 'T10', 'T14'] | ['T1', 'T5', 'T16'] |
+-----+---------+----------------------------+---------------------+
23/06/2021 15:51:32[INFO] Actualizando estado de la red..   
23/06/2021 15:51:32[STATE] Cambie al estado 1: Hay mas sifones vacios en deadlock   

--------------------------------------------------------------------------
   
23/06/2021 15:51:32[INFO] Calculando recompensa..   
23/06/2021 15:51:32[REWARD] Hay mas sifones vacios que en el estado anterior, recompensa -100   

--------------------------------------------------------------------------
   
23/06/2021 15:51:32[INFO] NEW Q-TABLE   
+-----------------------------------------------------+--------------------+------------------------+
|                   Estados/Acciones                  | Agregar supervisor | Agregar o quitar arcos |
+-----------------------------------------------------+--------------------+------------------------+
|                        Start                        |        -0.9        |          0.0           |
|        Más sifónes vacíos en estado deadlock        |        0.0         |          0.0           |
|       Menos sifónes vacíos en estado deadlock       |        0.0         |         -90.0          |
| Igual cantidad de sifónes vacíos en estado deadlock |        -0.9        |          -0.9          |
|                         End                         |        0.0         |          0.0           |
+-----------------------------------------------------+--------------------+------------------------+

--------------------------------------------------------------------------
   
23/06/2021 15:51:32[INFO] Ejecutando accion...   
23/06/2021 15:51:32[ACTION] Agregar o quitar arcos   

--------------------------------------------------------------------------   
23/06/2021 15:51:32[INFO] Ejecutando petrinator para conocer estado de la red...   
--------------------------------------------------------------------------
   
23/06/2021 15:51:36[INFO] Importando datos desde html...   
23/06/2021 15:51:37[INFO] Analizando cantidad de supervisores que se pueden agregar...   
23/06/2021 15:51:37[INFO] Cantidad de sifones vacios en estado de deadlock ANTES: 2  
23/06/2021 15:51:37[INFO] Cantidad de sifones vacioes en estado de deadlock AHORA: 2  
23/06/2021 15:51:37[INFO] Cantidad de transiciones: 17  
23/06/2021 15:51:37[INFO] Estados de deadlock: [67, 77]  
23/06/2021 15:51:37[INFO] Cantidad de sifones: 23  
23/06/2021 15:51:37[INFO] Cantidad de sifones vacios en estado de deadlock: 2 
 
23/06/2021 15:51:37[INFO] SIFONES   
+----+-----+-------------------------------------------------+
| ID | Nro |                      Plazas                     |
+----+-----+-------------------------------------------------+
| 15 |  15 |     ['P2', 'P7', 'P10', 'P16', 'P21', 'P25']    |
| 16 |  18 | ['P2', 'P7', 'P11', 'P16', 'P21', 'P23', 'P25'] |
+----+-----+-------------------------------------------------+
23/06/2021 15:51:37[INFO] T INVARIANTES   
+----+----+----+----+----+----+----+----+----+----+-----+-----+-----+-----+-----+-----+-----+
| T0 | T1 | T2 | T3 | T4 | T5 | T6 | T7 | T8 | T9 | T10 | T11 | T12 | T13 | T14 | T15 | T16 |
+----+----+----+----+----+----+----+----+----+----+-----+-----+-----+-----+-----+-----+-----+
| 1  | 1  | 1  | 1  | 0  | 0  | 0  | 0  | 0  | 0  |  0  |  0  |  0  |  0  |  0  |  0  |  0  |
| 0  | 0  | 0  | 0  | 1  | 1  | 1  | 0  | 0  | 0  |  0  |  0  |  0  |  0  |  0  |  0  |  0  |
| 0  | 0  | 0  | 0  | 0  | 0  | 0  | 1  | 1  | 1  |  1  |  1  |  0  |  0  |  0  |  1  |  1  |
| 0  | 0  | 0  | 0  | 0  | 0  | 0  | 0  | 0  | 0  |  0  |  0  |  1  |  1  |  1  |  1  |  1  |
+----+----+----+----+----+----+----+----+----+----+-----+-----+-----+-----+-----+-----+-----+
23/06/2021 15:51:37[INFO] POSIBLES SUPERVISORES A AGREGAR   
+-----+---------+----------------------------+---------------------+
|  ID | Marcado |        T - Entrada         |      T - Salida     |
+-----+---------+----------------------------+---------------------+
| P28 |    1    | ['T2', 'T6', 'T9', 'T14']  | ['T1', 'T5', 'T16'] |
| P28 |    2    | ['T2', 'T7', 'T10', 'T14'] | ['T1', 'T5', 'T16'] |
+-----+---------+----------------------------+---------------------+
23/06/2021 15:51:37[INFO] Actualizando estado de la red..   
23/06/2021 15:51:37[STATE] Cambie al estado 3: Hay igual cantidad de sifones vacios en deadlock   

--------------------------------------------------------------------------
   
23/06/2021 15:51:37[INFO] Calculando recompensa..   
23/06/2021 15:51:37[REWARD] Hay menos o igual cantidad de sifones vacios que en el estado anterior, recompensa -1   

--------------------------------------------------------------------------
   
23/06/2021 15:51:37[INFO] NEW Q-TABLE   
+-----------------------------------------------------+--------------------+------------------------+
|                   Estados/Acciones                  | Agregar supervisor | Agregar o quitar arcos |
+-----------------------------------------------------+--------------------+------------------------+
|                        Start                        |        -0.9        |          0.0           |
|        Más sifónes vacíos en estado deadlock        |        0.0         |         -1.629         |
|       Menos sifónes vacíos en estado deadlock       |        0.0         |         -90.0          |
| Igual cantidad de sifónes vacíos en estado deadlock |        -0.9        |          -0.9          |
|                         End                         |        0.0         |          0.0           |
+-----------------------------------------------------+--------------------+------------------------+

--------------------------------------------------------------------------
   
23/06/2021 15:51:37[INFO] Ejecutando accion...   
23/06/2021 15:51:37[ACTION] Agregar o quitar arcos   

--------------------------------------------------------------------------   
23/06/2021 15:51:37[INFO] Ejecutando petrinator para conocer estado de la red...   
--------------------------------------------------------------------------
   
23/06/2021 15:51:40[INFO] Importando datos desde html...   
23/06/2021 15:51:40[INFO] Analizando cantidad de supervisores que se pueden agregar...   
23/06/2021 15:51:40[INFO] Cantidad de sifones vacios en estado de deadlock ANTES: 2  
23/06/2021 15:51:40[INFO] Cantidad de sifones vacioes en estado de deadlock AHORA: 2  
23/06/2021 15:51:40[INFO] Cantidad de transiciones: 17  
23/06/2021 15:51:40[INFO] Estados de deadlock: [67, 77]  
23/06/2021 15:51:40[INFO] Cantidad de sifones: 23  
23/06/2021 15:51:40[INFO] Cantidad de sifones vacios en estado de deadlock: 2 
 
23/06/2021 15:51:40[INFO] SIFONES   
+----+-----+-------------------------------------------------+
| ID | Nro |                      Plazas                     |
+----+-----+-------------------------------------------------+
| 17 |  15 |     ['P2', 'P7', 'P10', 'P16', 'P21', 'P25']    |
| 18 |  18 | ['P2', 'P7', 'P11', 'P16', 'P21', 'P23', 'P25'] |
+----+-----+-------------------------------------------------+
23/06/2021 15:51:40[INFO] T INVARIANTES   
+----+----+----+----+----+----+----+----+----+----+-----+-----+-----+-----+-----+-----+-----+
| T0 | T1 | T2 | T3 | T4 | T5 | T6 | T7 | T8 | T9 | T10 | T11 | T12 | T13 | T14 | T15 | T16 |
+----+----+----+----+----+----+----+----+----+----+-----+-----+-----+-----+-----+-----+-----+
| 1  | 1  | 1  | 1  | 0  | 0  | 0  | 0  | 0  | 0  |  0  |  0  |  0  |  0  |  0  |  0  |  0  |
| 0  | 0  | 0  | 0  | 1  | 1  | 1  | 0  | 0  | 0  |  0  |  0  |  0  |  0  |  0  |  0  |  0  |
| 0  | 0  | 0  | 0  | 0  | 0  | 0  | 1  | 1  | 1  |  1  |  1  |  0  |  0  |  0  |  1  |  1  |
| 0  | 0  | 0  | 0  | 0  | 0  | 0  | 0  | 0  | 0  |  0  |  0  |  1  |  1  |  1  |  1  |  1  |
+----+----+----+----+----+----+----+----+----+----+-----+-----+-----+-----+-----+-----+-----+
23/06/2021 15:51:40[INFO] POSIBLES SUPERVISORES A AGREGAR   
+-----+---------+----------------------------+---------------------+
|  ID | Marcado |        T - Entrada         |      T - Salida     |
+-----+---------+----------------------------+---------------------+
| P28 |    1    | ['T2', 'T6', 'T9', 'T14']  | ['T1', 'T5', 'T16'] |
| P28 |    2    | ['T2', 'T7', 'T10', 'T14'] | ['T1', 'T5', 'T16'] |
+-----+---------+----------------------------+---------------------+
23/06/2021 15:51:40[INFO] Actualizando estado de la red..   
23/06/2021 15:51:40[STATE] Cambie al estado 3: Hay igual cantidad de sifones vacios en deadlock   

--------------------------------------------------------------------------
   
23/06/2021 15:51:40[INFO] Calculando recompensa..   
23/06/2021 15:51:40[REWARD] Hay menos o igual cantidad de sifones vacios que en el estado anterior, recompensa -1   

--------------------------------------------------------------------------
   
23/06/2021 15:51:40[INFO] NEW Q-TABLE   
+-----------------------------------------------------+--------------------+------------------------+
|                   Estados/Acciones                  | Agregar supervisor | Agregar o quitar arcos |
+-----------------------------------------------------+--------------------+------------------------+
|                        Start                        |        -0.9        |          0.0           |
|        Más sifónes vacíos en estado deadlock        |        0.0         |         -1.629         |
|       Menos sifónes vacíos en estado deadlock       |        0.0         |         -90.0          |
| Igual cantidad de sifónes vacíos en estado deadlock |        -0.9        |         -1.719         |
|                         End                         |        0.0         |          0.0           |
+-----------------------------------------------------+--------------------+------------------------+

--------------------------------------------------------------------------
   
23/06/2021 15:51:40[INFO] Ejecutando accion...   
23/06/2021 15:51:40[ACTION] Agregar supervisor    
23/06/2021 15:51:40[ACTION] Agrego supervisor aleatorio Numero: 0  

--------------------------------------------------------------------------   
23/06/2021 15:51:40[INFO] Ejecutando petrinator para conocer estado de la red...   
--------------------------------------------------------------------------
   
23/06/2021 15:51:44[INFO] Importando datos desde html...   
23/06/2021 15:51:44[INFO] Analizando cantidad de supervisores que se pueden agregar...   
23/06/2021 15:51:44[INFO] Cantidad de sifones vacios en estado de deadlock ANTES: 2  
23/06/2021 15:51:44[INFO] Cantidad de sifones vacioes en estado de deadlock AHORA: 0  
23/06/2021 15:51:44[INFO] Cantidad de transiciones: 17  
23/06/2021 15:51:44[INFO] Estados de deadlock: []  
23/06/2021 15:51:44[INFO] Cantidad de sifones: 24  
23/06/2021 15:51:44[INFO] Cantidad de sifones vacios en estado de deadlock: 0 
 
23/06/2021 15:51:44[INFO] SIFONES   
+----+-----+--------+
| ID | Nro | Plazas |
+----+-----+--------+
+----+-----+--------+
23/06/2021 15:51:44[INFO] T INVARIANTES   
+----+----+----+----+----+----+----+----+----+----+-----+-----+-----+-----+-----+-----+-----+
| T0 | T1 | T2 | T3 | T4 | T5 | T6 | T7 | T8 | T9 | T10 | T11 | T12 | T13 | T14 | T15 | T16 |
+----+----+----+----+----+----+----+----+----+----+-----+-----+-----+-----+-----+-----+-----+
| 1  | 1  | 1  | 1  | 0  | 0  | 0  | 0  | 0  | 0  |  0  |  0  |  0  |  0  |  0  |  0  |  0  |
| 0  | 0  | 0  | 0  | 1  | 1  | 1  | 0  | 0  | 0  |  0  |  0  |  0  |  0  |  0  |  0  |  0  |
| 0  | 0  | 0  | 0  | 0  | 0  | 0  | 1  | 1  | 1  |  1  |  1  |  0  |  0  |  0  |  1  |  1  |
| 0  | 0  | 0  | 0  | 0  | 0  | 0  | 0  | 0  | 0  |  0  |  0  |  1  |  1  |  1  |  1  |  1  |
+----+----+----+----+----+----+----+----+----+----+-----+-----+-----+-----+-----+-----+-----+
23/06/2021 15:51:44[INFO] POSIBLES SUPERVISORES A AGREGAR   
+----+---------+-------------+------------+
| ID | Marcado | T - Entrada | T - Salida |
+----+---------+-------------+------------+
+----+---------+-------------+------------+
23/06/2021 15:51:44[INFO] Actualizando estado de la red..   
23/06/2021 15:51:44[STATE] Cambie al estado 2: Hay menos sifones vacios en deadlock   

--------------------------------------------------------------------------
   
23/06/2021 15:51:44[INFO] Calculando recompensa..   
23/06/2021 15:51:44[REWARD] No hay mas deadlock, recompensa 100   

--------------------------------------------------------------------------
   
23/06/2021 15:51:44[INFO] NEW Q-TABLE   
+-----------------------------------------------------+--------------------+------------------------+
|                   Estados/Acciones                  | Agregar supervisor | Agregar o quitar arcos |
+-----------------------------------------------------+--------------------+------------------------+
|                        Start                        |        -0.9        |          0.0           |
|        Más sifónes vacíos en estado deadlock        |        0.0         |         -1.629         |
|       Menos sifónes vacíos en estado deadlock       |        0.0         |         -90.0          |
| Igual cantidad de sifónes vacíos en estado deadlock |       89.91        |         -1.719         |
|                         End                         |        0.0         |          0.0           |
+-----------------------------------------------------+--------------------+------------------------+

--------------------------------------------------------------------------
   
23/06/2021 15:51:44[STATE] Se llego al estado deseado, NO HAY MAS DEADLOCK   

--------------------------------------------------------------------------
   
23/06/2021 15:51:44[INFO] Training complete! 
  
