18/07/2021 14:08:18[DEBUG] pflow_file:  ../analysis/analisis_8_08072021/gen_nets/20210708-094213_24/net.pflow  
18/07/2021 14:08:18[DEBUG] output_folder:  ../analysis/analisis_8_08072021/gen_nets/20210708-094213_24/  
18/07/2021 14:08:18[DEBUG] html_path:  ../analysis/analisis_8_08072021/gen_nets/20210708-094213_24/  
18/07/2021 14:08:18[DEBUG] txt_path:  ../analysis/analisis_8_08072021/gen_nets/20210708-094213_24/txt_info  

--------------------------------------------------------------------------   
18/07/2021 14:08:18[INFO] Ejecutando petrinator para conocer estado de la red...   
--------------------------------------------------------------------------
   
+----+-----+---------------------------------------------------------------------+
| ID | Nro |                                Plazas                               |
+----+-----+---------------------------------------------------------------------+
| 0  |  4  |     ['P1', 'P3', 'P9', 'P15', 'P18', 'P23', 'P29', 'P30', 'P31']    |
| 1  |  93 |            ['P1', 'P3', 'P9', 'P14', 'P17', 'P30', 'P31']           |
| 2  | 149 |        ['P1', 'P3', 'P9', 'P14', 'P15', 'P17', 'P30', 'P31']        |
| 3  | 221 |        ['P1', 'P3', 'P9', 'P10', 'P14', 'P17', 'P30', 'P31']        |
| 4  | 343 |     ['P1', 'P3', 'P9', 'P10', 'P14', 'P15', 'P17', 'P30', 'P31']    |
| 5  | 497 |     ['P1', 'P3', 'P9', 'P14', 'P17', 'P18', 'P19', 'P30', 'P31']    |
| 6  | 502 | ['P1', 'P3', 'P9', 'P10', 'P14', 'P17', 'P18', 'P19', 'P30', 'P31'] |
+----+-----+---------------------------------------------------------------------+
+----+----+----+----+----+----+----+----+----+----+-----+-----+-----+-----+-----+-----+-----+-----+-----+-----+
| T0 | T1 | T2 | T3 | T4 | T5 | T6 | T7 | T8 | T9 | T10 | T11 | T12 | T13 | T14 | T15 | T16 | T17 | T18 | T19 |
+----+----+----+----+----+----+----+----+----+----+-----+-----+-----+-----+-----+-----+-----+-----+-----+-----+
| 1  | 1  | 1  | 1  | 0  | 0  | 0  | 0  | 0  | 0  |  0  |  0  |  0  |  0  |  0  |  0  |  0  |  0  |  0  |  0  |
| 0  | 0  | 0  | 0  | 1  | 1  | 1  | 1  | 1  | 1  |  1  |  1  |  1  |  0  |  0  |  0  |  0  |  1  |  1  |  1  |
| 0  | 0  | 0  | 0  | 1  | 1  | 1  | 1  | 1  | 0  |  0  |  0  |  0  |  1  |  1  |  1  |  1  |  1  |  1  |  1  |
+----+----+----+----+----+----+----+----+----+----+-----+-----+-----+-----+-----+-----+-----+-----+-----+-----+
18/07/2021 14:08:31[INFO] Supervisores para agregar   
+-----+---------+----------------------------+--------------+
|  ID | Marcado |        T - Entrada         |  T - Salida  |
+-----+---------+----------------------------+--------------+
| P34 |    2    | ['T4', 'T7', 'T12', 'T15'] | ['T1', 'T5'] |
| P34 |    1    |       ['T7', 'T11']        | ['T1', 'T5'] |
| P34 |    1    |    ['T7', 'T11', 'T12']    | ['T1', 'T5'] |
| P34 |    1    |    ['T7', 'T8', 'T11']     | ['T1', 'T5'] |
| P34 |    1    | ['T7', 'T8', 'T11', 'T12'] | ['T1', 'T5'] |
| P34 |    1    |    ['T7', 'T11', 'T15']    | ['T1', 'T5'] |
| P34 |    1    | ['T7', 'T8', 'T11', 'T15'] | ['T1', 'T5'] |
+-----+---------+----------------------------+--------------+
18/07/2021 14:08:31[INFO] Supervisores agregados   
+-----+---------+-------------+------------+
| Nro | Marcado | T - Entrada | T - Salida |
+-----+---------+-------------+------------+
+-----+---------+-------------+------------+
18/07/2021 14:08:31[INFO] Ejecutando accion...   
18/07/2021 14:08:31[INFO] Ejecutando accion...   
18/07/2021 14:08:31[ACTION] Agrego supervisor aleatorio Numero: 2  

--------------------------------------------------------------------------   
18/07/2021 14:08:31[INFO] Ejecutando petrinator para conocer estado de la red...   
--------------------------------------------------------------------------
   

--------------------------------------------------------------------------
   
18/07/2021 14:08:45[INFO] Calculando recompensa..   
18/07/2021 14:08:45[REWARD] El sifon se controlo correctamente, recompensa -1   

--------------------------------------------------------------------------
   
18/07/2021 14:08:45[STATE] Cambie al estado 1: Hay mas sifones vacios en deadlock   
+-----------------------------------------------------+--------------------+------------------------+
|                   Estados/Acciones                  | Agregar supervisor | Agregar o quitar arcos |
+-----------------------------------------------------+--------------------+------------------------+
|                        Start                        |        -1.0        |          0.0           |
|        Más sifónes vacíos en estado deadlock        |        0.0         |          0.0           |
|       Menos sifónes vacíos en estado deadlock       |        0.0         |          0.0           |
| Igual cantidad de sifónes vacíos en estado deadlock |        0.0         |          0.0           |
|                         End                         |        0.0         |          0.0           |
+-----------------------------------------------------+--------------------+------------------------+
+----+-----+--------------------------------------------------------------------------------------------------------------------------+
| ID | Nro |                                                          Plazas                                                          |
+----+-----+--------------------------------------------------------------------------------------------------------------------------+
| 7  | 233 |                                  ['P7', 'P8', 'P9', 'P10', 'P13', 'P14', 'P21', 'P34']                                   |
| 8  | 274 |                               ['P1', 'P7', 'P8', 'P9', 'P10', 'P13', 'P14', 'P21', 'P34']                                |
| 9  | 327 |                         ['P1', 'P2', 'P3', 'P7', 'P8', 'P9', 'P10', 'P13', 'P14', 'P21', 'P34']                          |
| 10 | 387 |                      ['P1', 'P2', 'P3', 'P7', 'P8', 'P9', 'P10', 'P13', 'P14', 'P17', 'P21', 'P34']                      |
| 11 | 453 |                      ['P1', 'P2', 'P3', 'P7', 'P8', 'P9', 'P10', 'P13', 'P14', 'P15', 'P21', 'P34']                      |
| 12 | 513 |                  ['P1', 'P2', 'P3', 'P7', 'P8', 'P9', 'P10', 'P13', 'P14', 'P15', 'P17', 'P21', 'P34']                   |
| 13 | 566 |               ['P1', 'P2', 'P3', 'P7', 'P8', 'P9', 'P10', 'P13', 'P14', 'P15', 'P17', 'P18', 'P21', 'P34']               |
| 14 | 572 |                        ['P7', 'P8', 'P9', 'P10', 'P13', 'P14', 'P17', 'P18', 'P19', 'P21', 'P34']                        |
| 15 | 620 |                     ['P1', 'P7', 'P8', 'P9', 'P10', 'P13', 'P14', 'P17', 'P18', 'P19', 'P21', 'P34']                     |
| 16 | 704 |               ['P1', 'P2', 'P3', 'P7', 'P8', 'P9', 'P10', 'P13', 'P14', 'P17', 'P18', 'P19', 'P21', 'P34']               |
| 17 | 757 |           ['P1', 'P2', 'P3', 'P7', 'P8', 'P9', 'P10', 'P13', 'P14', 'P15', 'P17', 'P18', 'P19', 'P21', 'P34']            |
| 18 | 759 |    ['P1', 'P2', 'P3', 'P7', 'P8', 'P9', 'P10', 'P13', 'P14', 'P15', 'P17', 'P18', 'P19', 'P21', 'P22', 'P23', 'P34']     |
| 19 | 859 |       ['P1', 'P7', 'P8', 'P9', 'P10', 'P13', 'P14', 'P15', 'P17', 'P18', 'P19', 'P21', 'P22', 'P23', 'P24', 'P34']       |
| 20 | 860 | ['P1', 'P2', 'P3', 'P7', 'P8', 'P9', 'P10', 'P13', 'P14', 'P15', 'P17', 'P18', 'P19', 'P21', 'P22', 'P23', 'P24', 'P34'] |
| 21 |  4  |                               ['P1', 'P3', 'P9', 'P15', 'P18', 'P23', 'P29', 'P30', 'P31']                               |
| 22 | 115 |                                      ['P1', 'P3', 'P9', 'P14', 'P17', 'P30', 'P31']                                      |
| 23 | 183 |                                  ['P1', 'P3', 'P9', 'P14', 'P15', 'P17', 'P30', 'P31']                                   |
| 24 | 281 |                                  ['P1', 'P3', 'P9', 'P10', 'P14', 'P17', 'P30', 'P31']                                   |
| 25 | 440 |                               ['P1', 'P3', 'P9', 'P10', 'P14', 'P15', 'P17', 'P30', 'P31']                               |
| 26 | 652 |                               ['P1', 'P3', 'P9', 'P14', 'P17', 'P18', 'P19', 'P30', 'P31']                               |
| 27 | 658 |                           ['P1', 'P3', 'P9', 'P10', 'P14', 'P17', 'P18', 'P19', 'P30', 'P31']                            |
+----+-----+--------------------------------------------------------------------------------------------------------------------------+
+----+----+----+----+----+----+----+----+----+----+-----+-----+-----+-----+-----+-----+-----+-----+-----+-----+
| T0 | T1 | T2 | T3 | T4 | T5 | T6 | T7 | T8 | T9 | T10 | T11 | T12 | T13 | T14 | T15 | T16 | T17 | T18 | T19 |
+----+----+----+----+----+----+----+----+----+----+-----+-----+-----+-----+-----+-----+-----+-----+-----+-----+
| 2  | 2  | 2  | 2  | 1  | 1  | 1  | 1  | 1  | 1  |  1  |  1  |  1  |  0  |  0  |  0  |  0  |  1  |  1  |  1  |
| 0  | 0  | 0  | 0  | 1  | 1  | 1  | 1  | 1  | 0  |  0  |  0  |  0  |  1  |  1  |  1  |  1  |  1  |  1  |  1  |
+----+----+----+----+----+----+----+----+----+----+-----+-----+-----+-----+-----+-----+-----+-----+-----+-----+
18/07/2021 14:08:45[INFO] Supervisores para agregar   
+-----+---------+----------------------------------------------------------------------+--------------+
|  ID | Marcado |                             T - Entrada                              |  T - Salida  |
+-----+---------+----------------------------------------------------------------------+--------------+
| P35 |    2    | ['T4', 'T7', 'T12', 'T15', 'T1', 'T3', 'T3', 'T1', 'T1', 'T3', 'T1'] | ['T1', 'T5'] |
| P35 |    1    |       ['T7', 'T11', 'T1', 'T3', 'T3', 'T1', 'T1', 'T3', 'T1']        | ['T1', 'T5'] |
| P35 |    1    |    ['T7', 'T11', 'T12', 'T1', 'T3', 'T3', 'T1', 'T1', 'T3', 'T1']    | ['T1', 'T5'] |
| P35 |    1    |    ['T7', 'T8', 'T11', 'T1', 'T3', 'T3', 'T1', 'T1', 'T3', 'T1']     | ['T1', 'T5'] |
| P35 |    1    | ['T7', 'T8', 'T11', 'T12', 'T1', 'T3', 'T3', 'T1', 'T1', 'T3', 'T1'] | ['T1', 'T5'] |
| P35 |    1    |    ['T7', 'T11', 'T15', 'T1', 'T3', 'T3', 'T1', 'T1', 'T3', 'T1']    | ['T1', 'T5'] |
| P35 |    1    | ['T7', 'T8', 'T11', 'T15', 'T1', 'T3', 'T3', 'T1', 'T1', 'T3', 'T1'] | ['T1', 'T5'] |
+-----+---------+----------------------------------------------------------------------+--------------+
18/07/2021 14:08:45[INFO] Supervisores agregados   
+-----+---------+----------------------+--------------+
| Nro | Marcado |     T - Entrada      |  T - Salida  |
+-----+---------+----------------------+--------------+
|  1  |    1    | ['T7', 'T11', 'T12'] | ['T1', 'T5'] |
+-----+---------+----------------------+--------------+
18/07/2021 14:08:45[INFO] Ejecutando accion...   
18/07/2021 14:08:45[ACTION] Agregar o quitar arcos   
18/07/2021 14:08:45[ACTION] La transicion en conflicto T1 le tiene que devolver un token al supervisor P34   
18/07/2021 14:08:45[INFO] Se agrego un arco desde T1 hasta P34   
18/07/2021 14:08:45[ACTION] Eliminar arco desde T7 hasta P34   
18/07/2021 14:08:45[INFO] Se elimino el arco con metodo 2 desde T7 hasta P34   
18/07/2021 14:08:45[ACTION] La transicion en conflicto T14 le tiene que devolver un token al supervisor P34   
18/07/2021 14:08:45[INFO] Se agrego un arco desde T14 hasta P34   

--------------------------------------------------------------------------   
18/07/2021 14:08:45[INFO] Ejecutando petrinator para conocer estado de la red...   
--------------------------------------------------------------------------
   

--------------------------------------------------------------------------
   
18/07/2021 14:09:00[INFO] Calculando recompensa..   
18/07/2021 14:09:00[REWARD] Hay menos o igual cantidad de sifones vacios que en el estado anterior, recompensa -1   

--------------------------------------------------------------------------
   
18/07/2021 14:09:00[STATE] Cambie al estado 2: Hay menos sifones vacios en deadlock   
+-----------------------------------------------------+--------------------+------------------------+
|                   Estados/Acciones                  | Agregar supervisor | Agregar o quitar arcos |
+-----------------------------------------------------+--------------------+------------------------+
|                        Start                        |        -1.0        |          0.0           |
|        Más sifónes vacíos en estado deadlock        |        0.0         |          -1.0          |
|       Menos sifónes vacíos en estado deadlock       |        0.0         |          0.0           |
| Igual cantidad de sifónes vacíos en estado deadlock |        0.0         |          0.0           |
|                         End                         |        0.0         |          0.0           |
+-----------------------------------------------------+--------------------+------------------------+
+----+-----+---------------------------------------------------------------------+
| ID | Nro |                                Plazas                               |
+----+-----+---------------------------------------------------------------------+
| 28 |  4  |     ['P1', 'P3', 'P9', 'P15', 'P18', 'P23', 'P29', 'P30', 'P31']    |
| 29 |  95 |            ['P1', 'P3', 'P9', 'P14', 'P17', 'P30', 'P31']           |
| 30 | 152 |        ['P1', 'P3', 'P9', 'P14', 'P15', 'P17', 'P30', 'P31']        |
| 31 | 239 |        ['P1', 'P3', 'P9', 'P10', 'P14', 'P17', 'P30', 'P31']        |
| 32 | 398 |     ['P1', 'P3', 'P9', 'P10', 'P14', 'P15', 'P17', 'P30', 'P31']    |
| 33 | 610 |     ['P1', 'P3', 'P9', 'P14', 'P17', 'P18', 'P19', 'P30', 'P31']    |
| 34 | 616 | ['P1', 'P3', 'P9', 'P10', 'P14', 'P17', 'P18', 'P19', 'P30', 'P31'] |
+----+-----+---------------------------------------------------------------------+
+----+----+----+----+----+----+----+----+----+----+-----+-----+-----+-----+-----+-----+-----+-----+-----+-----+
| T0 | T1 | T2 | T3 | T4 | T5 | T6 | T7 | T8 | T9 | T10 | T11 | T12 | T13 | T14 | T15 | T16 | T17 | T18 | T19 |
+----+----+----+----+----+----+----+----+----+----+-----+-----+-----+-----+-----+-----+-----+-----+-----+-----+
| 1  | 1  | 1  | 1  | 0  | 0  | 0  | 0  | 0  | 0  |  0  |  0  |  0  |  0  |  0  |  0  |  0  |  0  |  0  |  0  |
| 0  | 0  | 0  | 0  | 1  | 1  | 1  | 1  | 1  | 0  |  0  |  0  |  0  |  1  |  1  |  1  |  1  |  1  |  1  |  1  |
+----+----+----+----+----+----+----+----+----+----+-----+-----+-----+-----+-----+-----+-----+-----+-----+-----+
18/07/2021 14:09:00[INFO] Supervisores para agregar   
+-----+---------+----------------------------+--------------+
|  ID | Marcado |        T - Entrada         |  T - Salida  |
+-----+---------+----------------------------+--------------+
| P35 |    2    | ['T4', 'T7', 'T12', 'T15'] | ['T1', 'T5'] |
| P35 |    1    |       ['T7', 'T11']        | ['T1', 'T5'] |
| P35 |    1    |    ['T7', 'T11', 'T12']    | ['T1', 'T5'] |
| P35 |    1    |    ['T7', 'T8', 'T11']     | ['T1', 'T5'] |
| P35 |    1    | ['T7', 'T8', 'T11', 'T12'] | ['T1', 'T5'] |
| P35 |    1    |    ['T7', 'T11', 'T15']    | ['T1', 'T5'] |
| P35 |    1    | ['T7', 'T8', 'T11', 'T15'] | ['T1', 'T5'] |
+-----+---------+----------------------------+--------------+
18/07/2021 14:09:00[INFO] Supervisores agregados   
+-----+---------+----------------------+--------------+
| Nro | Marcado |     T - Entrada      |  T - Salida  |
+-----+---------+----------------------+--------------+
|  1  |    1    | ['T7', 'T11', 'T12'] | ['T1', 'T5'] |
+-----+---------+----------------------+--------------+
18/07/2021 14:09:00[INFO] Ejecutando accion...   
18/07/2021 14:09:00[ACTION] Agregar o quitar arcos   
18/07/2021 14:09:00[ACTION] Eliminar arco desde T11 hasta P34   
18/07/2021 14:09:00[INFO] Se elimino el arco con metodo 2 desde T11 hasta P34   

--------------------------------------------------------------------------   
18/07/2021 14:09:00[INFO] Ejecutando petrinator para conocer estado de la red...   
--------------------------------------------------------------------------
   

--------------------------------------------------------------------------
   
18/07/2021 14:09:13[INFO] Calculando recompensa..   
18/07/2021 14:09:13[REWARD] No hay mas deadlock, recompensa 100   

--------------------------------------------------------------------------
   
18/07/2021 14:09:13[STATE] Se llego al estado deseado, NO HAY MAS DEADLOCK   

--------------------------------------------------------------------------
   
18/07/2021 14:09:13[STATE] Cambie al estado 2: Hay menos sifones vacios en deadlock   
+-----------------------------------------------------+--------------------+------------------------+
|                   Estados/Acciones                  | Agregar supervisor | Agregar o quitar arcos |
+-----------------------------------------------------+--------------------+------------------------+
|                        Start                        |        -1.0        |          0.0           |
|        Más sifónes vacíos en estado deadlock        |        0.0         |          -1.0          |
|       Menos sifónes vacíos en estado deadlock       |        0.0         |         100.0          |
| Igual cantidad de sifónes vacíos en estado deadlock |        0.0         |          0.0           |
|                         End                         |        0.0         |          0.0           |
+-----------------------------------------------------+--------------------+------------------------+
