19/07/2021 16:58:39[DEBUG] pflow_file:  ../analysis/analisis_11_18072021/gen_nets/20210719-151114_31/net.pflow  
19/07/2021 16:58:39[DEBUG] output_folder:  ../analysis/analisis_11_18072021/gen_nets/20210719-151114_31/  
19/07/2021 16:58:39[DEBUG] html_path:  ../analysis/analisis_11_18072021/gen_nets/20210719-151114_31/  
19/07/2021 16:58:39[DEBUG] txt_path:  ../analysis/analisis_11_18072021/gen_nets/20210719-151114_31/txt_info  

--------------------------------------------------------------------------   
19/07/2021 16:58:39[INFO] Ejecutando petrinator para conocer estado de la red...   
--------------------------------------------------------------------------
   
+----+-----+----------------------------------------------------------------------+
| ID | Nro |                                Plazas                                |
+----+-----+----------------------------------------------------------------------+
| 0  |  4  | ['P3', 'P8', 'P10', 'P15', 'P20', 'P24', 'P37', 'P38', 'P39', 'P40'] |
| 1  |  24 |    ['P3', 'P7', 'P10', 'P15', 'P20', 'P24', 'P37', 'P38', 'P40']     |
+----+-----+----------------------------------------------------------------------+
+----+----+----+----+----+----+----+----+----+----+-----+-----+-----+-----+-----+-----+-----+-----+-----+-----+-----+-----+-----+
| T0 | T1 | T2 | T3 | T4 | T5 | T6 | T7 | T8 | T9 | T10 | T11 | T12 | T13 | T14 | T15 | T16 | T17 | T18 | T19 | T20 | T21 | T22 |
+----+----+----+----+----+----+----+----+----+----+-----+-----+-----+-----+-----+-----+-----+-----+-----+-----+-----+-----+-----+
| 1  | 1  | 1  | 1  | 1  | 0  | 0  | 0  | 0  | 0  |  0  |  0  |  0  |  0  |  0  |  0  |  0  |  0  |  0  |  0  |  0  |  0  |  0  |
| 0  | 0  | 0  | 0  | 0  | 1  | 1  | 1  | 1  | 0  |  0  |  0  |  0  |  0  |  0  |  0  |  0  |  0  |  0  |  0  |  0  |  0  |  0  |
| 0  | 0  | 0  | 0  | 0  | 0  | 0  | 0  | 0  | 1  |  1  |  1  |  1  |  0  |  0  |  0  |  0  |  0  |  0  |  0  |  0  |  0  |  0  |
| 0  | 0  | 0  | 0  | 0  | 0  | 0  | 0  | 0  | 0  |  0  |  0  |  0  |  1  |  1  |  1  |  1  |  0  |  0  |  0  |  0  |  0  |  0  |
| 0  | 0  | 0  | 0  | 0  | 0  | 0  | 0  | 0  | 0  |  0  |  0  |  0  |  0  |  0  |  0  |  0  |  1  |  1  |  1  |  0  |  0  |  0  |
| 0  | 0  | 0  | 0  | 0  | 0  | 0  | 0  | 0  | 0  |  0  |  0  |  0  |  0  |  0  |  0  |  0  |  0  |  0  |  0  |  1  |  1  |  1  |
+----+----+----+----+----+----+----+----+----+----+-----+-----+-----+-----+-----+-----+-----+-----+-----+-----+-----+-----+-----+
19/07/2021 16:59:55[INFO] Supervisores para agregar   
+-----+---------+----------------------------+------------------------------------------+
|  ID | Marcado |        T - Entrada         |                T - Salida                |
+-----+---------+----------------------------+------------------------------------------+
| P41 |    3    | ['T3', 'T8', 'T15', 'T22'] | ['T1', 'T6', 'T10', 'T14', 'T18', 'T21'] |
| P41 |    2    |    ['T3', 'T15', 'T22']    | ['T1', 'T6', 'T10', 'T14', 'T18', 'T21'] |
+-----+---------+----------------------------+------------------------------------------+
19/07/2021 16:59:55[INFO] Supervisores agregados   
+-----+---------+-------------+------------+
| Nro | Marcado | T - Entrada | T - Salida |
+-----+---------+-------------+------------+
+-----+---------+-------------+------------+
19/07/2021 16:59:55[INFO] Ejecutando accion...   
19/07/2021 16:59:55[INFO] Ejecutando accion...   
19/07/2021 16:59:55[ACTION] Agrego supervisor aleatorio Numero: 0  

--------------------------------------------------------------------------   
19/07/2021 16:59:55[INFO] Ejecutando petrinator para conocer estado de la red...   
--------------------------------------------------------------------------
   

--------------------------------------------------------------------------
   
19/07/2021 17:01:23[INFO] Calculando recompensa..   
19/07/2021 17:01:23[REWARD] El sifon se controlo correctamente, recompensa -1   

--------------------------------------------------------------------------
   
19/07/2021 17:01:23[STATE] Cambie al estado 1: Hay mas sifones vacios en deadlock   
+-----------------------------------------------------+--------------------+------------------------+
|                   Estados/Acciones                  | Agregar supervisor | Agregar o quitar arcos |
+-----------------------------------------------------+--------------------+------------------------+
|                        Start                        |        -1.0        |          0.0           |
|        Más sifónes vacíos en estado deadlock        |        0.0         |          0.0           |
|       Menos sifónes vacíos en estado deadlock       |        0.0         |          0.0           |
| Igual cantidad de sifónes vacíos en estado deadlock |        0.0         |          0.0           |
|                         End                         |        0.0         |          0.0           |
+-----------------------------------------------------+--------------------+------------------------+
+----+-----+----------------------------------------------------------------------+
| ID | Nro |                                Plazas                                |
+----+-----+----------------------------------------------------------------------+
| 2  |  24 |            ['P1', 'P2', 'P6', 'P7', 'P14', 'P23', 'P41']             |
| 3  |  4  | ['P3', 'P8', 'P10', 'P15', 'P20', 'P24', 'P37', 'P38', 'P39', 'P40'] |
| 4  |  25 |    ['P3', 'P7', 'P10', 'P15', 'P20', 'P24', 'P37', 'P38', 'P40']     |
+----+-----+----------------------------------------------------------------------+
+----+----+----+----+----+----+----+----+----+----+-----+-----+-----+-----+-----+-----+-----+-----+-----+-----+-----+-----+-----+
| T0 | T1 | T2 | T3 | T4 | T5 | T6 | T7 | T8 | T9 | T10 | T11 | T12 | T13 | T14 | T15 | T16 | T17 | T18 | T19 | T20 | T21 | T22 |
+----+----+----+----+----+----+----+----+----+----+-----+-----+-----+-----+-----+-----+-----+-----+-----+-----+-----+-----+-----+
| 1  | 1  | 1  | 1  | 1  | 0  | 0  | 0  | 0  | 0  |  0  |  0  |  0  |  0  |  0  |  0  |  0  |  0  |  0  |  0  |  0  |  0  |  0  |
| 0  | 0  | 0  | 0  | 0  | 1  | 1  | 1  | 1  | 0  |  0  |  0  |  0  |  0  |  0  |  0  |  0  |  0  |  0  |  0  |  0  |  0  |  0  |
| 0  | 0  | 0  | 0  | 0  | 0  | 0  | 0  | 0  | 0  |  0  |  0  |  0  |  1  |  1  |  1  |  1  |  0  |  0  |  0  |  0  |  0  |  0  |
| 0  | 0  | 0  | 0  | 0  | 0  | 0  | 0  | 0  | 0  |  0  |  0  |  0  |  0  |  0  |  0  |  0  |  0  |  0  |  0  |  1  |  1  |  1  |
+----+----+----+----+----+----+----+----+----+----+-----+-----+-----+-----+-----+-----+-----+-----+-----+-----+-----+-----+-----+
19/07/2021 17:01:23[INFO] Supervisores para agregar   
+-----+---------+----------------------------+------------------------------------------+
|  ID | Marcado |        T - Entrada         |                T - Salida                |
+-----+---------+----------------------------+------------------------------------------+
| P42 |    3    | ['T3', 'T8', 'T15', 'T22'] | ['T1', 'T6', 'T10', 'T14', 'T18', 'T21'] |
| P42 |    2    |    ['T3', 'T15', 'T22']    | ['T1', 'T6', 'T10', 'T14', 'T18', 'T21'] |
+-----+---------+----------------------------+------------------------------------------+
19/07/2021 17:01:23[INFO] Supervisores agregados   
+-----+---------+----------------------------+------------------------------------------+
| Nro | Marcado |        T - Entrada         |                T - Salida                |
+-----+---------+----------------------------+------------------------------------------+
|  1  |    3    | ['T3', 'T8', 'T15', 'T22'] | ['T1', 'T6', 'T10', 'T14', 'T18', 'T21'] |
+-----+---------+----------------------------+------------------------------------------+
19/07/2021 17:01:23[INFO] Ejecutando accion...   
19/07/2021 17:01:23[ACTION] Agregar o quitar arcos   
19/07/2021 17:01:23[ACTION] Eliminar arco desde P41 hasta T10   
19/07/2021 17:01:23[INFO] Se elimino el arco desde P41 hasta T10   
19/07/2021 17:01:23[ACTION] Eliminar arco desde P41 hasta T18   
19/07/2021 17:01:23[INFO] Se elimino el arco desde P41 hasta T18   

--------------------------------------------------------------------------   
19/07/2021 17:01:23[INFO] Ejecutando petrinator para conocer estado de la red...   
--------------------------------------------------------------------------
   

--------------------------------------------------------------------------
   
19/07/2021 17:02:43[INFO] Calculando recompensa..   
19/07/2021 17:02:43[REWARD] Hay menos o igual cantidad de sifones vacios que en el estado anterior, recompensa -1   

--------------------------------------------------------------------------
   
19/07/2021 17:02:43[STATE] Cambie al estado 2: Hay menos sifones vacios en deadlock   
+-----------------------------------------------------+--------------------+------------------------+
|                   Estados/Acciones                  | Agregar supervisor | Agregar o quitar arcos |
+-----------------------------------------------------+--------------------+------------------------+
|                        Start                        |        -1.0        |          0.0           |
|        Más sifónes vacíos en estado deadlock        |        0.0         |          -1.0          |
|       Menos sifónes vacíos en estado deadlock       |        0.0         |          0.0           |
| Igual cantidad de sifónes vacíos en estado deadlock |        0.0         |          0.0           |
|                         End                         |        0.0         |          0.0           |
+-----------------------------------------------------+--------------------+------------------------+
+----+-----+----------------------------------------------------------------------+
| ID | Nro |                                Plazas                                |
+----+-----+----------------------------------------------------------------------+
| 5  |  4  | ['P3', 'P8', 'P10', 'P15', 'P20', 'P24', 'P37', 'P38', 'P39', 'P40'] |
| 6  |  25 |    ['P3', 'P7', 'P10', 'P15', 'P20', 'P24', 'P37', 'P38', 'P40']     |
+----+-----+----------------------------------------------------------------------+
+----+----+----+----+----+----+----+----+----+----+-----+-----+-----+-----+-----+-----+-----+-----+-----+-----+-----+-----+-----+
| T0 | T1 | T2 | T3 | T4 | T5 | T6 | T7 | T8 | T9 | T10 | T11 | T12 | T13 | T14 | T15 | T16 | T17 | T18 | T19 | T20 | T21 | T22 |
+----+----+----+----+----+----+----+----+----+----+-----+-----+-----+-----+-----+-----+-----+-----+-----+-----+-----+-----+-----+
| 1  | 1  | 1  | 1  | 1  | 0  | 0  | 0  | 0  | 0  |  0  |  0  |  0  |  0  |  0  |  0  |  0  |  0  |  0  |  0  |  0  |  0  |  0  |
| 0  | 0  | 0  | 0  | 0  | 1  | 1  | 1  | 1  | 0  |  0  |  0  |  0  |  0  |  0  |  0  |  0  |  0  |  0  |  0  |  0  |  0  |  0  |
| 0  | 0  | 0  | 0  | 0  | 0  | 0  | 0  | 0  | 1  |  1  |  1  |  1  |  0  |  0  |  0  |  0  |  0  |  0  |  0  |  0  |  0  |  0  |
| 0  | 0  | 0  | 0  | 0  | 0  | 0  | 0  | 0  | 0  |  0  |  0  |  0  |  1  |  1  |  1  |  1  |  0  |  0  |  0  |  0  |  0  |  0  |
| 0  | 0  | 0  | 0  | 0  | 0  | 0  | 0  | 0  | 0  |  0  |  0  |  0  |  0  |  0  |  0  |  0  |  1  |  1  |  1  |  0  |  0  |  0  |
| 0  | 0  | 0  | 0  | 0  | 0  | 0  | 0  | 0  | 0  |  0  |  0  |  0  |  0  |  0  |  0  |  0  |  0  |  0  |  0  |  1  |  1  |  1  |
+----+----+----+----+----+----+----+----+----+----+-----+-----+-----+-----+-----+-----+-----+-----+-----+-----+-----+-----+-----+
19/07/2021 17:02:43[INFO] Supervisores para agregar   
+-----+---------+----------------------------+------------------------------------------+
|  ID | Marcado |        T - Entrada         |                T - Salida                |
+-----+---------+----------------------------+------------------------------------------+
| P42 |    3    | ['T3', 'T8', 'T15', 'T22'] | ['T1', 'T6', 'T10', 'T14', 'T18', 'T21'] |
| P42 |    2    |    ['T3', 'T15', 'T22']    | ['T1', 'T6', 'T10', 'T14', 'T18', 'T21'] |
+-----+---------+----------------------------+------------------------------------------+
19/07/2021 17:02:43[INFO] Supervisores agregados   
+-----+---------+----------------------------+------------------------------------------+
| Nro | Marcado |        T - Entrada         |                T - Salida                |
+-----+---------+----------------------------+------------------------------------------+
|  1  |    3    | ['T3', 'T8', 'T15', 'T22'] | ['T1', 'T6', 'T10', 'T14', 'T18', 'T21'] |
+-----+---------+----------------------------+------------------------------------------+
19/07/2021 17:02:43[INFO] Ejecutando accion...   
19/07/2021 17:02:43[ACTION] Agregar o quitar arcos   

--------------------------------------------------------------------------   
19/07/2021 17:02:43[INFO] Ejecutando petrinator para conocer estado de la red...   
--------------------------------------------------------------------------
   

--------------------------------------------------------------------------
   
19/07/2021 17:04:04[INFO] Calculando recompensa..   
19/07/2021 17:04:04[REWARD] Hay menos o igual cantidad de sifones vacios que en el estado anterior, recompensa -1   

--------------------------------------------------------------------------
   
19/07/2021 17:04:04[STATE] Cambie al estado 3: Hay igual cantidad de sifones vacios en deadlock   
+-----------------------------------------------------+--------------------+------------------------+
|                   Estados/Acciones                  | Agregar supervisor | Agregar o quitar arcos |
+-----------------------------------------------------+--------------------+------------------------+
|                        Start                        |        -1.0        |          0.0           |
|        Más sifónes vacíos en estado deadlock        |        0.0         |          -1.0          |
|       Menos sifónes vacíos en estado deadlock       |        0.0         |          -1.0          |
| Igual cantidad de sifónes vacíos en estado deadlock |        0.0         |          0.0           |
|                         End                         |        0.0         |          0.0           |
+-----------------------------------------------------+--------------------+------------------------+
+----+-----+----------------------------------------------------------------------+
| ID | Nro |                                Plazas                                |
+----+-----+----------------------------------------------------------------------+
| 7  |  4  | ['P3', 'P8', 'P10', 'P15', 'P20', 'P24', 'P37', 'P38', 'P39', 'P40'] |
| 8  |  25 |    ['P3', 'P7', 'P10', 'P15', 'P20', 'P24', 'P37', 'P38', 'P40']     |
+----+-----+----------------------------------------------------------------------+
+----+----+----+----+----+----+----+----+----+----+-----+-----+-----+-----+-----+-----+-----+-----+-----+-----+-----+-----+-----+
| T0 | T1 | T2 | T3 | T4 | T5 | T6 | T7 | T8 | T9 | T10 | T11 | T12 | T13 | T14 | T15 | T16 | T17 | T18 | T19 | T20 | T21 | T22 |
+----+----+----+----+----+----+----+----+----+----+-----+-----+-----+-----+-----+-----+-----+-----+-----+-----+-----+-----+-----+
| 1  | 1  | 1  | 1  | 1  | 0  | 0  | 0  | 0  | 0  |  0  |  0  |  0  |  0  |  0  |  0  |  0  |  0  |  0  |  0  |  0  |  0  |  0  |
| 0  | 0  | 0  | 0  | 0  | 1  | 1  | 1  | 1  | 0  |  0  |  0  |  0  |  0  |  0  |  0  |  0  |  0  |  0  |  0  |  0  |  0  |  0  |
| 0  | 0  | 0  | 0  | 0  | 0  | 0  | 0  | 0  | 1  |  1  |  1  |  1  |  0  |  0  |  0  |  0  |  0  |  0  |  0  |  0  |  0  |  0  |
| 0  | 0  | 0  | 0  | 0  | 0  | 0  | 0  | 0  | 0  |  0  |  0  |  0  |  1  |  1  |  1  |  1  |  0  |  0  |  0  |  0  |  0  |  0  |
| 0  | 0  | 0  | 0  | 0  | 0  | 0  | 0  | 0  | 0  |  0  |  0  |  0  |  0  |  0  |  0  |  0  |  1  |  1  |  1  |  0  |  0  |  0  |
| 0  | 0  | 0  | 0  | 0  | 0  | 0  | 0  | 0  | 0  |  0  |  0  |  0  |  0  |  0  |  0  |  0  |  0  |  0  |  0  |  1  |  1  |  1  |
+----+----+----+----+----+----+----+----+----+----+-----+-----+-----+-----+-----+-----+-----+-----+-----+-----+-----+-----+-----+
19/07/2021 17:04:04[INFO] Supervisores para agregar   
+-----+---------+----------------------------+------------------------------------------+
|  ID | Marcado |        T - Entrada         |                T - Salida                |
+-----+---------+----------------------------+------------------------------------------+
| P42 |    3    | ['T3', 'T8', 'T15', 'T22'] | ['T1', 'T6', 'T10', 'T14', 'T18', 'T21'] |
| P42 |    2    |    ['T3', 'T15', 'T22']    | ['T1', 'T6', 'T10', 'T14', 'T18', 'T21'] |
+-----+---------+----------------------------+------------------------------------------+
19/07/2021 17:04:04[INFO] Supervisores agregados   
+-----+---------+----------------------------+------------------------------------------+
| Nro | Marcado |        T - Entrada         |                T - Salida                |
+-----+---------+----------------------------+------------------------------------------+
|  1  |    3    | ['T3', 'T8', 'T15', 'T22'] | ['T1', 'T6', 'T10', 'T14', 'T18', 'T21'] |
+-----+---------+----------------------------+------------------------------------------+
19/07/2021 17:04:04[INFO] Ejecutando accion...   
19/07/2021 17:04:04[INFO] Ejecutando accion...   
19/07/2021 17:04:04[ACTION] Agrego supervisor aleatorio Numero: 1  

--------------------------------------------------------------------------   
19/07/2021 17:04:04[INFO] Ejecutando petrinator para conocer estado de la red...   
--------------------------------------------------------------------------
   

--------------------------------------------------------------------------
   
19/07/2021 17:06:08[INFO] Calculando recompensa..   
19/07/2021 17:06:08[REWARD] El sifon se controlo correctamente, recompensa -1   

--------------------------------------------------------------------------
   
19/07/2021 17:06:08[STATE] Cambie al estado 1: Hay mas sifones vacios en deadlock   
+-----------------------------------------------------+--------------------+------------------------+
|                   Estados/Acciones                  | Agregar supervisor | Agregar o quitar arcos |
+-----------------------------------------------------+--------------------+------------------------+
|                        Start                        |        -1.0        |          0.0           |
|        Más sifónes vacíos en estado deadlock        |        0.0         |          -1.0          |
|       Menos sifónes vacíos en estado deadlock       |        0.0         |          -1.0          |
| Igual cantidad de sifónes vacíos en estado deadlock |        -1.0        |          0.0           |
|                         End                         |        0.0         |          0.0           |
+-----------------------------------------------------+--------------------+------------------------+
+----+------+---------------------------------------------------------------------+
| ID | Nro  |                                Plazas                               |
+----+------+---------------------------------------------------------------------+
| 9  |  24  |                  ['P1', 'P2', 'P14', 'P23', 'P42']                  |
| 10 | 890  |           ['P1', 'P2', 'P10', 'P11', 'P14', 'P23', 'P42']           |
| 11 | 891  |        ['P1', 'P2', 'P10', 'P11', 'P14', 'P15', 'P23', 'P42']       |
| 12 | 893  |        ['P1', 'P2', 'P3', 'P10', 'P11', 'P14', 'P23', 'P42']        |
| 13 | 895  |     ['P1', 'P2', 'P3', 'P10', 'P11', 'P14', 'P15', 'P23', 'P42']    |
| 14 | 941  |        ['P1', 'P2', 'P10', 'P11', 'P12', 'P14', 'P23', 'P42']       |
| 15 | 942  |    ['P1', 'P2', 'P10', 'P11', 'P12', 'P14', 'P15', 'P23', 'P42']    |
| 16 | 944  |     ['P1', 'P2', 'P3', 'P10', 'P11', 'P12', 'P14', 'P23', 'P42']    |
| 17 | 946  | ['P1', 'P2', 'P3', 'P10', 'P11', 'P12', 'P14', 'P15', 'P23', 'P42'] |
| 18 | 2494 |           ['P1', 'P2', 'P14', 'P15', 'P16', 'P23', 'P42']           |
| 19 | 2500 |        ['P1', 'P2', 'P3', 'P14', 'P15', 'P16', 'P23', 'P42']        |
+----+------+---------------------------------------------------------------------+
+----+----+----+----+----+----+----+----+----+----+-----+-----+-----+-----+-----+-----+-----+-----+-----+-----+-----+-----+-----+
| T0 | T1 | T2 | T3 | T4 | T5 | T6 | T7 | T8 | T9 | T10 | T11 | T12 | T13 | T14 | T15 | T16 | T17 | T18 | T19 | T20 | T21 | T22 |
+----+----+----+----+----+----+----+----+----+----+-----+-----+-----+-----+-----+-----+-----+-----+-----+-----+-----+-----+-----+
| 1  | 1  | 1  | 1  | 1  | 0  | 0  | 0  | 0  | 0  |  0  |  0  |  0  |  0  |  0  |  0  |  0  |  0  |  0  |  0  |  0  |  0  |  0  |
| 0  | 0  | 0  | 0  | 0  | 0  | 0  | 0  | 0  | 0  |  0  |  0  |  0  |  1  |  1  |  1  |  1  |  0  |  0  |  0  |  0  |  0  |  0  |
| 0  | 0  | 0  | 0  | 0  | 0  | 0  | 0  | 0  | 0  |  0  |  0  |  0  |  0  |  0  |  0  |  0  |  0  |  0  |  0  |  1  |  1  |  1  |
+----+----+----+----+----+----+----+----+----+----+-----+-----+-----+-----+-----+-----+-----+-----+-----+-----+-----+-----+-----+
19/07/2021 17:06:08[INFO] Supervisores para agregar   
+-----+---------+---------------+------------------------------------------+
|  ID | Marcado |  T - Entrada  |                T - Salida                |
+-----+---------+---------------+------------------------------------------+
| P43 |    1    |    ['T15']    | ['T1', 'T6', 'T10', 'T14', 'T18', 'T21'] |
| P43 |    1    |     ['T3']    | ['T1', 'T6', 'T10', 'T14', 'T18', 'T21'] |
| P43 |    1    | ['T3', 'T15'] | ['T1', 'T6', 'T10', 'T14', 'T18', 'T21'] |
| P43 |    1    |    ['T15']    | ['T1', 'T6', 'T10', 'T14', 'T18', 'T21'] |
| P43 |    1    |     ['T3']    | ['T1', 'T6', 'T10', 'T14', 'T18', 'T21'] |
| P43 |    1    | ['T3', 'T15'] | ['T1', 'T6', 'T10', 'T14', 'T18', 'T21'] |
| P43 |    1    |    ['T15']    | ['T1', 'T6', 'T10', 'T14', 'T18', 'T21'] |
| P43 |    1    | ['T3', 'T15'] | ['T1', 'T6', 'T10', 'T14', 'T18', 'T21'] |
+-----+---------+---------------+------------------------------------------+
19/07/2021 17:06:08[INFO] Supervisores agregados   
+-----+---------+----------------------------+------------------------------------------+
| Nro | Marcado |        T - Entrada         |                T - Salida                |
+-----+---------+----------------------------+------------------------------------------+
|  1  |    3    | ['T3', 'T8', 'T15', 'T22'] | ['T1', 'T6', 'T10', 'T14', 'T18', 'T21'] |
|  2  |    2    |    ['T3', 'T15', 'T22']    | ['T1', 'T6', 'T10', 'T14', 'T18', 'T21'] |
+-----+---------+----------------------------+------------------------------------------+
19/07/2021 17:06:08[INFO] Ejecutando accion...   
19/07/2021 17:06:08[INFO] Ejecutando accion...   
19/07/2021 17:06:08[ACTION] Agrego supervisor aleatorio Numero: 2  

--------------------------------------------------------------------------   
19/07/2021 17:06:08[INFO] Ejecutando petrinator para conocer estado de la red...   
--------------------------------------------------------------------------
   

--------------------------------------------------------------------------
   
19/07/2021 17:09:16[INFO] Calculando recompensa..   
19/07/2021 17:09:16[REWARD] El sifon se controlo correctamente, recompensa -1   

--------------------------------------------------------------------------
   
19/07/2021 17:09:16[STATE] Cambie al estado 1: Hay mas sifones vacios en deadlock   
+-----------------------------------------------------+--------------------+------------------------+
|                   Estados/Acciones                  | Agregar supervisor | Agregar o quitar arcos |
+-----------------------------------------------------+--------------------+------------------------+
|                        Start                        |        -1.0        |          0.0           |
|        Más sifónes vacíos en estado deadlock        |        -1.0        |          -1.0          |
|       Menos sifónes vacíos en estado deadlock       |        0.0         |          -1.0          |
| Igual cantidad de sifónes vacíos en estado deadlock |        -1.0        |          0.0           |
|                         End                         |        0.0         |          0.0           |
+-----------------------------------------------------+--------------------+------------------------+
+----+------+---------------------------------------------------------------------+
| ID | Nro  |                                Plazas                               |
+----+------+---------------------------------------------------------------------+
| 20 |  24  |                      ['P1', 'P2', 'P14', 'P43']                     |
| 21 |  27  |                ['P1', 'P2', 'P6', 'P7', 'P14', 'P43']               |
| 22 |  28  |            ['P1', 'P2', 'P6', 'P7', 'P14', 'P20', 'P43']            |
| 23 |  30  |            ['P1', 'P2', 'P6', 'P7', 'P10', 'P14', 'P43']            |
| 24 |  33  |             ['P1', 'P2', 'P6', 'P7', 'P8', 'P14', 'P43']            |
| 25 |  35  |         ['P1', 'P2', 'P6', 'P7', 'P8', 'P14', 'P20', 'P43']         |
| 26 |  38  |         ['P1', 'P2', 'P6', 'P7', 'P8', 'P10', 'P14', 'P43']         |
| 27 |  41  |                  ['P1', 'P2', 'P14', 'P15', 'P43']                  |
| 28 |  43  |            ['P1', 'P2', 'P6', 'P7', 'P14', 'P15', 'P43']            |
| 29 |  44  |         ['P1', 'P2', 'P6', 'P7', 'P14', 'P15', 'P20', 'P43']        |
| 30 |  45  |         ['P1', 'P2', 'P6', 'P7', 'P10', 'P14', 'P15', 'P43']        |
| 31 |  48  |         ['P1', 'P2', 'P6', 'P7', 'P8', 'P14', 'P15', 'P43']         |
| 32 |  50  |      ['P1', 'P2', 'P6', 'P7', 'P8', 'P14', 'P15', 'P20', 'P43']     |
| 33 |  53  |      ['P1', 'P2', 'P6', 'P7', 'P8', 'P10', 'P14', 'P15', 'P43']     |
| 34 | 1711 |               ['P1', 'P2', 'P10', 'P11', 'P14', 'P43']              |
| 35 | 1712 |           ['P1', 'P2', 'P10', 'P11', 'P14', 'P15', 'P43']           |
| 36 | 1714 |            ['P1', 'P2', 'P3', 'P10', 'P11', 'P14', 'P43']           |
| 37 | 1715 |        ['P1', 'P2', 'P3', 'P10', 'P11', 'P14', 'P23', 'P43']        |
| 38 | 1717 |        ['P1', 'P2', 'P3', 'P10', 'P11', 'P14', 'P15', 'P43']        |
| 39 | 1719 |     ['P1', 'P2', 'P3', 'P10', 'P11', 'P14', 'P15', 'P23', 'P43']    |
| 40 | 1821 |           ['P1', 'P2', 'P10', 'P11', 'P12', 'P14', 'P43']           |
| 41 | 1822 |        ['P1', 'P2', 'P10', 'P11', 'P12', 'P14', 'P15', 'P43']       |
| 42 | 1824 |        ['P1', 'P2', 'P3', 'P10', 'P11', 'P12', 'P14', 'P43']        |
| 43 | 1825 |     ['P1', 'P2', 'P3', 'P10', 'P11', 'P12', 'P14', 'P23', 'P43']    |
| 44 | 1827 |     ['P1', 'P2', 'P3', 'P10', 'P11', 'P12', 'P14', 'P15', 'P43']    |
| 45 | 1829 | ['P1', 'P2', 'P3', 'P10', 'P11', 'P12', 'P14', 'P15', 'P23', 'P43'] |
| 46 | 4786 |               ['P1', 'P2', 'P14', 'P15', 'P16', 'P43']              |
| 47 | 4790 |            ['P1', 'P2', 'P3', 'P14', 'P15', 'P16', 'P43']           |
| 48 | 4794 |        ['P1', 'P2', 'P3', 'P14', 'P15', 'P16', 'P23', 'P43']        |
+----+------+---------------------------------------------------------------------+
+----+----+----+----+----+----+----+----+----+----+-----+-----+-----+-----+-----+-----+-----+-----+-----+-----+-----+-----+-----+
| T0 | T1 | T2 | T3 | T4 | T5 | T6 | T7 | T8 | T9 | T10 | T11 | T12 | T13 | T14 | T15 | T16 | T17 | T18 | T19 | T20 | T21 | T22 |
+----+----+----+----+----+----+----+----+----+----+-----+-----+-----+-----+-----+-----+-----+-----+-----+-----+-----+-----+-----+
| 1  | 1  | 1  | 1  | 1  | 0  | 0  | 0  | 0  | 0  |  0  |  0  |  0  |  0  |  0  |  0  |  0  |  0  |  0  |  0  |  0  |  0  |  0  |
| 0  | 0  | 0  | 0  | 0  | 0  | 0  | 0  | 0  | 0  |  0  |  0  |  0  |  1  |  1  |  1  |  1  |  0  |  0  |  0  |  0  |  0  |  0  |
+----+----+----+----+----+----+----+----+----+----+-----+-----+-----+-----+-----+-----+-----+-----+-----+-----+-----+-----+-----+
19/07/2021 17:09:16[INFO] Supervisores para agregar   
+----+---------+-------------+------------+
| ID | Marcado | T - Entrada | T - Salida |
+----+---------+-------------+------------+
+----+---------+-------------+------------+
19/07/2021 17:09:16[INFO] Supervisores agregados   
+-----+---------+----------------------------+------------------------------------------+
| Nro | Marcado |        T - Entrada         |                T - Salida                |
+-----+---------+----------------------------+------------------------------------------+
|  1  |    3    | ['T3', 'T8', 'T15', 'T22'] | ['T1', 'T6', 'T10', 'T14', 'T18', 'T21'] |
|  2  |    2    |    ['T3', 'T15', 'T22']    | ['T1', 'T6', 'T10', 'T14', 'T18', 'T21'] |
|  3  |    1    |       ['T3', 'T15']        | ['T1', 'T6', 'T10', 'T14', 'T18', 'T21'] |
+-----+---------+----------------------------+------------------------------------------+
19/07/2021 17:09:16[INFO] Ejecutando accion...   
19/07/2021 17:09:16[ACTION] Agregar o quitar arcos   
19/07/2021 17:09:16[ACTION] Eliminar arco desde P42 hasta T6   
19/07/2021 17:09:16[INFO] Se elimino el arco desde P42 hasta T6   
19/07/2021 17:09:16[ACTION] Eliminar arco desde P43 hasta T6   
19/07/2021 17:09:16[INFO] Se elimino el arco desde P43 hasta T6   
19/07/2021 17:09:16[ACTION] Eliminar arco desde P42 hasta T10   
19/07/2021 17:09:16[INFO] Se elimino el arco desde P42 hasta T10   
19/07/2021 17:09:16[ACTION] Eliminar arco desde P43 hasta T10   
19/07/2021 17:09:16[INFO] Se elimino el arco desde P43 hasta T10   
19/07/2021 17:09:16[ACTION] Eliminar arco desde P42 hasta T18   
19/07/2021 17:09:16[INFO] Se elimino el arco desde P42 hasta T18   
19/07/2021 17:09:16[ACTION] Eliminar arco desde P43 hasta T18   
19/07/2021 17:09:16[INFO] Se elimino el arco desde P43 hasta T18   
19/07/2021 17:09:16[ACTION] Eliminar arco desde P43 hasta T21   
19/07/2021 17:09:16[INFO] Se elimino el arco desde P43 hasta T21   

--------------------------------------------------------------------------   
19/07/2021 17:09:16[INFO] Ejecutando petrinator para conocer estado de la red...   
--------------------------------------------------------------------------
   

--------------------------------------------------------------------------
   
19/07/2021 17:11:18[INFO] Calculando recompensa..   
19/07/2021 17:11:18[REWARD] No hay mas deadlock, recompensa 100   

--------------------------------------------------------------------------
   
19/07/2021 17:11:18[STATE] Se llego al estado deseado, NO HAY MAS DEADLOCK   

--------------------------------------------------------------------------
   
19/07/2021 17:11:18[STATE] Cambie al estado 2: Hay menos sifones vacios en deadlock   
+-----------------------------------------------------+--------------------+------------------------+
|                   Estados/Acciones                  | Agregar supervisor | Agregar o quitar arcos |
+-----------------------------------------------------+--------------------+------------------------+
|                        Start                        |        -1.0        |          0.0           |
|        Más sifónes vacíos en estado deadlock        |        -1.0        |         100.0          |
|       Menos sifónes vacíos en estado deadlock       |        0.0         |          -1.0          |
| Igual cantidad de sifónes vacíos en estado deadlock |        -1.0        |          0.0           |
|                         End                         |        0.0         |          0.0           |
+-----------------------------------------------------+--------------------+------------------------+
