 Minimal siphons 
4 7
3 5 10 15 20 26 27
19 22
2 5
1 10 15 27
15 17
9 10 11 12 13
1 9 28
1 6
1 2 9 28
1 2 6
1 29 2 9 14 23
14 15 16 18 19 20 21 23 24 25
3 9 14 20 26
1 2 3 6
1 2 3 9 28
1 29 2 3 9 14 23
1 29 2 3 9 14 15 23
1 29 2 3 9 15 17 23
1 2 3 9 15 17 28
1 2 3 9 10 28
1 2 3 6 9 10 11 12 13
1 29 2 3 9 10 14 23
1 2 3 10 15 27
1 29 2 3 9 10 15 17 23
1 2 3 9 10 15 17 28
1 2 3 6 9 10 11 12 13 15 17
1 29 2 3 9 10 14 15 23
2 3 5
2 3 5 9 28
29 2 3 5 9 14 23
29 2 3 5 9 14 15 23
29 2 3 5 9 15 17 23
2 3 5 9 15 17 28
2 3 5 9 10 28
2 3 5 9 10 11 12 13
29 2 3 5 9 10 14 23
2 3 5 10 15 27
29 2 3 5 9 10 15 17 23
2 3 5 9 10 15 17 28
2 3 5 9 10 11 12 13 15 17
29 2 3 5 9 10 14 15 23
1 2 3 4 8
1 2 3 4 6
1 2 3 4 9 28
1 29 2 3 4 9 14 23
1 29 2 3 4 9 14 15 23
1 29 2 3 4 9 15 17 23
1 2 3 4 9 15 17 28
1 2 3 4 9 10 28
1 2 3 4 8 9 10 11 12 13
1 2 3 4 6 9 10 11 12 13
1 29 2 3 4 9 10 14 23
1 2 3 4 10 15 27
1 29 2 3 4 9 10 15 17 23
1 2 3 4 9 10 15 17 28
1 2 3 4 8 9 10 11 12 13 15 17
1 2 3 4 6 9 10 11 12 13 15 17
1 29 2 3 4 9 10 14 15 23
2 3 4 5
2 3 4 5 9 28
29 2 3 4 5 9 14 23
29 2 3 4 5 9 14 15 23
29 2 3 4 5 9 15 17 23
2 3 4 5 9 15 17 28
2 3 4 5 9 10 28
2 3 4 5 9 10 11 12 13
29 2 3 4 5 9 10 14 23
2 3 4 5 10 15 27
29 2 3 4 5 9 10 15 17 23
2 3 4 5 9 10 15 17 28
2 3 4 5 9 10 11 12 13 15 17
29 2 3 4 5 9 10 14 15 23
 Minimal traps 
19 22
1 9 28
2 5
3 9 14 20 26
15 17
9 10 11 12 13
4 7
3 4 7
3 4 7 9 10 11 12 13
2 3 4 7
2 3 4 7 9 10 11 12 13
1 10 15 27
1 6
1 2 5
1 2 3 4 8
1 2 3 4 7
1 29 9 14 23 27
1 5 9 14 20 26 27
1 29 2 9 14 23
14 15 16 18 19 20 21 23 24 25
1 29 9 14 19 20 21 23 24 25 27
1 29 6 9 14 19 20 21 23 24 25
1 29 3 4 8 9 14 15 19 20 21 23 24 25 27
1 29 5 9 14 15 19 20 21 23 24 25 27
 Analysis time: 0.768s