19/07/2021 15:42:52[DEBUG] pflow_file:  ../analysis/analisis_11_18072021/gen_nets/20210719-151113_8/net.pflow  
19/07/2021 15:42:52[DEBUG] output_folder:  ../analysis/analisis_11_18072021/gen_nets/20210719-151113_8/  
19/07/2021 15:42:52[DEBUG] html_path:  ../analysis/analisis_11_18072021/gen_nets/20210719-151113_8/  
19/07/2021 15:42:52[DEBUG] txt_path:  ../analysis/analisis_11_18072021/gen_nets/20210719-151113_8/txt_info  

--------------------------------------------------------------------------   
19/07/2021 15:42:52[INFO] Ejecutando petrinator para conocer estado de la red...   
--------------------------------------------------------------------------
   
+----+-----+--------------------------------------------------------+
| ID | Nro |                         Plazas                         |
+----+-----+--------------------------------------------------------+
| 0  | 336 | ['P2', 'P7', 'P13', 'P19', 'P27', 'P34', 'P40', 'P46'] |
+----+-----+--------------------------------------------------------+
+----+----+----+----+----+----+----+----+----+----+-----+-----+-----+-----+-----+-----+-----+-----+-----+-----+-----+-----+-----+-----+-----+-----+-----+-----+
| T0 | T1 | T2 | T3 | T4 | T5 | T6 | T7 | T8 | T9 | T10 | T11 | T12 | T13 | T14 | T15 | T16 | T17 | T18 | T19 | T20 | T21 | T22 | T23 | T24 | T25 | T26 | T27 |
+----+----+----+----+----+----+----+----+----+----+-----+-----+-----+-----+-----+-----+-----+-----+-----+-----+-----+-----+-----+-----+-----+-----+-----+-----+
| 1  | 1  | 1  | 1  | 0  | 0  | 0  | 0  | 0  | 0  |  0  |  0  |  0  |  0  |  0  |  0  |  0  |  0  |  0  |  0  |  0  |  0  |  0  |  0  |  0  |  0  |  0  |  0  |
| 0  | 0  | 0  | 0  | 1  | 1  | 1  | 1  | 1  | 0  |  0  |  0  |  0  |  0  |  0  |  0  |  0  |  0  |  0  |  0  |  0  |  0  |  0  |  0  |  0  |  0  |  0  |  0  |
| 0  | 0  | 0  | 0  | 0  | 0  | 0  | 0  | 0  | 1  |  1  |  1  |  1  |  1  |  0  |  0  |  0  |  0  |  0  |  0  |  0  |  0  |  0  |  0  |  0  |  0  |  0  |  0  |
| 0  | 0  | 0  | 0  | 0  | 0  | 0  | 0  | 0  | 0  |  0  |  0  |  0  |  0  |  1  |  1  |  1  |  1  |  1  |  0  |  0  |  0  |  0  |  0  |  0  |  0  |  0  |  0  |
| 0  | 0  | 0  | 0  | 0  | 0  | 0  | 0  | 0  | 0  |  0  |  0  |  0  |  0  |  0  |  0  |  0  |  0  |  0  |  1  |  1  |  1  |  1  |  0  |  0  |  0  |  0  |  0  |
| 0  | 0  | 0  | 0  | 0  | 0  | 0  | 0  | 0  | 0  |  0  |  0  |  0  |  0  |  0  |  0  |  0  |  0  |  0  |  0  |  0  |  0  |  0  |  1  |  1  |  1  |  1  |  1  |
+----+----+----+----+----+----+----+----+----+----+-----+-----+-----+-----+-----+-----+-----+-----+-----+-----+-----+-----+-----+-----+-----+-----+-----+-----+
19/07/2021 15:46:35[INFO] Supervisores para agregar   
+-----+---------+---------------+------------------------------------------+
|  ID | Marcado |  T - Entrada  |                T - Salida                |
+-----+---------+---------------+------------------------------------------+
| P47 |    1    | ['T2', 'T26'] | ['T1', 'T5', 'T10', 'T15', 'T20', 'T24'] |
+-----+---------+---------------+------------------------------------------+
19/07/2021 15:46:35[INFO] Supervisores agregados   
+-----+---------+-------------+------------+
| Nro | Marcado | T - Entrada | T - Salida |
+-----+---------+-------------+------------+
+-----+---------+-------------+------------+
19/07/2021 15:46:35[INFO] Ejecutando accion...   
19/07/2021 15:46:35[INFO] Ejecutando accion...   
19/07/2021 15:46:35[ACTION] Agrego supervisor Numero: 0   

--------------------------------------------------------------------------   
19/07/2021 15:46:35[INFO] Ejecutando petrinator para conocer estado de la red...   
--------------------------------------------------------------------------
   
19/07/2021 15:51:35[ERROR] Se alcanzo el limite de 300 segundos para la ejecucion de petrinator, cerrando analisis 
  
