S0
T1 S1
T13 S16
T23 S1165
S1
T2 S2
T13 S17
T23 S793
S2
T1 S3
T13 S18
T23 S794
T3 S1207
S3
T3 S4
T13 S19
T23 S795
S4
T2 S5
T4 S10
T13 S20
T23 S786
S5
T4 S6
T13 S21
T23 S787
S6
T5 S2
T3 S7
T13 S12
T23 S788
S7
T4 S8
T13 S13
T23 S789
T5 S1207
S8
T5 S9
T13 S14
T23 S790
S9
T5 S0
T1 S10
T13 S15
T23 S791
S10
T5 S1
T2 S6
T13 S11
T23 S792
S11
T2 S12
T5 S17
T9 S27
T23 S594
T6 S1435
S12
T3 S13
T5 S18
T9 S23
T23 S590
T6 S1390
S13
T4 S14
T9 S24
T23 S591
T5 S753
S14
T5 S15
T9 S25
T23 S592
T6 S1879
S15
T1 S11
T5 S16
T9 S26
T23 S593
T6 S1720
S16
T1 S17
T23 S1166
T6 S1466
T9 S1925
S17
T2 S18
T9 S28
T23 S595
T6 S1380
S18
T1 S19
T9 S29
T23 S596
T3 S753
T6 S758
S19
T3 S20
T9 S30
T23 S597
T6 S748
S20
T4 S11
T2 S21
T9 S31
T23 S588
S21
T4 S12
T9 S22
T23 S589
S22
T4 S23
T10 S33
T23 S285
S23
T3 S24
T5 S29
T10 S34
T23 S286
S24
T4 S25
T10 S35
T5 S282
T23 S287
S25
T5 S26
T10 S36
T23 S288
S26
T1 S27
T10 S37
T23 S289
T5 S1925
S27
T2 S23
T5 S28
T10 S38
T23 S290
S28
T2 S29
T10 S39
T23 S291
S29
T1 S30
T10 S40
T3 S282
T23 S292
S30
T3 S31
T10 S41
T23 S293
S31
T2 S22
T4 S27
T10 S32
T23 S284
S32
T2 S33
T4 S38
T23 S43
S33
T4 S34
T23 S44
S34
T3 S35
T5 S40
T23 S45
S35
T4 S36
T23 S46
T5 S238
S36
T5 S37
T23 S47
T11 S1918
S37
T1 S38
T23 S48
T11 S1908
T5 S1926
S38
T2 S34
T5 S39
T23 S49
T11 S1897
S39
T2 S40
T23 S50
T11 S1194
S40
T1 S41
T23 S51
T3 S238
S41
T3 S32
T23 S42
S42
T3 S43
T23 S63
T15 S70
S43
T2 S44
T4 S49
T23 S54
S44
T4 S45
T23 S55
S45
T3 S46
T5 S51
T23 S56
T15 S994
T20 S1931
S46
T4 S47
T5 S52
T23 S57
S47
T5 S48
T23 S58
T15 S1741
T20 S1850
T11 S1916
S48
T1 S49
T23 S59
T15 S1581
T20 S1691
T11 S1906
T5 S1922
S49
T2 S45
T5 S50
T23 S60
T15 S1018
T11 S1895
S50
T2 S51
T23 S61
T15 S801
T11 S1187
S51
T1 S42
T3 S52
T23 S62
T15 S72
T20 S494
S52
T1 S43
T4 S48
T23 S53
S53
T1 S54
T4 S59
S54
T2 S55
T4 S60
S55
T4 S56
S56
T3 S57
T5 S62
T15 S995
T20 S1932
S57
T5 S53
T4 S58
S58
T5 S59
T15 S1823
T20 S1851
T11 S1917
S59
T1 S60
T15 S1663
T20 S1692
T11 S1907
T5 S1923
S60
T2 S56
T5 S61
T15 S1025
T11 S1896
S61
T2 S62
T15 S312
T11 S1188
S62
T3 S53
T1 S63
T15 S65
T20 S73
S63
T3 S54
T15 S64
S64
S65
T1 S64
T20 S66
S66
T21 S67
S67
T1 S68
T22 S71
S68
T22 S69
S69
T24 S70
S70
T23 S64
S71
T1 S69
T24 S72
S72
T23 S65
T1 S70
S73
T15 S66
T21 S74
S74
T15 S67
T1 S75
T22 S150
T3 S549
T20 S2034
S75
T15 S68
T3 S76
T22 S151
S76
T2 S77
T4 S82
T22 S142
S77
T4 S78
T22 S143
S78
T5 S74
T3 S79
T22 S144
T15 S997
T20 S2036
S79
T4 S80
T22 S145
T5 S549
S80
T5 S81
T22 S146
T15 S1831
T20 S1868
T11 S1920
S81
T1 S82
T22 S147
T5 S1287
T15 S1671
T20 S1709
T11 S1910
S82
T2 S78
T5 S83
T22 S148
T15 S1411
T11 S1899
S83
T2 S74
T11 S84
T22 S149
T15 S1237
S84
T12 S85
T22 S1186
T15 S1238
S85
T2 S86
T14 S101
T22 S557
T15 S1239
S86
T1 S87
T14 S102
T15 S336
T22 S558
T3 S1890
T20 S2042
S87
T3 S88
T14 S103
T15 S337
T22 S559
S88
T2 S89
T4 S94
T14 S104
T22 S560
S89
T4 S90
T14 S105
T22 S561
S90
T5 S86
T3 S91
T14 S96
T22 S562
T15 S1013
T20 S2041
S91
T4 S92
T14 S97
T22 S563
T5 S1890
S92
T5 S93
T14 S98
T22 S564
T15 S1833
T20 S1864
S93
T1 S94
T14 S99
T22 S565
T5 S1289
T15 S1673
T20 S1705
S94
T5 S85
T2 S90
T14 S95
T22 S566
T15 S1407
S95
T2 S96
T5 S101
T13 S111
T22 S567
T15 S1408
S96
T3 S97
T5 S102
T13 S107
T22 S568
T15 S1009
T20 S2040
S97
T4 S98
T13 S108
T22 S569
T5 S1885
S98
T5 S99
T13 S109
T22 S570
T15 S1834
T20 S1865
S99
T1 S95
T5 S100
T13 S110
T22 S571
T15 S1674
T20 S1706
S100
T1 S101
T22 S572
T15 S1262
T20 S1291
T13 S1485
S101
T2 S102
T13 S112
T22 S573
T15 S1240
S102
T1 S103
T13 S113
T15 S329
T22 S574
T3 S1885
T20 S2039
S103
T3 S104
T13 S114
T15 S330
T22 S575
S104
T4 S95
T2 S105
T13 S115
T22 S576
S105
T4 S96
T13 S106
T22 S577
S106
T4 S107
T9 S117
T22 S578
S107
T3 S108
T5 S113
T9 S118
T22 S579
T15 S1005
T6 S1392
T20 S2038
S108
T4 S109
T9 S119
T22 S580
T5 S1361
S109
T5 S110
T9 S120
T22 S581
T15 S1835
T20 S1866
T6 S1881
S110
T1 S111
T9 S121
T22 S582
T5 S1485
T15 S1675
T20 S1707
T6 S1722
S111
T2 S107
T5 S112
T9 S122
T22 S583
T15 S1409
T6 S1437
S112
T2 S113
T9 S123
T22 S584
T15 S1241
T6 S1381
S113
T1 S114
T9 S124
T15 S322
T22 S585
T3 S1361
T6 S1365
T20 S2037
S114
T3 S115
T9 S125
T15 S323
T22 S586
T6 S1357
S115
T2 S106
T4 S111
T9 S116
T22 S587
S116
T10 S76
T2 S117
T4 S122
T22 S131
S117
T10 S77
T4 S118
T22 S132
S118
T10 S78
T3 S119
T5 S124
T22 S133
T15 S1001
T20 S2035
S119
T10 S79
T4 S120
T22 S134
T5 S550
S120
T10 S80
T5 S121
T22 S135
T15 S1836
T20 S1867
S121
T10 S81
T1 S122
T22 S136
T5 S1286
T15 S1676
T20 S1708
S122
T10 S82
T2 S118
T5 S123
T22 S137
T15 S1410
S123
T10 S83
T2 S124
T22 S138
T15 S1242
S124
T10 S74
T1 S125
T22 S139
T15 S307
T3 S550
T20 S2033
S125
T10 S75
T3 S116
T15 S126
T22 S130
S126
T10 S68
T22 S127
S127
T10 S69
T24 S128
S128
T10 S70
T23 S129
S129
T10 S64
S130
T15 S127
T3 S131
T10 S151
T24 S293
S131
T2 S132
T4 S137
T10 S142
T24 S284
S132
T4 S133
T10 S143
T24 S285
S133
T3 S134
T5 S139
T10 S144
T24 S286
T15 S1002
T20 S1958
S134
T4 S135
T5 S140
T10 S145
T24 S287
S135
T5 S136
T10 S146
T24 S288
T15 S1733
T20 S1848
S136
T1 S137
T10 S147
T24 S289
T5 S1271
T15 S1573
T20 S1689
S137
T2 S133
T5 S138
T10 S148
T24 S290
T15 S1070
S138
T2 S139
T10 S149
T24 S291
T15 S925
S139
T1 S130
T3 S140
T10 S150
T24 S292
T15 S308
T20 S492
S140
T1 S131
T4 S136
T10 S141
T24 S283
S141
T24 S52
T1 S142
T4 S147
S142
T24 S43
T2 S143
T4 S148
S143
T24 S44
T4 S144
S144
T24 S45
T3 S145
T5 S150
T15 S998
T20 S1957
S145
T24 S46
T5 S141
T4 S146
S146
T24 S47
T5 S147
T15 S1734
T20 S1849
T11 S1915
S147
T24 S48
T1 S148
T5 S1210
T15 S1574
T20 S1690
T11 S1905
S148
T24 S49
T2 S144
T5 S149
T15 S1071
T11 S1894
S149
T24 S50
T2 S150
T15 S926
T11 S1186
S150
T24 S51
T15 S71
T3 S141
T1 S151
T20 S152
S151
T24 S42
T15 S69
T3 S142
S152
T21 S153
T24 S494
S153
T1 S154
T22 S225
T24 S495
T3 S1351
S154
T3 S155
T22 S226
T24 S496
S155
T2 S156
T4 S161
T22 S217
T24 S497
S156
T4 S157
T22 S218
T24 S498
S157
T5 S153
T3 S158
T22 S219
T24 S499
S158
T4 S159
T22 S220
T24 S500
T5 S1351
S159
T5 S160
T22 S221
T24 S501
T11 S1912
S160
T1 S161
T22 S222
T24 S502
T5 S1215
T11 S1902
S161
T2 S157
T5 S162
T22 S223
T24 S503
T11 S1891
S162
T2 S153
T11 S163
T22 S224
T24 S504
S163
T12 S164
T24 S505
T22 S1220
S164
T2 S165
T14 S180
T24 S506
T22 S761
S165
T1 S166
T14 S181
T24 S507
T22 S762
T3 S1887
S166
T3 S167
T14 S182
T24 S508
T22 S763
S167
T2 S168
T4 S173
T14 S183
T24 S509
T22 S764
S168
T4 S169
T14 S184
T24 S510
T22 S765
S169
T5 S165
T3 S170
T14 S175
T24 S511
T22 S766
S170
T4 S171
T14 S176
T24 S512
T22 S767
T5 S1887
S171
T5 S172
T14 S177
T24 S513
T22 S768
S172
T1 S173
T14 S178
T24 S514
T22 S769
T5 S1217
S173
T5 S164
T2 S169
T14 S174
T24 S515
T22 S770
S174
T2 S175
T5 S180
T13 S190
T24 S516
T22 S771
S175
T3 S176
T5 S181
T13 S186
T24 S517
T22 S772
S176
T4 S177
T13 S187
T24 S518
T22 S773
T5 S1883
S177
T5 S178
T13 S188
T24 S519
T22 S774
S178
T1 S174
T5 S179
T13 S189
T24 S520
T22 S775
S179
T1 S180
T24 S521
T22 S776
T13 S1472
S180
T2 S181
T13 S191
T24 S522
T22 S777
S181
T1 S182
T13 S192
T24 S523
T22 S778
T3 S1883
S182
T3 S183
T13 S193
T24 S524
T22 S779
S183
T4 S174
T2 S184
T13 S194
T24 S525
T22 S780
S184
T4 S175
T13 S185
T24 S526
T22 S781
S185
T4 S186
T9 S196
T24 S527
T22 S736
S186
T3 S187
T5 S192
T9 S197
T24 S528
T22 S737
T6 S1384
S187
T4 S188
T9 S198
T24 S529
T22 S738
T5 S1359
S188
T5 S189
T9 S199
T24 S530
T22 S739
T6 S1873
S189
T1 S190
T9 S200
T24 S531
T22 S740
T5 S1472
T6 S1714
S190
T2 S186
T5 S191
T9 S201
T24 S532
T22 S741
T6 S1429
S191
T2 S192
T9 S202
T24 S533
T22 S742
T6 S1376
S192
T1 S193
T9 S203
T24 S534
T22 S743
T3 S1359
T6 S1363
S193
T3 S194
T9 S204
T24 S535
T22 S744
T6 S1355
S194
T2 S185
T4 S190
T9 S195
T24 S536
T22 S735
S195
T10 S155
T2 S196
T4 S201
T22 S206
T24 S537
S196
T10 S156
T4 S197
T22 S207
T24 S538
S197
T10 S157
T3 S198
T5 S203
T22 S208
T24 S539
S198
T10 S158
T4 S199
T22 S209
T24 S540
T5 S1352
S199
T10 S159
T5 S200
T22 S210
T24 S541
S200
T10 S160
T1 S201
T22 S211
T24 S542
T5 S1268
S201
T10 S161
T2 S197
T5 S202
T22 S212
T24 S543
S202
T10 S162
T2 S203
T22 S213
T24 S544
S203
T10 S153
T1 S204
T22 S214
T24 S545
T3 S1352
S204
T10 S154
T3 S195
T22 S205
T24 S546
S205
T3 S206
T10 S226
T24 S280
S206
T2 S207
T4 S212
T10 S217
T24 S271
S207
T4 S208
T10 S218
T24 S272
S208
T3 S209
T5 S214
T10 S219
T24 S273
S209
T4 S210
T5 S215
T10 S220
T24 S274
S210
T5 S211
T10 S221
T24 S275
S211
T1 S212
T10 S222
T24 S276
T5 S1269
S212
T2 S208
T5 S213
T10 S223
T24 S277
S213
T2 S214
T10 S224
T24 S278
S214
T1 S205
T3 S215
T10 S225
T24 S279
S215
T1 S206
T4 S211
T10 S216
T24 S281
S216
T1 S217
T4 S222
T24 S237
S217
T2 S218
T4 S223
T24 S228
S218
T4 S219
T24 S229
S219
T3 S220
T5 S225
T24 S230
S220
T5 S216
T4 S221
T24 S231
S221
T5 S222
T24 S232
T11 S1913
S222
T1 S223
T24 S233
T5 S1221
T11 S1903
S223
T2 S219
T5 S224
T24 S234
T11 S1892
S224
T2 S225
T24 S235
T11 S1220
S225
T3 S216
T1 S226
T24 S236
S226
T3 S217
T24 S227
S227
T24 S41
T23 S151
T3 S228
S228
T24 S32
T23 S142
T2 S229
T4 S234
S229
T24 S33
T23 S143
T4 S230
S230
T24 S34
T23 S144
T3 S231
T5 S236
S231
T24 S35
T23 S145
T4 S232
T5 S237
S232
T24 S36
T23 S146
T5 S233
T11 S1914
S233
T24 S37
T23 S147
T1 S234
T5 S1209
T11 S1904
S234
T24 S38
T23 S148
T2 S230
T5 S235
T11 S1893
S235
T24 S39
T23 S149
T2 S236
T11 S239
S236
T24 S40
T23 S150
T1 S227
T3 S237
S237
T23 S141
T1 S228
T4 S233
T24 S238
S238
T1 S32
T4 S37
T23 S52
S239
T12 S240
T23 S1186
T24 S1194
S240
T2 S241
T14 S256
T23 S557
T24 S1195
S241
T1 S242
T14 S257
T23 S558
T3 S974
T24 S1196
S242
T3 S243
T14 S258
T23 S559
T24 S1197
S243
T2 S244
T4 S249
T14 S259
T23 S560
T24 S1198
S244
T4 S245
T14 S260
T23 S561
T24 S1199
S245
T5 S241
T3 S246
T14 S251
T23 S562
T24 S1200
S246
T4 S247
T14 S252
T23 S563
T5 S974
T24 S1201
S247
T5 S248
T14 S253
T23 S564
T24 S1202
S248
T1 S249
T14 S254
T5 S555
T23 S565
T24 S1203
S249
T5 S240
T2 S245
T14 S250
T23 S566
T24 S1204
S250
T24 S10
T2 S251
T5 S256
T13 S266
T23 S567
S251
T24 S6
T3 S252
T5 S257
T13 S262
T23 S568
S252
T24 S7
T4 S253
T13 S263
T23 S569
T5 S783
S253
T24 S8
T5 S254
T13 S264
T23 S570
S254
T24 S9
T1 S250
T5 S255
T13 S265
T23 S571
S255
T24 S0
T1 S256
T23 S572
T13 S1469
S256
T24 S1
T2 S257
T13 S267
T23 S573
S257
T24 S2
T1 S258
T13 S268
T23 S574
T3 S783
S258
T24 S3
T3 S259
T13 S269
T23 S575
S259
T24 S4
T4 S250
T2 S260
T13 S270
T23 S576
S260
T24 S5
T4 S251
T13 S261
T23 S577
S261
T24 S21
T4 S262
T9 S272
T23 S578
S262
T24 S12
T3 S263
T5 S268
T9 S273
T23 S579
T6 S1386
S263
T24 S13
T4 S264
T9 S274
T23 S580
T5 S750
S264
T24 S14
T5 S265
T9 S275
T23 S581
T6 S1875
S265
T24 S15
T1 S266
T9 S276
T23 S582
T5 S1469
T6 S1716
S266
T24 S11
T2 S262
T5 S267
T9 S277
T23 S583
T6 S1431
S267
T24 S17
T2 S268
T9 S278
T23 S584
T6 S1378
S268
T24 S18
T1 S269
T9 S279
T23 S585
T3 S750
T6 S755
S269
T24 S19
T3 S270
T9 S280
T23 S586
T6 S746
S270
T24 S20
T2 S261
T4 S266
T9 S271
T23 S587
S271
T24 S31
T23 S131
T10 S228
T2 S272
T4 S277
S272
T24 S22
T23 S132
T10 S229
T4 S273
S273
T24 S23
T23 S133
T10 S230
T3 S274
T5 S279
S274
T24 S24
T23 S134
T10 S231
T4 S275
T5 S281
S275
T24 S25
T23 S135
T10 S232
T5 S276
S276
T24 S26
T23 S136
T10 S233
T1 S277
T5 S1270
S277
T24 S27
T23 S137
T10 S234
T2 S273
T5 S278
S278
T24 S28
T23 S138
T10 S235
T2 S279
S279
T24 S29
T23 S139
T10 S236
T1 S280
T3 S281
S280
T24 S30
T23 S130
T10 S227
T3 S271
S281
T23 S140
T10 S237
T1 S271
T4 S276
T24 S282
S282
T4 S26
T1 S31
T10 S238
T23 S283
S283
T10 S52
T1 S284
T4 S289
T23 S304
S284
T10 S43
T2 S285
T4 S290
T23 S295
S285
T10 S44
T4 S286
T23 S296
S286
T10 S45
T3 S287
T5 S292
T23 S297
T15 S993
T20 S1930
S287
T10 S46
T5 S283
T4 S288
T23 S298
S288
T10 S47
T5 S289
T23 S299
T15 S1740
T20 S1852
S289
T10 S48
T1 S290
T23 S300
T15 S1580
T20 S1693
T5 S1921
S290
T10 S49
T2 S286
T5 S291
T23 S301
T15 S1017
S291
T10 S50
T2 S292
T23 S302
T15 S800
S292
T10 S51
T3 S283
T1 S293
T23 S303
T15 S309
T20 S493
S293
T10 S42
T15 S128
T3 S284
T23 S294
S294
T10 S63
T15 S129
T3 S295
S295
T10 S54
T2 S296
T4 S301
S296
T10 S55
T4 S297
S297
T10 S56
T3 S298
T5 S303
T15 S999
T20 S1933
S298
T10 S57
T4 S299
T5 S304
S299
T10 S58
T5 S300
T15 S1828
T20 S1853
S300
T10 S59
T1 S301
T15 S1668
T20 S1694
T5 S1924
S301
T10 S60
T2 S297
T5 S302
T15 S1024
S302
T10 S61
T2 S303
T15 S311
S303
T10 S62
T1 S294
T3 S304
T15 S305
T20 S310
S304
T10 S53
T1 S295
T4 S300
S305
T10 S65
T1 S129
T20 S306
S306
T10 S66
T21 S307
S307
T10 S67
T1 S126
T22 S308
S308
T10 S71
T1 S127
T24 S309
S309
T10 S72
T1 S128
T23 S305
S310
T10 S73
T21 S124
T15 S306
S311
T2 S305
T10 S312
T16 S346
S312
T2 S65
T11 S313
T16 S347
S313
T12 S314
S314
T2 S315
T14 S342
T16 S1161
S315
T1 S316
T14 S319
T20 S335
S316
T14 S317
S317
T13 S318
S318
T9 S129
S319
T1 S317
T13 S320
T20 S328
S320
T9 S305
T1 S318
T20 S321
S321
T9 S306
T21 S322
S322
T9 S307
T1 S323
T22 S326
S323
T9 S126
T22 S324
S324
T9 S127
T24 S325
S325
T9 S128
T23 S318
S326
T9 S308
T1 S324
T24 S327
S327
T9 S309
T23 S320
T1 S325
S328
T13 S321
T21 S329
S329
T13 S322
T1 S330
T22 S333
S330
T13 S323
T22 S331
S331
T13 S324
T24 S332
S332
T23 S317
T13 S325
S333
T13 S326
T1 S331
T24 S334
S334
T23 S319
T13 S327
T1 S332
S335
T14 S328
T21 S336
S336
T14 S329
T1 S337
T22 S340
S337
T14 S330
T22 S338
S338
T14 S331
T24 S339
S339
T23 S316
T14 S332
S340
T14 S333
T1 S338
T24 S341
S341
T23 S315
T14 S334
T1 S339
S342
T2 S319
T13 S343
T16 S1125
S343
T9 S311
T2 S320
T16 S344
S344
T6 S345
T9 S346
T17 S936
T15 S1096
S345
S346
T10 S347
T17 S823
T15 S1069
S347
T15 S348
T17 S815
S348
T17 S349
S349
T2 S350
T16 S354
T18 S839
S350
T1 S351
T18 S353
S351
T18 S352
S352
T19 S69
S353
T19 S71
T1 S352
S354
T18 S355
S355
T17 S356
T19 S837
S356
T2 S357
T18 S367
T19 S835
S357
T1 S358
T18 S368
T19 S833
S358
T18 S359
T19 S831
S359
T3 S360
T19 S380
S360
T2 S361
T4 S366
T19 S371
S361
T4 S362
T19 S372
S362
T3 S363
T5 S368
T19 S373
S363
T4 S364
T5 S369
T19 S374
S364
T5 S365
T19 S375
T11 S2032
S365
T1 S366
T19 S376
T5 S654
T11 S2031
S366
T2 S362
T5 S367
T19 S377
T11 S2030
S367
T2 S368
T19 S378
T11 S656
S368
T1 S359
T3 S369
T19 S379
S369
T1 S360
T4 S365
T19 S370
S370
T19 S216
T1 S371
T4 S376
T24 S391
S371
T19 S217
T2 S372
T4 S377
T24 S382
S372
T19 S218
T4 S373
T24 S383
S373
T19 S219
T3 S374
T5 S379
T24 S384
S374
T19 S220
T5 S370
T4 S375
T24 S385
S375
T19 S221
T5 S376
T24 S386
T11 S2027
S376
T19 S222
T1 S377
T24 S387
T5 S701
T11 S2023
S377
T19 S223
T2 S373
T5 S378
T24 S388
T11 S2019
S378
T19 S224
T2 S379
T24 S389
T11 S703
S379
T19 S225
T3 S370
T1 S380
T24 S390
S380
T19 S226
T3 S371
T24 S381
S381
T19 S227
T3 S382
T23 S402
S382
T19 S228
T2 S383
T4 S388
T23 S393
S383
T19 S229
T4 S384
T23 S394
S384
T19 S230
T3 S385
T5 S390
T23 S395
S385
T19 S231
T4 S386
T5 S391
T23 S396
S386
T19 S232
T5 S387
T23 S397
T11 S2028
S387
T19 S233
T1 S388
T23 S398
T5 S1182
T11 S2024
S388
T19 S234
T2 S384
T5 S389
T23 S399
T11 S2020
S389
T19 S235
T2 S390
T23 S400
T11 S1184
S390
T19 S236
T1 S381
T3 S391
T23 S401
S391
T19 S237
T1 S382
T4 S387
T23 S392
S392
T19 S141
T1 S393
T4 S398
S393
T19 S142
T2 S394
T4 S399
S394
T19 S143
T4 S395
S395
T19 S144
T3 S396
T5 S401
T15 S1030
T20 S1956
S396
T19 S145
T5 S392
T4 S397
S397
T19 S146
T5 S398
T15 S1751
T20 S1952
T11 S2029
S398
T19 S147
T1 S399
T5 S1278
T15 S1591
T20 S1948
T11 S2025
S399
T19 S148
T2 S395
T5 S400
T15 S1043
T11 S2021
S400
T19 S149
T2 S401
T15 S839
T11 S1185
S401
T19 S150
T15 S353
T3 S392
T1 S402
T20 S403
S402
T19 S151
T15 S352
T3 S393
S403
T19 S152
T21 S404
S404
T19 S153
T22 S379
T1 S405
T3 S2010
S405
T19 S154
T22 S380
T3 S406
S406
T19 S155
T22 S371
T2 S407
T4 S412
S407
T19 S156
T22 S372
T4 S408
S408
T19 S157
T22 S373
T5 S404
T3 S409
S409
T19 S158
T22 S374
T4 S410
T5 S2010
S410
T19 S159
T22 S375
T5 S411
T11 S2026
S411
T19 S160
T22 S376
T1 S412
T5 S1232
T11 S2022
S412
T19 S161
T22 S377
T2 S408
T5 S413
T11 S2018
S413
T19 S162
T22 S378
T2 S404
T11 S414
S414
T19 S163
T12 S415
T22 S703
S415
T19 S164
T2 S416
T14 S431
T22 S704
S416
T19 S165
T1 S417
T14 S432
T22 S705
T3 S2017
S417
T19 S166
T3 S418
T14 S433
T22 S706
S418
T19 S167
T2 S419
T4 S424
T14 S434
T22 S707
S419
T19 S168
T4 S420
T14 S435
T22 S708
S420
T19 S169
T5 S416
T3 S421
T14 S426
T22 S709
S421
T19 S170
T4 S422
T14 S427
T22 S710
T5 S2017
S422
T19 S171
T5 S423
T14 S428
T22 S711
S423
T19 S172
T1 S424
T14 S429
T22 S712
T5 S1234
S424
T19 S173
T5 S415
T2 S420
T14 S425
T22 S713
S425
T19 S174
T2 S426
T5 S431
T13 S441
T22 S714
S426
T19 S175
T3 S427
T5 S432
T13 S437
T22 S715
S427
T19 S176
T4 S428
T13 S438
T22 S716
T5 S2016
S428
T19 S177
T5 S429
T13 S439
T22 S717
S429
T19 S178
T1 S425
T5 S430
T13 S440
T22 S718
S430
T19 S179
T1 S431
T22 S719
T13 S1493
S431
T19 S180
T2 S432
T13 S442
T22 S720
S432
T19 S181
T1 S433
T13 S443
T22 S721
T3 S2016
S433
T19 S182
T3 S434
T13 S444
T22 S722
S434
T19 S183
T4 S425
T2 S435
T13 S445
T22 S723
S435
T19 S184
T4 S426
T13 S436
T22 S724
S436
T19 S185
T4 S437
T9 S447
T22 S725
S437
T19 S186
T3 S438
T5 S443
T9 S448
T22 S726
T6 S2013
S438
T19 S187
T4 S439
T9 S449
T22 S727
T5 S2011
S439
T19 S188
T5 S440
T9 S450
T22 S728
T6 S2015
S440
T19 S189
T1 S441
T9 S451
T22 S729
T5 S1493
T6 S2014
S441
T19 S190
T2 S437
T5 S442
T9 S452
T22 S730
T6 S2012
S442
T19 S191
T2 S443
T9 S453
T22 S731
T6 S1495
S443
T19 S192
T1 S444
T9 S454
T22 S732
T6 S1496
T3 S2011
S444
T19 S193
T3 S445
T9 S455
T22 S733
T6 S1497
S445
T19 S194
T2 S436
T4 S441
T9 S446
T22 S734
S446
T19 S195
T10 S406
T2 S447
T4 S452
T22 S457
S447
T19 S196
T10 S407
T4 S448
T22 S458
S448
T19 S197
T10 S408
T3 S449
T5 S454
T22 S459
S449
T19 S198
T10 S409
T4 S450
T22 S460
T5 S2009
S450
T19 S199
T10 S410
T5 S451
T22 S461
S451
T19 S200
T10 S411
T1 S452
T22 S462
T5 S1267
S452
T19 S201
T10 S412
T2 S448
T5 S453
T22 S463
S453
T19 S202
T10 S413
T2 S454
T22 S464
S454
T19 S203
T10 S404
T1 S455
T22 S465
T3 S2009
S455
T19 S204
T10 S405
T3 S446
T22 S456
S456
T19 S205
T10 S380
T3 S457
T24 S477
S457
T19 S206
T10 S371
T2 S458
T4 S463
T24 S468
S458
T19 S207
T10 S372
T4 S459
T24 S469
S459
T19 S208
T10 S373
T3 S460
T5 S465
T24 S470
S460
T19 S209
T10 S374
T4 S461
T5 S466
T24 S471
S461
T19 S210
T10 S375
T5 S462
T24 S472
S462
T19 S211
T10 S376
T1 S463
T24 S473
T5 S700
S463
T19 S212
T10 S377
T2 S459
T5 S464
T24 S474
S464
T19 S213
T10 S378
T2 S465
T24 S475
S465
T19 S214
T10 S379
T1 S456
T3 S466
T24 S476
S466
T19 S215
T10 S370
T1 S457
T4 S462
T24 S467
S467
T19 S281
T10 S391
T1 S468
T4 S473
T23 S488
S468
T19 S271
T10 S382
T2 S469
T4 S474
T23 S479
S469
T19 S272
T10 S383
T4 S470
T23 S480
S470
T19 S273
T10 S384
T3 S471
T5 S476
T23 S481
S471
T19 S274
T10 S385
T5 S467
T4 S472
T23 S482
S472
T19 S275
T10 S386
T5 S473
T23 S483
S473
T19 S276
T10 S387
T1 S474
T23 S484
T5 S1276
S474
T19 S277
T10 S388
T2 S470
T5 S475
T23 S485
S475
T19 S278
T10 S389
T2 S476
T23 S486
S476
T19 S279
T10 S390
T3 S467
T1 S477
T23 S487
S477
T19 S280
T10 S381
T3 S468
T23 S478
S478
T19 S130
T10 S402
T3 S479
T15 S490
S479
T19 S131
T10 S393
T2 S480
T4 S485
S480
T19 S132
T10 S394
T4 S481
S481
T19 S133
T10 S395
T3 S482
T5 S487
T15 S1049
T20 S1955
S482
T19 S134
T10 S396
T4 S483
T5 S488
S483
T19 S135
T10 S397
T5 S484
T15 S1756
T20 S1951
S484
T19 S136
T10 S398
T1 S485
T5 S1277
T15 S1596
T20 S1947
S485
T19 S137
T10 S399
T2 S481
T5 S486
T15 S1052
S486
T19 S138
T10 S400
T2 S487
T15 S838
S487
T19 S139
T10 S401
T1 S478
T3 S488
T15 S489
T20 S491
S488
T19 S140
T10 S392
T1 S479
T4 S484
S489
T19 S308
T10 S353
T1 S490
S490
T19 S127
T10 S352
S491
T10 S403
T21 S454
T19 S492
S492
T10 S152
T21 S203
T24 S493
S493
T23 S310
T10 S494
T21 S545
S494
T23 S73
T21 S495
S495
T23 S74
T22 S236
T1 S496
T3 S548
S496
T23 S75
T22 S227
T3 S497
S497
T23 S76
T22 S228
T2 S498
T4 S503
S498
T23 S77
T22 S229
T4 S499
S499
T23 S78
T22 S230
T5 S495
T3 S500
S500
T23 S79
T22 S231
T4 S501
T5 S548
S501
T23 S80
T22 S232
T5 S502
T11 S1919
S502
T23 S81
T22 S233
T1 S503
T5 S552
T11 S1909
S503
T23 S82
T22 S234
T2 S499
T5 S504
T11 S1898
S504
T23 S83
T22 S235
T2 S495
T11 S505
S505
T23 S84
T22 S239
T12 S506
S506
T23 S85
T22 S240
T2 S507
T14 S522
S507
T23 S86
T22 S241
T1 S508
T14 S523
T3 S1889
S508
T23 S87
T22 S242
T3 S509
T14 S524
S509
T23 S88
T22 S243
T2 S510
T4 S515
T14 S525
S510
T23 S89
T22 S244
T4 S511
T14 S526
S511
T23 S90
T22 S245
T5 S507
T3 S512
T14 S517
S512
T23 S91
T22 S246
T4 S513
T14 S518
T5 S1889
S513
T23 S92
T22 S247
T5 S514
T14 S519
S514
T23 S93
T22 S248
T1 S515
T14 S520
T5 S554
S515
T23 S94
T22 S249
T5 S506
T2 S511
T14 S516
S516
T23 S95
T22 S250
T2 S517
T5 S522
T13 S532
S517
T23 S96
T22 S251
T3 S518
T5 S523
T13 S528
S518
T23 S97
T22 S252
T4 S519
T13 S529
T5 S1884
S519
T23 S98
T22 S253
T5 S520
T13 S530
S520
T23 S99
T22 S254
T1 S516
T5 S521
T13 S531
S521
T23 S100
T22 S255
T1 S522
T13 S1484
S522
T23 S101
T22 S256
T2 S523
T13 S533
S523
T23 S102
T22 S257
T1 S524
T13 S534
T3 S1884
S524
T23 S103
T22 S258
T3 S525
T13 S535
S525
T23 S104
T22 S259
T4 S516
T2 S526
T13 S536
S526
T23 S105
T22 S260
T4 S517
T13 S527
S527
T23 S106
T22 S261
T4 S528
T9 S538
S528
T23 S107
T22 S262
T3 S529
T5 S534
T9 S539
T6 S1391
S529
T23 S108
T22 S263
T4 S530
T9 S540
T5 S1360
S530
T23 S109
T22 S264
T5 S531
T9 S541
T6 S1880
S531
T23 S110
T22 S265
T1 S532
T9 S542
T5 S1484
T6 S1721
S532
T23 S111
T22 S266
T2 S528
T5 S533
T9 S543
T6 S1436
S533
T23 S112
T22 S267
T2 S534
T9 S544
T6 S1377
S534
T23 S113
T22 S268
T1 S535
T9 S545
T3 S1360
T6 S1364
S535
T23 S114
T22 S269
T3 S536
T9 S546
T6 S1356
S536
T23 S115
T22 S270
T2 S527
T4 S532
T9 S537
S537
T23 S116
T22 S271
T10 S497
T2 S538
T4 S543
S538
T23 S117
T22 S272
T10 S498
T4 S539
S539
T23 S118
T22 S273
T10 S499
T3 S540
T5 S545
S540
T23 S119
T22 S274
T10 S500
T4 S541
T5 S547
S541
T23 S120
T22 S275
T10 S501
T5 S542
S542
T23 S121
T22 S276
T10 S502
T1 S543
T5 S551
S543
T23 S122
T22 S277
T10 S503
T2 S539
T5 S544
S544
T23 S123
T22 S278
T10 S504
T2 S545
S545
T23 S124
T22 S279
T10 S495
T1 S546
T3 S547
S546
T23 S125
T22 S280
T10 S496
T3 S537
S547
T22 S281
T1 S537
T4 S542
T10 S548
T23 S550
S548
T22 S237
T1 S497
T4 S502
T23 S549
S549
T1 S76
T4 S81
T22 S141
S550
T1 S116
T4 S121
T22 S140
T10 S549
S551
T1 S544
T10 S552
T22 S1270
T23 S1286
S552
T1 S504
T11 S553
T22 S1209
T23 S1287
S553
T1 S505
T12 S554
T22 S1189
T23 S1288
S554
T1 S506
T14 S521
T22 S555
T23 S1289
S555
T1 S240
T14 S255
T23 S556
T24 S1205
S556
T1 S557
T14 S572
T24 S1164
T15 S1447
T20 S1480
S557
T2 S558
T14 S573
T15 S922
T24 S984
S558
T15 S340
T1 S559
T14 S574
T3 S975
T24 S985
T20 S1965
S559
T15 S338
T3 S560
T14 S575
T24 S986
S560
T2 S561
T4 S566
T14 S576
T24 S977
S561
T4 S562
T14 S577
T24 S978
S562
T5 S558
T3 S563
T14 S568
T24 S979
T15 S1014
T20 S1966
S563
T4 S564
T14 S569
T5 S975
T24 S980
S564
T5 S565
T14 S570
T24 S981
T15 S1730
T20 S1845
S565
T5 S556
T1 S566
T14 S571
T24 S982
T15 S1570
T20 S1686
S566
T5 S557
T2 S562
T14 S567
T24 S983
T15 S1073
S567
T2 S568
T5 S573
T13 S583
T24 S792
T15 S1074
S568
T3 S569
T5 S574
T13 S579
T24 S788
T15 S1010
T20 S1960
S569
T4 S570
T13 S580
T5 S784
T24 S789
S570
T5 S571
T13 S581
T24 S790
T15 S1731
T20 S1846
S571
T1 S567
T5 S572
T13 S582
T24 S791
T15 S1571
T20 S1687
S572
T1 S573
T24 S1165
T15 S1448
T13 S1470
T20 S1481
S573
T2 S574
T13 S584
T24 S793
T15 S923
S574
T15 S333
T1 S575
T13 S585
T3 S784
T24 S794
T20 S909
S575
T15 S331
T3 S576
T13 S586
T24 S795
S576
T4 S567
T2 S577
T13 S587
T24 S786
S577
T4 S568
T13 S578
T24 S787
S578
T9 S132
T4 S579
T24 S589
S579
T9 S133
T3 S580
T5 S585
T24 S590
T15 S1006
T6 S1387
T20 S1959
S580
T9 S134
T4 S581
T24 S591
T5 S751
S581
T9 S135
T5 S582
T24 S592
T15 S1732
T20 S1847
T6 S1876
S582
T9 S136
T1 S583
T24 S593
T5 S1470
T15 S1572
T20 S1688
T6 S1717
S583
T9 S137
T2 S579
T5 S584
T24 S594
T15 S1075
T6 S1432
S584
T9 S138
T2 S585
T24 S595
T15 S924
T6 S1379
S585
T9 S139
T15 S326
T1 S586
T24 S596
T3 S751
T6 S756
T20 S883
S586
T9 S130
T15 S324
T3 S587
T24 S597
T6 S747
S587
T9 S131
T2 S578
T4 S583
T24 S588
S588
T9 S284
T2 S589
T4 S594
T23 S601
S589
T9 S285
T4 S590
T23 S602
S590
T9 S286
T3 S591
T5 S596
T23 S603
T15 S992
T6 S1388
T20 S1929
S591
T9 S287
T4 S592
T23 S604
T5 S752
S592
T9 S288
T5 S593
T23 S605
T15 S1739
T20 S1854
T6 S1877
S593
T9 S289
T1 S594
T23 S606
T5 S1166
T15 S1579
T20 S1695
T6 S1718
S594
T9 S290
T2 S590
T5 S595
T23 S607
T15 S1016
T6 S1433
S595
T9 S291
T2 S596
T23 S608
T15 S799
T6 S1168
S596
T9 S292
T15 S327
T1 S597
T23 S609
T3 S752
T6 S757
T20 S797
S597
T9 S293
T15 S325
T3 S588
T6 S598
T23 S600
S598
T23 S599
S599
S600
T9 S294
T15 S318
T6 S599
T3 S601
S601
T9 S295
T2 S602
T4 S607
S602
T9 S296
T4 S603
S603
T9 S297
T3 S604
T5 S609
T15 S1003
T6 S1389
T20 S1934
S604
T9 S298
T4 S605
T5 S610
S605
T9 S299
T5 S606
T15 S1827
T20 S1855
T6 S1878
S606
T9 S300
T1 S607
T5 S638
T15 S1667
T20 S1696
T6 S1719
S607
T9 S301
T2 S603
T5 S608
T15 S1023
T6 S1434
S608
T9 S302
T15 S343
T2 S609
T6 S613
S609
T9 S303
T15 S320
T1 S600
T3 S610
T6 S611
T20 S612
S610
T9 S304
T1 S601
T4 S606
S611
T1 S599
S612
T21 S113
T9 S310
T15 S321
S613
T2 S611
T7 S614
S614
T8 S615
T15 S1171
S615
T15 S314
T2 S616
T14 S631
S616
T15 S315
T1 S617
T14 S632
T20 S988
T3 S1937
S617
T15 S316
T3 S618
T14 S633
S618
T2 S619
T4 S624
T14 S634
S619
T4 S620
T14 S635
S620
T5 S616
T3 S621
T14 S626
T15 S1011
T20 S1936
S621
T4 S622
T14 S627
T5 S1937
S622
T5 S623
T14 S628
T15 S1825
T20 S1859
S623
T1 S624
T14 S629
T5 S641
T15 S1665
T20 S1700
S624
T5 S615
T2 S620
T14 S625
T15 S1021
S625
T13 S607
T2 S626
T5 S631
T15 S1022
S626
T13 S603
T3 S627
T5 S632
T15 S1007
T20 S1935
S627
T13 S604
T4 S628
T5 S636
S628
T13 S605
T5 S629
T15 S1826
T20 S1857
S629
T13 S606
T1 S625
T5 S630
T15 S1666
T20 S1698
S630
T1 S631
T13 S638
T15 S643
T20 S1500
S631
T15 S342
T13 S608
T2 S632
S632
T15 S319
T13 S609
T1 S633
T3 S636
T20 S637
S633
T15 S317
T13 S600
T3 S634
S634
T13 S601
T4 S625
T2 S635
S635
T13 S602
T4 S626
S636
T13 S610
T4 S629
T1 S634
S637
T21 S102
T15 S328
T13 S612
S638
T1 S608
T6 S639
T15 S644
T20 S1487
T9 S1924
S639
T1 S613
T7 S640
S640
T1 S614
T8 S641
T20 S1561
T15 S1682
S641
T1 S615
T14 S630
T15 S642
T20 S1544
S642
T1 S314
T14 S643
T20 S1545
T16 S1558
S643
T1 S342
T13 S644
T20 S1501
T16 S1541
S644
T1 S343
T9 S645
T20 S1488
T16 S1539
S645
T1 S311
T10 S646
T20 S1284
T16 S1537
S646
T1 S312
T11 S647
T16 S648
T20 S1224
S647
T1 S313
T12 S642
S648
T1 S347
T15 S649
T20 S1225
T17 S1510
S649
T1 S348
T17 S650
S650
T1 S349
T16 S651
T18 S918
S651
T1 S354
T18 S652
S652
T1 S355
T17 S653
T19 S1212
S653
T1 S356
T18 S654
T19 S1213
S654
T1 S367
T11 S655
T19 S701
S655
T1 S656
T19 S702
T12 S1527
S656
T12 S657
T19 S703
S657
T2 S658
T14 S673
T19 S704
S658
T1 S659
T14 S674
T19 S705
T3 S2008
S659
T3 S660
T14 S675
T19 S706
S660
T2 S661
T4 S666
T14 S676
T19 S707
S661
T4 S662
T14 S677
T19 S708
S662
T5 S658
T3 S663
T14 S668
T19 S709
S663
T4 S664
T14 S669
T19 S710
T5 S2008
S664
T5 S665
T14 S670
T19 S711
S665
T1 S666
T14 S671
T19 S712
T5 S1527
S666
T5 S657
T2 S662
T14 S667
T19 S713
S667
T2 S668
T5 S673
T13 S683
T19 S714
S668
T3 S669
T5 S674
T13 S679
T19 S715
S669
T4 S670
T13 S680
T19 S716
T5 S2007
S670
T5 S671
T13 S681
T19 S717
S671
T1 S667
T5 S672
T13 S682
T19 S718
S672
T1 S673
T19 S719
T13 S1520
S673
T2 S674
T13 S684
T19 S720
S674
T1 S675
T13 S685
T19 S721
T3 S2007
S675
T3 S676
T13 S686
T19 S722
S676
T4 S667
T2 S677
T13 S687
T19 S723
S677
T4 S668
T13 S678
T19 S724
S678
T4 S679
T9 S689
T19 S725
S679
T3 S680
T5 S685
T9 S690
T19 S726
T6 S2001
S680
T4 S681
T9 S691
T19 S727
T5 S1999
S681
T5 S682
T9 S692
T19 S728
T6 S2005
S682
T1 S683
T9 S693
T19 S729
T5 S1520
T6 S2003
S683
T2 S679
T5 S684
T9 S694
T19 S730
T6 S2000
S684
T2 S685
T9 S695
T19 S731
T6 S1522
S685
T1 S686
T9 S696
T19 S732
T6 S1523
T3 S1999
S686
T3 S687
T9 S697
T19 S733
T6 S1524
S687
T2 S678
T4 S683
T9 S688
T19 S734
S688
T10 S360
T19 S457
T2 S689
T4 S694
S689
T10 S361
T19 S458
T4 S690
S690
T10 S362
T19 S459
T3 S691
T5 S696
S691
T10 S363
T19 S460
T4 S692
T5 S698
S692
T10 S364
T19 S461
T5 S693
S693
T10 S365
T19 S462
T1 S694
T5 S699
S694
T10 S366
T19 S463
T2 S690
T5 S695
S695
T10 S367
T19 S464
T2 S696
S696
T10 S368
T19 S465
T1 S697
T3 S698
S697
T10 S359
T19 S456
T3 S688
S698
T10 S369
T19 S466
T1 S688
T4 S693
S699
T10 S654
T1 S695
T19 S700
S700
T1 S464
T10 S701
T19 S1269
T24 S1276
S701
T1 S378
T11 S702
T24 S1182
T19 S1221
S702
T1 S703
T24 S1183
T19 S1219
T12 S1235
S703
T12 S704
T24 S1184
T19 S1220
S704
T2 S705
T14 S720
T19 S761
T24 S962
S705
T1 S706
T14 S721
T19 S762
T24 S963
T3 S1998
S706
T3 S707
T14 S722
T19 S763
T24 S964
S707
T2 S708
T4 S713
T14 S723
T19 S764
T24 S965
S708
T4 S709
T14 S724
T19 S765
T24 S966
S709
T5 S705
T3 S710
T14 S715
T19 S766
T24 S967
S710
T4 S711
T14 S716
T19 S767
T24 S968
T5 S1998
S711
T5 S712
T14 S717
T19 S768
T24 S969
S712
T1 S713
T14 S718
T19 S769
T24 S970
T5 S1235
S713
T5 S704
T2 S709
T14 S714
T19 S770
T24 S971
S714
T2 S715
T5 S720
T13 S730
T19 S771
T24 S951
S715
T3 S716
T5 S721
T13 S726
T19 S772
T24 S947
S716
T4 S717
T13 S727
T19 S773
T24 S948
T5 S1997
S717
T5 S718
T13 S728
T19 S774
T24 S949
S718
T1 S714
T5 S719
T13 S729
T19 S775
T24 S950
S719
T1 S720
T19 S776
T24 S955
T13 S1455
S720
T2 S721
T13 S731
T19 S777
T24 S952
S721
T1 S722
T13 S732
T19 S778
T24 S953
T3 S1997
S722
T3 S723
T13 S733
T19 S779
T24 S944
S723
T4 S714
T2 S724
T13 S734
T19 S780
T24 S945
S724
T4 S715
T13 S725
T19 S781
T24 S946
S725
T9 S458
T4 S726
T19 S736
T24 S860
S726
T9 S459
T3 S727
T5 S732
T19 S737
T24 S861
T6 S1994
S727
T9 S460
T4 S728
T19 S738
T24 S862
T5 S1992
S728
T9 S461
T5 S729
T19 S739
T24 S863
T6 S1996
S729
T9 S462
T1 S730
T19 S740
T24 S864
T5 S1455
T6 S1995
S730
T9 S463
T2 S726
T5 S731
T19 S741
T24 S865
T6 S1993
S731
T9 S464
T2 S732
T19 S742
T24 S866
T6 S1457
S732
T9 S465
T1 S733
T19 S743
T24 S867
T6 S1458
T3 S1992
S733
T9 S456
T3 S734
T19 S744
T24 S858
T6 S1459
S734
T9 S457
T2 S725
T4 S730
T19 S735
T24 S859
S735
T9 S206
T24 S270
T2 S736
T4 S741
S736
T9 S207
T24 S261
T4 S737
S737
T9 S208
T24 S262
T3 S738
T5 S743
T6 S1385
S738
T9 S209
T24 S263
T4 S739
T5 S749
S739
T9 S210
T24 S264
T5 S740
T6 S1874
S740
T9 S211
T24 S265
T1 S741
T5 S1468
T6 S1715
S741
T9 S212
T24 S266
T2 S737
T5 S742
T6 S1430
S742
T9 S213
T24 S267
T2 S743
T6 S759
S743
T9 S214
T24 S268
T1 S744
T3 S749
T6 S754
S744
T9 S205
T24 S269
T3 S735
T6 S745
S745
T24 S746
S746
T23 S747
T24 S748
S747
T24 S598
S748
T23 S598
S749
T9 S215
T1 S735
T4 S740
T24 S750
S750
T4 S265
T1 S270
T9 S281
T23 S751
T24 S753
S751
T9 S140
T4 S582
T1 S587
T24 S752
S752
T9 S283
T1 S588
T4 S593
T23 S610
S753
T4 S15
T1 S20
T9 S282
T23 S752
S754
T1 S745
T24 S755
S755
T1 S746
T23 S756
T24 S758
S756
T1 S747
T24 S757
S757
T1 S598
T23 S611
S758
T1 S748
T23 S757
S759
T2 S754
T7 S760
T24 S1378
S760
T8 S761
T24 S1370
S761
T24 S240
T2 S762
T14 S777
S762
T24 S241
T1 S763
T14 S778
T3 S1888
S763
T24 S242
T3 S764
T14 S779
S764
T24 S243
T2 S765
T4 S770
T14 S780
S765
T24 S244
T4 S766
T14 S781
S766
T24 S245
T5 S762
T3 S767
T14 S772
S767
T24 S246
T4 S768
T14 S773
T5 S1888
S768
T24 S247
T5 S769
T14 S774
S769
T24 S248
T1 S770
T14 S775
T5 S1218
S770
T24 S249
T5 S761
T2 S766
T14 S771
S771
T24 S250
T13 S741
T2 S772
T5 S777
S772
T24 S251
T13 S737
T3 S773
T5 S778
S773
T24 S252
T13 S738
T4 S774
T5 S782
S774
T24 S253
T13 S739
T5 S775
S775
T24 S254
T13 S740
T1 S771
T5 S776
S776
T24 S255
T1 S777
T13 S1468
S777
T24 S256
T13 S742
T2 S778
S778
T24 S257
T13 S743
T1 S779
T3 S782
S779
T24 S258
T13 S744
T3 S780
S780
T24 S259
T13 S735
T4 S771
T2 S781
S781
T24 S260
T13 S736
T4 S772
S782
T13 S749
T4 S775
T1 S780
T24 S783
S783
T4 S254
T1 S259
T13 S750
T23 S784
T24 S1207
S784
T4 S571
T1 S576
T13 S751
T24 S785
S785
T23 S636
T13 S752
T1 S786
T4 S791
S786
T13 S588
T23 S634
T2 S787
T4 S792
S787
T13 S589
T23 S635
T4 S788
S788
T13 S590
T23 S626
T3 S789
T5 S794
T15 S991
T20 S1928
S789
T13 S591
T23 S627
T5 S785
T4 S790
S790
T13 S592
T23 S628
T5 S791
T15 S1738
T20 S1856
S791
T13 S593
T23 S629
T1 S792
T5 S1165
T15 S1578
T20 S1697
S792
T13 S594
T23 S625
T2 S788
T5 S793
T15 S1015
S793
T13 S595
T23 S631
T2 S794
T15 S798
S794
T15 S334
T13 S596
T23 S632
T3 S785
T1 S795
T20 S796
S795
T15 S332
T13 S597
T23 S633
T3 S786
S796
T21 S523
T23 S637
T13 S797
S797
T9 S493
T21 S534
T23 S612
S798
T2 S334
T23 S342
T13 S799
T16 S805
S799
T2 S327
T23 S343
T9 S800
T16 S806
S800
T2 S309
T23 S311
T10 S801
T16 S808
S801
T2 S72
T23 S312
T11 S802
T16 S809
S802
T23 S313
T12 S803
S803
T23 S314
T2 S341
T14 S798
T16 S804
S804
T14 S805
T17 S1139
T23 S1161
S805
T13 S806
T17 S1109
T23 S1125
S806
T23 S344
T6 S807
T9 S808
T17 S935
S807
T23 S345
S808
T23 S346
T10 S809
T17 S816
S809
T23 S347
T17 S810
S810
T18 S389
T2 S811
T23 S815
S811
T18 S390
T1 S812
T23 S814
S812
T18 S381
T23 S813
S813
T15 S351
T18 S402
S814
T15 S350
T18 S401
T1 S813
S815
T15 S349
T18 S400
T2 S814
S816
T18 S475
T10 S810
T2 S817
T23 S823
S817
T18 S476
T10 S811
T1 S818
T23 S821
S818
T18 S477
T10 S812
T23 S819
S819
T18 S478
T10 S813
T15 S820
S820
T10 S351
T18 S490
S821
T18 S487
T10 S814
T1 S819
T15 S822
S822
T10 S350
T18 S489
T1 S820
S823
T18 S486
T10 S815
T2 S821
T15 S824
S824
T10 S349
T2 S822
T16 S825
T18 S838
S825
T10 S354
T18 S826
S826
T10 S355
T17 S827
T19 S836
S827
T10 S356
T18 S695
T2 S828
T19 S834
S828
T10 S357
T18 S696
T1 S829
T19 S832
S829
T10 S358
T18 S697
T19 S830
S830
T18 S456
T24 S818
T10 S831
S831
T18 S380
T24 S812
S832
T18 S465
T24 S817
T1 S830
T10 S833
S833
T18 S379
T24 S811
T1 S831
S834
T18 S464
T24 S816
T2 S832
T10 S835
S835
T18 S378
T24 S810
T2 S833
S836
T24 S808
T17 S834
T10 S837
S837
T24 S809
T17 S835
S838
T2 S489
T16 S826
T10 S839
T19 S925
S839
T2 S353
T16 S355
T11 S840
T19 S926
S840
T12 S841
T19 S921
S841
T2 S842
T14 S848
T19 S922
T16 S1143
S842
T19 S340
T1 S843
T14 S846
S843
T19 S338
T14 S844
S844
T19 S331
T13 S845
S845
T19 S324
T9 S490
S846
T19 S333
T1 S844
T13 S847
S847
T19 S326
T9 S489
T1 S845
S848
T2 S846
T13 S849
T19 S923
T16 S1113
S849
T9 S838
T2 S847
T16 S850
T19 S924
S850
T9 S826
T6 S851
T17 S853
T19 S927
S851
T19 S852
S852
T24 S807
S853
T18 S684
T9 S827
T2 S854
T19 S928
S854
T18 S685
T9 S828
T1 S855
T19 S929
S855
T18 S686
T9 S829
T19 S856
S856
T18 S733
T9 S830
T24 S857
S857
T9 S818
T18 S858
T23 S932
S858
T19 S269
T9 S477
T3 S859
T23 S879
T6 S960
S859
T19 S270
T9 S468
T2 S860
T4 S865
T23 S870
S860
T19 S261
T9 S469
T4 S861
T23 S871
S861
T19 S262
T9 S470
T3 S862
T5 S867
T23 S872
T6 S1989
S862
T19 S263
T9 S471
T4 S863
T5 S868
T23 S873
S863
T19 S264
T9 S472
T5 S864
T23 S874
T6 S1991
S864
T19 S265
T9 S473
T1 S865
T23 S875
T5 S956
T6 S1990
S865
T19 S266
T9 S474
T2 S861
T5 S866
T23 S876
T6 S1988
S866
T19 S267
T9 S475
T2 S867
T23 S877
T6 S958
S867
T19 S268
T9 S476
T1 S858
T3 S868
T23 S878
T6 S959
S868
T9 S467
T19 S750
T1 S859
T4 S864
T23 S869
S869
T9 S488
T19 S751
T1 S870
T4 S875
S870
T9 S479
T19 S587
T2 S871
T4 S876
S871
T9 S480
T19 S578
T4 S872
S872
T9 S481
T19 S579
T3 S873
T5 S878
T15 S1048
T20 S1954
T6 S1968
S873
T9 S482
T19 S580
T5 S869
T4 S874
S874
T9 S483
T19 S581
T5 S875
T15 S1755
T20 S1950
T6 S1981
S875
T9 S484
T19 S582
T1 S876
T5 S910
T15 S1595
T20 S1946
T6 S1971
S876
T9 S485
T19 S583
T2 S872
T5 S877
T15 S1051
T6 S1967
S877
T9 S486
T19 S584
T15 S849
T2 S878
T6 S884
S878
T9 S487
T19 S585
T15 S847
T3 S869
T1 S879
T6 S881
T20 S882
S879
T9 S478
T19 S586
T15 S845
T3 S870
T6 S880
S880
T19 S747
S881
T19 S756
T1 S880
S882
T21 S443
T9 S491
T19 S883
S883
T21 S192
T9 S492
T24 S797
S884
T2 S881
T7 S885
T19 S1379
S885
T8 S886
T19 S1371
T15 S1943
S886
T19 S557
T15 S841
T2 S887
T14 S902
S887
T19 S558
T15 S842
T1 S888
T14 S903
T3 S1938
T20 S1964
S888
T19 S559
T15 S843
T3 S889
T14 S904
S889
T19 S560
T2 S890
T4 S895
T14 S905
S890
T19 S561
T4 S891
T14 S906
S891
T19 S562
T5 S887
T3 S892
T14 S897
T15 S1046
T20 S1963
S892
T19 S563
T4 S893
T14 S898
T5 S1938
S893
T19 S564
T5 S894
T14 S899
T15 S1753
T20 S1962
S894
T19 S565
T1 S895
T14 S900
T5 S913
T15 S1593
T20 S1961
S895
T19 S566
T5 S886
T2 S891
T14 S896
T15 S1045
S896
T19 S567
T13 S876
T2 S897
T5 S902
T15 S1050
S897
T19 S568
T13 S872
T3 S898
T5 S903
T15 S1047
T20 S1953
S898
T19 S569
T13 S873
T4 S899
T5 S907
S899
T19 S570
T13 S874
T5 S900
T15 S1754
T20 S1949
S900
T19 S571
T13 S875
T1 S896
T5 S901
T15 S1594
T20 S1945
S901
T19 S572
T1 S902
T13 S910
T15 S915
T20 S1940
S902
T19 S573
T15 S848
T13 S877
T2 S903
S903
T19 S574
T15 S846
T13 S878
T1 S904
T3 S907
T20 S908
S904
T19 S575
T15 S844
T13 S879
T3 S905
S905
T19 S576
T13 S870
T4 S896
T2 S906
S906
T19 S577
T13 S871
T4 S897
S907
T19 S784
T13 S869
T4 S900
T1 S905
S908
T21 S432
T13 S882
T19 S909
S909
T21 S181
T24 S796
T13 S883
S910
T1 S877
T6 S911
T15 S916
T9 S1277
T19 S1470
T20 S1941
S911
T1 S884
T7 S912
T19 S1465
S912
T1 S885
T8 S913
T19 S1445
T15 S1942
T20 S1944
S913
T19 S556
T1 S886
T14 S901
T15 S914
T20 S1939
S914
T1 S841
T14 S915
T19 S1447
T16 S1554
S915
T1 S848
T13 S916
T19 S1448
T16 S1531
S916
T1 S849
T9 S917
T19 S1449
T16 S1517
S917
T1 S838
T10 S918
T19 S1272
T16 S1513
S918
T16 S652
T1 S839
T11 S919
T19 S1211
S919
T1 S840
T12 S914
T19 S920
S920
T1 S921
T24 S1179
T12 S1447
S921
T24 S802
T12 S922
S922
T2 S340
T24 S803
T14 S923
T16 S1129
S923
T2 S333
T24 S798
T13 S924
T16 S939
S924
T2 S326
T24 S799
T9 S925
T16 S927
S925
T2 S308
T24 S800
T16 S836
T10 S926
S926
T2 S71
T24 S801
T16 S837
T11 S921
S927
T24 S806
T9 S836
T6 S852
T17 S928
S928
T18 S731
T9 S834
T2 S929
T24 S935
S929
T18 S732
T9 S832
T1 S856
T24 S930
S930
T9 S817
T1 S857
T18 S867
T23 S931
S931
T9 S821
T18 S878
T1 S932
T15 S934
S932
T9 S819
T18 S879
T15 S933
S933
T9 S820
T18 S845
S934
T9 S822
T18 S847
T1 S933
S935
T9 S816
T18 S866
T2 S930
T23 S936
S936
T9 S823
T18 S877
T2 S931
T15 S937
S937
T9 S824
T18 S849
T2 S934
T16 S938
S938
T9 S825
T18 S850
S939
T24 S805
T13 S927
T17 S940
S940
T18 S720
T13 S928
T2 S941
T24 S1109
S941
T18 S721
T13 S929
T1 S942
T24 S1101
S942
T18 S722
T13 S856
T24 S943
S943
T13 S857
T18 S944
T23 S1103
S944
T19 S258
T13 S858
T23 S904
T3 S945
S945
T19 S259
T13 S859
T23 S905
T2 S946
T4 S951
S946
T19 S260
T13 S860
T23 S906
T4 S947
S947
T19 S251
T13 S861
T23 S897
T3 S948
T5 S953
S948
T19 S252
T13 S862
T23 S898
T4 S949
T5 S954
S949
T19 S253
T13 S863
T23 S899
T5 S950
S950
T19 S254
T13 S864
T23 S900
T1 S951
T5 S955
S951
T19 S250
T13 S865
T23 S896
T2 S947
T5 S952
S952
T19 S256
T13 S866
T23 S902
T2 S953
S953
T19 S257
T13 S867
T23 S903
T1 S944
T3 S954
S954
T19 S783
T13 S868
T23 S907
T1 S945
T4 S950
S955
T19 S255
T23 S901
T1 S952
T13 S956
S956
T1 S866
T23 S910
T6 S957
T9 S1276
T19 S1469
S957
T23 S911
T1 S958
T7 S1462
T19 S1464
S958
T23 S884
T2 S959
T7 S961
T19 S1378
S959
T19 S755
T23 S881
T1 S960
S960
T19 S746
T23 S880
S961
T23 S885
T8 S962
T19 S1370
S962
T19 S240
T23 S886
T14 S952
T2 S963
S963
T19 S241
T23 S887
T14 S953
T1 S964
T3 S973
S964
T19 S242
T23 S888
T14 S944
T3 S965
S965
T19 S243
T23 S889
T14 S945
T2 S966
T4 S971
S966
T19 S244
T23 S890
T14 S946
T4 S967
S967
T19 S245
T23 S891
T14 S947
T5 S963
T3 S968
S968
T19 S246
T23 S892
T14 S948
T4 S969
T5 S973
S969
T19 S247
T23 S893
T14 S949
T5 S970
S970
T19 S248
T23 S894
T14 S950
T1 S971
T5 S972
S971
T19 S249
T23 S895
T14 S951
T5 S962
T2 S967
S972
T19 S555
T23 S913
T14 S955
T1 S962
S973
T14 S954
T1 S965
T4 S970
T19 S974
T23 S1938
S974
T1 S243
T4 S248
T14 S783
T23 S975
T24 S1206
S975
T1 S560
T4 S565
T14 S784
T24 S976
S976
T14 S785
T1 S977
T4 S982
T23 S1937
S977
T23 S618
T14 S786
T2 S978
T4 S983
S978
T23 S619
T14 S787
T4 S979
S979
T23 S620
T14 S788
T3 S980
T5 S985
T15 S990
T20 S1927
S980
T23 S621
T14 S789
T5 S976
T4 S981
S981
T23 S622
T14 S790
T5 S982
T15 S1737
T20 S1858
S982
T23 S623
T14 S791
T1 S983
T5 S1164
T15 S1577
T20 S1699
S983
T23 S624
T14 S792
T2 S979
T5 S984
T15 S989
S984
T23 S615
T14 S793
T15 S803
T2 S985
S985
T15 S341
T23 S616
T14 S794
T3 S976
T1 S986
T20 S987
S986
T15 S339
T23 S617
T14 S795
T3 S977
S987
T21 S507
T14 S796
T23 S988
S988
T21 S86
T15 S335
T14 S637
S989
T5 S803
T2 S990
T14 S1015
T23 S1021
T16 S1159
S990
T5 S341
T14 S991
T23 S1011
S991
T5 S334
T13 S992
T23 S1007
S992
T5 S327
T9 S993
T23 S1003
S993
T5 S309
T10 S994
T23 S999
S994
T5 S72
T23 S995
S995
T5 S65
T20 S996
S996
T5 S66
T21 S997
S997
T5 S67
T22 S998
S998
T5 S71
T24 S994
S999
T5 S305
T10 S995
T20 S1000
S1000
T5 S306
T10 S996
T21 S1001
S1001
T5 S307
T10 S997
T22 S1002
S1002
T5 S308
T24 S993
T10 S998
S1003
T5 S320
T9 S999
T20 S1004
S1004
T5 S321
T9 S1000
T21 S1005
S1005
T5 S322
T9 S1001
T22 S1006
S1006
T5 S326
T24 S992
T9 S1002
S1007
T5 S319
T13 S1003
T20 S1008
S1008
T5 S328
T13 S1004
T21 S1009
S1009
T5 S329
T13 S1005
T22 S1010
S1010
T5 S333
T24 S991
T13 S1006
S1011
T5 S315
T14 S1007
T20 S1012
S1012
T5 S335
T14 S1008
T21 S1013
S1013
T5 S336
T14 S1009
T22 S1014
S1014
T5 S340
T24 S990
T14 S1010
S1015
T5 S798
T2 S991
T13 S1016
T23 S1022
T16 S1123
S1016
T5 S799
T2 S992
T9 S1017
T23 S1023
T16 S1093
S1017
T5 S800
T2 S993
T10 S1018
T23 S1024
T16 S1066
S1018
T5 S801
T2 S994
T11 S1019
T23 S1025
T16 S1042
S1019
T5 S802
T12 S989
T23 S1020
S1020
T5 S313
T12 S1021
S1021
T5 S314
T2 S1011
T14 S1022
T16 S1160
S1022
T5 S342
T2 S1007
T13 S1023
T16 S1124
S1023
T5 S343
T2 S1003
T9 S1024
T16 S1094
S1024
T5 S311
T2 S999
T10 S1025
T16 S1067
S1025
T5 S312
T2 S995
T11 S1020
T16 S1026
S1026
T5 S347
T15 S1027
T17 S1040
S1027
T5 S348
T17 S1028
S1028
T5 S349
T2 S1029
T16 S1031
T18 S1043
S1029
T5 S350
T18 S1030
S1030
T5 S353
T19 S998
S1031
T5 S354
T18 S1032
S1032
T5 S355
T17 S1033
T19 S1041
S1033
T5 S356
T18 S366
T2 S1034
T19 S1038
S1034
T5 S357
T18 S362
T19 S1035
S1035
T18 S373
T5 S833
T24 S1036
S1036
T18 S384
T5 S811
T23 S1037
S1037
T18 S395
T5 S814
T15 S1029
S1038
T18 S377
T5 S835
T2 S1035
T24 S1039
S1039
T18 S388
T5 S810
T2 S1036
T23 S1040
S1040
T18 S399
T5 S815
T15 S1028
T2 S1037
S1041
T5 S837
T17 S1038
T24 S1042
S1042
T5 S809
T23 S1026
T17 S1039
S1043
T5 S839
T2 S1030
T16 S1032
T11 S1044
T19 S1071
S1044
T5 S840
T12 S1045
T19 S1072
S1045
T5 S841
T2 S1046
T14 S1050
T19 S1073
T16 S1156
S1046
T5 S842
T19 S1014
T14 S1047
S1047
T5 S846
T19 S1010
T13 S1048
S1048
T5 S847
T19 S1006
T9 S1049
S1049
T5 S489
T19 S1002
T10 S1030
S1050
T5 S848
T2 S1047
T13 S1051
T19 S1074
T16 S1120
S1051
T5 S849
T2 S1048
T9 S1052
T19 S1075
T16 S1089
S1052
T5 S838
T10 S1043
T2 S1049
T16 S1053
T19 S1070
S1053
T5 S826
T10 S1032
T17 S1054
T19 S1065
S1054
T18 S694
T5 S827
T10 S1033
T2 S1055
T19 S1060
S1055
T18 S690
T5 S828
T10 S1034
T19 S1056
S1056
T18 S459
T5 S832
T10 S1035
T24 S1057
S1057
T18 S470
T5 S817
T10 S1036
T23 S1058
S1058
T18 S481
T5 S821
T10 S1037
T15 S1059
S1059
T5 S822
T10 S1029
T18 S1049
S1060
T18 S463
T5 S834
T10 S1038
T2 S1056
T24 S1061
S1061
T18 S474
T5 S816
T10 S1039
T2 S1057
T23 S1062
S1062
T18 S485
T5 S823
T10 S1040
T2 S1058
T15 S1063
S1063
T5 S824
T10 S1028
T18 S1052
T2 S1059
T16 S1064
S1064
T5 S825
T10 S1031
T18 S1053
S1065
T5 S836
T10 S1041
T17 S1060
T24 S1066
S1066
T5 S808
T10 S1042
T17 S1061
T23 S1067
S1067
T5 S346
T10 S1026
T17 S1062
T15 S1068
S1068
T10 S1027
T17 S1063
T5 S1069
S1069
T10 S348
T17 S824
S1070
T5 S925
T2 S1002
T24 S1017
T16 S1065
T10 S1071
S1071
T5 S926
T2 S998
T24 S1018
T16 S1041
T11 S1072
S1072
T5 S921
T24 S1019
T12 S1073
S1073
T5 S922
T24 S989
T2 S1014
T14 S1074
T16 S1128
S1074
T5 S923
T2 S1010
T24 S1015
T13 S1075
T16 S1097
S1075
T5 S924
T2 S1006
T24 S1016
T9 S1070
T16 S1076
S1076
T5 S927
T9 S1065
T6 S1077
T17 S1080
T24 S1093
S1077
T5 S852
T24 S1078
S1078
T5 S807
T23 S1079
S1079
T5 S345
S1080
T18 S730
T5 S928
T9 S1060
T2 S1081
T24 S1085
S1081
T18 S726
T5 S929
T9 S1056
T24 S1082
S1082
T18 S861
T5 S930
T9 S1057
T23 S1083
S1083
T18 S872
T5 S931
T9 S1058
T15 S1084
S1084
T5 S934
T18 S1048
T9 S1059
S1085
T18 S865
T5 S935
T9 S1061
T2 S1082
T23 S1086
S1086
T18 S876
T5 S936
T9 S1062
T2 S1083
T15 S1087
S1087
T5 S937
T18 S1051
T9 S1063
T2 S1084
T16 S1088
S1088
T5 S938
T9 S1064
T18 S1089
S1089
T5 S850
T9 S1053
T19 S1076
T6 S1090
T17 S1091
S1090
T5 S851
T19 S1077
S1091
T18 S683
T5 S853
T9 S1054
T19 S1080
T2 S1092
S1092
T18 S679
T5 S854
T9 S1055
T19 S1081
S1093
T5 S806
T9 S1066
T6 S1078
T17 S1085
T23 S1094
S1094
T5 S344
T9 S1067
T6 S1079
T17 S1086
T15 S1095
S1095
T9 S1068
T17 S1087
T5 S1096
S1096
T17 S937
T9 S1069
S1097
T5 S939
T13 S1076
T17 S1098
T24 S1123
S1098
T18 S714
T5 S940
T13 S1080
T2 S1099
T24 S1108
S1099
T18 S715
T5 S941
T13 S1081
T24 S1100
S1100
T18 S947
T13 S1082
T5 S1101
T23 S1106
S1101
T13 S930
T1 S943
T18 S953
T23 S1102
S1102
T18 S903
T13 S931
T1 S1103
T15 S1105
S1103
T18 S904
T13 S932
T15 S1104
S1104
T18 S844
T13 S933
S1105
T18 S846
T13 S934
T1 S1104
S1106
T18 S897
T13 S1083
T5 S1102
T15 S1107
S1107
T18 S1047
T13 S1084
T5 S1105
S1108
T18 S951
T13 S1085
T2 S1100
T5 S1109
T23 S1117
S1109
T13 S935
T18 S952
T2 S1101
T23 S1110
S1110
T18 S902
T13 S936
T2 S1102
T15 S1111
S1111
T18 S848
T13 S937
T2 S1105
T16 S1112
S1112
T13 S938
T18 S1113
S1113
T13 S850
T19 S939
T17 S1114
S1114
T18 S673
T13 S853
T19 S940
T2 S1115
S1115
T18 S674
T13 S854
T19 S941
T1 S1116
S1116
T18 S675
T13 S855
T19 S942
S1117
T18 S896
T13 S1086
T2 S1106
T5 S1110
T15 S1118
S1118
T18 S1050
T13 S1087
T2 S1107
T5 S1111
T16 S1119
S1119
T13 S1088
T5 S1112
T18 S1120
S1120
T13 S1089
T19 S1097
T5 S1113
T17 S1121
S1121
T18 S667
T13 S1091
T19 S1098
T5 S1114
T2 S1122
S1122
T18 S668
T13 S1092
T19 S1099
T5 S1115
S1123
T5 S805
T13 S1093
T17 S1108
T23 S1124
S1124
T13 S1094
T17 S1117
T5 S1125
T15 S1127
S1125
T13 S344
T17 S1110
T15 S1126
S1126
T13 S1096
T17 S1111
S1127
T13 S1095
T17 S1118
T5 S1126
S1128
T14 S1097
T5 S1129
T17 S1147
T24 S1159
S1129
T24 S804
T14 S939
T17 S1130
S1130
T18 S704
T14 S940
T2 S1131
T24 S1139
S1131
T18 S705
T14 S941
T1 S1132
T24 S1136
S1132
T18 S706
T14 S942
T24 S1133
S1133
T14 S943
T18 S964
T23 S1134
S1134
T18 S888
T14 S1103
T15 S1135
S1135
T18 S843
T14 S1104
S1136
T18 S963
T14 S1101
T1 S1133
T23 S1137
S1137
T18 S887
T14 S1102
T1 S1134
T15 S1138
S1138
T18 S842
T14 S1105
T1 S1135
S1139
T18 S962
T14 S1109
T2 S1136
T23 S1140
S1140
T18 S886
T14 S1110
T2 S1137
T15 S1141
S1141
T18 S841
T14 S1111
T2 S1138
T16 S1142
S1142
T14 S1112
T18 S1143
S1143
T14 S1113
T19 S1129
T17 S1144
S1144
T18 S657
T14 S1114
T19 S1130
T2 S1145
S1145
T18 S658
T14 S1115
T19 S1131
T1 S1146
S1146
T18 S659
T14 S1116
T19 S1132
S1147
T18 S713
T14 S1098
T5 S1130
T2 S1148
T24 S1152
S1148
T18 S709
T14 S1099
T5 S1131
T24 S1149
S1149
T18 S967
T14 S1100
T5 S1136
T23 S1150
S1150
T18 S891
T14 S1106
T5 S1137
T15 S1151
S1151
T18 S1046
T14 S1107
T5 S1138
S1152
T18 S971
T14 S1108
T5 S1139
T2 S1149
T23 S1153
S1153
T18 S895
T14 S1117
T5 S1140
T2 S1150
T15 S1154
S1154
T18 S1045
T14 S1118
T5 S1141
T2 S1151
T16 S1155
S1155
T14 S1119
T5 S1142
T18 S1156
S1156
T14 S1120
T19 S1128
T5 S1143
T17 S1157
S1157
T18 S666
T14 S1121
T5 S1144
T19 S1147
T2 S1158
S1158
T18 S662
T14 S1122
T5 S1145
T19 S1148
S1159
T5 S804
T14 S1123
T17 S1152
T23 S1160
S1160
T14 S1124
T17 S1153
T5 S1161
T15 S1163
S1161
T14 S1125
T17 S1140
T15 S1162
S1162
T14 S1126
T17 S1141
S1163
T14 S1127
T17 S1154
T5 S1162
S1164
T23 S641
T1 S984
T14 S1165
T15 S1174
T20 S1543
S1165
T23 S630
T1 S793
T13 S1166
T15 S1175
T20 S1482
S1166
T1 S595
T23 S638
T6 S1167
T15 S1176
T20 S1483
T9 S1921
S1167
T23 S639
T1 S1168
T7 S1172
S1168
T23 S613
T2 S757
T7 S1169
S1169
T23 S614
T8 S984
T15 S1170
S1170
T8 S803
T23 S1171
S1171
T8 S314
S1172
T23 S640
T8 S1164
T1 S1169
T15 S1173
T20 S1560
S1173
T1 S1170
T8 S1174
T23 S1682
S1174
T23 S642
T1 S803
T14 S1175
T16 S1557
S1175
T23 S643
T1 S798
T13 S1176
T16 S1534
S1176
T23 S644
T1 S799
T9 S1177
T16 S1535
S1177
T23 S645
T1 S800
T10 S1178
T16 S1536
S1178
T23 S646
T1 S801
T11 S1179
T16 S1180
S1179
T23 S647
T1 S802
T12 S1174
S1180
T23 S648
T1 S809
T17 S1181
S1181
T1 S810
T18 S1182
T23 S1510
S1182
T1 S389
T11 S1183
T19 S1209
T23 S1278
S1183
T12 S972
T1 S1184
T19 S1189
T23 S1208
S1184
T19 S239
T12 S962
T23 S1185
S1185
T15 S840
T12 S886
T19 S1186
S1186
T12 S557
T15 S921
T24 S1187
S1187
T15 S802
T12 S984
T23 S1188
S1188
T15 S313
T12 S615
S1189
T1 S239
T12 S555
T23 S1190
T24 S1193
S1190
T12 S556
T15 S920
T1 S1186
T24 S1191
S1191
T12 S1164
T15 S1179
T1 S1187
T23 S1192
S1192
T12 S641
T15 S647
T1 S1188
S1193
T23 S1191
T1 S1194
T12 S1205
S1194
T23 S1187
T12 S1195
S1195
T14 S1
T23 S984
T2 S1196
S1196
T14 S2
T23 S985
T1 S1197
T3 S1206
S1197
T14 S3
T23 S986
T3 S1198
S1198
T14 S4
T23 S977
T2 S1199
T4 S1204
S1199
T14 S5
T23 S978
T4 S1200
S1200
T14 S6
T23 S979
T5 S1196
T3 S1201
S1201
T14 S7
T23 S980
T4 S1202
T5 S1206
S1202
T14 S8
T23 S981
T5 S1203
S1203
T14 S9
T23 S982
T1 S1204
T5 S1205
S1204
T14 S10
T23 S983
T5 S1195
T2 S1200
S1205
T14 S0
T23 S1164
T1 S1195
S1206
T23 S976
T1 S1198
T4 S1203
T14 S1207
S1207
T1 S4
T4 S9
T13 S753
T23 S785
S1208
T12 S913
T15 S919
T1 S1185
T19 S1190
S1209
T1 S235
T11 S1189
T23 S1210
T24 S1926
S1210
T1 S149
T11 S1190
T15 S1211
T20 S1214
T24 S1922
S1211
T11 S920
T1 S926
T24 S1178
T16 S1212
S1212
T1 S837
T24 S1180
T17 S1213
S1213
T18 S701
T1 S835
T24 S1181
S1214
T21 S1215
T24 S1222
S1215
T1 S162
T24 S552
T11 S1216
T22 S1221
S1216
T1 S163
T24 S553
T12 S1217
T22 S1219
S1217
T1 S164
T14 S179
T24 S554
T22 S1218
S1218
T24 S555
T1 S761
T14 S776
S1219
T24 S1189
T12 S1218
T1 S1220
S1220
T24 S239
T12 S761
S1221
T1 S224
T24 S1209
T11 S1219
S1222
T21 S552
T23 S1223
S1223
T15 S1224
T21 S1287
S1224
T16 S1225
T21 S1236
S1225
T21 S1226
S1226
T22 S1212
T1 S1227
T17 S1231
S1227
T22 S837
T17 S1228
S1228
T18 S413
T22 S835
T2 S1229
S1229
T18 S404
T22 S833
T1 S1230
S1230
T18 S405
T22 S831
S1231
T22 S1213
T1 S1228
T18 S1232
S1232
T1 S413
T22 S701
T19 S1215
T11 S1233
S1233
T1 S414
T22 S702
T19 S1216
T12 S1234
S1234
T1 S415
T14 S430
T19 S1217
T22 S1235
S1235
T1 S704
T14 S719
T24 S972
T19 S1218
S1236
T22 S1211
T16 S1226
T1 S1237
T11 S1260
S1237
T2 S67
T22 S926
T16 S1227
T11 S1238
S1238
T22 S921
T12 S1239
S1239
T2 S336
T22 S922
T14 S1240
T16 S1256
S1240
T2 S329
T22 S923
T13 S1241
T16 S1252
S1241
T2 S322
T22 S924
T9 S1242
T16 S1247
S1242
T2 S307
T22 S925
T10 S1237
T16 S1243
S1243
T22 S836
T10 S1227
T17 S1244
S1244
T18 S453
T22 S834
T10 S1228
T2 S1245
S1245
T18 S454
T22 S832
T10 S1229
T1 S1246
S1246
T18 S455
T22 S830
T10 S1230
S1247
T22 S927
T9 S1243
T6 S1248
T17 S1249
S1248
T22 S852
S1249
T18 S442
T22 S928
T9 S1244
T2 S1250
S1250
T18 S443
T22 S929
T9 S1245
T1 S1251
S1251
T18 S444
T22 S856
T9 S1246
S1252
T22 S939
T13 S1247
T17 S1253
S1253
T18 S431
T22 S940
T13 S1249
T2 S1254
S1254
T18 S432
T22 S941
T13 S1250
T1 S1255
S1255
T18 S433
T22 S942
T13 S1251
S1256
T22 S1129
T14 S1252
T17 S1257
S1257
T18 S415
T22 S1130
T14 S1253
T2 S1258
S1258
T18 S416
T22 S1131
T14 S1254
T1 S1259
S1259
T18 S417
T22 S1132
T14 S1255
S1260
T22 S920
T1 S1238
T12 S1261
S1261
T1 S1239
T14 S1262
T22 S1447
T16 S1547
S1262
T1 S1240
T13 S1263
T22 S1448
T16 S1503
S1263
T1 S1241
T9 S1264
T22 S1449
T16 S1490
S1264
T10 S1236
T1 S1242
T16 S1265
T22 S1272
S1265
T10 S1226
T1 S1243
T17 S1266
T22 S1273
S1266
T10 S1231
T1 S1244
T18 S1267
T22 S1274
S1267
T1 S453
T22 S700
T10 S1232
T19 S1268
S1268
T1 S202
T24 S551
T10 S1215
T22 S1269
S1269
T1 S213
T10 S1221
T24 S1270
S1270
T1 S278
T10 S1209
T23 S1271
T24 S1925
S1271
T1 S138
T10 S1210
T15 S1272
T20 S1281
T24 S1921
S1272
T1 S925
T24 S1177
T10 S1211
T16 S1273
S1273
T1 S836
T10 S1212
T17 S1274
T24 S1536
S1274
T18 S700
T1 S834
T10 S1213
T24 S1275
S1275
T1 S816
T10 S1181
T18 S1276
T23 S1509
S1276
T1 S475
T10 S1182
T19 S1270
T23 S1277
S1277
T1 S486
T15 S917
T19 S1271
T10 S1278
T20 S1280
S1278
T1 S400
T15 S918
T11 S1208
T19 S1210
T20 S1279
S1279
T19 S1214
T21 S1232
S1280
T21 S1267
T10 S1279
T19 S1281
S1281
T10 S1214
T21 S1268
T24 S1282
S1282
T21 S551
T10 S1222
T23 S1283
S1283
T10 S1223
T15 S1284
T21 S1286
S1284
T10 S1224
T21 S1264
T16 S1285
S1285
T10 S1225
T21 S1265
S1286
T1 S123
T15 S1264
T22 S1271
T10 S1287
T20 S1293
S1287
T1 S83
T22 S1210
T15 S1236
T11 S1288
T20 S1294
S1288
T1 S84
T22 S1190
T15 S1260
T12 S1289
S1289
T1 S85
T14 S100
T22 S556
T15 S1261
T20 S1290
S1290
T14 S1291
T21 S1441
T22 S1480
S1291
T13 S1292
T21 S1323
T22 S1481
S1292
T9 S1293
T21 S1438
T22 S1471
S1293
T22 S1281
T10 S1294
T21 S1353
S1294
T22 S1214
T21 S1295
S1295
T22 S1215
T1 S1296
T11 S1901
S1296
T22 S162
T2 S1297
T11 S1307
S1297
T22 S153
T1 S1298
T3 S1350
S1298
T22 S154
T3 S1299
S1299
T22 S155
T2 S1300
T4 S1305
S1300
T22 S156
T4 S1301
S1301
T22 S157
T5 S1297
T3 S1302
S1302
T22 S158
T4 S1303
T5 S1350
S1303
T22 S159
T5 S1304
T11 S1911
S1304
T22 S160
T5 S1295
T1 S1305
T11 S1900
S1305
T22 S161
T5 S1296
T2 S1301
T11 S1306
S1306
T5 S1307
T12 S1317
T22 S1891
S1307
T22 S163
T12 S1308
S1308
T22 S164
T2 S1309
T14 S1324
S1309
T22 S165
T1 S1310
T14 S1325
T3 S1886
S1310
T22 S166
T3 S1311
T14 S1326
S1311
T22 S167
T2 S1312
T4 S1317
T14 S1327
S1312
T22 S168
T4 S1313
T14 S1328
S1313
T22 S169
T5 S1309
T3 S1314
T14 S1319
S1314
T22 S170
T4 S1315
T14 S1320
T5 S1886
S1315
T22 S171
T5 S1316
T14 S1321
S1316
T22 S172
T1 S1317
T14 S1322
T5 S1441
S1317
T22 S173
T5 S1308
T2 S1313
T14 S1318
S1318
T22 S174
T2 S1319
T5 S1324
T13 S1334
S1319
T22 S175
T3 S1320
T5 S1325
T13 S1330
S1320
T22 S176
T4 S1321
T13 S1331
T5 S1882
S1321
T22 S177
T5 S1322
T13 S1332
S1322
T22 S178
T1 S1318
T5 S1323
T13 S1333
S1323
T22 S179
T1 S1324
T13 S1438
S1324
T22 S180
T2 S1325
T13 S1335
S1325
T22 S181
T1 S1326
T13 S1336
T3 S1882
S1326
T22 S182
T3 S1327
T13 S1337
S1327
T22 S183
T4 S1318
T2 S1328
T13 S1338
S1328
T22 S184
T4 S1319
T13 S1329
S1329
T22 S185
T4 S1330
T9 S1340
S1330
T22 S186
T3 S1331
T5 S1336
T9 S1341
T6 S1383
S1331
T22 S187
T4 S1332
T9 S1342
T5 S1358
S1332
T22 S188
T5 S1333
T9 S1343
T6 S1723
S1333
T22 S189
T1 S1334
T9 S1344
T5 S1438
T6 S1563
S1334
T22 S190
T2 S1330
T5 S1335
T9 S1345
T6 S1382
S1335
T22 S191
T2 S1336
T9 S1346
T6 S1366
S1336
T22 S192
T1 S1337
T9 S1347
T3 S1358
T6 S1362
S1337
T22 S193
T3 S1338
T9 S1348
T6 S1354
S1338
T22 S194
T2 S1329
T4 S1334
T9 S1339
S1339
T22 S195
T10 S1299
T2 S1340
T4 S1345
S1340
T22 S196
T10 S1300
T4 S1341
S1341
T22 S197
T10 S1301
T3 S1342
T5 S1347
S1342
T22 S198
T10 S1302
T4 S1343
T5 S1349
S1343
T22 S199
T10 S1303
T5 S1344
S1344
T22 S200
T10 S1304
T1 S1345
T5 S1353
S1345
T22 S201
T10 S1305
T2 S1341
T5 S1346
S1346
T22 S202
T10 S1296
T2 S1347
S1347
T22 S203
T10 S1297
T1 S1348
T3 S1349
S1348
T22 S204
T10 S1298
T3 S1339
S1349
T1 S1339
T4 S1344
T10 S1350
T22 S1352
S1350
T1 S1299
T4 S1304
T22 S1351
S1351
T1 S155
T4 S160
T22 S216
T24 S548
S1352
T1 S195
T4 S200
T22 S215
T24 S547
T10 S1351
S1353
T22 S1268
T10 S1295
T1 S1346
S1354
T22 S1355
S1355
T22 S745
T24 S1356
S1356
T22 S746
T23 S1357
S1357
T22 S747
S1358
T4 S1333
T1 S1338
T9 S1349
T22 S1359
S1359
T4 S189
T1 S194
T22 S749
T9 S1352
T24 S1360
S1360
T4 S531
T1 S536
T9 S547
T22 S750
T23 S1361
S1361
T4 S110
T1 S115
T9 S550
T22 S751
S1362
T1 S1354
T22 S1363
S1363
T22 S754
T1 S1355
T24 S1364
S1364
T22 S755
T1 S1356
T23 S1365
S1365
T22 S756
T1 S1357
S1366
T2 S1362
T7 S1367
T22 S1376
S1367
T8 S1308
T22 S1368
S1368
T8 S164
T22 S760
T24 S1369
S1369
T8 S506
T22 S1370
T23 S1374
S1370
T8 S240
T23 S1371
T24 S1373
S1371
T8 S557
T24 S1169
T15 S1372
S1372
T8 S922
T24 S1170
S1373
T23 S1169
T8 S1195
S1374
T8 S85
T22 S1371
T15 S1375
S1375
T8 S1239
T22 S1372
S1376
T22 S759
T2 S1363
T7 S1368
T24 S1377
S1377
T2 S1364
T7 S1369
T22 S1378
T23 S1381
S1378
T2 S755
T7 S1370
T23 S1379
T24 S1380
S1379
T2 S756
T24 S1168
T7 S1371
S1380
T2 S758
T23 S1168
T7 S1373
S1381
T2 S1365
T7 S1374
T22 S1379
S1382
T5 S1366
T2 S1383
T7 S1393
T22 S1429
S1383
T5 S1362
T22 S1384
S1384
T5 S1363
T22 S1385
T24 S1391
S1385
T5 S754
T24 S1386
S1386
T5 S755
T23 S1387
T24 S1390
S1387
T5 S756
T24 S1388
S1388
T5 S757
T23 S1389
S1389
T5 S611
S1390
T5 S758
T23 S1388
S1391
T5 S1364
T22 S1386
T23 S1392
S1392
T5 S1365
T22 S1387
S1393
T8 S1317
T5 S1367
T22 S1394
S1394
T8 S173
T5 S1368
T22 S1395
T24 S1404
S1395
T5 S760
T8 S770
T24 S1396
S1396
T8 S249
T5 S1370
T23 S1397
T24 S1403
S1397
T8 S566
T5 S1371
T15 S1398
T24 S1401
S1398
T8 S1073
T5 S1372
T24 S1399
S1399
T8 S989
T5 S1170
T23 S1400
S1400
T8 S1021
T5 S1171
S1401
T8 S983
T5 S1169
T15 S1399
T23 S1402
S1402
T5 S614
T8 S624
T15 S1400
S1403
T8 S1204
T5 S1373
T23 S1401
S1404
T8 S515
T5 S1369
T22 S1396
T23 S1405
S1405
T8 S94
T5 S1374
T22 S1397
T15 S1406
S1406
T5 S1375
T22 S1398
T8 S1407
S1407
T2 S1013
T22 S1073
T5 S1239
T14 S1408
T16 S1426
S1408
T2 S1009
T22 S1074
T5 S1240
T13 S1409
T16 S1423
S1409
T2 S1005
T22 S1075
T5 S1241
T9 S1410
T16 S1419
S1410
T2 S1001
T22 S1070
T5 S1242
T10 S1411
T16 S1416
S1411
T2 S997
T22 S1071
T5 S1237
T11 S1412
T16 S1413
S1412
T22 S1072
T5 S1238
T12 S1407
S1413
T22 S1041
T5 S1227
T17 S1414
S1414
T18 S412
T22 S1038
T5 S1228
T2 S1415
S1415
T18 S408
T22 S1035
T5 S1229
S1416
T22 S1065
T5 S1243
T10 S1413
T17 S1417
S1417
T18 S452
T22 S1060
T5 S1244
T10 S1414
T2 S1418
S1418
T18 S448
T22 S1056
T5 S1245
T10 S1415
S1419
T22 S1076
T5 S1247
T9 S1416
T6 S1420
T17 S1421
S1420
T22 S1077
T5 S1248
S1421
T18 S441
T22 S1080
T5 S1249
T9 S1417
T2 S1422
S1422
T18 S437
T22 S1081
T5 S1250
T9 S1418
S1423
T22 S1097
T5 S1252
T13 S1419
T17 S1424
S1424
T18 S425
T22 S1098
T5 S1253
T13 S1421
T2 S1425
S1425
T18 S426
T22 S1099
T5 S1254
T13 S1422
S1426
T22 S1128
T5 S1256
T14 S1423
T17 S1427
S1427
T18 S424
T22 S1147
T5 S1257
T14 S1424
T2 S1428
S1428
T18 S420
T22 S1148
T5 S1258
T14 S1425
S1429
T5 S1376
T2 S1384
T7 S1394
T22 S1430
T24 S1436
S1430
T5 S759
T2 S1385
T7 S1395
T24 S1431
S1431
T5 S1378
T2 S1386
T7 S1396
T23 S1432
T24 S1435
S1432
T5 S1379
T2 S1387
T7 S1397
T24 S1433
S1433
T5 S1168
T2 S1388
T7 S1401
T23 S1434
S1434
T5 S613
T2 S1389
T7 S1402
S1435
T5 S1380
T2 S1390
T7 S1403
T23 S1433
S1436
T5 S1377
T2 S1391
T7 S1404
T22 S1431
T23 S1437
S1437
T5 S1381
T2 S1392
T7 S1405
T22 S1432
S1438
T1 S1335
T9 S1353
T6 S1439
T22 S1472
S1439
T1 S1366
T7 S1440
T22 S1473
S1440
T1 S1367
T8 S1441
T22 S1442
S1441
T22 S1217
T1 S1308
T14 S1323
S1442
T8 S1217
T1 S1368
T22 S1443
T24 S1475
S1443
T1 S760
T8 S1218
T24 S1444
S1444
T8 S555
T1 S1370
T23 S1445
T24 S1467
S1445
T8 S556
T24 S1172
T1 S1371
T15 S1446
T20 S1479
S1446
T24 S1173
T1 S1372
T8 S1447
S1447
T1 S922
T24 S1174
T14 S1448
T16 S1556
S1448
T1 S923
T24 S1175
T13 S1449
T16 S1533
S1449
T1 S924
T24 S1176
T9 S1272
T16 S1450
S1450
T1 S927
T9 S1273
T6 S1451
T17 S1454
T24 S1535
S1451
T1 S852
T24 S1452
S1452
T1 S807
T23 S1453
S1453
T1 S345
S1454
T1 S928
T9 S1274
T18 S1455
T24 S1507
S1455
T9 S700
T1 S731
T24 S956
T6 S1456
T19 S1468
S1456
T24 S957
T1 S1457
T7 S1461
T19 S1463
S1457
T19 S759
T24 S958
T2 S1458
T7 S1460
S1458
T19 S754
T24 S959
T1 S1459
S1459
T19 S745
T24 S960
S1460
T8 S704
T19 S760
T24 S961
S1461
T8 S1235
T19 S1443
T1 S1460
T24 S1462
S1462
T23 S912
T1 S961
T8 S972
T19 S1444
S1463
T1 S759
T7 S1443
T24 S1464
S1464
T1 S1378
T7 S1444
T23 S1465
T24 S1466
S1465
T24 S1167
T1 S1379
T7 S1445
S1466
T23 S1167
T1 S1380
T7 S1467
S1467
T23 S1172
T8 S1205
T1 S1373
S1468
T1 S742
T9 S1269
T6 S1463
T24 S1469
S1469
T24 S16
T1 S267
T9 S1270
T6 S1464
T23 S1470
S1470
T1 S584
T24 S1166
T9 S1271
T15 S1449
T6 S1465
T20 S1471
S1471
T9 S1281
T21 S1472
T24 S1483
S1472
T1 S191
T9 S1268
T22 S1468
T6 S1473
T24 S1484
S1473
T1 S1376
T7 S1442
T22 S1463
T24 S1474
S1474
T1 S1377
T22 S1464
T7 S1475
T23 S1486
S1475
T8 S554
T1 S1369
T22 S1444
T23 S1476
S1476
T8 S1289
T1 S1374
T22 S1445
T15 S1477
T20 S1478
S1477
T8 S1261
T1 S1375
T22 S1446
S1478
T8 S1290
T21 S1440
T22 S1479
S1479
T21 S1442
T8 S1480
T24 S1560
S1480
T21 S1217
T14 S1481
T24 S1543
S1481
T21 S179
T13 S1471
T24 S1482
S1482
T21 S521
T13 S1483
T23 S1500
S1483
T9 S1282
T21 S1484
T23 S1487
S1484
T1 S533
T9 S551
T22 S1469
T6 S1474
T23 S1485
S1485
T1 S112
T15 S1263
T9 S1286
T20 S1292
T22 S1470
T6 S1486
S1486
T1 S1381
T22 S1465
T7 S1476
S1487
T9 S1283
T21 S1485
T15 S1488
S1488
T21 S1263
T9 S1284
T16 S1489
S1489
T9 S1285
T21 S1490
S1490
T1 S1247
T9 S1265
T22 S1450
T6 S1491
T17 S1492
S1491
T1 S1248
T22 S1451
S1492
T1 S1249
T9 S1266
T22 S1454
T18 S1493
S1493
T1 S442
T9 S1267
T22 S1455
T19 S1472
T6 S1494
S1494
T22 S1456
T19 S1473
T1 S1495
T7 S1499
S1495
T19 S1376
T22 S1457
T2 S1496
T7 S1498
S1496
T19 S1363
T22 S1458
T1 S1497
S1497
T19 S1355
T22 S1459
S1498
T8 S415
T19 S1368
T22 S1460
S1499
T8 S1234
T19 S1442
T22 S1461
T1 S1498
S1500
T21 S100
T13 S1487
T15 S1501
S1501
T21 S1262
T13 S1488
T16 S1502
S1502
T13 S1489
T21 S1503
S1503
T1 S1252
T13 S1490
T17 S1504
T22 S1533
S1504
T18 S430
T1 S1253
T13 S1492
T22 S1505
S1505
T18 S719
T1 S940
T13 S1454
T24 S1506
S1506
T18 S955
T1 S1109
T13 S1507
T23 S1528
S1507
T1 S935
T18 S956
T9 S1275
T23 S1508
S1508
T18 S910
T1 S936
T9 S1509
T15 S1515
S1509
T1 S823
T18 S1277
T10 S1510
T15 S1511
S1510
T15 S650
T1 S815
T18 S1278
S1511
T10 S650
T1 S824
T18 S917
T16 S1512
S1512
T10 S651
T1 S825
T18 S1513
S1513
T10 S652
T1 S826
T19 S1273
T17 S1514
S1514
T10 S653
T18 S699
T1 S827
T19 S1274
S1515
T18 S916
T1 S937
T9 S1511
T16 S1516
S1516
T1 S938
T9 S1512
T18 S1517
S1517
T1 S850
T19 S1450
T9 S1513
T6 S1518
T17 S1519
S1518
T1 S851
T19 S1451
S1519
T1 S853
T19 S1454
T9 S1514
T18 S1520
S1520
T1 S684
T9 S699
T19 S1455
T6 S1521
S1521
T19 S1456
T1 S1522
T7 S1526
S1522
T19 S1457
T2 S1523
T7 S1525
S1523
T19 S1458
T1 S1524
S1524
T19 S1459
S1525
T8 S657
T19 S1460
S1526
T19 S1461
T1 S1525
T8 S1527
S1527
T1 S657
T14 S672
T19 S1235
S1528
T18 S901
T1 S1110
T13 S1508
T15 S1529
S1529
T18 S915
T1 S1111
T13 S1515
T16 S1530
S1530
T1 S1112
T13 S1516
T18 S1531
S1531
T1 S1113
T13 S1517
T17 S1532
T19 S1533
S1532
T18 S672
T1 S1114
T19 S1505
T13 S1519
S1533
T1 S939
T13 S1450
T17 S1505
T24 S1534
S1534
T1 S805
T17 S1506
T13 S1535
T23 S1541
S1535
T1 S806
T6 S1452
T17 S1507
T9 S1536
T23 S1539
S1536
T1 S808
T10 S1180
T17 S1275
T23 S1537
S1537
T1 S346
T10 S648
T20 S1285
T17 S1509
T15 S1538
S1538
T10 S649
T1 S1069
T17 S1511
S1539
T1 S344
T6 S1453
T20 S1489
T17 S1508
T9 S1537
T15 S1540
S1540
T1 S1096
T17 S1515
T9 S1538
S1541
T1 S1125
T20 S1502
T17 S1528
T13 S1539
T15 S1542
S1542
T1 S1126
T17 S1529
T13 S1540
S1543
T21 S554
T14 S1482
T23 S1544
S1544
T21 S1289
T14 S1500
T15 S1545
S1545
T21 S1261
T14 S1501
T16 S1546
S1546
T14 S1502
T21 S1547
S1547
T1 S1256
T14 S1503
T17 S1548
T22 S1556
S1548
T18 S1234
T1 S1257
T14 S1504
T22 S1549
S1549
T1 S1130
T18 S1235
T14 S1505
T24 S1550
S1550
T18 S972
T1 S1139
T14 S1506
T23 S1551
S1551
T18 S913
T1 S1140
T14 S1528
T15 S1552
S1552
T18 S914
T1 S1141
T14 S1529
T16 S1553
S1553
T1 S1142
T14 S1530
T18 S1554
S1554
T1 S1143
T14 S1531
T17 S1555
T19 S1556
S1555
T1 S1144
T18 S1527
T14 S1532
T19 S1549
S1556
T1 S1129
T14 S1533
T17 S1549
T24 S1557
S1557
T1 S804
T14 S1534
T17 S1550
T23 S1558
S1558
T1 S1161
T14 S1541
T20 S1546
T17 S1551
T15 S1559
S1559
T1 S1162
T14 S1542
T17 S1552
S1560
T21 S1475
T8 S1543
T23 S1561
S1561
T21 S1476
T8 S1544
T15 S1562
S1562
T21 S1477
T8 S1545
S1563
T1 S1382
T5 S1439
T7 S1564
T22 S1714
S1564
T8 S1316
T1 S1393
T5 S1440
T22 S1565
S1565
T8 S172
T1 S1394
T5 S1442
T22 S1566
T24 S1702
S1566
T8 S769
T1 S1395
T5 S1443
T24 S1567
S1567
T8 S248
T1 S1396
T5 S1444
T23 S1568
T24 S1713
S1568
T8 S565
T1 S1397
T5 S1445
T15 S1569
T20 S1685
T24 S1711
S1569
T1 S1398
T5 S1446
T8 S1570
T24 S1680
S1570
T1 S1073
T5 S1447
T14 S1571
T24 S1577
T16 S1656
S1571
T1 S1074
T5 S1448
T13 S1572
T24 S1578
T16 S1642
S1572
T1 S1075
T5 S1449
T9 S1573
T24 S1579
T16 S1627
S1573
T1 S1070
T5 S1272
T10 S1574
T24 S1580
T16 S1604
S1574
T1 S1071
T5 S1211
T11 S1575
T24 S1581
T16 S1590
S1575
T5 S920
T1 S1072
T12 S1570
T24 S1576
S1576
T1 S1019
T5 S1179
T12 S1577
T23 S1664
S1577
T1 S989
T5 S1174
T14 S1578
T16 S1657
T23 S1665
S1578
T1 S1015
T5 S1175
T13 S1579
T16 S1643
T23 S1666
S1579
T1 S1016
T5 S1176
T9 S1580
T16 S1628
T23 S1667
S1580
T1 S1017
T5 S1177
T10 S1581
T16 S1605
T23 S1668
S1581
T1 S1018
T5 S1178
T11 S1576
T16 S1582
T23 S1663
S1582
T1 S1042
T5 S1180
T17 S1583
T23 S1607
S1583
T18 S387
T1 S1039
T5 S1181
T23 S1584
S1584
T18 S398
T1 S1040
T5 S1510
T15 S1585
S1585
T5 S650
T1 S1028
T16 S1586
T18 S1591
S1586
T5 S651
T1 S1031
T18 S1587
S1587
T5 S652
T1 S1032
T17 S1588
T19 S1590
S1588
T18 S365
T5 S653
T1 S1033
T19 S1589
S1589
T18 S376
T1 S1038
T5 S1213
T24 S1583
S1590
T1 S1041
T5 S1212
T24 S1582
T17 S1589
S1591
T5 S918
T1 S1043
T19 S1574
T16 S1587
T11 S1592
S1592
T5 S919
T1 S1044
T19 S1575
T12 S1593
S1593
T5 S914
T1 S1045
T19 S1570
T14 S1594
T16 S1649
S1594
T5 S915
T1 S1050
T19 S1571
T13 S1595
T16 S1635
S1595
T5 S916
T1 S1051
T19 S1572
T9 S1596
T16 S1616
S1596
T5 S917
T1 S1052
T19 S1573
T10 S1591
T16 S1597
S1597
T1 S1053
T5 S1513
T10 S1587
T17 S1598
T19 S1604
S1598
T18 S693
T1 S1054
T5 S1514
T10 S1588
T19 S1599
S1599
T18 S462
T1 S1060
T5 S1274
T10 S1589
T24 S1600
S1600
T18 S473
T1 S1061
T5 S1275
T10 S1583
T23 S1601
S1601
T18 S484
T1 S1062
T5 S1509
T10 S1584
T15 S1602
S1602
T1 S1063
T5 S1511
T10 S1585
T18 S1596
T16 S1603
S1603
T1 S1064
T5 S1512
T10 S1586
T18 S1597
S1604
T1 S1065
T5 S1273
T10 S1590
T17 S1599
T24 S1605
S1605
T1 S1066
T5 S1536
T10 S1582
T17 S1600
T23 S1606
S1606
T1 S1067
T5 S1537
T17 S1601
T10 S1607
T15 S1612
T20 S1613
S1607
T5 S648
T1 S1026
T17 S1584
T15 S1608
T20 S1609
S1608
T5 S649
T1 S1027
T17 S1585
S1609
T5 S1225
T21 S1610
S1610
T5 S1226
T1 S1413
T22 S1590
T17 S1611
S1611
T18 S411
T5 S1231
T1 S1414
T22 S1589
S1612
T1 S1068
T5 S1538
T17 S1602
T10 S1608
S1613
T5 S1285
T10 S1609
T21 S1614
S1614
T5 S1265
T1 S1416
T22 S1604
T10 S1610
T17 S1615
S1615
T18 S451
T5 S1266
T1 S1417
T22 S1599
T10 S1611
S1616
T1 S1089
T5 S1517
T9 S1597
T6 S1617
T17 S1621
T19 S1627
S1617
T1 S1090
T5 S1518
T19 S1618
S1618
T1 S1077
T5 S1451
T24 S1619
S1619
T1 S1078
T5 S1452
T23 S1620
S1620
T1 S1079
T5 S1453
S1621
T18 S682
T1 S1091
T5 S1519
T9 S1598
T19 S1622
S1622
T18 S729
T1 S1080
T5 S1454
T9 S1599
T24 S1623
S1623
T18 S864
T1 S1085
T5 S1507
T9 S1600
T23 S1624
S1624
T18 S875
T1 S1086
T5 S1508
T9 S1601
T15 S1625
S1625
T1 S1087
T5 S1515
T18 S1595
T9 S1602
T16 S1626
S1626
T1 S1088
T5 S1516
T9 S1603
T18 S1616
S1627
T1 S1076
T5 S1450
T9 S1604
T6 S1618
T17 S1622
T24 S1628
S1628
T1 S1093
T5 S1535
T9 S1605
T6 S1619
T17 S1623
T23 S1629
S1629
T1 S1094
T5 S1539
T9 S1606
T6 S1620
T17 S1624
T15 S1630
T20 S1631
S1630
T1 S1095
T5 S1540
T9 S1612
T17 S1625
S1631
T5 S1489
T9 S1613
T21 S1632
S1632
T1 S1419
T5 S1490
T9 S1614
T22 S1627
T6 S1633
T17 S1634
S1633
T1 S1420
T5 S1491
T22 S1618
S1634
T18 S440
T1 S1421
T5 S1492
T9 S1615
T22 S1622
S1635
T1 S1120
T5 S1531
T13 S1616
T17 S1636
T19 S1642
S1636
T18 S671
T1 S1121
T5 S1532
T13 S1621
T19 S1637
S1637
T18 S718
T1 S1098
T5 S1505
T13 S1622
T24 S1638
S1638
T18 S950
T1 S1108
T5 S1506
T13 S1623
T23 S1639
S1639
T18 S900
T1 S1117
T5 S1528
T13 S1624
T15 S1640
S1640
T1 S1118
T5 S1529
T18 S1594
T13 S1625
T16 S1641
S1641
T1 S1119
T5 S1530
T13 S1626
T18 S1635
S1642
T1 S1097
T5 S1533
T13 S1627
T17 S1637
T24 S1643
S1643
T1 S1123
T5 S1534
T13 S1628
T17 S1638
T23 S1644
S1644
T1 S1124
T5 S1541
T13 S1629
T17 S1639
T15 S1645
T20 S1646
S1645
T1 S1127
T5 S1542
T13 S1630
T17 S1640
S1646
T5 S1502
T13 S1631
T21 S1647
S1647
T1 S1423
T5 S1503
T13 S1632
T22 S1642
T17 S1648
S1648
T18 S429
T1 S1424
T5 S1504
T13 S1634
T22 S1637
S1649
T1 S1156
T5 S1554
T14 S1635
T17 S1650
T19 S1656
S1650
T18 S665
T1 S1157
T5 S1555
T14 S1636
T19 S1651
S1651
T18 S712
T1 S1147
T5 S1549
T14 S1637
T24 S1652
S1652
T18 S970
T1 S1152
T5 S1550
T14 S1638
T23 S1653
S1653
T18 S894
T1 S1153
T5 S1551
T14 S1639
T15 S1654
S1654
T1 S1154
T5 S1552
T18 S1593
T14 S1640
T16 S1655
S1655
T1 S1155
T5 S1553
T14 S1641
T18 S1649
S1656
T1 S1128
T5 S1556
T14 S1642
T17 S1651
T24 S1657
S1657
T1 S1159
T5 S1557
T14 S1643
T17 S1652
T23 S1658
S1658
T1 S1160
T5 S1558
T14 S1644
T17 S1653
T15 S1659
T20 S1660
S1659
T1 S1163
T5 S1559
T14 S1645
T17 S1654
S1660
T5 S1546
T14 S1646
T21 S1661
S1661
T1 S1426
T5 S1547
T14 S1647
T22 S1656
T17 S1662
S1662
T18 S423
T1 S1427
T5 S1548
T14 S1648
T22 S1651
S1663
T5 S646
T1 S1025
T16 S1607
T11 S1664
T20 S1670
S1664
T5 S647
T1 S1020
T12 S1665
S1665
T5 S642
T1 S1021
T16 S1658
T14 S1666
T20 S1679
S1666
T5 S643
T1 S1022
T16 S1644
T13 S1667
T20 S1678
S1667
T5 S644
T1 S1023
T16 S1629
T9 S1668
T20 S1677
S1668
T5 S645
T1 S1024
T16 S1606
T10 S1663
T20 S1669
S1669
T5 S1284
T16 S1613
T10 S1670
T21 S1676
S1670
T5 S1224
T16 S1609
T21 S1671
S1671
T5 S1236
T1 S1411
T22 S1574
T16 S1610
T11 S1672
S1672
T5 S1260
T1 S1412
T22 S1575
T12 S1673
S1673
T5 S1261
T1 S1407
T22 S1570
T16 S1661
T14 S1674
S1674
T5 S1262
T1 S1408
T22 S1571
T16 S1647
T13 S1675
S1675
T5 S1263
T1 S1409
T22 S1572
T16 S1632
T9 S1676
S1676
T5 S1264
T1 S1410
T22 S1573
T16 S1614
T10 S1671
S1677
T5 S1488
T16 S1631
T9 S1669
T21 S1675
S1678
T5 S1501
T16 S1646
T21 S1674
T13 S1677
S1679
T5 S1545
T16 S1660
T21 S1673
T14 S1678
S1680
T5 S1173
T1 S1399
T8 S1577
T23 S1681
S1681
T1 S1400
T8 S1665
T5 S1682
T20 S1683
S1682
T8 S642
T1 S1171
T20 S1562
S1683
T5 S1562
T8 S1679
T21 S1684
S1684
T1 S1406
T5 S1477
T22 S1569
T8 S1673
S1685
T5 S1479
T21 S1565
T8 S1686
T24 S1701
S1686
T21 S172
T5 S1480
T14 S1687
T24 S1699
S1687
T21 S178
T5 S1481
T13 S1688
T24 S1697
S1688
T21 S189
T5 S1471
T9 S1689
T24 S1695
S1689
T21 S200
T5 S1281
T10 S1690
T24 S1693
S1690
T21 S160
T5 S1214
T24 S1691
S1691
T21 S502
T5 S1222
T23 S1692
S1692
T21 S81
T5 S1223
T15 S1670
S1693
T21 S542
T5 S1282
T10 S1691
T23 S1694
S1694
T21 S121
T5 S1283
T15 S1669
T10 S1692
S1695
T21 S531
T5 S1483
T9 S1693
T23 S1696
S1696
T21 S110
T5 S1487
T15 S1677
T9 S1694
S1697
T21 S520
T5 S1482
T13 S1695
T23 S1698
S1698
T21 S99
T5 S1500
T15 S1678
T13 S1696
S1699
T21 S514
T5 S1543
T14 S1697
T23 S1700
S1700
T21 S93
T5 S1544
T15 S1679
T14 S1698
S1701
T5 S1560
T8 S1699
T21 S1702
T23 S1710
S1702
T8 S514
T1 S1404
T5 S1475
T22 S1567
T23 S1703
S1703
T8 S93
T1 S1405
T5 S1476
T22 S1568
T15 S1684
T20 S1704
S1704
T5 S1478
T21 S1564
T22 S1685
T8 S1705
S1705
T5 S1290
T21 S1316
T22 S1686
T14 S1706
S1706
T5 S1291
T21 S1322
T22 S1687
T13 S1707
S1707
T5 S1292
T21 S1333
T22 S1688
T9 S1708
S1708
T5 S1293
T21 S1344
T22 S1689
T10 S1709
S1709
T5 S1294
T21 S1304
T22 S1690
S1710
T5 S1561
T15 S1683
T8 S1700
T21 S1703
S1711
T8 S982
T5 S1172
T1 S1401
T15 S1680
T20 S1701
T23 S1712
S1712
T8 S623
T5 S640
T1 S1402
T15 S1681
T20 S1710
S1713
T8 S1203
T1 S1403
T5 S1467
T23 S1711
S1714
T1 S1429
T5 S1473
T7 S1565
T22 S1715
T24 S1721
S1715
T1 S1430
T5 S1463
T7 S1566
T24 S1716
S1716
T1 S1431
T5 S1464
T7 S1567
T23 S1717
T24 S1720
S1717
T1 S1432
T5 S1465
T7 S1568
T24 S1718
S1718
T5 S1167
T1 S1433
T7 S1711
T23 S1719
S1719
T5 S639
T1 S1434
T7 S1712
S1720
T1 S1435
T5 S1466
T7 S1713
T23 S1718
S1721
T1 S1436
T5 S1474
T7 S1702
T22 S1716
T23 S1722
S1722
T1 S1437
T5 S1486
T7 S1703
T22 S1717
S1723
T5 S1563
T7 S1724
T22 S1873
S1724
T8 S1315
T5 S1564
T22 S1725
S1725
T8 S171
T5 S1565
T22 S1726
T24 S1861
S1726
T8 S768
T5 S1566
T24 S1727
S1727
T8 S247
T5 S1567
T23 S1728
T24 S1872
S1728
T8 S564
T5 S1568
T15 S1729
T20 S1844
T24 S1870
S1729
T5 S1569
T8 S1730
T24 S1840
S1730
T5 S1570
T14 S1731
T24 S1737
T16 S1816
S1731
T5 S1571
T13 S1732
T24 S1738
T16 S1802
S1732
T5 S1572
T9 S1733
T24 S1739
T16 S1787
S1733
T5 S1573
T10 S1734
T24 S1740
T16 S1764
S1734
T5 S1574
T11 S1735
T24 S1741
T16 S1750
S1735
T5 S1575
T12 S1730
T24 S1736
S1736
T5 S1576
T12 S1737
T23 S1824
S1737
T5 S1577
T14 S1738
T16 S1817
T23 S1825
S1738
T5 S1578
T13 S1739
T16 S1803
T23 S1826
S1739
T5 S1579
T9 S1740
T16 S1788
T23 S1827
S1740
T5 S1580
T10 S1741
T16 S1765
T23 S1828
S1741
T5 S1581
T11 S1736
T16 S1742
T23 S1823
S1742
T5 S1582
T17 S1743
T23 S1767
S1743
T18 S386
T5 S1583
T23 S1744
S1744
T18 S397
T5 S1584
T15 S1745
S1745
T5 S1585
T16 S1746
T18 S1751
S1746
T5 S1586
T18 S1747
S1747
T5 S1587
T17 S1748
T19 S1750
S1748
T18 S364
T5 S1588
T19 S1749
S1749
T18 S375
T5 S1589
T24 S1743
S1750
T5 S1590
T24 S1742
T17 S1749
S1751
T5 S1591
T19 S1734
T16 S1747
T11 S1752
S1752
T5 S1592
T19 S1735
T12 S1753
S1753
T5 S1593
T19 S1730
T14 S1754
T16 S1809
S1754
T5 S1594
T19 S1731
T13 S1755
T16 S1795
S1755
T5 S1595
T19 S1732
T9 S1756
T16 S1776
S1756
T5 S1596
T19 S1733
T10 S1751
T16 S1757
S1757
T5 S1597
T10 S1747
T17 S1758
T19 S1764
S1758
T18 S692
T5 S1598
T10 S1748
T19 S1759
S1759
T18 S461
T5 S1599
T10 S1749
T24 S1760
S1760
T18 S472
T5 S1600
T10 S1743
T23 S1761
S1761
T18 S483
T5 S1601
T10 S1744
T15 S1762
S1762
T5 S1602
T10 S1745
T18 S1756
T16 S1763
S1763
T5 S1603
T10 S1746
T18 S1757
S1764
T5 S1604
T10 S1750
T17 S1759
T24 S1765
S1765
T5 S1605
T10 S1742
T17 S1760
T23 S1766
S1766
T5 S1606
T17 S1761
T10 S1767
T15 S1772
T20 S1773
S1767
T5 S1607
T17 S1744
T15 S1768
T20 S1769
S1768
T5 S1608
T17 S1745
S1769
T5 S1609
T21 S1770
S1770
T5 S1610
T22 S1750
T17 S1771
S1771
T18 S410
T5 S1611
T22 S1749
S1772
T5 S1612
T17 S1762
T10 S1768
S1773
T5 S1613
T10 S1769
T21 S1774
S1774
T5 S1614
T22 S1764
T10 S1770
T17 S1775
S1775
T18 S450
T5 S1615
T22 S1759
T10 S1771
S1776
T5 S1616
T9 S1757
T6 S1777
T17 S1781
T19 S1787
S1777
T5 S1617
T19 S1778
S1778
T5 S1618
T24 S1779
S1779
T5 S1619
T23 S1780
S1780
T5 S1620
S1781
T18 S681
T5 S1621
T9 S1758
T19 S1782
S1782
T18 S728
T5 S1622
T9 S1759
T24 S1783
S1783
T18 S863
T5 S1623
T9 S1760
T23 S1784
S1784
T18 S874
T5 S1624
T9 S1761
T15 S1785
S1785
T5 S1625
T18 S1755
T9 S1762
T16 S1786
S1786
T5 S1626
T9 S1763
T18 S1776
S1787
T5 S1627
T9 S1764
T6 S1778
T17 S1782
T24 S1788
S1788
T5 S1628
T9 S1765
T6 S1779
T17 S1783
T23 S1789
S1789
T5 S1629
T9 S1766
T6 S1780
T17 S1784
T15 S1790
T20 S1791
S1790
T5 S1630
T9 S1772
T17 S1785
S1791
T5 S1631
T9 S1773
T21 S1792
S1792
T5 S1632
T9 S1774
T22 S1787
T6 S1793
T17 S1794
S1793
T5 S1633
T22 S1778
S1794
T18 S439
T5 S1634
T9 S1775
T22 S1782
S1795
T5 S1635
T13 S1776
T17 S1796
T19 S1802
S1796
T18 S670
T5 S1636
T13 S1781
T19 S1797
S1797
T18 S717
T5 S1637
T13 S1782
T24 S1798
S1798
T18 S949
T5 S1638
T13 S1783
T23 S1799
S1799
T18 S899
T5 S1639
T13 S1784
T15 S1800
S1800
T5 S1640
T18 S1754
T13 S1785
T16 S1801
S1801
T5 S1641
T13 S1786
T18 S1795
S1802
T5 S1642
T13 S1787
T17 S1797
T24 S1803
S1803
T5 S1643
T13 S1788
T17 S1798
T23 S1804
S1804
T5 S1644
T13 S1789
T17 S1799
T15 S1805
T20 S1806
S1805
T5 S1645
T13 S1790
T17 S1800
S1806
T5 S1646
T13 S1791
T21 S1807
S1807
T5 S1647
T13 S1792
T22 S1802
T17 S1808
S1808
T18 S428
T5 S1648
T13 S1794
T22 S1797
S1809
T5 S1649
T14 S1795
T17 S1810
T19 S1816
S1810
T18 S664
T5 S1650
T14 S1796
T19 S1811
S1811
T18 S711
T5 S1651
T14 S1797
T24 S1812
S1812
T18 S969
T5 S1652
T14 S1798
T23 S1813
S1813
T18 S893
T5 S1653
T14 S1799
T15 S1814
S1814
T5 S1654
T18 S1753
T14 S1800
T16 S1815
S1815
T5 S1655
T14 S1801
T18 S1809
S1816
T5 S1656
T14 S1802
T17 S1811
T24 S1817
S1817
T5 S1657
T14 S1803
T17 S1812
T23 S1818
S1818
T5 S1658
T14 S1804
T17 S1813
T15 S1819
T20 S1820
S1819
T5 S1659
T14 S1805
T17 S1814
S1820
T5 S1660
T14 S1806
T21 S1821
S1821
T5 S1661
T14 S1807
T22 S1816
T17 S1822
S1822
T18 S422
T5 S1662
T14 S1808
T22 S1811
S1823
T5 S1663
T16 S1767
T11 S1824
T20 S1830
S1824
T5 S1664
T12 S1825
S1825
T5 S1665
T16 S1818
T14 S1826
T20 S1839
S1826
T5 S1666
T16 S1804
T13 S1827
T20 S1838
S1827
T5 S1667
T16 S1789
T9 S1828
T20 S1837
S1828
T5 S1668
T16 S1766
T10 S1823
T20 S1829
S1829
T5 S1669
T16 S1773
T10 S1830
T21 S1836
S1830
T5 S1670
T16 S1769
T21 S1831
S1831
T5 S1671
T22 S1734
T16 S1770
T11 S1832
S1832
T5 S1672
T22 S1735
T12 S1833
S1833
T5 S1673
T22 S1730
T16 S1821
T14 S1834
S1834
T5 S1674
T22 S1731
T16 S1807
T13 S1835
S1835
T5 S1675
T22 S1732
T16 S1792
T9 S1836
S1836
T5 S1676
T22 S1733
T16 S1774
T10 S1831
S1837
T5 S1677
T16 S1791
T9 S1829
T21 S1835
S1838
T5 S1678
T16 S1806
T21 S1834
T13 S1837
S1839
T5 S1679
T16 S1820
T21 S1833
T14 S1838
S1840
T5 S1680
T8 S1737
T23 S1841
S1841
T5 S1681
T8 S1825
T20 S1842
S1842
T5 S1683
T8 S1839
T21 S1843
S1843
T5 S1684
T22 S1729
T8 S1833
S1844
T5 S1685
T21 S1725
T8 S1845
T24 S1860
S1845
T21 S171
T5 S1686
T14 S1846
T24 S1858
S1846
T21 S177
T5 S1687
T13 S1847
T24 S1856
S1847
T21 S188
T5 S1688
T9 S1848
T24 S1854
S1848
T21 S199
T5 S1689
T10 S1849
T24 S1852
S1849
T21 S159
T5 S1690
T24 S1850
S1850
T21 S501
T5 S1691
T23 S1851
S1851
T21 S80
T5 S1692
T15 S1830
S1852
T21 S541
T5 S1693
T10 S1850
T23 S1853
S1853
T21 S120
T5 S1694
T15 S1829
T10 S1851
S1854
T21 S530
T5 S1695
T9 S1852
T23 S1855
S1855
T21 S109
T5 S1696
T15 S1837
T9 S1853
S1856
T21 S519
T5 S1697
T13 S1854
T23 S1857
S1857
T21 S98
T5 S1698
T15 S1838
T13 S1855
S1858
T21 S513
T5 S1699
T14 S1856
T23 S1859
S1859
T21 S92
T5 S1700
T15 S1839
T14 S1857
S1860
T5 S1701
T8 S1858
T21 S1861
T23 S1869
S1861
T8 S513
T5 S1702
T22 S1727
T23 S1862
S1862
T8 S92
T5 S1703
T22 S1728
T15 S1843
T20 S1863
S1863
T5 S1704
T21 S1724
T22 S1844
T8 S1864
S1864
T21 S1315
T5 S1705
T22 S1845
T14 S1865
S1865
T21 S1321
T5 S1706
T22 S1846
T13 S1866
S1866
T21 S1332
T5 S1707
T22 S1847
T9 S1867
S1867
T21 S1343
T5 S1708
T22 S1848
T10 S1868
S1868
T21 S1303
T5 S1709
T22 S1849
S1869
T5 S1710
T15 S1842
T8 S1859
T21 S1862
S1870
T8 S981
T5 S1711
T15 S1840
T20 S1860
T23 S1871
S1871
T8 S622
T5 S1712
T15 S1841
T20 S1869
S1872
T8 S1202
T5 S1713
T23 S1870
S1873
T5 S1714
T7 S1725
T22 S1874
T24 S1880
S1874
T5 S1715
T7 S1726
T24 S1875
S1875
T5 S1716
T7 S1727
T23 S1876
T24 S1879
S1876
T5 S1717
T7 S1728
T24 S1877
S1877
T5 S1718
T7 S1870
T23 S1878
S1878
T5 S1719
T7 S1871
S1879
T5 S1720
T7 S1872
T23 S1877
S1880
T5 S1721
T7 S1861
T22 S1875
T23 S1881
S1881
T5 S1722
T7 S1862
T22 S1876
S1882
T4 S1322
T1 S1327
T13 S1358
T22 S1883
S1883
T4 S178
T1 S183
T22 S782
T13 S1359
T24 S1884
S1884
T4 S520
T1 S525
T22 S783
T13 S1360
T23 S1885
S1885
T4 S99
T1 S104
T22 S784
T13 S1361
S1886
T1 S1311
T4 S1316
T14 S1882
T22 S1887
S1887
T1 S167
T4 S172
T14 S1883
T22 S1888
T24 S1889
S1888
T1 S764
T4 S769
T14 S782
T24 S974
S1889
T1 S509
T4 S514
T22 S974
T14 S1884
T23 S1890
S1890
T1 S88
T4 S93
T22 S975
T14 S1885
S1891
T5 S163
T12 S173
T22 S1892
T24 S1898
S1892
T12 S770
T5 S1220
T24 S1893
S1893
T5 S239
T12 S249
T23 S1894
T24 S1897
S1894
T12 S566
T15 S1072
T5 S1186
T24 S1895
S1895
T12 S983
T15 S1019
T5 S1187
T23 S1896
S1896
T12 S624
T15 S1020
T5 S1188
S1897
T5 S1194
T12 S1204
T23 S1895
S1898
T5 S505
T12 S515
T22 S1893
T23 S1899
S1899
T5 S84
T12 S94
T15 S1412
T22 S1894
S1900
T1 S1306
T12 S1316
T5 S1901
T22 S1902
S1901
T22 S1216
T1 S1307
T12 S1441
S1902
T12 S172
T5 S1216
T1 S1891
T22 S1903
T24 S1909
S1903
T12 S769
T5 S1219
T1 S1892
T24 S1904
S1904
T12 S248
T5 S1189
T1 S1893
T23 S1905
T24 S1908
S1905
T12 S565
T5 S1190
T15 S1575
T1 S1894
T24 S1906
S1906
T12 S982
T5 S1191
T15 S1576
T1 S1895
T23 S1907
S1907
T12 S623
T5 S1192
T15 S1664
T1 S1896
S1908
T5 S1193
T12 S1203
T1 S1897
T23 S1906
S1909
T12 S514
T5 S553
T1 S1898
T22 S1904
T23 S1910
S1910
T12 S93
T5 S1288
T15 S1672
T1 S1899
T22 S1905
S1911
T12 S1315
T5 S1900
T22 S1912
S1912
T12 S171
T5 S1902
T22 S1913
T24 S1919
S1913
T12 S768
T5 S1903
T24 S1914
S1914
T12 S247
T5 S1904
T23 S1915
T24 S1918
S1915
T12 S564
T15 S1735
T5 S1905
T24 S1916
S1916
T12 S981
T15 S1736
T5 S1906
T23 S1917
S1917
T12 S622
T15 S1824
T5 S1907
S1918
T12 S1202
T5 S1908
T23 S1916
S1919
T12 S513
T5 S1909
T22 S1914
T23 S1920
S1920
T12 S92
T15 S1832
T5 S1910
T22 S1915
S1921
T1 S291
T15 S1177
T20 S1282
T10 S1922
T23 S1924
S1922
T1 S50
T15 S1178
T11 S1191
T20 S1222
T23 S1923
S1923
T1 S61
T15 S646
T11 S1192
T20 S1223
S1924
T1 S302
T15 S645
T20 S1283
T10 S1923
S1925
T1 S28
T23 S1921
T10 S1926
S1926
T1 S39
T11 S1193
T23 S1922
S1927
T21 S511
T5 S987
T14 S1928
T23 S1936
S1928
T21 S517
T5 S796
T13 S1929
T23 S1935
S1929
T21 S528
T5 S797
T9 S1930
T23 S1934
S1930
T5 S493
T21 S539
T10 S1931
T23 S1933
S1931
T5 S494
T21 S499
T23 S1932
S1932
T5 S73
T21 S78
T15 S996
S1933
T21 S118
T5 S310
T15 S1000
T10 S1932
S1934
T21 S107
T5 S612
T15 S1004
T9 S1933
S1935
T21 S96
T5 S637
T15 S1008
T13 S1934
S1936
T21 S90
T5 S988
T15 S1012
T14 S1935
S1937
T1 S618
T4 S623
T14 S636
S1938
T1 S889
T4 S894
T14 S907
T19 S975
S1939
T21 S1234
T19 S1480
T14 S1940
S1940
T21 S430
T19 S1481
T13 S1941
S1941
T9 S1280
T19 S1471
T21 S1493
S1942
T8 S914
T19 S1446
T1 S1943
S1943
T8 S841
T19 S1372
S1944
T19 S1479
T21 S1499
T8 S1939
S1945
T21 S429
T19 S1687
T5 S1940
T13 S1946
S1946
T21 S440
T19 S1688
T5 S1941
T9 S1947
S1947
T21 S451
T5 S1280
T19 S1689
T10 S1948
S1948
T21 S411
T5 S1279
T19 S1690
S1949
T21 S428
T19 S1846
T5 S1945
T13 S1950
S1950
T21 S439
T19 S1847
T5 S1946
T9 S1951
S1951
T21 S450
T19 S1848
T5 S1947
T10 S1952
S1952
T21 S410
T19 S1849
T5 S1948
S1953
T21 S426
T5 S908
T13 S1954
T19 S1960
S1954
T21 S437
T5 S882
T9 S1955
T19 S1959
S1955
T21 S448
T5 S491
T10 S1956
T19 S1958
S1956
T5 S403
T21 S408
T19 S1957
S1957
T5 S152
T21 S157
T24 S1931
S1958
T21 S197
T5 S492
T24 S1930
T10 S1957
S1959
T21 S186
T5 S883
T24 S1929
T9 S1958
S1960
T21 S175
T5 S909
T24 S1928
T13 S1959
S1961
T21 S423
T19 S1686
T5 S1939
T14 S1945
S1962
T21 S422
T19 S1845
T14 S1949
T5 S1961
S1963
T21 S420
T14 S1953
T5 S1964
T19 S1966
S1964
T21 S416
T14 S908
T19 S1965
S1965
T21 S165
T14 S909
T24 S987
S1966
T21 S169
T24 S1927
T14 S1960
T5 S1965
S1967
T5 S884
T19 S1432
T2 S1968
T7 S1969
S1968
T5 S881
T19 S1387
S1969
T5 S885
T8 S895
T19 S1397
T15 S1970
S1970
T8 S1045
T19 S1398
T5 S1943
S1971
T5 S911
T19 S1717
T1 S1967
T7 S1972
S1972
T8 S894
T5 S912
T19 S1568
T1 S1969
T15 S1973
T20 S1974
S1973
T19 S1569
T8 S1593
T5 S1942
T1 S1970
S1974
T19 S1685
T5 S1944
T8 S1961
T21 S1975
S1975
T8 S423
T5 S1499
T19 S1565
T1 S1976
T22 S1979
S1976
T8 S424
T19 S1394
T5 S1498
T22 S1977
S1977
T8 S713
T19 S1395
T5 S1460
T24 S1978
S1978
T5 S961
T8 S971
T19 S1396
T23 S1969
S1979
T8 S712
T5 S1461
T19 S1566
T1 S1977
T24 S1980
S1980
T8 S970
T5 S1462
T19 S1567
T23 S1972
T1 S1978
S1981
T19 S1876
T5 S1971
T7 S1982
S1982
T8 S893
T19 S1728
T5 S1972
T15 S1983
T20 S1984
S1983
T19 S1729
T8 S1753
T5 S1973
S1984
T19 S1844
T8 S1962
T5 S1974
T21 S1985
S1985
T8 S422
T19 S1725
T5 S1975
T22 S1986
S1986
T8 S711
T19 S1726
T5 S1979
T24 S1987
S1987
T8 S969
T19 S1727
T5 S1980
T23 S1982
S1988
T5 S958
T19 S1431
T23 S1967
T7 S1978
T2 S1989
S1989
T5 S959
T19 S1386
T23 S1968
S1990
T5 S957
T19 S1716
T23 S1971
T7 S1980
T1 S1988
S1991
T19 S1875
T23 S1981
T7 S1987
T5 S1990
S1992
T9 S466
T4 S729
T1 S734
T19 S749
T24 S868
S1993
T19 S1430
T5 S1457
T7 S1977
T24 S1988
T2 S1994
S1994
T19 S1385
T5 S1458
T24 S1989
S1995
T5 S1456
T19 S1715
T7 S1979
T24 S1990
T1 S1993
S1996
T19 S1874
T7 S1986
T24 S1991
T5 S1995
S1997
T4 S718
T1 S723
T19 S782
T24 S954
T13 S1992
S1998
T1 S707
T4 S712
T24 S973
T19 S1888
T14 S1997
S1999
T4 S682
T1 S687
T9 S698
T19 S1992
S2000
T5 S1522
T19 S1993
T2 S2001
T7 S2002
S2001
T5 S1523
T19 S1994
S2002
T8 S666
T5 S1525
T19 S1977
S2003
T5 S1521
T19 S1995
T1 S2000
T7 S2004
S2004
T8 S665
T5 S1526
T19 S1979
T1 S2002
S2005
T19 S1996
T5 S2003
T7 S2006
S2006
T8 S664
T19 S1986
T5 S2004
S2007
T4 S671
T1 S676
T19 S1997
T13 S1999
S2008
T1 S660
T4 S665
T19 S1998
T14 S2007
S2009
T1 S446
T4 S451
T22 S466
T19 S1352
T10 S2010
S2010
T22 S370
T1 S406
T4 S411
T19 S1351
S2011
T4 S440
T1 S445
T19 S1359
T22 S1992
T9 S2009
S2012
T19 S1429
T5 S1495
T7 S1976
T22 S1993
T2 S2013
S2013
T19 S1384
T5 S1496
T22 S1994
S2014
T5 S1494
T19 S1714
T7 S1975
T22 S1995
T1 S2012
S2015
T19 S1873
T7 S1985
T22 S1996
T5 S2014
S2016
T4 S429
T1 S434
T19 S1883
T22 S1997
T13 S2011
S2017
T1 S418
T4 S423
T19 S1887
T22 S1998
T14 S2016
S2018
T5 S414
T12 S424
T19 S1891
T22 S2019
S2019
T5 S703
T12 S713
T19 S1892
T24 S2020
S2020
T12 S971
T5 S1184
T19 S1893
T23 S2021
S2021
T12 S895
T15 S1044
T5 S1185
T19 S1894
S2022
T12 S423
T5 S1233
T19 S1902
T1 S2018
T22 S2023
S2023
T5 S702
T12 S712
T19 S1903
T1 S2019
T24 S2024
S2024
T12 S970
T5 S1183
T19 S1904
T1 S2020
T23 S2025
S2025
T12 S894
T5 S1208
T15 S1592
T19 S1905
T1 S2021
S2026
T12 S422
T19 S1912
T5 S2022
T22 S2027
S2027
T12 S711
T19 S1913
T5 S2023
T24 S2028
S2028
T12 S969
T19 S1914
T5 S2024
T23 S2029
S2029
T12 S893
T15 S1752
T19 S1915
T5 S2025
S2030
T5 S656
T12 S666
T19 S2019
S2031
T5 S655
T12 S665
T19 S2023
T1 S2030
S2032
T12 S664
T19 S2027
T5 S2031
S2033
T22 S492
T21 S1347
T10 S2034
S2034
T22 S152
T21 S1297
S2035
T21 S1341
T22 S1958
T5 S2033
T10 S2036
S2036
T21 S1301
T22 S1957
T5 S2034
S2037
T22 S883
T21 S1336
T9 S2033
S2038
T21 S1330
T22 S1959
T9 S2035
T5 S2037
S2039
T22 S909
T21 S1325
T13 S2037
S2040
T21 S1319
T22 S1960
T13 S2038
T5 S2039
S2041
T21 S1313
T22 S1966
T14 S2040
T5 S2042
S2042
T21 S1309
T22 S1965
T14 S2039
