 Minimal siphons 
2 7 11 25
11 14
1 7 10 15 24
10 13
7 8
9 12
1 5 9 29
1 32 5 6
1 5 9 27
5 6 7 9 10 11 15 16 17 18 19 20 21 22
2 6 31
2 3
1 2 4
2 6 30
2 7 10 15 19 24 28
2 7 9 15 19 28
2 7 9 15 19 26
2 7 10 23
2 7 10 15 24 31
2 7 10 15 24 30
2 7 10 15 19 24 26
 Minimal traps 
1 5 9 29
2 6 31
9 12
10 13
7 8
11 14
5 6 7 9 10 11 15 16 17 18 19 20 21 22
2 7 9 15 19 28
2 3
2 7 10 23
2 7 11 25
2 7 9 15 19 26
2 6 30
1 6 9 15 19 24 28 31
1 7 9 15 19 24 28
1 2 4
1 2 3
1 7 10 15 24
1 7 9 15 19 24 26
1 6 10 15 24 31
1 6 10 15 24 30
1 6 9 15 19 24 26 31
1 6 9 15 19 24 26 30
1 6 9 15 19 24 28 30
1 32 5 6
1 5 9 27
 Analysis time: 1.59s