19/07/2021 17:11:21[DEBUG] pflow_file:  ../analysis/analisis_11_18072021/gen_nets/20210719-151114_33/net.pflow  
19/07/2021 17:11:21[DEBUG] output_folder:  ../analysis/analisis_11_18072021/gen_nets/20210719-151114_33/  
19/07/2021 17:11:21[DEBUG] html_path:  ../analysis/analisis_11_18072021/gen_nets/20210719-151114_33/  
19/07/2021 17:11:21[DEBUG] txt_path:  ../analysis/analisis_11_18072021/gen_nets/20210719-151114_33/txt_info  

--------------------------------------------------------------------------   
19/07/2021 17:11:21[INFO] Ejecutando petrinator para conocer estado de la red...   
--------------------------------------------------------------------------
   
19/07/2021 17:11:24[ERROR] La red ingresada no tiene deadlock, cerrando analisis 
  
