 Minimal siphons 
19 20
2 5 10 14 18 25 26 31
1 5 8 14 18 31
18 21
17 22
5 6
1 4 28
1 4 10 11 24
1 4 10 13 17 26
1 4 5 28
1 33 4 5 7 15
1 4 5 10 11 24
1 5 6 28
1 33 5 6 7 15
1 5 6 10 11 24
1 5 8 30
1 4 5 7 8 15 28
1 33 4 5 7 8 15
1 34 4 5 7 8 9 11 12 13 15
1 4 5 7 8 10 11 15 24
1 4 5 7 8 9 10 15 28
1 33 4 5 7 8 9 10 15
1 4 5 7 8 9 10 11 15 28
1 33 4 5 7 8 9 10 11 15
1 5 6 7 8 15 28
1 33 5 6 7 8 15
1 34 5 6 7 8 9 11 12 13 15
1 5 6 7 8 10 11 15 24
1 5 6 7 8 9 10 15 28
1 33 5 6 7 8 9 10 15
1 5 6 7 8 9 10 11 15 28
1 33 5 6 7 8 9 10 11 15
1 5 8 11 12 13 14 15 30
1 5 6 7 8 11 12 13 14 15 28
1 4 5 7 8 11 12 13 14 15 28
1 33 4 5 7 8 11 12 13 14 15
1 34 4 5 7 8 9 11 12 13 14 15
1 33 5 6 7 8 11 12 13 14 15
1 34 5 6 7 8 9 11 12 13 14 15
2 4 7 14 27
1 2 3
1 2 4 28
1 2 4 10 11 24
2 5 9 14 25
2 5 8 11 14 18 29 31
2 5 7 11 29
1 2 5 6 28
1 2 4 5 28
1 2 3 5 6
2 5 6 7 14 27
2 4 5 7 14 27
1 2 4 5 7 15 28
1 33 2 4 5 7 15
1 2 5 6 7 15 28
1 33 2 5 6 7 15
1 2 3 5 6 7 15
2 5 6 7 11 14 15 27
2 4 5 7 11 14 15 27
1 2 4 5 7 11 15 28
1 33 2 4 5 7 11 15
1 2 4 5 7 11 12 13 14 15 28
1 33 2 4 5 7 11 12 13 14 15
1 2 5 6 7 11 15 28
1 33 2 5 6 7 11 15
1 2 3 5 6 7 11 15
1 2 5 6 7 11 12 13 14 15 28
1 33 2 5 6 7 11 12 13 14 15
1 2 3 5 6 7 11 12 13 14 15
2 5 8 32
2 5 8 14 18 27 31
1 2 5 8 30
1 2 5 6 7 8 15 28
1 2 4 5 7 8 15 28
1 33 2 4 5 7 8 15
1 33 2 5 6 7 8 15
1 2 3 5 6 7 8 15
2 5 8 14 27 30
2 5 6 7 8 14 27
2 4 5 7 8 14 27
2 5 8 11 29 32
2 5 8 11 15 32
1 2 5 8 11 15 30
1 2 5 6 7 8 11 15 28
1 2 4 5 7 8 11 15 28
1 33 2 4 5 7 8 11 15
1 33 2 5 6 7 8 11 15
1 2 3 5 6 7 8 11 15
2 5 8 11 29 30
2 5 7 8 11 29
2 5 8 11 14 27 29 32
2 5 8 11 12 13 14 29 32
2 5 8 11 12 13 14 15 32
1 2 5 8 11 12 13 14 15 30
1 2 5 6 7 8 11 12 13 14 15 28
1 2 4 5 7 8 11 12 13 14 15 28
1 33 2 4 5 7 8 11 12 13 14 15
1 33 2 5 6 7 8 11 12 13 14 15
1 2 3 5 6 7 8 11 12 13 14 15
2 5 8 11 12 13 14 29 30
2 5 7 8 11 12 13 14 29
2 5 8 11 14 15 27 32
2 5 8 11 14 15 27 30
2 5 6 7 8 11 14 15 27
2 4 5 7 8 11 14 15 27
2 5 8 11 14 27 29 30
2 5 7 8 11 14 27 29
2 5 8 9 32
2 5 8 9 11 29 30
1 2 5 8 9 30
1 2 5 6 7 8 9 15 28
1 2 4 5 7 8 9 15 28
1 33 2 4 5 7 8 9 15
1 33 2 5 6 7 8 9 15
1 2 3 5 6 7 8 9 15
1 2 5 8 9 11 15 30
1 2 5 6 7 8 9 11 15 28
1 2 4 5 7 8 9 11 15 28
1 33 2 4 5 7 8 9 11 15
1 34 2 4 5 7 8 9 11 12 13 15
1 33 2 5 6 7 8 9 11 15
1 34 2 5 6 7 8 9 11 12 13 15
1 2 3 5 6 7 8 9 11 15
2 5 7 8 9 11 29
2 5 8 9 14 27 32
2 5 8 9 14 27 30
2 5 6 7 8 9 14 27
2 4 5 7 8 9 14 27
2 5 8 9 11 14 27 29 32
2 5 8 9 11 12 13 14 29 32
2 5 8 9 11 12 13 14 15 32
1 2 5 8 9 11 12 13 14 15 30
1 2 5 6 7 8 9 11 12 13 14 15 28
1 2 4 5 7 8 9 11 12 13 14 15 28
1 33 2 4 5 7 8 9 11 12 13 14 15
1 34 2 4 5 7 8 9 11 12 13 14 15
1 33 2 5 6 7 8 9 11 12 13 14 15
1 34 2 5 6 7 8 9 11 12 13 14 15
1 2 3 5 6 7 8 9 11 12 13 14 15
2 5 8 9 11 12 13 14 29 30
2 5 7 8 9 11 12 13 14 29
2 5 8 9 11 14 15 27 32
2 5 8 9 11 14 15 27 30
2 5 6 7 8 9 11 14 15 27
2 4 5 7 8 9 11 14 15 27
2 5 8 9 11 14 27 29 30
2 5 7 8 9 11 14 27 29
1 2 4 5 10 11 24
1 2 5 6 10 11 24
2 5 7 10 11 24 29
1 2 5 6 7 10 11 15 24
1 2 4 5 7 10 11 15 24
2 5 8 10 11 24 32
2 5 8 9 10 32
1 2 5 8 9 10 30
1 2 5 6 7 8 9 10 15 28
1 2 4 5 7 8 9 10 15 28
1 33 2 4 5 7 8 9 10 15
1 33 2 5 6 7 8 9 10 15
1 2 3 5 6 7 8 9 10 15
2 5 8 9 10 11 29 32
2 5 8 9 10 11 15 32
1 2 5 8 9 10 11 15 30
1 2 5 6 7 8 9 10 11 15 28
1 2 4 5 7 8 9 10 11 15 28
1 33 2 4 5 7 8 9 10 11 15
1 33 2 5 6 7 8 9 10 11 15
1 2 3 5 6 7 8 9 10 11 15
2 5 8 9 10 11 29 30
2 5 7 8 9 10 11 29
2 5 8 10 11 24 29 30
1 2 5 8 10 11 24 30
1 2 5 6 7 8 10 11 15 24
1 2 4 5 7 8 10 11 15 24
2 5 7 8 10 11 24 29
2 5 10 14 17 25 26
2 5 10 11 14 24 25
4 5 7 8 9 10 11 12 13 14 15 16 17 18 19 23
 Minimal traps 
1 4 7 11 13 17 25 26 29 32
17 22
18 21
2 4 7 14 27
5 6
19 20
2 5 7 11 29
2 5 8 32
2 5 9 14 25
2 5 8 9 14 25
2 5 7 8 32
2 5 7 8 9 14 25
2 5 7 8 11 12 13 14 25 32
2 5 7 8 9 11 12 13 14 25
4 5 7 8 9 10 11 12 13 14 15 16 17 18 19 23
1 2 3
1 2 5 9 14 25
1 2 3 5 6
1 5 8 30
1 2 5 8 32
1 5 8 14 18 31
1 5 8 14 25 30
1 2 5 8 14 25 32
1 2 5 8 9 14 25
1 5 7 8 30
1 2 5 7 8 32
1 5 7 8 14 25 30
1 2 5 7 8 14 25 32
1 2 5 7 8 9 14 25
1 5 7 11 29 30
1 2 5 7 11 29
1 5 7 11 14 18 29 31
1 5 7 11 14 25 29 30
1 5 7 8 11 12 13 14 25 30
1 2 5 7 8 11 12 13 14 25 32
1 2 5 7 8 9 11 12 13 14 25
1 2 5 7 11 14 25 29 32
1 2 5 7 9 11 14 25 29
1 4 8 13 17 25 26 32
1 33 4 13 17 25 26 32
1 4 9 13 17 25 26
1 4 10 13 17 26
1 34 4 13 17 26
1 4 28
1 2 3 4 5 6
1 34 4 11 24
1 34 4 28
1 34 4 5 6
1 34 4 11 13 24
1 34 4 13 28
1 34 4 5 6 13
1 34 4 11 12 13 28
1 34 4 5 6 11 12 13
1 4 10 11 24
1 34 4 10 11 13 24
1 4 9 11 14 24 25
1 4 9 14 25 28
1 34 4 9 28
1 34 4 5 9 25
1 34 4 5 6 9
1 2 4 5 9 14 25
1 34 4 5 9 14 25
1 34 4 9 11 24
1 4 9 10 11 24
1 4 9 11 13 14 24 25
1 4 9 13 14 25 28
1 34 4 9 13 28
1 34 4 5 9 13 25
1 34 4 5 6 9 13
1 2 4 5 9 13 14 25
1 34 4 5 9 13 14 25
1 34 4 9 11 13 24
1 34 4 9 11 12 13 28
1 34 4 5 9 11 12 13 25
1 34 4 5 6 9 11 12 13
1 4 9 11 12 13 14 25 28
1 2 4 5 9 11 12 13 14 25
1 34 4 5 9 11 12 13 14 25
1 33 4 28
1 33 4 14 24 25 32
1 34 33 4 24
1 33 4 10 24
1 33 4 5 32
1 33 4 5 30
1 33 4 5 6
1 34 33 4 5 32
1 34 33 4 5 18 31
1 33 4 5 14 18 31
1 33 4 5 9 14 25
1 33 4 5 9 14 18 19 23 25
1 33 4 5 9 14 17 18 19 23 25
1 33 4 14 18 24 25 31
1 33 4 14 24 25 30
1 33 4 9 14 24 25
1 33 4 9 14 18 19 23 24 25
1 33 4 9 14 17 18 19 23 24 25
1 33 4 5 9 13 14 25
1 33 4 9 13 14 24 25
1 33 4 9 13 14 25 28
1 33 4 5 9 13 14 18 19 23 25
1 33 4 9 13 14 18 19 23 24 25
1 33 4 9 13 14 18 19 23 25 28
1 34 33 4 5 13 17 18 31
1 34 33 4 10 13 17 18 24 31
1 34 33 4 10 13 17 18 19 23 24
1 34 33 4 9 13 17 18 19 23 24 25
1 34 33 4 9 13 17 18 19 23 25 28
1 33 4 5 9 13 14 17 18 19 23 25
1 33 4 9 13 14 17 18 19 23 24 25
1 33 4 9 13 14 17 18 19 23 25 28
1 33 4 13 17 25 26 31
1 33 4 13 17 25 26 30
1 4 8 11 14 24 25 32
1 4 8 28 32
1 34 33 4 8 24 32
1 33 4 8 10 24 32
1 4 5 8 30
1 2 4 5 8 32
1 33 4 5 8 32
1 33 4 5 8 30
1 33 4 5 8 10 16 17 18 19 23 32
1 33 4 8 10 24 30
1 33 4 8 9 10 24
1 34 4 5 8 32
1 34 4 5 8 18 31
1 34 33 4 5 8 32
1 4 8 28 30
1 33 4 8 9 10 24 28
1 33 4 5 8 14 25 32
1 33 4 5 8 9 14 25
1 33 4 5 8 14 18 19 23 25 32
1 33 4 5 8 9 14 18 19 23 25
1 33 4 5 8 14 17 18 19 23 25 32
1 33 4 5 8 14 16 17 18 19 23 32
1 33 4 5 8 9 14 17 18 19 23 25
1 4 8 14 16 17 18 19 23 28 32
1 4 8 14 16 17 18 19 23 28 30
1 4 8 9 10 14 16 17 18 19 23 28
1 34 4 8 11 24 32
1 4 8 10 11 24 32
1 4 8 10 11 24 30
1 4 8 9 10 11 24
1 4 8 11 14 18 24 25 31
1 4 8 11 14 24 25 30
1 34 4 5 8 13 32
1 34 33 4 5 8 13 32
1 34 4 5 8 13 18 19 23 32
1 34 33 4 5 8 13 18 19 23 32
1 33 4 5 8 13 14 25 32
1 33 4 5 8 9 13 14 25
1 33 4 5 8 13 14 18 19 23 25 32
1 33 4 5 8 9 13 14 18 19 23 25
1 34 4 5 8 11 12 13 32
1 34 4 5 8 11 12 13 18 19 23 32
1 34 4 5 8 13 17 18 31
1 34 4 5 8 13 17 18 19 23 32
1 34 33 4 5 8 13 17 18 31
1 34 33 4 5 8 13 17 18 19 23 32
1 34 4 5 8 11 12 13 17 18 31
1 34 4 5 8 11 12 13 17 18 19 23 32
1 34 4 5 8 10 13 16 17 18 19 23 32
1 34 33 4 8 10 13 17 18 24 31
1 34 33 4 5 8 10 13 16 17 18 19 23 32
1 34 33 4 8 10 13 17 18 19 23 24 32
1 34 33 4 8 10 13 17 18 19 23 24 30
1 34 33 4 8 9 10 13 17 18 19 23 24
1 33 4 5 8 10 13 14 16 17 18 19 23 32
1 34 4 5 8 10 11 12 13 16 17 18 19 23 32
1 34 4 5 8 13 17 18 19 23 25 32
1 34 33 4 5 8 13 17 18 19 23 25 32
1 33 4 5 8 13 14 17 18 19 23 25 32
1 33 4 5 8 9 13 14 17 18 19 23 25
1 34 4 5 8 11 12 13 17 18 19 23 25 32
1 4 8 13 17 25 26 31
1 4 8 13 17 25 26 30
1 4 7 13 17 25 26 27 32
1 34 4 7 27
1 4 7 8 28 32
1 4 5 7 8 30
1 2 4 5 7 8 32
1 4 7 8 28 30
1 34 4 7 8 28 32
1 34 4 5 7 8 32
1 4 7 14 18 27 31
1 4 7 14 27 30
1 34 4 5 7 8 13 32
1 34 4 5 7 8 13 18 19 23 32
1 34 4 7 13 17 18 27 31
1 34 4 5 7 8 13 17 18 31
1 34 4 5 7 8 13 17 18 19 23 32
1 34 4 7 13 17 18 19 23 27
1 34 4 5 7 8 10 13 16 17 18 19 23 32
1 34 4 5 7 8 13 17 18 19 23 25 32
1 4 7 13 17 25 26 27 31
1 4 7 13 17 25 26 27 30
1 33 4 7 28
1 33 4 7 14 27
1 34 33 4 7 27
1 33 4 7 10 24
1 33 4 5 7 32
1 33 4 5 7 30
1 33 4 5 7 29
1 33 4 5 7 15
1 33 4 5 6 7
1 34 33 4 7 24
1 34 33 4 5 7 32
1 33 4 7 14 24 25 32
1 33 4 7 13 14 27
1 33 4 7 13 14 18 19 23 27
1 33 4 7 13 14 18 19 23 27 28
1 33 4 7 13 14 17 18 19 23 27
1 33 4 7 13 14 17 18 19 23 27 28
1 34 33 4 5 7 13 17 18 31
1 34 33 4 7 10 13 17 18 24 31
1 34 33 4 7 10 13 17 18 19 23 24
1 33 4 7 10 13 14 16 17 18 19 23 27
1 33 4 7 10 13 14 16 17 18 19 23 28
1 34 33 4 5 7 9 13 17 18 19 23 25
1 33 4 7 13 14 17 18 19 23 25 27 32
1 33 4 7 13 14 17 18 19 23 25 28 32
1 33 4 7 13 14 17 18 19 23 25 28 30
1 4 7 11 28 29
1 34 4 7 11 27 29
1 4 7 10 11 24 29
1 4 5 7 11 29 30
1 2 4 5 7 11 29
1 33 4 5 7 11 29
1 33 4 5 7 10 11 16 17 18 19 23 29
1 4 7 8 10 11 24 32
1 33 4 7 10 11 24
1 4 7 8 10 11 24 30
1 4 7 8 9 10 11 24
1 34 4 7 11 24 29
1 34 4 5 7 11 29
1 34 4 7 8 11 24 32
1 34 33 4 7 11 24
1 34 4 7 11 24 27
1 4 7 11 14 24 25 29 32
1 4 7 11 14 24 25 29 30
1 4 7 11 14 24 25 27 32
1 4 7 11 14 18 24 25 29 31
1 33 4 5 7 11 14 16 17 18 19 23 29
1 4 7 11 14 24 25 27 28 32
1 34 4 7 11 24 27 28
1 4 7 8 10 11 24 28 32
1 33 4 7 10 11 24 28
1 4 7 8 10 11 24 28 30
1 4 7 8 9 10 11 24 28
1 34 4 7 8 11 24 28 32
1 34 33 4 7 11 24 28
1 4 7 10 11 14 24 27 28
1 34 4 7 11 14 24 27 28
1 4 7 8 11 14 24 25 28 32
1 33 4 7 11 14 24 25 28 32
1 34 4 5 7 8 11 12 13 32
1 34 4 5 7 8 9 11 12 13 15
1 34 4 5 7 8 11 12 13 18 19 23 32
1 4 7 11 12 13 14 18 19 23 27 28
1 4 7 11 13 14 18 19 23 27 28 29
1 33 4 5 7 11 13 14 16 17 18 19 23 29
1 4 7 11 12 13 14 17 18 19 23 27 28
1 4 7 11 13 14 17 18 19 23 27 28 29
1 34 4 5 7 11 13 17 18 29 31
1 34 4 5 7 8 11 12 13 17 18 31
1 34 33 4 5 7 11 12 13 17 18 31
1 34 4 5 7 8 11 12 13 17 18 19 23 32
1 34 4 5 7 11 13 17 18 19 23 29
1 34 4 7 11 12 13 17 18 27 31
1 34 4 7 11 12 13 17 18 19 23 27
1 34 4 7 11 12 13 17 18 27 28 31
1 34 4 7 11 12 13 17 18 19 23 27 28
1 34 4 7 10 11 13 17 18 24 29 31
1 34 4 5 7 8 10 11 12 13 16 17 18 19 23 32
1 34 4 5 7 10 11 13 16 17 18 19 23 29
1 34 33 4 7 10 11 13 17 18 24 31
1 34 33 4 7 10 11 13 17 18 19 23 24
1 34 4 7 10 11 13 17 18 19 23 24 29
1 33 4 5 7 10 11 13 14 16 17 18 19 23 29
1 4 7 10 11 12 13 14 16 17 18 19 23 27 28
1 4 7 10 11 13 14 16 17 18 19 23 28 29
1 34 4 5 7 8 11 12 13 17 18 19 23 25 32
1 34 4 5 7 11 13 17 18 19 23 25 29 32
1 4 7 11 12 13 14 17 18 19 23 25 27 28 32
1 4 7 11 13 14 17 18 19 23 25 28 29 32
1 4 7 11 13 14 17 18 19 23 25 28 29 30
1 4 7 11 13 17 25 26 29 31
1 4 7 11 13 17 25 26 29 30
 Analysis time: 8.73s