 Minimal siphons 
4 7 14 18 27 28 29 31
3 7 14 18 25 27 28 29 30
2 7 14 18 22 25 27 30
1 7 14 18 22 27 30
7 14 18 22 24 27
6 18 28
13 18 22
12 15
13 16
12 13 14 17 18 19 20 21
6 14 27
33 6 17
6 8
32 6 12 13
6 18 26
33 6 17 18
7 12 24
7 18 23 28
7 17 23
7 18 23 26
7 12 13 24
7 14 16 24 27
7 14 18 22 23 27
6 7 14 18 22 27
1 7 12 18 28 30
1 7 12 17 30
1 7 12 18 26 30
1 7 14 16 17 27 30
1 7 14 16 18 27 28 30
1 7 14 16 18 26 27 30
2 17 25
2 6 8 17 25
33 2 6 17 25
1 37 2 6 12 13
33 2 6 17 18 25
2 6 8 17 18 25
2 7 12 18 25 28 30
2 7 12 18 25 26 30
2 7 14 16 18 25 27 28 30
2 7 14 16 18 25 26 27 30
1 37 2 7 14 18 22 23 27
1 37 2 6 7 14 18 22 27
2 7 14 18 22 23 25 27
2 6 7 14 18 22 25 27
3 5
2 3 17 25
36 3 12
3 13 17 29
3 5 6 18 28
2 3 6 18 25 28
2 3 6 8 17 25
33 2 3 6 17 25
2 3 6 18 25 26
2 3 6 8 17 18 25
33 2 3 6 17 18 25
3 5 6 8
33 3 5 6 17
3 5 6 18 26
3 5 6 8 17 18 25
33 3 5 6 17 18
33 3 5 6 8 17 18
33 32 3 5 6 12 13 17
33 32 3 5 6 12 13 17 18
1 37 36 3 6 12 13 14
33 32 3 5 6 12 13 14 17
33 32 3 5 6 12 13 14 17 18
3 7 13 18 25 28 29 30
1 37 36 3 6 7 12 13
33 32 3 5 6 7 12 13 17
1 37 33 3 5 6 7 12 13 17
1 37 3 6 7 13 17 29
1 3 7 13 18 28 29 30
3 7 13 18 24 28 29
33 32 3 5 6 7 12 13 17 18
3 7 13 18 24 26 29
1 3 7 13 18 26 29 30
1 37 33 3 5 6 7 12 13 17 18
1 37 3 6 7 13 17 18 29
1 37 3 5 7 12 13 18 23 26
1 37 3 5 6 7 12 13 18 26
1 37 3 5 7 12 13 18 23 28
1 37 3 5 6 7 12 13 18 28
3 7 13 18 25 26 29 30
3 7 14 17 25 27 29 30
1 37 36 3 6 7 12 13 14
1 3 7 14 17 27 29 30
3 7 14 17 24 27 29
33 32 3 5 6 7 12 13 14 17
1 37 33 3 5 6 7 12 13 14 17
1 37 3 6 7 13 14 17 29
1 37 33 3 5 6 7 12 14 17 27
36 3 7 14 16 17 25 27 30
1 3 7 14 18 27 28 29 30
3 7 14 18 24 27 28 29
33 32 3 5 6 7 12 13 14 17 18
3 7 14 18 24 26 27 29
1 37 33 3 5 6 7 12 13 14 17 18
1 37 3 6 7 13 14 17 18 29
1 3 7 14 18 26 27 29 30
1 37 33 3 5 6 7 12 14 17 18 27
3 7 14 18 25 26 27 29 30
3 7 14 18 22 25 27 29 30
36 3 7 14 18 22 25 27 30
36 3 7 14 16 18 25 26 27 30
36 3 7 14 16 18 25 27 28 30
3 4 5
2 3 4 17 25
3 4 5 6 18 28
2 3 4 6 18 25 28
2 3 4 6 8 17 25
33 2 3 4 6 17 25
2 3 4 6 18 25 26
2 3 4 6 8 17 18 25
33 2 3 4 6 17 18 25
3 4 5 6 8
33 3 4 5 6 17
3 4 5 6 18 26
3 4 5 6 8 17 18 25
33 3 4 5 6 17 18
33 3 4 5 6 8 17 18
33 32 3 4 5 6 12 13 17
33 32 3 4 5 6 12 13 17 18
1 37 36 3 4 6 12 13 14
33 32 3 4 5 6 12 13 14 17
33 32 3 4 5 6 12 13 14 17 18
4 7 13 18 28 29 31
4 7 12 18 28 31
1 2 3 4 6 7 9 10 11
4 7 12 17 31
4 7 12 18 26 31
4 7 13 17 29 31
1 37 36 3 4 6 7 12 13
1 37 33 3 4 5 6 7 12 13 17
1 37 3 4 6 7 13 17 29
4 7 13 18 26 29 31
1 37 33 3 4 5 6 7 12 13 17 18
1 37 3 4 6 7 13 17 18 29
1 37 3 4 5 7 12 13 18 23 26
1 37 3 4 5 6 7 12 13 18 26
1 37 3 4 5 7 12 13 18 23 28
1 37 3 4 5 6 7 12 13 18 28
4 7 14 17 27 29 31
1 37 36 3 4 6 7 12 13 14
1 37 33 3 4 5 6 7 12 13 14 17
1 37 3 4 6 7 13 14 17 29
4 7 14 16 17 27 31
1 37 33 3 4 5 6 7 12 14 17 27
1 37 33 3 4 5 6 7 12 13 14 17 18
1 37 3 4 6 7 13 14 17 18 29
4 7 14 18 26 27 29 31
4 7 14 18 22 27 31
1 37 33 3 4 5 6 7 12 14 17 18 27
4 7 14 16 18 26 27 31
4 7 14 16 18 27 28 31
 Minimal traps 
1 6 12 17 28 30
2 17 25
3 6 12 17 28 29 31
4 6 12 17 28 31
6 17 23 28
7 17 23
12 15
13 18 22
13 16
12 13 14 17 18 19 20 21
7 12 24
6 18 28
6 12 16 24 27
6 14 27
6 8
32 6 12 24
32 6 12 13
6 12 18 22 24 27
6 18 26
33 6 17
6 12 17 22 23 24 27
6 13 17 22 23 27
6 17 23 26
4 7 12 17 31
4 6 12 17 22 27 31
4 6 12 16 17 27 31
32 4 6 12 17 31
4 6 12 17 26 31
3 7 12 17 29 31
3 13 17 29
3 5
36 3 12
3 6 12 17 27 29 31
3 6 12 17 26 29 31
32 3 6 12 17 29 31
3 6 12 17 24 26 29
3 6 12 17 24 27 29
3 6 12 17 24 28 29
2 3 5
36 2 3 12
1 7 12 17 30
1 2 17 25
1 2 3 5
1 36 2 7 12 17 23 25
1 2 3 5 6 18 28
1 2 3 4 6 9 10 11 18 28
1 2 3 4 6 7 9 10 11
1 37 2 6 12 24
1 37 2 6 12 13
1 37 36 2 6 12
1 37 36 2 3 6 12
1 37 36 2 3 6 12 16
1 37 36 2 3 6 12 18 22
1 6 12 17 25 27 29 30
1 3 6 12 17 27 29 30
1 37 6 12 17 30
1 6 12 17 22 27 30
1 6 12 16 17 27 30
1 32 6 12 17 30
1 6 12 17 26 30
1 6 7 12 17 30
1 6 12 14 17 19 20 21 26 30
1 6 7 12 14 17 19 20 21 30
1 32 6 12 14 17 19 20 21 30
1 6 12 16 17 26 30
1 6 7 12 16 17 30
1 32 6 12 16 17 30
1 6 12 17 22 26 30
1 6 7 12 17 22 30
1 32 6 12 17 22 30
1 37 2 6 12 17 29 31
1 37 2 5 6 12 17 31
1 37 2 4 6 12 17 31
1 37 36 2 6 12 17 23
1 37 36 2 6 12 17 18 22
1 37 36 2 6 12 17 18 19 20 21
1 37 36 2 3 6 12 17 23
1 37 36 2 3 6 12 17 18 22
1 37 36 2 3 6 12 17 18 19 20 21
1 37 36 2 3 6 12 17 23 27
1 37 36 2 3 6 12 17 18 19 20 21 27
1 36 2 6 7 12 17 23 25
1 36 2 6 7 9 10 11 12 17 25
1 2 4 6 7 9 10 11 12 13 17 22 25
1 36 2 4 6 7 9 10 11 12 17 25
1 2 4 6 7 9 10 11 12 13 14 17 19 20 21 25
1 37 36 2 6 12 17 23 28
 Analysis time: 7.596s