15/09/2021 22:01:20[DEBUG] pflow_file:  ../test_networks/20210915-213836_27/net.pflow  
15/09/2021 22:01:20[DEBUG] output_folder:  ../test_networks/20210915-213836_27/  
15/09/2021 22:01:20[DEBUG] html_path:  ../test_networks/20210915-213836_27/  
15/09/2021 22:01:20[DEBUG] txt_path:  ../test_networks/20210915-213836_27/txt_info  

--------------------------------------------------------------------------   
15/09/2021 22:01:20[INFO] Ejecutando petrinator para conocer estado de la red...   
--------------------------------------------------------------------------
   
15/09/2021 22:01:25[INFO] SIFONES   
+----+-----+-------------------------------------------------+
| ID | Nro |                      Plazas                     |
+----+-----+-------------------------------------------------+
| 0  |  3  |        ['P3', 'P6', 'P11', 'P19', 'P24']        |
| 1  |  11 | ['P3', 'P6', 'P10', 'P12', 'P19', 'P22', 'P23'] |
| 2  |  12 |     ['P3', 'P6', 'P9', 'P12', 'P19', 'P22']     |
+----+-----+-------------------------------------------------+ 

15/09/2021 22:01:25[INFO] T INVARIANTES   
+----+----+----+----+----+----+----+----+----+----+-----+-----+-----+-----+-----+-----+-----+
| T0 | T1 | T2 | T3 | T4 | T5 | T6 | T7 | T8 | T9 | T10 | T11 | T12 | T13 | T14 | T15 | T16 |
+----+----+----+----+----+----+----+----+----+----+-----+-----+-----+-----+-----+-----+-----+
| 1  | 1  | 1  | 1  | 0  | 0  | 0  | 0  | 0  | 0  |  0  |  0  |  0  |  0  |  0  |  0  |  0  |
| 0  | 0  | 0  | 0  | 1  | 1  | 1  | 1  | 0  | 0  |  0  |  0  |  0  |  0  |  0  |  0  |  0  |
| 0  | 0  | 0  | 0  | 0  | 0  | 0  | 0  | 1  | 1  |  1  |  1  |  0  |  0  |  0  |  1  |  1  |
| 0  | 0  | 0  | 0  | 0  | 0  | 0  | 0  | 0  | 0  |  0  |  0  |  1  |  1  |  1  |  1  |  1  |
+----+----+----+----+----+----+----+----+----+----+-----+-----+-----+-----+-----+-----+-----+ 

15/09/2021 22:01:25[INFO] Supervisores para agregar   
+-----+---------+---------------------+--------------------+-------------------------------------------------+
|  ID | Marcado |     T - Entrada     |     T - Salida     |                Sifon a controlar                |
+-----+---------+---------------------+--------------------+-------------------------------------------------+
| P25 |    1    |     ['T3', 'T6']    |    ['T2', 'T5']    |        ['P3', 'P6', 'P11', 'P19', 'P24']        |
| P25 |    2    | ['T3', 'T6', 'T10'] | ['T2', 'T5', 'T9'] | ['P3', 'P6', 'P10', 'P12', 'P19', 'P22', 'P23'] |
| P25 |    1    |     ['T3', 'T6']    |    ['T2', 'T5']    |     ['P3', 'P6', 'P9', 'P12', 'P19', 'P22']     |
+-----+---------+---------------------+--------------------+-------------------------------------------------+ 

15/09/2021 22:01:25[INFO] Supervisores agregados   
+-----+-------+---------+-------------+------------+----------------+
| Nro | Plaza | Marcado | T - Entrada | T - Salida | MAL supervisor |
+-----+-------+---------+-------------+------------+----------------+
+-----+-------+---------+-------------+------------+----------------+ 

15/09/2021 22:01:25[INFO] Supervisores eliminados   
+-----+-------+---------+-------------+------------+----------------+
| Nro | Plaza | Marcado | T - Entrada | T - Salida | MAL supervisor |
+-----+-------+---------+-------------+------------+----------------+
+-----+-------+---------+-------------+------------+----------------+ 

15/09/2021 22:01:25[INFO] Ejecutando accion...   
15/09/2021 22:01:25[ACTION] Agrego supervisor con menor numero de arcos de salida (MNAS)   
15/09/2021 22:01:25[INFO] Supervisor con menor cantidad de arcos de salida agregado 2   

--------------------------------------------------------------------------   
15/09/2021 22:01:25[INFO] Ejecutando petrinator para conocer estado de la red...   
--------------------------------------------------------------------------
   
--------------------------------------------------------------------------
   
15/09/2021 22:01:30[INFO] Calculando recompensa..   
15/09/2021 22:01:30[REWARD] No hay mas deadlock, recompensa 100   

--------------------------------------------------------------------------
   
15/09/2021 22:01:30[STATE] Se llego al estado deseado, NO HAY MAS DEADLOCK   

--------------------------------------------------------------------------
   
+--------+---------+-------------------+----------------+---------+---------+------------------------+
| Plazas | Estados | Tokens trabajando | Sifones vacios | Sifones | Trampas | Supervisores agregados |
+--------+---------+-------------------+----------------+---------+---------+------------------------+
|   25   |   799   |        3348       |       0        |    24   |    60   |           1            |
+--------+---------+-------------------+----------------+---------+---------+------------------------+ 
+------------------------------+------------+-----------------+--------------------+-----------------------+
|       Estados/Acciones       | + sup MNAS | + sup aleatorio | - sup MAL agregado | - ultimo sup agregado |
+------------------------------+------------+-----------------+--------------------+-----------------------+
|            Start             |   100.0    |       0.0       |        0.0         |          0.0          |
| + sifónes vacíos en deadlock |    0.0     |       0.0       |        0.0         |          0.0          |
| - sifónes vacíos en deadlock |    0.0     |       0.0       |        0.0         |          0.0          |
| = sifónes vacíos en deadlock |    0.0     |       0.0       |        0.0         |          0.0          |
|             End              |    0.0     |       0.0       |        0.0         |          0.0          |
+------------------------------+------------+-----------------+--------------------+-----------------------+ 

15/09/2021 22:01:30[INFO] Comienza proceso de eliminacion de supervisores redundantes   
15/09/2021 22:01:30[INFO] Supervisor a eliminar   
+-----+-------+---------+--------------+--------------+----------------+
| Nro | Plaza | Marcado | T - Entrada  |  T - Salida  | MAL supervisor |
+-----+-------+---------+--------------+--------------+----------------+
|  1  |  P25  |    1    | ['T3', 'T6'] | ['T2', 'T5'] |     False      |
+-----+-------+---------+--------------+--------------+----------------+ 
15/09/2021 22:01:30[INFO] Eliminando supervisor ...   

--------------------------------------------------------------------------   
15/09/2021 22:01:30[INFO] Ejecutando petrinator para conocer estado de la red...   
--------------------------------------------------------------------------
   
15/09/2021 22:01:35[INFO] El supervisor eliminado no era redundante, volviendo a agregar supervisor   
15/09/2021 22:01:35[INFO] Se volvio a agregar correctamente el supervisor eliminado   

--------------------------------------------------------------------------   
15/09/2021 22:01:35[INFO] Ejecutando petrinator para conocer estado de la red...   
--------------------------------------------------------------------------
   
15/09/2021 22:01:40[INFO] Se eliminaron todos los supervisores redundantes   
+--------+---------+-------------------+----------------+---------+---------+------------------------+-------------------------+
| Plazas | Estados | Tokens trabajando | Sifones vacios | Sifones | Trampas | Supervisores agregados | Supervisores eliminados |
+--------+---------+-------------------+----------------+---------+---------+------------------------+-------------------------+
|   25   |   799   |        3348       |       0        |    24   |    60   |           1            |            0            |
+--------+---------+-------------------+----------------+---------+---------+------------------------+-------------------------+ 
