07/07/2021 20:21:13[DEBUG] pflow_file:  ../analysis/analisis_lucas/20210707-190719_24/net.pflow  
07/07/2021 20:21:13[DEBUG] output_folder:  ../analysis/analisis_lucas/20210707-190719_24/  
07/07/2021 20:21:13[DEBUG] html_path:  ../analysis/analisis_lucas/20210707-190719_24/  
07/07/2021 20:21:13[DEBUG] txt_path:  ../analysis/analisis_lucas/20210707-190719_24/txt_info  

--------------------------------------------------------------------------   
07/07/2021 20:21:13[INFO] Ejecutando petrinator para conocer estado de la red...   
--------------------------------------------------------------------------
   
+----+-----+------------------------------------------------+
| ID | Nro |                     Plazas                     |
+----+-----+------------------------------------------------+
| 0  |  1  |    ['P2', 'P6', 'P8', 'P12', 'P24', 'P25']     |
| 1  |  13 |    ['P1', 'P6', 'P8', 'P11', 'P21', 'P23']     |
| 2  |  14 |    ['P1', 'P6', 'P8', 'P11', 'P19', 'P23']     |
| 3  |  15 |    ['P1', 'P6', 'P8', 'P12', 'P23', 'P24']     |
| 4  |  16 |    ['P1', 'P6', 'P8', 'P12', 'P22', 'P23']     |
| 5  |  24 |    ['P2', 'P6', 'P8', 'P11', 'P21', 'P25']     |
| 6  |  25 |    ['P2', 'P6', 'P8', 'P11', 'P19', 'P25']     |
| 7  |  26 | ['P2', 'P6', 'P8', 'P11', 'P19', 'P20', 'P23'] |
| 8  |  27 | ['P2', 'P6', 'P8', 'P11', 'P20', 'P21', 'P23'] |
| 9  |  29 |    ['P2', 'P6', 'P8', 'P12', 'P22', 'P25']     |
| 10 |  31 | ['P2', 'P6', 'P8', 'P12', 'P20', 'P22', 'P23'] |
| 11 |  33 | ['P2', 'P6', 'P8', 'P12', 'P20', 'P23', 'P24'] |
+----+-----+------------------------------------------------+
+----+----+----+----+----+----+----+----+----+----+-----+-----+-----+-----+-----+-----+
| T0 | T1 | T2 | T3 | T4 | T5 | T6 | T7 | T8 | T9 | T10 | T11 | T12 | T13 | T14 | T15 |
+----+----+----+----+----+----+----+----+----+----+-----+-----+-----+-----+-----+-----+
| 1  | 1  | 1  | 0  | 0  | 0  | 0  | 0  | 0  | 0  |  0  |  0  |  0  |  0  |  0  |  0  |
| 0  | 0  | 0  | 1  | 1  | 1  | 1  | 1  | 1  | 0  |  0  |  0  |  1  |  1  |  1  |  1  |
| 0  | 0  | 0  | 1  | 1  | 1  | 0  | 0  | 0  | 1  |  1  |  1  |  1  |  1  |  1  |  1  |
+----+----+----+----+----+----+----+----+----+----+-----+-----+-----+-----+-----+-----+
+-----+---------+---------------------------+--------------+
|  ID | Marcado |        T - Entrada        |  T - Salida  |
+-----+---------+---------------------------+--------------+
| P27 |    1    |     ['T2', 'T5', 'T8']    | ['T1', 'T4'] |
| P27 |    1    | ['T2', 'T5', 'T8', 'T11'] | ['T1', 'T4'] |
| P27 |    1    | ['T2', 'T5', 'T8', 'T11'] | ['T1', 'T4'] |
| P27 |    1    | ['T2', 'T5', 'T8', 'T11'] | ['T1', 'T4'] |
| P27 |    1    | ['T2', 'T5', 'T8', 'T11'] | ['T1', 'T4'] |
| P27 |    1    |     ['T2', 'T5', 'T8']    | ['T1', 'T4'] |
| P27 |    1    |     ['T2', 'T5', 'T8']    | ['T1', 'T4'] |
| P27 |    2    | ['T2', 'T5', 'T8', 'T11'] | ['T1', 'T4'] |
| P27 |    2    | ['T2', 'T5', 'T8', 'T11'] | ['T1', 'T4'] |
| P27 |    1    |     ['T2', 'T5', 'T8']    | ['T1', 'T4'] |
| P27 |    2    | ['T2', 'T5', 'T8', 'T11'] | ['T1', 'T4'] |
| P27 |    2    | ['T2', 'T5', 'T8', 'T11'] | ['T1', 'T4'] |
+-----+---------+---------------------------+--------------+
07/07/2021 20:21:23[INFO] Ejecutando accion...   
07/07/2021 20:21:23[INFO] Ejecutando accion...   
07/07/2021 20:21:23[ACTION] Agrego supervisor aleatorio Numero: 4  

--------------------------------------------------------------------------   
07/07/2021 20:21:23[INFO] Ejecutando petrinator para conocer estado de la red...   
--------------------------------------------------------------------------
   

--------------------------------------------------------------------------
   
07/07/2021 20:21:33[INFO] Calculando recompensa..   
07/07/2021 20:21:33[REWARD] El sifon se controlo correctamente, recompensa -1   

--------------------------------------------------------------------------
   
07/07/2021 20:21:33[STATE] Cambie al estado 3: Hay igual cantidad de sifones vacios en deadlock   
+----+-----+------------------------------------------------+
| ID | Nro |                     Plazas                     |
+----+-----+------------------------------------------------+
| 12 |  1  |    ['P2', 'P6', 'P8', 'P12', 'P24', 'P25']     |
| 13 |  14 |    ['P1', 'P6', 'P8', 'P11', 'P21', 'P23']     |
| 14 |  15 |    ['P1', 'P6', 'P8', 'P11', 'P19', 'P23']     |
| 15 |  16 |    ['P1', 'P6', 'P8', 'P12', 'P23', 'P24']     |
| 16 |  17 |    ['P1', 'P6', 'P8', 'P12', 'P22', 'P23']     |
| 17 |  25 |    ['P2', 'P6', 'P8', 'P11', 'P21', 'P25']     |
| 18 |  26 |    ['P2', 'P6', 'P8', 'P11', 'P19', 'P25']     |
| 19 |  27 | ['P2', 'P6', 'P8', 'P11', 'P19', 'P20', 'P23'] |
| 20 |  28 | ['P2', 'P6', 'P8', 'P11', 'P20', 'P21', 'P23'] |
| 21 |  30 |    ['P2', 'P6', 'P8', 'P12', 'P22', 'P25']     |
| 22 |  32 | ['P2', 'P6', 'P8', 'P12', 'P20', 'P22', 'P23'] |
| 23 |  34 | ['P2', 'P6', 'P8', 'P12', 'P20', 'P23', 'P24'] |
+----+-----+------------------------------------------------+
+----+----+----+----+----+----+----+----+----+----+-----+-----+-----+-----+-----+-----+
| T0 | T1 | T2 | T3 | T4 | T5 | T6 | T7 | T8 | T9 | T10 | T11 | T12 | T13 | T14 | T15 |
+----+----+----+----+----+----+----+----+----+----+-----+-----+-----+-----+-----+-----+
| 1  | 1  | 1  | 0  | 0  | 0  | 0  | 0  | 0  | 0  |  0  |  0  |  0  |  0  |  0  |  0  |
+----+----+----+----+----+----+----+----+----+----+-----+-----+-----+-----+-----+-----+
+-----+---------+---------------------------+--------------+
|  ID | Marcado |        T - Entrada        |  T - Salida  |
+-----+---------+---------------------------+--------------+
| P28 |    1    |     ['T2', 'T5', 'T8']    | ['T1', 'T4'] |
| P28 |    1    | ['T2', 'T5', 'T8', 'T11'] | ['T1', 'T4'] |
| P28 |    1    | ['T2', 'T5', 'T8', 'T11'] | ['T1', 'T4'] |
| P28 |    1    | ['T2', 'T5', 'T8', 'T11'] | ['T1', 'T4'] |
| P28 |    1    | ['T2', 'T5', 'T8', 'T11'] | ['T1', 'T4'] |
| P28 |    1    |     ['T2', 'T5', 'T8']    | ['T1', 'T4'] |
| P28 |    1    |     ['T2', 'T5', 'T8']    | ['T1', 'T4'] |
| P28 |    2    | ['T2', 'T5', 'T8', 'T11'] | ['T1', 'T4'] |
| P28 |    2    | ['T2', 'T5', 'T8', 'T11'] | ['T1', 'T4'] |
| P28 |    1    |     ['T2', 'T5', 'T8']    | ['T1', 'T4'] |
| P28 |    2    | ['T2', 'T5', 'T8', 'T11'] | ['T1', 'T4'] |
| P28 |    2    | ['T2', 'T5', 'T8', 'T11'] | ['T1', 'T4'] |
+-----+---------+---------------------------+--------------+
07/07/2021 20:21:33[INFO] Ejecutando accion...   
07/07/2021 20:21:33[ACTION] Agregar o quitar arcos   
07/07/2021 20:21:33[ACTION] Eliminar arco desde T5 hasta P27   
07/07/2021 20:21:33[INFO] Se elimino el arco con metodo 2 desde T5 hasta P27   

--------------------------------------------------------------------------   
07/07/2021 20:21:33[INFO] Ejecutando petrinator para conocer estado de la red...   
--------------------------------------------------------------------------
   

--------------------------------------------------------------------------
   
07/07/2021 20:21:42[INFO] Calculando recompensa..   
07/07/2021 20:21:42[REWARD] No hay mas deadlock, recompensa 100   

--------------------------------------------------------------------------
   
07/07/2021 20:21:42[STATE] Se llego al estado deseado, NO HAY MAS DEADLOCK   

--------------------------------------------------------------------------
   
07/07/2021 20:21:42[STATE] Cambie al estado 2: Hay menos sifones vacios en deadlock   
