11/09/2021 17:51:17[DEBUG] pflow_file:  ../analysis/analisis_23/20210910-223944_28/net.pflow  
11/09/2021 17:51:17[DEBUG] output_folder:  ../analysis/analisis_23/20210910-223944_28/  
11/09/2021 17:51:17[DEBUG] html_path:  ../analysis/analisis_23/20210910-223944_28/  
11/09/2021 17:51:17[DEBUG] txt_path:  ../analysis/analisis_23/20210910-223944_28/txt_info  

--------------------------------------------------------------------------   
11/09/2021 17:51:17[INFO] Ejecutando petrinator para conocer estado de la red...   
--------------------------------------------------------------------------
   
11/09/2021 17:51:23[INFO] SIFONES   
+----+-----+------------------------------------------+
| ID | Nro |                  Plazas                  |
+----+-----+------------------------------------------+
| 0  |  16 |    ['P2', 'P5', 'P11', 'P20', 'P21']     |
| 1  |  18 |    ['P2', 'P5', 'P11', 'P18', 'P21']     |
| 2  |  19 | ['P2', 'P6', 'P11', 'P17', 'P20', 'P21'] |
| 3  |  22 | ['P2', 'P6', 'P11', 'P17', 'P18', 'P21'] |
| 4  |  23 | ['P2', 'P6', 'P12', 'P20', 'P21', 'P24'] |
| 5  |  25 | ['P2', 'P6', 'P12', 'P18', 'P21', 'P24'] |
+----+-----+------------------------------------------+ 

11/09/2021 17:51:23[INFO] T INVARIANTES   
+----+----+----+----+----+----+----+----+----+----+-----+-----+
| T0 | T1 | T2 | T3 | T4 | T5 | T6 | T7 | T8 | T9 | T10 | T11 |
+----+----+----+----+----+----+----+----+----+----+-----+-----+
| 1  | 1  | 1  | 0  | 0  | 0  | 0  | 0  | 0  | 0  |  0  |  0  |
| 0  | 0  | 0  | 1  | 1  | 1  | 1  | 0  | 0  | 0  |  0  |  0  |
| 0  | 0  | 0  | 0  | 0  | 0  | 0  | 1  | 1  | 1  |  1  |  1  |
+----+----+----+----+----+----+----+----+----+----+-----+-----+ 

11/09/2021 17:51:23[INFO] Supervisores para agregar   
+-----+---------+---------------------+--------------------+------------------------------------------+
|  ID | Marcado |     T - Entrada     |     T - Salida     |            Sifon a controlar             |
+-----+---------+---------------------+--------------------+------------------------------------------+
| P25 |    1    |    ['T5', 'T10']    |    ['T4', 'T9']    |    ['P2', 'P5', 'P11', 'P20', 'P21']     |
| P25 |    1    |    ['T5', 'T10']    |    ['T4', 'T9']    |    ['P2', 'P5', 'P11', 'P18', 'P21']     |
| P25 |    2    | ['T2', 'T6', 'T10'] | ['T1', 'T4', 'T9'] | ['P2', 'P6', 'P11', 'P17', 'P20', 'P21'] |
| P25 |    2    | ['T2', 'T6', 'T10'] | ['T1', 'T4', 'T9'] | ['P2', 'P6', 'P11', 'P17', 'P18', 'P21'] |
| P25 |    2    | ['T2', 'T6', 'T11'] | ['T1', 'T4', 'T9'] | ['P2', 'P6', 'P12', 'P20', 'P21', 'P24'] |
| P25 |    2    | ['T2', 'T6', 'T11'] | ['T1', 'T4', 'T9'] | ['P2', 'P6', 'P12', 'P18', 'P21', 'P24'] |
+-----+---------+---------------------+--------------------+------------------------------------------+ 

11/09/2021 17:51:23[INFO] Supervisores agregados   
+-----+-------+---------+-------------+------------+----------------+
| Nro | Plaza | Marcado | T - Entrada | T - Salida | MAL supervisor |
+-----+-------+---------+-------------+------------+----------------+
+-----+-------+---------+-------------+------------+----------------+ 

11/09/2021 17:51:23[INFO] Supervisores eliminados   
+-----+-------+---------+-------------+------------+----------------+
| Nro | Plaza | Marcado | T - Entrada | T - Salida | MAL supervisor |
+-----+-------+---------+-------------+------------+----------------+
+-----+-------+---------+-------------+------------+----------------+ 

11/09/2021 17:51:23[INFO] Ejecutando accion...   
11/09/2021 17:51:23[ACTION] Agrego supervisor con menor numero de arcos de salida (MNAS)   
11/09/2021 17:51:23[INFO] Supervisor con menor cantidad de arcos de salida agregado 1   

--------------------------------------------------------------------------   
11/09/2021 17:51:23[INFO] Ejecutando petrinator para conocer estado de la red...   
--------------------------------------------------------------------------
   
--------------------------------------------------------------------------
   
11/09/2021 17:51:30[INFO] Calculando recompensa..   
11/09/2021 17:51:30[REWARD] Agregue un supervisor que genero menos sifones vacios en deadlock, recompensa -1   

--------------------------------------------------------------------------
   
11/09/2021 17:51:30[STATE] Cambie al estado 3: Hay igual cantidad de sifones vacios en deadlock   
+--------+---------+-------------------+----------------+---------+---------+------------------------------------+
| Plazas | Estados | Tokens trabajando | Sifones vacios | Sifones | Trampas | Cantidad de supervisores agregados |
+--------+---------+-------------------+----------------+---------+---------+------------------------------------+
|   25   |    27   |         46        |       6        |    53   |    55   |                 1                  |
+--------+---------+-------------------+----------------+---------+---------+------------------------------------+ 
+-----------------------------------------------------+------------------+-----------------------+---------------------------+------------------------------+
|                   Estados/Acciones                  | Agregar sup MNAS | Agregar sup aleatorio | Eliminar sup MAL agregado | Eliminar ultimo sup agregado |
+-----------------------------------------------------+------------------+-----------------------+---------------------------+------------------------------+
|                        Start                        |       -1.0       |          0.0          |            0.0            |             0.0              |
|        Más sifónes vacíos en estado deadlock        |       0.0        |          0.0          |            0.0            |             0.0              |
|       Menos sifónes vacíos en estado deadlock       |       0.0        |          0.0          |            0.0            |             0.0              |
| Igual cantidad de sifónes vacíos en estado deadlock |       0.0        |          0.0          |            0.0            |             0.0              |
|                         End                         |       0.0        |          0.0          |            0.0            |             0.0              |
+-----------------------------------------------------+------------------+-----------------------+---------------------------+------------------------------+ 

11/09/2021 17:51:30[INFO] SIFONES   
+----+-----+-------------------------------------------------+
| ID | Nro |                      Plazas                     |
+----+-----+-------------------------------------------------+
| 6  |  12 |     ['P1', 'P5', 'P11', 'P20', 'P22', 'P25']    |
| 7  |  14 |        ['P1', 'P5', 'P10', 'P22', 'P25']        |
| 8  |  15 |     ['P1', 'P5', 'P11', 'P18', 'P22', 'P25']    |
| 9  |  22 |     ['P2', 'P5', 'P10', 'P16', 'P22', 'P25']    |
| 10 |  25 | ['P2', 'P5', 'P11', 'P16', 'P18', 'P22', 'P25'] |
| 11 |  27 | ['P2', 'P5', 'P11', 'P16', 'P20', 'P22', 'P25'] |
+----+-----+-------------------------------------------------+ 

11/09/2021 17:51:30[INFO] T INVARIANTES   
+----+----+----+----+----+----+----+----+----+----+-----+-----+
| T0 | T1 | T2 | T3 | T4 | T5 | T6 | T7 | T8 | T9 | T10 | T11 |
+----+----+----+----+----+----+----+----+----+----+-----+-----+
| 1  | 1  | 1  | 0  | 0  | 0  | 0  | 0  | 0  | 0  |  0  |  0  |
| 0  | 0  | 0  | 1  | 1  | 1  | 1  | 0  | 0  | 0  |  0  |  0  |
| 0  | 0  | 0  | 0  | 0  | 0  | 0  | 1  | 1  | 1  |  1  |  1  |
+----+----+----+----+----+----+----+----+----+----+-----+-----+ 

11/09/2021 17:51:30[INFO] Supervisores para agregar   
+-----+---------+--------------------+--------------------+-------------------------------------------------+
|  ID | Marcado |    T - Entrada     |     T - Salida     |                Sifon a controlar                |
+-----+---------+--------------------+--------------------+-------------------------------------------------+
| P26 |    1    |   ['T5', 'T10']    |    ['T4', 'T8']    |     ['P1', 'P5', 'P11', 'P20', 'P22', 'P25']    |
| P26 |    1    |   ['T5', 'T10']    |    ['T4', 'T8']    |     ['P1', 'P5', 'P11', 'P18', 'P22', 'P25']    |
| P26 |    1    | ['T2', 'T5', 'T9'] | ['T1', 'T4', 'T8'] |     ['P2', 'P5', 'P10', 'P16', 'P22', 'P25']    |
| P26 |    2    | ['T2', 'T5', 'T9'] | ['T1', 'T4', 'T8'] | ['P2', 'P5', 'P11', 'P16', 'P18', 'P22', 'P25'] |
| P26 |    2    | ['T2', 'T5', 'T9'] | ['T1', 'T4', 'T8'] | ['P2', 'P5', 'P11', 'P16', 'P20', 'P22', 'P25'] |
+-----+---------+--------------------+--------------------+-------------------------------------------------+ 

11/09/2021 17:51:30[INFO] Supervisores agregados   
+-----+-------+---------+---------------+--------------+----------------+
| Nro | Plaza | Marcado |  T - Entrada  |  T - Salida  | MAL supervisor |
+-----+-------+---------+---------------+--------------+----------------+
|  1  |  P25  |    1    | ['T5', 'T10'] | ['T4', 'T9'] |     False      |
+-----+-------+---------+---------------+--------------+----------------+ 

11/09/2021 17:51:30[INFO] Supervisores eliminados   
+-----+-------+---------+-------------+------------+----------------+
| Nro | Plaza | Marcado | T - Entrada | T - Salida | MAL supervisor |
+-----+-------+---------+-------------+------------+----------------+
+-----+-------+---------+-------------+------------+----------------+ 

11/09/2021 17:51:30[INFO] Ejecutando accion...   
11/09/2021 17:51:30[ACTION] Agrego supervisor con menor numero de arcos de salida (MNAS)   
11/09/2021 17:51:30[INFO] Supervisor con menor cantidad de arcos de salida agregado 0   

--------------------------------------------------------------------------   
11/09/2021 17:51:30[INFO] Ejecutando petrinator para conocer estado de la red...   
--------------------------------------------------------------------------
   
--------------------------------------------------------------------------
   
11/09/2021 17:51:36[INFO] Calculando recompensa..   
11/09/2021 17:51:36[REWARD] No hay mas deadlock, recompensa 100   

--------------------------------------------------------------------------
   
11/09/2021 17:51:36[STATE] Se llego al estado deseado, NO HAY MAS DEADLOCK   

--------------------------------------------------------------------------
   
+--------+---------+-------------------+----------------+---------+---------+------------------------------------+
| Plazas | Estados | Tokens trabajando | Sifones vacios | Sifones | Trampas | Cantidad de supervisores agregados |
+--------+---------+-------------------+----------------+---------+---------+------------------------------------+
|   25   |    27   |         46        |       6        |    53   |    55   |                 1                  |
|   26   |    25   |         41        |       0        |    54   |    70   |                 2                  |
+--------+---------+-------------------+----------------+---------+---------+------------------------------------+ 
+-----------------------------------------------------+------------------+-----------------------+---------------------------+------------------------------+
|                   Estados/Acciones                  | Agregar sup MNAS | Agregar sup aleatorio | Eliminar sup MAL agregado | Eliminar ultimo sup agregado |
+-----------------------------------------------------+------------------+-----------------------+---------------------------+------------------------------+
|                        Start                        |       -1.0       |          0.0          |            0.0            |             0.0              |
|        Más sifónes vacíos en estado deadlock        |       0.0        |          0.0          |            0.0            |             0.0              |
|       Menos sifónes vacíos en estado deadlock       |       0.0        |          0.0          |            0.0            |             0.0              |
| Igual cantidad de sifónes vacíos en estado deadlock |      100.0       |          0.0          |            0.0            |             0.0              |
|                         End                         |       0.0        |          0.0          |            0.0            |             0.0              |
+-----------------------------------------------------+------------------+-----------------------+---------------------------+------------------------------+ 

+-----+-------+---------+---------------+--------------+----------------+
| Nro | Plaza | Marcado |  T - Entrada  |  T - Salida  | MAL supervisor |
+-----+-------+---------+---------------+--------------+----------------+
|  1  |  P25  |    1    | ['T5', 'T10'] | ['T4', 'T9'] |     False      |
+-----+-------+---------+---------------+--------------+----------------+ 

--------------------------------------------------------------------------   
11/09/2021 17:51:36[INFO] Ejecutando petrinator para conocer estado de la red...   
--------------------------------------------------------------------------
   
+-----+-------+---------+---------------+--------------+----------------+
| Nro | Plaza | Marcado |  T - Entrada  |  T - Salida  | MAL supervisor |
+-----+-------+---------+---------------+--------------+----------------+
|  2  |  P26  |    1    | ['T5', 'T10'] | ['T4', 'T8'] |     False      |
+-----+-------+---------+---------------+--------------+----------------+ 

--------------------------------------------------------------------------   
11/09/2021 17:51:41[INFO] Ejecutando petrinator para conocer estado de la red...   
--------------------------------------------------------------------------
   

--------------------------------------------------------------------------   
11/09/2021 17:51:47[INFO] Ejecutando petrinator para conocer estado de la red...   
--------------------------------------------------------------------------
   
+--------+---------+-------------------+----------------+---------+---------+------------------------------------+
| Plazas | Estados | Tokens trabajando | Sifones vacios | Sifones | Trampas | Cantidad de supervisores agregados |
+--------+---------+-------------------+----------------+---------+---------+------------------------------------+
|   25   |    25   |         41        |       0        |    28   |    55   |                 2                  |
+--------+---------+-------------------+----------------+---------+---------+------------------------------------+ 
