 Minimal siphons 
3 6 10 17 18 19 20
2 6 10 18 19 20
1 6 10 20
10 12
8 11
5 6 7 8 9 10 13 14 15
1 10 16
1 5 9 19
1 23 8
2 5 10 16 18 19
1 2 10 16
2 5 9 18 19
2 5 8 18
2 6 8 10 18 20
3 5 10 17
1 2 3 10 16
1 2 3 4
3 6 8 10 17 18 20
 Minimal traps 
1 5 8 18 19
2 5 8 18
8 11
3 5 10 17
10 12
5 6 7 8 9 10 13 14 15
1 6 10 20
1 10 16
1 2 3 4
1 23 8
1 5 9 19
1 5 8 10 18 20
 Analysis time: 0.357s