18/09/2021 18:25:10[DEBUG] pflow_file:  ../test_networks/20210918-150202_29/net.pflow  
18/09/2021 18:25:10[DEBUG] output_folder:  ../test_networks/20210918-150202_29/  
18/09/2021 18:25:10[DEBUG] html_path:  ../test_networks/20210918-150202_29/  
18/09/2021 18:25:10[DEBUG] txt_path:  ../test_networks/20210918-150202_29/txt_info  

--------------------------------------------------------------------------   
18/09/2021 18:25:10[INFO] Ejecutando petrinator para conocer estado de la red...   
--------------------------------------------------------------------------
   
18/09/2021 18:25:16[INFO] SIFONES   
+----+-----+---------------------------------------------------------------+
| ID | Nro |                             Plazas                            |
+----+-----+---------------------------------------------------------------+
| 0  |  2  | ['P2', 'P4', 'P10', 'P15', 'P18', 'P21', 'P28', 'P29', 'P30'] |
| 1  |  16 |        ['P1', 'P4', 'P15', 'P18', 'P21', 'P28', 'P30']        |
| 2  |  22 |        ['P1', 'P4', 'P15', 'P18', 'P21', 'P27', 'P28']        |
| 3  |  38 |     ['P1', 'P2', 'P4', 'P15', 'P18', 'P21', 'P28', 'P30']     |
| 4  |  45 |     ['P1', 'P2', 'P4', 'P15', 'P18', 'P21', 'P27', 'P28']     |
| 5  |  54 | ['P2', 'P4', 'P10', 'P15', 'P18', 'P21', 'P27', 'P28', 'P29'] |
| 6  |  55 |     ['P1', 'P4', 'P5', 'P15', 'P18', 'P21', 'P28', 'P30']     |
| 7  |  65 |     ['P1', 'P4', 'P5', 'P15', 'P18', 'P21', 'P27', 'P28']     |
| 8  |  67 |  ['P1', 'P2', 'P4', 'P5', 'P15', 'P18', 'P21', 'P28', 'P30']  |
| 9  |  79 |  ['P1', 'P2', 'P4', 'P5', 'P15', 'P18', 'P21', 'P27', 'P28']  |
| 10 |  37 |        ['P2', 'P10', 'P15', 'P18', 'P20', 'P29', 'P30']       |
| 11 |  53 |     ['P2', 'P4', 'P10', 'P15', 'P17', 'P21', 'P28', 'P29']    |
+----+-----+---------------------------------------------------------------+ 

18/09/2021 18:25:16[INFO] T INVARIANTES   
+----+----+----+----+----+----+----+----+----+----+-----+-----+-----+-----+-----+-----+-----+-----+
| T0 | T1 | T2 | T3 | T4 | T5 | T6 | T7 | T8 | T9 | T10 | T11 | T12 | T13 | T14 | T15 | T16 | T17 |
+----+----+----+----+----+----+----+----+----+----+-----+-----+-----+-----+-----+-----+-----+-----+
| 1  | 1  | 1  | 0  | 0  | 0  | 0  | 0  | 0  | 0  |  0  |  0  |  0  |  0  |  0  |  0  |  0  |  0  |
| 0  | 0  | 0  | 1  | 1  | 1  | 0  | 0  | 0  | 0  |  0  |  0  |  0  |  0  |  0  |  0  |  0  |  0  |
| 0  | 0  | 0  | 0  | 0  | 0  | 1  | 1  | 1  | 0  |  0  |  0  |  0  |  0  |  0  |  0  |  0  |  0  |
| 0  | 0  | 0  | 0  | 0  | 0  | 0  | 0  | 0  | 1  |  1  |  1  |  0  |  0  |  0  |  0  |  0  |  0  |
| 0  | 0  | 0  | 0  | 0  | 0  | 0  | 0  | 0  | 0  |  0  |  0  |  1  |  1  |  1  |  0  |  0  |  0  |
| 0  | 0  | 0  | 0  | 0  | 0  | 0  | 0  | 0  | 0  |  0  |  0  |  0  |  0  |  0  |  1  |  1  |  1  |
+----+----+----+----+----+----+----+----+----+----+-----+-----+-----+-----+-----+-----+-----+-----+ 

18/09/2021 18:25:16[INFO] Supervisores para agregar   
+-----+---------+-----------------------------+-----------------------------+---------------------------------------------------------------+
|  ID | Marcado |         T - Entrada         |          T - Salida         |                       Sifon a controlar                       |
+-----+---------+-----------------------------+-----------------------------+---------------------------------------------------------------+
| P31 |    2    | ['T2', 'T12', 'T14', 'T17'] | ['T1', 'T10', 'T13', 'T16'] | ['P2', 'P4', 'P10', 'P15', 'P18', 'P21', 'P28', 'P29', 'P30'] |
| P31 |    1    |        ['T14', 'T17']       |        ['T13', 'T16']       |        ['P1', 'P4', 'P15', 'P18', 'P21', 'P28', 'P30']        |
| P31 |    1    |        ['T14', 'T17']       |        ['T13', 'T16']       |        ['P1', 'P4', 'P15', 'P18', 'P21', 'P27', 'P28']        |
| P31 |    1    |     ['T2', 'T14', 'T17']    |     ['T3', 'T13', 'T16']    |     ['P1', 'P2', 'P4', 'P15', 'P18', 'P21', 'P28', 'P30']     |
| P31 |    1    |     ['T2', 'T14', 'T17']    |     ['T3', 'T13', 'T16']    |     ['P1', 'P2', 'P4', 'P15', 'P18', 'P21', 'P27', 'P28']     |
| P31 |    2    | ['T2', 'T12', 'T14', 'T17'] | ['T1', 'T10', 'T13', 'T16'] | ['P2', 'P4', 'P10', 'P15', 'P18', 'P21', 'P27', 'P28', 'P29'] |
| P31 |    1    |     ['T5', 'T14', 'T17']    |     ['T6', 'T13', 'T16']    |     ['P1', 'P4', 'P5', 'P15', 'P18', 'P21', 'P28', 'P30']     |
| P31 |    1    |     ['T5', 'T14', 'T17']    |     ['T6', 'T13', 'T16']    |     ['P1', 'P4', 'P5', 'P15', 'P18', 'P21', 'P27', 'P28']     |
| P31 |    1    |  ['T2', 'T5', 'T14', 'T17'] |  ['T3', 'T6', 'T13', 'T16'] |  ['P1', 'P2', 'P4', 'P5', 'P15', 'P18', 'P21', 'P28', 'P30']  |
| P31 |    1    |  ['T2', 'T5', 'T14', 'T17'] |  ['T3', 'T6', 'T13', 'T16'] |  ['P1', 'P2', 'P4', 'P5', 'P15', 'P18', 'P21', 'P27', 'P28']  |
| P31 |    1    |        ['T2', 'T11']        |        ['T1', 'T10']        |        ['P2', 'P10', 'P15', 'P18', 'P20', 'P29', 'P30']       |
| P31 |    1    |     ['T2', 'T11', 'T17']    |     ['T1', 'T10', 'T16']    |     ['P2', 'P4', 'P10', 'P15', 'P17', 'P21', 'P28', 'P29']    |
+-----+---------+-----------------------------+-----------------------------+---------------------------------------------------------------+ 

18/09/2021 18:25:16[INFO] Supervisores agregados   
+-----+-------+---------+-------------+------------+----------------+
| Nro | Plaza | Marcado | T - Entrada | T - Salida | MAL supervisor |
+-----+-------+---------+-------------+------------+----------------+
+-----+-------+---------+-------------+------------+----------------+ 

18/09/2021 18:25:16[INFO] Supervisores eliminados   
+-----+-------+---------+-------------+------------+----------------+
| Nro | Plaza | Marcado | T - Entrada | T - Salida | MAL supervisor |
+-----+-------+---------+-------------+------------+----------------+
+-----+-------+---------+-------------+------------+----------------+ 

18/09/2021 18:25:16[INFO] Ejecutando accion...   
18/09/2021 18:25:16[ACTION] Agrego supervisor con menor numero de arcos de salida (MNAS)   
18/09/2021 18:25:16[INFO] Supervisor con menor cantidad de arcos de salida agregado 10   

--------------------------------------------------------------------------   
18/09/2021 18:25:16[INFO] Ejecutando petrinator para conocer estado de la red...   
--------------------------------------------------------------------------
   
--------------------------------------------------------------------------
   
18/09/2021 18:25:23[INFO] Calculando recompensa..   
18/09/2021 18:25:23[REWARD] Agregue un supervisor que genero menos sifones vacios en deadlock, recompensa -1   

--------------------------------------------------------------------------
   
18/09/2021 18:25:23[STATE] Cambie al estado 2: Hay menos sifones vacios en deadlock   
+--------+---------+-------------------+----------------+---------+---------+------------------------+
| Plazas | Estados | Tokens trabajando | Sifones vacios | Sifones | Trampas | Supervisores agregados |
+--------+---------+-------------------+----------------+---------+---------+------------------------+
|   31   |   136   |        380        |       10       |   159   |   174   |           1            |
+--------+---------+-------------------+----------------+---------+---------+------------------------+ 
+------------------------------+------------+-----------------+--------------------+-----------------------+
|       Estados/Acciones       | + sup MNAS | + sup aleatorio | - sup MAL agregado | - ultimo sup agregado |
+------------------------------+------------+-----------------+--------------------+-----------------------+
|            Start             |    -1.0    |       0.0       |        0.0         |          0.0          |
| + sifónes vacíos en deadlock |    0.0     |       0.0       |        0.0         |          0.0          |
| - sifónes vacíos en deadlock |    0.0     |       0.0       |        0.0         |          0.0          |
| = sifónes vacíos en deadlock |    0.0     |       0.0       |        0.0         |          0.0          |
|             End              |    0.0     |       0.0       |        0.0         |          0.0          |
+------------------------------+------------+-----------------+--------------------+-----------------------+ 

18/09/2021 18:25:23[INFO] SIFONES   
+----+-----+---------------------------------------------------------------+
| ID | Nro |                             Plazas                            |
+----+-----+---------------------------------------------------------------+
| 12 |  2  | ['P2', 'P4', 'P10', 'P15', 'P18', 'P21', 'P28', 'P29', 'P30'] |
| 13 |  16 |        ['P1', 'P4', 'P15', 'P18', 'P21', 'P28', 'P30']        |
| 14 |  27 |        ['P1', 'P4', 'P15', 'P18', 'P21', 'P27', 'P28']        |
| 15 |  61 |     ['P1', 'P2', 'P4', 'P15', 'P18', 'P21', 'P28', 'P30']     |
| 16 |  72 |     ['P1', 'P2', 'P4', 'P15', 'P18', 'P21', 'P27', 'P28']     |
| 17 |  81 | ['P2', 'P4', 'P10', 'P15', 'P18', 'P21', 'P27', 'P28', 'P29'] |
| 18 |  82 |     ['P1', 'P4', 'P5', 'P15', 'P18', 'P21', 'P28', 'P30']     |
| 19 | 124 |     ['P1', 'P4', 'P5', 'P15', 'P18', 'P21', 'P27', 'P28']     |
| 20 | 126 |  ['P1', 'P2', 'P4', 'P5', 'P15', 'P18', 'P21', 'P28', 'P30']  |
| 21 | 146 |  ['P1', 'P2', 'P4', 'P5', 'P15', 'P18', 'P21', 'P27', 'P28']  |
+----+-----+---------------------------------------------------------------+ 

18/09/2021 18:25:23[INFO] T INVARIANTES   
+----+----+----+----+----+----+----+----+----+----+-----+-----+-----+-----+-----+-----+-----+-----+
| T0 | T1 | T2 | T3 | T4 | T5 | T6 | T7 | T8 | T9 | T10 | T11 | T12 | T13 | T14 | T15 | T16 | T17 |
+----+----+----+----+----+----+----+----+----+----+-----+-----+-----+-----+-----+-----+-----+-----+
| 1  | 1  | 1  | 0  | 0  | 0  | 0  | 0  | 0  | 0  |  0  |  0  |  0  |  0  |  0  |  0  |  0  |  0  |
| 0  | 0  | 0  | 1  | 1  | 1  | 0  | 0  | 0  | 0  |  0  |  0  |  0  |  0  |  0  |  0  |  0  |  0  |
| 0  | 0  | 0  | 0  | 0  | 0  | 1  | 1  | 1  | 0  |  0  |  0  |  0  |  0  |  0  |  0  |  0  |  0  |
| 0  | 0  | 0  | 0  | 0  | 0  | 0  | 0  | 0  | 1  |  1  |  1  |  0  |  0  |  0  |  0  |  0  |  0  |
| 0  | 0  | 0  | 0  | 0  | 0  | 0  | 0  | 0  | 0  |  0  |  0  |  1  |  1  |  1  |  0  |  0  |  0  |
| 0  | 0  | 0  | 0  | 0  | 0  | 0  | 0  | 0  | 0  |  0  |  0  |  0  |  0  |  0  |  1  |  1  |  1  |
+----+----+----+----+----+----+----+----+----+----+-----+-----+-----+-----+-----+-----+-----+-----+ 

18/09/2021 18:25:23[INFO] Supervisores para agregar   
+-----+---------+-----------------------------+-----------------------------+---------------------------------------------------------------+
|  ID | Marcado |         T - Entrada         |          T - Salida         |                       Sifon a controlar                       |
+-----+---------+-----------------------------+-----------------------------+---------------------------------------------------------------+
| P32 |    2    | ['T2', 'T12', 'T14', 'T17'] | ['T1', 'T10', 'T13', 'T16'] | ['P2', 'P4', 'P10', 'P15', 'P18', 'P21', 'P28', 'P29', 'P30'] |
| P32 |    1    |        ['T14', 'T17']       |        ['T13', 'T16']       |        ['P1', 'P4', 'P15', 'P18', 'P21', 'P28', 'P30']        |
| P32 |    1    |        ['T14', 'T17']       |        ['T13', 'T16']       |        ['P1', 'P4', 'P15', 'P18', 'P21', 'P27', 'P28']        |
| P32 |    1    |     ['T2', 'T14', 'T17']    |     ['T3', 'T13', 'T16']    |     ['P1', 'P2', 'P4', 'P15', 'P18', 'P21', 'P28', 'P30']     |
| P32 |    1    |     ['T2', 'T14', 'T17']    |     ['T3', 'T13', 'T16']    |     ['P1', 'P2', 'P4', 'P15', 'P18', 'P21', 'P27', 'P28']     |
| P32 |    2    | ['T2', 'T12', 'T14', 'T17'] | ['T1', 'T10', 'T13', 'T16'] | ['P2', 'P4', 'P10', 'P15', 'P18', 'P21', 'P27', 'P28', 'P29'] |
| P32 |    1    |     ['T5', 'T14', 'T17']    |     ['T6', 'T13', 'T16']    |     ['P1', 'P4', 'P5', 'P15', 'P18', 'P21', 'P28', 'P30']     |
| P32 |    1    |     ['T5', 'T14', 'T17']    |     ['T6', 'T13', 'T16']    |     ['P1', 'P4', 'P5', 'P15', 'P18', 'P21', 'P27', 'P28']     |
| P32 |    1    |  ['T2', 'T5', 'T14', 'T17'] |  ['T3', 'T6', 'T13', 'T16'] |  ['P1', 'P2', 'P4', 'P5', 'P15', 'P18', 'P21', 'P28', 'P30']  |
| P32 |    1    |  ['T2', 'T5', 'T14', 'T17'] |  ['T3', 'T6', 'T13', 'T16'] |  ['P1', 'P2', 'P4', 'P5', 'P15', 'P18', 'P21', 'P27', 'P28']  |
+-----+---------+-----------------------------+-----------------------------+---------------------------------------------------------------+ 

18/09/2021 18:25:23[INFO] Supervisores agregados   
+-----+-------+---------+---------------+---------------+----------------+
| Nro | Plaza | Marcado |  T - Entrada  |   T - Salida  | MAL supervisor |
+-----+-------+---------+---------------+---------------+----------------+
|  1  |  P31  |    1    | ['T2', 'T11'] | ['T1', 'T10'] |     False      |
+-----+-------+---------+---------------+---------------+----------------+ 

18/09/2021 18:25:23[INFO] Supervisores eliminados   
+-----+-------+---------+-------------+------------+----------------+
| Nro | Plaza | Marcado | T - Entrada | T - Salida | MAL supervisor |
+-----+-------+---------+-------------+------------+----------------+
+-----+-------+---------+-------------+------------+----------------+ 

18/09/2021 18:25:23[INFO] Ejecutando accion...   
18/09/2021 18:25:23[ACTION] Eliminar ultimo supervisor agregado   

--------------------------------------------------------------------------   
18/09/2021 18:25:23[INFO] Ejecutando petrinator para conocer estado de la red...   
--------------------------------------------------------------------------
   
--------------------------------------------------------------------------
   
18/09/2021 18:25:29[INFO] Calculando recompensa..   
18/09/2021 18:25:29[INFO] Se elimino supervisor correctamente    
18/09/2021 18:25:29[REWARD] Hay mas sifones vacios que en el estado anterior, recompensa -30   

--------------------------------------------------------------------------
   
18/09/2021 18:25:29[STATE] Cambie al estado 1: Hay mas sifones vacios en deadlock   
+--------+---------+-------------------+----------------+---------+---------+------------------------+
| Plazas | Estados | Tokens trabajando | Sifones vacios | Sifones | Trampas | Supervisores agregados |
+--------+---------+-------------------+----------------+---------+---------+------------------------+
|   31   |   136   |        380        |       10       |   159   |   174   |           1            |
|   30   |   140   |        392        |       12       |    92   |   105   |           0            |
+--------+---------+-------------------+----------------+---------+---------+------------------------+ 
+------------------------------+------------+-----------------+--------------------+-----------------------+
|       Estados/Acciones       | + sup MNAS | + sup aleatorio | - sup MAL agregado | - ultimo sup agregado |
+------------------------------+------------+-----------------+--------------------+-----------------------+
|            Start             |    -1.0    |       0.0       |        0.0         |          0.0          |
| + sifónes vacíos en deadlock |    0.0     |       0.0       |        0.0         |          0.0          |
| - sifónes vacíos en deadlock |    0.0     |       0.0       |        0.0         |         -30.0         |
| = sifónes vacíos en deadlock |    0.0     |       0.0       |        0.0         |          0.0          |
|             End              |    0.0     |       0.0       |        0.0         |          0.0          |
+------------------------------+------------+-----------------+--------------------+-----------------------+ 

18/09/2021 18:25:29[INFO] SIFONES   
+----+-----+---------------------------------------------------------------+
| ID | Nro |                             Plazas                            |
+----+-----+---------------------------------------------------------------+
| 22 |  2  | ['P2', 'P4', 'P10', 'P15', 'P18', 'P21', 'P28', 'P29', 'P30'] |
| 23 |  16 |        ['P1', 'P4', 'P15', 'P18', 'P21', 'P28', 'P30']        |
| 24 |  22 |        ['P1', 'P4', 'P15', 'P18', 'P21', 'P27', 'P28']        |
| 25 |  38 |     ['P1', 'P2', 'P4', 'P15', 'P18', 'P21', 'P28', 'P30']     |
| 26 |  45 |     ['P1', 'P2', 'P4', 'P15', 'P18', 'P21', 'P27', 'P28']     |
| 27 |  54 | ['P2', 'P4', 'P10', 'P15', 'P18', 'P21', 'P27', 'P28', 'P29'] |
| 28 |  55 |     ['P1', 'P4', 'P5', 'P15', 'P18', 'P21', 'P28', 'P30']     |
| 29 |  65 |     ['P1', 'P4', 'P5', 'P15', 'P18', 'P21', 'P27', 'P28']     |
| 30 |  67 |  ['P1', 'P2', 'P4', 'P5', 'P15', 'P18', 'P21', 'P28', 'P30']  |
| 31 |  79 |  ['P1', 'P2', 'P4', 'P5', 'P15', 'P18', 'P21', 'P27', 'P28']  |
| 32 |  37 |        ['P2', 'P10', 'P15', 'P18', 'P20', 'P29', 'P30']       |
| 33 |  53 |     ['P2', 'P4', 'P10', 'P15', 'P17', 'P21', 'P28', 'P29']    |
+----+-----+---------------------------------------------------------------+ 

18/09/2021 18:25:29[INFO] T INVARIANTES   
+----+----+----+----+----+----+----+----+----+----+-----+-----+-----+-----+-----+-----+-----+-----+
| T0 | T1 | T2 | T3 | T4 | T5 | T6 | T7 | T8 | T9 | T10 | T11 | T12 | T13 | T14 | T15 | T16 | T17 |
+----+----+----+----+----+----+----+----+----+----+-----+-----+-----+-----+-----+-----+-----+-----+
| 1  | 1  | 1  | 0  | 0  | 0  | 0  | 0  | 0  | 0  |  0  |  0  |  0  |  0  |  0  |  0  |  0  |  0  |
| 0  | 0  | 0  | 1  | 1  | 1  | 0  | 0  | 0  | 0  |  0  |  0  |  0  |  0  |  0  |  0  |  0  |  0  |
| 0  | 0  | 0  | 0  | 0  | 0  | 1  | 1  | 1  | 0  |  0  |  0  |  0  |  0  |  0  |  0  |  0  |  0  |
| 0  | 0  | 0  | 0  | 0  | 0  | 0  | 0  | 0  | 1  |  1  |  1  |  0  |  0  |  0  |  0  |  0  |  0  |
| 0  | 0  | 0  | 0  | 0  | 0  | 0  | 0  | 0  | 0  |  0  |  0  |  1  |  1  |  1  |  0  |  0  |  0  |
| 0  | 0  | 0  | 0  | 0  | 0  | 0  | 0  | 0  | 0  |  0  |  0  |  0  |  0  |  0  |  1  |  1  |  1  |
+----+----+----+----+----+----+----+----+----+----+-----+-----+-----+-----+-----+-----+-----+-----+ 

18/09/2021 18:25:29[INFO] Supervisores para agregar   
+-----+---------+-----------------------------+-----------------------------+---------------------------------------------------------------+
|  ID | Marcado |         T - Entrada         |          T - Salida         |                       Sifon a controlar                       |
+-----+---------+-----------------------------+-----------------------------+---------------------------------------------------------------+
| P32 |    2    | ['T2', 'T12', 'T14', 'T17'] | ['T1', 'T10', 'T13', 'T16'] | ['P2', 'P4', 'P10', 'P15', 'P18', 'P21', 'P28', 'P29', 'P30'] |
| P32 |    1    |        ['T14', 'T17']       |        ['T13', 'T16']       |        ['P1', 'P4', 'P15', 'P18', 'P21', 'P28', 'P30']        |
| P32 |    1    |        ['T14', 'T17']       |        ['T13', 'T16']       |        ['P1', 'P4', 'P15', 'P18', 'P21', 'P27', 'P28']        |
| P32 |    1    |     ['T2', 'T14', 'T17']    |     ['T3', 'T13', 'T16']    |     ['P1', 'P2', 'P4', 'P15', 'P18', 'P21', 'P28', 'P30']     |
| P32 |    1    |     ['T2', 'T14', 'T17']    |     ['T3', 'T13', 'T16']    |     ['P1', 'P2', 'P4', 'P15', 'P18', 'P21', 'P27', 'P28']     |
| P32 |    2    | ['T2', 'T12', 'T14', 'T17'] | ['T1', 'T10', 'T13', 'T16'] | ['P2', 'P4', 'P10', 'P15', 'P18', 'P21', 'P27', 'P28', 'P29'] |
| P32 |    1    |     ['T5', 'T14', 'T17']    |     ['T6', 'T13', 'T16']    |     ['P1', 'P4', 'P5', 'P15', 'P18', 'P21', 'P28', 'P30']     |
| P32 |    1    |     ['T5', 'T14', 'T17']    |     ['T6', 'T13', 'T16']    |     ['P1', 'P4', 'P5', 'P15', 'P18', 'P21', 'P27', 'P28']     |
| P32 |    1    |  ['T2', 'T5', 'T14', 'T17'] |  ['T3', 'T6', 'T13', 'T16'] |  ['P1', 'P2', 'P4', 'P5', 'P15', 'P18', 'P21', 'P28', 'P30']  |
| P32 |    1    |  ['T2', 'T5', 'T14', 'T17'] |  ['T3', 'T6', 'T13', 'T16'] |  ['P1', 'P2', 'P4', 'P5', 'P15', 'P18', 'P21', 'P27', 'P28']  |
| P32 |    1    |        ['T2', 'T11']        |        ['T1', 'T10']        |        ['P2', 'P10', 'P15', 'P18', 'P20', 'P29', 'P30']       |
| P32 |    1    |     ['T2', 'T11', 'T17']    |     ['T1', 'T10', 'T16']    |     ['P2', 'P4', 'P10', 'P15', 'P17', 'P21', 'P28', 'P29']    |
+-----+---------+-----------------------------+-----------------------------+---------------------------------------------------------------+ 

18/09/2021 18:25:29[INFO] Supervisores agregados   
+-----+-------+---------+-------------+------------+----------------+
| Nro | Plaza | Marcado | T - Entrada | T - Salida | MAL supervisor |
+-----+-------+---------+-------------+------------+----------------+
+-----+-------+---------+-------------+------------+----------------+ 

18/09/2021 18:25:29[INFO] Supervisores eliminados   
+-----+-------+---------+---------------+---------------+----------------+
| Nro | Plaza | Marcado |  T - Entrada  |   T - Salida  | MAL supervisor |
+-----+-------+---------+---------------+---------------+----------------+
|  1  |  P31  |    1    | ['T2', 'T11'] | ['T1', 'T10'] |     False      |
+-----+-------+---------+---------------+---------------+----------------+ 

18/09/2021 18:25:29[INFO] Ejecutando accion...   
18/09/2021 18:25:29[ACTION] Agrego supervisor con menor numero de arcos de salida (MNAS)   
18/09/2021 18:25:29[INFO] Supervisor con menor cantidad de arcos de salida agregado 2   

--------------------------------------------------------------------------   
18/09/2021 18:25:29[INFO] Ejecutando petrinator para conocer estado de la red...   
--------------------------------------------------------------------------
   
--------------------------------------------------------------------------
   
18/09/2021 18:25:35[INFO] Calculando recompensa..   
18/09/2021 18:25:35[REWARD] Agregue un supervisor que genero menos sifones vacios en deadlock, recompensa -1   

--------------------------------------------------------------------------
   
18/09/2021 18:25:35[STATE] Cambie al estado 2: Hay menos sifones vacios en deadlock   
+--------+---------+-------------------+----------------+---------+---------+------------------------+
| Plazas | Estados | Tokens trabajando | Sifones vacios | Sifones | Trampas | Supervisores agregados |
+--------+---------+-------------------+----------------+---------+---------+------------------------+
|   31   |   136   |        380        |       10       |   159   |   174   |           1            |
|   30   |   140   |        392        |       12       |    92   |   105   |           0            |
|   31   |   136   |        380        |       3        |    94   |   124   |           1            |
+--------+---------+-------------------+----------------+---------+---------+------------------------+ 
+------------------------------+------------+-----------------+--------------------+-----------------------+
|       Estados/Acciones       | + sup MNAS | + sup aleatorio | - sup MAL agregado | - ultimo sup agregado |
+------------------------------+------------+-----------------+--------------------+-----------------------+
|            Start             |    -1.0    |       0.0       |        0.0         |          0.0          |
| + sifónes vacíos en deadlock |    -1.0    |       0.0       |        0.0         |          0.0          |
| - sifónes vacíos en deadlock |    0.0     |       0.0       |        0.0         |         -30.0         |
| = sifónes vacíos en deadlock |    0.0     |       0.0       |        0.0         |          0.0          |
|             End              |    0.0     |       0.0       |        0.0         |          0.0          |
+------------------------------+------------+-----------------+--------------------+-----------------------+ 

18/09/2021 18:25:35[INFO] SIFONES   
+----+-----+---------------------------------------------------------------+
| ID | Nro |                             Plazas                            |
+----+-----+---------------------------------------------------------------+
| 34 |  2  | ['P2', 'P4', 'P10', 'P15', 'P18', 'P21', 'P28', 'P29', 'P30'] |
| 35 |  39 |        ['P2', 'P10', 'P15', 'P18', 'P20', 'P29', 'P30']       |
| 36 |  55 |     ['P2', 'P4', 'P10', 'P15', 'P17', 'P21', 'P28', 'P29']    |
+----+-----+---------------------------------------------------------------+ 

18/09/2021 18:25:35[INFO] T INVARIANTES   
+----+----+----+----+----+----+----+----+----+----+-----+-----+-----+-----+-----+-----+-----+-----+
| T0 | T1 | T2 | T3 | T4 | T5 | T6 | T7 | T8 | T9 | T10 | T11 | T12 | T13 | T14 | T15 | T16 | T17 |
+----+----+----+----+----+----+----+----+----+----+-----+-----+-----+-----+-----+-----+-----+-----+
| 1  | 1  | 1  | 0  | 0  | 0  | 0  | 0  | 0  | 0  |  0  |  0  |  0  |  0  |  0  |  0  |  0  |  0  |
| 0  | 0  | 0  | 1  | 1  | 1  | 0  | 0  | 0  | 0  |  0  |  0  |  0  |  0  |  0  |  0  |  0  |  0  |
| 0  | 0  | 0  | 0  | 0  | 0  | 1  | 1  | 1  | 0  |  0  |  0  |  0  |  0  |  0  |  0  |  0  |  0  |
| 0  | 0  | 0  | 0  | 0  | 0  | 0  | 0  | 0  | 1  |  1  |  1  |  0  |  0  |  0  |  0  |  0  |  0  |
| 0  | 0  | 0  | 0  | 0  | 0  | 0  | 0  | 0  | 0  |  0  |  0  |  1  |  1  |  1  |  0  |  0  |  0  |
| 0  | 0  | 0  | 0  | 0  | 0  | 0  | 0  | 0  | 0  |  0  |  0  |  0  |  0  |  0  |  1  |  1  |  1  |
+----+----+----+----+----+----+----+----+----+----+-----+-----+-----+-----+-----+-----+-----+-----+ 

18/09/2021 18:25:35[INFO] Supervisores para agregar   
+-----+---------+-----------------------------+-----------------------------+---------------------------------------------------------------+
|  ID | Marcado |         T - Entrada         |          T - Salida         |                       Sifon a controlar                       |
+-----+---------+-----------------------------+-----------------------------+---------------------------------------------------------------+
| P33 |    2    | ['T2', 'T12', 'T14', 'T17'] | ['T1', 'T10', 'T13', 'T16'] | ['P2', 'P4', 'P10', 'P15', 'P18', 'P21', 'P28', 'P29', 'P30'] |
| P33 |    1    |        ['T2', 'T11']        |        ['T1', 'T10']        |        ['P2', 'P10', 'P15', 'P18', 'P20', 'P29', 'P30']       |
| P33 |    1    |     ['T2', 'T11', 'T17']    |     ['T1', 'T10', 'T16']    |     ['P2', 'P4', 'P10', 'P15', 'P17', 'P21', 'P28', 'P29']    |
+-----+---------+-----------------------------+-----------------------------+---------------------------------------------------------------+ 

18/09/2021 18:25:35[INFO] Supervisores agregados   
+-----+-------+---------+----------------+----------------+----------------+
| Nro | Plaza | Marcado |  T - Entrada   |   T - Salida   | MAL supervisor |
+-----+-------+---------+----------------+----------------+----------------+
|  2  |  P32  |    1    | ['T14', 'T17'] | ['T13', 'T16'] |     False      |
+-----+-------+---------+----------------+----------------+----------------+ 

18/09/2021 18:25:35[INFO] Supervisores eliminados   
+-----+-------+---------+---------------+---------------+----------------+
| Nro | Plaza | Marcado |  T - Entrada  |   T - Salida  | MAL supervisor |
+-----+-------+---------+---------------+---------------+----------------+
|  1  |  P31  |    1    | ['T2', 'T11'] | ['T1', 'T10'] |     False      |
+-----+-------+---------+---------------+---------------+----------------+ 

18/09/2021 18:25:35[INFO] Ejecutando accion...   
18/09/2021 18:25:35[ACTION] Agrego supervisor aleatorio Numero: 1  

--------------------------------------------------------------------------   
18/09/2021 18:25:35[INFO] Ejecutando petrinator para conocer estado de la red...   
--------------------------------------------------------------------------
   
--------------------------------------------------------------------------
   
18/09/2021 18:25:44[INFO] Calculando recompensa..   
18/09/2021 18:25:44[REWARD] No hay mas deadlock, recompensa 100   

--------------------------------------------------------------------------
   
18/09/2021 18:25:44[STATE] Se llego al estado deseado, NO HAY MAS DEADLOCK   

--------------------------------------------------------------------------
   
+--------+---------+-------------------+----------------+---------+---------+------------------------+
| Plazas | Estados | Tokens trabajando | Sifones vacios | Sifones | Trampas | Supervisores agregados |
+--------+---------+-------------------+----------------+---------+---------+------------------------+
|   31   |   136   |        380        |       10       |   159   |   174   |           1            |
|   30   |   140   |        392        |       12       |    92   |   105   |           0            |
|   31   |   136   |        380        |       3        |    94   |   124   |           1            |
|   32   |   132   |        368        |       0        |   259   |   205   |           2            |
+--------+---------+-------------------+----------------+---------+---------+------------------------+ 
+------------------------------+------------+-----------------+--------------------+-----------------------+
|       Estados/Acciones       | + sup MNAS | + sup aleatorio | - sup MAL agregado | - ultimo sup agregado |
+------------------------------+------------+-----------------+--------------------+-----------------------+
|            Start             |    -1.0    |       0.0       |        0.0         |          0.0          |
| + sifónes vacíos en deadlock |    -1.0    |       0.0       |        0.0         |          0.0          |
| - sifónes vacíos en deadlock |    0.0     |      100.0      |        0.0         |         -30.0         |
| = sifónes vacíos en deadlock |    0.0     |       0.0       |        0.0         |          0.0          |
|             End              |    0.0     |       0.0       |        0.0         |          0.0          |
+------------------------------+------------+-----------------+--------------------+-----------------------+ 

18/09/2021 18:25:44[INFO] Comienza proceso de eliminacion de supervisores redundantes   
18/09/2021 18:25:44[INFO] Supervisor a eliminar   
+-----+-------+---------+----------------+----------------+----------------+
| Nro | Plaza | Marcado |  T - Entrada   |   T - Salida   | MAL supervisor |
+-----+-------+---------+----------------+----------------+----------------+
|  2  |  P32  |    1    | ['T14', 'T17'] | ['T13', 'T16'] |     False      |
+-----+-------+---------+----------------+----------------+----------------+ 
18/09/2021 18:25:44[INFO] Eliminando supervisor ...   

--------------------------------------------------------------------------   
18/09/2021 18:25:44[INFO] Ejecutando petrinator para conocer estado de la red...   
--------------------------------------------------------------------------
   
18/09/2021 18:25:52[INFO] El supervisor eliminado no era redundante, volviendo a agregar supervisor   
18/09/2021 18:25:52[INFO] Se volvio a agregar correctamente el supervisor eliminado   

--------------------------------------------------------------------------   
18/09/2021 18:25:52[INFO] Ejecutando petrinator para conocer estado de la red...   
--------------------------------------------------------------------------
   
18/09/2021 18:26:00[INFO] Supervisor a eliminar   
+-----+-------+---------+---------------+---------------+----------------+
| Nro | Plaza | Marcado |  T - Entrada  |   T - Salida  | MAL supervisor |
+-----+-------+---------+---------------+---------------+----------------+
|  3  |  P33  |    1    | ['T2', 'T11'] | ['T1', 'T10'] |     False      |
+-----+-------+---------+---------------+---------------+----------------+ 
18/09/2021 18:26:00[INFO] Eliminando supervisor ...   

--------------------------------------------------------------------------   
18/09/2021 18:26:00[INFO] Ejecutando petrinator para conocer estado de la red...   
--------------------------------------------------------------------------
   
18/09/2021 18:26:07[INFO] El supervisor eliminado no era redundante, volviendo a agregar supervisor   
18/09/2021 18:26:07[INFO] Se volvio a agregar correctamente el supervisor eliminado   

--------------------------------------------------------------------------   
18/09/2021 18:26:07[INFO] Ejecutando petrinator para conocer estado de la red...   
--------------------------------------------------------------------------
   
18/09/2021 18:26:16[INFO] Se eliminaron todos los supervisores redundantes   
+--------+---------+-------------------+----------------+---------+---------+------------------------+-------------------------+
| Plazas | Estados | Tokens trabajando | Sifones vacios | Sifones | Trampas | Supervisores agregados | Supervisores eliminados |
+--------+---------+-------------------+----------------+---------+---------+------------------------+-------------------------+
|   32   |   132   |        368        |       0        |   259   |   205   |           2            |            0            |
+--------+---------+-------------------+----------------+---------+---------+------------------------+-------------------------+ 
