 Minimal siphons 
3 6 11 21 22
2 6 11 12 22 23
1 6 16
5 11 19
10 12
9 10 11 13
5 9 18
5 6 8
5 7
1 5 17
1 11 14
1 45 10
1 46 9
1 5 15
1 45 5 7 10
1 5 6 17
1 5 6 15
1 45 5 6 8 10
1 45 5 6 7 10
2 5 11 22
44 2 5 10
1 2 5 17
1 2 5 15
1 45 2 5 7 10
44 2 5 11 14
2 6 9 23
44 2 6 10 23
45 2 6 10 23
44 2 6 10 16
44 2 6 11 22 23
45 2 6 11 22 23
2 6 11 16 22
45 2 6 11 19 23
45 2 6 11 14 23
44 2 6 11 19 23
44 2 6 11 14 23
44 2 6 11 14 16
44 2 6 11 16 19
2 6 11 12 19 23
2 6 11 12 14 23
3 5 11 20
1 2 3 4
1 2 3 5 17
1 2 3 5 15
1 45 2 3 5 7 10
3 6 10 21
3 6 11 12 20 23
3 6 9 11 20 23
44 3 6 11 20 23
45 3 6 11 20 23
3 6 11 16 20 22
44 3 6 11 16 20
3 6 11 20 21
3 6 11 19 21
3 6 11 14 21 23
44 3 6 11 14 21
 Minimal traps 
1 5 17
2 5 9 21 22 23
5 9 18
3 6 10 21
10 12
9 10 11 13
3 5 10 20 21
5 11 19
5 7
5 6 8
3 5 11 20
3 5 10 19 21
2 6 9 23
2 5 10 21 22
2 5 11 22
44 2 5 10
2 5 9 12 22 23
44 2 5 9 23
2 5 9 11 20 23
2 5 9 12 20 23
2 5 9 12 19 23
2 5 9 20 21 23
2 5 9 19 21 23
1 6 16
1 46 9
1 11 14
1 2 3 4
1 45 10
1 6 9 14 21 23
1 45 6 9 23
1 6 9 12 14 23
1 5 9 16 21 22 23
1 5 10 16 21 22
1 5 11 16 22
1 5 15
1 5 10 14 21 22
1 44 5 10 14
1 44 5 10 16
1 5 9 14 21 22 23
1 45 5 9 22 23
1 45 5 9 20 23
1 45 5 9 19 23
1 45 44 5 9 23
1 45 5 9 10 19
1 5 9 12 14 22 23
1 44 5 9 14 23
1 5 9 12 14 20 23
1 5 9 12 14 19 23
1 5 9 14 20 21 23
1 5 9 14 19 21 23
1 5 9 12 16 22 23
1 44 5 9 16 23
1 5 9 11 16 20 23
1 5 9 12 16 20 23
1 5 9 12 16 19 23
1 5 9 16 20 21 23
1 5 9 16 19 21 23
 Analysis time: 0.943s