21/07/2021 10:10:12[DEBUG] pflow_file:  ../analysis/analisis_12_20072021/gen_nets2/20210720-191422_25/net.pflow  
21/07/2021 10:10:12[DEBUG] output_folder:  ../analysis/analisis_12_20072021/gen_nets2/20210720-191422_25/  
21/07/2021 10:10:12[DEBUG] html_path:  ../analysis/analisis_12_20072021/gen_nets2/20210720-191422_25/  
21/07/2021 10:10:12[DEBUG] txt_path:  ../analysis/analisis_12_20072021/gen_nets2/20210720-191422_25/txt_info  

--------------------------------------------------------------------------   
21/07/2021 10:10:12[INFO] Ejecutando petrinator para conocer estado de la red...   
--------------------------------------------------------------------------
   
21/07/2021 10:10:16[INFO] Leyendo archivos...   
21/07/2021 10:10:16[ERROR] Se produjo un error inesperado en la ejecucion del petrinator, abandonando analisis 
  
