19/07/2021 23:32:55[DEBUG] pflow_file:  ../analysis/analisis_11_19072021/gen_nets/20210719-224351_34/net.pflow  
19/07/2021 23:32:55[DEBUG] output_folder:  ../analysis/analisis_11_19072021/gen_nets/20210719-224351_34/  
19/07/2021 23:32:55[DEBUG] html_path:  ../analysis/analisis_11_19072021/gen_nets/20210719-224351_34/  
19/07/2021 23:32:55[DEBUG] txt_path:  ../analysis/analisis_11_19072021/gen_nets/20210719-224351_34/txt_info  

--------------------------------------------------------------------------   
19/07/2021 23:32:55[INFO] Ejecutando petrinator para conocer estado de la red...   
--------------------------------------------------------------------------
   
19/07/2021 23:33:02[ERROR] La red ingresada no tiene deadlock, cerrando analisis 
  
