15/09/2021 21:58:54[DEBUG] pflow_file:  ../test_networks/20210915-213836_25/net.pflow  
15/09/2021 21:58:54[DEBUG] output_folder:  ../test_networks/20210915-213836_25/  
15/09/2021 21:58:54[DEBUG] html_path:  ../test_networks/20210915-213836_25/  
15/09/2021 21:58:54[DEBUG] txt_path:  ../test_networks/20210915-213836_25/txt_info  

--------------------------------------------------------------------------   
15/09/2021 21:58:54[INFO] Ejecutando petrinator para conocer estado de la red...   
--------------------------------------------------------------------------
   
15/09/2021 21:59:01[INFO] SIFONES   
+----+-----+-------------------------------------------------------------+
| ID | Nro |                            Plazas                           |
+----+-----+-------------------------------------------------------------+
| 0  |  94 |           ['P2', 'P6', 'P14', 'P19', 'P28', 'P30']          |
| 1  | 101 | ['P2', 'P3', 'P6', 'P8', 'P14', 'P19', 'P26', 'P28', 'P30'] |
| 2  | 104 |  ['P2', 'P3', 'P6', 'P7', 'P8', 'P14', 'P19', 'P28', 'P30'] |
+----+-----+-------------------------------------------------------------+ 

15/09/2021 21:59:01[INFO] T INVARIANTES   
+----+----+----+----+----+----+----+----+----+----+-----+-----+-----+-----+-----+-----+-----+-----+-----+
| T0 | T1 | T2 | T3 | T4 | T5 | T6 | T7 | T8 | T9 | T10 | T11 | T12 | T13 | T14 | T15 | T16 | T17 | T18 |
+----+----+----+----+----+----+----+----+----+----+-----+-----+-----+-----+-----+-----+-----+-----+-----+
| 1  | 1  | 1  | 1  | 0  | 0  | 0  | 0  | 0  | 0  |  0  |  0  |  0  |  0  |  0  |  0  |  0  |  0  |  0  |
| 0  | 0  | 0  | 0  | 1  | 1  | 1  | 1  | 0  | 0  |  0  |  0  |  0  |  0  |  0  |  0  |  0  |  0  |  0  |
| 0  | 0  | 0  | 0  | 0  | 0  | 0  | 0  | 1  | 1  |  1  |  1  |  1  |  0  |  0  |  0  |  0  |  1  |  1  |
| 0  | 0  | 0  | 0  | 0  | 0  | 0  | 0  | 0  | 0  |  0  |  0  |  0  |  1  |  1  |  1  |  1  |  1  |  1  |
+----+----+----+----+----+----+----+----+----+----+-----+-----+-----+-----+-----+-----+-----+-----+-----+ 

15/09/2021 21:59:01[INFO] Supervisores para agregar   
+-----+---------+---------------------+---------------------+-------------------------------------------------------------+
|  ID | Marcado |     T - Entrada     |      T - Salida     |                      Sifon a controlar                      |
+-----+---------+---------------------+---------------------+-------------------------------------------------------------+
| P32 |    1    |    ['T2', 'T15']    |    ['T1', 'T14']    |           ['P2', 'P6', 'P14', 'P19', 'P28', 'P30']          |
| P32 |    2    |    ['T2', 'T15']    |    ['T1', 'T14']    | ['P2', 'P3', 'P6', 'P8', 'P14', 'P19', 'P26', 'P28', 'P30'] |
| P32 |    1    | ['T2', 'T6', 'T15'] | ['T1', 'T8', 'T14'] |  ['P2', 'P3', 'P6', 'P7', 'P8', 'P14', 'P19', 'P28', 'P30'] |
+-----+---------+---------------------+---------------------+-------------------------------------------------------------+ 

15/09/2021 21:59:01[INFO] Supervisores agregados   
+-----+-------+---------+-------------+------------+----------------+
| Nro | Plaza | Marcado | T - Entrada | T - Salida | MAL supervisor |
+-----+-------+---------+-------------+------------+----------------+
+-----+-------+---------+-------------+------------+----------------+ 

15/09/2021 21:59:01[INFO] Supervisores eliminados   
+-----+-------+---------+-------------+------------+----------------+
| Nro | Plaza | Marcado | T - Entrada | T - Salida | MAL supervisor |
+-----+-------+---------+-------------+------------+----------------+
+-----+-------+---------+-------------+------------+----------------+ 

15/09/2021 21:59:01[INFO] Ejecutando accion...   
15/09/2021 21:59:01[ACTION] Agrego supervisor con menor numero de arcos de salida (MNAS)   
15/09/2021 21:59:01[INFO] Supervisor con menor cantidad de arcos de salida agregado 0   

--------------------------------------------------------------------------   
15/09/2021 21:59:01[INFO] Ejecutando petrinator para conocer estado de la red...   
--------------------------------------------------------------------------
   
--------------------------------------------------------------------------
   
15/09/2021 21:59:10[INFO] Calculando recompensa..   
15/09/2021 21:59:10[REWARD] No hay mas deadlock, recompensa 100   

--------------------------------------------------------------------------
   
15/09/2021 21:59:10[STATE] Se llego al estado deseado, NO HAY MAS DEADLOCK   

--------------------------------------------------------------------------
   
+--------+---------+-------------------+----------------+---------+---------+------------------------+
| Plazas | Estados | Tokens trabajando | Sifones vacios | Sifones | Trampas | Supervisores agregados |
+--------+---------+-------------------+----------------+---------+---------+------------------------+
|   32   |   185   |        514        |       0        |   190   |   158   |           1            |
+--------+---------+-------------------+----------------+---------+---------+------------------------+ 
+------------------------------+------------+-----------------+--------------------+-----------------------+
|       Estados/Acciones       | + sup MNAS | + sup aleatorio | - sup MAL agregado | - ultimo sup agregado |
+------------------------------+------------+-----------------+--------------------+-----------------------+
|            Start             |   100.0    |       0.0       |        0.0         |          0.0          |
| + sifónes vacíos en deadlock |    0.0     |       0.0       |        0.0         |          0.0          |
| - sifónes vacíos en deadlock |    0.0     |       0.0       |        0.0         |          0.0          |
| = sifónes vacíos en deadlock |    0.0     |       0.0       |        0.0         |          0.0          |
|             End              |    0.0     |       0.0       |        0.0         |          0.0          |
+------------------------------+------------+-----------------+--------------------+-----------------------+ 

15/09/2021 21:59:10[INFO] Comienza proceso de eliminacion de supervisores redundantes   
15/09/2021 21:59:10[INFO] Supervisor a eliminar   
+-----+-------+---------+---------------+---------------+----------------+
| Nro | Plaza | Marcado |  T - Entrada  |   T - Salida  | MAL supervisor |
+-----+-------+---------+---------------+---------------+----------------+
|  1  |  P32  |    1    | ['T2', 'T15'] | ['T1', 'T14'] |     False      |
+-----+-------+---------+---------------+---------------+----------------+ 
15/09/2021 21:59:10[INFO] Eliminando supervisor ...   

--------------------------------------------------------------------------   
15/09/2021 21:59:10[INFO] Ejecutando petrinator para conocer estado de la red...   
--------------------------------------------------------------------------
   
15/09/2021 21:59:17[INFO] El supervisor eliminado no era redundante, volviendo a agregar supervisor   
15/09/2021 21:59:17[INFO] Se volvio a agregar correctamente el supervisor eliminado   

--------------------------------------------------------------------------   
15/09/2021 21:59:17[INFO] Ejecutando petrinator para conocer estado de la red...   
--------------------------------------------------------------------------
   
15/09/2021 21:59:26[INFO] Se eliminaron todos los supervisores redundantes   
+--------+---------+-------------------+----------------+---------+---------+------------------------+-------------------------+
| Plazas | Estados | Tokens trabajando | Sifones vacios | Sifones | Trampas | Supervisores agregados | Supervisores eliminados |
+--------+---------+-------------------+----------------+---------+---------+------------------------+-------------------------+
|   32   |   185   |        514        |       0        |   190   |   158   |           1            |            0            |
+--------+---------+-------------------+----------------+---------+---------+------------------------+-------------------------+ 
