19/06/2021 18:08:58[DEBUG] pflow_file:  ../Prueba/gen_nets/20210619-175223_36/net.pflow  
19/06/2021 18:08:58[DEBUG] output_folder:  ../Prueba/gen_nets/20210619-175223_36/  
19/06/2021 18:08:58[DEBUG] html_path:  ../Prueba/gen_nets/20210619-175223_36/  
19/06/2021 18:08:58[DEBUG] txt_path:  ../Prueba/gen_nets/20210619-175223_36/txt_info  

--------------------------------------------------------------------------   
19/06/2021 18:08:58[INFO] Ejecutando petrinator para conocer estado de la red...   
--------------------------------------------------------------------------
   
19/06/2021 18:09:02[INFO] Leyendo archivos...   
19/06/2021 18:09:03[INFO] Cantidad de estados 585  
19/06/2021 18:09:03[INFO] Cantidad de transiciones 17  
19/06/2021 18:09:03[INFO] Cantidad de plazas 26  
19/06/2021 18:09:03[INFO] Cantidad de sifones 31  
19/06/2021 18:09:03[INFO] Cantidad de trampas 32  

--------------------------------------------------------------------------
   
19/06/2021 18:09:03[INFO] Cantidad de entrenamientos a realizar:  1  
19/06/2021 18:09:03[INFO] Entrenamiento numero : 0 
 
19/06/2021 18:09:03[INFO] Q-TABLE   
+-----------------------------------------------------+--------------------+------------------------+
|                   Estados/Acciones                  | Agregar supervisor | Agregar o quitar arcos |
+-----------------------------------------------------+--------------------+------------------------+
|                        Start                        |        0.0         |          0.0           |
|        Más sifónes vacíos en estado deadlock        |        0.0         |          0.0           |
|       Menos sifónes vacíos en estado deadlock       |        0.0         |          0.0           |
| Igual cantidad de sifónes vacíos en estado deadlock |        0.0         |          0.0           |
|                         End                         |        0.0         |          0.0           |
+-----------------------------------------------------+--------------------+------------------------+

--------------------------------------------------------------------------   
19/06/2021 18:09:03[INFO] Ejecutando petrinator para conocer estado de la red...   
--------------------------------------------------------------------------
   
19/06/2021 18:09:08[INFO] Importando datos desde html...   
19/06/2021 18:09:08[INFO] Analizando cantidad de supervisores que se pueden agregar...   
19/06/2021 18:09:08[ERROR] marcado: 2 t_in: 4   
19/06/2021 18:09:08[ERROR] marcado: 3 t_in: 4   
19/06/2021 18:09:08[ERROR] marcado: 3 t_in: 4   
19/06/2021 18:09:08[ERROR] marcado: 2 t_in: 4   
19/06/2021 18:09:08[ERROR] marcado: 2 t_in: 4   
19/06/2021 18:09:08[ERROR] marcado: 2 t_in: 4   
19/06/2021 18:09:08[ERROR] marcado: 3 t_in: 4   
19/06/2021 18:09:08[ERROR] marcado: 3 t_in: 4   
19/06/2021 18:09:08[ERROR] marcado: 1 t_in: 3   
19/06/2021 18:09:08[ERROR] marcado: 1 t_in: 3   
19/06/2021 18:09:08[ERROR] marcado: 1 t_in: 3   
19/06/2021 18:09:08[ERROR] marcado: 1 t_in: 3   
19/06/2021 18:09:08[INFO] Cantidad de transiciones: 17  
19/06/2021 18:09:08[INFO] Estados de deadlock : [51, 425, 541]  
19/06/2021 18:09:08[INFO] Cantidad de sifones: 31  
19/06/2021 18:09:08[INFO] Cantidad de sifones vacios en estado de deadlock: 12 
 
19/06/2021 18:09:08[INFO] SIFONES   
+----+-----+--------------------------------------------------------+
| ID | Nro |                         Plazas                         |
+----+-----+--------------------------------------------------------+
| 0  |  1  |    ['P4', 'P11', 'P15', 'P18', 'P24', 'P25', 'P26']    |
| 1  |  19 | ['P4', 'P7', 'P11', 'P14', 'P18', 'P22', 'P23', 'P25'] |
| 2  |  22 | ['P4', 'P5', 'P7', 'P11', 'P14', 'P18', 'P22', 'P23']  |
| 3  |  24 |    ['P4', 'P11', 'P15', 'P18', 'P23', 'P25', 'P26']    |
| 4  |  25 |    ['P4', 'P5', 'P11', 'P15', 'P18', 'P23', 'P26']     |
| 5  |  27 |    ['P4', 'P5', 'P11', 'P15', 'P18', 'P24', 'P26']     |
| 6  |  30 | ['P4', 'P5', 'P7', 'P11', 'P15', 'P18', 'P22', 'P24']  |
| 7  |  31 | ['P4', 'P7', 'P11', 'P15', 'P18', 'P22', 'P24', 'P25'] |
| 8  |  20 |    ['P1', 'P4', 'P11', 'P14', 'P18', 'P22', 'P23']     |
| 9  |  26 |    ['P2', 'P4', 'P11', 'P15', 'P18', 'P23', 'P26']     |
| 10 |  28 |    ['P2', 'P4', 'P11', 'P15', 'P18', 'P24', 'P26']     |
| 11 |  29 |    ['P1', 'P4', 'P11', 'P15', 'P18', 'P22', 'P24']     |
+----+-----+--------------------------------------------------------+
19/06/2021 18:09:08[INFO] T INVARIANTES   
+----+----+----+----+----+----+----+----+----+----+-----+-----+-----+-----+-----+-----+-----+
| T0 | T1 | T2 | T3 | T4 | T5 | T6 | T7 | T8 | T9 | T10 | T11 | T12 | T13 | T14 | T15 | T16 |
+----+----+----+----+----+----+----+----+----+----+-----+-----+-----+-----+-----+-----+-----+
| 1  | 1  | 1  | 1  | 1  | 0  | 0  | 0  | 0  | 0  |  0  |  0  |  0  |  0  |  0  |  0  |  0  |
| 0  | 0  | 0  | 0  | 0  | 1  | 1  | 1  | 1  | 0  |  0  |  0  |  0  |  0  |  0  |  0  |  0  |
| 0  | 0  | 0  | 0  | 0  | 0  | 0  | 0  | 0  | 1  |  1  |  1  |  0  |  0  |  0  |  1  |  1  |
| 0  | 0  | 0  | 0  | 0  | 0  | 0  | 0  | 0  | 0  |  0  |  0  |  1  |  1  |  1  |  1  |  1  |
+----+----+----+----+----+----+----+----+----+----+-----+-----+-----+-----+-----+-----+-----+
19/06/2021 18:09:08[INFO] POSIBLES SUPERVISORES A AGREGAR   
+-----+---------+----------------------------+---------------------+
|  ID | Marcado |        T - Entrada         |      T - Salida     |
+-----+---------+----------------------------+---------------------+
| P27 |    2    | ['T4', 'T8', 'T12', 'T14'] | ['T1', 'T6', 'T16'] |
| P27 |    3    | ['T4', 'T8', 'T11', 'T14'] | ['T1', 'T6', 'T16'] |
| P27 |    3    | ['T4', 'T8', 'T11', 'T14'] | ['T1', 'T6', 'T16'] |
| P27 |    2    | ['T4', 'T8', 'T11', 'T14'] | ['T1', 'T6', 'T16'] |
| P27 |    2    | ['T4', 'T8', 'T11', 'T14'] | ['T1', 'T6', 'T16'] |
| P27 |    2    | ['T4', 'T8', 'T12', 'T14'] | ['T1', 'T6', 'T16'] |
| P27 |    3    | ['T4', 'T8', 'T11', 'T14'] | ['T1', 'T6', 'T16'] |
| P27 |    3    | ['T4', 'T8', 'T11', 'T14'] | ['T1', 'T6', 'T16'] |
| P27 |    1    |    ['T8', 'T11', 'T14']    | ['T1', 'T6', 'T16'] |
| P27 |    1    |    ['T8', 'T11', 'T14']    | ['T1', 'T6', 'T16'] |
| P27 |    1    |    ['T8', 'T12', 'T14']    | ['T1', 'T6', 'T16'] |
| P27 |    1    |    ['T8', 'T11', 'T14']    | ['T1', 'T6', 'T16'] |
+-----+---------+----------------------------+---------------------+

--------------------------------------------------------------------------
   
19/06/2021 18:09:08[INFO] Ejecutando accion...   
19/06/2021 18:09:08[ACTION] Agregar supervisor    
19/06/2021 18:09:08[ACTION] Agrego supervisor Numero: 0  

--------------------------------------------------------------------------   
19/06/2021 18:09:08[INFO] Ejecutando petrinator para conocer estado de la red...   
--------------------------------------------------------------------------
   
19/06/2021 18:09:12[INFO] Importando datos desde html...   
19/06/2021 18:09:12[INFO] Analizando cantidad de supervisores que se pueden agregar...   
19/06/2021 18:09:12[ERROR] marcado: 2 t_in: 4   
19/06/2021 18:09:12[ERROR] marcado: 1 t_in: 3   
19/06/2021 18:09:12[ERROR] marcado: 2 t_in: 4   
19/06/2021 18:09:12[ERROR] marcado: 1 t_in: 3   
19/06/2021 18:09:12[ERROR] marcado: 1 t_in: 3   
19/06/2021 18:09:12[ERROR] marcado: 1 t_in: 3   
19/06/2021 18:09:12[INFO] Cantidad de sifones vacios en estado de deadlock ANTES: 12  
19/06/2021 18:09:12[INFO] Cantidad de sifones vacioes en estado de deadlock AHORA: 6  
19/06/2021 18:09:12[INFO] Cantidad de transiciones: 17  
19/06/2021 18:09:12[INFO] Estados de deadlock : [140]  
19/06/2021 18:09:12[INFO] Cantidad de sifones: 45  
19/06/2021 18:09:12[INFO] Cantidad de sifones vacios en estado de deadlock: 6 
 
19/06/2021 18:09:12[INFO] SIFONES   
+----+-----+--------------------------------------------------+
| ID | Nro |                      Plazas                      |
+----+-----+--------------------------------------------------+
| 12 |  1  | ['P4', 'P11', 'P15', 'P18', 'P24', 'P25', 'P26'] |
| 13 |  24 | ['P1', 'P4', 'P11', 'P14', 'P18', 'P22', 'P23']  |
| 14 |  28 | ['P4', 'P11', 'P15', 'P18', 'P23', 'P25', 'P26'] |
| 15 |  40 | ['P2', 'P4', 'P11', 'P15', 'P18', 'P23', 'P26']  |
| 16 |  42 | ['P2', 'P4', 'P11', 'P15', 'P18', 'P24', 'P26']  |
| 17 |  43 | ['P1', 'P4', 'P11', 'P15', 'P18', 'P22', 'P24']  |
+----+-----+--------------------------------------------------+
19/06/2021 18:09:12[INFO] T INVARIANTES   
+----+----+----+----+----+----+----+----+----+----+-----+-----+-----+-----+-----+-----+-----+
| T0 | T1 | T2 | T3 | T4 | T5 | T6 | T7 | T8 | T9 | T10 | T11 | T12 | T13 | T14 | T15 | T16 |
+----+----+----+----+----+----+----+----+----+----+-----+-----+-----+-----+-----+-----+-----+
| 1  | 1  | 1  | 1  | 1  | 0  | 0  | 0  | 0  | 0  |  0  |  0  |  0  |  0  |  0  |  0  |  0  |
| 0  | 0  | 0  | 0  | 0  | 1  | 1  | 1  | 1  | 0  |  0  |  0  |  0  |  0  |  0  |  0  |  0  |
| 0  | 0  | 0  | 0  | 0  | 0  | 0  | 0  | 0  | 1  |  1  |  1  |  0  |  0  |  0  |  1  |  1  |
| 0  | 0  | 0  | 0  | 0  | 0  | 0  | 0  | 0  | 0  |  0  |  0  |  1  |  1  |  1  |  1  |  1  |
+----+----+----+----+----+----+----+----+----+----+-----+-----+-----+-----+-----+-----+-----+
19/06/2021 18:09:12[INFO] POSIBLES SUPERVISORES A AGREGAR   
+-----+---------+----------------------------+---------------------+
|  ID | Marcado |        T - Entrada         |      T - Salida     |
+-----+---------+----------------------------+---------------------+
| P28 |    2    | ['T4', 'T8', 'T12', 'T14'] | ['T1', 'T6', 'T16'] |
| P28 |    1    |    ['T8', 'T11', 'T14']    | ['T1', 'T6', 'T16'] |
| P28 |    2    | ['T4', 'T8', 'T11', 'T14'] | ['T1', 'T6', 'T16'] |
| P28 |    1    |    ['T8', 'T11', 'T14']    | ['T1', 'T6', 'T16'] |
| P28 |    1    |    ['T8', 'T12', 'T14']    | ['T1', 'T6', 'T16'] |
| P28 |    1    |    ['T8', 'T11', 'T14']    | ['T1', 'T6', 'T16'] |
+-----+---------+----------------------------+---------------------+
19/06/2021 18:09:12[INFO] Actualizando estado de la red..   
19/06/2021 18:09:12[STATE] Cambie al estado 2: Hay menos sifones vacios en deadlock   

--------------------------------------------------------------------------
   
19/06/2021 18:09:12[INFO] Calculando recompensa..   
19/06/2021 18:09:12[REWARD] El sifon se controlo correctamente, recompensa -1   

--------------------------------------------------------------------------
   
19/06/2021 18:09:12[INFO] NEW Q-TABLE   
+-----------------------------------------------------+--------------------+------------------------+
|                   Estados/Acciones                  | Agregar supervisor | Agregar o quitar arcos |
+-----------------------------------------------------+--------------------+------------------------+
|                        Start                        |        -0.9        |          0.0           |
|        Más sifónes vacíos en estado deadlock        |        0.0         |          0.0           |
|       Menos sifónes vacíos en estado deadlock       |        0.0         |          0.0           |
| Igual cantidad de sifónes vacíos en estado deadlock |        0.0         |          0.0           |
|                         End                         |        0.0         |          0.0           |
+-----------------------------------------------------+--------------------+------------------------+

--------------------------------------------------------------------------
   
19/06/2021 18:09:12[INFO] Ejecutando accion...   
19/06/2021 18:09:12[ACTION] Agregar o quitar arcos   

--------------------------------------------------------------------------   
19/06/2021 18:09:12[INFO] Ejecutando petrinator para conocer estado de la red...   
--------------------------------------------------------------------------
   
19/06/2021 18:09:17[INFO] Importando datos desde html...   
19/06/2021 18:09:17[INFO] Analizando cantidad de supervisores que se pueden agregar...   
19/06/2021 18:09:17[ERROR] marcado: 2 t_in: 4   
19/06/2021 18:09:17[ERROR] marcado: 1 t_in: 3   
19/06/2021 18:09:17[ERROR] marcado: 2 t_in: 4   
19/06/2021 18:09:17[ERROR] marcado: 1 t_in: 3   
19/06/2021 18:09:17[ERROR] marcado: 1 t_in: 3   
19/06/2021 18:09:17[ERROR] marcado: 1 t_in: 3   
19/06/2021 18:09:17[INFO] Cantidad de sifones vacios en estado de deadlock ANTES: 6  
19/06/2021 18:09:17[INFO] Cantidad de sifones vacioes en estado de deadlock AHORA: 6  
19/06/2021 18:09:17[INFO] Cantidad de transiciones: 17  
19/06/2021 18:09:17[INFO] Estados de deadlock : [140]  
19/06/2021 18:09:17[INFO] Cantidad de sifones: 45  
19/06/2021 18:09:17[INFO] Cantidad de sifones vacios en estado de deadlock: 6 
 
19/06/2021 18:09:17[INFO] SIFONES   
+----+-----+--------------------------------------------------+
| ID | Nro |                      Plazas                      |
+----+-----+--------------------------------------------------+
| 18 |  1  | ['P4', 'P11', 'P15', 'P18', 'P24', 'P25', 'P26'] |
| 19 |  24 | ['P1', 'P4', 'P11', 'P14', 'P18', 'P22', 'P23']  |
| 20 |  28 | ['P4', 'P11', 'P15', 'P18', 'P23', 'P25', 'P26'] |
| 21 |  40 | ['P2', 'P4', 'P11', 'P15', 'P18', 'P23', 'P26']  |
| 22 |  42 | ['P2', 'P4', 'P11', 'P15', 'P18', 'P24', 'P26']  |
| 23 |  43 | ['P1', 'P4', 'P11', 'P15', 'P18', 'P22', 'P24']  |
+----+-----+--------------------------------------------------+
19/06/2021 18:09:17[INFO] T INVARIANTES   
+----+----+----+----+----+----+----+----+----+----+-----+-----+-----+-----+-----+-----+-----+
| T0 | T1 | T2 | T3 | T4 | T5 | T6 | T7 | T8 | T9 | T10 | T11 | T12 | T13 | T14 | T15 | T16 |
+----+----+----+----+----+----+----+----+----+----+-----+-----+-----+-----+-----+-----+-----+
| 1  | 1  | 1  | 1  | 1  | 0  | 0  | 0  | 0  | 0  |  0  |  0  |  0  |  0  |  0  |  0  |  0  |
| 0  | 0  | 0  | 0  | 0  | 1  | 1  | 1  | 1  | 0  |  0  |  0  |  0  |  0  |  0  |  0  |  0  |
| 0  | 0  | 0  | 0  | 0  | 0  | 0  | 0  | 0  | 1  |  1  |  1  |  0  |  0  |  0  |  1  |  1  |
| 0  | 0  | 0  | 0  | 0  | 0  | 0  | 0  | 0  | 0  |  0  |  0  |  1  |  1  |  1  |  1  |  1  |
+----+----+----+----+----+----+----+----+----+----+-----+-----+-----+-----+-----+-----+-----+
19/06/2021 18:09:17[INFO] POSIBLES SUPERVISORES A AGREGAR   
+-----+---------+----------------------------+---------------------+
|  ID | Marcado |        T - Entrada         |      T - Salida     |
+-----+---------+----------------------------+---------------------+
| P28 |    2    | ['T4', 'T8', 'T12', 'T14'] | ['T1', 'T6', 'T16'] |
| P28 |    1    |    ['T8', 'T11', 'T14']    | ['T1', 'T6', 'T16'] |
| P28 |    2    | ['T4', 'T8', 'T11', 'T14'] | ['T1', 'T6', 'T16'] |
| P28 |    1    |    ['T8', 'T11', 'T14']    | ['T1', 'T6', 'T16'] |
| P28 |    1    |    ['T8', 'T12', 'T14']    | ['T1', 'T6', 'T16'] |
| P28 |    1    |    ['T8', 'T11', 'T14']    | ['T1', 'T6', 'T16'] |
+-----+---------+----------------------------+---------------------+
19/06/2021 18:09:17[INFO] Actualizando estado de la red..   
19/06/2021 18:09:17[STATE] Cambie al estado 3: Hay igual cantidad de sifones vacios en deadlock   

--------------------------------------------------------------------------
   
19/06/2021 18:09:17[INFO] Calculando recompensa..   
19/06/2021 18:09:17[REWARD] Hay menos o igual cantidad de sifones vacios que en el estado anterior, recompensa -1   

--------------------------------------------------------------------------
   
19/06/2021 18:09:17[INFO] NEW Q-TABLE   
+-----------------------------------------------------+--------------------+------------------------+
|                   Estados/Acciones                  | Agregar supervisor | Agregar o quitar arcos |
+-----------------------------------------------------+--------------------+------------------------+
|                        Start                        |        -0.9        |          0.0           |
|        Más sifónes vacíos en estado deadlock        |        0.0         |          0.0           |
|       Menos sifónes vacíos en estado deadlock       |        0.0         |          -0.9          |
| Igual cantidad de sifónes vacíos en estado deadlock |        0.0         |          0.0           |
|                         End                         |        0.0         |          0.0           |
+-----------------------------------------------------+--------------------+------------------------+

--------------------------------------------------------------------------
   
19/06/2021 18:09:17[INFO] Ejecutando accion...   
19/06/2021 18:09:17[ACTION] Agregar o quitar arcos   

--------------------------------------------------------------------------   
19/06/2021 18:09:17[INFO] Ejecutando petrinator para conocer estado de la red...   
--------------------------------------------------------------------------
   
19/06/2021 18:09:21[INFO] Importando datos desde html...   
19/06/2021 18:09:21[INFO] Analizando cantidad de supervisores que se pueden agregar...   
19/06/2021 18:09:21[ERROR] marcado: 2 t_in: 4   
19/06/2021 18:09:21[ERROR] marcado: 1 t_in: 3   
19/06/2021 18:09:21[ERROR] marcado: 2 t_in: 4   
19/06/2021 18:09:21[ERROR] marcado: 1 t_in: 3   
19/06/2021 18:09:21[ERROR] marcado: 1 t_in: 3   
19/06/2021 18:09:21[ERROR] marcado: 1 t_in: 3   
19/06/2021 18:09:21[INFO] Cantidad de sifones vacios en estado de deadlock ANTES: 6  
19/06/2021 18:09:21[INFO] Cantidad de sifones vacioes en estado de deadlock AHORA: 6  
19/06/2021 18:09:21[INFO] Cantidad de transiciones: 17  
19/06/2021 18:09:21[INFO] Estados de deadlock : [140]  
19/06/2021 18:09:21[INFO] Cantidad de sifones: 45  
19/06/2021 18:09:21[INFO] Cantidad de sifones vacios en estado de deadlock: 6 
 
19/06/2021 18:09:21[INFO] SIFONES   
+----+-----+--------------------------------------------------+
| ID | Nro |                      Plazas                      |
+----+-----+--------------------------------------------------+
| 24 |  1  | ['P4', 'P11', 'P15', 'P18', 'P24', 'P25', 'P26'] |
| 25 |  24 | ['P1', 'P4', 'P11', 'P14', 'P18', 'P22', 'P23']  |
| 26 |  28 | ['P4', 'P11', 'P15', 'P18', 'P23', 'P25', 'P26'] |
| 27 |  40 | ['P2', 'P4', 'P11', 'P15', 'P18', 'P23', 'P26']  |
| 28 |  42 | ['P2', 'P4', 'P11', 'P15', 'P18', 'P24', 'P26']  |
| 29 |  43 | ['P1', 'P4', 'P11', 'P15', 'P18', 'P22', 'P24']  |
+----+-----+--------------------------------------------------+
19/06/2021 18:09:21[INFO] T INVARIANTES   
+----+----+----+----+----+----+----+----+----+----+-----+-----+-----+-----+-----+-----+-----+
| T0 | T1 | T2 | T3 | T4 | T5 | T6 | T7 | T8 | T9 | T10 | T11 | T12 | T13 | T14 | T15 | T16 |
+----+----+----+----+----+----+----+----+----+----+-----+-----+-----+-----+-----+-----+-----+
| 1  | 1  | 1  | 1  | 1  | 0  | 0  | 0  | 0  | 0  |  0  |  0  |  0  |  0  |  0  |  0  |  0  |
| 0  | 0  | 0  | 0  | 0  | 1  | 1  | 1  | 1  | 0  |  0  |  0  |  0  |  0  |  0  |  0  |  0  |
| 0  | 0  | 0  | 0  | 0  | 0  | 0  | 0  | 0  | 1  |  1  |  1  |  0  |  0  |  0  |  1  |  1  |
| 0  | 0  | 0  | 0  | 0  | 0  | 0  | 0  | 0  | 0  |  0  |  0  |  1  |  1  |  1  |  1  |  1  |
+----+----+----+----+----+----+----+----+----+----+-----+-----+-----+-----+-----+-----+-----+
19/06/2021 18:09:21[INFO] POSIBLES SUPERVISORES A AGREGAR   
+-----+---------+----------------------------+---------------------+
|  ID | Marcado |        T - Entrada         |      T - Salida     |
+-----+---------+----------------------------+---------------------+
| P28 |    2    | ['T4', 'T8', 'T12', 'T14'] | ['T1', 'T6', 'T16'] |
| P28 |    1    |    ['T8', 'T11', 'T14']    | ['T1', 'T6', 'T16'] |
| P28 |    2    | ['T4', 'T8', 'T11', 'T14'] | ['T1', 'T6', 'T16'] |
| P28 |    1    |    ['T8', 'T11', 'T14']    | ['T1', 'T6', 'T16'] |
| P28 |    1    |    ['T8', 'T12', 'T14']    | ['T1', 'T6', 'T16'] |
| P28 |    1    |    ['T8', 'T11', 'T14']    | ['T1', 'T6', 'T16'] |
+-----+---------+----------------------------+---------------------+
19/06/2021 18:09:21[INFO] Actualizando estado de la red..   
19/06/2021 18:09:21[STATE] Cambie al estado 3: Hay igual cantidad de sifones vacios en deadlock   

--------------------------------------------------------------------------
   
19/06/2021 18:09:21[INFO] Calculando recompensa..   
19/06/2021 18:09:21[REWARD] Hay menos o igual cantidad de sifones vacios que en el estado anterior, recompensa -1   

--------------------------------------------------------------------------
   
19/06/2021 18:09:21[INFO] NEW Q-TABLE   
+-----------------------------------------------------+--------------------+------------------------+
|                   Estados/Acciones                  | Agregar supervisor | Agregar o quitar arcos |
+-----------------------------------------------------+--------------------+------------------------+
|                        Start                        |        -0.9        |          0.0           |
|        Más sifónes vacíos en estado deadlock        |        0.0         |          0.0           |
|       Menos sifónes vacíos en estado deadlock       |        0.0         |          -0.9          |
| Igual cantidad de sifónes vacíos en estado deadlock |        0.0         |          -0.9          |
|                         End                         |        0.0         |          0.0           |
+-----------------------------------------------------+--------------------+------------------------+

--------------------------------------------------------------------------
   
19/06/2021 18:09:21[INFO] Ejecutando accion...   
19/06/2021 18:09:21[ACTION] Agregar supervisor    
19/06/2021 18:09:21[ACTION] Agrego supervisor Numero: 4  

--------------------------------------------------------------------------   
19/06/2021 18:09:21[INFO] Ejecutando petrinator para conocer estado de la red...   
--------------------------------------------------------------------------
   
19/06/2021 18:09:26[INFO] Importando datos desde html...   
19/06/2021 18:09:26[INFO] Analizando cantidad de supervisores que se pueden agregar...   
19/06/2021 18:09:26[ERROR] marcado: 0 t_in: 0   
19/06/2021 18:09:26[ERROR] marcado: 0 t_in: 1   
19/06/2021 18:09:26[ERROR] marcado: 0 t_in: 1   
19/06/2021 18:09:26[ERROR] marcado: 0 t_in: 1   
19/06/2021 18:09:26[ERROR] marcado: 0 t_in: 2   
19/06/2021 18:09:26[INFO] Cantidad de sifones vacios en estado de deadlock ANTES: 6  
19/06/2021 18:09:26[INFO] Cantidad de sifones vacioes en estado de deadlock AHORA: 5  
19/06/2021 18:09:26[INFO] Cantidad de transiciones: 17  
19/06/2021 18:09:26[INFO] Estados de deadlock : [5]  
19/06/2021 18:09:26[INFO] Cantidad de sifones: 68  
19/06/2021 18:09:26[INFO] Cantidad de sifones vacios en estado de deadlock: 5 
 
19/06/2021 18:09:26[INFO] SIFONES   
+----+-----+----------------------------------------------------------------------------------------+
| ID | Nro |                                         Plazas                                         |
+----+-----+----------------------------------------------------------------------------------------+
| 30 |  9  |                    ['P9', 'P10', 'P14', 'P15', 'P17', 'P19', 'P28']                    |
| 31 |  11 |             ['P1', 'P9', 'P10', 'P14', 'P15', 'P17', 'P18', 'P19', 'P28']              |
| 32 |  14 |          ['P1', 'P2', 'P9', 'P10', 'P14', 'P15', 'P17', 'P18', 'P19', 'P28']           |
| 33 |  19 |       ['P1', 'P2', 'P3', 'P9', 'P10', 'P14', 'P15', 'P17', 'P18', 'P19', 'P28']        |
| 34 |  41 | ['P1', 'P2', 'P3', 'P4', 'P9', 'P10', 'P11', 'P14', 'P15', 'P17', 'P18', 'P19', 'P28'] |
+----+-----+----------------------------------------------------------------------------------------+
19/06/2021 18:09:26[INFO] T INVARIANTES   
+----+----+----+----+----+----+----+----+----+----+-----+-----+-----+-----+-----+-----+-----+
| T0 | T1 | T2 | T3 | T4 | T5 | T6 | T7 | T8 | T9 | T10 | T11 | T12 | T13 | T14 | T15 | T16 |
+----+----+----+----+----+----+----+----+----+----+-----+-----+-----+-----+-----+-----+-----+
| 0  | 0  | 0  | 0  | 0  | 1  | 1  | 1  | 1  | 0  |  0  |  0  |  0  |  0  |  0  |  0  |  0  |
| 0  | 0  | 0  | 0  | 0  | 0  | 0  | 0  | 0  | 1  |  1  |  1  |  0  |  0  |  0  |  1  |  1  |
| 0  | 0  | 0  | 0  | 0  | 0  | 0  | 0  | 0  | 0  |  0  |  0  |  1  |  1  |  1  |  1  |  1  |
+----+----+----+----+----+----+----+----+----+----+-----+-----+-----+-----+-----+-----+-----+
19/06/2021 18:09:26[INFO] POSIBLES SUPERVISORES A AGREGAR   
+----+---------+-------------+------------+
| ID | Marcado | T - Entrada | T - Salida |
+----+---------+-------------+------------+
+----+---------+-------------+------------+
19/06/2021 18:09:26[INFO] Actualizando estado de la red..   
19/06/2021 18:09:26[STATE] Cambie al estado 2: Hay menos sifones vacios en deadlock   

--------------------------------------------------------------------------
   
19/06/2021 18:09:26[INFO] Calculando recompensa..   
19/06/2021 18:09:26[REWARD] El sifon se controlo correctamente, recompensa -1   

--------------------------------------------------------------------------
   
19/06/2021 18:09:26[INFO] NEW Q-TABLE   
+-----------------------------------------------------+--------------------+------------------------+
|                   Estados/Acciones                  | Agregar supervisor | Agregar o quitar arcos |
+-----------------------------------------------------+--------------------+------------------------+
|                        Start                        |        -0.9        |          0.0           |
|        Más sifónes vacíos en estado deadlock        |        0.0         |          0.0           |
|       Menos sifónes vacíos en estado deadlock       |        0.0         |          -0.9          |
| Igual cantidad de sifónes vacíos en estado deadlock |        -0.9        |          -0.9          |
|                         End                         |        0.0         |          0.0           |
+-----------------------------------------------------+--------------------+------------------------+

--------------------------------------------------------------------------
   
19/06/2021 18:09:26[INFO] Ejecutando accion...   
19/06/2021 18:09:26[ACTION] Agregar supervisor    
