+-----------------------------------------------------+--------------------+------------------------+
|                   Estados/Acciones                  | Agregar supervisor | Agregar o quitar arcos |
+-----------------------------------------------------+--------------------+------------------------+
|                        Start                        |        0.0         |          0.0           |
|        Más sifónes vacíos en estado deadlock        |        0.0         |          0.0           |
|       Menos sifónes vacíos en estado deadlock       |        0.0         |          0.0           |
| Igual cantidad de sifónes vacíos en estado deadlock |        0.0         |          0.0           |
|                         End                         |        0.0         |          0.0           |
+-----------------------------------------------------+--------------------+------------------------+
+----+-----+--------------------------------------------------------+
| ID | Nro |                         Plazas                         |
+----+-----+--------------------------------------------------------+
| 0  |  1  |        ['P3', 'P9', 'P22', 'P25', 'P27', 'P28']        |
| 1  |  2  |           ['P2', 'P9', 'P22', 'P25', 'P28']            |
| 2  |  40 |    ['P2', 'P9', 'P21', 'P22', 'P24', 'P26', 'P28']     |
| 3  |  43 |    ['P2', 'P9', 'P14', 'P21', 'P22', 'P26', 'P28']     |
| 4  |  90 | ['P3', 'P9', 'P21', 'P22', 'P24', 'P26', 'P27', 'P28'] |
| 5  |  95 | ['P3', 'P9', 'P14', 'P21', 'P22', 'P26', 'P27', 'P28'] |
| 6  |  3  |           ['P1', 'P9', 'P15', 'P22', 'P25']            |
| 7  |  14 |               ['P2', 'P8', 'P22', 'P28']               |
| 8  |  42 |            ['P2', 'P8', 'P9', 'P22', 'P28']            |
| 9  |  93 |         ['P2', 'P3', 'P8', 'P9', 'P22', 'P28']         |
+----+-----+--------------------------------------------------------+
+----+----+----+----+----+----+----+----+----+----+-----+-----+-----+-----+-----+-----+-----+-----+
| T0 | T1 | T2 | T3 | T4 | T5 | T6 | T7 | T8 | T9 | T10 | T11 | T12 | T13 | T14 | T15 | T16 | T17 |
+----+----+----+----+----+----+----+----+----+----+-----+-----+-----+-----+-----+-----+-----+-----+
| 1  | 1  | 1  | 1  | 0  | 0  | 0  | 0  | 0  | 0  |  0  |  0  |  0  |  0  |  0  |  0  |  0  |  0  |
| 0  | 0  | 0  | 0  | 1  | 1  | 1  | 1  | 1  | 0  |  0  |  0  |  0  |  0  |  0  |  0  |  0  |  0  |
| 0  | 0  | 0  | 0  | 0  | 0  | 0  | 0  | 0  | 1  |  1  |  1  |  1  |  0  |  0  |  0  |  1  |  1  |
| 0  | 0  | 0  | 0  | 0  | 0  | 0  | 0  | 0  | 0  |  0  |  0  |  0  |  1  |  1  |  1  |  1  |  1  |
+----+----+----+----+----+----+----+----+----+----+-----+-----+-----+-----+-----+-----+-----+-----+
+-----+---------+-----------------------------------------+---------------------+
|  ID | Marcado |               T - Entrada               |      T - Salida     |
+-----+---------+-----------------------------------------+---------------------+
| P29 |    2    |           ['T3', 'T8', 'T18']           | ['T1', 'T5', 'T17'] |
| P29 |    1    |        ['T2', 'T8', 'T16', 'T18']       | ['T1', 'T5', 'T17'] |
| P29 |    2    |    ['T2', 'T8', 'T13', 'T14', 'T16']    | ['T1', 'T5', 'T17'] |
| P29 |    1    |        ['T2', 'T8', 'T13', 'T16']       | ['T1', 'T5', 'T17'] |
| P29 |    3    | ['T2', 'T3', 'T8', 'T14', 'T16', 'T18'] | ['T1', 'T5', 'T17'] |
| P29 |    2    |           ['T3', 'T8', 'T18']           | ['T1', 'T5', 'T17'] |
| P29 |    0    |                 ['T16']                 | ['T1', 'T5', 'T17'] |
| P29 |    0    |              ['T13', 'T16']             | ['T1', 'T5', 'T17'] |
| P29 |    0    |           ['T8', 'T13', 'T16']          | ['T1', 'T5', 'T17'] |
| P29 |    0    |        ['T3', 'T8', 'T13', 'T16']       | ['T1', 'T5', 'T17'] |
+-----+---------+-----------------------------------------+---------------------+
+----+-----+--------------------------------------------------------+
| ID | Nro |                         Plazas                         |
+----+-----+--------------------------------------------------------+
| 10 |  1  |        ['P3', 'P9', 'P22', 'P25', 'P27', 'P28']        |
| 11 |  2  |           ['P2', 'P9', 'P22', 'P25', 'P28']            |
| 12 |  41 |    ['P2', 'P9', 'P21', 'P22', 'P24', 'P26', 'P28']     |
| 13 |  44 |    ['P2', 'P9', 'P14', 'P21', 'P22', 'P26', 'P28']     |
| 14 |  91 | ['P3', 'P9', 'P21', 'P22', 'P24', 'P26', 'P27', 'P28'] |
| 15 |  96 | ['P3', 'P9', 'P14', 'P21', 'P22', 'P26', 'P27', 'P28'] |
| 16 |  3  |           ['P1', 'P9', 'P15', 'P22', 'P25']            |
| 17 |  14 |               ['P2', 'P8', 'P22', 'P28']               |
| 18 |  43 |            ['P2', 'P8', 'P9', 'P22', 'P28']            |
| 19 |  94 |         ['P2', 'P3', 'P8', 'P9', 'P22', 'P28']         |
+----+-----+--------------------------------------------------------+
+----+----+----+----+----+----+----+----+----+----+-----+-----+-----+-----+-----+-----+-----+-----+
| T0 | T1 | T2 | T3 | T4 | T5 | T6 | T7 | T8 | T9 | T10 | T11 | T12 | T13 | T14 | T15 | T16 | T17 |
+----+----+----+----+----+----+----+----+----+----+-----+-----+-----+-----+-----+-----+-----+-----+
| 0  | 0  | 0  | 0  | 1  | 1  | 1  | 1  | 1  | 0  |  0  |  0  |  0  |  0  |  0  |  0  |  0  |  0  |
| 0  | 0  | 0  | 0  | 0  | 0  | 0  | 0  | 0  | 1  |  1  |  1  |  1  |  0  |  0  |  0  |  1  |  1  |
+----+----+----+----+----+----+----+----+----+----+-----+-----+-----+-----+-----+-----+-----+-----+
+-----+---------+-----------------------------------------+---------------------+
|  ID | Marcado |               T - Entrada               |      T - Salida     |
+-----+---------+-----------------------------------------+---------------------+
| P30 |    2    |           ['T3', 'T8', 'T18']           | ['T1', 'T5', 'T17'] |
| P30 |    1    |        ['T2', 'T8', 'T16', 'T18']       | ['T1', 'T5', 'T17'] |
| P30 |    2    |    ['T2', 'T8', 'T13', 'T14', 'T16']    | ['T1', 'T5', 'T17'] |
| P30 |    1    |        ['T2', 'T8', 'T13', 'T16']       | ['T1', 'T5', 'T17'] |
| P30 |    3    | ['T2', 'T3', 'T8', 'T14', 'T16', 'T18'] | ['T1', 'T5', 'T17'] |
| P30 |    2    |           ['T3', 'T8', 'T18']           | ['T1', 'T5', 'T17'] |
| P30 |    0    |                 ['T16']                 | ['T1', 'T5', 'T17'] |
| P30 |    0    |              ['T13', 'T16']             | ['T1', 'T5', 'T17'] |
| P30 |    0    |           ['T8', 'T13', 'T16']          | ['T1', 'T5', 'T17'] |
| P30 |    0    |        ['T3', 'T8', 'T13', 'T16']       | ['T1', 'T5', 'T17'] |
+-----+---------+-----------------------------------------+---------------------+
+-----------------------------------------------------+--------------------+------------------------+
|                   Estados/Acciones                  | Agregar supervisor | Agregar o quitar arcos |
+-----------------------------------------------------+--------------------+------------------------+
|                        Start                        |        -0.9        |          0.0           |
|        Más sifónes vacíos en estado deadlock        |        0.0         |          0.0           |
|       Menos sifónes vacíos en estado deadlock       |        0.0         |          0.0           |
| Igual cantidad de sifónes vacíos en estado deadlock |        0.0         |          0.0           |
|                         End                         |        0.0         |          0.0           |
+-----------------------------------------------------+--------------------+------------------------+
+----+-----+--------------------------------------------------------+
| ID | Nro |                         Plazas                         |
+----+-----+--------------------------------------------------------+
| 20 |  1  |        ['P3', 'P9', 'P22', 'P25', 'P27', 'P28']        |
| 21 |  2  |           ['P2', 'P9', 'P22', 'P25', 'P28']            |
| 22 |  41 |    ['P2', 'P9', 'P21', 'P22', 'P24', 'P26', 'P28']     |
| 23 |  44 |    ['P2', 'P9', 'P14', 'P21', 'P22', 'P26', 'P28']     |
| 24 |  91 | ['P3', 'P9', 'P21', 'P22', 'P24', 'P26', 'P27', 'P28'] |
| 25 |  96 | ['P3', 'P9', 'P14', 'P21', 'P22', 'P26', 'P27', 'P28'] |
| 26 |  3  |           ['P1', 'P9', 'P15', 'P22', 'P25']            |
| 27 |  14 |               ['P2', 'P8', 'P22', 'P28']               |
| 28 |  43 |            ['P2', 'P8', 'P9', 'P22', 'P28']            |
| 29 |  94 |         ['P2', 'P3', 'P8', 'P9', 'P22', 'P28']         |
+----+-----+--------------------------------------------------------+
+----+----+----+----+----+----+----+----+----+----+-----+-----+-----+-----+-----+-----+-----+-----+
| T0 | T1 | T2 | T3 | T4 | T5 | T6 | T7 | T8 | T9 | T10 | T11 | T12 | T13 | T14 | T15 | T16 | T17 |
+----+----+----+----+----+----+----+----+----+----+-----+-----+-----+-----+-----+-----+-----+-----+
| 0  | 0  | 0  | 0  | 1  | 1  | 1  | 1  | 1  | 0  |  0  |  0  |  0  |  0  |  0  |  0  |  0  |  0  |
| 0  | 0  | 0  | 0  | 0  | 0  | 0  | 0  | 0  | 1  |  1  |  1  |  1  |  0  |  0  |  0  |  1  |  1  |
+----+----+----+----+----+----+----+----+----+----+-----+-----+-----+-----+-----+-----+-----+-----+
+-----+---------+-----------------------------------------+---------------------+
|  ID | Marcado |               T - Entrada               |      T - Salida     |
+-----+---------+-----------------------------------------+---------------------+
| P30 |    2    |           ['T3', 'T8', 'T18']           | ['T1', 'T5', 'T17'] |
| P30 |    1    |        ['T2', 'T8', 'T16', 'T18']       | ['T1', 'T5', 'T17'] |
| P30 |    2    |    ['T2', 'T8', 'T13', 'T14', 'T16']    | ['T1', 'T5', 'T17'] |
| P30 |    1    |        ['T2', 'T8', 'T13', 'T16']       | ['T1', 'T5', 'T17'] |
| P30 |    3    | ['T2', 'T3', 'T8', 'T14', 'T16', 'T18'] | ['T1', 'T5', 'T17'] |
| P30 |    2    |           ['T3', 'T8', 'T18']           | ['T1', 'T5', 'T17'] |
| P30 |    0    |                 ['T16']                 | ['T1', 'T5', 'T17'] |
| P30 |    0    |              ['T13', 'T16']             | ['T1', 'T5', 'T17'] |
| P30 |    0    |           ['T8', 'T13', 'T16']          | ['T1', 'T5', 'T17'] |
| P30 |    0    |        ['T3', 'T8', 'T13', 'T16']       | ['T1', 'T5', 'T17'] |
+-----+---------+-----------------------------------------+---------------------+
+-----------------------------------------------------+--------------------+------------------------+
|                   Estados/Acciones                  | Agregar supervisor | Agregar o quitar arcos |
+-----------------------------------------------------+--------------------+------------------------+
|                        Start                        |        -0.9        |          0.0           |
|        Más sifónes vacíos en estado deadlock        |        0.0         |          0.0           |
|       Menos sifónes vacíos en estado deadlock       |        0.0         |          0.0           |
| Igual cantidad de sifónes vacíos en estado deadlock |        0.0         |          -0.9          |
|                         End                         |        0.0         |          0.0           |
+-----------------------------------------------------+--------------------+------------------------+
+----+-----+--------------------------------------------------------+
| ID | Nro |                         Plazas                         |
+----+-----+--------------------------------------------------------+
| 30 |  1  |        ['P3', 'P9', 'P22', 'P25', 'P27', 'P28']        |
| 31 |  2  |           ['P2', 'P9', 'P22', 'P25', 'P28']            |
| 32 |  41 |    ['P2', 'P9', 'P21', 'P22', 'P24', 'P26', 'P28']     |
| 33 |  44 |    ['P2', 'P9', 'P14', 'P21', 'P22', 'P26', 'P28']     |
| 34 |  91 | ['P3', 'P9', 'P21', 'P22', 'P24', 'P26', 'P27', 'P28'] |
| 35 |  96 | ['P3', 'P9', 'P14', 'P21', 'P22', 'P26', 'P27', 'P28'] |
| 36 |  3  |           ['P1', 'P9', 'P15', 'P22', 'P25']            |
| 37 |  14 |               ['P2', 'P8', 'P22', 'P28']               |
| 38 |  43 |            ['P2', 'P8', 'P9', 'P22', 'P28']            |
| 39 |  94 |         ['P2', 'P3', 'P8', 'P9', 'P22', 'P28']         |
+----+-----+--------------------------------------------------------+
+----+----+----+----+----+----+----+----+----+----+-----+-----+-----+-----+-----+-----+-----+-----+
| T0 | T1 | T2 | T3 | T4 | T5 | T6 | T7 | T8 | T9 | T10 | T11 | T12 | T13 | T14 | T15 | T16 | T17 |
+----+----+----+----+----+----+----+----+----+----+-----+-----+-----+-----+-----+-----+-----+-----+
| 0  | 0  | 0  | 0  | 1  | 1  | 1  | 1  | 1  | 0  |  0  |  0  |  0  |  0  |  0  |  0  |  0  |  0  |
| 0  | 0  | 0  | 0  | 0  | 0  | 0  | 0  | 0  | 1  |  1  |  1  |  1  |  0  |  0  |  0  |  1  |  1  |
+----+----+----+----+----+----+----+----+----+----+-----+-----+-----+-----+-----+-----+-----+-----+
+-----+---------+-----------------------------------------+---------------------+
|  ID | Marcado |               T - Entrada               |      T - Salida     |
+-----+---------+-----------------------------------------+---------------------+
| P30 |    2    |           ['T3', 'T8', 'T18']           | ['T1', 'T5', 'T17'] |
| P30 |    1    |        ['T2', 'T8', 'T16', 'T18']       | ['T1', 'T5', 'T17'] |
| P30 |    2    |    ['T2', 'T8', 'T13', 'T14', 'T16']    | ['T1', 'T5', 'T17'] |
| P30 |    1    |        ['T2', 'T8', 'T13', 'T16']       | ['T1', 'T5', 'T17'] |
| P30 |    3    | ['T2', 'T3', 'T8', 'T14', 'T16', 'T18'] | ['T1', 'T5', 'T17'] |
| P30 |    2    |           ['T3', 'T8', 'T18']           | ['T1', 'T5', 'T17'] |
| P30 |    0    |                 ['T16']                 | ['T1', 'T5', 'T17'] |
| P30 |    0    |              ['T13', 'T16']             | ['T1', 'T5', 'T17'] |
| P30 |    0    |           ['T8', 'T13', 'T16']          | ['T1', 'T5', 'T17'] |
| P30 |    0    |        ['T3', 'T8', 'T13', 'T16']       | ['T1', 'T5', 'T17'] |
+-----+---------+-----------------------------------------+---------------------+
+-----------------------------------------------------+--------------------+------------------------+
|                   Estados/Acciones                  | Agregar supervisor | Agregar o quitar arcos |
+-----------------------------------------------------+--------------------+------------------------+
|                        Start                        |        -0.9        |          0.0           |
|        Más sifónes vacíos en estado deadlock        |        0.0         |          0.0           |
|       Menos sifónes vacíos en estado deadlock       |        0.0         |          0.0           |
| Igual cantidad de sifónes vacíos en estado deadlock |       -90.0        |          -0.9          |
|                         End                         |        0.0         |          0.0           |
+-----------------------------------------------------+--------------------+------------------------+
+----+-----+--------------------------------------------------------+
| ID | Nro |                         Plazas                         |
+----+-----+--------------------------------------------------------+
| 40 |  1  |        ['P3', 'P9', 'P22', 'P25', 'P27', 'P28']        |
| 41 |  2  |           ['P2', 'P9', 'P22', 'P25', 'P28']            |
| 42 |  41 |    ['P2', 'P9', 'P21', 'P22', 'P24', 'P26', 'P28']     |
| 43 |  44 |    ['P2', 'P9', 'P14', 'P21', 'P22', 'P26', 'P28']     |
| 44 |  91 | ['P3', 'P9', 'P21', 'P22', 'P24', 'P26', 'P27', 'P28'] |
| 45 |  96 | ['P3', 'P9', 'P14', 'P21', 'P22', 'P26', 'P27', 'P28'] |
| 46 |  3  |           ['P1', 'P9', 'P15', 'P22', 'P25']            |
| 47 |  14 |               ['P2', 'P8', 'P22', 'P28']               |
| 48 |  43 |            ['P2', 'P8', 'P9', 'P22', 'P28']            |
| 49 |  94 |         ['P2', 'P3', 'P8', 'P9', 'P22', 'P28']         |
+----+-----+--------------------------------------------------------+
+----+----+----+----+----+----+----+----+----+----+-----+-----+-----+-----+-----+-----+-----+-----+
| T0 | T1 | T2 | T3 | T4 | T5 | T6 | T7 | T8 | T9 | T10 | T11 | T12 | T13 | T14 | T15 | T16 | T17 |
+----+----+----+----+----+----+----+----+----+----+-----+-----+-----+-----+-----+-----+-----+-----+
| 0  | 0  | 0  | 0  | 1  | 1  | 1  | 1  | 1  | 0  |  0  |  0  |  0  |  0  |  0  |  0  |  0  |  0  |
| 0  | 0  | 0  | 0  | 0  | 0  | 0  | 0  | 0  | 1  |  1  |  1  |  1  |  0  |  0  |  0  |  1  |  1  |
+----+----+----+----+----+----+----+----+----+----+-----+-----+-----+-----+-----+-----+-----+-----+
+-----+---------+-----------------------------------------+---------------------+
|  ID | Marcado |               T - Entrada               |      T - Salida     |
+-----+---------+-----------------------------------------+---------------------+
| P30 |    2    |           ['T3', 'T8', 'T18']           | ['T1', 'T5', 'T17'] |
| P30 |    1    |        ['T2', 'T8', 'T16', 'T18']       | ['T1', 'T5', 'T17'] |
| P30 |    2    |    ['T2', 'T8', 'T13', 'T14', 'T16']    | ['T1', 'T5', 'T17'] |
| P30 |    1    |        ['T2', 'T8', 'T13', 'T16']       | ['T1', 'T5', 'T17'] |
| P30 |    3    | ['T2', 'T3', 'T8', 'T14', 'T16', 'T18'] | ['T1', 'T5', 'T17'] |
| P30 |    2    |           ['T3', 'T8', 'T18']           | ['T1', 'T5', 'T17'] |
| P30 |    0    |                 ['T16']                 | ['T1', 'T5', 'T17'] |
| P30 |    0    |              ['T13', 'T16']             | ['T1', 'T5', 'T17'] |
| P30 |    0    |           ['T8', 'T13', 'T16']          | ['T1', 'T5', 'T17'] |
| P30 |    0    |        ['T3', 'T8', 'T13', 'T16']       | ['T1', 'T5', 'T17'] |
+-----+---------+-----------------------------------------+---------------------+
+-----------------------------------------------------+--------------------+------------------------+
|                   Estados/Acciones                  | Agregar supervisor | Agregar o quitar arcos |
+-----------------------------------------------------+--------------------+------------------------+
|                        Start                        |        -0.9        |          0.0           |
|        Más sifónes vacíos en estado deadlock        |        0.0         |          0.0           |
|       Menos sifónes vacíos en estado deadlock       |        0.0         |          0.0           |
| Igual cantidad de sifónes vacíos en estado deadlock |       -90.0        |         -1.719         |
|                         End                         |        0.0         |          0.0           |
+-----------------------------------------------------+--------------------+------------------------+
+----+-----+--------------------------------------------------------+
| ID | Nro |                         Plazas                         |
+----+-----+--------------------------------------------------------+
| 50 |  1  |        ['P3', 'P9', 'P22', 'P25', 'P27', 'P28']        |
| 51 |  2  |           ['P2', 'P9', 'P22', 'P25', 'P28']            |
| 52 |  41 |    ['P2', 'P9', 'P21', 'P22', 'P24', 'P26', 'P28']     |
| 53 |  44 |    ['P2', 'P9', 'P14', 'P21', 'P22', 'P26', 'P28']     |
| 54 |  91 | ['P3', 'P9', 'P21', 'P22', 'P24', 'P26', 'P27', 'P28'] |
| 55 |  96 | ['P3', 'P9', 'P14', 'P21', 'P22', 'P26', 'P27', 'P28'] |
| 56 |  3  |           ['P1', 'P9', 'P15', 'P22', 'P25']            |
| 57 |  14 |               ['P2', 'P8', 'P22', 'P28']               |
| 58 |  43 |            ['P2', 'P8', 'P9', 'P22', 'P28']            |
| 59 |  94 |         ['P2', 'P3', 'P8', 'P9', 'P22', 'P28']         |
+----+-----+--------------------------------------------------------+
+----+----+----+----+----+----+----+----+----+----+-----+-----+-----+-----+-----+-----+-----+-----+
| T0 | T1 | T2 | T3 | T4 | T5 | T6 | T7 | T8 | T9 | T10 | T11 | T12 | T13 | T14 | T15 | T16 | T17 |
+----+----+----+----+----+----+----+----+----+----+-----+-----+-----+-----+-----+-----+-----+-----+
| 0  | 0  | 0  | 0  | 1  | 1  | 1  | 1  | 1  | 0  |  0  |  0  |  0  |  0  |  0  |  0  |  0  |  0  |
| 0  | 0  | 0  | 0  | 0  | 0  | 0  | 0  | 0  | 1  |  1  |  1  |  1  |  0  |  0  |  0  |  1  |  1  |
+----+----+----+----+----+----+----+----+----+----+-----+-----+-----+-----+-----+-----+-----+-----+
+-----+---------+-----------------------------------------+---------------------+
|  ID | Marcado |               T - Entrada               |      T - Salida     |
+-----+---------+-----------------------------------------+---------------------+
| P30 |    2    |           ['T3', 'T8', 'T18']           | ['T1', 'T5', 'T17'] |
| P30 |    1    |        ['T2', 'T8', 'T16', 'T18']       | ['T1', 'T5', 'T17'] |
| P30 |    2    |    ['T2', 'T8', 'T13', 'T14', 'T16']    | ['T1', 'T5', 'T17'] |
| P30 |    1    |        ['T2', 'T8', 'T13', 'T16']       | ['T1', 'T5', 'T17'] |
| P30 |    3    | ['T2', 'T3', 'T8', 'T14', 'T16', 'T18'] | ['T1', 'T5', 'T17'] |
| P30 |    2    |           ['T3', 'T8', 'T18']           | ['T1', 'T5', 'T17'] |
| P30 |    0    |                 ['T16']                 | ['T1', 'T5', 'T17'] |
| P30 |    0    |              ['T13', 'T16']             | ['T1', 'T5', 'T17'] |
| P30 |    0    |           ['T8', 'T13', 'T16']          | ['T1', 'T5', 'T17'] |
| P30 |    0    |        ['T3', 'T8', 'T13', 'T16']       | ['T1', 'T5', 'T17'] |
+-----+---------+-----------------------------------------+---------------------+
+-----------------------------------------------------+--------------------+------------------------+
|                   Estados/Acciones                  | Agregar supervisor | Agregar o quitar arcos |
+-----------------------------------------------------+--------------------+------------------------+
|                        Start                        |        -0.9        |          0.0           |
|        Más sifónes vacíos en estado deadlock        |        0.0         |          0.0           |
|       Menos sifónes vacíos en estado deadlock       |        0.0         |          0.0           |
| Igual cantidad de sifónes vacíos en estado deadlock |       -90.0        |        -2.46429        |
|                         End                         |        0.0         |          0.0           |
+-----------------------------------------------------+--------------------+------------------------+
+----+-----+--------------------------------------------------------+
| ID | Nro |                         Plazas                         |
+----+-----+--------------------------------------------------------+
| 60 |  1  |        ['P3', 'P9', 'P22', 'P25', 'P27', 'P28']        |
| 61 |  2  |           ['P2', 'P9', 'P22', 'P25', 'P28']            |
| 62 |  41 |    ['P2', 'P9', 'P21', 'P22', 'P24', 'P26', 'P28']     |
| 63 |  44 |    ['P2', 'P9', 'P14', 'P21', 'P22', 'P26', 'P28']     |
| 64 |  91 | ['P3', 'P9', 'P21', 'P22', 'P24', 'P26', 'P27', 'P28'] |
| 65 |  96 | ['P3', 'P9', 'P14', 'P21', 'P22', 'P26', 'P27', 'P28'] |
| 66 |  3  |           ['P1', 'P9', 'P15', 'P22', 'P25']            |
| 67 |  14 |               ['P2', 'P8', 'P22', 'P28']               |
| 68 |  43 |            ['P2', 'P8', 'P9', 'P22', 'P28']            |
| 69 |  94 |         ['P2', 'P3', 'P8', 'P9', 'P22', 'P28']         |
+----+-----+--------------------------------------------------------+
+----+----+----+----+----+----+----+----+----+----+-----+-----+-----+-----+-----+-----+-----+-----+
| T0 | T1 | T2 | T3 | T4 | T5 | T6 | T7 | T8 | T9 | T10 | T11 | T12 | T13 | T14 | T15 | T16 | T17 |
+----+----+----+----+----+----+----+----+----+----+-----+-----+-----+-----+-----+-----+-----+-----+
| 0  | 0  | 0  | 0  | 1  | 1  | 1  | 1  | 1  | 0  |  0  |  0  |  0  |  0  |  0  |  0  |  0  |  0  |
| 0  | 0  | 0  | 0  | 0  | 0  | 0  | 0  | 0  | 1  |  1  |  1  |  1  |  0  |  0  |  0  |  1  |  1  |
+----+----+----+----+----+----+----+----+----+----+-----+-----+-----+-----+-----+-----+-----+-----+
+-----+---------+-----------------------------------------+---------------------+
|  ID | Marcado |               T - Entrada               |      T - Salida     |
+-----+---------+-----------------------------------------+---------------------+
| P30 |    2    |           ['T3', 'T8', 'T18']           | ['T1', 'T5', 'T17'] |
| P30 |    1    |        ['T2', 'T8', 'T16', 'T18']       | ['T1', 'T5', 'T17'] |
| P30 |    2    |    ['T2', 'T8', 'T13', 'T14', 'T16']    | ['T1', 'T5', 'T17'] |
| P30 |    1    |        ['T2', 'T8', 'T13', 'T16']       | ['T1', 'T5', 'T17'] |
| P30 |    3    | ['T2', 'T3', 'T8', 'T14', 'T16', 'T18'] | ['T1', 'T5', 'T17'] |
| P30 |    2    |           ['T3', 'T8', 'T18']           | ['T1', 'T5', 'T17'] |
| P30 |    0    |                 ['T16']                 | ['T1', 'T5', 'T17'] |
| P30 |    0    |              ['T13', 'T16']             | ['T1', 'T5', 'T17'] |
| P30 |    0    |           ['T8', 'T13', 'T16']          | ['T1', 'T5', 'T17'] |
| P30 |    0    |        ['T3', 'T8', 'T13', 'T16']       | ['T1', 'T5', 'T17'] |
+-----+---------+-----------------------------------------+---------------------+
+-----------------------------------------------------+--------------------+------------------------+
|                   Estados/Acciones                  | Agregar supervisor | Agregar o quitar arcos |
+-----------------------------------------------------+--------------------+------------------------+
|                        Start                        |        -0.9        |          0.0           |
|        Más sifónes vacíos en estado deadlock        |        0.0         |          0.0           |
|       Menos sifónes vacíos en estado deadlock       |        0.0         |          0.0           |
| Igual cantidad de sifónes vacíos en estado deadlock |       -90.0        |  -3.1425039000000003   |
|                         End                         |        0.0         |          0.0           |
+-----------------------------------------------------+--------------------+------------------------+
+----+-----+--------------------------------------------------------+
| ID | Nro |                         Plazas                         |
+----+-----+--------------------------------------------------------+
| 70 |  1  |        ['P3', 'P9', 'P22', 'P25', 'P27', 'P28']        |
| 71 |  2  |           ['P2', 'P9', 'P22', 'P25', 'P28']            |
| 72 |  42 |    ['P2', 'P9', 'P21', 'P22', 'P24', 'P26', 'P28']     |
| 73 |  45 |    ['P2', 'P9', 'P14', 'P21', 'P22', 'P26', 'P28']     |
| 74 |  92 | ['P3', 'P9', 'P21', 'P22', 'P24', 'P26', 'P27', 'P28'] |
| 75 |  97 | ['P3', 'P9', 'P14', 'P21', 'P22', 'P26', 'P27', 'P28'] |
| 76 |  3  |           ['P1', 'P9', 'P15', 'P22', 'P25']            |
| 77 |  15 |               ['P2', 'P8', 'P22', 'P28']               |
| 78 |  44 |            ['P2', 'P8', 'P9', 'P22', 'P28']            |
| 79 |  95 |         ['P2', 'P3', 'P8', 'P9', 'P22', 'P28']         |
+----+-----+--------------------------------------------------------+
+----+----+----+----+----+----+----+----+----+----+-----+-----+-----+-----+-----+-----+-----+-----+
| T0 | T1 | T2 | T3 | T4 | T5 | T6 | T7 | T8 | T9 | T10 | T11 | T12 | T13 | T14 | T15 | T16 | T17 |
+----+----+----+----+----+----+----+----+----+----+-----+-----+-----+-----+-----+-----+-----+-----+
| 0  | 0  | 0  | 0  | 1  | 1  | 1  | 1  | 1  | 0  |  0  |  0  |  0  |  0  |  0  |  0  |  0  |  0  |
| 0  | 0  | 0  | 0  | 0  | 0  | 0  | 0  | 0  | 1  |  1  |  1  |  1  |  0  |  0  |  0  |  1  |  1  |
+----+----+----+----+----+----+----+----+----+----+-----+-----+-----+-----+-----+-----+-----+-----+
+-----+---------+-----------------------------------------+---------------------+
|  ID | Marcado |               T - Entrada               |      T - Salida     |
+-----+---------+-----------------------------------------+---------------------+
| P31 |    2    |           ['T3', 'T8', 'T18']           | ['T1', 'T5', 'T17'] |
| P31 |    1    |        ['T2', 'T8', 'T16', 'T18']       | ['T1', 'T5', 'T17'] |
| P31 |    2    |    ['T2', 'T8', 'T13', 'T14', 'T16']    | ['T1', 'T5', 'T17'] |
| P31 |    1    |        ['T2', 'T8', 'T13', 'T16']       | ['T1', 'T5', 'T17'] |
| P31 |    3    | ['T2', 'T3', 'T8', 'T14', 'T16', 'T18'] | ['T1', 'T5', 'T17'] |
| P31 |    2    |           ['T3', 'T8', 'T18']           | ['T1', 'T5', 'T17'] |
| P31 |    0    |                 ['T16']                 | ['T1', 'T5', 'T17'] |
| P31 |    0    |              ['T13', 'T16']             | ['T1', 'T5', 'T17'] |
| P31 |    0    |           ['T8', 'T13', 'T16']          | ['T1', 'T5', 'T17'] |
| P31 |    0    |        ['T3', 'T8', 'T13', 'T16']       | ['T1', 'T5', 'T17'] |
+-----+---------+-----------------------------------------+---------------------+
+-----------------------------------------------------+---------------------+------------------------+
|                   Estados/Acciones                  |  Agregar supervisor | Agregar o quitar arcos |
+-----------------------------------------------------+---------------------+------------------------+
|                        Start                        |         -0.9        |          0.0           |
|        Más sifónes vacíos en estado deadlock        |         0.0         |          0.0           |
|       Menos sifónes vacíos en estado deadlock       |         0.0         |          0.0           |
| Igual cantidad de sifónes vacíos en estado deadlock | -12.445428158999988 |  -3.1425039000000003   |
|                         End                         |         0.0         |          0.0           |
+-----------------------------------------------------+---------------------+------------------------+
+----+-----+--------------------------------------------------------+
| ID | Nro |                         Plazas                         |
+----+-----+--------------------------------------------------------+
| 80 |  1  |        ['P3', 'P9', 'P22', 'P25', 'P27', 'P28']        |
| 81 |  2  |           ['P2', 'P9', 'P22', 'P25', 'P28']            |
| 82 |  42 |    ['P2', 'P9', 'P21', 'P22', 'P24', 'P26', 'P28']     |
| 83 |  45 |    ['P2', 'P9', 'P14', 'P21', 'P22', 'P26', 'P28']     |
| 84 |  92 | ['P3', 'P9', 'P21', 'P22', 'P24', 'P26', 'P27', 'P28'] |
| 85 |  97 | ['P3', 'P9', 'P14', 'P21', 'P22', 'P26', 'P27', 'P28'] |
| 86 |  3  |           ['P1', 'P9', 'P15', 'P22', 'P25']            |
| 87 |  15 |               ['P2', 'P8', 'P22', 'P28']               |
| 88 |  44 |            ['P2', 'P8', 'P9', 'P22', 'P28']            |
| 89 |  95 |         ['P2', 'P3', 'P8', 'P9', 'P22', 'P28']         |
+----+-----+--------------------------------------------------------+
+----+----+----+----+----+----+----+----+----+----+-----+-----+-----+-----+-----+-----+-----+-----+
| T0 | T1 | T2 | T3 | T4 | T5 | T6 | T7 | T8 | T9 | T10 | T11 | T12 | T13 | T14 | T15 | T16 | T17 |
+----+----+----+----+----+----+----+----+----+----+-----+-----+-----+-----+-----+-----+-----+-----+
| 0  | 0  | 0  | 0  | 1  | 1  | 1  | 1  | 1  | 0  |  0  |  0  |  0  |  0  |  0  |  0  |  0  |  0  |
| 0  | 0  | 0  | 0  | 0  | 0  | 0  | 0  | 0  | 1  |  1  |  1  |  1  |  0  |  0  |  0  |  1  |  1  |
+----+----+----+----+----+----+----+----+----+----+-----+-----+-----+-----+-----+-----+-----+-----+
+-----+---------+-----------------------------------------+---------------------+
|  ID | Marcado |               T - Entrada               |      T - Salida     |
+-----+---------+-----------------------------------------+---------------------+
| P31 |    2    |           ['T3', 'T8', 'T18']           | ['T1', 'T5', 'T17'] |
| P31 |    1    |        ['T2', 'T8', 'T16', 'T18']       | ['T1', 'T5', 'T17'] |
| P31 |    2    |    ['T2', 'T8', 'T13', 'T14', 'T16']    | ['T1', 'T5', 'T17'] |
| P31 |    1    |        ['T2', 'T8', 'T13', 'T16']       | ['T1', 'T5', 'T17'] |
| P31 |    3    | ['T2', 'T3', 'T8', 'T14', 'T16', 'T18'] | ['T1', 'T5', 'T17'] |
| P31 |    2    |           ['T3', 'T8', 'T18']           | ['T1', 'T5', 'T17'] |
| P31 |    0    |                 ['T16']                 | ['T1', 'T5', 'T17'] |
| P31 |    0    |              ['T13', 'T16']             | ['T1', 'T5', 'T17'] |
| P31 |    0    |           ['T8', 'T13', 'T16']          | ['T1', 'T5', 'T17'] |
| P31 |    0    |        ['T3', 'T8', 'T13', 'T16']       | ['T1', 'T5', 'T17'] |
+-----+---------+-----------------------------------------+---------------------+
+-----------------------------------------------------+---------------------+------------------------+
|                   Estados/Acciones                  |  Agregar supervisor | Agregar o quitar arcos |
+-----------------------------------------------------+---------------------+------------------------+
|                        Start                        |         -0.9        |          0.0           |
|        Más sifónes vacíos en estado deadlock        |         0.0         |          0.0           |
|       Menos sifónes vacíos en estado deadlock       |         0.0         |          0.0           |
| Igual cantidad de sifónes vacíos en estado deadlock | -12.445428158999988 |  -3.7596785490000006   |
|                         End                         |         0.0         |          0.0           |
+-----------------------------------------------------+---------------------+------------------------+
+----+-----+--------------------------------------------------------+
| ID | Nro |                         Plazas                         |
+----+-----+--------------------------------------------------------+
| 90 |  1  |        ['P3', 'P9', 'P22', 'P25', 'P27', 'P28']        |
| 91 |  2  |           ['P2', 'P9', 'P22', 'P25', 'P28']            |
| 92 |  42 |    ['P2', 'P9', 'P21', 'P22', 'P24', 'P26', 'P28']     |
| 93 |  45 |    ['P2', 'P9', 'P14', 'P21', 'P22', 'P26', 'P28']     |
| 94 |  92 | ['P3', 'P9', 'P21', 'P22', 'P24', 'P26', 'P27', 'P28'] |
| 95 |  97 | ['P3', 'P9', 'P14', 'P21', 'P22', 'P26', 'P27', 'P28'] |
| 96 |  3  |           ['P1', 'P9', 'P15', 'P22', 'P25']            |
| 97 |  15 |               ['P2', 'P8', 'P22', 'P28']               |
| 98 |  44 |            ['P2', 'P8', 'P9', 'P22', 'P28']            |
| 99 |  95 |         ['P2', 'P3', 'P8', 'P9', 'P22', 'P28']         |
+----+-----+--------------------------------------------------------+
+----+----+----+----+----+----+----+----+----+----+-----+-----+-----+-----+-----+-----+-----+-----+
| T0 | T1 | T2 | T3 | T4 | T5 | T6 | T7 | T8 | T9 | T10 | T11 | T12 | T13 | T14 | T15 | T16 | T17 |
+----+----+----+----+----+----+----+----+----+----+-----+-----+-----+-----+-----+-----+-----+-----+
| 0  | 0  | 0  | 0  | 1  | 1  | 1  | 1  | 1  | 0  |  0  |  0  |  0  |  0  |  0  |  0  |  0  |  0  |
| 0  | 0  | 0  | 0  | 0  | 0  | 0  | 0  | 0  | 1  |  1  |  1  |  1  |  0  |  0  |  0  |  1  |  1  |
+----+----+----+----+----+----+----+----+----+----+-----+-----+-----+-----+-----+-----+-----+-----+
+-----+---------+-----------------------------------------+---------------------+
|  ID | Marcado |               T - Entrada               |      T - Salida     |
+-----+---------+-----------------------------------------+---------------------+
| P31 |    2    |           ['T3', 'T8', 'T18']           | ['T1', 'T5', 'T17'] |
| P31 |    1    |        ['T2', 'T8', 'T16', 'T18']       | ['T1', 'T5', 'T17'] |
| P31 |    2    |    ['T2', 'T8', 'T13', 'T14', 'T16']    | ['T1', 'T5', 'T17'] |
| P31 |    1    |        ['T2', 'T8', 'T13', 'T16']       | ['T1', 'T5', 'T17'] |
| P31 |    3    | ['T2', 'T3', 'T8', 'T14', 'T16', 'T18'] | ['T1', 'T5', 'T17'] |
| P31 |    2    |           ['T3', 'T8', 'T18']           | ['T1', 'T5', 'T17'] |
| P31 |    0    |                 ['T16']                 | ['T1', 'T5', 'T17'] |
| P31 |    0    |              ['T13', 'T16']             | ['T1', 'T5', 'T17'] |
| P31 |    0    |           ['T8', 'T13', 'T16']          | ['T1', 'T5', 'T17'] |
| P31 |    0    |        ['T3', 'T8', 'T13', 'T16']       | ['T1', 'T5', 'T17'] |
+-----+---------+-----------------------------------------+---------------------+
+-----------------------------------------------------+---------------------+------------------------+
|                   Estados/Acciones                  |  Agregar supervisor | Agregar o quitar arcos |
+-----------------------------------------------------+---------------------+------------------------+
|                        Start                        |         -0.9        |          0.0           |
|        Más sifónes vacíos en estado deadlock        |         0.0         |          0.0           |
|       Menos sifónes vacíos en estado deadlock       |         0.0         |          0.0           |
| Igual cantidad de sifónes vacíos en estado deadlock | -12.445428158999988 |  -4.3213074795900015   |
|                         End                         |         0.0         |          0.0           |
+-----------------------------------------------------+---------------------+------------------------+
+-----+-----+--------------------------------------------------------+
|  ID | Nro |                         Plazas                         |
+-----+-----+--------------------------------------------------------+
| 100 |  1  |        ['P3', 'P9', 'P22', 'P25', 'P27', 'P28']        |
| 101 |  2  |           ['P2', 'P9', 'P22', 'P25', 'P28']            |
| 102 |  42 |    ['P2', 'P9', 'P21', 'P22', 'P24', 'P26', 'P28']     |
| 103 |  45 |    ['P2', 'P9', 'P14', 'P21', 'P22', 'P26', 'P28']     |
| 104 |  92 | ['P3', 'P9', 'P21', 'P22', 'P24', 'P26', 'P27', 'P28'] |
| 105 |  97 | ['P3', 'P9', 'P14', 'P21', 'P22', 'P26', 'P27', 'P28'] |
| 106 |  3  |           ['P1', 'P9', 'P15', 'P22', 'P25']            |
| 107 |  15 |               ['P2', 'P8', 'P22', 'P28']               |
| 108 |  44 |            ['P2', 'P8', 'P9', 'P22', 'P28']            |
| 109 |  95 |         ['P2', 'P3', 'P8', 'P9', 'P22', 'P28']         |
+-----+-----+--------------------------------------------------------+
+----+----+----+----+----+----+----+----+----+----+-----+-----+-----+-----+-----+-----+-----+-----+
| T0 | T1 | T2 | T3 | T4 | T5 | T6 | T7 | T8 | T9 | T10 | T11 | T12 | T13 | T14 | T15 | T16 | T17 |
+----+----+----+----+----+----+----+----+----+----+-----+-----+-----+-----+-----+-----+-----+-----+
| 0  | 0  | 0  | 0  | 1  | 1  | 1  | 1  | 1  | 0  |  0  |  0  |  0  |  0  |  0  |  0  |  0  |  0  |
| 0  | 0  | 0  | 0  | 0  | 0  | 0  | 0  | 0  | 1  |  1  |  1  |  1  |  0  |  0  |  0  |  1  |  1  |
+----+----+----+----+----+----+----+----+----+----+-----+-----+-----+-----+-----+-----+-----+-----+
+-----+---------+-----------------------------------------+---------------------+
|  ID | Marcado |               T - Entrada               |      T - Salida     |
+-----+---------+-----------------------------------------+---------------------+
| P31 |    2    |           ['T3', 'T8', 'T18']           | ['T1', 'T5', 'T17'] |
| P31 |    1    |        ['T2', 'T8', 'T16', 'T18']       | ['T1', 'T5', 'T17'] |
| P31 |    2    |    ['T2', 'T8', 'T13', 'T14', 'T16']    | ['T1', 'T5', 'T17'] |
| P31 |    1    |        ['T2', 'T8', 'T13', 'T16']       | ['T1', 'T5', 'T17'] |
| P31 |    3    | ['T2', 'T3', 'T8', 'T14', 'T16', 'T18'] | ['T1', 'T5', 'T17'] |
| P31 |    2    |           ['T3', 'T8', 'T18']           | ['T1', 'T5', 'T17'] |
| P31 |    0    |                 ['T16']                 | ['T1', 'T5', 'T17'] |
| P31 |    0    |              ['T13', 'T16']             | ['T1', 'T5', 'T17'] |
| P31 |    0    |           ['T8', 'T13', 'T16']          | ['T1', 'T5', 'T17'] |
| P31 |    0    |        ['T3', 'T8', 'T13', 'T16']       | ['T1', 'T5', 'T17'] |
+-----+---------+-----------------------------------------+---------------------+
+-----------------------------------------------------+---------------------+------------------------+
|                   Estados/Acciones                  |  Agregar supervisor | Agregar o quitar arcos |
+-----------------------------------------------------+---------------------+------------------------+
|                        Start                        |         -0.9        |          0.0           |
|        Más sifónes vacíos en estado deadlock        |         0.0         |          0.0           |
|       Menos sifónes vacíos en estado deadlock       |         0.0         |          0.0           |
| Igual cantidad de sifónes vacíos en estado deadlock | -12.445428158999988 |   -4.832389806426902   |
|                         End                         |         0.0         |          0.0           |
+-----------------------------------------------------+---------------------+------------------------+
+-----+-----+--------------------------------------------------------+
|  ID | Nro |                         Plazas                         |
+-----+-----+--------------------------------------------------------+
| 110 |  1  |        ['P3', 'P9', 'P22', 'P25', 'P27', 'P28']        |
| 111 |  2  |           ['P2', 'P9', 'P22', 'P25', 'P28']            |
| 112 |  42 |    ['P2', 'P9', 'P21', 'P22', 'P24', 'P26', 'P28']     |
| 113 |  45 |    ['P2', 'P9', 'P14', 'P21', 'P22', 'P26', 'P28']     |
| 114 |  92 | ['P3', 'P9', 'P21', 'P22', 'P24', 'P26', 'P27', 'P28'] |
| 115 |  97 | ['P3', 'P9', 'P14', 'P21', 'P22', 'P26', 'P27', 'P28'] |
| 116 |  3  |           ['P1', 'P9', 'P15', 'P22', 'P25']            |
| 117 |  15 |               ['P2', 'P8', 'P22', 'P28']               |
| 118 |  44 |            ['P2', 'P8', 'P9', 'P22', 'P28']            |
| 119 |  95 |         ['P2', 'P3', 'P8', 'P9', 'P22', 'P28']         |
+-----+-----+--------------------------------------------------------+
+----+----+----+----+----+----+----+----+----+----+-----+-----+-----+-----+-----+-----+-----+-----+
| T0 | T1 | T2 | T3 | T4 | T5 | T6 | T7 | T8 | T9 | T10 | T11 | T12 | T13 | T14 | T15 | T16 | T17 |
+----+----+----+----+----+----+----+----+----+----+-----+-----+-----+-----+-----+-----+-----+-----+
| 0  | 0  | 0  | 0  | 1  | 1  | 1  | 1  | 1  | 0  |  0  |  0  |  0  |  0  |  0  |  0  |  0  |  0  |
| 0  | 0  | 0  | 0  | 0  | 0  | 0  | 0  | 0  | 1  |  1  |  1  |  1  |  0  |  0  |  0  |  1  |  1  |
+----+----+----+----+----+----+----+----+----+----+-----+-----+-----+-----+-----+-----+-----+-----+
+-----+---------+-----------------------------------------+---------------------+
|  ID | Marcado |               T - Entrada               |      T - Salida     |
+-----+---------+-----------------------------------------+---------------------+
| P31 |    2    |           ['T3', 'T8', 'T18']           | ['T1', 'T5', 'T17'] |
| P31 |    1    |        ['T2', 'T8', 'T16', 'T18']       | ['T1', 'T5', 'T17'] |
| P31 |    2    |    ['T2', 'T8', 'T13', 'T14', 'T16']    | ['T1', 'T5', 'T17'] |
| P31 |    1    |        ['T2', 'T8', 'T13', 'T16']       | ['T1', 'T5', 'T17'] |
| P31 |    3    | ['T2', 'T3', 'T8', 'T14', 'T16', 'T18'] | ['T1', 'T5', 'T17'] |
| P31 |    2    |           ['T3', 'T8', 'T18']           | ['T1', 'T5', 'T17'] |
| P31 |    0    |                 ['T16']                 | ['T1', 'T5', 'T17'] |
| P31 |    0    |              ['T13', 'T16']             | ['T1', 'T5', 'T17'] |
| P31 |    0    |           ['T8', 'T13', 'T16']          | ['T1', 'T5', 'T17'] |
| P31 |    0    |        ['T3', 'T8', 'T13', 'T16']       | ['T1', 'T5', 'T17'] |
+-----+---------+-----------------------------------------+---------------------+
+-----------------------------------------------------+---------------------+------------------------+
|                   Estados/Acciones                  |  Agregar supervisor | Agregar o quitar arcos |
+-----------------------------------------------------+---------------------+------------------------+
|                        Start                        |         -0.9        |          0.0           |
|        Más sifónes vacíos en estado deadlock        |         0.0         |          0.0           |
|       Menos sifónes vacíos en estado deadlock       |         0.0         |          0.0           |
| Igual cantidad de sifónes vacíos en estado deadlock | -12.445428158999988 |   -5.297474723848481   |
|                         End                         |         0.0         |          0.0           |
+-----------------------------------------------------+---------------------+------------------------+
+-----+-----+--------------------------------------------------------+
|  ID | Nro |                         Plazas                         |
+-----+-----+--------------------------------------------------------+
| 120 |  1  |        ['P3', 'P9', 'P22', 'P25', 'P27', 'P28']        |
| 121 |  2  |           ['P2', 'P9', 'P22', 'P25', 'P28']            |
| 122 |  42 |    ['P2', 'P9', 'P21', 'P22', 'P24', 'P26', 'P28']     |
| 123 |  45 |    ['P2', 'P9', 'P14', 'P21', 'P22', 'P26', 'P28']     |
| 124 |  92 | ['P3', 'P9', 'P21', 'P22', 'P24', 'P26', 'P27', 'P28'] |
| 125 |  97 | ['P3', 'P9', 'P14', 'P21', 'P22', 'P26', 'P27', 'P28'] |
| 126 |  3  |           ['P1', 'P9', 'P15', 'P22', 'P25']            |
| 127 |  15 |               ['P2', 'P8', 'P22', 'P28']               |
| 128 |  44 |            ['P2', 'P8', 'P9', 'P22', 'P28']            |
| 129 |  95 |         ['P2', 'P3', 'P8', 'P9', 'P22', 'P28']         |
+-----+-----+--------------------------------------------------------+
+----+----+----+----+----+----+----+----+----+----+-----+-----+-----+-----+-----+-----+-----+-----+
| T0 | T1 | T2 | T3 | T4 | T5 | T6 | T7 | T8 | T9 | T10 | T11 | T12 | T13 | T14 | T15 | T16 | T17 |
+----+----+----+----+----+----+----+----+----+----+-----+-----+-----+-----+-----+-----+-----+-----+
| 0  | 0  | 0  | 0  | 1  | 1  | 1  | 1  | 1  | 0  |  0  |  0  |  0  |  0  |  0  |  0  |  0  |  0  |
| 0  | 0  | 0  | 0  | 0  | 0  | 0  | 0  | 0  | 1  |  1  |  1  |  1  |  0  |  0  |  0  |  1  |  1  |
+----+----+----+----+----+----+----+----+----+----+-----+-----+-----+-----+-----+-----+-----+-----+
+-----+---------+-----------------------------------------+---------------------+
|  ID | Marcado |               T - Entrada               |      T - Salida     |
+-----+---------+-----------------------------------------+---------------------+
| P31 |    2    |           ['T3', 'T8', 'T18']           | ['T1', 'T5', 'T17'] |
| P31 |    1    |        ['T2', 'T8', 'T16', 'T18']       | ['T1', 'T5', 'T17'] |
| P31 |    2    |    ['T2', 'T8', 'T13', 'T14', 'T16']    | ['T1', 'T5', 'T17'] |
| P31 |    1    |        ['T2', 'T8', 'T13', 'T16']       | ['T1', 'T5', 'T17'] |
| P31 |    3    | ['T2', 'T3', 'T8', 'T14', 'T16', 'T18'] | ['T1', 'T5', 'T17'] |
| P31 |    2    |           ['T3', 'T8', 'T18']           | ['T1', 'T5', 'T17'] |
| P31 |    0    |                 ['T16']                 | ['T1', 'T5', 'T17'] |
| P31 |    0    |              ['T13', 'T16']             | ['T1', 'T5', 'T17'] |
| P31 |    0    |           ['T8', 'T13', 'T16']          | ['T1', 'T5', 'T17'] |
| P31 |    0    |        ['T3', 'T8', 'T13', 'T16']       | ['T1', 'T5', 'T17'] |
+-----+---------+-----------------------------------------+---------------------+
+-----------------------------------------------------+---------------------+------------------------+
|                   Estados/Acciones                  |  Agregar supervisor | Agregar o quitar arcos |
+-----------------------------------------------------+---------------------+------------------------+
|                        Start                        |         -0.9        |          0.0           |
|        Más sifónes vacíos en estado deadlock        |         0.0         |          0.0           |
|       Menos sifónes vacíos en estado deadlock       |         0.0         |          0.0           |
| Igual cantidad de sifónes vacíos en estado deadlock | -12.445428158999988 |  -5.7207019987021175   |
|                         End                         |         0.0         |          0.0           |
+-----------------------------------------------------+---------------------+------------------------+
+-----+-----+--------------------------------------------------------+
|  ID | Nro |                         Plazas                         |
+-----+-----+--------------------------------------------------------+
| 130 |  1  |        ['P3', 'P9', 'P22', 'P25', 'P27', 'P28']        |
| 131 |  2  |           ['P2', 'P9', 'P22', 'P25', 'P28']            |
| 132 |  42 |    ['P2', 'P9', 'P21', 'P22', 'P24', 'P26', 'P28']     |
| 133 |  45 |    ['P2', 'P9', 'P14', 'P21', 'P22', 'P26', 'P28']     |
| 134 |  92 | ['P3', 'P9', 'P21', 'P22', 'P24', 'P26', 'P27', 'P28'] |
| 135 |  97 | ['P3', 'P9', 'P14', 'P21', 'P22', 'P26', 'P27', 'P28'] |
| 136 |  3  |           ['P1', 'P9', 'P15', 'P22', 'P25']            |
| 137 |  15 |               ['P2', 'P8', 'P22', 'P28']               |
| 138 |  44 |            ['P2', 'P8', 'P9', 'P22', 'P28']            |
| 139 |  95 |         ['P2', 'P3', 'P8', 'P9', 'P22', 'P28']         |
+-----+-----+--------------------------------------------------------+
+----+----+----+----+----+----+----+----+----+----+-----+-----+-----+-----+-----+-----+-----+-----+
| T0 | T1 | T2 | T3 | T4 | T5 | T6 | T7 | T8 | T9 | T10 | T11 | T12 | T13 | T14 | T15 | T16 | T17 |
+----+----+----+----+----+----+----+----+----+----+-----+-----+-----+-----+-----+-----+-----+-----+
| 0  | 0  | 0  | 0  | 1  | 1  | 1  | 1  | 1  | 0  |  0  |  0  |  0  |  0  |  0  |  0  |  0  |  0  |
| 0  | 0  | 0  | 0  | 0  | 0  | 0  | 0  | 0  | 1  |  1  |  1  |  1  |  0  |  0  |  0  |  1  |  1  |
+----+----+----+----+----+----+----+----+----+----+-----+-----+-----+-----+-----+-----+-----+-----+
+-----+---------+-----------------------------------------+---------------------+
|  ID | Marcado |               T - Entrada               |      T - Salida     |
+-----+---------+-----------------------------------------+---------------------+
| P31 |    2    |           ['T3', 'T8', 'T18']           | ['T1', 'T5', 'T17'] |
| P31 |    1    |        ['T2', 'T8', 'T16', 'T18']       | ['T1', 'T5', 'T17'] |
| P31 |    2    |    ['T2', 'T8', 'T13', 'T14', 'T16']    | ['T1', 'T5', 'T17'] |
| P31 |    1    |        ['T2', 'T8', 'T13', 'T16']       | ['T1', 'T5', 'T17'] |
| P31 |    3    | ['T2', 'T3', 'T8', 'T14', 'T16', 'T18'] | ['T1', 'T5', 'T17'] |
| P31 |    2    |           ['T3', 'T8', 'T18']           | ['T1', 'T5', 'T17'] |
| P31 |    0    |                 ['T16']                 | ['T1', 'T5', 'T17'] |
| P31 |    0    |              ['T13', 'T16']             | ['T1', 'T5', 'T17'] |
| P31 |    0    |           ['T8', 'T13', 'T16']          | ['T1', 'T5', 'T17'] |
| P31 |    0    |        ['T3', 'T8', 'T13', 'T16']       | ['T1', 'T5', 'T17'] |
+-----+---------+-----------------------------------------+---------------------+
+-----------------------------------------------------+---------------------+------------------------+
|                   Estados/Acciones                  |  Agregar supervisor | Agregar o quitar arcos |
+-----------------------------------------------------+---------------------+------------------------+
|                        Start                        |         -0.9        |          0.0           |
|        Más sifónes vacíos en estado deadlock        |         0.0         |          0.0           |
|       Menos sifónes vacíos en estado deadlock       |         0.0         |          0.0           |
| Igual cantidad de sifónes vacíos en estado deadlock | -12.445428158999988 |   -6.105838818818927   |
|                         End                         |         0.0         |          0.0           |
+-----------------------------------------------------+---------------------+------------------------+
+-----+-----+--------------------------------------------------------+
|  ID | Nro |                         Plazas                         |
+-----+-----+--------------------------------------------------------+
| 140 |  1  |        ['P3', 'P9', 'P22', 'P25', 'P27', 'P28']        |
| 141 |  2  |           ['P2', 'P9', 'P22', 'P25', 'P28']            |
| 142 |  42 |    ['P2', 'P9', 'P21', 'P22', 'P24', 'P26', 'P28']     |
| 143 |  45 |    ['P2', 'P9', 'P14', 'P21', 'P22', 'P26', 'P28']     |
| 144 |  92 | ['P3', 'P9', 'P21', 'P22', 'P24', 'P26', 'P27', 'P28'] |
| 145 |  97 | ['P3', 'P9', 'P14', 'P21', 'P22', 'P26', 'P27', 'P28'] |
| 146 |  3  |           ['P1', 'P9', 'P15', 'P22', 'P25']            |
| 147 |  15 |               ['P2', 'P8', 'P22', 'P28']               |
| 148 |  44 |            ['P2', 'P8', 'P9', 'P22', 'P28']            |
| 149 |  95 |         ['P2', 'P3', 'P8', 'P9', 'P22', 'P28']         |
+-----+-----+--------------------------------------------------------+
+----+----+----+----+----+----+----+----+----+----+-----+-----+-----+-----+-----+-----+-----+-----+
| T0 | T1 | T2 | T3 | T4 | T5 | T6 | T7 | T8 | T9 | T10 | T11 | T12 | T13 | T14 | T15 | T16 | T17 |
+----+----+----+----+----+----+----+----+----+----+-----+-----+-----+-----+-----+-----+-----+-----+
| 0  | 0  | 0  | 0  | 1  | 1  | 1  | 1  | 1  | 0  |  0  |  0  |  0  |  0  |  0  |  0  |  0  |  0  |
| 0  | 0  | 0  | 0  | 0  | 0  | 0  | 0  | 0  | 1  |  1  |  1  |  1  |  0  |  0  |  0  |  1  |  1  |
+----+----+----+----+----+----+----+----+----+----+-----+-----+-----+-----+-----+-----+-----+-----+
+-----+---------+-----------------------------------------+---------------------+
|  ID | Marcado |               T - Entrada               |      T - Salida     |
+-----+---------+-----------------------------------------+---------------------+
| P31 |    2    |           ['T3', 'T8', 'T18']           | ['T1', 'T5', 'T17'] |
| P31 |    1    |        ['T2', 'T8', 'T16', 'T18']       | ['T1', 'T5', 'T17'] |
| P31 |    2    |    ['T2', 'T8', 'T13', 'T14', 'T16']    | ['T1', 'T5', 'T17'] |
| P31 |    1    |        ['T2', 'T8', 'T13', 'T16']       | ['T1', 'T5', 'T17'] |
| P31 |    3    | ['T2', 'T3', 'T8', 'T14', 'T16', 'T18'] | ['T1', 'T5', 'T17'] |
| P31 |    2    |           ['T3', 'T8', 'T18']           | ['T1', 'T5', 'T17'] |
| P31 |    0    |                 ['T16']                 | ['T1', 'T5', 'T17'] |
| P31 |    0    |              ['T13', 'T16']             | ['T1', 'T5', 'T17'] |
| P31 |    0    |           ['T8', 'T13', 'T16']          | ['T1', 'T5', 'T17'] |
| P31 |    0    |        ['T3', 'T8', 'T13', 'T16']       | ['T1', 'T5', 'T17'] |
+-----+---------+-----------------------------------------+---------------------+
+-----------------------------------------------------+---------------------+------------------------+
|                   Estados/Acciones                  |  Agregar supervisor | Agregar o quitar arcos |
+-----------------------------------------------------+---------------------+------------------------+
|                        Start                        |         -0.9        |          0.0           |
|        Más sifónes vacíos en estado deadlock        |         0.0         |          0.0           |
|       Menos sifónes vacíos en estado deadlock       |         0.0         |          0.0           |
| Igual cantidad de sifónes vacíos en estado deadlock | -12.445428158999988 |   -6.456313325125223   |
|                         End                         |         0.0         |          0.0           |
+-----------------------------------------------------+---------------------+------------------------+
+-----+-----+--------------------------------------------------------+
|  ID | Nro |                         Plazas                         |
+-----+-----+--------------------------------------------------------+
| 150 |  1  |        ['P3', 'P9', 'P22', 'P25', 'P27', 'P28']        |
| 151 |  2  |           ['P2', 'P9', 'P22', 'P25', 'P28']            |
| 152 |  42 |    ['P2', 'P9', 'P21', 'P22', 'P24', 'P26', 'P28']     |
| 153 |  45 |    ['P2', 'P9', 'P14', 'P21', 'P22', 'P26', 'P28']     |
| 154 |  92 | ['P3', 'P9', 'P21', 'P22', 'P24', 'P26', 'P27', 'P28'] |
| 155 |  97 | ['P3', 'P9', 'P14', 'P21', 'P22', 'P26', 'P27', 'P28'] |
| 156 |  3  |           ['P1', 'P9', 'P15', 'P22', 'P25']            |
| 157 |  15 |               ['P2', 'P8', 'P22', 'P28']               |
| 158 |  44 |            ['P2', 'P8', 'P9', 'P22', 'P28']            |
| 159 |  95 |         ['P2', 'P3', 'P8', 'P9', 'P22', 'P28']         |
+-----+-----+--------------------------------------------------------+
+----+----+----+----+----+----+----+----+----+----+-----+-----+-----+-----+-----+-----+-----+-----+
| T0 | T1 | T2 | T3 | T4 | T5 | T6 | T7 | T8 | T9 | T10 | T11 | T12 | T13 | T14 | T15 | T16 | T17 |
+----+----+----+----+----+----+----+----+----+----+-----+-----+-----+-----+-----+-----+-----+-----+
| 0  | 0  | 0  | 0  | 1  | 1  | 1  | 1  | 1  | 0  |  0  |  0  |  0  |  0  |  0  |  0  |  0  |  0  |
| 0  | 0  | 0  | 0  | 0  | 0  | 0  | 0  | 0  | 1  |  1  |  1  |  1  |  0  |  0  |  0  |  1  |  1  |
+----+----+----+----+----+----+----+----+----+----+-----+-----+-----+-----+-----+-----+-----+-----+
+-----+---------+-----------------------------------------+---------------------+
|  ID | Marcado |               T - Entrada               |      T - Salida     |
+-----+---------+-----------------------------------------+---------------------+
| P31 |    2    |           ['T3', 'T8', 'T18']           | ['T1', 'T5', 'T17'] |
| P31 |    1    |        ['T2', 'T8', 'T16', 'T18']       | ['T1', 'T5', 'T17'] |
| P31 |    2    |    ['T2', 'T8', 'T13', 'T14', 'T16']    | ['T1', 'T5', 'T17'] |
| P31 |    1    |        ['T2', 'T8', 'T13', 'T16']       | ['T1', 'T5', 'T17'] |
| P31 |    3    | ['T2', 'T3', 'T8', 'T14', 'T16', 'T18'] | ['T1', 'T5', 'T17'] |
| P31 |    2    |           ['T3', 'T8', 'T18']           | ['T1', 'T5', 'T17'] |
| P31 |    0    |                 ['T16']                 | ['T1', 'T5', 'T17'] |
| P31 |    0    |              ['T13', 'T16']             | ['T1', 'T5', 'T17'] |
| P31 |    0    |           ['T8', 'T13', 'T16']          | ['T1', 'T5', 'T17'] |
| P31 |    0    |        ['T3', 'T8', 'T13', 'T16']       | ['T1', 'T5', 'T17'] |
+-----+---------+-----------------------------------------+---------------------+
+-----------------------------------------------------+---------------------+------------------------+
|                   Estados/Acciones                  |  Agregar supervisor | Agregar o quitar arcos |
+-----------------------------------------------------+---------------------+------------------------+
|                        Start                        |         -0.9        |          0.0           |
|        Más sifónes vacíos en estado deadlock        |         0.0         |          0.0           |
|       Menos sifónes vacíos en estado deadlock       |         0.0         |          0.0           |
| Igual cantidad de sifónes vacíos en estado deadlock | -12.445428158999988 |   -6.775245125863953   |
|                         End                         |         0.0         |          0.0           |
+-----------------------------------------------------+---------------------+------------------------+
+-----+-----+--------------------------------------------------------+
|  ID | Nro |                         Plazas                         |
+-----+-----+--------------------------------------------------------+
| 160 |  1  |        ['P3', 'P9', 'P22', 'P25', 'P27', 'P28']        |
| 161 |  2  |           ['P2', 'P9', 'P22', 'P25', 'P28']            |
| 162 |  42 |    ['P2', 'P9', 'P21', 'P22', 'P24', 'P26', 'P28']     |
| 163 |  45 |    ['P2', 'P9', 'P14', 'P21', 'P22', 'P26', 'P28']     |
| 164 |  92 | ['P3', 'P9', 'P21', 'P22', 'P24', 'P26', 'P27', 'P28'] |
| 165 |  97 | ['P3', 'P9', 'P14', 'P21', 'P22', 'P26', 'P27', 'P28'] |
| 166 |  3  |           ['P1', 'P9', 'P15', 'P22', 'P25']            |
| 167 |  15 |               ['P2', 'P8', 'P22', 'P28']               |
| 168 |  44 |            ['P2', 'P8', 'P9', 'P22', 'P28']            |
| 169 |  95 |         ['P2', 'P3', 'P8', 'P9', 'P22', 'P28']         |
+-----+-----+--------------------------------------------------------+
+----+----+----+----+----+----+----+----+----+----+-----+-----+-----+-----+-----+-----+-----+-----+
| T0 | T1 | T2 | T3 | T4 | T5 | T6 | T7 | T8 | T9 | T10 | T11 | T12 | T13 | T14 | T15 | T16 | T17 |
+----+----+----+----+----+----+----+----+----+----+-----+-----+-----+-----+-----+-----+-----+-----+
| 0  | 0  | 0  | 0  | 1  | 1  | 1  | 1  | 1  | 0  |  0  |  0  |  0  |  0  |  0  |  0  |  0  |  0  |
| 0  | 0  | 0  | 0  | 0  | 0  | 0  | 0  | 0  | 1  |  1  |  1  |  1  |  0  |  0  |  0  |  1  |  1  |
+----+----+----+----+----+----+----+----+----+----+-----+-----+-----+-----+-----+-----+-----+-----+
+-----+---------+-----------------------------------------+---------------------+
|  ID | Marcado |               T - Entrada               |      T - Salida     |
+-----+---------+-----------------------------------------+---------------------+
| P31 |    2    |           ['T3', 'T8', 'T18']           | ['T1', 'T5', 'T17'] |
| P31 |    1    |        ['T2', 'T8', 'T16', 'T18']       | ['T1', 'T5', 'T17'] |
| P31 |    2    |    ['T2', 'T8', 'T13', 'T14', 'T16']    | ['T1', 'T5', 'T17'] |
| P31 |    1    |        ['T2', 'T8', 'T13', 'T16']       | ['T1', 'T5', 'T17'] |
| P31 |    3    | ['T2', 'T3', 'T8', 'T14', 'T16', 'T18'] | ['T1', 'T5', 'T17'] |
| P31 |    2    |           ['T3', 'T8', 'T18']           | ['T1', 'T5', 'T17'] |
| P31 |    0    |                 ['T16']                 | ['T1', 'T5', 'T17'] |
| P31 |    0    |              ['T13', 'T16']             | ['T1', 'T5', 'T17'] |
| P31 |    0    |           ['T8', 'T13', 'T16']          | ['T1', 'T5', 'T17'] |
| P31 |    0    |        ['T3', 'T8', 'T13', 'T16']       | ['T1', 'T5', 'T17'] |
+-----+---------+-----------------------------------------+---------------------+
+-----------------------------------------------------+---------------------+------------------------+
|                   Estados/Acciones                  |  Agregar supervisor | Agregar o quitar arcos |
+-----------------------------------------------------+---------------------+------------------------+
|                        Start                        |         -0.9        |          0.0           |
|        Más sifónes vacíos en estado deadlock        |         0.0         |          0.0           |
|       Menos sifónes vacíos en estado deadlock       |         0.0         |          0.0           |
| Igual cantidad de sifónes vacíos en estado deadlock | -12.445428158999988 |   -7.065473064536197   |
|                         End                         |         0.0         |          0.0           |
+-----------------------------------------------------+---------------------+------------------------+
+-----+-----+--------------------------------------------------------+
|  ID | Nro |                         Plazas                         |
+-----+-----+--------------------------------------------------------+
| 170 |  1  |        ['P3', 'P9', 'P22', 'P25', 'P27', 'P28']        |
| 171 |  2  |           ['P2', 'P9', 'P22', 'P25', 'P28']            |
| 172 |  43 |    ['P2', 'P9', 'P21', 'P22', 'P24', 'P26', 'P28']     |
| 173 |  46 |    ['P2', 'P9', 'P14', 'P21', 'P22', 'P26', 'P28']     |
| 174 |  93 | ['P3', 'P9', 'P21', 'P22', 'P24', 'P26', 'P27', 'P28'] |
| 175 |  98 | ['P3', 'P9', 'P14', 'P21', 'P22', 'P26', 'P27', 'P28'] |
| 176 |  3  |           ['P1', 'P9', 'P15', 'P22', 'P25']            |
| 177 |  15 |               ['P2', 'P8', 'P22', 'P28']               |
| 178 |  45 |            ['P2', 'P8', 'P9', 'P22', 'P28']            |
| 179 |  96 |         ['P2', 'P3', 'P8', 'P9', 'P22', 'P28']         |
+-----+-----+--------------------------------------------------------+
+----+----+----+----+----+----+----+----+----+----+-----+-----+-----+-----+-----+-----+-----+-----+
| T0 | T1 | T2 | T3 | T4 | T5 | T6 | T7 | T8 | T9 | T10 | T11 | T12 | T13 | T14 | T15 | T16 | T17 |
+----+----+----+----+----+----+----+----+----+----+-----+-----+-----+-----+-----+-----+-----+-----+
| 0  | 0  | 0  | 0  | 1  | 1  | 1  | 1  | 1  | 0  |  0  |  0  |  0  |  0  |  0  |  0  |  0  |  0  |
| 0  | 0  | 0  | 0  | 0  | 0  | 0  | 0  | 0  | 1  |  1  |  1  |  1  |  0  |  0  |  0  |  1  |  1  |
+----+----+----+----+----+----+----+----+----+----+-----+-----+-----+-----+-----+-----+-----+-----+
+-----+---------+-----------------------------------------+---------------------+
|  ID | Marcado |               T - Entrada               |      T - Salida     |
+-----+---------+-----------------------------------------+---------------------+
| P32 |    2    |           ['T3', 'T8', 'T18']           | ['T1', 'T5', 'T17'] |
| P32 |    1    |        ['T2', 'T8', 'T16', 'T18']       | ['T1', 'T5', 'T17'] |
| P32 |    2    |    ['T2', 'T8', 'T13', 'T14', 'T16']    | ['T1', 'T5', 'T17'] |
| P32 |    1    |        ['T2', 'T8', 'T13', 'T16']       | ['T1', 'T5', 'T17'] |
| P32 |    3    | ['T2', 'T3', 'T8', 'T14', 'T16', 'T18'] | ['T1', 'T5', 'T17'] |
| P32 |    2    |           ['T3', 'T8', 'T18']           | ['T1', 'T5', 'T17'] |
| P32 |    0    |                 ['T16']                 | ['T1', 'T5', 'T17'] |
| P32 |    0    |              ['T13', 'T16']             | ['T1', 'T5', 'T17'] |
| P32 |    0    |           ['T8', 'T13', 'T16']          | ['T1', 'T5', 'T17'] |
| P32 |    0    |        ['T3', 'T8', 'T13', 'T16']       | ['T1', 'T5', 'T17'] |
+-----+---------+-----------------------------------------+---------------------+
+-----------------------------------------------------+--------------------+------------------------+
|                   Estados/Acciones                  | Agregar supervisor | Agregar o quitar arcos |
+-----------------------------------------------------+--------------------+------------------------+
|                        Start                        |        -0.9        |          0.0           |
|        Más sifónes vacíos en estado deadlock        |        0.0         |          0.0           |
|       Menos sifónes vacíos en estado deadlock       |        0.0         |          0.0           |
| Igual cantidad de sifónes vacíos en estado deadlock | -7.867575998174318 |   -7.065473064536197   |
|                         End                         |        0.0         |          0.0           |
+-----------------------------------------------------+--------------------+------------------------+
+-----+-----+--------------------------------------------------------+
|  ID | Nro |                         Plazas                         |
+-----+-----+--------------------------------------------------------+
| 180 |  1  |        ['P3', 'P9', 'P22', 'P25', 'P27', 'P28']        |
| 181 |  2  |           ['P2', 'P9', 'P22', 'P25', 'P28']            |
| 182 |  43 |    ['P2', 'P9', 'P21', 'P22', 'P24', 'P26', 'P28']     |
| 183 |  46 |    ['P2', 'P9', 'P14', 'P21', 'P22', 'P26', 'P28']     |
| 184 |  93 | ['P3', 'P9', 'P21', 'P22', 'P24', 'P26', 'P27', 'P28'] |
| 185 |  98 | ['P3', 'P9', 'P14', 'P21', 'P22', 'P26', 'P27', 'P28'] |
| 186 |  3  |           ['P1', 'P9', 'P15', 'P22', 'P25']            |
| 187 |  15 |               ['P2', 'P8', 'P22', 'P28']               |
| 188 |  45 |            ['P2', 'P8', 'P9', 'P22', 'P28']            |
| 189 |  96 |         ['P2', 'P3', 'P8', 'P9', 'P22', 'P28']         |
+-----+-----+--------------------------------------------------------+
+----+----+----+----+----+----+----+----+----+----+-----+-----+-----+-----+-----+-----+-----+-----+
| T0 | T1 | T2 | T3 | T4 | T5 | T6 | T7 | T8 | T9 | T10 | T11 | T12 | T13 | T14 | T15 | T16 | T17 |
+----+----+----+----+----+----+----+----+----+----+-----+-----+-----+-----+-----+-----+-----+-----+
| 0  | 0  | 0  | 0  | 1  | 1  | 1  | 1  | 1  | 0  |  0  |  0  |  0  |  0  |  0  |  0  |  0  |  0  |
| 0  | 0  | 0  | 0  | 0  | 0  | 0  | 0  | 0  | 1  |  1  |  1  |  1  |  0  |  0  |  0  |  1  |  1  |
+----+----+----+----+----+----+----+----+----+----+-----+-----+-----+-----+-----+-----+-----+-----+
+-----+---------+-----------------------------------------+---------------------+
|  ID | Marcado |               T - Entrada               |      T - Salida     |
+-----+---------+-----------------------------------------+---------------------+
| P32 |    2    |           ['T3', 'T8', 'T18']           | ['T1', 'T5', 'T17'] |
| P32 |    1    |        ['T2', 'T8', 'T16', 'T18']       | ['T1', 'T5', 'T17'] |
| P32 |    2    |    ['T2', 'T8', 'T13', 'T14', 'T16']    | ['T1', 'T5', 'T17'] |
| P32 |    1    |        ['T2', 'T8', 'T13', 'T16']       | ['T1', 'T5', 'T17'] |
| P32 |    3    | ['T2', 'T3', 'T8', 'T14', 'T16', 'T18'] | ['T1', 'T5', 'T17'] |
| P32 |    2    |           ['T3', 'T8', 'T18']           | ['T1', 'T5', 'T17'] |
| P32 |    0    |                 ['T16']                 | ['T1', 'T5', 'T17'] |
| P32 |    0    |              ['T13', 'T16']             | ['T1', 'T5', 'T17'] |
| P32 |    0    |           ['T8', 'T13', 'T16']          | ['T1', 'T5', 'T17'] |
| P32 |    0    |        ['T3', 'T8', 'T13', 'T16']       | ['T1', 'T5', 'T17'] |
+-----+---------+-----------------------------------------+---------------------+
+-----------------------------------------------------+--------------------+------------------------+
|                   Estados/Acciones                  | Agregar supervisor | Agregar o quitar arcos |
+-----------------------------------------------------+--------------------+------------------------+
|                        Start                        |        -0.9        |          0.0           |
|        Más sifónes vacíos en estado deadlock        |        0.0         |          0.0           |
|       Menos sifónes vacíos en estado deadlock       |        0.0         |          0.0           |
| Igual cantidad de sifónes vacíos en estado deadlock | -7.867575998174318 |   -7.329580488727939   |
|                         End                         |        0.0         |          0.0           |
+-----------------------------------------------------+--------------------+------------------------+
+-----+-----+--------------------------------------------------------+
|  ID | Nro |                         Plazas                         |
+-----+-----+--------------------------------------------------------+
| 190 |  1  |        ['P3', 'P9', 'P22', 'P25', 'P27', 'P28']        |
| 191 |  2  |           ['P2', 'P9', 'P22', 'P25', 'P28']            |
| 192 |  43 |    ['P2', 'P9', 'P21', 'P22', 'P24', 'P26', 'P28']     |
| 193 |  46 |    ['P2', 'P9', 'P14', 'P21', 'P22', 'P26', 'P28']     |
| 194 |  93 | ['P3', 'P9', 'P21', 'P22', 'P24', 'P26', 'P27', 'P28'] |
| 195 |  98 | ['P3', 'P9', 'P14', 'P21', 'P22', 'P26', 'P27', 'P28'] |
| 196 |  3  |           ['P1', 'P9', 'P15', 'P22', 'P25']            |
| 197 |  15 |               ['P2', 'P8', 'P22', 'P28']               |
| 198 |  45 |            ['P2', 'P8', 'P9', 'P22', 'P28']            |
| 199 |  96 |         ['P2', 'P3', 'P8', 'P9', 'P22', 'P28']         |
+-----+-----+--------------------------------------------------------+
+----+----+----+----+----+----+----+----+----+----+-----+-----+-----+-----+-----+-----+-----+-----+
| T0 | T1 | T2 | T3 | T4 | T5 | T6 | T7 | T8 | T9 | T10 | T11 | T12 | T13 | T14 | T15 | T16 | T17 |
+----+----+----+----+----+----+----+----+----+----+-----+-----+-----+-----+-----+-----+-----+-----+
| 0  | 0  | 0  | 0  | 1  | 1  | 1  | 1  | 1  | 0  |  0  |  0  |  0  |  0  |  0  |  0  |  0  |  0  |
| 0  | 0  | 0  | 0  | 0  | 0  | 0  | 0  | 0  | 1  |  1  |  1  |  1  |  0  |  0  |  0  |  1  |  1  |
+----+----+----+----+----+----+----+----+----+----+-----+-----+-----+-----+-----+-----+-----+-----+
+-----+---------+-----------------------------------------+---------------------+
|  ID | Marcado |               T - Entrada               |      T - Salida     |
+-----+---------+-----------------------------------------+---------------------+
| P32 |    2    |           ['T3', 'T8', 'T18']           | ['T1', 'T5', 'T17'] |
| P32 |    1    |        ['T2', 'T8', 'T16', 'T18']       | ['T1', 'T5', 'T17'] |
| P32 |    2    |    ['T2', 'T8', 'T13', 'T14', 'T16']    | ['T1', 'T5', 'T17'] |
| P32 |    1    |        ['T2', 'T8', 'T13', 'T16']       | ['T1', 'T5', 'T17'] |
| P32 |    3    | ['T2', 'T3', 'T8', 'T14', 'T16', 'T18'] | ['T1', 'T5', 'T17'] |
| P32 |    2    |           ['T3', 'T8', 'T18']           | ['T1', 'T5', 'T17'] |
| P32 |    0    |                 ['T16']                 | ['T1', 'T5', 'T17'] |
| P32 |    0    |              ['T13', 'T16']             | ['T1', 'T5', 'T17'] |
| P32 |    0    |           ['T8', 'T13', 'T16']          | ['T1', 'T5', 'T17'] |
| P32 |    0    |        ['T3', 'T8', 'T13', 'T16']       | ['T1', 'T5', 'T17'] |
+-----+---------+-----------------------------------------+---------------------+
+-----------------------------------------------------+--------------------+------------------------+
|                   Estados/Acciones                  | Agregar supervisor | Agregar o quitar arcos |
+-----------------------------------------------------+--------------------+------------------------+
|                        Start                        |        -0.9        |          0.0           |
|        Más sifónes vacíos en estado deadlock        |        0.0         |          0.0           |
|       Menos sifónes vacíos en estado deadlock       |        0.0         |          0.0           |
| Igual cantidad de sifónes vacíos en estado deadlock | -7.867575998174318 |   -7.569918244742425   |
|                         End                         |        0.0         |          0.0           |
+-----------------------------------------------------+--------------------+------------------------+
+-----+-----+--------------------------------------------------------+
|  ID | Nro |                         Plazas                         |
+-----+-----+--------------------------------------------------------+
| 200 |  1  |        ['P3', 'P9', 'P22', 'P25', 'P27', 'P28']        |
| 201 |  2  |           ['P2', 'P9', 'P22', 'P25', 'P28']            |
| 202 |  43 |    ['P2', 'P9', 'P21', 'P22', 'P24', 'P26', 'P28']     |
| 203 |  46 |    ['P2', 'P9', 'P14', 'P21', 'P22', 'P26', 'P28']     |
| 204 |  93 | ['P3', 'P9', 'P21', 'P22', 'P24', 'P26', 'P27', 'P28'] |
| 205 |  98 | ['P3', 'P9', 'P14', 'P21', 'P22', 'P26', 'P27', 'P28'] |
| 206 |  3  |           ['P1', 'P9', 'P15', 'P22', 'P25']            |
| 207 |  15 |               ['P2', 'P8', 'P22', 'P28']               |
| 208 |  45 |            ['P2', 'P8', 'P9', 'P22', 'P28']            |
| 209 |  96 |         ['P2', 'P3', 'P8', 'P9', 'P22', 'P28']         |
+-----+-----+--------------------------------------------------------+
+----+----+----+----+----+----+----+----+----+----+-----+-----+-----+-----+-----+-----+-----+-----+
| T0 | T1 | T2 | T3 | T4 | T5 | T6 | T7 | T8 | T9 | T10 | T11 | T12 | T13 | T14 | T15 | T16 | T17 |
+----+----+----+----+----+----+----+----+----+----+-----+-----+-----+-----+-----+-----+-----+-----+
| 0  | 0  | 0  | 0  | 1  | 1  | 1  | 1  | 1  | 0  |  0  |  0  |  0  |  0  |  0  |  0  |  0  |  0  |
| 0  | 0  | 0  | 0  | 0  | 0  | 0  | 0  | 0  | 1  |  1  |  1  |  1  |  0  |  0  |  0  |  1  |  1  |
+----+----+----+----+----+----+----+----+----+----+-----+-----+-----+-----+-----+-----+-----+-----+
+-----+---------+-----------------------------------------+---------------------+
|  ID | Marcado |               T - Entrada               |      T - Salida     |
+-----+---------+-----------------------------------------+---------------------+
| P32 |    2    |           ['T3', 'T8', 'T18']           | ['T1', 'T5', 'T17'] |
| P32 |    1    |        ['T2', 'T8', 'T16', 'T18']       | ['T1', 'T5', 'T17'] |
| P32 |    2    |    ['T2', 'T8', 'T13', 'T14', 'T16']    | ['T1', 'T5', 'T17'] |
| P32 |    1    |        ['T2', 'T8', 'T13', 'T16']       | ['T1', 'T5', 'T17'] |
| P32 |    3    | ['T2', 'T3', 'T8', 'T14', 'T16', 'T18'] | ['T1', 'T5', 'T17'] |
| P32 |    2    |           ['T3', 'T8', 'T18']           | ['T1', 'T5', 'T17'] |
| P32 |    0    |                 ['T16']                 | ['T1', 'T5', 'T17'] |
| P32 |    0    |              ['T13', 'T16']             | ['T1', 'T5', 'T17'] |
| P32 |    0    |           ['T8', 'T13', 'T16']          | ['T1', 'T5', 'T17'] |
| P32 |    0    |        ['T3', 'T8', 'T13', 'T16']       | ['T1', 'T5', 'T17'] |
+-----+---------+-----------------------------------------+---------------------+
+-----------------------------------------------------+--------------------+------------------------+
|                   Estados/Acciones                  | Agregar supervisor | Agregar o quitar arcos |
+-----------------------------------------------------+--------------------+------------------------+
|                        Start                        |        -0.9        |          0.0           |
|        Más sifónes vacíos en estado deadlock        |        0.0         |          0.0           |
|       Menos sifónes vacíos en estado deadlock       |        0.0         |          0.0           |
| Igual cantidad de sifónes vacíos en estado deadlock | -7.867575998174318 |   -7.788625602715607   |
|                         End                         |        0.0         |          0.0           |
+-----------------------------------------------------+--------------------+------------------------+
+-----+-----+--------------------------------------------------------+
|  ID | Nro |                         Plazas                         |
+-----+-----+--------------------------------------------------------+
| 210 |  1  |        ['P3', 'P9', 'P22', 'P25', 'P27', 'P28']        |
| 211 |  2  |           ['P2', 'P9', 'P22', 'P25', 'P28']            |
| 212 |  43 |    ['P2', 'P9', 'P21', 'P22', 'P24', 'P26', 'P28']     |
| 213 |  46 |    ['P2', 'P9', 'P14', 'P21', 'P22', 'P26', 'P28']     |
| 214 |  93 | ['P3', 'P9', 'P21', 'P22', 'P24', 'P26', 'P27', 'P28'] |
| 215 |  98 | ['P3', 'P9', 'P14', 'P21', 'P22', 'P26', 'P27', 'P28'] |
| 216 |  3  |           ['P1', 'P9', 'P15', 'P22', 'P25']            |
| 217 |  15 |               ['P2', 'P8', 'P22', 'P28']               |
| 218 |  45 |            ['P2', 'P8', 'P9', 'P22', 'P28']            |
| 219 |  96 |         ['P2', 'P3', 'P8', 'P9', 'P22', 'P28']         |
+-----+-----+--------------------------------------------------------+
+----+----+----+----+----+----+----+----+----+----+-----+-----+-----+-----+-----+-----+-----+-----+
| T0 | T1 | T2 | T3 | T4 | T5 | T6 | T7 | T8 | T9 | T10 | T11 | T12 | T13 | T14 | T15 | T16 | T17 |
+----+----+----+----+----+----+----+----+----+----+-----+-----+-----+-----+-----+-----+-----+-----+
| 0  | 0  | 0  | 0  | 1  | 1  | 1  | 1  | 1  | 0  |  0  |  0  |  0  |  0  |  0  |  0  |  0  |  0  |
| 0  | 0  | 0  | 0  | 0  | 0  | 0  | 0  | 0  | 1  |  1  |  1  |  1  |  0  |  0  |  0  |  1  |  1  |
+----+----+----+----+----+----+----+----+----+----+-----+-----+-----+-----+-----+-----+-----+-----+
+-----+---------+-----------------------------------------+---------------------+
|  ID | Marcado |               T - Entrada               |      T - Salida     |
+-----+---------+-----------------------------------------+---------------------+
| P32 |    2    |           ['T3', 'T8', 'T18']           | ['T1', 'T5', 'T17'] |
| P32 |    1    |        ['T2', 'T8', 'T16', 'T18']       | ['T1', 'T5', 'T17'] |
| P32 |    2    |    ['T2', 'T8', 'T13', 'T14', 'T16']    | ['T1', 'T5', 'T17'] |
| P32 |    1    |        ['T2', 'T8', 'T13', 'T16']       | ['T1', 'T5', 'T17'] |
| P32 |    3    | ['T2', 'T3', 'T8', 'T14', 'T16', 'T18'] | ['T1', 'T5', 'T17'] |
| P32 |    2    |           ['T3', 'T8', 'T18']           | ['T1', 'T5', 'T17'] |
| P32 |    0    |                 ['T16']                 | ['T1', 'T5', 'T17'] |
| P32 |    0    |              ['T13', 'T16']             | ['T1', 'T5', 'T17'] |
| P32 |    0    |           ['T8', 'T13', 'T16']          | ['T1', 'T5', 'T17'] |
| P32 |    0    |        ['T3', 'T8', 'T13', 'T16']       | ['T1', 'T5', 'T17'] |
+-----+---------+-----------------------------------------+---------------------+
+-----------------------------------------------------+--------------------+------------------------+
|                   Estados/Acciones                  | Agregar supervisor | Agregar o quitar arcos |
+-----------------------------------------------------+--------------------+------------------------+
|                        Start                        |        -0.9        |          0.0           |
|        Más sifónes vacíos en estado deadlock        |        0.0         |          0.0           |
|       Menos sifónes vacíos en estado deadlock       |        0.0         |          0.0           |
| Igual cantidad de sifónes vacíos en estado deadlock | -7.867575998174318 |   -7.987649298471202   |
|                         End                         |        0.0         |          0.0           |
+-----------------------------------------------------+--------------------+------------------------+
+-----+-----+--------------------------------------------------------+
|  ID | Nro |                         Plazas                         |
+-----+-----+--------------------------------------------------------+
| 220 |  1  |        ['P3', 'P9', 'P22', 'P25', 'P27', 'P28']        |
| 221 |  2  |           ['P2', 'P9', 'P22', 'P25', 'P28']            |
| 222 |  43 |    ['P2', 'P9', 'P21', 'P22', 'P24', 'P26', 'P28']     |
| 223 |  46 |    ['P2', 'P9', 'P14', 'P21', 'P22', 'P26', 'P28']     |
| 224 |  93 | ['P3', 'P9', 'P21', 'P22', 'P24', 'P26', 'P27', 'P28'] |
| 225 |  98 | ['P3', 'P9', 'P14', 'P21', 'P22', 'P26', 'P27', 'P28'] |
| 226 |  3  |           ['P1', 'P9', 'P15', 'P22', 'P25']            |
| 227 |  15 |               ['P2', 'P8', 'P22', 'P28']               |
| 228 |  45 |            ['P2', 'P8', 'P9', 'P22', 'P28']            |
| 229 |  96 |         ['P2', 'P3', 'P8', 'P9', 'P22', 'P28']         |
+-----+-----+--------------------------------------------------------+
+----+----+----+----+----+----+----+----+----+----+-----+-----+-----+-----+-----+-----+-----+-----+
| T0 | T1 | T2 | T3 | T4 | T5 | T6 | T7 | T8 | T9 | T10 | T11 | T12 | T13 | T14 | T15 | T16 | T17 |
+----+----+----+----+----+----+----+----+----+----+-----+-----+-----+-----+-----+-----+-----+-----+
| 0  | 0  | 0  | 0  | 1  | 1  | 1  | 1  | 1  | 0  |  0  |  0  |  0  |  0  |  0  |  0  |  0  |  0  |
| 0  | 0  | 0  | 0  | 0  | 0  | 0  | 0  | 0  | 1  |  1  |  1  |  1  |  0  |  0  |  0  |  1  |  1  |
+----+----+----+----+----+----+----+----+----+----+-----+-----+-----+-----+-----+-----+-----+-----+
+-----+---------+-----------------------------------------+---------------------+
|  ID | Marcado |               T - Entrada               |      T - Salida     |
+-----+---------+-----------------------------------------+---------------------+
| P32 |    2    |           ['T3', 'T8', 'T18']           | ['T1', 'T5', 'T17'] |
| P32 |    1    |        ['T2', 'T8', 'T16', 'T18']       | ['T1', 'T5', 'T17'] |
| P32 |    2    |    ['T2', 'T8', 'T13', 'T14', 'T16']    | ['T1', 'T5', 'T17'] |
| P32 |    1    |        ['T2', 'T8', 'T13', 'T16']       | ['T1', 'T5', 'T17'] |
| P32 |    3    | ['T2', 'T3', 'T8', 'T14', 'T16', 'T18'] | ['T1', 'T5', 'T17'] |
| P32 |    2    |           ['T3', 'T8', 'T18']           | ['T1', 'T5', 'T17'] |
| P32 |    0    |                 ['T16']                 | ['T1', 'T5', 'T17'] |
| P32 |    0    |              ['T13', 'T16']             | ['T1', 'T5', 'T17'] |
| P32 |    0    |           ['T8', 'T13', 'T16']          | ['T1', 'T5', 'T17'] |
| P32 |    0    |        ['T3', 'T8', 'T13', 'T16']       | ['T1', 'T5', 'T17'] |
+-----+---------+-----------------------------------------+---------------------+
+-----------------------------------------------------+--------------------+------------------------+
|                   Estados/Acciones                  | Agregar supervisor | Agregar o quitar arcos |
+-----------------------------------------------------+--------------------+------------------------+
|                        Start                        |        -0.9        |          0.0           |
|        Más sifónes vacíos en estado deadlock        |        0.0         |          0.0           |
|       Menos sifónes vacíos en estado deadlock       |        0.0         |          0.0           |
| Igual cantidad de sifónes vacíos en estado deadlock | -97.15949415833863 |   -7.987649298471202   |
|                         End                         |        0.0         |          0.0           |
+-----------------------------------------------------+--------------------+------------------------+
+-----+-----+--------------------------------------------------------+
|  ID | Nro |                         Plazas                         |
+-----+-----+--------------------------------------------------------+
| 230 |  1  |        ['P3', 'P9', 'P22', 'P25', 'P27', 'P28']        |
| 231 |  2  |           ['P2', 'P9', 'P22', 'P25', 'P28']            |
| 232 |  43 |    ['P2', 'P9', 'P21', 'P22', 'P24', 'P26', 'P28']     |
| 233 |  46 |    ['P2', 'P9', 'P14', 'P21', 'P22', 'P26', 'P28']     |
| 234 |  93 | ['P3', 'P9', 'P21', 'P22', 'P24', 'P26', 'P27', 'P28'] |
| 235 |  98 | ['P3', 'P9', 'P14', 'P21', 'P22', 'P26', 'P27', 'P28'] |
| 236 |  3  |           ['P1', 'P9', 'P15', 'P22', 'P25']            |
| 237 |  15 |               ['P2', 'P8', 'P22', 'P28']               |
| 238 |  45 |            ['P2', 'P8', 'P9', 'P22', 'P28']            |
| 239 |  96 |         ['P2', 'P3', 'P8', 'P9', 'P22', 'P28']         |
+-----+-----+--------------------------------------------------------+
+----+----+----+----+----+----+----+----+----+----+-----+-----+-----+-----+-----+-----+-----+-----+
| T0 | T1 | T2 | T3 | T4 | T5 | T6 | T7 | T8 | T9 | T10 | T11 | T12 | T13 | T14 | T15 | T16 | T17 |
+----+----+----+----+----+----+----+----+----+----+-----+-----+-----+-----+-----+-----+-----+-----+
| 0  | 0  | 0  | 0  | 1  | 1  | 1  | 1  | 1  | 0  |  0  |  0  |  0  |  0  |  0  |  0  |  0  |  0  |
| 0  | 0  | 0  | 0  | 0  | 0  | 0  | 0  | 0  | 1  |  1  |  1  |  1  |  0  |  0  |  0  |  1  |  1  |
+----+----+----+----+----+----+----+----+----+----+-----+-----+-----+-----+-----+-----+-----+-----+
+-----+---------+-----------------------------------------+---------------------+
|  ID | Marcado |               T - Entrada               |      T - Salida     |
+-----+---------+-----------------------------------------+---------------------+
| P32 |    2    |           ['T3', 'T8', 'T18']           | ['T1', 'T5', 'T17'] |
| P32 |    1    |        ['T2', 'T8', 'T16', 'T18']       | ['T1', 'T5', 'T17'] |
| P32 |    2    |    ['T2', 'T8', 'T13', 'T14', 'T16']    | ['T1', 'T5', 'T17'] |
| P32 |    1    |        ['T2', 'T8', 'T13', 'T16']       | ['T1', 'T5', 'T17'] |
| P32 |    3    | ['T2', 'T3', 'T8', 'T14', 'T16', 'T18'] | ['T1', 'T5', 'T17'] |
| P32 |    2    |           ['T3', 'T8', 'T18']           | ['T1', 'T5', 'T17'] |
| P32 |    0    |                 ['T16']                 | ['T1', 'T5', 'T17'] |
| P32 |    0    |              ['T13', 'T16']             | ['T1', 'T5', 'T17'] |
| P32 |    0    |           ['T8', 'T13', 'T16']          | ['T1', 'T5', 'T17'] |
| P32 |    0    |        ['T3', 'T8', 'T13', 'T16']       | ['T1', 'T5', 'T17'] |
+-----+---------+-----------------------------------------+---------------------+
+-----------------------------------------------------+--------------------+------------------------+
|                   Estados/Acciones                  | Agregar supervisor | Agregar o quitar arcos |
+-----------------------------------------------------+--------------------+------------------------+
|                        Start                        |        -0.9        |          0.0           |
|        Más sifónes vacíos en estado deadlock        |        0.0         |          0.0           |
|       Menos sifónes vacíos en estado deadlock       |        0.0         |          0.0           |
| Igual cantidad de sifónes vacíos en estado deadlock | -97.15949415833863 |   -8.168760861608792   |
|                         End                         |        0.0         |          0.0           |
+-----------------------------------------------------+--------------------+------------------------+
+-----+-----+--------------------------------------------------------+
|  ID | Nro |                         Plazas                         |
+-----+-----+--------------------------------------------------------+
| 240 |  1  |        ['P3', 'P9', 'P22', 'P25', 'P27', 'P28']        |
| 241 |  2  |           ['P2', 'P9', 'P22', 'P25', 'P28']            |
| 242 |  43 |    ['P2', 'P9', 'P21', 'P22', 'P24', 'P26', 'P28']     |
| 243 |  46 |    ['P2', 'P9', 'P14', 'P21', 'P22', 'P26', 'P28']     |
| 244 |  93 | ['P3', 'P9', 'P21', 'P22', 'P24', 'P26', 'P27', 'P28'] |
| 245 |  98 | ['P3', 'P9', 'P14', 'P21', 'P22', 'P26', 'P27', 'P28'] |
| 246 |  3  |           ['P1', 'P9', 'P15', 'P22', 'P25']            |
| 247 |  15 |               ['P2', 'P8', 'P22', 'P28']               |
| 248 |  45 |            ['P2', 'P8', 'P9', 'P22', 'P28']            |
| 249 |  96 |         ['P2', 'P3', 'P8', 'P9', 'P22', 'P28']         |
+-----+-----+--------------------------------------------------------+
+----+----+----+----+----+----+----+----+----+----+-----+-----+-----+-----+-----+-----+-----+-----+
| T0 | T1 | T2 | T3 | T4 | T5 | T6 | T7 | T8 | T9 | T10 | T11 | T12 | T13 | T14 | T15 | T16 | T17 |
+----+----+----+----+----+----+----+----+----+----+-----+-----+-----+-----+-----+-----+-----+-----+
| 0  | 0  | 0  | 0  | 1  | 1  | 1  | 1  | 1  | 0  |  0  |  0  |  0  |  0  |  0  |  0  |  0  |  0  |
| 0  | 0  | 0  | 0  | 0  | 0  | 0  | 0  | 0  | 1  |  1  |  1  |  1  |  0  |  0  |  0  |  1  |  1  |
+----+----+----+----+----+----+----+----+----+----+-----+-----+-----+-----+-----+-----+-----+-----+
+-----+---------+-----------------------------------------+---------------------+
|  ID | Marcado |               T - Entrada               |      T - Salida     |
+-----+---------+-----------------------------------------+---------------------+
| P32 |    2    |           ['T3', 'T8', 'T18']           | ['T1', 'T5', 'T17'] |
| P32 |    1    |        ['T2', 'T8', 'T16', 'T18']       | ['T1', 'T5', 'T17'] |
| P32 |    2    |    ['T2', 'T8', 'T13', 'T14', 'T16']    | ['T1', 'T5', 'T17'] |
| P32 |    1    |        ['T2', 'T8', 'T13', 'T16']       | ['T1', 'T5', 'T17'] |
| P32 |    3    | ['T2', 'T3', 'T8', 'T14', 'T16', 'T18'] | ['T1', 'T5', 'T17'] |
| P32 |    2    |           ['T3', 'T8', 'T18']           | ['T1', 'T5', 'T17'] |
| P32 |    0    |                 ['T16']                 | ['T1', 'T5', 'T17'] |
| P32 |    0    |              ['T13', 'T16']             | ['T1', 'T5', 'T17'] |
| P32 |    0    |           ['T8', 'T13', 'T16']          | ['T1', 'T5', 'T17'] |
| P32 |    0    |        ['T3', 'T8', 'T13', 'T16']       | ['T1', 'T5', 'T17'] |
+-----+---------+-----------------------------------------+---------------------+
+-----------------------------------------------------+--------------------+------------------------+
|                   Estados/Acciones                  | Agregar supervisor | Agregar o quitar arcos |
+-----------------------------------------------------+--------------------+------------------------+
|                        Start                        |        -0.9        |          0.0           |
|        Más sifónes vacíos en estado deadlock        |        0.0         |          0.0           |
|       Menos sifónes vacíos en estado deadlock       |        0.0         |          0.0           |
| Igual cantidad de sifónes vacíos en estado deadlock | -97.15949415833863 |   -8.333572384064002   |
|                         End                         |        0.0         |          0.0           |
+-----------------------------------------------------+--------------------+------------------------+
