07/07/2021 19:07:24[DEBUG] pflow_file:  ../analysis/analisis_lucas/20210707-190718_0/net.pflow  
07/07/2021 19:07:24[DEBUG] output_folder:  ../analysis/analisis_lucas/20210707-190718_0/  
07/07/2021 19:07:24[DEBUG] html_path:  ../analysis/analisis_lucas/20210707-190718_0/  
07/07/2021 19:07:24[DEBUG] txt_path:  ../analysis/analisis_lucas/20210707-190718_0/txt_info  

--------------------------------------------------------------------------   
07/07/2021 19:07:24[INFO] Ejecutando petrinator para conocer estado de la red...   
--------------------------------------------------------------------------
   
+----+-----+--------------------------------------------------------------------------------------------------+
| ID | Nro |                                              Plazas                                              |
+----+-----+--------------------------------------------------------------------------------------------------+
| 0  |  54 |                         ['P4', 'P9', 'P11', 'P14', 'P16', 'P26', 'P30']                          |
| 1  |  72 |                            ['P4', 'P12', 'P14', 'P15', 'P29', 'P30']                             |
| 2  |  76 |                      ['P4', 'P9', 'P12', 'P14', 'P16', 'P26', 'P30', 'P31']                      |
| 3  |  79 |                     ['P4', 'P12', 'P14', 'P16', 'P26', 'P27', 'P30', 'P31']                      |
| 4  |  83 |                      ['P4', 'P9', 'P12', 'P14', 'P16', 'P26', 'P29', 'P30']                      |
| 5  |  89 |        ['P4', 'P9', 'P12', 'P14', 'P16', 'P20', 'P21', 'P22', 'P23', 'P26', 'P29', 'P30']        |
| 6  |  64 |                  ['P2', 'P4', 'P10', 'P12', 'P13', 'P16', 'P26', 'P27', 'P31']                   |
| 7  |  70 |                  ['P4', 'P6', 'P10', 'P12', 'P13', 'P16', 'P26', 'P27', 'P31']                   |
| 8  |  28 |                            ['P3', 'P12', 'P14', 'P15', 'P30', 'P31']                             |
| 9  |  84 |                  ['P4', 'P12', 'P14', 'P16', 'P26', 'P27', 'P28', 'P29', 'P30']                  |
| 10 |  57 |                  ['P2', 'P4', 'P12', 'P13', 'P16', 'P26', 'P27', 'P28', 'P31']                   |
| 11 |  65 |                  ['P2', 'P4', 'P12', 'P13', 'P16', 'P26', 'P27', 'P28', 'P29']                   |
| 12 |  81 |               ['P2', 'P4', 'P12', 'P13', 'P14', 'P16', 'P26', 'P27', 'P28', 'P29']               |
| 13 |  87 | ['P2', 'P4', 'P12', 'P13', 'P14', 'P16', 'P20', 'P21', 'P22', 'P23', 'P26', 'P27', 'P28', 'P29'] |
| 14 |  55 |                      ['P1', 'P4', 'P11', 'P14', 'P16', 'P26', 'P27', 'P30']                      |
| 15 |  85 |                  ['P1', 'P4', 'P12', 'P14', 'P16', 'P26', 'P27', 'P29', 'P30']                   |
| 16 |  29 |                     ['P4', 'P11', 'P14', 'P16', 'P26', 'P27', 'P28', 'P30']                      |
| 17 |  42 |                      ['P4', 'P6', 'P11', 'P13', 'P16', 'P26', 'P27', 'P28']                      |
| 18 |  56 |                  ['P4', 'P6', 'P12', 'P13', 'P16', 'P26', 'P27', 'P28', 'P31']                   |
| 19 |  73 |                     ['P4', 'P12', 'P14', 'P16', 'P26', 'P27', 'P30', 'P32']                      |
| 20 |  77 |                  ['P4', 'P6', 'P12', 'P14', 'P16', 'P26', 'P27', 'P28', 'P32']                   |
+----+-----+--------------------------------------------------------------------------------------------------+
+----+----+----+----+----+----+----+----+----+----+-----+-----+-----+-----+-----+-----+-----+-----+-----+-----+
| T0 | T1 | T2 | T3 | T4 | T5 | T6 | T7 | T8 | T9 | T10 | T11 | T12 | T13 | T14 | T15 | T16 | T17 | T18 | T19 |
+----+----+----+----+----+----+----+----+----+----+-----+-----+-----+-----+-----+-----+-----+-----+-----+-----+
| 1  | 1  | 1  | 1  | 1  | 0  | 0  | 0  | 0  | 0  |  0  |  0  |  0  |  0  |  0  |  0  |  0  |  0  |  0  |  0  |
| 0  | 0  | 0  | 0  | 0  | 1  | 1  | 1  | 1  | 1  |  1  |  1  |  1  |  0  |  0  |  0  |  1  |  1  |  1  |  1  |
| 0  | 0  | 0  | 0  | 0  | 1  | 1  | 1  | 1  | 1  |  0  |  0  |  0  |  1  |  1  |  1  |  1  |  1  |  1  |  1  |
+----+----+----+----+----+----+----+----+----+----+-----+-----+-----+-----+-----+-----+-----+-----+-----+-----+
+-----+---------+------------------------------------------+--------------+
|  ID | Marcado |               T - Entrada                |  T - Salida  |
+-----+---------+------------------------------------------+--------------+
| P33 |    1    |              ['T4', 'T12']               | ['T1', 'T6'] |
| P33 |    1    |           ['T4', 'T9', 'T12']            | ['T1', 'T6'] |
| P33 |    2    |        ['T4', 'T9', 'T12', 'T15']        | ['T1', 'T6'] |
| P33 |    3    |        ['T4', 'T9', 'T12', 'T15']        | ['T1', 'T6'] |
| P33 |    2    |        ['T5', 'T9', 'T12', 'T15']        | ['T1', 'T6'] |
| P33 |    2    | ['T5', 'T9', 'T12', 'T13', 'T15', 'T16'] | ['T1', 'T6'] |
| P33 |    2    |        ['T2', 'T7', 'T12', 'T15']        | ['T1', 'T6'] |
| P33 |    3    |        ['T4', 'T7', 'T12', 'T15']        | ['T1', 'T6'] |
| P33 |    1    |           ['T3', 'T9', 'T12']            | ['T1', 'T6'] |
| P33 |    4    |        ['T5', 'T9', 'T12', 'T15']        | ['T1', 'T6'] |
| P33 |    3    |        ['T3', 'T9', 'T12', 'T15']        | ['T1', 'T6'] |
| P33 |    3    |     ['T2', 'T5', 'T9', 'T12', 'T15']     | ['T1', 'T6'] |
| P33 |    3    |     ['T2', 'T5', 'T9', 'T12', 'T15']     | ['T1', 'T6'] |
| P33 |    3    | ['T2', 'T5', 'T9', 'T12', 'T15', 'T16']  | ['T1', 'T6'] |
| P33 |    2    |           ['T4', 'T8', 'T12']            | ['T1', 'T6'] |
| P33 |    3    |        ['T5', 'T9', 'T12', 'T15']        | ['T1', 'T6'] |
| P33 |    3    |           ['T4', 'T9', 'T12']            | ['T1', 'T6'] |
| P33 |    3    |               ['T4', 'T8']               | ['T1', 'T6'] |
| P33 |    4    |     ['T3', 'T4', 'T9', 'T12', 'T15']     | ['T1', 'T6'] |
| P33 |    3    |        ['T4', 'T9', 'T13', 'T16']        | ['T1', 'T6'] |
| P33 |    4    |     ['T3', 'T4', 'T9', 'T12', 'T16']     | ['T1', 'T6'] |
+-----+---------+------------------------------------------+--------------+
07/07/2021 19:07:37[INFO] Ejecutando accion...   
07/07/2021 19:07:37[INFO] Ejecutando accion...   
07/07/2021 19:07:37[ACTION] Agrego supervisor aleatorio Numero: 9  

--------------------------------------------------------------------------   
07/07/2021 19:07:37[INFO] Ejecutando petrinator para conocer estado de la red...   
--------------------------------------------------------------------------
   

--------------------------------------------------------------------------
   
07/07/2021 19:09:58[INFO] Calculando recompensa..   
07/07/2021 19:09:58[REWARD] El sifon se controlo correctamente, recompensa -1   

--------------------------------------------------------------------------
   
07/07/2021 19:09:58[STATE] Cambie al estado 3: Hay igual cantidad de sifones vacios en deadlock   
+----+-----+--------------------------------------------------------------------------------------------------+
| ID | Nro |                                              Plazas                                              |
+----+-----+--------------------------------------------------------------------------------------------------+
| 21 |  65 |                  ['P2', 'P4', 'P10', 'P12', 'P13', 'P16', 'P26', 'P27', 'P31']                   |
| 22 |  71 |                  ['P4', 'P6', 'P10', 'P12', 'P13', 'P16', 'P26', 'P27', 'P31']                   |
| 23 |  80 |                     ['P4', 'P12', 'P14', 'P16', 'P26', 'P27', 'P30', 'P31']                      |
| 24 |  54 |                         ['P4', 'P9', 'P11', 'P14', 'P16', 'P26', 'P30']                          |
| 25 |  73 |                            ['P4', 'P12', 'P14', 'P15', 'P29', 'P30']                             |
| 26 |  77 |                      ['P4', 'P9', 'P12', 'P14', 'P16', 'P26', 'P30', 'P31']                      |
| 27 |  84 |                      ['P4', 'P9', 'P12', 'P14', 'P16', 'P26', 'P29', 'P30']                      |
| 28 |  94 |        ['P4', 'P9', 'P12', 'P14', 'P16', 'P20', 'P21', 'P22', 'P23', 'P26', 'P29', 'P30']        |
| 29 |  57 |                  ['P2', 'P4', 'P12', 'P13', 'P16', 'P26', 'P27', 'P28', 'P31']                   |
| 30 |  66 |                  ['P2', 'P4', 'P12', 'P13', 'P16', 'P26', 'P27', 'P28', 'P29']                   |
| 31 |  82 |               ['P2', 'P4', 'P12', 'P13', 'P14', 'P16', 'P26', 'P27', 'P28', 'P29']               |
| 32 |  85 |                  ['P4', 'P12', 'P14', 'P16', 'P26', 'P27', 'P28', 'P29', 'P30']                  |
| 33 |  92 | ['P2', 'P4', 'P12', 'P13', 'P14', 'P16', 'P20', 'P21', 'P22', 'P23', 'P26', 'P27', 'P28', 'P29'] |
| 34 |  28 |                            ['P3', 'P12', 'P14', 'P15', 'P30', 'P31']                             |
| 35 |  86 |                  ['P1', 'P4', 'P12', 'P14', 'P16', 'P26', 'P27', 'P29', 'P30']                   |
| 36 |  55 |                      ['P1', 'P4', 'P11', 'P14', 'P16', 'P26', 'P27', 'P30']                      |
| 37 |  29 |                     ['P4', 'P11', 'P14', 'P16', 'P26', 'P27', 'P28', 'P30']                      |
| 38 |  42 |                      ['P4', 'P6', 'P11', 'P13', 'P16', 'P26', 'P27', 'P28']                      |
| 39 |  56 |                  ['P4', 'P6', 'P12', 'P13', 'P16', 'P26', 'P27', 'P28', 'P31']                   |
| 40 |  74 |                     ['P4', 'P12', 'P14', 'P16', 'P26', 'P27', 'P30', 'P32']                      |
| 41 |  78 |                  ['P4', 'P6', 'P12', 'P14', 'P16', 'P26', 'P27', 'P28', 'P32']                   |
+----+-----+--------------------------------------------------------------------------------------------------+
+----+----+----+----+----+----+----+----+----+----+-----+-----+-----+-----+-----+-----+-----+-----+-----+-----+
| T0 | T1 | T2 | T3 | T4 | T5 | T6 | T7 | T8 | T9 | T10 | T11 | T12 | T13 | T14 | T15 | T16 | T17 | T18 | T19 |
+----+----+----+----+----+----+----+----+----+----+-----+-----+-----+-----+-----+-----+-----+-----+-----+-----+
| 1  | 1  | 1  | 1  | 1  | 0  | 0  | 0  | 0  | 0  |  0  |  0  |  0  |  0  |  0  |  0  |  0  |  0  |  0  |  0  |
+----+----+----+----+----+----+----+----+----+----+-----+-----+-----+-----+-----+-----+-----+-----+-----+-----+
+-----+---------+------------------------------------------+--------------+
|  ID | Marcado |               T - Entrada                |  T - Salida  |
+-----+---------+------------------------------------------+--------------+
| P34 |    2    |        ['T2', 'T7', 'T12', 'T15']        | ['T1', 'T6'] |
| P34 |    3    |        ['T4', 'T7', 'T12', 'T15']        | ['T1', 'T6'] |
| P34 |    3    |        ['T4', 'T9', 'T12', 'T15']        | ['T1', 'T6'] |
| P34 |    1    |              ['T4', 'T12']               | ['T1', 'T6'] |
| P34 |    1    |           ['T4', 'T9', 'T12']            | ['T1', 'T6'] |
| P34 |    2    |        ['T4', 'T9', 'T12', 'T15']        | ['T1', 'T6'] |
| P34 |    2    |        ['T5', 'T9', 'T12', 'T15']        | ['T1', 'T6'] |
| P34 |    2    | ['T5', 'T9', 'T12', 'T13', 'T15', 'T16'] | ['T1', 'T6'] |
| P34 |    3    |        ['T3', 'T9', 'T12', 'T15']        | ['T1', 'T6'] |
| P34 |    3    |     ['T2', 'T5', 'T9', 'T12', 'T15']     | ['T1', 'T6'] |
| P34 |    3    |     ['T2', 'T5', 'T9', 'T12', 'T15']     | ['T1', 'T6'] |
| P34 |    4    |        ['T5', 'T9', 'T12', 'T15']        | ['T1', 'T6'] |
| P34 |    3    | ['T2', 'T5', 'T9', 'T12', 'T15', 'T16']  | ['T1', 'T6'] |
| P34 |    1    |           ['T3', 'T9', 'T12']            | ['T1', 'T6'] |
| P34 |    3    |        ['T5', 'T9', 'T12', 'T15']        | ['T1', 'T6'] |
| P34 |    2    |           ['T4', 'T8', 'T12']            | ['T1', 'T6'] |
| P34 |    3    |           ['T4', 'T9', 'T12']            | ['T1', 'T6'] |
| P34 |    3    |               ['T4', 'T8']               | ['T1', 'T6'] |
| P34 |    4    |     ['T3', 'T4', 'T9', 'T12', 'T15']     | ['T1', 'T6'] |
| P34 |    3    |        ['T4', 'T9', 'T13', 'T16']        | ['T1', 'T6'] |
| P34 |    4    |     ['T3', 'T4', 'T9', 'T12', 'T16']     | ['T1', 'T6'] |
+-----+---------+------------------------------------------+--------------+
07/07/2021 19:09:58[INFO] Ejecutando accion...   
07/07/2021 19:09:58[ACTION] Agregar o quitar arcos   
07/07/2021 19:09:58[ACTION] Eliminar arco desde T9 hasta P33   
07/07/2021 19:09:58[INFO] Se elimino el arco con metodo 2 desde T9 hasta P33   

--------------------------------------------------------------------------   
07/07/2021 19:09:58[INFO] Ejecutando petrinator para conocer estado de la red...   
--------------------------------------------------------------------------
   

--------------------------------------------------------------------------
   
07/07/2021 19:10:12[INFO] Calculando recompensa..   
07/07/2021 19:10:12[REWARD] Hay menos o igual cantidad de sifones vacios que en el estado anterior, recompensa -1   

--------------------------------------------------------------------------
   
07/07/2021 19:10:12[STATE] Cambie al estado 3: Hay igual cantidad de sifones vacios en deadlock   
+----+-----+--------------------------------------------------------------------------------------------------+
| ID | Nro |                                              Plazas                                              |
+----+-----+--------------------------------------------------------------------------------------------------+
| 42 |  54 |                         ['P4', 'P9', 'P11', 'P14', 'P16', 'P26', 'P30']                          |
| 43 |  73 |                            ['P4', 'P12', 'P14', 'P15', 'P29', 'P30']                             |
| 44 |  77 |                      ['P4', 'P9', 'P12', 'P14', 'P16', 'P26', 'P30', 'P31']                      |
| 45 |  80 |                     ['P4', 'P12', 'P14', 'P16', 'P26', 'P27', 'P30', 'P31']                      |
| 46 |  84 |                      ['P4', 'P9', 'P12', 'P14', 'P16', 'P26', 'P29', 'P30']                      |
| 47 |  94 |        ['P4', 'P9', 'P12', 'P14', 'P16', 'P20', 'P21', 'P22', 'P23', 'P26', 'P29', 'P30']        |
| 48 |  65 |                  ['P2', 'P4', 'P10', 'P12', 'P13', 'P16', 'P26', 'P27', 'P31']                   |
| 49 |  71 |                  ['P4', 'P6', 'P10', 'P12', 'P13', 'P16', 'P26', 'P27', 'P31']                   |
| 50 |  28 |                            ['P3', 'P12', 'P14', 'P15', 'P30', 'P31']                             |
| 51 |  85 |                  ['P4', 'P12', 'P14', 'P16', 'P26', 'P27', 'P28', 'P29', 'P30']                  |
| 52 |  57 |                  ['P2', 'P4', 'P12', 'P13', 'P16', 'P26', 'P27', 'P28', 'P31']                   |
| 53 |  66 |                  ['P2', 'P4', 'P12', 'P13', 'P16', 'P26', 'P27', 'P28', 'P29']                   |
| 54 |  82 |               ['P2', 'P4', 'P12', 'P13', 'P14', 'P16', 'P26', 'P27', 'P28', 'P29']               |
| 55 |  92 | ['P2', 'P4', 'P12', 'P13', 'P14', 'P16', 'P20', 'P21', 'P22', 'P23', 'P26', 'P27', 'P28', 'P29'] |
| 56 |  55 |                      ['P1', 'P4', 'P11', 'P14', 'P16', 'P26', 'P27', 'P30']                      |
| 57 |  86 |                  ['P1', 'P4', 'P12', 'P14', 'P16', 'P26', 'P27', 'P29', 'P30']                   |
| 58 |  29 |                     ['P4', 'P11', 'P14', 'P16', 'P26', 'P27', 'P28', 'P30']                      |
| 59 |  42 |                      ['P4', 'P6', 'P11', 'P13', 'P16', 'P26', 'P27', 'P28']                      |
| 60 |  56 |                  ['P4', 'P6', 'P12', 'P13', 'P16', 'P26', 'P27', 'P28', 'P31']                   |
| 61 |  74 |                     ['P4', 'P12', 'P14', 'P16', 'P26', 'P27', 'P30', 'P32']                      |
| 62 |  78 |                  ['P4', 'P6', 'P12', 'P14', 'P16', 'P26', 'P27', 'P28', 'P32']                   |
+----+-----+--------------------------------------------------------------------------------------------------+
+----+----+----+----+----+----+----+----+----+----+-----+-----+-----+-----+-----+-----+-----+-----+-----+-----+
| T0 | T1 | T2 | T3 | T4 | T5 | T6 | T7 | T8 | T9 | T10 | T11 | T12 | T13 | T14 | T15 | T16 | T17 | T18 | T19 |
+----+----+----+----+----+----+----+----+----+----+-----+-----+-----+-----+-----+-----+-----+-----+-----+-----+
| 1  | 1  | 1  | 1  | 1  | 0  | 0  | 0  | 0  | 0  |  0  |  0  |  0  |  0  |  0  |  0  |  0  |  0  |  0  |  0  |
| 0  | 0  | 0  | 0  | 0  | 1  | 1  | 1  | 1  | 1  |  1  |  1  |  1  |  0  |  0  |  0  |  1  |  1  |  1  |  1  |
| 0  | 0  | 0  | 0  | 0  | 1  | 1  | 1  | 1  | 1  |  0  |  0  |  0  |  1  |  1  |  1  |  1  |  1  |  1  |  1  |
+----+----+----+----+----+----+----+----+----+----+-----+-----+-----+-----+-----+-----+-----+-----+-----+-----+
+-----+---------+------------------------------------------+--------------+
|  ID | Marcado |               T - Entrada                |  T - Salida  |
+-----+---------+------------------------------------------+--------------+
| P34 |    1    |              ['T4', 'T12']               | ['T1', 'T6'] |
| P34 |    1    |           ['T4', 'T9', 'T12']            | ['T1', 'T6'] |
| P34 |    2    |        ['T4', 'T9', 'T12', 'T15']        | ['T1', 'T6'] |
| P34 |    3    |        ['T4', 'T9', 'T12', 'T15']        | ['T1', 'T6'] |
| P34 |    2    |        ['T5', 'T9', 'T12', 'T15']        | ['T1', 'T6'] |
| P34 |    2    | ['T5', 'T9', 'T12', 'T13', 'T15', 'T16'] | ['T1', 'T6'] |
| P34 |    2    |        ['T2', 'T7', 'T12', 'T15']        | ['T1', 'T6'] |
| P34 |    3    |        ['T4', 'T7', 'T12', 'T15']        | ['T1', 'T6'] |
| P34 |    1    |           ['T3', 'T9', 'T12']            | ['T1', 'T6'] |
| P34 |    4    |        ['T5', 'T9', 'T12', 'T15']        | ['T1', 'T6'] |
| P34 |    3    |        ['T3', 'T9', 'T12', 'T15']        | ['T1', 'T6'] |
| P34 |    3    |     ['T2', 'T5', 'T9', 'T12', 'T15']     | ['T1', 'T6'] |
| P34 |    3    |     ['T2', 'T5', 'T9', 'T12', 'T15']     | ['T1', 'T6'] |
| P34 |    3    | ['T2', 'T5', 'T9', 'T12', 'T15', 'T16']  | ['T1', 'T6'] |
| P34 |    2    |           ['T4', 'T8', 'T12']            | ['T1', 'T6'] |
| P34 |    3    |        ['T5', 'T9', 'T12', 'T15']        | ['T1', 'T6'] |
| P34 |    3    |           ['T4', 'T9', 'T12']            | ['T1', 'T6'] |
| P34 |    3    |               ['T4', 'T8']               | ['T1', 'T6'] |
| P34 |    4    |     ['T3', 'T4', 'T9', 'T12', 'T15']     | ['T1', 'T6'] |
| P34 |    3    |        ['T4', 'T9', 'T13', 'T16']        | ['T1', 'T6'] |
| P34 |    4    |     ['T3', 'T4', 'T9', 'T12', 'T16']     | ['T1', 'T6'] |
+-----+---------+------------------------------------------+--------------+
07/07/2021 19:10:12[INFO] Ejecutando accion...   
07/07/2021 19:10:12[INFO] Ejecutando accion...   
07/07/2021 19:10:12[ACTION] Agrego supervisor aleatorio Numero: 18  

--------------------------------------------------------------------------   
07/07/2021 19:10:12[INFO] Ejecutando petrinator para conocer estado de la red...   
--------------------------------------------------------------------------
   
07/07/2021 19:20:12[ERROR] Se alcanzo el limite de 600 segundos para la ejecucion de petrinator, cerrando analisis 
  
