S0
T1 S1
T6 S988
S1
T2 S2
T6 S979
S2
T1 S3
T3 S8
T6 S975
S3
T3 S4
T6 S974
S4
T2 S5
T4 S10
T6 S12
S5
T4 S6
T6 S13
S6
T5 S2
T3 S7
S7
T5 S8
S8
T1 S4
T4 S9
T6 S11
S9
T5 S0
T1 S10
S10
T5 S1
T2 S6
S11
T1 S12
T7 S17
S12
T2 S13
S13
T7 S14
S14
T4 S15
T6 S971
S15
T3 S16
T5 S976
S16
T5 S17
S17
T4 S18
T6 S841
S18
T5 S19
T8 S1135
S19
T6 S20
T8 S1095
S20
T8 S21
S21
T1 S22
T9 S935
T7 S1130
S22
T9 S23
S23
T10 S24
S24
T2 S25
T14 S659
S25
T1 S26
T3 S800
T7 S1196
S26
T3 S27
S27
T2 S28
T14 S697
S28
T7 S29
S29
T4 S30
S30
T3 S31
T5 S1196
S31
T5 S32
S32
T4 S33
T14 S797
T11 S1195
T6 S1198
S33
T5 S34
T8 S1193
S34
T6 S35
T8 S872
T14 S920
T11 S1117
S35
T8 S36
T14 S921
S36
T1 S37
T7 S861
T9 S874
T14 S917
S37
T9 S38
T14 S778
S38
T10 S39
S39
T2 S40
T14 S877
S40
T3 S41
T7 S1467
S41
T7 S42
T14 S1411
S42
T4 S43
T14 S1412
T11 S1466
S43
T5 S44
T8 S1465
S44
T8 S45
T14 S878
T11 S1464
S45
T1 S46
T14 S879
T9 S1462
T11 S1463
S46
T9 S47
T14 S880
T11 S1461
S47
T10 S48
S48
T2 S49
T11 S54
T14 S1450
S49
T3 S50
S50
T4 S51
T11 S1455
T14 S1456
S51
T5 S52
S52
T1 S48
T11 S53
T14 S1449
S53
T1 S54
T12 S1446
S54
T12 S55
S55
T11 S56
T13 S234
T14 S1445
S56
T13 S57
S57
T12 S58
T17 S357
S58
T11 S59
T17 S358
T13 S497
T14 S1420
S59
T13 S60
T17 S359
S60
T12 S61
T17 S360
S61
T13 S62
T17 S361
S62
T2 S63
T17 S362
S63
T1 S64
T3 S69
T17 S363
S64
T3 S65
T17 S364
S65
T2 S66
T4 S71
T17 S76
S66
T4 S67
T17 S77
S67
T5 S63
T3 S68
T17 S73
S68
T5 S69
T17 S74
S69
T1 S65
T4 S70
T17 S75
S70
T1 S71
T5 S1326
T17 S1444
S71
T5 S62
T2 S67
T17 S72
S72
T2 S73
T17 S83
T5 S362
T18 S372
S73
T3 S74
T17 S79
T5 S363
T18 S368
S74
T5 S75
T17 S80
T18 S369
S75
T1 S76
T17 S81
T18 S370
T4 S1444
S76
T4 S72
T2 S77
T17 S82
T18 S366
S77
T4 S73
T17 S78
T18 S367
S78
T4 S79
T17 S89
T18 S262
S79
T3 S80
T5 S85
T17 S90
T18 S263
S80
T5 S81
T17 S91
T18 S264
S81
T1 S82
T17 S92
T18 S265
T4 S1443
S82
T2 S78
T4 S83
T17 S88
T18 S261
S83
T2 S79
T5 S84
T17 S94
T18 S267
S84
T2 S85
T17 S95
T18 S268
S85
T3 S81
T1 S86
T17 S96
T18 S269
S86
T3 S82
T17 S87
T18 S270
S87
T3 S88
T18 S98
S88
T2 S89
T4 S94
T18 S99
S89
T4 S90
T18 S100
S90
T3 S91
T5 S96
T18 S101
S91
T5 S92
T18 S102
S92
T1 S88
T4 S93
T18 S103
S93
T1 S94
T18 S104
T5 S1262
S94
T2 S90
T5 S95
T18 S105
S95
T2 S96
T18 S106
S96
T1 S87
T3 S92
T18 S97
S97
T1 S98
T3 S103
T18 S108
T19 S1167
S98
T3 S99
T18 S109
T19 S1168
S99
T2 S100
T4 S105
T18 S110
T19 S399
S100
T4 S101
T18 S111
T19 S400
S101
T5 S97
T3 S102
T18 S112
T19 S396
S102
T5 S103
T18 S113
T19 S397
S103
T1 S99
T4 S104
T18 S114
T19 S398
S104
T1 S105
T18 S115
T5 S1213
T19 S1348
S105
T2 S101
T5 S106
T18 S116
T19 S395
S106
T2 S97
T18 S107
T19 S1166
S107
T2 S108
T19 S291
T18 S1216
S108
T1 S109
T3 S114
T19 S292
T18 S1217
S109
T3 S110
T19 S293
T18 S1218
S110
T2 S111
T4 S116
T18 S121
T19 S294
S111
T4 S112
T18 S122
T19 S295
S112
T5 S108
T3 S113
T18 S118
T19 S296
S113
T5 S114
T18 S119
T19 S297
S114
T1 S110
T4 S115
T18 S120
T19 S298
S115
T1 S116
T19 S299
T5 S1214
T18 S1442
S116
T5 S107
T2 S112
T18 S117
T19 S300
S117
T2 S118
T19 S128
T5 S1216
S118
T3 S119
T19 S124
T5 S1217
S119
T5 S120
T19 S125
S120
T1 S121
T19 S126
T4 S1442
S121
T4 S117
T2 S122
T19 S127
S122
T4 S118
T19 S123
S123
T4 S124
T20 S134
S124
T3 S125
T5 S130
T20 S135
S125
T5 S126
T20 S136
S126
T1 S127
T20 S137
T4 S1384
S127
T2 S123
T4 S128
T20 S133
S128
T2 S124
T5 S129
T20 S139
S129
T2 S130
T20 S140
S130
T3 S126
T1 S131
T20 S141
S131
T3 S127
T20 S132
S132
T3 S133
T6 S143
T19 S1010
S133
T2 S134
T4 S139
T6 S144
T19 S1011
S134
T4 S135
T6 S145
T19 S1012
S135
T3 S136
T5 S141
T19 S1013
S136
T5 S137
T19 S1014
S137
T1 S133
T4 S138
T6 S641
T19 S1015
S138
T1 S139
T5 S1006
T19 S1016
S139
T2 S135
T5 S140
T19 S1017
S140
T2 S141
T6 S959
T19 S1008
S141
T1 S132
T3 S137
T6 S142
T19 S1009
S142
T1 S143
T3 S641
T7 S956
T19 S961
S143
T3 S144
T19 S677
S144
T2 S145
T19 S643
S145
T7 S146
T19 S644
S146
T4 S147
T19 S645
S147
T3 S148
T19 S646
T5 S956
S148
T5 S149
T19 S647
S149
T4 S150
T19 S648
S150
T5 S151
T19 S649
T8 S1251
S151
T8 S152
T19 S650
S152
T1 S153
T19 S651
T9 S1229
S153
T9 S154
T19 S652
S154
T10 S155
T19 S653
S155
T2 S156
T11 S596
T19 S654
T14 S1224
S156
T1 S157
T3 S162
T19 S570
S157
T3 S158
T19 S568
S158
T2 S159
T4 S164
T19 S169
T11 S516
T14 S1302
S159
T4 S160
T19 S170
S160
T5 S156
T3 S161
T19 S166
S161
T5 S162
T19 S167
S162
T1 S158
T4 S163
T19 S168
T11 S1271
T14 S1308
S163
T1 S164
T5 S1228
T19 S1347
S164
T5 S155
T2 S160
T19 S165
S165
T2 S166
T20 S176
T5 S654
S166
T3 S167
T20 S172
T5 S570
S167
T5 S168
T20 S173
S168
T1 S169
T20 S174
T11 S1272
T14 S1309
T4 S1347
S169
T4 S165
T2 S170
T20 S175
T11 S517
T14 S1303
S170
T4 S166
T20 S171
S171
T4 S172
T6 S182
T19 S805
S172
T3 S173
T5 S178
T19 S806
S173
T5 S174
T19 S807
S174
T1 S175
T6 S693
T19 S808
T11 S1273
T14 S1310
T4 S1343
S175
T2 S171
T4 S176
T6 S181
T11 S518
T19 S804
T14 S1304
S176
T2 S172
T5 S177
T19 S810
S177
T2 S178
T11 S598
T14 S656
T6 S691
T19 S801
S178
T3 S174
T1 S179
T6 S692
T19 S802
S179
T3 S175
T6 S180
T19 S803
S180
T3 S181
T19 S788
S181
T2 S182
T14 S695
T19 S789
S182
T7 S183
T19 S790
S183
T4 S184
T19 S791
S184
T3 S185
T5 S718
T19 S792
S185
T5 S186
T19 S793
S186
T4 S187
T14 S698
T19 S720
T11 S1383
S187
T5 S188
T19 S721
T8 S1381
S188
T8 S189
T19 S722
T14 S918
T11 S1115
S189
T1 S190
T19 S723
T14 S914
T11 S1111
T9 S1377
S190
T9 S191
T19 S724
T14 S889
T11 S1108
S191
T10 S192
T19 S725
S192
T2 S193
T19 S726
T11 S1353
T14 S1359
S193
T1 S194
T3 S199
T19 S727
S194
T3 S195
T19 S728
S195
T2 S196
T4 S201
T19 S206
T11 S251
T14 S1391
S196
T4 S197
T19 S207
S197
T5 S193
T3 S198
T19 S203
S198
T5 S199
T19 S204
S199
T1 S195
T4 S200
T19 S205
T11 S1396
T14 S1408
S200
T1 S201
T5 S1376
T19 S1441
S201
T5 S192
T2 S197
T19 S202
S202
T2 S203
T20 S213
T5 S726
S203
T3 S204
T20 S209
T5 S727
S204
T5 S205
T20 S210
S205
T1 S206
T20 S211
T11 S1397
T14 S1409
T4 S1441
S206
T4 S202
T2 S207
T20 S212
T11 S252
T14 S1392
S207
T4 S203
T20 S208
S208
T4 S209
S209
T3 S210
T5 S215
S210
T5 S211
S211
T6 S41
T1 S212
T11 S1398
T14 S1410
T4 S1440
S212
T2 S208
T4 S213
T11 S253
T14 S1393
S213
T2 S209
T5 S214
S214
T6 S39
T2 S215
T11 S217
T14 S1125
S215
T6 S40
T3 S211
T1 S216
S216
T3 S212
S217
T12 S218
S218
T6 S219
T13 S477
T11 S732
T14 S1123
S219
T13 S220
T14 S1120
S220
T2 S221
T17 S710
T14 S904
S221
T1 S222
T17 S711
T3 S1344
T7 S1439
S222
T3 S223
T17 S342
S223
T2 S224
T17 S343
T14 S1317
S224
T7 S225
T17 S344
S225
T4 S226
T17 S345
S226
T3 S227
T17 S346
T5 S1439
S227
T5 S228
T17 S347
S228
T4 S229
T17 S348
T14 S1321
T11 S1438
S229
T5 S230
T17 S349
T8 S1436
S230
T8 S231
T17 S350
T14 S906
T11 S1104
S231
T1 S232
T17 S351
T14 S893
T11 S1105
T9 S1435
S232
T9 S233
T17 S352
T14 S883
T11 S1106
S233
T10 S234
T17 S353
S234
T11 S57
T2 S235
T17 S354
T14 S1422
S235
T1 S236
T3 S241
T17 S355
S236
T3 S237
T17 S356
S237
T2 S238
T4 S243
T17 S248
T11 S1428
T14 S1430
S238
T4 S239
T17 S249
S239
T5 S235
T3 S240
T17 S245
S240
T5 S241
T17 S246
S241
T1 S237
T4 S242
T17 S247
T11 S1427
T14 S1429
S242
T1 S243
T17 S1394
T5 S1415
S243
T5 S234
T2 S239
T17 S244
S244
T18 S201
T2 S245
T5 S354
S245
T18 S197
T3 S246
T5 S355
S246
T18 S198
T5 S247
S247
T18 S199
T1 S248
T4 S1394
T11 S1395
T14 S1399
S248
T18 S195
T4 S244
T2 S249
T11 S250
T14 S254
S249
T18 S196
T4 S245
S250
T18 S251
S251
T19 S252
S252
T20 S253
S253
S254
T15 S255
T18 S1391
S255
T14 S256
T16 S511
T18 S1388
S256
T16 S257
T18 S1385
S257
T15 S258
T17 S1300
T18 S1314
S258
T16 S76
T17 S259
T18 S1294
S259
T16 S82
T18 S260
S260
T16 S261
T18 S1284
T19 S1290
S261
T17 S99
T2 S262
T4 S267
T18 S272
T19 S388
S262
T17 S100
T4 S263
T18 S273
T19 S389
S263
T17 S101
T3 S264
T5 S269
T18 S274
T19 S390
S264
T17 S102
T5 S265
T18 S275
T19 S391
S265
T17 S103
T1 S261
T4 S266
T18 S276
T19 S392
S266
T17 S104
T1 S267
T18 S277
T19 S393
T5 S1212
S267
T17 S105
T2 S263
T5 S268
T18 S278
T19 S394
S268
T17 S106
T2 S269
T18 S279
T19 S385
S269
T17 S97
T3 S265
T1 S270
T18 S280
T19 S386
S270
T17 S98
T3 S261
T18 S271
T19 S387
S271
T17 S109
T3 S272
T19 S282
S272
T17 S110
T2 S273
T4 S278
T19 S283
S273
T17 S111
T4 S274
T19 S284
S274
T17 S112
T3 S275
T5 S280
T19 S285
S275
T17 S113
T5 S276
T19 S286
S276
T17 S114
T1 S272
T4 S277
T19 S287
S277
T17 S115
T1 S278
T19 S288
T5 S1219
S278
T17 S116
T2 S274
T5 S279
T19 S289
S279
T17 S107
T2 S280
T19 S290
S280
T17 S108
T1 S271
T3 S276
T19 S281
S281
T1 S282
T3 S287
T17 S292
T20 S539
S282
T3 S283
T17 S293
T20 S540
S283
T2 S284
T4 S289
T17 S294
T20 S541
S284
T4 S285
T17 S295
T20 S542
S285
T5 S281
T3 S286
T17 S296
T20 S543
S286
T5 S287
T17 S297
T20 S544
S287
T1 S283
T4 S288
T17 S298
T20 S545
S288
T1 S289
T17 S299
T20 S546
T5 S1172
S289
T2 S285
T5 S290
T17 S300
T20 S547
S290
T2 S281
T17 S291
T20 S538
S291
T18 S129
T2 S292
T20 S1003
S292
T18 S130
T1 S293
T3 S298
T20 S1004
S293
T18 S131
T3 S294
T20 S1005
S294
T18 S127
T2 S295
T4 S300
T20 S305
S295
T18 S123
T4 S296
T20 S306
S296
T18 S124
T5 S292
T3 S297
T20 S302
S297
T18 S125
T5 S298
T20 S303
S298
T18 S126
T1 S294
T4 S299
T20 S304
S299
T1 S300
T5 S1169
T20 S1206
T18 S1384
S300
T18 S128
T5 S291
T2 S296
T20 S301
S301
T18 S139
T2 S302
T19 S672
T5 S1003
S302
T18 S135
T3 S303
T19 S668
T5 S1004
S303
T18 S136
T5 S304
T19 S669
S304
T18 S137
T1 S305
T6 S639
T19 S670
T4 S1206
S305
T18 S133
T4 S301
T2 S306
T6 S640
T19 S666
S306
T18 S134
T4 S302
T6 S307
T19 S667
S307
T18 S145
T7 S308
T19 S607
S308
T18 S146
T4 S309
T19 S608
S309
T18 S147
T3 S310
T19 S609
T5 S955
S310
T18 S148
T5 S311
T19 S610
S311
T18 S149
T4 S312
T19 S611
S312
T18 S150
T5 S313
T19 S612
T8 S1250
S313
T18 S151
T8 S314
T19 S613
S314
T18 S152
T1 S315
T9 S592
T19 S614
S315
T18 S153
T9 S316
T19 S615
S316
T18 S154
T10 S317
T19 S616
S317
T18 S155
T2 S318
T11 S595
T19 S617
T14 S1223
S318
T18 S156
T1 S319
T3 S324
T19 S569
S319
T18 S157
T3 S320
T19 S567
S320
T18 S158
T2 S321
T4 S326
T19 S331
T11 S515
T14 S1301
S321
T18 S159
T4 S322
T19 S332
S322
T18 S160
T5 S318
T3 S323
T19 S328
S323
T18 S161
T5 S324
T19 S329
S324
T18 S162
T1 S320
T4 S325
T19 S330
T11 S1270
T14 S1307
S325
T18 S163
T1 S326
T5 S593
T19 S1346
S326
T18 S164
T5 S317
T2 S322
T19 S327
S327
T18 S165
T2 S328
T20 S338
T5 S617
S328
T18 S166
T3 S329
T20 S334
T5 S569
S329
T18 S167
T5 S330
T20 S335
S330
T18 S168
T1 S331
T20 S336
T11 S1274
T14 S1311
T4 S1346
S331
T18 S169
T4 S327
T2 S332
T20 S337
T11 S521
T14 S1305
S332
T18 S170
T4 S328
T20 S333
S333
T18 S171
T4 S334
T6 S344
S334
T18 S172
T3 S335
T5 S340
S335
T18 S173
T5 S336
S336
T18 S174
T1 S337
T6 S712
T11 S1275
T14 S1312
T4 S1342
S337
T18 S175
T2 S333
T4 S338
T6 S343
T11 S522
T14 S1306
S338
T18 S176
T2 S334
T5 S339
S339
T18 S177
T2 S340
T11 S619
T6 S710
T14 S1064
S340
T18 S178
T3 S336
T1 S341
T6 S711
S341
T18 S179
T3 S337
T6 S342
S342
T18 S180
T3 S343
S343
T18 S181
T2 S344
T14 S714
S344
T18 S182
T7 S345
S345
T18 S183
T4 S346
S346
T18 S184
T3 S347
T5 S717
S347
T18 S185
T5 S348
S348
T18 S186
T4 S349
T14 S715
T11 S1382
S349
T18 S187
T5 S350
T8 S1378
S350
T18 S188
T8 S351
T14 S912
T11 S1114
S351
T18 S189
T1 S352
T14 S913
T11 S1110
T9 S1360
S352
T18 S190
T9 S353
T14 S888
T11 S1107
S353
T18 S191
T10 S354
S354
T18 S192
T2 S355
T11 S357
T14 S1354
S355
T18 S193
T3 S247
T1 S356
S356
T18 S194
T3 S248
S357
T12 S358
T18 S1353
S358
T11 S359
T13 S528
T14 S1350
T18 S1352
S359
T13 S360
T18 S1349
S360
T12 S361
T17 S434
T18 S1233
S361
T13 S362
T17 S435
T18 S1234
S362
T17 S84
T2 S363
T18 S373
S363
T3 S75
T17 S85
T1 S364
T18 S374
S364
T3 S76
T17 S86
T18 S365
S365
T17 S270
T3 S366
T19 S376
S366
T17 S261
T2 S367
T4 S372
T19 S377
S367
T17 S262
T4 S368
T19 S378
S368
T17 S263
T3 S369
T5 S374
T19 S379
S369
T17 S264
T5 S370
T19 S380
S370
T17 S265
T1 S366
T4 S371
T19 S381
S371
T17 S266
T1 S372
T19 S382
T5 S1236
S372
T17 S267
T2 S368
T5 S373
T19 S383
S373
T17 S268
T2 S374
T19 S384
S374
T17 S269
T1 S365
T3 S370
T19 S375
S375
T1 S376
T3 S381
T17 S386
T20 S738
S376
T3 S377
T17 S387
T20 S739
S377
T2 S378
T4 S383
T17 S388
T20 S740
S378
T4 S379
T17 S389
T20 S741
S379
T5 S375
T3 S380
T17 S390
T20 S742
S380
T5 S381
T17 S391
T20 S743
S381
T1 S377
T4 S382
T17 S392
T20 S744
S382
T1 S383
T17 S393
T20 S745
T5 S1163
S383
T2 S379
T5 S384
T17 S394
T20 S746
S384
T2 S375
T17 S385
T20 S737
S385
T18 S290
T2 S386
T20 S623
T17 S1166
S386
T18 S281
T1 S387
T3 S392
T20 S624
T17 S1167
S387
T18 S282
T3 S388
T20 S625
T17 S1168
S388
T18 S283
T2 S389
T4 S394
T17 S399
T20 S626
S389
T18 S284
T4 S390
T17 S400
T20 S627
S390
T18 S285
T5 S386
T3 S391
T17 S396
T20 S628
S391
T18 S286
T5 S392
T17 S397
T20 S629
S392
T18 S287
T1 S388
T4 S393
T17 S398
T20 S630
S393
T18 S288
T1 S394
T20 S631
T5 S1164
T17 S1348
S394
T18 S289
T5 S385
T2 S390
T17 S395
T20 S632
S395
T18 S300
T2 S396
T20 S406
T5 S1166
S396
T18 S296
T3 S397
T20 S402
T5 S1167
S397
T18 S297
T5 S398
T20 S403
S398
T18 S298
T1 S399
T20 S404
T4 S1348
S399
T18 S294
T4 S395
T2 S400
T20 S405
S400
T18 S295
T4 S396
T20 S401
S401
T18 S306
T4 S402
T6 S412
S402
T18 S302
T3 S403
T5 S408
S403
T18 S303
T5 S404
S404
T18 S304
T1 S405
T6 S638
T4 S1205
S405
T18 S305
T2 S401
T4 S406
T6 S411
S406
T18 S301
T2 S402
T5 S407
S407
T2 S408
T6 S636
T18 S1003
S408
T3 S404
T1 S409
T6 S637
T18 S1004
S409
T3 S405
T6 S410
T18 S1005
S410
T3 S411
T18 S954
S411
T2 S412
T18 S640
S412
T18 S307
T7 S413
S413
T18 S308
T4 S414
S414
T18 S309
T3 S415
T5 S1204
S415
T18 S310
T5 S416
S416
T18 S311
T4 S417
S417
T18 S312
T5 S418
T8 S1249
S418
T18 S313
T8 S419
S419
T18 S314
T1 S420
T9 S591
S420
T18 S315
T9 S421
S421
T18 S316
T10 S422
S422
T18 S317
T2 S423
T11 S434
T14 S1257
S423
T18 S318
T1 S424
T3 S429
S424
T18 S319
T3 S425
S425
T18 S320
T2 S426
T4 S431
T11 S514
T14 S1300
S426
T18 S321
T4 S427
S427
T18 S322
T5 S423
T3 S428
S428
T18 S323
T5 S429
S429
T18 S324
T1 S425
T4 S430
T11 S1269
T14 S1299
S430
T18 S325
T1 S431
T5 S432
S431
T18 S326
T5 S422
T2 S427
S432
T1 S422
T11 S433
T18 S593
T14 S1267
S433
T1 S434
T18 S594
T12 S1263
S434
T12 S435
T18 S595
S435
T13 S84
T18 S436
S436
T13 S268
T18 S437
T19 S573
S437
T13 S279
T19 S438
S438
T13 S290
T20 S439
S439
T6 S440
T13 S538
T19 S600
S440
T13 S441
T19 S601
S441
T2 S442
T19 S602
T17 S952
S442
T1 S443
T19 S603
T3 S751
T17 S953
T7 S1255
S443
T3 S444
T19 S604
T17 S954
S444
T2 S445
T19 S605
T17 S640
S445
T17 S307
T7 S446
T19 S554
S446
T17 S308
T4 S447
T19 S555
S447
T17 S309
T3 S448
T19 S556
T5 S1255
S448
T17 S310
T5 S449
T19 S557
S449
T17 S311
T4 S450
T19 S558
S450
T17 S312
T5 S451
T19 S559
T8 S1252
S451
T17 S313
T8 S452
T19 S560
S452
T17 S314
T1 S453
T19 S561
T9 S1230
S453
T17 S315
T9 S454
T19 S562
S454
T17 S316
T10 S455
T19 S563
S455
T17 S317
T2 S456
T19 S564
T11 S1233
T14 S1238
S456
T17 S318
T1 S457
T3 S462
T19 S565
S457
T17 S319
T3 S458
T19 S566
S458
T17 S320
T2 S459
T4 S464
T19 S469
T11 S523
T14 S1314
S459
T17 S321
T4 S460
T19 S470
S460
T17 S322
T5 S456
T3 S461
T19 S466
S461
T17 S323
T5 S462
T19 S467
S462
T17 S324
T1 S458
T4 S463
T19 S468
T11 S1276
T14 S1313
S463
T17 S325
T1 S464
T5 S1231
T19 S1345
S464
T17 S326
T5 S455
T2 S460
T19 S465
S465
T17 S327
T2 S466
T20 S476
T5 S564
S466
T17 S328
T3 S467
T20 S472
T5 S565
S467
T17 S329
T5 S468
T20 S473
S468
T17 S330
T1 S469
T20 S474
T11 S1277
T14 S1318
T4 S1345
S469
T17 S331
T4 S465
T2 S470
T20 S475
T11 S524
T14 S1315
S470
T17 S332
T4 S466
T20 S471
S471
T6 S224
T17 S333
T4 S472
S472
T17 S334
T3 S473
T5 S478
S473
T17 S335
T5 S474
S474
T17 S336
T1 S475
T11 S1278
T14 S1319
T4 S1341
T6 S1344
S475
T6 S223
T17 S337
T2 S471
T4 S476
T11 S525
T14 S1316
S476
T17 S338
T2 S472
T5 S477
S477
T6 S220
T17 S339
T2 S478
T11 S480
T14 S1063
S478
T6 S221
T17 S340
T3 S474
T1 S479
S479
T6 S222
T17 S341
T3 S475
S480
T12 S481
T17 S619
S481
T6 S482
T17 S574
T13 S737
S482
T13 S483
T17 S575
S483
T2 S484
T17 S576
S484
T1 S485
T17 S577
T3 S749
T7 S1340
S485
T3 S486
T17 S578
S486
T2 S487
T17 S579
S487
T7 S488
T17 S580
S488
T4 S489
T17 S581
S489
T3 S490
T17 S582
T5 S1340
S490
T5 S491
T17 S583
S491
T4 S492
T17 S584
S492
T5 S493
T17 S585
T8 S1338
S493
T8 S494
T17 S586
S494
T1 S495
T17 S587
T9 S1337
S495
T9 S496
T17 S588
S496
T10 S497
T17 S589
S497
T11 S60
T2 S498
T17 S528
T14 S1328
S498
T1 S499
T3 S504
T17 S529
S499
T3 S500
T17 S530
S500
T2 S501
T4 S506
T17 S511
T11 S1332
T14 S1334
S501
T4 S502
T17 S512
S502
T5 S498
T3 S503
T17 S508
S503
T5 S504
T17 S509
S504
T1 S500
T4 S505
T17 S510
T11 S1331
T14 S1333
S505
T1 S506
T17 S526
T5 S1323
S506
T5 S497
T2 S502
T17 S507
S507
T17 S431
T18 S464
T2 S508
T5 S528
S508
T17 S427
T18 S460
T3 S509
T5 S529
S509
T17 S428
T18 S461
T5 S510
S510
T17 S429
T18 S462
T1 S511
T4 S526
T11 S1268
T14 S1279
S511
T14 S257
T17 S425
T18 S458
T4 S507
T2 S512
T11 S513
S512
T17 S426
T18 S459
T4 S508
S513
T17 S514
T18 S523
S514
T18 S515
S515
T18 S516
T19 S521
S516
T19 S517
S517
T20 S518
S518
T19 S519
S519
T20 S520
S520
S521
T18 S517
T20 S522
S522
T18 S518
S523
T17 S515
T19 S524
S524
T17 S521
T20 S525
S525
T17 S522
S526
T17 S430
T18 S463
T1 S507
T5 S527
S527
T17 S432
T1 S528
T18 S1231
T11 S1258
T14 S1264
S528
T11 S360
T17 S422
T18 S455
T2 S529
T14 S531
S529
T17 S423
T18 S456
T3 S510
T1 S530
S530
T17 S424
T18 S457
T3 S511
S531
T15 S532
T18 S1238
T17 S1257
S532
T16 S362
T17 S533
T18 S1239
S533
T16 S84
T18 S534
S534
T16 S268
T18 S535
T19 S621
S535
T16 S279
T19 S536
S536
T16 S290
T20 S537
S537
T16 S538
T19 S661
S538
T6 S441
T2 S539
T19 S662
T17 S1003
S539
T6 S442
T1 S540
T3 S545
T19 S663
T17 S1004
S540
T6 S443
T3 S541
T19 S664
T17 S1005
S541
T17 S305
T6 S444
T2 S542
T4 S547
T19 S552
S542
T17 S306
T6 S445
T4 S543
T19 S553
S543
T17 S302
T5 S539
T3 S544
T19 S549
S544
T17 S303
T5 S545
T19 S550
S545
T17 S304
T1 S541
T4 S546
T19 S551
T6 S751
S546
T1 S547
T5 S1001
T17 S1206
T19 S1256
S547
T17 S301
T5 S538
T2 S543
T19 S548
S548
T2 S549
T5 S662
T17 S672
T20 S825
S549
T3 S550
T5 S663
T17 S668
T20 S821
S550
T5 S551
T17 S669
T20 S822
S551
T1 S552
T17 S670
T6 S752
T20 S823
T4 S1256
S552
T4 S548
T2 S553
T6 S605
T17 S666
T20 S819
S553
T4 S549
T6 S554
T17 S667
T20 S820
S554
T7 S555
T17 S607
T20 S831
S555
T4 S556
T17 S608
T20 S832
S556
T3 S557
T17 S609
T20 S833
T5 S1210
S557
T5 S558
T17 S610
T20 S834
S558
T4 S559
T17 S611
T20 S702
S559
T5 S560
T17 S612
T20 S703
T8 S1253
S560
T8 S561
T17 S613
T20 S704
S561
T1 S562
T17 S614
T20 S899
T9 S1241
S562
T9 S563
T17 S615
T20 S780
S563
T10 S564
T17 S616
T20 S781
S564
T20 S477
T2 S565
T11 S571
T17 S617
T14 S734
S565
T3 S468
T20 S478
T1 S566
T17 S569
S566
T3 S469
T20 S479
T17 S567
S567
T3 S331
T20 S341
T18 S568
S568
T3 S169
T20 S179
S569
T3 S330
T20 S340
T1 S567
T18 S570
S570
T3 S168
T20 S178
T1 S568
S571
T20 S480
T12 S572
T17 S618
S572
T13 S384
T20 S481
T17 S573
S573
T13 S385
T18 S438
T20 S574
S574
T18 S439
T6 S575
T13 S623
S575
T18 S440
T13 S576
S576
T18 S441
T2 S577
T17 S636
S577
T18 S442
T1 S578
T17 S637
T3 S750
T7 S1254
S578
T17 S410
T18 S443
T3 S579
S579
T17 S411
T18 S444
T2 S580
S580
T17 S412
T18 S445
T7 S581
S581
T17 S413
T18 S446
T4 S582
S582
T17 S414
T18 S447
T3 S583
T5 S1254
S583
T17 S415
T18 S448
T5 S584
S584
T17 S416
T18 S449
T4 S585
S585
T17 S417
T18 S450
T5 S586
T8 S1242
S586
T17 S418
T18 S451
T8 S587
S587
T17 S419
T18 S452
T1 S588
T9 S590
S588
T17 S420
T18 S453
T9 S589
S589
T17 S421
T18 S454
T10 S528
S590
T10 S527
T1 S589
T17 S591
T18 S1230
S591
T1 S421
T10 S432
T18 S592
S592
T1 S316
T10 S593
T19 S1207
T18 S1229
S593
T1 S317
T11 S594
T19 S1184
T14 S1222
T18 S1228
S594
T1 S595
T19 S1175
T12 S1211
T18 S1221
S595
T12 S436
T18 S596
T19 S618
S596
T12 S437
T19 S597
S597
T12 S438
T20 S598
S598
T12 S439
T19 S599
S599
T12 S600
T20 S1061
S600
T6 S601
T13 S662
T20 S1056
S601
T13 S602
T20 S998
S602
T2 S603
T17 S980
T20 S993
S603
T1 S604
T17 S675
T3 S752
T20 S994
T7 S1210
S604
T3 S605
T17 S676
T20 S829
S605
T2 S554
T17 S606
T20 S830
S606
T2 S607
T18 S643
T20 S755
S607
T7 S608
T18 S644
T20 S756
S608
T4 S609
T18 S645
T20 S757
S609
T3 S610
T18 S646
T20 S758
T5 S958
S610
T5 S611
T18 S647
T20 S759
S611
T4 S612
T18 S648
T20 S760
S612
T5 S613
T18 S649
T20 S761
T8 S1208
S613
T8 S614
T18 S650
T20 S762
S614
T1 S615
T18 S651
T20 S1088
T9 S1207
S615
T9 S616
T18 S652
T20 S1089
S616
T10 S617
T18 S653
T20 S782
S617
T20 S339
T2 S569
T11 S618
T14 S620
T18 S654
S618
T12 S573
T18 S597
T20 S619
S619
T12 S574
T18 S598
S620
T15 S621
T18 S655
T20 S1064
S621
T16 S385
T18 S536
T20 S622
S622
T18 S537
T16 S623
S623
T17 S407
T18 S538
T6 S576
T2 S624
S624
T17 S408
T18 S539
T6 S577
T1 S625
T3 S630
S625
T17 S409
T18 S540
T6 S578
T3 S626
S626
T17 S405
T18 S541
T6 S579
T2 S627
T4 S632
S627
T17 S401
T18 S542
T6 S580
T4 S628
S628
T17 S402
T18 S543
T5 S624
T3 S629
S629
T17 S403
T18 S544
T5 S630
S630
T17 S404
T18 S545
T1 S626
T4 S631
T6 S750
S631
T18 S546
T1 S632
T5 S633
T17 S1205
S632
T17 S406
T18 S547
T5 S623
T2 S628
S633
T1 S623
T6 S634
T18 S1001
T17 S1171
S634
T1 S576
T7 S586
T17 S635
T18 S950
S635
T7 S418
T1 S636
T18 S951
S636
T2 S637
T18 S952
S637
T1 S410
T3 S638
T18 S953
T7 S1204
S638
T1 S411
T7 S416
T18 S639
S639
T7 S311
T1 S640
T18 S641
T19 S753
S640
T18 S144
T2 S307
T19 S606
S641
T1 S144
T7 S149
T19 S642
S642
T1 S643
T7 S648
T20 S963
S643
T2 S644
T20 S679
S644
T7 S645
T20 S680
S645
T4 S646
T20 S681
S646
T3 S647
T20 S682
T5 S957
S647
T5 S648
T20 S683
S648
T4 S649
T20 S684
S649
T5 S650
T20 S685
T8 S1202
S650
T8 S651
T20 S686
S651
T1 S652
T20 S1093
T9 S1201
S652
T9 S653
T20 S1090
S653
T10 S654
T20 S783
S654
T20 S177
T2 S570
T11 S597
T14 S655
S655
T15 S536
T20 S656
S656
T15 S537
T6 S657
T19 S660
S657
T19 S658
S658
T20 S659
S659
S660
T6 S658
T15 S661
T20 S1075
S661
T16 S662
T20 S1070
S662
T6 S602
T2 S663
T17 S673
T20 S826
S663
T3 S551
T6 S603
T1 S664
T17 S674
T20 S827
S664
T3 S552
T6 S604
T17 S665
T20 S828
S665
T3 S666
T6 S676
T18 S1010
T20 S1044
S666
T6 S606
T2 S667
T4 S672
T18 S1011
T20 S1045
S667
T6 S607
T4 S668
T18 S1012
T20 S1046
S668
T3 S669
T5 S674
T18 S1013
T20 S1047
S669
T5 S670
T18 S1014
T20 S1048
S670
T1 S666
T4 S671
T6 S753
T18 S1015
T20 S1049
S671
T1 S672
T18 S1016
T5 S1040
T20 S1050
S672
T2 S668
T5 S673
T18 S1017
T20 S1051
S673
T2 S674
T6 S980
T18 S1008
T20 S1042
S674
T1 S665
T3 S670
T6 S675
T18 S1009
T20 S1043
S675
T1 S676
T3 S753
T7 S958
T18 S961
T20 S982
S676
T3 S606
T18 S677
T20 S983
S677
T3 S643
T20 S678
S678
T3 S679
T19 S973
S679
T2 S680
T19 S965
S680
T7 S681
T19 S966
S681
T4 S682
T19 S967
T6 S1138
S682
T3 S683
T5 S847
T19 S968
S683
T5 S684
T19 S969
S684
T4 S685
T6 S839
T19 S849
S685
T5 S686
T19 S850
T8 S1152
S686
T6 S687
T19 S851
T8 S1093
S687
T8 S688
T19 S852
S688
T1 S689
T19 S853
T9 S931
T7 S1148
S689
T9 S690
T19 S854
S690
T10 S691
T19 S785
S691
T14 S657
T2 S692
T19 S786
S692
T1 S180
T3 S693
T7 S718
T19 S787
S693
T1 S181
T7 S186
T14 S694
T19 S794
S694
T1 S695
T7 S698
T19 S795
S695
T19 S696
S696
T20 S697
S697
S698
T15 S699
T19 S796
S699
T16 S449
T19 S700
S700
T16 S558
T20 S701
S701
T16 S702
S702
T4 S703
T17 S760
T6 S837
S703
T5 S704
T17 S761
T8 S1199
S704
T6 S705
T17 S762
T8 S899
S705
T8 S706
T17 S763
S706
T1 S707
T17 S764
T7 S868
T9 S901
S707
T9 S708
T17 S765
S708
T10 S220
T17 S709
S709
T18 S690
T10 S710
S710
T18 S691
T2 S711
T14 S905
S711
T1 S342
T18 S692
T3 S712
T7 S717
S712
T1 S343
T7 S348
T18 S693
T14 S713
S713
T18 S694
T1 S714
T7 S715
S714
T18 S695
S715
T18 S698
T15 S716
S716
T16 S584
T18 S699
S717
T3 S348
T18 S718
S718
T3 S186
T19 S719
S719
T3 S720
T20 S1196
S720
T20 S32
T4 S721
T14 S796
T11 S1194
S721
T20 S33
T5 S722
T8 S1190
S722
T20 S34
T8 S723
T14 S919
T11 S1116
S723
T1 S724
T20 S872
T14 S915
T11 S1112
T9 S1156
S724
T9 S725
T20 S774
T14 S890
T11 S1109
S725
T10 S726
T20 S775
S726
T20 S214
T2 S727
T11 S729
T14 S1153
S727
T3 S205
T20 S215
T1 S728
S728
T3 S206
T20 S216
S729
T20 S217
T12 S730
S730
T20 S218
T13 S564
T11 S731
T14 S733
S731
T13 S571
T20 S732
S732
T13 S480
S733
T13 S734
T20 S1123
S734
T17 S620
T15 S735
T20 S1063
S735
T16 S384
T17 S621
T20 S736
S736
T17 S622
T16 S737
S737
T6 S483
T17 S623
T2 S738
S738
T6 S484
T17 S624
T1 S739
T3 S744
S739
T6 S485
T17 S625
T3 S740
S740
T6 S486
T17 S626
T2 S741
T4 S746
S741
T6 S487
T17 S627
T4 S742
S742
T17 S628
T5 S738
T3 S743
S743
T17 S629
T5 S744
S744
T17 S630
T1 S740
T4 S745
T6 S749
S745
T17 S631
T1 S746
T5 S747
S746
T17 S632
T5 S737
T2 S742
S747
T17 S633
T1 S737
T6 S748
S748
T1 S483
T7 S493
T17 S634
S749
T1 S486
T7 S491
T17 S750
S750
T1 S579
T7 S584
T17 S638
T18 S751
S751
T1 S444
T7 S449
T17 S639
T19 S752
S752
T7 S558
T1 S605
T17 S753
T20 S995
S753
T1 S606
T7 S611
T18 S642
T20 S754
S754
T1 S755
T7 S760
T18 S963
S755
T18 S679
T2 S756
S756
T18 S680
T7 S757
S757
T18 S681
T4 S758
T6 S1137
S758
T18 S682
T3 S759
T5 S846
S759
T18 S683
T5 S760
S760
T18 S684
T4 S761
T6 S838
S761
T18 S685
T5 S762
T8 S1149
S762
T18 S686
T6 S763
T8 S1088
S763
T18 S687
T8 S764
S764
T18 S688
T1 S765
T7 S766
T9 S930
S765
T18 S689
T9 S709
S766
T9 S767
T18 S1148
S767
T10 S350
T8 S768
T18 S932
S768
T10 S351
T1 S769
T18 S933
S769
T10 S352
T18 S770
S770
T10 S190
T19 S771
S771
T10 S724
T20 S772
S772
T6 S773
T10 S774
S773
T10 S37
S774
T6 S37
T9 S775
T11 S776
T14 S777
S775
T6 S38
T10 S214
S776
S777
T6 S778
T15 S779
S778
S779
T16 S780
S780
T6 S707
T9 S781
T17 S1089
S781
T10 S477
T6 S708
T17 S782
S782
T10 S339
T6 S709
T18 S783
S783
T10 S177
T6 S690
T19 S784
S784
T6 S785
T10 S801
T20 S1087
S785
T20 S23
T10 S786
S786
T20 S24
T14 S658
T2 S787
S787
T20 S25
T7 S719
T1 S788
T3 S794
S788
T20 S26
T3 S789
S789
T20 S27
T14 S696
T2 S790
S790
T20 S28
T7 S791
S791
T20 S29
T4 S792
S792
T20 S30
T5 S719
T3 S793
S793
T20 S31
T5 S720
S794
T7 S720
T1 S789
T14 S795
T20 S800
S795
T1 S696
T7 S796
T20 S799
S796
T15 S700
T20 S797
S797
T15 S701
T6 S798
S798
S799
T1 S697
T7 S797
S800
T1 S27
T7 S32
T14 S799
S801
T11 S599
T14 S660
T6 S786
T2 S802
T20 S1080
S802
T6 S787
T1 S803
T3 S808
T20 S1081
S803
T6 S788
T3 S804
T20 S1082
S804
T11 S519
T6 S789
T2 S805
T4 S810
T20 S815
T14 S1145
S805
T6 S790
T4 S806
T20 S816
S806
T5 S802
T3 S807
T20 S812
S807
T5 S808
T20 S813
S808
T6 S794
T1 S804
T4 S809
T20 S814
T11 S1143
T14 S1144
S809
T1 S810
T5 S1078
T20 S1139
S810
T5 S801
T2 S806
T20 S811
S811
T2 S812
T5 S1080
S812
T3 S813
T5 S1081
S813
T5 S814
S814
T6 S800
T1 S815
T4 S1139
T11 S1140
T14 S1141
S815
T6 S27
T11 S520
T4 S811
T2 S816
T14 S817
S816
T6 S28
T4 S812
S817
T6 S697
T15 S818
S818
T16 S819
S819
T2 S820
T4 S825
T6 S830
T17 S1045
S820
T4 S821
T6 S831
T17 S1046
S821
T3 S822
T5 S827
T17 S1047
S822
T5 S823
T17 S1048
S823
T1 S819
T4 S824
T6 S995
T17 S1049
S824
T1 S825
T17 S1050
T5 S1053
S825
T2 S821
T5 S826
T17 S1051
S826
T2 S827
T6 S993
T17 S1042
S827
T3 S823
T1 S828
T6 S994
T17 S1043
S828
T3 S819
T6 S829
T17 S1044
S829
T3 S830
T17 S983
S830
T17 S755
T2 S831
S831
T17 S756
T7 S832
S832
T17 S757
T4 S833
T6 S1136
S833
T17 S758
T3 S834
T5 S835
S834
T5 S702
T17 S759
S835
T3 S702
T6 S836
T17 S846
S836
T3 S837
T17 S842
S837
T17 S838
S838
T18 S839
S839
T19 S840
S840
T20 S841
S841
S842
T3 S838
T18 S843
S843
T3 S839
T19 S844
S844
T3 S840
T20 S845
S845
T3 S841
S846
T3 S760
T6 S842
T18 S847
S847
T3 S684
T6 S843
T19 S848
S848
T6 S844
T3 S849
T20 S976
S849
T20 S17
T6 S840
T4 S850
S850
T20 S18
T5 S851
T8 S1132
S851
T20 S19
T6 S852
T8 S1094
S852
T20 S20
T8 S853
S853
T20 S21
T1 S854
T7 S855
T9 S934
S854
T20 S22
T9 S785
S855
T9 S856
T20 S1130
S856
T10 S722
T8 S857
T20 S936
S857
T10 S723
T1 S771
T20 S858
S858
T1 S772
T6 S859
T10 S872
S859
T10 S36
T1 S773
T7 S860
S860
T10 S861
S861
T9 S862
T11 S865
T14 S866
S862
T10 S44
T8 S863
S863
T10 S45
T1 S864
S864
T10 S46
S865
S866
T15 S867
S867
T16 S868
S868
T17 S766
T9 S869
S869
T10 S230
T17 S767
T8 S870
S870
T10 S231
T17 S768
T1 S871
S871
T10 S232
T17 S769
S872
T6 S36
T1 S774
T9 S873
T14 S916
T11 S1113
S873
T1 S775
T6 S874
T10 S1098
S874
T1 S38
T7 S862
T10 S875
S875
T1 S39
T7 S44
T14 S876
S876
T1 S877
T7 S878
S877
S878
T8 S879
T15 S1096
S879
T1 S880
T15 S891
S880
T15 S881
S881
T16 S232
T14 S882
S882
T16 S883
S883
T15 S884
T17 S888
S884
T16 S495
T17 S885
S885
T16 S588
T18 S886
S886
T16 S453
T19 S887
S887
T16 S562
T20 S779
S888
T15 S885
T18 S889
S889
T15 S886
T19 S890
S890
T20 S777
T15 S887
S891
T16 S231
T1 S881
T14 S892
S892
T1 S882
T16 S893
S893
T1 S883
T15 S894
T17 S913
S894
T16 S494
T1 S884
T17 S895
S895
T16 S587
T1 S885
T18 S896
S896
T16 S452
T1 S886
T19 S897
S897
T16 S561
T1 S887
T20 S898
S898
T1 S779
T16 S899
S899
T6 S706
T1 S780
T9 S900
T17 S1088
S900
T1 S781
T6 S901
T10 S938
T17 S1083
S901
T1 S708
T7 S869
T10 S902
T17 S930
S902
T1 S220
T7 S230
T14 S903
T17 S926
S903
T1 S904
T7 S906
T17 S922
S904
T17 S905
S905
T18 S657
S906
T8 S893
T15 S907
T17 S912
S907
T16 S493
T8 S894
T17 S908
S908
T16 S586
T8 S895
T18 S909
S909
T16 S451
T8 S896
T19 S910
S910
T16 S560
T8 S897
T20 S911
S911
T16 S704
T8 S898
S912
T15 S908
T8 S913
T18 S918
S913
T1 S888
T15 S895
T18 S914
S914
T1 S889
T15 S896
T19 S915
S915
T1 S890
T15 S897
T20 S916
S916
T1 S777
T15 S898
T6 S917
S917
T1 S778
T7 S866
S918
T15 S909
T8 S914
T19 S919
S919
T15 S910
T8 S915
T20 S920
S920
T15 S911
T8 S916
T6 S921
S921
T8 S917
S922
T1 S905
T7 S912
T18 S923
S923
T1 S657
T7 S918
T19 S924
S924
T1 S658
T7 S919
T20 S925
S925
T1 S659
T7 S920
S926
T7 S350
T1 S710
T14 S922
T18 S927
S927
T7 S188
T1 S691
T14 S923
T19 S928
S928
T7 S722
T1 S786
T14 S924
T20 S929
S929
T1 S24
T7 S34
T14 S925
S930
T1 S709
T7 S767
T10 S926
T18 S931
S931
T1 S690
T10 S927
T7 S932
T19 S934
S932
T10 S188
T19 S856
T8 S933
S933
T10 S189
T1 S770
T19 S857
S934
T1 S785
T7 S856
T10 S928
T20 S935
S935
T1 S23
T10 S929
T7 S936
S936
T10 S34
T8 S858
T6 S937
S937
T10 S35
T8 S859
S938
T1 S477
T6 S902
T11 S939
T14 S1062
T17 S1076
S939
T1 S480
T12 S940
T17 S1057
S940
T1 S481
T13 S747
T6 S941
T17 S999
S941
T1 S482
T13 S748
T7 S942
T17 S948
S942
T13 S493
T17 S943
S943
T13 S586
T18 S944
S944
T13 S451
T19 S945
S945
T13 S560
T20 S946
S946
T13 S704
T6 S947
S947
T13 S705
S948
T1 S575
T13 S634
T7 S943
T18 S949
S949
T1 S440
T7 S944
T13 S950
T19 S996
S950
T1 S441
T7 S451
T17 S951
T19 S991
S951
T7 S313
T1 S952
T18 S984
T19 S989
S952
T2 S953
T18 S959
T19 S980
S953
T18 S142
T3 S639
T19 S675
T1 S954
T7 S955
S954
T18 S143
T3 S640
T19 S676
S955
T3 S311
T18 S956
T19 S958
S956
T3 S149
T19 S957
S957
T3 S648
T20 S847
S958
T3 S611
T20 S846
T18 S957
S959
T2 S142
T19 S960
S960
T2 S961
T20 S977
S961
T3 S642
T1 S677
T7 S957
T20 S962
S962
T1 S678
T7 S847
T3 S963
T19 S972
S963
T1 S679
T7 S684
T19 S964
S964
T20 S11
T7 S849
T1 S965
S965
T20 S12
T2 S966
S966
T20 S13
T7 S967
S967
T20 S14
T4 S968
T6 S970
S968
T20 S15
T5 S848
T3 S969
S969
T20 S16
T5 S849
S970
T20 S971
S971
S972
T7 S848
T3 S964
T1 S973
T20 S975
S973
T3 S965
T20 S974
S974
T3 S12
S975
T3 S11
T1 S974
T7 S976
S976
T3 S17
T6 S845
S977
T2 S962
T19 S978
S978
T2 S972
T20 S979
S979
T2 S975
S980
T2 S675
T18 S960
T20 S981
S981
T18 S977
T2 S982
S982
T3 S754
T7 S846
T18 S962
T1 S983
S983
T18 S678
T3 S755
S984
T7 S151
T1 S959
T19 S985
S985
T7 S650
T1 S960
T20 S986
S986
T7 S686
T1 S977
T19 S987
S987
T7 S851
T1 S978
T20 S988
S988
T7 S19
T1 S979
S989
T7 S613
T1 S980
T18 S985
T20 S990
S990
T7 S762
T1 S981
T18 S986
S991
T7 S560
T1 S602
T17 S989
T20 S992
S992
T7 S704
T17 S990
T1 S993
S993
T17 S981
T2 S994
S994
T1 S829
T7 S835
T17 S982
T3 S995
S995
T7 S702
T17 S754
T1 S830
S996
T1 S601
T7 S945
T13 S991
T20 S997
S997
T7 S946
T13 S992
T1 S998
S998
T13 S993
S999
T1 S574
T13 S633
T6 S948
T18 S1000
S1000
T1 S439
T6 S949
T13 S1001
T19 S1054
S1001
T1 S538
T6 S950
T17 S1002
T19 S1052
S1002
T6 S951
T1 S1003
T18 S1006
T19 S1040
S1003
T18 S140
T19 S673
T6 S952
T2 S1004
S1004
T18 S141
T3 S304
T19 S674
T6 S953
T1 S1005
S1005
T18 S132
T3 S305
T19 S665
T6 S954
S1006
T1 S140
T6 S984
T19 S1007
S1007
T6 S985
T1 S1008
T20 S1036
S1008
T6 S960
T2 S1009
T20 S1037
S1009
T6 S961
T1 S1010
T3 S1015
T20 S1038
S1010
T6 S677
T3 S1011
T20 S1039
S1011
T6 S643
T2 S1012
T4 S1017
T20 S1022
S1012
T6 S644
T4 S1013
T20 S1023
S1013
T5 S1009
T3 S1014
T20 S1019
S1014
T5 S1015
T20 S1020
S1015
T6 S642
T1 S1011
T4 S1016
T20 S1021
S1016
T5 S1007
T1 S1017
T20 S1035
S1017
T5 S1008
T2 S1013
T20 S1018
S1018
T2 S1019
T19 S1029
T5 S1037
S1019
T3 S1020
T19 S1025
T5 S1038
S1020
T5 S1021
T19 S1026
S1021
T6 S963
T1 S1022
T19 S1027
T4 S1035
S1022
T6 S679
T4 S1018
T2 S1023
T19 S1028
S1023
T6 S680
T4 S1019
T19 S1024
S1024
T20 S5
T6 S966
T4 S1025
S1025
T20 S6
T3 S1026
T5 S1031
S1026
T20 S7
T5 S1027
S1027
T20 S8
T6 S964
T1 S1028
T4 S1033
S1028
T20 S4
T6 S965
T2 S1024
T4 S1029
S1029
T20 S10
T2 S1025
T5 S1030
S1030
T20 S1
T6 S978
T2 S1031
S1031
T20 S2
T6 S972
T3 S1027
T1 S1032
S1032
T20 S3
T6 S973
T3 S1028
S1033
T20 S9
T1 S1029
T5 S1034
S1034
T20 S0
T6 S987
T1 S1030
S1035
T1 S1018
T19 S1033
T5 S1036
S1036
T6 S986
T19 S1034
T1 S1037
S1037
T6 S977
T19 S1030
T2 S1038
S1038
T6 S962
T3 S1021
T19 S1031
T1 S1039
S1039
T6 S678
T3 S1022
T19 S1032
S1040
T1 S673
T6 S989
T18 S1007
T20 S1041
S1041
T6 S990
T18 S1036
T1 S1042
S1042
T6 S981
T18 S1037
T2 S1043
S1043
T6 S982
T18 S1038
T1 S1044
T3 S1049
S1044
T6 S983
T18 S1039
T3 S1045
S1045
T6 S755
T18 S1022
T2 S1046
T4 S1051
S1046
T6 S756
T18 S1023
T4 S1047
S1047
T18 S1019
T5 S1043
T3 S1048
S1048
T18 S1020
T5 S1049
S1049
T6 S754
T18 S1021
T1 S1045
T4 S1050
S1050
T18 S1035
T5 S1041
T1 S1051
S1051
T18 S1018
T5 S1042
T2 S1047
S1052
T1 S662
T6 S991
T17 S1040
T20 S1053
S1053
T1 S826
T6 S992
T17 S1041
S1054
T1 S600
T6 S996
T13 S1052
T20 S1055
S1055
T6 S997
T13 S1053
T1 S1056
S1056
T13 S826
T6 S998
S1057
T1 S619
T12 S999
T18 S1058
S1058
T1 S598
T12 S1000
T19 S1059
S1059
T1 S599
T12 S1054
T20 S1060
S1060
T12 S1055
T1 S1061
S1061
T12 S1056
S1062
T6 S903
T1 S1063
T15 S1065
T17 S1071
S1063
T15 S736
T6 S904
T17 S1064
S1064
T15 S622
T18 S656
T6 S905
S1065
T1 S736
T16 S747
T17 S1066
S1066
T1 S622
T16 S633
T18 S1067
S1067
T1 S537
T16 S1001
T19 S1068
S1068
T1 S661
T16 S1052
T20 S1069
S1069
T16 S1053
T1 S1070
S1070
T16 S826
S1071
T6 S922
T1 S1064
T15 S1066
T18 S1072
S1072
T1 S656
T6 S923
T15 S1067
T19 S1073
S1073
T1 S660
T6 S924
T15 S1068
T20 S1074
S1074
T6 S925
T15 S1069
T1 S1075
S1075
T6 S659
T15 S1070
S1076
T1 S339
T6 S926
T11 S1057
T14 S1071
T18 S1077
S1077
T1 S177
T6 S927
T11 S1058
T14 S1072
T19 S1078
S1078
T1 S801
T6 S928
T11 S1059
T14 S1073
T20 S1079
S1079
T6 S929
T11 S1060
T14 S1074
T1 S1080
S1080
T6 S24
T11 S1061
T14 S1075
T2 S1081
S1081
T6 S25
T3 S814
T1 S1082
S1082
T6 S26
T3 S815
S1083
T1 S782
T6 S930
T10 S1076
T18 S1084
S1084
T1 S783
T6 S931
T10 S1077
T19 S1085
S1085
T1 S784
T6 S934
T10 S1078
T20 S1086
S1086
T6 S935
T10 S1079
T1 S1087
S1087
T6 S23
T10 S1080
S1088
T6 S764
T9 S1083
T1 S1089
T18 S1093
S1089
T6 S765
T9 S782
T18 S1090
S1090
T6 S689
T9 S783
T19 S1091
S1091
T9 S784
T6 S854
T20 S1092
S1092
T6 S22
T9 S1087
S1093
T6 S688
T9 S1084
T1 S1090
T19 S1094
S1094
T6 S853
T9 S1085
T1 S1091
T20 S1095
S1095
T6 S21
T9 S1086
T1 S1092
S1096
T16 S230
T8 S891
T14 S1097
S1097
T8 S892
T16 S906
S1098
T1 S214
T6 S875
T11 S1099
T14 S1124
S1099
T1 S217
T12 S1100
S1100
T1 S218
T13 S938
T6 S1101
T11 S1121
T14 S1122
S1101
T1 S219
T13 S902
T7 S1102
T14 S1119
S1102
T13 S230
T11 S1103
T14 S1118
S1103
T13 S1104
S1104
T12 S942
T8 S1105
T17 S1114
S1105
T1 S1106
T17 S1110
S1106
T17 S1107
S1107
T18 S1108
S1108
T19 S1109
S1109
T20 S776
S1110
T1 S1107
T18 S1111
S1111
T1 S1108
T19 S1112
S1112
T1 S1109
T20 S1113
S1113
T1 S776
S1114
T12 S943
T8 S1110
T18 S1115
S1115
T12 S944
T8 S1111
T19 S1116
S1116
T12 S945
T8 S1112
T20 S1117
S1117
T12 S946
T8 S1113
S1118
T13 S906
S1119
T13 S903
T7 S1118
T1 S1120
S1120
T13 S904
S1121
T1 S732
T13 S939
S1122
T13 S1062
T6 S1119
T1 S1123
S1123
T13 S1063
T6 S1120
S1124
T6 S876
T1 S1125
T15 S1128
S1125
T6 S877
T15 S1126
S1126
T16 S477
T14 S1127
S1127
T16 S1063
S1128
T16 S938
T1 S1126
T14 S1129
S1129
T16 S1062
T1 S1127
S1130
T9 S936
T6 S1131
S1131
T9 S937
S1132
T5 S1094
T1 S1133
T20 S1135
S1133
T5 S1091
T20 S1134
S1134
T5 S1092
S1135
T5 S1095
T1 S1134
S1136
T17 S1137
S1137
T18 S1138
S1138
T19 S970
S1139
T1 S811
T5 S1079
S1140
T1 S520
S1141
T6 S799
T1 S817
T15 S1142
S1142
T1 S818
T16 S823
S1143
T1 S519
T20 S1140
S1144
T6 S795
T20 S1141
T1 S1145
T15 S1147
S1145
T6 S696
T20 S817
T15 S1146
S1146
T16 S552
T20 S818
S1147
T16 S551
T20 S1142
T1 S1146
S1148
T19 S855
T9 S932
S1149
T5 S1088
T1 S1150
T18 S1152
S1150
T5 S1089
T18 S1151
S1151
T5 S1090
T19 S1133
S1152
T5 S1093
T19 S1132
T1 S1151
S1153
T20 S1125
T15 S1154
S1154
T16 S564
T20 S1126
T14 S1155
S1155
T16 S734
T20 S1127
S1156
T1 S725
T20 S873
T10 S1157
S1157
T1 S726
T20 S1098
T11 S1158
T14 S1187
S1158
T1 S729
T20 S1099
T12 S1159
S1159
T1 S730
T20 S1100
T11 S1160
T13 S1177
T14 S1186
S1160
T1 S731
T20 S1121
T13 S1161
S1161
T1 S571
T20 S939
T12 S1162
T17 S1175
S1162
T1 S572
T20 S940
T13 S1163
T17 S1173
S1163
T1 S384
T20 S747
T17 S1164
S1164
T1 S385
T20 S633
T17 S1165
T18 S1172
S1165
T1 S1166
T18 S1169
T20 S1171
S1166
T18 S291
T20 S407
T2 S1167
S1167
T18 S292
T3 S398
T20 S408
T1 S1168
S1168
T18 S293
T3 S399
T20 S409
S1169
T1 S291
T20 S1002
T18 S1170
S1170
T1 S129
T20 S1006
S1171
T1 S407
T6 S635
T18 S1002
S1172
T1 S290
T20 S1001
T17 S1169
S1173
T1 S573
T20 S999
T13 S1164
T18 S1174
S1174
T1 S438
T20 S1000
T13 S1172
S1175
T1 S618
T20 S1057
T12 S1173
T18 S1176
S1176
T1 S597
T20 S1058
T12 S1174
S1177
T1 S564
T20 S938
T11 S1161
T14 S1178
T17 S1184
S1178
T1 S734
T20 S1062
T15 S1179
T17 S1182
S1179
T1 S735
T20 S1065
T16 S1163
T17 S1180
S1180
T1 S621
T20 S1066
T16 S1164
T18 S1181
S1181
T1 S536
T20 S1067
T16 S1172
S1182
T1 S620
T20 S1071
T15 S1180
T18 S1183
S1183
T1 S655
T20 S1072
T15 S1181
S1184
T1 S617
T20 S1076
T11 S1175
T14 S1182
T18 S1185
S1185
T1 S654
T20 S1077
T11 S1176
T14 S1183
S1186
T1 S733
T20 S1122
T13 S1178
S1187
T20 S1124
T1 S1153
T15 S1188
S1188
T20 S1128
T1 S1154
T16 S1177
T14 S1189
S1189
T20 S1129
T1 S1155
T16 S1178
S1190
T5 S723
T1 S1191
T20 S1193
S1191
T5 S724
T20 S1192
S1192
T5 S774
S1193
T5 S872
T1 S1192
S1194
T20 S1195
S1195
S1196
T3 S32
T6 S1197
S1197
T3 S1198
S1198
T14 S798
S1199
T5 S899
T17 S1149
T1 S1200
S1200
T5 S780
T17 S1150
S1201
T1 S653
T20 S1084
T10 S1185
S1202
T5 S651
T20 S1152
T1 S1203
S1203
T5 S652
T20 S1151
S1204
T3 S416
T18 S955
S1205
T1 S406
T5 S1171
T18 S1206
S1206
T18 S138
T1 S301
T19 S671
T5 S1002
S1207
T1 S616
T20 S1083
T10 S1184
T18 S1201
S1208
T5 S614
T20 S1149
T18 S1202
T1 S1209
S1209
T5 S615
T20 S1150
T18 S1203
S1210
T3 S558
T20 S835
T17 S958
S1211
T1 S436
T19 S1173
T13 S1212
T18 S1220
S1212
T1 S268
T19 S1164
T17 S1213
T18 S1219
S1213
T1 S106
T19 S1165
T18 S1214
S1214
T1 S107
T19 S1169
T18 S1215
S1215
T19 S1170
T1 S1216
S1216
T19 S129
T2 S1217
S1217
T3 S120
T19 S130
T1 S1218
S1218
T3 S121
T19 S131
S1219
T1 S279
T19 S1172
T17 S1214
S1220
T1 S437
T19 S1174
T13 S1219
S1221
T1 S596
T19 S1176
T12 S1220
S1222
T19 S1182
T1 S1223
T15 S1225
T18 S1227
S1223
T15 S534
T19 S620
T18 S1224
S1224
T15 S535
T19 S655
S1225
T1 S534
T19 S1180
T16 S1212
T18 S1226
S1226
T1 S535
T19 S1181
T16 S1219
S1227
T19 S1183
T1 S1224
T15 S1226
S1228
T1 S155
T19 S1185
T11 S1221
T14 S1227
S1229
T1 S154
T19 S1201
T10 S1228
S1230
T1 S454
T17 S592
T10 S1231
T19 S1241
S1231
T1 S455
T17 S593
T19 S1177
T11 S1232
T14 S1237
S1232
T17 S594
T19 S1161
T1 S1233
T12 S1235
S1233
T19 S571
T17 S595
T12 S1234
S1234
T13 S373
T17 S436
T19 S572
S1235
T19 S1162
T17 S1211
T1 S1234
T13 S1236
S1236
T1 S373
T19 S1163
T17 S1212
S1237
T19 S1178
T17 S1222
T1 S1238
T15 S1240
S1238
T19 S734
T17 S1223
T15 S1239
S1239
T16 S373
T17 S534
T19 S735
S1240
T19 S1179
T17 S1225
T16 S1236
T1 S1239
S1241
T1 S563
T20 S900
T10 S1177
T17 S1207
S1242
T5 S587
T1 S1243
T17 S1249
T18 S1252
S1243
T5 S588
T17 S1244
T18 S1247
S1244
T5 S420
T18 S1245
S1245
T5 S315
T19 S1209
T18 S1246
S1246
T5 S153
T19 S1203
S1247
T5 S453
T17 S1245
T19 S1248
S1248
T5 S562
T20 S1200
T17 S1209
S1249
T5 S419
T1 S1244
T18 S1250
S1250
T5 S314
T19 S1208
T1 S1245
T18 S1251
S1251
T5 S152
T19 S1202
T1 S1246
S1252
T5 S452
T1 S1247
T17 S1250
T19 S1253
S1253
T5 S561
T20 S1199
T17 S1208
T1 S1248
S1254
T3 S584
T17 S1204
T18 S1255
S1255
T3 S449
T17 S955
T19 S1210
S1256
T1 S548
T17 S671
T20 S824
T5 S1052
S1257
T15 S533
T18 S1223
S1258
T1 S360
T17 S433
T18 S1232
T12 S1259
S1259
T1 S361
T18 S1235
T13 S1260
T17 S1263
S1260
T1 S362
T18 S1236
T17 S1261
S1261
T1 S84
T18 S1212
T17 S1262
S1262
T1 S95
T18 S1213
S1263
T1 S435
T18 S1211
T13 S1261
S1264
T1 S531
T18 S1237
T15 S1265
T17 S1267
S1265
T1 S532
T18 S1240
T16 S1260
T17 S1266
S1266
T1 S533
T18 S1225
T16 S1261
S1267
T18 S1222
T1 S1257
T15 S1266
S1268
T1 S513
T17 S1269
T18 S1276
S1269
T1 S514
T18 S1270
S1270
T1 S515
T18 S1271
T19 S1274
S1271
T1 S516
T19 S1272
S1272
T1 S517
T20 S1273
S1273
T1 S518
T19 S1143
S1274
T1 S521
T18 S1272
T20 S1275
S1275
T1 S522
T18 S1273
S1276
T1 S523
T17 S1270
T19 S1277
S1277
T1 S524
T17 S1274
T20 S1278
S1278
T1 S525
T17 S1275
S1279
T1 S257
T15 S1280
T17 S1299
T18 S1313
S1280
T16 S75
T1 S258
T17 S1281
T18 S1293
S1281
T16 S81
T1 S259
T18 S1282
S1282
T1 S260
T16 S265
T18 S1283
T19 S1289
S1283
T16 S276
T1 S1284
T19 S1287
S1284
T16 S272
T19 S1285
S1285
T16 S283
T20 S1286
S1286
T16 S541
T19 S1146
S1287
T16 S287
T1 S1285
T20 S1288
S1288
T16 S545
T19 S1147
T1 S1286
S1289
T16 S392
T18 S1287
T1 S1290
T20 S1292
S1290
T16 S388
T18 S1285
T20 S1291
S1291
T16 S626
T18 S1286
S1292
T16 S630
T18 S1288
T1 S1291
S1293
T16 S370
T17 S1282
T1 S1294
T19 S1297
S1294
T17 S260
T16 S366
T19 S1295
S1295
T16 S377
T17 S1290
T20 S1296
S1296
T16 S740
T17 S1291
S1297
T16 S381
T17 S1289
T1 S1295
T20 S1298
S1298
T16 S744
T17 S1292
T1 S1296
S1299
T15 S1281
T1 S1300
T18 S1307
S1300
T15 S259
T18 S1301
S1301
T15 S260
T18 S1302
T19 S1305
S1302
T15 S1284
T19 S1303
S1303
T15 S1285
T20 S1304
S1304
T6 S695
T19 S1145
T15 S1286
S1305
T15 S1290
T18 S1303
T20 S1306
S1306
T6 S714
T15 S1291
T18 S1304
S1307
T15 S1282
T1 S1301
T18 S1308
T19 S1311
S1308
T15 S1283
T1 S1302
T19 S1309
S1309
T15 S1287
T1 S1303
T20 S1310
S1310
T6 S694
T19 S1144
T15 S1288
T1 S1304
S1311
T15 S1289
T1 S1305
T18 S1309
T20 S1312
S1312
T6 S713
T15 S1292
T1 S1306
T18 S1310
S1313
T15 S1293
T17 S1307
T1 S1314
T19 S1318
S1314
T15 S1294
T17 S1301
T19 S1315
S1315
T15 S1295
T17 S1305
T20 S1316
S1316
T15 S1296
T17 S1306
T6 S1317
S1317
T17 S714
S1318
T15 S1297
T17 S1311
T1 S1315
T20 S1319
S1319
T15 S1298
T17 S1312
T1 S1316
T6 S1320
S1320
T17 S713
T1 S1317
T7 S1321
S1321
T17 S715
T15 S1322
S1322
T16 S491
T17 S716
S1323
T1 S497
T17 S527
T11 S1324
T14 S1327
S1324
T1 S60
T17 S1258
T12 S1325
S1325
T1 S61
T17 S1259
T13 S1326
S1326
T1 S62
T17 S1260
S1327
T17 S1264
T1 S1328
T15 S1330
S1328
T17 S531
T15 S1329
S1329
T16 S62
T17 S532
S1330
T17 S1265
T16 S1326
T1 S1329
S1331
T17 S1268
T1 S1332
S1332
T17 S513
S1333
T17 S1279
T1 S1334
T15 S1336
S1334
T17 S257
T15 S1335
S1335
T16 S65
T17 S258
S1336
T16 S69
T17 S1280
T1 S1335
S1337
T1 S496
T17 S590
T10 S1323
S1338
T5 S494
T17 S1242
T1 S1339
S1339
T5 S495
T17 S1243
S1340
T3 S491
T17 S1254
S1341
T1 S476
T5 S938
T17 S1342
S1342
T1 S338
T5 S1076
T18 S1343
S1343
T1 S176
T19 S809
T5 S1077
S1344
T1 S223
T7 S228
T17 S712
T14 S1320
S1345
T1 S465
T5 S1177
T20 S1341
T17 S1346
S1346
T1 S327
T5 S1184
T20 S1342
T18 S1347
S1347
T1 S165
T5 S1185
T20 S1343
S1348
T18 S299
T1 S395
T5 S1165
T20 S1205
S1349
T19 S731
T13 S1233
S1350
T13 S531
T18 S1351
S1351
T19 S733
T13 S1238
S1352
T13 S455
T19 S730
T11 S1349
T14 S1351
S1353
T19 S729
T12 S1352
S1354
T15 S1355
T18 S1359
S1355
T16 S528
T14 S1356
T18 S1358
S1356
T16 S531
T18 S1357
S1357
T19 S1155
T16 S1238
S1358
T16 S455
T19 S1154
T14 S1357
S1359
T19 S1153
T15 S1358
S1360
T1 S353
T10 S1361
T18 S1377
S1361
T1 S354
T11 S1362
T14 S1370
T18 S1376
S1362
T1 S357
T12 S1363
T18 S1369
S1363
T1 S358
T13 S527
T11 S1364
T14 S1366
T18 S1368
S1364
T1 S359
T13 S1258
T18 S1365
S1365
T19 S1160
T13 S1232
T1 S1349
S1366
T13 S1264
T1 S1350
T18 S1367
S1367
T19 S1186
T13 S1237
T1 S1351
S1368
T19 S1159
T13 S1231
T1 S1352
T11 S1365
T14 S1367
S1369
T19 S1158
T1 S1353
T12 S1368
S1370
T1 S1354
T15 S1371
T18 S1375
S1371
T16 S527
T1 S1355
T14 S1372
T18 S1374
S1372
T16 S1264
T1 S1356
T18 S1373
S1373
T19 S1189
T16 S1237
T1 S1357
S1374
T19 S1188
T16 S1231
T1 S1358
T14 S1373
S1375
T19 S1187
T1 S1359
T15 S1374
S1376
T1 S192
T19 S1157
T11 S1369
T14 S1375
S1377
T1 S191
T19 S1156
T10 S1376
S1378
T5 S351
T1 S1379
T18 S1381
S1379
T5 S352
T18 S1380
S1380
T5 S190
T19 S1191
S1381
T5 S189
T19 S1190
T1 S1380
S1382
T18 S1383
S1383
T19 S1194
S1384
T1 S128
T20 S138
T5 S1170
S1385
T16 S1314
T19 S1386
S1386
T16 S1315
T20 S1387
S1387
T16 S1316
S1388
T16 S458
T14 S1385
T19 S1389
S1389
T16 S469
T14 S1386
T20 S1390
S1390
T16 S475
T14 S1387
S1391
T15 S1388
T19 S1392
S1392
T15 S1389
T20 S1393
S1393
T15 S1390
S1394
T18 S200
T1 S244
T5 S1361
S1395
T1 S250
T18 S1396
S1396
T1 S251
T19 S1397
S1397
T1 S252
T20 S1398
S1398
T1 S253
S1399
T1 S254
T15 S1400
T18 S1408
S1400
T1 S255
T16 S510
T14 S1401
T18 S1405
S1401
T1 S256
T16 S1279
T18 S1402
S1402
T16 S1313
T1 S1385
T19 S1403
S1403
T16 S1318
T1 S1386
T20 S1404
S1404
T16 S1319
T1 S1387
S1405
T16 S462
T1 S1388
T14 S1402
T19 S1406
S1406
T16 S468
T1 S1389
T14 S1403
T20 S1407
S1407
T16 S474
T1 S1390
T14 S1404
S1408
T1 S1391
T15 S1405
T19 S1409
S1409
T1 S1392
T15 S1406
T20 S1410
S1410
T1 S1393
T15 S1407
T6 S1411
S1411
T7 S1412
S1412
T15 S1413
S1413
T16 S228
T14 S1414
S1414
T16 S1321
S1415
T1 S234
T17 S1361
T11 S1416
T14 S1421
S1416
T1 S57
T17 S1362
T12 S1417
S1417
T1 S58
T13 S1323
T17 S1363
T11 S1418
T14 S1419
S1418
T1 S59
T13 S1324
T17 S1364
S1419
T13 S1327
T17 S1366
T1 S1420
S1420
T13 S1328
T17 S1350
S1421
T17 S1370
T1 S1422
T15 S1425
S1422
T17 S1354
T15 S1423
S1423
T16 S497
T17 S1355
T14 S1424
S1424
T16 S1328
T17 S1356
S1425
T16 S1323
T17 S1371
T1 S1423
T14 S1426
S1426
T16 S1327
T17 S1372
T1 S1424
S1427
T17 S1395
T1 S1428
S1428
T17 S250
S1429
T17 S1399
T1 S1430
T15 S1433
S1430
T17 S254
T15 S1431
S1431
T17 S255
T16 S500
T14 S1432
S1432
T17 S256
T16 S1334
S1433
T16 S504
T17 S1400
T1 S1431
T14 S1434
S1434
T16 S1333
T17 S1401
T1 S1432
S1435
T1 S233
T17 S1360
T10 S1415
S1436
T5 S231
T17 S1378
T1 S1437
S1437
T5 S232
T17 S1379
S1438
T17 S1382
S1439
T3 S228
T17 S717
S1440
T1 S213
T5 S1098
S1441
T1 S202
T5 S1157
T20 S1440
S1442
T1 S117
T5 S1215
T19 S1384
S1443
T1 S83
T17 S93
T18 S266
T5 S1261
S1444
T1 S72
T18 S371
T5 S1260
T17 S1443
S1445
T13 S1422
S1446
T1 S55
T13 S1415
T11 S1447
T14 S1448
S1447
T1 S56
T13 S1416
S1448
T13 S1421
T1 S1445
S1449
T1 S1450
T15 S1453
S1450
T15 S1451
S1451
T16 S234
T14 S1452
S1452
T16 S1422
S1453
T16 S1415
T1 S1451
T14 S1454
S1454
T16 S1421
T1 S1452
S1455
S1456
T15 S1457
S1457
T16 S241
T1 S1458
T14 S1460
S1458
T16 S237
T14 S1459
S1459
T16 S1430
S1460
T16 S1429
T1 S1459
S1461
S1462
T1 S47
T10 S52
S1463
T1 S1461
S1464
T12 S1102
T8 S1463
S1465
T5 S45
S1466
S1467
T3 S42
