 Minimal siphons 
23 24
4 12 14 16 29 30 32
3 12 14 16 30 32
2 12 14 16 32
16 17
1 10 27
15 18
1 5
2 11 28
1 2 10 27
1 2 5
1 2 10 11 27
2 11 12 28
1 2 10 11 12 27
2 12 13 15 31
3 11 14 30
3 6
1 2 3 10 27
1 2 3 5
3 6 11 28
2 3 11 28
1 2 3 10 11 27
1 3 6 10 11 27
2 3 11 12 28
1 2 3 10 11 12 27
3 6 11 12 28
1 3 6 10 11 12 27
3 12 14 15 30 31
4 11 14 16 26 27 28 30
4 9 13 16 26
4 7
3 4 6
1 4 5 7
1 3 4 5 6
1 2 3 4 5
1 4 7 8
1 3 4 6 8
1 2 3 4 8
1 4 7 10 27
1 3 4 6 10 27
1 2 3 4 10 27
4 6 11 13 16 26 27 28
1 4 7 10 11 27
2 4 7 11 28
2 3 4 11 28
1 2 3 4 10 11 27
1 2 4 7 10 11 27
4 6 7 11 28
3 4 6 11 28
1 3 4 6 10 11 27
1 4 6 7 10 11 27
4 7 11 14 30
3 4 11 14 30
4 9 11 14 16 26 30
1 4 11 14 16 26 27 30
4 6 12 13 16 26 27 28 31
2 4 12 13 16 26 27 28 31
4 12 13 15 29
1 4 7 10 11 12 27
2 4 7 11 12 28
2 3 4 11 12 28
1 2 3 4 10 11 12 27
1 2 4 7 10 11 12 27
1 33 2 3 4 9 10 11 12 13 15 19
2 4 10 12 13 16 26 27 31
2 4 12 13 16 26 27 28 29
4 6 7 11 12 28
3 4 6 11 12 28
1 3 4 6 10 11 12 27
1 4 6 7 10 11 12 27
4 6 10 12 13 16 26 27 31
4 6 12 13 16 26 27 28 29
4 12 14 15 29 30
4 12 14 16 26 27 30 32
4 9 12 14 16 26 30 32
4 6 9 12 14 16 26 32
4 9 12 14 16 26 30 31
4 6 12 14 16 26 27 28 32
4 6 10 12 14 16 26 27 32
4 12 14 16 26 27 30 31
4 6 12 14 16 29 32
2 4 12 13 14 16 26 27 28 29
4 6 12 13 14 16 26 27 28 29
4 9 12 14 16 26 29 30
4 12 14 16 26 27 28 29 30
1 4 12 14 16 26 27 29 30
9 10 11 12 13 14 15 16 19 20 21 22 23 25
1 33 3 4 6 9 10 11 12 13 14 15 16 19 20 21 22 23
1 33 4 7 9 10 11 12 13 14 15 16 19 20 21 22 23
1 33 2 4 7 9 10 11 12 13 14 15 16 19 20 21 22 23
1 33 4 6 7 9 10 11 12 13 14 15 16 19 20 21 22 23
2 4 12 13 14 16 20 21 22 23 26 27 28 29
4 6 12 13 14 16 20 21 22 23 26 27 28 29
4 9 12 14 16 20 21 22 23 26 29 30
 Minimal traps 
1 9 13 15 26 27 30 31
2 11 13 15 30 31
3 11 13 15 29 30
4 12 13 15 29
15 18
23 24
16 17
9 10 11 12 13 14 15 16 19 20 21 22 23 25
15 16 17
4 7
4 9 13 16 26
3 6
3 4 7
3 11 14 30
3 9 11 13 16 26 30
3 11 13 14 30
3 11 13 14 15 18 30
3 11 13 14 15 16 17 30
2 12 13 15 31
2 3 6
2 3 4 7
2 12 14 15 18 32
2 12 14 16 32
2 12 14 15 16 32
2 6 9 12 13 16 26 32
2 12 13 14 16 32
2 4 7 12 13 14 16 32
2 6 12 13 14 16 32
2 6 12 13 15 29 32
2 12 13 14 15 18 32
2 12 13 14 15 16 32
2 4 7 12 13 14 15 18 32
2 4 7 12 13 14 15 16 32
2 6 12 13 14 15 18 32
2 6 12 13 14 15 16 32
2 11 28
2 11 14 16 30 32
2 11 14 16 17 28 30
2 3 11 14 16 17 30
2 11 14 15 16 17 28 30
2 3 11 14 15 16 17 30
2 9 11 13 16 26 30 32
2 11 13 14 16 30 32
2 11 13 14 28 30
2 3 11 13 14 30
2 11 13 14 16 28 32
2 11 12 13 14 16 32
2 11 13 14 16 17 28 30
2 3 11 13 14 16 17 30
2 4 7 11 12 13 14 15 18 32
2 4 7 11 12 13 14 15 16 32
2 6 11 12 13 14 15 18 32
2 6 11 12 13 14 15 16 32
2 4 7 11 13 14 15 18 28 32
2 4 7 11 13 14 15 16 28 32
2 6 11 13 14 15 18 28 32
2 6 11 13 14 15 16 28 32
2 11 13 15 29 30 32
2 11 13 14 15 18 30 32
2 11 13 14 15 16 30 32
2 11 13 14 15 16 17 28 30
2 3 11 13 14 15 16 17 30
2 11 13 14 15 18 28 30
2 3 11 13 14 15 18 30
1 10 27
1 5
1 2 11 13 15 30 31
1 2 12 13 15 31
1 2 3 6
1 2 3 4 8
1 2 3 4 7
1 2 12 14 15 18 32
1 2 12 14 16 32
1 2 12 14 15 16 32
1 2 12 13 14 16 32
1 2 6 12 13 15 29 32
1 2 4 12 13 15 29 32
1 2 12 13 14 15 18 32
1 2 12 13 14 15 16 32
1 2 4 8 12 13 14 15 18 32
1 2 4 7 12 13 14 15 18 32
1 2 4 7 12 13 14 15 16 32
1 2 4 8 12 13 14 15 16 32
1 2 3 4 12 13 15 29
1 2 6 12 13 14 15 18 32
1 2 6 12 13 14 15 16 32
1 2 3 6 12 13 15 29
1 2 11 14 15 18 30 32
1 2 11 28
1 2 11 14 16 30 32
1 2 11 14 28 30
1 2 3 11 14 30
1 2 11 14 16 28 32
1 2 11 12 14 16 32
1 2 11 14 16 17 28 30
1 2 3 11 14 16 17 30
1 2 11 14 15 16 30 32
1 2 11 14 15 16 28 32
1 2 11 12 14 15 16 32
1 2 11 14 15 16 17 28 30
1 2 3 11 14 15 16 17 30
1 2 11 14 15 18 28 32
1 2 11 12 14 15 18 32
1 2 11 14 15 18 28 30
1 2 3 11 14 15 18 30
1 2 11 13 14 16 30 32
1 2 11 13 14 28 30
1 2 3 11 13 14 30
1 2 11 13 14 16 28 32
1 2 11 12 13 14 16 32
1 2 11 13 14 16 17 28 30
1 2 3 11 13 14 16 17 30
1 2 11 13 15 28 31
1 2 11 12 13 15 31
1 2 6 11 12 13 15 29 32
1 2 4 11 12 13 15 29 32
1 2 11 12 13 14 15 18 32
1 2 11 12 13 14 15 16 32
1 2 4 8 11 12 13 14 15 18 32
1 2 4 7 11 12 13 14 15 18 32
1 2 4 7 11 12 13 14 15 16 32
1 2 4 8 11 12 13 14 15 16 32
1 2 3 4 11 12 13 15 29
1 2 6 11 12 13 14 15 18 32
1 2 6 11 12 13 14 15 16 32
1 2 3 6 11 12 13 15 29
1 2 6 11 13 15 28 29
1 2 4 11 13 15 28 29
1 2 11 13 14 15 18 28 32
1 2 11 13 14 15 16 28 32
1 2 4 8 11 13 14 15 18 28 32
1 2 4 7 11 13 14 15 18 28 32
1 2 4 7 11 13 14 15 16 28 32
1 2 4 8 11 13 14 15 16 28 32
1 2 6 11 13 14 15 18 28 32
1 2 6 11 13 14 15 16 28 32
1 2 11 13 15 29 30 32
1 2 11 13 14 15 18 30 32
1 2 11 13 14 15 16 30 32
1 2 11 13 14 15 16 17 28 30
1 2 3 11 13 14 15 16 17 30
1 2 11 13 14 15 18 28 30
1 2 3 11 13 14 15 18 30
1 2 11 13 15 28 29 30
1 2 3 11 13 15 29 30
1 5 10 11 13 15 30 31
1 2 10 11 13 15 30 31
1 2 10 11 14 15 18 30 32
1 2 10 11 28
1 2 10 11 14 16 30 32
1 2 10 11 14 28 30
1 2 3 10 11 14 30
1 2 10 11 14 16 28 32
1 2 10 11 12 14 16 32
1 2 10 11 14 16 17 28 30
1 2 3 10 11 14 16 17 30
1 2 10 11 14 15 16 30 32
1 2 10 11 14 15 16 28 32
1 2 10 11 12 14 15 16 32
1 2 10 11 14 15 16 17 28 30
1 2 3 10 11 14 15 16 17 30
1 2 10 11 14 15 18 28 32
1 2 10 11 12 14 15 18 32
1 2 10 11 14 15 18 28 30
1 2 3 10 11 14 15 18 30
1 2 10 11 13 14 16 30 32
1 2 10 11 13 14 28 30
1 2 3 10 11 13 14 30
1 2 10 11 13 14 16 28 32
1 2 10 11 12 13 14 16 32
1 2 10 11 13 14 16 17 28 30
1 2 3 10 11 13 14 16 17 30
1 2 10 11 13 15 28 31
1 2 10 11 12 13 15 31
1 2 6 10 11 12 13 15 29 32
1 2 4 10 11 12 13 15 29 32
1 2 10 11 12 13 14 15 18 32
1 2 10 11 12 13 14 15 16 32
1 2 4 8 10 11 12 13 14 15 18 32
1 2 4 7 10 11 12 13 14 15 18 32
1 2 4 7 10 11 12 13 14 15 16 32
1 2 4 8 10 11 12 13 14 15 16 32
1 2 3 4 10 11 12 13 15 29
1 2 6 10 11 12 13 14 15 18 32
1 2 6 10 11 12 13 14 15 16 32
1 2 3 6 10 11 12 13 15 29
1 2 6 10 11 13 15 28 29
1 2 4 10 11 13 15 28 29
1 2 10 11 13 14 15 18 28 32
1 2 10 11 13 14 15 16 28 32
1 2 4 8 10 11 13 14 15 18 28 32
1 2 4 7 10 11 13 14 15 18 28 32
1 2 4 7 10 11 13 14 15 16 28 32
1 2 4 8 10 11 13 14 15 16 28 32
1 2 6 10 11 13 14 15 18 28 32
1 2 6 10 11 13 14 15 16 28 32
1 2 10 11 13 15 29 30 32
1 2 10 11 13 14 15 18 30 32
1 2 10 11 13 14 15 16 30 32
1 2 10 11 13 14 15 16 17 28 30
1 2 3 10 11 13 14 15 16 17 30
1 2 10 11 13 14 15 18 28 30
1 2 3 10 11 13 14 15 18 30
1 2 10 11 13 15 28 29 30
1 2 3 10 11 13 15 29 30
1 5 10 11 14 15 18 30 32
1 5 10 11 28
1 5 10 11 14 16 30 32
1 5 10 11 14 28 30
1 3 5 10 11 14 30
1 5 10 11 14 16 28 32
1 5 10 11 12 14 16 32
1 5 10 11 14 16 17 28 30
1 3 5 10 11 14 16 17 30
1 5 10 11 14 15 16 30 32
1 5 10 11 14 15 16 28 32
1 5 10 11 12 14 15 16 32
1 5 10 11 14 15 16 17 28 30
1 3 5 10 11 14 15 16 17 30
1 5 10 11 14 15 18 28 32
1 5 10 11 12 14 15 18 32
1 5 10 11 14 15 18 28 30
1 3 5 10 11 14 15 18 30
1 5 10 11 13 14 16 30 32
1 5 10 11 13 14 28 30
1 3 5 10 11 13 14 30
1 5 10 11 13 14 16 28 32
1 5 10 11 12 13 14 16 32
1 5 10 11 13 14 16 17 28 30
1 3 5 10 11 13 14 16 17 30
1 5 10 11 13 15 28 31
1 5 10 11 12 13 15 31
1 5 6 10 11 12 13 15 29 32
1 4 5 10 11 12 13 15 29
1 5 10 11 12 13 14 15 18 32
1 5 10 11 12 13 14 15 16 32
1 4 5 8 10 11 12 13 14 15 18 32
1 4 5 7 10 11 12 13 14 15 18 32
1 4 5 7 10 11 12 13 14 15 16 32
1 4 5 8 10 11 12 13 14 15 16 32
1 5 6 10 11 12 13 14 15 18 32
1 5 6 10 11 12 13 14 15 16 32
1 3 5 6 10 11 12 13 15 29
1 5 6 10 11 13 15 28 29
1 4 5 10 11 13 15 28 29
1 5 10 11 13 14 15 18 28 32
1 5 10 11 13 14 15 16 28 32
1 4 5 8 10 11 13 14 15 18 28 32
1 4 5 7 10 11 13 14 15 18 28 32
1 4 5 7 10 11 13 14 15 16 28 32
1 4 5 8 10 11 13 14 15 16 28 32
1 5 6 10 11 13 14 15 18 28 32
1 5 6 10 11 13 14 15 16 28 32
1 5 10 11 13 15 29 30 32
1 5 10 11 13 14 15 18 30 32
1 5 10 11 13 14 15 16 30 32
1 5 10 11 13 14 15 16 17 28 30
1 3 5 10 11 13 14 15 16 17 30
1 5 10 11 13 14 15 18 28 30
1 3 5 10 11 13 14 15 18 30
1 5 10 11 13 15 28 29 30
1 3 5 10 11 13 15 29 30
1 9 10 27
1 33 2 9 10 11 30 32
1 2 9 10 11 28
1 33 2 9 10 11 12 32
1 33 2 3 9 10 11 30
1 5 9 10 11 28
1 9 13 16 26 27 30 32
1 33 9 13 26 27 30 32
1 33 2 9 11 13 26 30 32
1 33 2 6 9 12 13 26 32
1 33 2 4 9 12 13 26 32
1 33 2 3 4 9 13 26
1 33 2 3 9 11 13 26 30
1 33 6 9 13 26 27 28
1 33 4 9 13 26 27
1 33 6 9 12 13 26 27 32
1 33 9 13 26 27 28 30
1 33 3 9 13 26 27 30
1 33 9 10 13 16 20 21 22 23 25 27
1 9 10 13 14 16 20 21 22 23 25 27
1 6 9 13 16 26 27 28
1 6 9 12 13 16 26 27 32
1 9 13 16 26 27 28 30
1 3 9 13 16 26 27 30
1 33 2 4 9 10 11 12 13 15 32
1 33 2 3 4 9 10 11 12 13 15 19
1 33 2 4 9 10 11 13 15 28
1 33 4 5 9 10 11 12 13 15 32
1 33 4 5 9 10 11 12 13 15 19
1 33 4 5 9 10 11 13 15 28
1 33 9 10 13 15 27
1 9 10 13 14 15 16 20 21 22 23 25 27
1 33 9 10 13 14 15 20 21 22 23 25 27
1 33 4 9 10 12 13 15 27 32
1 33 4 9 10 12 13 15 19 27
1 33 4 9 10 13 15 27 28
1 6 9 13 15 26 27 28 31
1 4 9 13 15 26 27 28 31
1 4 9 12 13 15 26 27 31
1 4 9 13 15 26 27 28 29
1 6 9 12 13 15 26 27 31
1 6 9 12 13 15 26 27 29 32
1 6 9 13 15 26 27 28 29
1 9 13 15 26 27 29 30 32
1 9 13 15 26 27 28 29 30
1 3 9 13 15 26 27 29 30
 Analysis time: 3.144s