 Minimal siphons 
2 7 10 13 19 25 28 30
19 21
18 23
17 22
1 4 6 10 13 29 30
4 8
12 14
1 6 9 13 30
1 4 10 12 29
1 4 27
1 35 4 5
1 32 4 5 6 7 9 12 15
1 33 4 5 6 7 9 12 15
1 34 4 5 6 7 9 12 15
4 5 6 7 9 10 11 12 13 15 16 17 18 19 20 24
2 6 10 13 19 25 30
2 5 10 13 19 25
1 2 4 10 12 29
1 2 3
1 2 4 27
1 2 3 4 8
2 5 31
2 5 26
1 2 4 5 27
1 35 2 4 5
1 2 3 4 5 8
1 35 2 3 4 5
2 5 10 12 29 31
2 5 10 12 26 29
1 2 4 5 10 12 29
2 5 10 12 13 29 31
2 5 10 12 13 26 29
1 2 4 5 10 12 13 29
2 6 9 13 30 31
2 5 6 31
2 5 6 26
1 2 4 5 6 27
1 35 2 4 5 6
1 2 3 4 5 6 8
1 35 2 3 4 5 6
2 6 9 13 26 30
1 2 6 9 13 30
2 5 6 10 12 29 31
2 5 6 10 12 26 29
1 2 4 5 6 10 12 29
2 6 10 13 29 30 31
2 6 9 10 13 30 31
2 6 9 10 13 26 30
1 2 6 9 10 13 30
2 5 6 10 12 13 29 31
2 5 6 10 12 13 26 29
1 2 4 5 6 10 12 13 29
2 6 10 13 26 29 30
1 2 4 6 10 13 29 30
2 7 9 13 28 30
2 5 6 7 31
2 5 6 7 26
1 2 4 5 6 7 27
1 35 2 4 5 6 7
1 2 3 4 5 6 7 8
1 35 2 3 4 5 6 7
2 7 9 12 28
2 5 6 7 9 15 31
2 5 6 7 9 15 26
1 2 4 5 6 7 9 15 27
1 35 2 4 5 6 7 9 15
1 2 3 4 5 6 7 8 9 15
1 35 2 3 4 5 6 7 9 15
2 5 6 7 9 12 15 31
2 5 6 7 9 12 15 26
1 2 4 5 6 7 9 12 15 27
1 32 2 4 5 6 7 9 12 15
1 33 2 4 5 6 7 9 12 15
1 34 2 4 5 6 7 9 12 15
1 35 2 4 5 6 7 9 12 15
1 2 3 4 5 6 7 8 9 12 15
1 32 2 3 4 5 6 7 9 12 15
1 33 2 3 4 5 6 7 9 12 15
1 34 2 3 4 5 6 7 9 12 15
1 35 2 3 4 5 6 7 9 12 15
2 6 7 9 13 30 31
2 5 6 7 9 12 13 15 31
2 5 6 7 9 12 13 15 26
1 2 4 5 6 7 9 12 13 15 27
1 32 2 4 5 6 7 9 12 13 15
1 33 2 4 5 6 7 9 12 13 15
1 34 2 4 5 6 7 9 12 13 15
1 35 2 4 5 6 7 9 12 13 15
1 2 3 4 5 6 7 8 9 12 13 15
1 32 2 3 4 5 6 7 9 12 13 15
1 33 2 3 4 5 6 7 9 12 13 15
1 34 2 3 4 5 6 7 9 12 13 15
1 35 2 3 4 5 6 7 9 12 13 15
2 6 7 9 13 26 30
1 2 6 7 9 13 30
2 7 9 12 13 28
2 5 7 10 12 28 29 31
2 4 7 10 12 28 29
2 7 9 10 12 28
2 4 7 9 10 12 27 28
2 4 7 8 9 10 12 28
32 2 4 7 9 10 12 28
33 2 4 7 9 10 12 28
34 2 4 7 9 10 12 28
2 5 6 7 9 10 15 31
2 5 6 7 9 10 15 26
1 2 4 5 6 7 9 10 15 27
1 35 2 4 5 6 7 9 10 15
1 2 3 4 5 6 7 8 9 10 15
1 35 2 3 4 5 6 7 9 10 15
2 5 6 7 10 12 29 31
2 5 6 7 9 10 12 15 31
2 5 6 7 9 10 12 15 26
1 2 4 5 6 7 9 10 12 15 27
1 32 2 4 5 6 7 9 10 12 15
1 33 2 4 5 6 7 9 10 12 15
1 34 2 4 5 6 7 9 10 12 15
1 35 2 4 5 6 7 9 10 12 15
1 2 3 4 5 6 7 8 9 10 12 15
1 32 2 3 4 5 6 7 9 10 12 15
1 33 2 3 4 5 6 7 9 10 12 15
1 34 2 3 4 5 6 7 9 10 12 15
1 35 2 3 4 5 6 7 9 10 12 15
2 5 6 7 10 12 26 29
1 2 4 5 6 7 10 12 29
2 5 7 9 10 12 28 31
2 5 7 9 10 12 26 28
2 4 5 7 9 10 12 27 28
2 4 5 7 8 9 10 12 28
32 2 4 5 7 9 10 12 28
33 2 4 5 7 9 10 12 28
34 2 4 5 7 9 10 12 28
35 2 4 5 7 9 10 12 28
2 5 7 10 12 26 28 29
2 4 5 7 10 12 28 29
2 7 10 13 28 29 30 31
2 6 7 10 13 29 30 31
2 6 7 9 10 13 30 31
2 5 6 7 9 10 12 13 15 31
2 5 6 7 9 10 12 13 15 26
1 2 4 5 6 7 9 10 12 13 15 27
1 2 3 4 5 6 7 8 9 10 12 13 15
1 32 2 4 5 6 7 9 10 12 13 15
1 33 2 4 5 6 7 9 10 12 13 15
1 34 2 4 5 6 7 9 10 12 13 15
1 35 2 4 5 6 7 9 10 12 13 15
1 32 2 3 4 5 6 7 9 10 12 13 15
1 33 2 3 4 5 6 7 9 10 12 13 15
1 34 2 3 4 5 6 7 9 10 12 13 15
1 35 2 3 4 5 6 7 9 10 12 13 15
2 6 7 9 10 13 26 30
1 2 6 7 9 10 13 30
2 5 6 7 10 12 13 29 31
2 5 6 7 10 12 13 26 29
1 2 4 5 6 7 10 12 13 29
2 6 7 10 13 26 29 30
1 2 4 6 7 10 13 29 30
2 7 9 10 13 28 30
2 7 9 10 12 13 28
2 5 7 10 12 13 28 29 31
2 4 7 10 12 13 28 29
2 5 7 10 12 13 26 28 29
2 4 5 7 10 12 13 28 29
2 7 10 13 26 28 29 30
2 4 7 10 13 28 29 30
 Minimal traps 
17 22
18 23
1 4 9 12 19 25 29 30
4 8
2 7 9 12 28
19 21
12 14
2 5 31
2 5 26
2 5 10 13 19 25
2 4 5 31
2 4 5 26
1 5 9 12 19 25 28 30
1 6 9 12 28 30
1 2 7 9 12 28
1 2 3
1 6 9 13 30
1 6 9 12 14 30
1 6 9 12 13 30
1 2 6 7 9 12 28
1 2 5 31
1 2 5 26
1 5 9 13 19 25 30
1 5 9 13 30 31
1 5 9 13 26 30
1 5 9 12 28 30 31
1 5 9 12 26 28 30
1 4 10 12 29
1 32 4 12 29
1 33 4 12 29
1 34 4 12 29
1 4 27
1 2 4 8 31
1 35 4 8
1 35 4 5
1 2 4 5 31
1 2 4 5 26
1 35 2 3 4 5
1 2 4 8 26
1 2 3 4 8
1 34 4 5 19 25
1 34 4 5 31
1 34 4 5 26
1 34 4 5 19 20 24 31
1 34 4 5 19 20 24 26
1 34 4 5 12 31
1 34 4 5 12 26
1 35 34 4 5 12
1 34 4 5 12 19 20 24 31
1 34 4 5 12 19 20 24 26
1 35 34 4 5 12 19 20 24
1 33 4 5 19 25
1 33 4 5 31
1 33 4 5 26
1 33 4 5 19 20 24 31
1 33 4 5 19 20 24 26
1 33 4 5 12 31
1 33 4 5 12 26
1 35 33 4 5 12
1 33 4 5 12 19 20 24 31
1 33 4 5 12 19 20 24 26
1 35 33 4 5 12 19 20 24
1 32 4 5 19 25
1 32 4 5 31
1 32 4 5 26
1 32 4 5 19 20 24 31
1 32 4 5 19 20 24 26
1 32 4 5 12 31
1 32 4 5 12 26
1 35 32 4 5 12
1 32 4 5 12 19 20 24 31
1 32 4 5 12 19 20 24 26
1 35 32 4 5 12 19 20 24
1 34 4 5 6 9 30
1 33 4 5 6 9 30
1 32 4 5 6 9 30
1 4 9 12 29 30 31
1 34 4 5 6 7 9 12 15
1 33 4 5 6 7 9 12 15
1 32 4 5 6 7 9 12 15
1 34 4 5 6 7 9 12 28
1 33 4 5 6 7 9 12 28
1 32 4 5 6 7 9 12 28
1 4 7 9 12 28 29
1 4 9 12 26 29 30
1 4 6 9 12 29 30
1 35 4 9 12 29 30
4 8 18 19 20 24
2 4 5 18 19 20 24 31
2 4 5 18 19 20 24 26
2 4 8 18 19 20 24 31
2 4 8 18 19 20 24 26
1 4 18 19 20 24 27
1 2 4 8 18 19 20 24 31
1 35 4 8 18 19 20 24
1 35 4 5 18 19 20 24
1 2 4 5 18 19 20 24 31
1 2 4 5 18 19 20 24 26
1 35 2 3 4 5 18 19 20 24
1 2 4 8 18 19 20 24 26
1 2 3 4 8 18 19 20 24
1 34 4 5 18 19 20 24 31
1 34 4 5 18 19 20 24 26
1 34 4 12 18 19 20 24 27
1 34 4 8 12 18 19 20 24
1 34 4 5 12 18 19 20 24 31
1 34 4 5 12 18 19 20 24 26
1 35 34 4 5 12 18 19 20 24
1 33 4 5 18 19 20 24 31
1 33 4 5 18 19 20 24 26
1 33 4 12 18 19 20 24 27
1 33 4 8 12 18 19 20 24
1 33 4 5 12 18 19 20 24 31
1 33 4 5 12 18 19 20 24 26
1 35 33 4 5 12 18 19 20 24
1 32 4 5 18 19 20 24 31
1 32 4 5 18 19 20 24 26
1 32 4 12 18 19 20 24 27
1 32 4 8 12 18 19 20 24
1 32 4 5 12 18 19 20 24 31
1 32 4 5 12 18 19 20 24 26
1 35 32 4 5 12 18 19 20 24
4 8 17 18 19 20 24
4 5 6 7 9 10 11 12 13 15 16 17 18 19 20 24
2 4 5 17 18 19 20 24 31
2 4 5 17 18 19 20 24 26
2 4 8 17 18 19 20 24 31
2 4 8 17 18 19 20 24 26
1 4 17 18 19 20 24 27
1 2 4 8 17 18 19 20 24 31
1 35 4 8 17 18 19 20 24
1 35 4 5 17 18 19 20 24
1 2 4 5 17 18 19 20 24 31
1 2 4 5 17 18 19 20 24 26
1 35 2 3 4 5 17 18 19 20 24
1 2 4 8 17 18 19 20 24 26
1 2 3 4 8 17 18 19 20 24
1 34 4 5 17 18 19 20 24 31
1 34 4 5 17 18 19 20 24 26
1 34 4 12 17 18 19 20 24 27
1 34 4 8 12 17 18 19 20 24
1 34 4 5 12 17 18 19 20 24 31
1 34 4 5 12 17 18 19 20 24 26
1 35 34 4 5 12 17 18 19 20 24
1 33 4 5 17 18 19 20 24 31
1 33 4 5 17 18 19 20 24 26
1 33 4 12 17 18 19 20 24 27
1 33 4 8 12 17 18 19 20 24
1 33 4 5 12 17 18 19 20 24 31
1 33 4 5 12 17 18 19 20 24 26
1 35 33 4 5 12 17 18 19 20 24
1 32 4 5 17 18 19 20 24 31
1 32 4 5 17 18 19 20 24 26
1 32 4 12 17 18 19 20 24 27
1 32 4 8 12 17 18 19 20 24
1 32 4 5 12 17 18 19 20 24 31
1 32 4 5 12 17 18 19 20 24 26
1 35 32 4 5 12 17 18 19 20 24
1 34 4 5 10 11 16 17 18 19 20 24 31
1 34 4 5 10 11 16 17 18 19 20 24 26
1 33 4 5 10 11 16 17 18 19 20 24 31
1 33 4 5 10 11 16 17 18 19 20 24 26
1 32 4 5 10 11 16 17 18 19 20 24 31
1 32 4 5 10 11 16 17 18 19 20 24 26
 Analysis time: 4.657s