 Minimal siphons 
2 9 18 23 24 26 28 29
18 21
1 8 13 23 24 27 30
17 22
13 16
8 11
7 10
7 8 9 12
1 7 24 27
1 5
1 5 7 10
1 5 7 8 9 12
1 5 7 8 10
1 5 7 8 9 10
1 5 8 11
1 8 13 20 23 30
1 33 7 8 13 17 23
1 32 7 8 13 17 23
13 14 15 17 18 19 20 23 24 25
1 36 7 13 14 15 17 18 19 20 23
1 34 7 8 13 14 15 17 18 19 20 23
2 8 24 29
2 4
1 2 7 24 27
1 2 3 6
1 2 5
1 2 3 5
1 2 3 6 7 10
1 2 5 7 10
1 2 3 5 7 10
2 8 14 18 23 28
2 4 8 13 20 23 30
1 2 8 13 20 23 30
1 2 3 6 8 11
1 2 5 8 11
1 2 5 7 8 10
1 2 3 5 8 11
1 2 3 5 7 8 10
1 2 3 6 7 8 10
1 2 3 6 8 11 13 16
1 2 5 8 11 13 16
1 2 5 7 8 10 13 16
1 2 3 5 8 11 13 16
1 2 3 5 7 8 10 13 16
1 2 3 6 7 8 10 13 16
1 35 2 7 8 13 17 23
1 31 2 7 8 13 17 23
2 4 8 11
2 4 7 8 10
2 4 8 11 13 16
2 4 7 8 10 13 16
1 2 3 6 8 11 13 14 16
1 2 5 8 11 13 14 16
1 2 5 7 8 10 13 14 16
1 2 3 5 8 11 13 14 16
1 2 3 5 7 8 10 13 14 16
1 2 3 6 7 8 10 13 14 16
2 4 8 11 13 14 16
2 4 7 8 10 13 14 16
2 8 14 18 20 22 28 30
2 8 14 16 18 22 28
2 8 18 23 24 27 28
2 8 18 22 24 27 28 30
2 8 16 18 22 24 27 28
2 9 13 23 26
2 4 8 9 11
1 2 3 6 8 9 11
1 2 5 8 9 11
1 2 5 7 8 9 12
1 2 5 7 8 9 10
1 2 3 5 8 9 11
1 2 3 5 7 8 9 12
1 2 3 5 7 8 9 10
1 2 3 6 7 8 9 12
1 2 3 6 7 8 9 10
2 4 7 8 9 12
2 4 7 8 9 10
2 9 18 22 24 26 28 29
2 9 14 18 22 26 28
2 9 18 22 24 26 27 28
2 9 14 18 23 26 28
2 9 18 23 24 26 27 28
 Minimal traps 
1 7 20 22 23 27 28 30
7 10
2 8 22 23 26 28
17 22
18 21
13 16
8 11
13 14 15 17 18 19 20 23 24 25
2 9 23 26
2 4
2 8 18 23 26 28
2 8 15 24 29
2 4 8 11
2 8 15 18 19 20 24 29
2 8 16 18 23 28
2 8 14 18 23 28
2 8 16 22 23 28
2 8 14 22 23 28
7 8 11
7 8 9 12
2 4 7 8 9 12
2 4 7 8 11
2 7 8 15 18 19 20 24 29
1 8 20 23 30
1 5
1 2 4
1 2 3 6
1 2 4 8 11
1 2 3 6 8 11
1 5 8 15 20 24 29
1 2 8 15 20 24 29
1 7 22 23 24 26 27 28
1 7 18 23 24 26 27 28
1 31 7 23 24 27 28
1 32 7 23 24 27 28
1 33 7 23 24 27 28
1 34 7 23 26 27 28
1 35 7 23 24 27 28
1 7 15 24 27
1 36 7 11 23 26
1 36 7 9 23 26
1 2 4 7 8 9 12
1 2 3 6 7 8 9 12
1 2 4 7 8 11
1 2 3 6 7 8 11
1 2 4 7 10
1 2 3 6 7 10
1 2 4 7 9 10 12
1 2 3 6 7 9 10 12
1 2 4 7 10 11
1 2 3 6 7 10 11
1 5 7 8 9 12
1 36 7 15 23 26 29
1 36 35 7 23
1 35 2 7 8 23
1 36 35 7 15 23 24 29
1 36 35 2 7 15 23 24 29
1 36 35 5 7 15 23 24 29
1 34 7 16 23 27 28
1 34 7 14 23 27 28
1 35 34 7 23 27 28
1 34 7 15 23 27
1 34 7 8 23
1 36 34 7 23
1 35 34 7 8 23
1 35 34 7 15 23 27
1 34 7 15 23 26 27
1 34 33 7 23 27 28
1 36 33 7 23
1 33 7 8 23
1 36 33 7 15 23 24 29
1 34 32 7 23 27 28
1 36 32 7 23
1 32 7 8 23
1 36 32 7 15 23 24 29
1 34 31 7 23 27 28
1 36 31 7 23
1 31 2 7 8 23
1 36 31 7 15 23 24 29
1 36 34 31 7 15 23 24 29
1 36 33 31 7 15 23 24 29
1 36 32 31 7 15 23 24 29
1 36 31 2 7 15 23 24 29
1 36 31 5 7 15 23 24 29
1 36 7 18 23 26 28
1 36 7 16 18 23 28
1 36 7 14 18 23 28
1 36 31 7 18 21 23 26
1 36 32 7 18 21 23 26
1 36 33 7 18 21 23 26
1 36 35 7 18 21 23 26
1 7 16 18 23 24 27 28
1 7 14 18 23 24 27 28
1 36 7 22 23 26 28
1 36 7 16 22 23 28
1 36 7 14 22 23 28
1 36 7 11 22 23 26
1 36 7 9 22 23 26
1 36 31 7 22 23 26
1 36 32 7 22 23 26
1 36 33 7 22 23 26
1 36 35 7 22 23 26
1 36 34 7 14 15 22 23
1 36 34 7 16 22 23
1 36 34 7 22 23 26
1 7 16 22 23 24 27 28
1 7 14 22 23 24 27 28
1 36 34 7 14 15 22 23 24 29
1 36 34 7 14 15 22 23 24 25
1 36 33 7 14 15 22 23 24 29
1 36 33 7 14 15 22 23 24 25
1 36 32 7 14 15 22 23 24 29
1 36 32 7 14 15 22 23 24 25
1 36 34 7 15 16 22 23 24 29
1 36 34 7 16 22 23 24 25
1 36 34 7 15 16 22 23 24 25
1 36 33 7 15 16 22 23 24 29
1 36 33 7 16 22 23 24 25
1 36 33 7 15 16 22 23 24 25
1 36 32 7 15 16 22 23 24 29
1 36 32 7 16 22 23 24 25
1 36 32 7 15 16 22 23 24 25
1 36 31 2 7 13 16 22 23 24 25
1 36 35 2 7 13 16 22 23 24 25
1 36 34 7 22 23 24 25 26
1 36 34 7 15 22 23 24 25 26
1 36 33 7 22 23 24 25 26
1 36 33 7 15 22 23 24 25 26
1 36 32 7 22 23 24 25 26
1 36 32 7 15 22 23 24 25 26
1 7 18 20 23 27 28 30
1 31 7 20 23 27 28 30
1 32 7 20 23 27 28 30
1 33 7 20 23 27 28 30
1 34 7 20 23 27 28 30
1 35 7 20 23 27 28 30
1 7 15 20 23 27 30
1 36 7 20 23 30
1 7 15 20 24 27
1 5 7 10 15 20 24 29
1 2 7 10 15 20 24 29
1 2 7 8 15 20 24 29
1 5 7 8 15 20 24 29
1 36 35 7 20 23
1 36 35 7 15 20 23 27
1 34 7 8 20 23
1 36 34 7 20 23
1 34 7 15 20 23 27
1 35 34 7 20 23 27 28
1 36 33 7 20 23
1 36 33 7 15 20 23 27
1 34 33 7 20 23 27 28
1 36 32 7 20 23
1 36 32 7 15 20 23 27
1 34 32 7 20 23 27 28
1 36 31 7 20 23
1 36 31 7 15 20 23 27
1 34 31 7 20 23 27 28
1 7 15 18 19 20 24 27
1 5 7 10 15 18 19 20 24 29
1 2 7 10 15 18 19 20 24 29
1 2 7 8 15 18 19 20 24 29
1 5 7 8 15 18 19 20 24 29
1 36 7 13 14 15 17 18 19 20 23
1 36 33 7 8 18 19 20 23
1 36 33 7 8 15 18 19 20 23
1 36 32 7 8 18 19 20 23
1 36 32 7 8 15 18 19 20 23
1 36 33 2 4 7 8 18 19 20 23
1 36 33 2 3 6 7 8 18 19 20 23
1 36 35 33 2 7 8 18 19 20 23
1 36 32 2 4 7 8 18 19 20 23
1 36 32 2 3 6 7 8 18 19 20 23
1 36 35 32 2 7 8 18 19 20 23
1 36 31 2 7 8 9 12 18 19 20 23
1 36 35 2 7 8 9 12 18 19 20 23
1 36 31 2 7 8 11 18 19 20 23
1 36 35 2 7 8 11 18 19 20 23
1 36 33 7 8 18 20 23 28
1 36 32 7 8 18 20 23 28
1 36 33 7 10 18 19 20 23
1 36 33 7 10 15 18 19 20 23
1 36 32 7 10 18 19 20 23
1 36 32 7 10 15 18 19 20 23
1 36 33 2 4 7 10 18 19 20 23
1 36 33 2 3 6 7 10 18 19 20 23
1 36 35 33 2 7 10 18 19 20 23
1 36 32 2 4 7 10 18 19 20 23
1 36 32 2 3 6 7 10 18 19 20 23
1 36 35 32 2 7 10 18 19 20 23
1 36 31 2 7 9 10 12 18 19 20 23
1 36 35 2 7 9 10 12 18 19 20 23
1 36 31 2 7 10 11 18 19 20 23
1 36 35 2 7 10 11 18 19 20 23
1 36 33 7 10 18 20 23 28
1 36 32 7 10 18 20 23 28
1 36 31 7 8 13 16 20 22 23
1 36 35 7 8 13 16 20 22 23
1 36 33 7 8 20 22 23
1 36 32 7 8 20 22 23
1 36 31 2 7 8 13 16 20 22 23
1 36 35 2 7 8 13 16 20 22 23
1 36 31 2 3 6 7 8 13 16 20 22 23
1 36 32 2 3 6 7 8 13 16 20 22 23
1 36 33 2 3 6 7 8 13 16 20 22 23
1 36 35 2 3 6 7 8 13 16 20 22 23
1 36 31 2 4 7 8 13 16 20 22 23
1 36 32 2 4 7 8 13 16 20 22 23
1 36 33 2 4 7 8 13 16 20 22 23
1 36 35 2 4 7 8 13 16 20 22 23
1 36 31 5 7 8 13 16 20 22 23
1 36 32 5 7 8 13 16 20 22 23
1 36 33 5 7 8 13 16 20 22 23
1 36 35 5 7 8 13 16 20 22 23
1 36 33 7 10 20 22 23
1 36 32 7 10 20 22 23
1 36 31 2 7 10 13 16 20 22 23
1 36 35 2 7 10 13 16 20 22 23
 Analysis time: 10.046s