20/09/2021 21:00:24[DEBUG] pflow_file:  ../test_networks/20210910-223922_26/net.pflow  
20/09/2021 21:00:24[DEBUG] output_folder:  ../test_networks/20210910-223922_26/  
20/09/2021 21:00:24[DEBUG] html_path:  ../test_networks/20210910-223922_26/  
20/09/2021 21:00:24[DEBUG] txt_path:  ../test_networks/20210910-223922_26/txt_info  

--------------------------------------------------------------------------   
20/09/2021 21:00:24[INFO] Ejecutando petrinator para conocer estado de la red...   
--------------------------------------------------------------------------
   
20/09/2021 21:00:39[INFO] SIFONES   
+----+-----+-------------------------------------------+
| ID | Nro |                   Plazas                  |
+----+-----+-------------------------------------------+
| 0  |  4  | ['P7', 'P15', 'P20', 'P27', 'P29', 'P30'] |
| 1  |  12 |     ['P7', 'P9', 'P15', 'P27', 'P30']     |
| 2  |  30 |  ['P2', 'P5', 'P16', 'P20', 'P27', 'P34'] |
+----+-----+-------------------------------------------+ 

20/09/2021 21:00:39[INFO] T INVARIANTES   
+----+----+----+----+----+----+----+----+----+----+-----+-----+-----+-----+-----+-----+-----+-----+-----+-----+-----+
| T0 | T1 | T2 | T3 | T4 | T5 | T6 | T7 | T8 | T9 | T10 | T11 | T12 | T13 | T14 | T15 | T16 | T17 | T18 | T19 | T20 |
+----+----+----+----+----+----+----+----+----+----+-----+-----+-----+-----+-----+-----+-----+-----+-----+-----+-----+
| 1  | 1  | 1  | 0  | 0  | 0  | 0  | 0  | 1  | 1  |  0  |  0  |  0  |  0  |  0  |  0  |  0  |  0  |  0  |  0  |  0  |
| 0  | 0  | 0  | 1  | 1  | 1  | 1  | 1  | 1  | 1  |  0  |  0  |  0  |  0  |  0  |  0  |  0  |  0  |  0  |  0  |  0  |
| 0  | 0  | 0  | 0  | 0  | 0  | 0  | 0  | 0  | 0  |  1  |  1  |  1  |  1  |  0  |  0  |  0  |  0  |  0  |  1  |  1  |
| 0  | 0  | 0  | 0  | 0  | 0  | 0  | 0  | 0  | 0  |  0  |  0  |  0  |  0  |  1  |  1  |  1  |  1  |  1  |  1  |  1  |
+----+----+----+----+----+----+----+----+----+----+-----+-----+-----+-----+-----+-----+-----+-----+-----+-----+-----+ 

20/09/2021 21:00:39[INFO] Supervisores para agregar   
+-----+---------+---------------+---------------+-------------------------------------------+
|  ID | Marcado |  T - Entrada  |   T - Salida  |             Sifon a controlar             |
+-----+---------+---------------+---------------+-------------------------------------------+
| P35 |    2    | ['T7', 'T12'] | ['T5', 'T11'] | ['P7', 'P15', 'P20', 'P27', 'P29', 'P30'] |
| P35 |    2    | ['T7', 'T12'] | ['T5', 'T11'] |     ['P7', 'P9', 'P15', 'P27', 'P30']     |
| P35 |    1    | ['T5', 'T13'] | ['T4', 'T12'] |  ['P2', 'P5', 'P16', 'P20', 'P27', 'P34'] |
+-----+---------+---------------+---------------+-------------------------------------------+ 

20/09/2021 21:00:39[INFO] Supervisores agregados   
+-----+-------+---------+-------------+------------+----------------+
| Nro | Plaza | Marcado | T - Entrada | T - Salida | MAL supervisor |
+-----+-------+---------+-------------+------------+----------------+
+-----+-------+---------+-------------+------------+----------------+ 

20/09/2021 21:00:39[INFO] Supervisores eliminados   
+-----+-------+---------+-------------+------------+----------------+
| Nro | Plaza | Marcado | T - Entrada | T - Salida | MAL supervisor |
+-----+-------+---------+-------------+------------+----------------+
+-----+-------+---------+-------------+------------+----------------+ 

20/09/2021 21:00:39[INFO] Ejecutando accion...   
20/09/2021 21:00:39[ACTION] Agrego supervisor con menor numero de arcos de salida (MNAS)   
20/09/2021 21:00:39[INFO] Supervisor con menor cantidad de arcos de salida agregado 0   

--------------------------------------------------------------------------   
20/09/2021 21:00:39[INFO] Ejecutando petrinator para conocer estado de la red...   
--------------------------------------------------------------------------
   
--------------------------------------------------------------------------
   
20/09/2021 21:00:59[INFO] Calculando recompensa..   
20/09/2021 21:00:59[REWARD] Agregue un supervisor que genero menos sifones vacios en deadlock, recompensa -1   

--------------------------------------------------------------------------
   
20/09/2021 21:00:59[STATE] Cambie al estado 2: Hay menos sifones vacios en deadlock   
+--------+---------+-------------------+----------------+---------+---------+------------------------+
| Plazas | Estados | Tokens trabajando | Sifones vacios | Sifones | Trampas | Supervisores agregados |
+--------+---------+-------------------+----------------+---------+---------+------------------------+
|   35   |   278   |        710        |       1        |   123   |    85   |           1            |
+--------+---------+-------------------+----------------+---------+---------+------------------------+ 
+------------------------------+------------+-----------------+--------------------+-----------------------+
|       Estados/Acciones       | + sup MNAS | + sup aleatorio | - sup MAL agregado | - ultimo sup agregado |
+------------------------------+------------+-----------------+--------------------+-----------------------+
|            Start             |    -1.0    |       0.0       |        0.0         |          0.0          |
| + sifónes vacíos en deadlock |    0.0     |       0.0       |        0.0         |          0.0          |
| - sifónes vacíos en deadlock |    0.0     |       0.0       |        0.0         |          0.0          |
| = sifónes vacíos en deadlock |    0.0     |       0.0       |        0.0         |          0.0          |
|             End              |    0.0     |       0.0       |        0.0         |          0.0          |
+------------------------------+------------+-----------------+--------------------+-----------------------+ 

20/09/2021 21:00:59[INFO] SIFONES   
+----+-----+------------------------------------------+
| ID | Nro |                  Plazas                  |
+----+-----+------------------------------------------+
| 3  |  46 | ['P2', 'P5', 'P16', 'P20', 'P27', 'P34'] |
+----+-----+------------------------------------------+ 

20/09/2021 21:00:59[INFO] T INVARIANTES   
+----+----+----+----+----+----+----+----+----+----+-----+-----+-----+-----+-----+-----+-----+-----+-----+-----+-----+
| T0 | T1 | T2 | T3 | T4 | T5 | T6 | T7 | T8 | T9 | T10 | T11 | T12 | T13 | T14 | T15 | T16 | T17 | T18 | T19 | T20 |
+----+----+----+----+----+----+----+----+----+----+-----+-----+-----+-----+-----+-----+-----+-----+-----+-----+-----+
| 1  | 1  | 1  | 0  | 0  | 0  | 0  | 0  | 1  | 1  |  0  |  0  |  0  |  0  |  0  |  0  |  0  |  0  |  0  |  0  |  0  |
| 0  | 0  | 0  | 1  | 1  | 1  | 1  | 1  | 1  | 1  |  0  |  0  |  0  |  0  |  0  |  0  |  0  |  0  |  0  |  0  |  0  |
| 0  | 0  | 0  | 0  | 0  | 0  | 0  | 0  | 0  | 0  |  1  |  1  |  1  |  1  |  0  |  0  |  0  |  0  |  0  |  1  |  1  |
| 0  | 0  | 0  | 0  | 0  | 0  | 0  | 0  | 0  | 0  |  0  |  0  |  0  |  0  |  1  |  1  |  1  |  1  |  1  |  1  |  1  |
+----+----+----+----+----+----+----+----+----+----+-----+-----+-----+-----+-----+-----+-----+-----+-----+-----+-----+ 

20/09/2021 21:00:59[INFO] Supervisores para agregar   
+-----+---------+---------------+---------------+------------------------------------------+
|  ID | Marcado |  T - Entrada  |   T - Salida  |            Sifon a controlar             |
+-----+---------+---------------+---------------+------------------------------------------+
| P36 |    1    | ['T5', 'T13'] | ['T4', 'T12'] | ['P2', 'P5', 'P16', 'P20', 'P27', 'P34'] |
+-----+---------+---------------+---------------+------------------------------------------+ 

20/09/2021 21:00:59[INFO] Supervisores agregados   
+-----+-------+---------+---------------+---------------+----------------+
| Nro | Plaza | Marcado |  T - Entrada  |   T - Salida  | MAL supervisor |
+-----+-------+---------+---------------+---------------+----------------+
|  1  |  P35  |    2    | ['T7', 'T12'] | ['T5', 'T11'] |     False      |
+-----+-------+---------+---------------+---------------+----------------+ 

20/09/2021 21:00:59[INFO] Supervisores eliminados   
+-----+-------+---------+-------------+------------+----------------+
| Nro | Plaza | Marcado | T - Entrada | T - Salida | MAL supervisor |
+-----+-------+---------+-------------+------------+----------------+
+-----+-------+---------+-------------+------------+----------------+ 

20/09/2021 21:00:59[INFO] Ejecutando accion...   
20/09/2021 21:00:59[ACTION] Agrego supervisor con menor numero de arcos de salida (MNAS)   
20/09/2021 21:00:59[INFO] Supervisor con menor cantidad de arcos de salida agregado 0   

--------------------------------------------------------------------------   
20/09/2021 21:00:59[INFO] Ejecutando petrinator para conocer estado de la red...   
--------------------------------------------------------------------------
   
--------------------------------------------------------------------------
   
20/09/2021 21:01:27[INFO] Calculando recompensa..   
20/09/2021 21:01:27[REWARD] Agregue un supervisor que genero mas sifones vacios en deadlock, recompensa -10   

--------------------------------------------------------------------------
   
20/09/2021 21:01:27[STATE] Cambie al estado 1: Hay mas sifones vacios en deadlock   
+--------+---------+-------------------+----------------+---------+---------+------------------------+
| Plazas | Estados | Tokens trabajando | Sifones vacios | Sifones | Trampas | Supervisores agregados |
+--------+---------+-------------------+----------------+---------+---------+------------------------+
|   35   |   278   |        710        |       1        |   123   |    85   |           1            |
|   36   |   272   |        693        |       13       |   239   |   125   |           2            |
+--------+---------+-------------------+----------------+---------+---------+------------------------+ 
+------------------------------+------------+-----------------+--------------------+-----------------------+
|       Estados/Acciones       | + sup MNAS | + sup aleatorio | - sup MAL agregado | - ultimo sup agregado |
+------------------------------+------------+-----------------+--------------------+-----------------------+
|            Start             |    -1.0    |       0.0       |        0.0         |          0.0          |
| + sifónes vacíos en deadlock |    0.0     |       0.0       |        0.0         |          0.0          |
| - sifónes vacíos en deadlock |   -10.0    |       0.0       |        0.0         |          0.0          |
| = sifónes vacíos en deadlock |    0.0     |       0.0       |        0.0         |          0.0          |
|             End              |    0.0     |       0.0       |        0.0         |          0.0          |
+------------------------------+------------+-----------------+--------------------+-----------------------+ 

20/09/2021 21:01:27[INFO] SIFONES   
+----+-----+----------------------------------------------------------------------------+
| ID | Nro |                                   Plazas                                   |
+----+-----+----------------------------------------------------------------------------+
| 4  |  18 |                     ['P7', 'P15', 'P30', 'P35', 'P36']                     |
| 5  |  19 |                  ['P5', 'P7', 'P15', 'P30', 'P35', 'P36']                  |
| 6  |  38 |           ['P1', 'P7', 'P15', 'P18', 'P30', 'P33', 'P35', 'P36']           |
| 7  |  41 |       ['P1', 'P7', 'P15', 'P18', 'P19', 'P30', 'P33', 'P35', 'P36']        |
| 8  |  46 |        ['P1', 'P5', 'P7', 'P15', 'P18', 'P30', 'P33', 'P35', 'P36']        |
| 9  |  52 |    ['P1', 'P5', 'P7', 'P15', 'P18', 'P19', 'P30', 'P33', 'P35', 'P36']     |
| 10 |  60 |                 ['P7', 'P15', 'P16', 'P30', 'P35', 'P36']                  |
| 11 |  61 |              ['P5', 'P7', 'P15', 'P16', 'P30', 'P35', 'P36']               |
| 12 |  74 |       ['P1', 'P7', 'P15', 'P16', 'P18', 'P30', 'P33', 'P35', 'P36']        |
| 13 |  77 |    ['P1', 'P7', 'P15', 'P16', 'P18', 'P19', 'P30', 'P33', 'P35', 'P36']    |
| 14 |  82 |    ['P1', 'P5', 'P7', 'P15', 'P16', 'P18', 'P30', 'P33', 'P35', 'P36']     |
| 15 |  88 | ['P1', 'P5', 'P7', 'P15', 'P16', 'P18', 'P19', 'P30', 'P33', 'P35', 'P36'] |
| 16 | 169 |           ['P2', 'P7', 'P16', 'P20', 'P30', 'P34', 'P35', 'P36']           |
+----+-----+----------------------------------------------------------------------------+ 

20/09/2021 21:01:27[INFO] T INVARIANTES   
+----+----+----+----+----+----+----+----+----+----+-----+-----+-----+-----+-----+-----+-----+-----+-----+-----+-----+
| T0 | T1 | T2 | T3 | T4 | T5 | T6 | T7 | T8 | T9 | T10 | T11 | T12 | T13 | T14 | T15 | T16 | T17 | T18 | T19 | T20 |
+----+----+----+----+----+----+----+----+----+----+-----+-----+-----+-----+-----+-----+-----+-----+-----+-----+-----+
| 1  | 1  | 1  | 0  | 0  | 0  | 0  | 0  | 1  | 1  |  0  |  0  |  0  |  0  |  0  |  0  |  0  |  0  |  0  |  0  |  0  |
| 0  | 0  | 0  | 1  | 1  | 1  | 1  | 1  | 1  | 1  |  0  |  0  |  0  |  0  |  0  |  0  |  0  |  0  |  0  |  0  |  0  |
| 0  | 0  | 0  | 0  | 0  | 0  | 0  | 0  | 0  | 0  |  1  |  1  |  1  |  1  |  0  |  0  |  0  |  0  |  0  |  1  |  1  |
| 0  | 0  | 0  | 0  | 0  | 0  | 0  | 0  | 0  | 0  |  0  |  0  |  0  |  0  |  1  |  1  |  1  |  1  |  1  |  1  |  1  |
+----+----+----+----+----+----+----+----+----+----+-----+-----+-----+-----+-----+-----+-----+-----+-----+-----+-----+ 

20/09/2021 21:01:27[INFO] Supervisores para agregar   
+-----+---------+----------------------+----------------------+----------------------------------------------------------------------------+
|  ID | Marcado |     T - Entrada      |      T - Salida      |                             Sifon a controlar                              |
+-----+---------+----------------------+----------------------+----------------------------------------------------------------------------+
| P37 |    1    |    ['T7', 'T12']     |    ['T4', 'T11']     |           ['P1', 'P7', 'P15', 'P18', 'P30', 'P33', 'P35', 'P36']           |
| P37 |    1    | ['T7', 'T12', 'T17'] | ['T4', 'T11', 'T18'] |       ['P1', 'P7', 'P15', 'P18', 'P19', 'P30', 'P33', 'P35', 'P36']        |
| P37 |    1    |    ['T5', 'T12']     |    ['T4', 'T11']     |        ['P1', 'P5', 'P7', 'P15', 'P18', 'P30', 'P33', 'P35', 'P36']        |
| P37 |    1    | ['T5', 'T12', 'T17'] | ['T4', 'T11', 'T18'] |    ['P1', 'P5', 'P7', 'P15', 'P18', 'P19', 'P30', 'P33', 'P35', 'P36']     |
| P37 |    1    |    ['T7', 'T12']     |    ['T4', 'T11']     |       ['P1', 'P7', 'P15', 'P16', 'P18', 'P30', 'P33', 'P35', 'P36']        |
| P37 |    1    | ['T7', 'T12', 'T17'] | ['T4', 'T11', 'T18'] |    ['P1', 'P7', 'P15', 'P16', 'P18', 'P19', 'P30', 'P33', 'P35', 'P36']    |
| P37 |    1    |    ['T5', 'T12']     |    ['T4', 'T11']     |    ['P1', 'P5', 'P7', 'P15', 'P16', 'P18', 'P30', 'P33', 'P35', 'P36']     |
| P37 |    1    | ['T5', 'T12', 'T17'] | ['T4', 'T11', 'T18'] | ['P1', 'P5', 'P7', 'P15', 'P16', 'P18', 'P19', 'P30', 'P33', 'P35', 'P36'] |
+-----+---------+----------------------+----------------------+----------------------------------------------------------------------------+ 

20/09/2021 21:01:27[INFO] Supervisores agregados   
+-----+-------+---------+---------------+---------------+----------------+
| Nro | Plaza | Marcado |  T - Entrada  |   T - Salida  | MAL supervisor |
+-----+-------+---------+---------------+---------------+----------------+
|  1  |  P35  |    2    | ['T7', 'T12'] | ['T5', 'T11'] |     False      |
|  2  |  P36  |    1    | ['T5', 'T13'] | ['T4', 'T12'] |     False      |
+-----+-------+---------+---------------+---------------+----------------+ 

20/09/2021 21:01:27[INFO] Supervisores eliminados   
+-----+-------+---------+-------------+------------+----------------+
| Nro | Plaza | Marcado | T - Entrada | T - Salida | MAL supervisor |
+-----+-------+---------+-------------+------------+----------------+
+-----+-------+---------+-------------+------------+----------------+ 

20/09/2021 21:01:27[INFO] Ejecutando accion...   
20/09/2021 21:01:27[ACTION] Agrego supervisor con menor numero de arcos de salida (MNAS)   
20/09/2021 21:01:27[INFO] Supervisor con menor cantidad de arcos de salida agregado 6   

--------------------------------------------------------------------------   
20/09/2021 21:01:28[INFO] Ejecutando petrinator para conocer estado de la red...   
--------------------------------------------------------------------------
   
--------------------------------------------------------------------------
   
20/09/2021 21:02:02[INFO] Calculando recompensa..   
20/09/2021 21:02:02[REWARD] No hay mas deadlock, recompensa 100   

--------------------------------------------------------------------------
   
20/09/2021 21:02:02[STATE] Se llego al estado deseado, NO HAY MAS DEADLOCK   

--------------------------------------------------------------------------
   
+--------+---------+-------------------+----------------+---------+---------+------------------------+
| Plazas | Estados | Tokens trabajando | Sifones vacios | Sifones | Trampas | Supervisores agregados |
+--------+---------+-------------------+----------------+---------+---------+------------------------+
|   35   |   278   |        710        |       1        |   123   |    85   |           1            |
|   36   |   272   |        693        |       13       |   239   |   125   |           2            |
|   37   |   267   |        679        |       0        |   275   |   157   |           3            |
+--------+---------+-------------------+----------------+---------+---------+------------------------+ 
+------------------------------+------------+-----------------+--------------------+-----------------------+
|       Estados/Acciones       | + sup MNAS | + sup aleatorio | - sup MAL agregado | - ultimo sup agregado |
+------------------------------+------------+-----------------+--------------------+-----------------------+
|            Start             |    -1.0    |       0.0       |        0.0         |          0.0          |
| + sifónes vacíos en deadlock |   100.0    |       0.0       |        0.0         |          0.0          |
| - sifónes vacíos en deadlock |   -10.0    |       0.0       |        0.0         |          0.0          |
| = sifónes vacíos en deadlock |    0.0     |       0.0       |        0.0         |          0.0          |
|             End              |    0.0     |       0.0       |        0.0         |          0.0          |
+------------------------------+------------+-----------------+--------------------+-----------------------+ 

20/09/2021 21:02:02[INFO] Comienza proceso de eliminacion de supervisores redundantes   
20/09/2021 21:02:02[INFO] Supervisor a eliminar   
+-----+-------+---------+---------------+---------------+----------------+
| Nro | Plaza | Marcado |  T - Entrada  |   T - Salida  | MAL supervisor |
+-----+-------+---------+---------------+---------------+----------------+
|  1  |  P35  |    2    | ['T7', 'T12'] | ['T5', 'T11'] |     False      |
+-----+-------+---------+---------------+---------------+----------------+ 
20/09/2021 21:02:02[INFO] Eliminando supervisor ...   

--------------------------------------------------------------------------   
20/09/2021 21:02:02[INFO] Ejecutando petrinator para conocer estado de la red...   
--------------------------------------------------------------------------
   
20/09/2021 21:02:28[INFO] El supervisor eliminado no era redundante, volviendo a agregar supervisor   
20/09/2021 21:02:28[INFO] Se volvio a agregar correctamente el supervisor eliminado   

--------------------------------------------------------------------------   
20/09/2021 21:02:28[INFO] Ejecutando petrinator para conocer estado de la red...   
--------------------------------------------------------------------------
   
20/09/2021 21:03:03[INFO] Supervisor a eliminar   
+-----+-------+---------+---------------+---------------+----------------+
| Nro | Plaza | Marcado |  T - Entrada  |   T - Salida  | MAL supervisor |
+-----+-------+---------+---------------+---------------+----------------+
|  2  |  P36  |    1    | ['T5', 'T13'] | ['T4', 'T12'] |     False      |
+-----+-------+---------+---------------+---------------+----------------+ 
20/09/2021 21:03:03[INFO] Eliminando supervisor ...   

--------------------------------------------------------------------------   
20/09/2021 21:03:03[INFO] Ejecutando petrinator para conocer estado de la red...   
--------------------------------------------------------------------------
   
20/09/2021 21:03:29[INFO] El supervisor eliminado no era redundante, volviendo a agregar supervisor   
20/09/2021 21:03:29[INFO] Se volvio a agregar correctamente el supervisor eliminado   

--------------------------------------------------------------------------   
20/09/2021 21:03:29[INFO] Ejecutando petrinator para conocer estado de la red...   
--------------------------------------------------------------------------
   
20/09/2021 21:04:04[INFO] Supervisor a eliminar   
+-----+-------+---------+---------------+---------------+----------------+
| Nro | Plaza | Marcado |  T - Entrada  |   T - Salida  | MAL supervisor |
+-----+-------+---------+---------------+---------------+----------------+
|  3  |  P37  |    1    | ['T5', 'T12'] | ['T4', 'T11'] |     False      |
+-----+-------+---------+---------------+---------------+----------------+ 
20/09/2021 21:04:04[INFO] Eliminando supervisor ...   

--------------------------------------------------------------------------   
20/09/2021 21:04:04[INFO] Ejecutando petrinator para conocer estado de la red...   
--------------------------------------------------------------------------
   
20/09/2021 21:04:32[INFO] El supervisor eliminado no era redundante, volviendo a agregar supervisor   
20/09/2021 21:04:32[INFO] Se volvio a agregar correctamente el supervisor eliminado   

--------------------------------------------------------------------------   
20/09/2021 21:04:32[INFO] Ejecutando petrinator para conocer estado de la red...   
--------------------------------------------------------------------------
   
20/09/2021 21:05:07[INFO] Se eliminaron todos los supervisores redundantes   
+--------+---------+-------------------+----------------+---------+---------+------------------------+-------------------------+
| Plazas | Estados | Tokens trabajando | Sifones vacios | Sifones | Trampas | Supervisores agregados | Supervisores eliminados |
+--------+---------+-------------------+----------------+---------+---------+------------------------+-------------------------+
|   37   |   267   |        679        |       0        |   275   |   157   |           3            |            0            |
+--------+---------+-------------------+----------------+---------+---------+------------------------+-------------------------+ 
