14/07/2021 15:34:26[DEBUG] pflow_file:  ../prueba/gen_nets/20210713-184900_5/net.pflow  
14/07/2021 15:34:26[DEBUG] output_folder:  ../prueba/gen_nets/20210713-184900_5/  
14/07/2021 15:34:26[DEBUG] html_path:  ../prueba/gen_nets/20210713-184900_5/  
14/07/2021 15:34:26[DEBUG] txt_path:  ../prueba/gen_nets/20210713-184900_5/txt_info  

--------------------------------------------------------------------------   
14/07/2021 15:34:26[INFO] Ejecutando petrinator para conocer estado de la red...   
--------------------------------------------------------------------------
   
+----+-----+-------------------------------------------------+
| ID | Nro |                      Plazas                     |
+----+-----+-------------------------------------------------+
| 0  | 170 | ['P3', 'P8', 'P13', 'P16', 'P21', 'P25', 'P26'] |
| 1  | 171 | ['P3', 'P8', 'P13', 'P16', 'P20', 'P25', 'P26'] |
| 2  | 173 |  ['P3', 'P6', 'P8', 'P13', 'P16', 'P25', 'P26'] |
| 3  |  1  | ['P3', 'P8', 'P13', 'P16', 'P23', 'P25', 'P26'] |
| 4  |  37 |     ['P3', 'P7', 'P13', 'P16', 'P23', 'P25']    |
| 5  | 148 |     ['P3', 'P8', 'P12', 'P16', 'P23', 'P26']    |
| 6  | 172 | ['P3', 'P8', 'P10', 'P13', 'P16', 'P25', 'P26'] |
+----+-----+-------------------------------------------------+
+----+----+----+----+----+----+----+----+----+----+-----+-----+-----+-----+
| T0 | T1 | T2 | T3 | T4 | T5 | T6 | T7 | T8 | T9 | T10 | T11 | T12 | T13 |
+----+----+----+----+----+----+----+----+----+----+-----+-----+-----+-----+
| 1  | 1  | 1  | 1  | 0  | 0  | 0  | 0  | 0  | 0  |  0  |  0  |  0  |  0  |
| 0  | 0  | 0  | 0  | 1  | 1  | 1  | 1  | 0  | 0  |  0  |  0  |  0  |  0  |
| 0  | 0  | 0  | 0  | 0  | 0  | 0  | 0  | 1  | 1  |  1  |  0  |  0  |  0  |
| 0  | 0  | 0  | 0  | 0  | 0  | 0  | 0  | 0  | 0  |  0  |  1  |  1  |  1  |
+----+----+----+----+----+----+----+----+----+----+-----+-----+-----+-----+
14/07/2021 15:34:30[INFO] Supervisores para agregar   
+-----+---------+----------------------------+---------------------------+
|  ID | Marcado |        T - Entrada         |         T - Salida        |
+-----+---------+----------------------------+---------------------------+
| P29 |    2    | ['T3', 'T7', 'T10', 'T13'] | ['T1', 'T5', 'T9', 'T12'] |
| P29 |    2    | ['T3', 'T7', 'T10', 'T13'] | ['T1', 'T5', 'T9', 'T12'] |
| P29 |    1    |    ['T3', 'T10', 'T13']    | ['T1', 'T5', 'T9', 'T12'] |
| P29 |    2    | ['T4', 'T7', 'T10', 'T14'] | ['T1', 'T5', 'T9', 'T12'] |
| P29 |    1    | ['T3', 'T6', 'T10', 'T14'] | ['T1', 'T5', 'T9', 'T12'] |
| P29 |    1    | ['T4', 'T7', 'T10', 'T13'] | ['T1', 'T5', 'T9', 'T12'] |
| P29 |    2    | ['T3', 'T7', 'T10', 'T13'] | ['T1', 'T5', 'T9', 'T12'] |
+-----+---------+----------------------------+---------------------------+
+-----+---------+-------------+------------+
| Nro | Marcado | T - Entrada | T - Salida |
+-----+---------+-------------+------------+
+-----+---------+-------------+------------+
14/07/2021 15:34:30[INFO] Ejecutando accion...   
14/07/2021 15:34:30[INFO] Ejecutando accion...   
14/07/2021 15:34:30[ACTION] Agrego supervisor aleatorio Numero: 2  

--------------------------------------------------------------------------   
14/07/2021 15:34:30[INFO] Ejecutando petrinator para conocer estado de la red...   
--------------------------------------------------------------------------
   

--------------------------------------------------------------------------
   
14/07/2021 15:34:35[INFO] Calculando recompensa..   
14/07/2021 15:34:35[REWARD] El sifon se controlo correctamente, recompensa -1   

--------------------------------------------------------------------------
   
14/07/2021 15:34:35[STATE] Cambie al estado 2: Hay menos sifones vacios en deadlock   
+-----------------------------------------------------+--------------------+------------------------+
|                   Estados/Acciones                  | Agregar supervisor | Agregar o quitar arcos |
+-----------------------------------------------------+--------------------+------------------------+
|                        Start                        |        -1.0        |          0.0           |
|        Más sifónes vacíos en estado deadlock        |        0.0         |          0.0           |
|       Menos sifónes vacíos en estado deadlock       |        0.0         |          0.0           |
| Igual cantidad de sifónes vacíos en estado deadlock |        0.0         |          0.0           |
|                         End                         |        0.0         |          0.0           |
+-----------------------------------------------------+--------------------+------------------------+
+----+-----+-----------------------------------+
| ID | Nro |               Plazas              |
+----+-----+-----------------------------------+
| 7  |  15 | ['P1', 'P2', 'P12', 'P15', 'P29'] |
+----+-----+-----------------------------------+
+----+----+----+----+----+----+----+----+----+----+-----+-----+-----+-----+
| T0 | T1 | T2 | T3 | T4 | T5 | T6 | T7 | T8 | T9 | T10 | T11 | T12 | T13 |
+----+----+----+----+----+----+----+----+----+----+-----+-----+-----+-----+
| 1  | 1  | 1  | 1  | 0  | 0  | 0  | 0  | 0  | 0  |  0  |  0  |  0  |  0  |
| 0  | 0  | 0  | 0  | 0  | 0  | 0  | 0  | 1  | 1  |  1  |  0  |  0  |  0  |
| 0  | 0  | 0  | 0  | 0  | 0  | 0  | 0  | 0  | 0  |  0  |  1  |  1  |  1  |
+----+----+----+----+----+----+----+----+----+----+-----+-----+-----+-----+
14/07/2021 15:34:35[INFO] Supervisores para agregar   
+----+---------+-------------+------------+
| ID | Marcado | T - Entrada | T - Salida |
+----+---------+-------------+------------+
+----+---------+-------------+------------+
+-----+---------+----------------------+---------------------------+
| Nro | Marcado |     T - Entrada      |         T - Salida        |
+-----+---------+----------------------+---------------------------+
|  1  |    1    | ['T3', 'T10', 'T13'] | ['T1', 'T5', 'T9', 'T12'] |
+-----+---------+----------------------+---------------------------+
14/07/2021 15:34:35[INFO] Ejecutando accion...   
14/07/2021 15:34:35[ACTION] Agregar o quitar arcos   
14/07/2021 15:34:35[ACTION] Eliminar arco desde P29 hasta T5   
14/07/2021 15:34:35[INFO] Se elimino el arco desde P29 hasta T5   

--------------------------------------------------------------------------   
14/07/2021 15:34:35[INFO] Ejecutando petrinator para conocer estado de la red...   
--------------------------------------------------------------------------
   

--------------------------------------------------------------------------
   
14/07/2021 15:34:40[INFO] Calculando recompensa..   
14/07/2021 15:34:40[REWARD] Hay mas sifones vacios que en el estado anterior, recompensa -100   

--------------------------------------------------------------------------
   
14/07/2021 15:34:40[STATE] Cambie al estado 1: Hay mas sifones vacios en deadlock   
+-----------------------------------------------------+--------------------+------------------------+
|                   Estados/Acciones                  | Agregar supervisor | Agregar o quitar arcos |
+-----------------------------------------------------+--------------------+------------------------+
|                        Start                        |        -1.0        |          0.0           |
|        Más sifónes vacíos en estado deadlock        |        0.0         |          0.0           |
|       Menos sifónes vacíos en estado deadlock       |        0.0         |         -100.0         |
| Igual cantidad de sifónes vacíos en estado deadlock |        0.0         |          0.0           |
|                         End                         |        0.0         |          0.0           |
+-----------------------------------------------------+--------------------+------------------------+
+----+-----+-------------------------------------------------+
| ID | Nro |                      Plazas                     |
+----+-----+-------------------------------------------------+
| 8  |  1  | ['P3', 'P8', 'P13', 'P16', 'P23', 'P25', 'P26'] |
| 9  | 155 |     ['P3', 'P8', 'P12', 'P16', 'P23', 'P26']    |
| 10 | 177 | ['P3', 'P8', 'P13', 'P16', 'P21', 'P25', 'P26'] |
| 11 | 178 | ['P3', 'P8', 'P13', 'P16', 'P20', 'P25', 'P26'] |
| 12 | 179 | ['P3', 'P8', 'P10', 'P13', 'P16', 'P25', 'P26'] |
+----+-----+-------------------------------------------------+
+----+----+----+----+----+----+----+----+----+----+-----+-----+-----+-----+
| T0 | T1 | T2 | T3 | T4 | T5 | T6 | T7 | T8 | T9 | T10 | T11 | T12 | T13 |
+----+----+----+----+----+----+----+----+----+----+-----+-----+-----+-----+
| 1  | 1  | 1  | 1  | 0  | 0  | 0  | 0  | 0  | 0  |  0  |  0  |  0  |  0  |
| 0  | 0  | 0  | 0  | 1  | 1  | 1  | 1  | 0  | 0  |  0  |  0  |  0  |  0  |
| 0  | 0  | 0  | 0  | 0  | 0  | 0  | 0  | 1  | 1  |  1  |  0  |  0  |  0  |
| 0  | 0  | 0  | 0  | 0  | 0  | 0  | 0  | 0  | 0  |  0  |  1  |  1  |  1  |
+----+----+----+----+----+----+----+----+----+----+-----+-----+-----+-----+
14/07/2021 15:34:40[INFO] Supervisores para agregar   
+-----+---------+----------------------------+---------------------------+
|  ID | Marcado |        T - Entrada         |         T - Salida        |
+-----+---------+----------------------------+---------------------------+
| P30 |    2    | ['T4', 'T7', 'T10', 'T14'] | ['T1', 'T5', 'T9', 'T12'] |
| P30 |    1    | ['T4', 'T7', 'T10', 'T13'] | ['T1', 'T5', 'T9', 'T12'] |
| P30 |    2    | ['T3', 'T7', 'T10', 'T13'] | ['T1', 'T5', 'T9', 'T12'] |
| P30 |    2    | ['T3', 'T7', 'T10', 'T13'] | ['T1', 'T5', 'T9', 'T12'] |
| P30 |    2    | ['T3', 'T7', 'T10', 'T13'] | ['T1', 'T5', 'T9', 'T12'] |
+-----+---------+----------------------------+---------------------------+
+-----+---------+----------------------+---------------------------+
| Nro | Marcado |     T - Entrada      |         T - Salida        |
+-----+---------+----------------------+---------------------------+
|  1  |    1    | ['T3', 'T10', 'T13'] | ['T1', 'T5', 'T9', 'T12'] |
+-----+---------+----------------------+---------------------------+
14/07/2021 15:34:40[INFO] Ejecutando accion...   
14/07/2021 15:34:40[ACTION] Agregar o quitar arcos   

--------------------------------------------------------------------------   
14/07/2021 15:34:40[INFO] Ejecutando petrinator para conocer estado de la red...   
--------------------------------------------------------------------------
   

--------------------------------------------------------------------------
   
14/07/2021 15:34:44[INFO] Calculando recompensa..   
14/07/2021 15:34:44[REWARD] Hay menos o igual cantidad de sifones vacios que en el estado anterior, recompensa -1   

--------------------------------------------------------------------------
   
14/07/2021 15:34:44[STATE] Cambie al estado 3: Hay igual cantidad de sifones vacios en deadlock   
+-----------------------------------------------------+--------------------+------------------------+
|                   Estados/Acciones                  | Agregar supervisor | Agregar o quitar arcos |
+-----------------------------------------------------+--------------------+------------------------+
|                        Start                        |        -1.0        |          0.0           |
|        Más sifónes vacíos en estado deadlock        |        0.0         |          -1.0          |
|       Menos sifónes vacíos en estado deadlock       |        0.0         |         -100.0         |
| Igual cantidad de sifónes vacíos en estado deadlock |        0.0         |          0.0           |
|                         End                         |        0.0         |          0.0           |
+-----------------------------------------------------+--------------------+------------------------+
+----+-----+-------------------------------------------------+
| ID | Nro |                      Plazas                     |
+----+-----+-------------------------------------------------+
| 13 |  1  | ['P3', 'P8', 'P13', 'P16', 'P23', 'P25', 'P26'] |
| 14 | 155 |     ['P3', 'P8', 'P12', 'P16', 'P23', 'P26']    |
| 15 | 177 | ['P3', 'P8', 'P13', 'P16', 'P21', 'P25', 'P26'] |
| 16 | 178 | ['P3', 'P8', 'P13', 'P16', 'P20', 'P25', 'P26'] |
| 17 | 179 | ['P3', 'P8', 'P10', 'P13', 'P16', 'P25', 'P26'] |
+----+-----+-------------------------------------------------+
+----+----+----+----+----+----+----+----+----+----+-----+-----+-----+-----+
| T0 | T1 | T2 | T3 | T4 | T5 | T6 | T7 | T8 | T9 | T10 | T11 | T12 | T13 |
+----+----+----+----+----+----+----+----+----+----+-----+-----+-----+-----+
| 1  | 1  | 1  | 1  | 0  | 0  | 0  | 0  | 0  | 0  |  0  |  0  |  0  |  0  |
| 0  | 0  | 0  | 0  | 1  | 1  | 1  | 1  | 0  | 0  |  0  |  0  |  0  |  0  |
| 0  | 0  | 0  | 0  | 0  | 0  | 0  | 0  | 1  | 1  |  1  |  0  |  0  |  0  |
| 0  | 0  | 0  | 0  | 0  | 0  | 0  | 0  | 0  | 0  |  0  |  1  |  1  |  1  |
+----+----+----+----+----+----+----+----+----+----+-----+-----+-----+-----+
14/07/2021 15:34:44[INFO] Supervisores para agregar   
+-----+---------+----------------------------+---------------------------+
|  ID | Marcado |        T - Entrada         |         T - Salida        |
+-----+---------+----------------------------+---------------------------+
| P30 |    2    | ['T4', 'T7', 'T10', 'T14'] | ['T1', 'T5', 'T9', 'T12'] |
| P30 |    1    | ['T4', 'T7', 'T10', 'T13'] | ['T1', 'T5', 'T9', 'T12'] |
| P30 |    2    | ['T3', 'T7', 'T10', 'T13'] | ['T1', 'T5', 'T9', 'T12'] |
| P30 |    2    | ['T3', 'T7', 'T10', 'T13'] | ['T1', 'T5', 'T9', 'T12'] |
| P30 |    2    | ['T3', 'T7', 'T10', 'T13'] | ['T1', 'T5', 'T9', 'T12'] |
+-----+---------+----------------------------+---------------------------+
+-----+---------+----------------------+---------------------------+
| Nro | Marcado |     T - Entrada      |         T - Salida        |
+-----+---------+----------------------+---------------------------+
|  1  |    1    | ['T3', 'T10', 'T13'] | ['T1', 'T5', 'T9', 'T12'] |
+-----+---------+----------------------+---------------------------+
14/07/2021 15:34:44[INFO] Ejecutando accion...   
14/07/2021 15:34:44[ACTION] Agregar o quitar arcos   

--------------------------------------------------------------------------   
14/07/2021 15:34:44[INFO] Ejecutando petrinator para conocer estado de la red...   
--------------------------------------------------------------------------
   

--------------------------------------------------------------------------
   
14/07/2021 15:34:49[INFO] Calculando recompensa..   
14/07/2021 15:34:49[REWARD] Hay menos o igual cantidad de sifones vacios que en el estado anterior, recompensa -1   

--------------------------------------------------------------------------
   
14/07/2021 15:34:49[STATE] Cambie al estado 3: Hay igual cantidad de sifones vacios en deadlock   
+-----------------------------------------------------+--------------------+------------------------+
|                   Estados/Acciones                  | Agregar supervisor | Agregar o quitar arcos |
+-----------------------------------------------------+--------------------+------------------------+
|                        Start                        |        -1.0        |          0.0           |
|        Más sifónes vacíos en estado deadlock        |        0.0         |          -1.0          |
|       Menos sifónes vacíos en estado deadlock       |        0.0         |         -100.0         |
| Igual cantidad de sifónes vacíos en estado deadlock |        0.0         |          -1.0          |
|                         End                         |        0.0         |          0.0           |
+-----------------------------------------------------+--------------------+------------------------+
+----+-----+-------------------------------------------------+
| ID | Nro |                      Plazas                     |
+----+-----+-------------------------------------------------+
| 18 |  1  | ['P3', 'P8', 'P13', 'P16', 'P23', 'P25', 'P26'] |
| 19 | 155 |     ['P3', 'P8', 'P12', 'P16', 'P23', 'P26']    |
| 20 | 177 | ['P3', 'P8', 'P13', 'P16', 'P21', 'P25', 'P26'] |
| 21 | 178 | ['P3', 'P8', 'P13', 'P16', 'P20', 'P25', 'P26'] |
| 22 | 179 | ['P3', 'P8', 'P10', 'P13', 'P16', 'P25', 'P26'] |
+----+-----+-------------------------------------------------+
+----+----+----+----+----+----+----+----+----+----+-----+-----+-----+-----+
| T0 | T1 | T2 | T3 | T4 | T5 | T6 | T7 | T8 | T9 | T10 | T11 | T12 | T13 |
+----+----+----+----+----+----+----+----+----+----+-----+-----+-----+-----+
| 1  | 1  | 1  | 1  | 0  | 0  | 0  | 0  | 0  | 0  |  0  |  0  |  0  |  0  |
| 0  | 0  | 0  | 0  | 1  | 1  | 1  | 1  | 0  | 0  |  0  |  0  |  0  |  0  |
| 0  | 0  | 0  | 0  | 0  | 0  | 0  | 0  | 1  | 1  |  1  |  0  |  0  |  0  |
| 0  | 0  | 0  | 0  | 0  | 0  | 0  | 0  | 0  | 0  |  0  |  1  |  1  |  1  |
+----+----+----+----+----+----+----+----+----+----+-----+-----+-----+-----+
14/07/2021 15:34:49[INFO] Supervisores para agregar   
+-----+---------+----------------------------+---------------------------+
|  ID | Marcado |        T - Entrada         |         T - Salida        |
+-----+---------+----------------------------+---------------------------+
| P30 |    2    | ['T4', 'T7', 'T10', 'T14'] | ['T1', 'T5', 'T9', 'T12'] |
| P30 |    1    | ['T4', 'T7', 'T10', 'T13'] | ['T1', 'T5', 'T9', 'T12'] |
| P30 |    2    | ['T3', 'T7', 'T10', 'T13'] | ['T1', 'T5', 'T9', 'T12'] |
| P30 |    2    | ['T3', 'T7', 'T10', 'T13'] | ['T1', 'T5', 'T9', 'T12'] |
| P30 |    2    | ['T3', 'T7', 'T10', 'T13'] | ['T1', 'T5', 'T9', 'T12'] |
+-----+---------+----------------------------+---------------------------+
+-----+---------+----------------------+---------------------------+
| Nro | Marcado |     T - Entrada      |         T - Salida        |
+-----+---------+----------------------+---------------------------+
|  1  |    1    | ['T3', 'T10', 'T13'] | ['T1', 'T5', 'T9', 'T12'] |
+-----+---------+----------------------+---------------------------+
14/07/2021 15:34:49[INFO] Ejecutando accion...   
14/07/2021 15:34:49[INFO] Ejecutando accion...   
14/07/2021 15:34:49[ACTION] Agrego supervisor aleatorio Numero: 3  

--------------------------------------------------------------------------   
14/07/2021 15:34:49[INFO] Ejecutando petrinator para conocer estado de la red...   
--------------------------------------------------------------------------
   

--------------------------------------------------------------------------
   
14/07/2021 15:34:55[INFO] Calculando recompensa..   
14/07/2021 15:34:55[REWARD] El sifon se controlo correctamente, recompensa -1   

--------------------------------------------------------------------------
   
14/07/2021 15:34:55[STATE] Cambie al estado 2: Hay menos sifones vacios en deadlock   
+-----------------------------------------------------+--------------------+------------------------+
|                   Estados/Acciones                  | Agregar supervisor | Agregar o quitar arcos |
+-----------------------------------------------------+--------------------+------------------------+
|                        Start                        |        -1.0        |          0.0           |
|        Más sifónes vacíos en estado deadlock        |        0.0         |          -1.0          |
|       Menos sifónes vacíos en estado deadlock       |        0.0         |         -100.0         |
| Igual cantidad de sifónes vacíos en estado deadlock |        -1.0        |          -1.0          |
|                         End                         |        0.0         |          0.0           |
+-----------------------------------------------------+--------------------+------------------------+
+----+-----+------------------------------------------+
| ID | Nro |                  Plazas                  |
+----+-----+------------------------------------------+
| 23 | 162 | ['P3', 'P8', 'P12', 'P16', 'P23', 'P26'] |
+----+-----+------------------------------------------+
+----+----+----+----+----+----+----+----+----+----+-----+-----+-----+-----+
| T0 | T1 | T2 | T3 | T4 | T5 | T6 | T7 | T8 | T9 | T10 | T11 | T12 | T13 |
+----+----+----+----+----+----+----+----+----+----+-----+-----+-----+-----+
| 1  | 1  | 1  | 1  | 0  | 0  | 0  | 0  | 0  | 0  |  0  |  0  |  0  |  0  |
| 0  | 0  | 0  | 0  | 1  | 1  | 1  | 1  | 0  | 0  |  0  |  0  |  0  |  0  |
| 0  | 0  | 0  | 0  | 0  | 0  | 0  | 0  | 1  | 1  |  1  |  0  |  0  |  0  |
| 0  | 0  | 0  | 0  | 0  | 0  | 0  | 0  | 0  | 0  |  0  |  1  |  1  |  1  |
+----+----+----+----+----+----+----+----+----+----+-----+-----+-----+-----+
14/07/2021 15:34:55[INFO] Supervisores para agregar   
+-----+---------+----------------------------+---------------------------+
|  ID | Marcado |        T - Entrada         |         T - Salida        |
+-----+---------+----------------------------+---------------------------+
| P31 |    1    | ['T4', 'T7', 'T10', 'T13'] | ['T1', 'T5', 'T9', 'T12'] |
+-----+---------+----------------------------+---------------------------+
+-----+---------+----------------------------+---------------------------+
| Nro | Marcado |        T - Entrada         |         T - Salida        |
+-----+---------+----------------------------+---------------------------+
|  1  |    1    |    ['T3', 'T10', 'T13']    | ['T1', 'T5', 'T9', 'T12'] |
|  2  |    2    | ['T3', 'T7', 'T10', 'T13'] | ['T1', 'T5', 'T9', 'T12'] |
+-----+---------+----------------------------+---------------------------+
14/07/2021 15:34:55[INFO] Ejecutando accion...   
14/07/2021 15:34:55[INFO] Ejecutando accion...   
14/07/2021 15:34:55[ACTION] Agrego supervisor Numero: 0   

--------------------------------------------------------------------------   
14/07/2021 15:34:55[INFO] Ejecutando petrinator para conocer estado de la red...   
--------------------------------------------------------------------------
   

--------------------------------------------------------------------------
   
14/07/2021 15:35:02[INFO] Calculando recompensa..   
14/07/2021 15:35:02[REWARD] No hay mas deadlock, recompensa 100   

--------------------------------------------------------------------------
   
14/07/2021 15:35:02[STATE] Se llego al estado deseado, NO HAY MAS DEADLOCK   

--------------------------------------------------------------------------
   
14/07/2021 15:35:02[STATE] Cambie al estado 2: Hay menos sifones vacios en deadlock   
+-----------------------------------------------------+--------------------+------------------------+
|                   Estados/Acciones                  | Agregar supervisor | Agregar o quitar arcos |
+-----------------------------------------------------+--------------------+------------------------+
|                        Start                        |        -1.0        |          0.0           |
|        Más sifónes vacíos en estado deadlock        |        0.0         |          -1.0          |
|       Menos sifónes vacíos en estado deadlock       |       100.0        |         -100.0         |
| Igual cantidad de sifónes vacíos en estado deadlock |        -1.0        |          -1.0          |
|                         End                         |        0.0         |          0.0           |
+-----------------------------------------------------+--------------------+------------------------+
