19/07/2021 23:27:34[DEBUG] pflow_file:  ../analysis/analisis_11_19072021/gen_nets/20210719-224351_29/net.pflow  
19/07/2021 23:27:34[DEBUG] output_folder:  ../analysis/analisis_11_19072021/gen_nets/20210719-224351_29/  
19/07/2021 23:27:34[DEBUG] html_path:  ../analysis/analisis_11_19072021/gen_nets/20210719-224351_29/  
19/07/2021 23:27:34[DEBUG] txt_path:  ../analysis/analisis_11_19072021/gen_nets/20210719-224351_29/txt_info  

--------------------------------------------------------------------------   
19/07/2021 23:27:34[INFO] Ejecutando petrinator para conocer estado de la red...   
--------------------------------------------------------------------------
   
19/07/2021 23:27:38[ERROR] La red ingresada no tiene deadlock, cerrando analisis 
  
