+-----------------------------------------------------+--------------------+------------------------+
|                   Estados/Acciones                  | Agregar supervisor | Agregar o quitar arcos |
+-----------------------------------------------------+--------------------+------------------------+
|                        Start                        |        0.0         |          0.0           |
|        Más sifónes vacíos en estado deadlock        |        0.0         |          0.0           |
|       Menos sifónes vacíos en estado deadlock       |        0.0         |          0.0           |
| Igual cantidad de sifónes vacíos en estado deadlock |        0.0         |          0.0           |
|                         End                         |        0.0         |          0.0           |
+-----------------------------------------------------+--------------------+------------------------+
+----+-----+-----------------------------------+
| ID | Nro |               Plazas              |
+----+-----+-----------------------------------+
| 0  |  2  | ['P1', 'P7', 'P10', 'P17', 'P20'] |
+----+-----+-----------------------------------+
+----+----+----+----+----+----+----+----+----+----+-----+-----+-----+-----+-----+-----+-----+-----+
| T0 | T1 | T2 | T3 | T4 | T5 | T6 | T7 | T8 | T9 | T10 | T11 | T12 | T13 | T14 | T15 | T16 | T17 |
+----+----+----+----+----+----+----+----+----+----+-----+-----+-----+-----+-----+-----+-----+-----+
| 1  | 1  | 1  | 1  | 1  | 0  | 0  | 0  | 0  | 0  |  0  |  0  |  0  |  0  |  0  |  0  |  0  |  0  |
| 0  | 0  | 0  | 0  | 0  | 1  | 1  | 1  | 0  | 0  |  0  |  0  |  0  |  0  |  0  |  0  |  0  |  0  |
| 0  | 0  | 0  | 0  | 0  | 0  | 0  | 0  | 1  | 1  |  1  |  1  |  1  |  0  |  0  |  0  |  1  |  1  |
| 0  | 0  | 0  | 0  | 0  | 0  | 0  | 0  | 0  | 0  |  0  |  0  |  0  |  1  |  1  |  1  |  1  |  1  |
+----+----+----+----+----+----+----+----+----+----+-----+-----+-----+-----+-----+-----+-----+-----+
+-----+---------+-------------+---------------------+
|  ID | Marcado | T - Entrada |      T - Salida     |
+-----+---------+-------------+---------------------+
| P23 |    0    |   ['T16']   | ['T1', 'T6', 'T17'] |
+-----+---------+-------------+---------------------+
+----+-----+-----------------------------------+
| ID | Nro |               Plazas              |
+----+-----+-----------------------------------+
| 1  |  2  | ['P1', 'P7', 'P10', 'P17', 'P20'] |
+----+-----+-----------------------------------+
+----+----+----+----+----+----+----+----+----+----+-----+-----+-----+-----+-----+-----+-----+-----+
| T0 | T1 | T2 | T3 | T4 | T5 | T6 | T7 | T8 | T9 | T10 | T11 | T12 | T13 | T14 | T15 | T16 | T17 |
+----+----+----+----+----+----+----+----+----+----+-----+-----+-----+-----+-----+-----+-----+-----+
| 1  | 1  | 1  | 1  | 1  | 0  | 0  | 0  | 0  | 0  |  0  |  0  |  0  |  0  |  0  |  0  |  0  |  0  |
| 0  | 0  | 0  | 0  | 0  | 1  | 1  | 1  | 0  | 0  |  0  |  0  |  0  |  0  |  0  |  0  |  0  |  0  |
| 0  | 0  | 0  | 0  | 0  | 0  | 0  | 0  | 1  | 1  |  1  |  1  |  1  |  0  |  0  |  0  |  1  |  1  |
| 0  | 0  | 0  | 0  | 0  | 0  | 0  | 0  | 0  | 0  |  0  |  0  |  0  |  1  |  1  |  1  |  1  |  1  |
+----+----+----+----+----+----+----+----+----+----+-----+-----+-----+-----+-----+-----+-----+-----+
+-----+---------+-------------+---------------------+
|  ID | Marcado | T - Entrada |      T - Salida     |
+-----+---------+-------------+---------------------+
| P23 |    0    |   ['T16']   | ['T1', 'T6', 'T17'] |
+-----+---------+-------------+---------------------+
+-----------------------------------------------------+--------------------+------------------------+
|                   Estados/Acciones                  | Agregar supervisor | Agregar o quitar arcos |
+-----------------------------------------------------+--------------------+------------------------+
|                        Start                        |       -90.0        |          0.0           |
|        Más sifónes vacíos en estado deadlock        |        0.0         |          0.0           |
|       Menos sifónes vacíos en estado deadlock       |        0.0         |          0.0           |
| Igual cantidad de sifónes vacíos en estado deadlock |        0.0         |          0.0           |
|                         End                         |        0.0         |          0.0           |
+-----------------------------------------------------+--------------------+------------------------+
+----+-----+-----------------------------------+
| ID | Nro |               Plazas              |
+----+-----+-----------------------------------+
| 2  |  2  | ['P1', 'P7', 'P10', 'P17', 'P20'] |
+----+-----+-----------------------------------+
+----+----+----+----+----+----+----+----+----+----+-----+-----+-----+-----+-----+-----+-----+-----+
| T0 | T1 | T2 | T3 | T4 | T5 | T6 | T7 | T8 | T9 | T10 | T11 | T12 | T13 | T14 | T15 | T16 | T17 |
+----+----+----+----+----+----+----+----+----+----+-----+-----+-----+-----+-----+-----+-----+-----+
| 1  | 1  | 1  | 1  | 1  | 0  | 0  | 0  | 0  | 0  |  0  |  0  |  0  |  0  |  0  |  0  |  0  |  0  |
| 0  | 0  | 0  | 0  | 0  | 1  | 1  | 1  | 0  | 0  |  0  |  0  |  0  |  0  |  0  |  0  |  0  |  0  |
| 0  | 0  | 0  | 0  | 0  | 0  | 0  | 0  | 1  | 1  |  1  |  1  |  1  |  0  |  0  |  0  |  1  |  1  |
| 0  | 0  | 0  | 0  | 0  | 0  | 0  | 0  | 0  | 0  |  0  |  0  |  0  |  1  |  1  |  1  |  1  |  1  |
+----+----+----+----+----+----+----+----+----+----+-----+-----+-----+-----+-----+-----+-----+-----+
+-----+---------+-------------+---------------------+
|  ID | Marcado | T - Entrada |      T - Salida     |
+-----+---------+-------------+---------------------+
| P23 |    0    |   ['T16']   | ['T1', 'T6', 'T17'] |
+-----+---------+-------------+---------------------+
+-----------------------------------------------------+--------------------+------------------------+
|                   Estados/Acciones                  | Agregar supervisor | Agregar o quitar arcos |
+-----------------------------------------------------+--------------------+------------------------+
|                        Start                        |       -90.0        |          0.0           |
|        Más sifónes vacíos en estado deadlock        |        0.0         |          0.0           |
|       Menos sifónes vacíos en estado deadlock       |        0.0         |          0.0           |
| Igual cantidad de sifónes vacíos en estado deadlock |        0.0         |          -0.9          |
|                         End                         |        0.0         |          0.0           |
+-----------------------------------------------------+--------------------+------------------------+
+----+-----+-----------------------------------+
| ID | Nro |               Plazas              |
+----+-----+-----------------------------------+
| 3  |  2  | ['P1', 'P7', 'P10', 'P17', 'P20'] |
+----+-----+-----------------------------------+
+----+----+----+----+----+----+----+----+----+----+-----+-----+-----+-----+-----+-----+-----+-----+
| T0 | T1 | T2 | T3 | T4 | T5 | T6 | T7 | T8 | T9 | T10 | T11 | T12 | T13 | T14 | T15 | T16 | T17 |
+----+----+----+----+----+----+----+----+----+----+-----+-----+-----+-----+-----+-----+-----+-----+
| 1  | 1  | 1  | 1  | 1  | 0  | 0  | 0  | 0  | 0  |  0  |  0  |  0  |  0  |  0  |  0  |  0  |  0  |
| 0  | 0  | 0  | 0  | 0  | 1  | 1  | 1  | 0  | 0  |  0  |  0  |  0  |  0  |  0  |  0  |  0  |  0  |
| 0  | 0  | 0  | 0  | 0  | 0  | 0  | 0  | 1  | 1  |  1  |  1  |  1  |  0  |  0  |  0  |  1  |  1  |
| 0  | 0  | 0  | 0  | 0  | 0  | 0  | 0  | 0  | 0  |  0  |  0  |  0  |  1  |  1  |  1  |  1  |  1  |
+----+----+----+----+----+----+----+----+----+----+-----+-----+-----+-----+-----+-----+-----+-----+
+-----+---------+-------------+---------------------+
|  ID | Marcado | T - Entrada |      T - Salida     |
+-----+---------+-------------+---------------------+
| P23 |    0    |   ['T16']   | ['T1', 'T6', 'T17'] |
+-----+---------+-------------+---------------------+
+-----------------------------------------------------+--------------------+------------------------+
|                   Estados/Acciones                  | Agregar supervisor | Agregar o quitar arcos |
+-----------------------------------------------------+--------------------+------------------------+
|                        Start                        |       -90.0        |          0.0           |
|        Más sifónes vacíos en estado deadlock        |        0.0         |          0.0           |
|       Menos sifónes vacíos en estado deadlock       |        0.0         |          0.0           |
| Igual cantidad de sifónes vacíos en estado deadlock |       -90.0        |          -0.9          |
|                         End                         |        0.0         |          0.0           |
+-----------------------------------------------------+--------------------+------------------------+
+----+-----+-----------------------------------+
| ID | Nro |               Plazas              |
+----+-----+-----------------------------------+
| 4  |  2  | ['P1', 'P7', 'P10', 'P17', 'P20'] |
+----+-----+-----------------------------------+
+----+----+----+----+----+----+----+----+----+----+-----+-----+-----+-----+-----+-----+-----+-----+
| T0 | T1 | T2 | T3 | T4 | T5 | T6 | T7 | T8 | T9 | T10 | T11 | T12 | T13 | T14 | T15 | T16 | T17 |
+----+----+----+----+----+----+----+----+----+----+-----+-----+-----+-----+-----+-----+-----+-----+
| 1  | 1  | 1  | 1  | 1  | 0  | 0  | 0  | 0  | 0  |  0  |  0  |  0  |  0  |  0  |  0  |  0  |  0  |
| 0  | 0  | 0  | 0  | 0  | 1  | 1  | 1  | 0  | 0  |  0  |  0  |  0  |  0  |  0  |  0  |  0  |  0  |
| 0  | 0  | 0  | 0  | 0  | 0  | 0  | 0  | 1  | 1  |  1  |  1  |  1  |  0  |  0  |  0  |  1  |  1  |
| 0  | 0  | 0  | 0  | 0  | 0  | 0  | 0  | 0  | 0  |  0  |  0  |  0  |  1  |  1  |  1  |  1  |  1  |
+----+----+----+----+----+----+----+----+----+----+-----+-----+-----+-----+-----+-----+-----+-----+
+-----+---------+-------------+---------------------+
|  ID | Marcado | T - Entrada |      T - Salida     |
+-----+---------+-------------+---------------------+
| P23 |    0    |   ['T16']   | ['T1', 'T6', 'T17'] |
+-----+---------+-------------+---------------------+
+-----------------------------------------------------+--------------------+------------------------+
|                   Estados/Acciones                  | Agregar supervisor | Agregar o quitar arcos |
+-----------------------------------------------------+--------------------+------------------------+
|                        Start                        |       -90.0        |          0.0           |
|        Más sifónes vacíos en estado deadlock        |        0.0         |          0.0           |
|       Menos sifónes vacíos en estado deadlock       |        0.0         |          0.0           |
| Igual cantidad de sifónes vacíos en estado deadlock |       -90.0        |         -1.719         |
|                         End                         |        0.0         |          0.0           |
+-----------------------------------------------------+--------------------+------------------------+
+----+-----+-----------------------------------+
| ID | Nro |               Plazas              |
+----+-----+-----------------------------------+
| 5  |  2  | ['P1', 'P7', 'P10', 'P17', 'P20'] |
+----+-----+-----------------------------------+
+----+----+----+----+----+----+----+----+----+----+-----+-----+-----+-----+-----+-----+-----+-----+
| T0 | T1 | T2 | T3 | T4 | T5 | T6 | T7 | T8 | T9 | T10 | T11 | T12 | T13 | T14 | T15 | T16 | T17 |
+----+----+----+----+----+----+----+----+----+----+-----+-----+-----+-----+-----+-----+-----+-----+
| 1  | 1  | 1  | 1  | 1  | 0  | 0  | 0  | 0  | 0  |  0  |  0  |  0  |  0  |  0  |  0  |  0  |  0  |
| 0  | 0  | 0  | 0  | 0  | 1  | 1  | 1  | 0  | 0  |  0  |  0  |  0  |  0  |  0  |  0  |  0  |  0  |
| 0  | 0  | 0  | 0  | 0  | 0  | 0  | 0  | 1  | 1  |  1  |  1  |  1  |  0  |  0  |  0  |  1  |  1  |
| 0  | 0  | 0  | 0  | 0  | 0  | 0  | 0  | 0  | 0  |  0  |  0  |  0  |  1  |  1  |  1  |  1  |  1  |
+----+----+----+----+----+----+----+----+----+----+-----+-----+-----+-----+-----+-----+-----+-----+
+-----+---------+-------------+---------------------+
|  ID | Marcado | T - Entrada |      T - Salida     |
+-----+---------+-------------+---------------------+
| P23 |    0    |   ['T16']   | ['T1', 'T6', 'T17'] |
+-----+---------+-------------+---------------------+
+-----------------------------------------------------+--------------------+------------------------+
|                   Estados/Acciones                  | Agregar supervisor | Agregar o quitar arcos |
+-----------------------------------------------------+--------------------+------------------------+
|                        Start                        |       -90.0        |          0.0           |
|        Más sifónes vacíos en estado deadlock        |        0.0         |          0.0           |
|       Menos sifónes vacíos en estado deadlock       |        0.0         |          0.0           |
| Igual cantidad de sifónes vacíos en estado deadlock |       -90.0        |        -2.46429        |
|                         End                         |        0.0         |          0.0           |
+-----------------------------------------------------+--------------------+------------------------+
+----+-----+-----------------------------------+
| ID | Nro |               Plazas              |
+----+-----+-----------------------------------+
| 6  |  2  | ['P1', 'P7', 'P10', 'P17', 'P20'] |
+----+-----+-----------------------------------+
+----+----+----+----+----+----+----+----+----+----+-----+-----+-----+-----+-----+-----+-----+-----+
| T0 | T1 | T2 | T3 | T4 | T5 | T6 | T7 | T8 | T9 | T10 | T11 | T12 | T13 | T14 | T15 | T16 | T17 |
+----+----+----+----+----+----+----+----+----+----+-----+-----+-----+-----+-----+-----+-----+-----+
| 1  | 1  | 1  | 1  | 1  | 0  | 0  | 0  | 0  | 0  |  0  |  0  |  0  |  0  |  0  |  0  |  0  |  0  |
| 0  | 0  | 0  | 0  | 0  | 1  | 1  | 1  | 0  | 0  |  0  |  0  |  0  |  0  |  0  |  0  |  0  |  0  |
| 0  | 0  | 0  | 0  | 0  | 0  | 0  | 0  | 1  | 1  |  1  |  1  |  1  |  0  |  0  |  0  |  1  |  1  |
| 0  | 0  | 0  | 0  | 0  | 0  | 0  | 0  | 0  | 0  |  0  |  0  |  0  |  1  |  1  |  1  |  1  |  1  |
+----+----+----+----+----+----+----+----+----+----+-----+-----+-----+-----+-----+-----+-----+-----+
+-----+---------+-------------+---------------------+
|  ID | Marcado | T - Entrada |      T - Salida     |
+-----+---------+-------------+---------------------+
| P23 |    0    |   ['T16']   | ['T1', 'T6', 'T17'] |
+-----+---------+-------------+---------------------+
+-----------------------------------------------------+--------------------+------------------------+
|                   Estados/Acciones                  | Agregar supervisor | Agregar o quitar arcos |
+-----------------------------------------------------+--------------------+------------------------+
|                        Start                        |       -90.0        |          0.0           |
|        Más sifónes vacíos en estado deadlock        |        0.0         |          0.0           |
|       Menos sifónes vacíos en estado deadlock       |        0.0         |          0.0           |
| Igual cantidad de sifónes vacíos en estado deadlock |       -90.0        |  -3.1425039000000003   |
|                         End                         |        0.0         |          0.0           |
+-----------------------------------------------------+--------------------+------------------------+
+----+-----+-----------------------------------+
| ID | Nro |               Plazas              |
+----+-----+-----------------------------------+
| 7  |  2  | ['P1', 'P7', 'P10', 'P17', 'P20'] |
+----+-----+-----------------------------------+
+----+----+----+----+----+----+----+----+----+----+-----+-----+-----+-----+-----+-----+-----+-----+
| T0 | T1 | T2 | T3 | T4 | T5 | T6 | T7 | T8 | T9 | T10 | T11 | T12 | T13 | T14 | T15 | T16 | T17 |
+----+----+----+----+----+----+----+----+----+----+-----+-----+-----+-----+-----+-----+-----+-----+
| 1  | 1  | 1  | 1  | 1  | 0  | 0  | 0  | 0  | 0  |  0  |  0  |  0  |  0  |  0  |  0  |  0  |  0  |
| 0  | 0  | 0  | 0  | 0  | 1  | 1  | 1  | 0  | 0  |  0  |  0  |  0  |  0  |  0  |  0  |  0  |  0  |
| 0  | 0  | 0  | 0  | 0  | 0  | 0  | 0  | 1  | 1  |  1  |  1  |  1  |  0  |  0  |  0  |  1  |  1  |
| 0  | 0  | 0  | 0  | 0  | 0  | 0  | 0  | 0  | 0  |  0  |  0  |  0  |  1  |  1  |  1  |  1  |  1  |
+----+----+----+----+----+----+----+----+----+----+-----+-----+-----+-----+-----+-----+-----+-----+
+-----+---------+-------------+---------------------+
|  ID | Marcado | T - Entrada |      T - Salida     |
+-----+---------+-------------+---------------------+
| P23 |    0    |   ['T16']   | ['T1', 'T6', 'T17'] |
+-----+---------+-------------+---------------------+
+-----------------------------------------------------+--------------------+------------------------+
|                   Estados/Acciones                  | Agregar supervisor | Agregar o quitar arcos |
+-----------------------------------------------------+--------------------+------------------------+
|                        Start                        |       -90.0        |          0.0           |
|        Más sifónes vacíos en estado deadlock        |        0.0         |          0.0           |
|       Menos sifónes vacíos en estado deadlock       |        0.0         |          0.0           |
| Igual cantidad de sifónes vacíos en estado deadlock |       -90.0        |  -3.7596785490000006   |
|                         End                         |        0.0         |          0.0           |
+-----------------------------------------------------+--------------------+------------------------+
+----+-----+-----------------------------------+
| ID | Nro |               Plazas              |
+----+-----+-----------------------------------+
| 8  |  2  | ['P1', 'P7', 'P10', 'P17', 'P20'] |
+----+-----+-----------------------------------+
+----+----+----+----+----+----+----+----+----+----+-----+-----+-----+-----+-----+-----+-----+-----+
| T0 | T1 | T2 | T3 | T4 | T5 | T6 | T7 | T8 | T9 | T10 | T11 | T12 | T13 | T14 | T15 | T16 | T17 |
+----+----+----+----+----+----+----+----+----+----+-----+-----+-----+-----+-----+-----+-----+-----+
| 1  | 1  | 1  | 1  | 1  | 0  | 0  | 0  | 0  | 0  |  0  |  0  |  0  |  0  |  0  |  0  |  0  |  0  |
| 0  | 0  | 0  | 0  | 0  | 1  | 1  | 1  | 0  | 0  |  0  |  0  |  0  |  0  |  0  |  0  |  0  |  0  |
| 0  | 0  | 0  | 0  | 0  | 0  | 0  | 0  | 1  | 1  |  1  |  1  |  1  |  0  |  0  |  0  |  1  |  1  |
| 0  | 0  | 0  | 0  | 0  | 0  | 0  | 0  | 0  | 0  |  0  |  0  |  0  |  1  |  1  |  1  |  1  |  1  |
+----+----+----+----+----+----+----+----+----+----+-----+-----+-----+-----+-----+-----+-----+-----+
+-----+---------+-------------+---------------------+
|  ID | Marcado | T - Entrada |      T - Salida     |
+-----+---------+-------------+---------------------+
| P23 |    0    |   ['T16']   | ['T1', 'T6', 'T17'] |
+-----+---------+-------------+---------------------+
+-----------------------------------------------------+--------------------+------------------------+
|                   Estados/Acciones                  | Agregar supervisor | Agregar o quitar arcos |
+-----------------------------------------------------+--------------------+------------------------+
|                        Start                        |       -90.0        |          0.0           |
|        Más sifónes vacíos en estado deadlock        |        0.0         |          0.0           |
|       Menos sifónes vacíos en estado deadlock       |        0.0         |          0.0           |
| Igual cantidad de sifónes vacíos en estado deadlock |       -90.0        |  -4.3213074795900015   |
|                         End                         |        0.0         |          0.0           |
+-----------------------------------------------------+--------------------+------------------------+
+----+-----+-----------------------------------+
| ID | Nro |               Plazas              |
+----+-----+-----------------------------------+
| 9  |  2  | ['P1', 'P7', 'P10', 'P17', 'P20'] |
+----+-----+-----------------------------------+
+----+----+----+----+----+----+----+----+----+----+-----+-----+-----+-----+-----+-----+-----+-----+
| T0 | T1 | T2 | T3 | T4 | T5 | T6 | T7 | T8 | T9 | T10 | T11 | T12 | T13 | T14 | T15 | T16 | T17 |
+----+----+----+----+----+----+----+----+----+----+-----+-----+-----+-----+-----+-----+-----+-----+
| 1  | 1  | 1  | 1  | 1  | 0  | 0  | 0  | 0  | 0  |  0  |  0  |  0  |  0  |  0  |  0  |  0  |  0  |
| 0  | 0  | 0  | 0  | 0  | 1  | 1  | 1  | 0  | 0  |  0  |  0  |  0  |  0  |  0  |  0  |  0  |  0  |
| 0  | 0  | 0  | 0  | 0  | 0  | 0  | 0  | 1  | 1  |  1  |  1  |  1  |  0  |  0  |  0  |  1  |  1  |
| 0  | 0  | 0  | 0  | 0  | 0  | 0  | 0  | 0  | 0  |  0  |  0  |  0  |  1  |  1  |  1  |  1  |  1  |
+----+----+----+----+----+----+----+----+----+----+-----+-----+-----+-----+-----+-----+-----+-----+
+-----+---------+-------------+---------------------+
|  ID | Marcado | T - Entrada |      T - Salida     |
+-----+---------+-------------+---------------------+
| P23 |    0    |   ['T16']   | ['T1', 'T6', 'T17'] |
+-----+---------+-------------+---------------------+
+-----------------------------------------------------+--------------------+------------------------+
|                   Estados/Acciones                  | Agregar supervisor | Agregar o quitar arcos |
+-----------------------------------------------------+--------------------+------------------------+
|                        Start                        |       -90.0        |          0.0           |
|        Más sifónes vacíos en estado deadlock        |        0.0         |          0.0           |
|       Menos sifónes vacíos en estado deadlock       |        0.0         |          0.0           |
| Igual cantidad de sifónes vacíos en estado deadlock |       -90.0        |   -4.832389806426902   |
|                         End                         |        0.0         |          0.0           |
+-----------------------------------------------------+--------------------+------------------------+
+----+-----+-----------------------------------+
| ID | Nro |               Plazas              |
+----+-----+-----------------------------------+
| 10 |  2  | ['P1', 'P7', 'P10', 'P17', 'P20'] |
+----+-----+-----------------------------------+
+----+----+----+----+----+----+----+----+----+----+-----+-----+-----+-----+-----+-----+-----+-----+
| T0 | T1 | T2 | T3 | T4 | T5 | T6 | T7 | T8 | T9 | T10 | T11 | T12 | T13 | T14 | T15 | T16 | T17 |
+----+----+----+----+----+----+----+----+----+----+-----+-----+-----+-----+-----+-----+-----+-----+
| 1  | 1  | 1  | 1  | 1  | 0  | 0  | 0  | 0  | 0  |  0  |  0  |  0  |  0  |  0  |  0  |  0  |  0  |
| 0  | 0  | 0  | 0  | 0  | 1  | 1  | 1  | 0  | 0  |  0  |  0  |  0  |  0  |  0  |  0  |  0  |  0  |
| 0  | 0  | 0  | 0  | 0  | 0  | 0  | 0  | 1  | 1  |  1  |  1  |  1  |  0  |  0  |  0  |  1  |  1  |
| 0  | 0  | 0  | 0  | 0  | 0  | 0  | 0  | 0  | 0  |  0  |  0  |  0  |  1  |  1  |  1  |  1  |  1  |
+----+----+----+----+----+----+----+----+----+----+-----+-----+-----+-----+-----+-----+-----+-----+
+-----+---------+-------------+---------------------+
|  ID | Marcado | T - Entrada |      T - Salida     |
+-----+---------+-------------+---------------------+
| P23 |    0    |   ['T16']   | ['T1', 'T6', 'T17'] |
+-----+---------+-------------+---------------------+
+-----------------------------------------------------+--------------------+------------------------+
|                   Estados/Acciones                  | Agregar supervisor | Agregar o quitar arcos |
+-----------------------------------------------------+--------------------+------------------------+
|                        Start                        |       -90.0        |          0.0           |
|        Más sifónes vacíos en estado deadlock        |        0.0         |          0.0           |
|       Menos sifónes vacíos en estado deadlock       |        0.0         |          0.0           |
| Igual cantidad de sifónes vacíos en estado deadlock |       -90.0        |   -5.297474723848481   |
|                         End                         |        0.0         |          0.0           |
+-----------------------------------------------------+--------------------+------------------------+
+----+-----+-----------------------------------+
| ID | Nro |               Plazas              |
+----+-----+-----------------------------------+
| 11 |  2  | ['P1', 'P7', 'P10', 'P17', 'P20'] |
+----+-----+-----------------------------------+
+----+----+----+----+----+----+----+----+----+----+-----+-----+-----+-----+-----+-----+-----+-----+
| T0 | T1 | T2 | T3 | T4 | T5 | T6 | T7 | T8 | T9 | T10 | T11 | T12 | T13 | T14 | T15 | T16 | T17 |
+----+----+----+----+----+----+----+----+----+----+-----+-----+-----+-----+-----+-----+-----+-----+
| 1  | 1  | 1  | 1  | 1  | 0  | 0  | 0  | 0  | 0  |  0  |  0  |  0  |  0  |  0  |  0  |  0  |  0  |
| 0  | 0  | 0  | 0  | 0  | 1  | 1  | 1  | 0  | 0  |  0  |  0  |  0  |  0  |  0  |  0  |  0  |  0  |
| 0  | 0  | 0  | 0  | 0  | 0  | 0  | 0  | 1  | 1  |  1  |  1  |  1  |  0  |  0  |  0  |  1  |  1  |
| 0  | 0  | 0  | 0  | 0  | 0  | 0  | 0  | 0  | 0  |  0  |  0  |  0  |  1  |  1  |  1  |  1  |  1  |
+----+----+----+----+----+----+----+----+----+----+-----+-----+-----+-----+-----+-----+-----+-----+
+-----+---------+-------------+---------------------+
|  ID | Marcado | T - Entrada |      T - Salida     |
+-----+---------+-------------+---------------------+
| P23 |    0    |   ['T16']   | ['T1', 'T6', 'T17'] |
+-----+---------+-------------+---------------------+
+-----------------------------------------------------+--------------------+------------------------+
|                   Estados/Acciones                  | Agregar supervisor | Agregar o quitar arcos |
+-----------------------------------------------------+--------------------+------------------------+
|                        Start                        |       -90.0        |          0.0           |
|        Más sifónes vacíos en estado deadlock        |        0.0         |          0.0           |
|       Menos sifónes vacíos en estado deadlock       |        0.0         |          0.0           |
| Igual cantidad de sifónes vacíos en estado deadlock |       -90.0        |  -5.7207019987021175   |
|                         End                         |        0.0         |          0.0           |
+-----------------------------------------------------+--------------------+------------------------+
+----+-----+-----------------------------------+
| ID | Nro |               Plazas              |
+----+-----+-----------------------------------+
| 12 |  2  | ['P1', 'P7', 'P10', 'P17', 'P20'] |
+----+-----+-----------------------------------+
+----+----+----+----+----+----+----+----+----+----+-----+-----+-----+-----+-----+-----+-----+-----+
| T0 | T1 | T2 | T3 | T4 | T5 | T6 | T7 | T8 | T9 | T10 | T11 | T12 | T13 | T14 | T15 | T16 | T17 |
+----+----+----+----+----+----+----+----+----+----+-----+-----+-----+-----+-----+-----+-----+-----+
| 1  | 1  | 1  | 1  | 1  | 0  | 0  | 0  | 0  | 0  |  0  |  0  |  0  |  0  |  0  |  0  |  0  |  0  |
| 0  | 0  | 0  | 0  | 0  | 1  | 1  | 1  | 0  | 0  |  0  |  0  |  0  |  0  |  0  |  0  |  0  |  0  |
| 0  | 0  | 0  | 0  | 0  | 0  | 0  | 0  | 1  | 1  |  1  |  1  |  1  |  0  |  0  |  0  |  1  |  1  |
| 0  | 0  | 0  | 0  | 0  | 0  | 0  | 0  | 0  | 0  |  0  |  0  |  0  |  1  |  1  |  1  |  1  |  1  |
+----+----+----+----+----+----+----+----+----+----+-----+-----+-----+-----+-----+-----+-----+-----+
+-----+---------+-------------+---------------------+
|  ID | Marcado | T - Entrada |      T - Salida     |
+-----+---------+-------------+---------------------+
| P23 |    0    |   ['T16']   | ['T1', 'T6', 'T17'] |
+-----+---------+-------------+---------------------+
+-----------------------------------------------------+---------------------+------------------------+
|                   Estados/Acciones                  |  Agregar supervisor | Agregar o quitar arcos |
+-----------------------------------------------------+---------------------+------------------------+
|                        Start                        |        -90.0        |          0.0           |
|        Más sifónes vacíos en estado deadlock        |         0.0         |          0.0           |
|       Menos sifónes vacíos en estado deadlock       |         0.0         |          0.0           |
| Igual cantidad de sifónes vacíos en estado deadlock | -103.63376861894871 |  -5.7207019987021175   |
|                         End                         |         0.0         |          0.0           |
+-----------------------------------------------------+---------------------+------------------------+
+----+-----+-----------------------------------+
| ID | Nro |               Plazas              |
+----+-----+-----------------------------------+
| 13 |  2  | ['P1', 'P7', 'P10', 'P17', 'P20'] |
+----+-----+-----------------------------------+
+----+----+----+----+----+----+----+----+----+----+-----+-----+-----+-----+-----+-----+-----+-----+
| T0 | T1 | T2 | T3 | T4 | T5 | T6 | T7 | T8 | T9 | T10 | T11 | T12 | T13 | T14 | T15 | T16 | T17 |
+----+----+----+----+----+----+----+----+----+----+-----+-----+-----+-----+-----+-----+-----+-----+
| 1  | 1  | 1  | 1  | 1  | 0  | 0  | 0  | 0  | 0  |  0  |  0  |  0  |  0  |  0  |  0  |  0  |  0  |
| 0  | 0  | 0  | 0  | 0  | 1  | 1  | 1  | 0  | 0  |  0  |  0  |  0  |  0  |  0  |  0  |  0  |  0  |
| 0  | 0  | 0  | 0  | 0  | 0  | 0  | 0  | 1  | 1  |  1  |  1  |  1  |  0  |  0  |  0  |  1  |  1  |
| 0  | 0  | 0  | 0  | 0  | 0  | 0  | 0  | 0  | 0  |  0  |  0  |  0  |  1  |  1  |  1  |  1  |  1  |
+----+----+----+----+----+----+----+----+----+----+-----+-----+-----+-----+-----+-----+-----+-----+
+-----+---------+-------------+---------------------+
|  ID | Marcado | T - Entrada |      T - Salida     |
+-----+---------+-------------+---------------------+
| P23 |    0    |   ['T16']   | ['T1', 'T6', 'T17'] |
+-----+---------+-------------+---------------------+
+-----------------------------------------------------+---------------------+------------------------+
|                   Estados/Acciones                  |  Agregar supervisor | Agregar o quitar arcos |
+-----------------------------------------------------+---------------------+------------------------+
|                        Start                        |        -90.0        |          0.0           |
|        Más sifónes vacíos en estado deadlock        |         0.0         |          0.0           |
|       Menos sifónes vacíos en estado deadlock       |         0.0         |          0.0           |
| Igual cantidad de sifónes vacíos en estado deadlock | -103.63376861894871 |   -6.105838818818927   |
|                         End                         |         0.0         |          0.0           |
+-----------------------------------------------------+---------------------+------------------------+
+----+-----+-----------------------------------+
| ID | Nro |               Plazas              |
+----+-----+-----------------------------------+
| 14 |  2  | ['P1', 'P7', 'P10', 'P17', 'P20'] |
+----+-----+-----------------------------------+
+----+----+----+----+----+----+----+----+----+----+-----+-----+-----+-----+-----+-----+-----+-----+
| T0 | T1 | T2 | T3 | T4 | T5 | T6 | T7 | T8 | T9 | T10 | T11 | T12 | T13 | T14 | T15 | T16 | T17 |
+----+----+----+----+----+----+----+----+----+----+-----+-----+-----+-----+-----+-----+-----+-----+
| 1  | 1  | 1  | 1  | 1  | 0  | 0  | 0  | 0  | 0  |  0  |  0  |  0  |  0  |  0  |  0  |  0  |  0  |
| 0  | 0  | 0  | 0  | 0  | 1  | 1  | 1  | 0  | 0  |  0  |  0  |  0  |  0  |  0  |  0  |  0  |  0  |
| 0  | 0  | 0  | 0  | 0  | 0  | 0  | 0  | 1  | 1  |  1  |  1  |  1  |  0  |  0  |  0  |  1  |  1  |
| 0  | 0  | 0  | 0  | 0  | 0  | 0  | 0  | 0  | 0  |  0  |  0  |  0  |  1  |  1  |  1  |  1  |  1  |
+----+----+----+----+----+----+----+----+----+----+-----+-----+-----+-----+-----+-----+-----+-----+
+-----+---------+-------------+---------------------+
|  ID | Marcado | T - Entrada |      T - Salida     |
+-----+---------+-------------+---------------------+
| P23 |    0    |   ['T16']   | ['T1', 'T6', 'T17'] |
+-----+---------+-------------+---------------------+
+-----------------------------------------------------+---------------------+------------------------+
|                   Estados/Acciones                  |  Agregar supervisor | Agregar o quitar arcos |
+-----------------------------------------------------+---------------------+------------------------+
|                        Start                        |        -90.0        |          0.0           |
|        Más sifónes vacíos en estado deadlock        |         0.0         |          0.0           |
|       Menos sifónes vacíos en estado deadlock       |         0.0         |          0.0           |
| Igual cantidad de sifónes vacíos en estado deadlock | -103.63376861894871 |   -6.456313325125223   |
|                         End                         |         0.0         |          0.0           |
+-----------------------------------------------------+---------------------+------------------------+
+----+-----+-----------------------------------+
| ID | Nro |               Plazas              |
+----+-----+-----------------------------------+
| 15 |  2  | ['P1', 'P7', 'P10', 'P17', 'P20'] |
+----+-----+-----------------------------------+
+----+----+----+----+----+----+----+----+----+----+-----+-----+-----+-----+-----+-----+-----+-----+
| T0 | T1 | T2 | T3 | T4 | T5 | T6 | T7 | T8 | T9 | T10 | T11 | T12 | T13 | T14 | T15 | T16 | T17 |
+----+----+----+----+----+----+----+----+----+----+-----+-----+-----+-----+-----+-----+-----+-----+
| 1  | 1  | 1  | 1  | 1  | 0  | 0  | 0  | 0  | 0  |  0  |  0  |  0  |  0  |  0  |  0  |  0  |  0  |
| 0  | 0  | 0  | 0  | 0  | 1  | 1  | 1  | 0  | 0  |  0  |  0  |  0  |  0  |  0  |  0  |  0  |  0  |
| 0  | 0  | 0  | 0  | 0  | 0  | 0  | 0  | 1  | 1  |  1  |  1  |  1  |  0  |  0  |  0  |  1  |  1  |
| 0  | 0  | 0  | 0  | 0  | 0  | 0  | 0  | 0  | 0  |  0  |  0  |  0  |  1  |  1  |  1  |  1  |  1  |
+----+----+----+----+----+----+----+----+----+----+-----+-----+-----+-----+-----+-----+-----+-----+
+-----+---------+-------------+---------------------+
|  ID | Marcado | T - Entrada |      T - Salida     |
+-----+---------+-------------+---------------------+
| P23 |    0    |   ['T16']   | ['T1', 'T6', 'T17'] |
+-----+---------+-------------+---------------------+
+-----------------------------------------------------+---------------------+------------------------+
|                   Estados/Acciones                  |  Agregar supervisor | Agregar o quitar arcos |
+-----------------------------------------------------+---------------------+------------------------+
|                        Start                        |        -90.0        |          0.0           |
|        Más sifónes vacíos en estado deadlock        |         0.0         |          0.0           |
|       Menos sifónes vacíos en estado deadlock       |         0.0         |          0.0           |
| Igual cantidad de sifónes vacíos en estado deadlock | -103.63376861894871 |   -6.775245125863953   |
|                         End                         |         0.0         |          0.0           |
+-----------------------------------------------------+---------------------+------------------------+
+----+-----+-----------------------------------+
| ID | Nro |               Plazas              |
+----+-----+-----------------------------------+
| 16 |  2  | ['P1', 'P7', 'P10', 'P17', 'P20'] |
+----+-----+-----------------------------------+
+----+----+----+----+----+----+----+----+----+----+-----+-----+-----+-----+-----+-----+-----+-----+
| T0 | T1 | T2 | T3 | T4 | T5 | T6 | T7 | T8 | T9 | T10 | T11 | T12 | T13 | T14 | T15 | T16 | T17 |
+----+----+----+----+----+----+----+----+----+----+-----+-----+-----+-----+-----+-----+-----+-----+
| 1  | 1  | 1  | 1  | 1  | 0  | 0  | 0  | 0  | 0  |  0  |  0  |  0  |  0  |  0  |  0  |  0  |  0  |
| 0  | 0  | 0  | 0  | 0  | 1  | 1  | 1  | 0  | 0  |  0  |  0  |  0  |  0  |  0  |  0  |  0  |  0  |
| 0  | 0  | 0  | 0  | 0  | 0  | 0  | 0  | 1  | 1  |  1  |  1  |  1  |  0  |  0  |  0  |  1  |  1  |
| 0  | 0  | 0  | 0  | 0  | 0  | 0  | 0  | 0  | 0  |  0  |  0  |  0  |  1  |  1  |  1  |  1  |  1  |
+----+----+----+----+----+----+----+----+----+----+-----+-----+-----+-----+-----+-----+-----+-----+
+-----+---------+-------------+---------------------+
|  ID | Marcado | T - Entrada |      T - Salida     |
+-----+---------+-------------+---------------------+
| P23 |    0    |   ['T16']   | ['T1', 'T6', 'T17'] |
+-----+---------+-------------+---------------------+
+-----------------------------------------------------+---------------------+------------------------+
|                   Estados/Acciones                  |  Agregar supervisor | Agregar o quitar arcos |
+-----------------------------------------------------+---------------------+------------------------+
|                        Start                        |        -90.0        |          0.0           |
|        Más sifónes vacíos en estado deadlock        |         0.0         |          0.0           |
|       Menos sifónes vacíos en estado deadlock       |         0.0         |          0.0           |
| Igual cantidad de sifónes vacíos en estado deadlock | -103.63376861894871 |   -7.065473064536197   |
|                         End                         |         0.0         |          0.0           |
+-----------------------------------------------------+---------------------+------------------------+
+----+-----+-----------------------------------+
| ID | Nro |               Plazas              |
+----+-----+-----------------------------------+
| 17 |  2  | ['P1', 'P7', 'P10', 'P17', 'P20'] |
+----+-----+-----------------------------------+
+----+----+----+----+----+----+----+----+----+----+-----+-----+-----+-----+-----+-----+-----+-----+
| T0 | T1 | T2 | T3 | T4 | T5 | T6 | T7 | T8 | T9 | T10 | T11 | T12 | T13 | T14 | T15 | T16 | T17 |
+----+----+----+----+----+----+----+----+----+----+-----+-----+-----+-----+-----+-----+-----+-----+
| 1  | 1  | 1  | 1  | 1  | 0  | 0  | 0  | 0  | 0  |  0  |  0  |  0  |  0  |  0  |  0  |  0  |  0  |
| 0  | 0  | 0  | 0  | 0  | 1  | 1  | 1  | 0  | 0  |  0  |  0  |  0  |  0  |  0  |  0  |  0  |  0  |
| 0  | 0  | 0  | 0  | 0  | 0  | 0  | 0  | 1  | 1  |  1  |  1  |  1  |  0  |  0  |  0  |  1  |  1  |
| 0  | 0  | 0  | 0  | 0  | 0  | 0  | 0  | 0  | 0  |  0  |  0  |  0  |  1  |  1  |  1  |  1  |  1  |
+----+----+----+----+----+----+----+----+----+----+-----+-----+-----+-----+-----+-----+-----+-----+
+-----+---------+-------------+---------------------+
|  ID | Marcado | T - Entrada |      T - Salida     |
+-----+---------+-------------+---------------------+
| P23 |    0    |   ['T16']   | ['T1', 'T6', 'T17'] |
+-----+---------+-------------+---------------------+
+-----------------------------------------------------+---------------------+------------------------+
|                   Estados/Acciones                  |  Agregar supervisor | Agregar o quitar arcos |
+-----------------------------------------------------+---------------------+------------------------+
|                        Start                        |        -90.0        |          0.0           |
|        Más sifónes vacíos en estado deadlock        |         0.0         |          0.0           |
|       Menos sifónes vacíos en estado deadlock       |         0.0         |          0.0           |
| Igual cantidad de sifónes vacíos en estado deadlock | -103.63376861894871 |   -7.329580488727939   |
|                         End                         |         0.0         |          0.0           |
+-----------------------------------------------------+---------------------+------------------------+
+----+-----+-----------------------------------+
| ID | Nro |               Plazas              |
+----+-----+-----------------------------------+
| 18 |  2  | ['P1', 'P7', 'P10', 'P17', 'P20'] |
+----+-----+-----------------------------------+
+----+----+----+----+----+----+----+----+----+----+-----+-----+-----+-----+-----+-----+-----+-----+
| T0 | T1 | T2 | T3 | T4 | T5 | T6 | T7 | T8 | T9 | T10 | T11 | T12 | T13 | T14 | T15 | T16 | T17 |
+----+----+----+----+----+----+----+----+----+----+-----+-----+-----+-----+-----+-----+-----+-----+
| 1  | 1  | 1  | 1  | 1  | 0  | 0  | 0  | 0  | 0  |  0  |  0  |  0  |  0  |  0  |  0  |  0  |  0  |
| 0  | 0  | 0  | 0  | 0  | 1  | 1  | 1  | 0  | 0  |  0  |  0  |  0  |  0  |  0  |  0  |  0  |  0  |
| 0  | 0  | 0  | 0  | 0  | 0  | 0  | 0  | 1  | 1  |  1  |  1  |  1  |  0  |  0  |  0  |  1  |  1  |
| 0  | 0  | 0  | 0  | 0  | 0  | 0  | 0  | 0  | 0  |  0  |  0  |  0  |  1  |  1  |  1  |  1  |  1  |
+----+----+----+----+----+----+----+----+----+----+-----+-----+-----+-----+-----+-----+-----+-----+
+-----+---------+-------------+---------------------+
|  ID | Marcado | T - Entrada |      T - Salida     |
+-----+---------+-------------+---------------------+
| P23 |    0    |   ['T16']   | ['T1', 'T6', 'T17'] |
+-----+---------+-------------+---------------------+
+-----------------------------------------------------+---------------------+------------------------+
|                   Estados/Acciones                  |  Agregar supervisor | Agregar o quitar arcos |
+-----------------------------------------------------+---------------------+------------------------+
|                        Start                        |        -90.0        |          0.0           |
|        Más sifónes vacíos en estado deadlock        |         0.0         |          0.0           |
|       Menos sifónes vacíos en estado deadlock       |         0.0         |          0.0           |
| Igual cantidad de sifónes vacíos en estado deadlock | -103.63376861894871 |   -7.569918244742425   |
|                         End                         |         0.0         |          0.0           |
+-----------------------------------------------------+---------------------+------------------------+
+----+-----+-----------------------------------+
| ID | Nro |               Plazas              |
+----+-----+-----------------------------------+
| 19 |  2  | ['P1', 'P7', 'P10', 'P17', 'P20'] |
+----+-----+-----------------------------------+
+----+----+----+----+----+----+----+----+----+----+-----+-----+-----+-----+-----+-----+-----+-----+
| T0 | T1 | T2 | T3 | T4 | T5 | T6 | T7 | T8 | T9 | T10 | T11 | T12 | T13 | T14 | T15 | T16 | T17 |
+----+----+----+----+----+----+----+----+----+----+-----+-----+-----+-----+-----+-----+-----+-----+
| 1  | 1  | 1  | 1  | 1  | 0  | 0  | 0  | 0  | 0  |  0  |  0  |  0  |  0  |  0  |  0  |  0  |  0  |
| 0  | 0  | 0  | 0  | 0  | 1  | 1  | 1  | 0  | 0  |  0  |  0  |  0  |  0  |  0  |  0  |  0  |  0  |
| 0  | 0  | 0  | 0  | 0  | 0  | 0  | 0  | 1  | 1  |  1  |  1  |  1  |  0  |  0  |  0  |  1  |  1  |
| 0  | 0  | 0  | 0  | 0  | 0  | 0  | 0  | 0  | 0  |  0  |  0  |  0  |  1  |  1  |  1  |  1  |  1  |
+----+----+----+----+----+----+----+----+----+----+-----+-----+-----+-----+-----+-----+-----+-----+
+-----+---------+-------------+---------------------+
|  ID | Marcado | T - Entrada |      T - Salida     |
+-----+---------+-------------+---------------------+
| P23 |    0    |   ['T16']   | ['T1', 'T6', 'T17'] |
+-----+---------+-------------+---------------------+
+-----------------------------------------------------+---------------------+------------------------+
|                   Estados/Acciones                  |  Agregar supervisor | Agregar o quitar arcos |
+-----------------------------------------------------+---------------------+------------------------+
|                        Start                        |        -90.0        |          0.0           |
|        Más sifónes vacíos en estado deadlock        |         0.0         |          0.0           |
|       Menos sifónes vacíos en estado deadlock       |         0.0         |          0.0           |
| Igual cantidad de sifónes vacíos en estado deadlock | -103.63376861894871 |   -7.788625602715607   |
|                         End                         |         0.0         |          0.0           |
+-----------------------------------------------------+---------------------+------------------------+
+----+-----+-----------------------------------+
| ID | Nro |               Plazas              |
+----+-----+-----------------------------------+
| 20 |  2  | ['P1', 'P7', 'P10', 'P17', 'P20'] |
+----+-----+-----------------------------------+
+----+----+----+----+----+----+----+----+----+----+-----+-----+-----+-----+-----+-----+-----+-----+
| T0 | T1 | T2 | T3 | T4 | T5 | T6 | T7 | T8 | T9 | T10 | T11 | T12 | T13 | T14 | T15 | T16 | T17 |
+----+----+----+----+----+----+----+----+----+----+-----+-----+-----+-----+-----+-----+-----+-----+
| 1  | 1  | 1  | 1  | 1  | 0  | 0  | 0  | 0  | 0  |  0  |  0  |  0  |  0  |  0  |  0  |  0  |  0  |
| 0  | 0  | 0  | 0  | 0  | 1  | 1  | 1  | 0  | 0  |  0  |  0  |  0  |  0  |  0  |  0  |  0  |  0  |
| 0  | 0  | 0  | 0  | 0  | 0  | 0  | 0  | 1  | 1  |  1  |  1  |  1  |  0  |  0  |  0  |  1  |  1  |
| 0  | 0  | 0  | 0  | 0  | 0  | 0  | 0  | 0  | 0  |  0  |  0  |  0  |  1  |  1  |  1  |  1  |  1  |
+----+----+----+----+----+----+----+----+----+----+-----+-----+-----+-----+-----+-----+-----+-----+
+-----+---------+-------------+---------------------+
|  ID | Marcado | T - Entrada |      T - Salida     |
+-----+---------+-------------+---------------------+
| P23 |    0    |   ['T16']   | ['T1', 'T6', 'T17'] |
+-----+---------+-------------+---------------------+
+-----------------------------------------------------+---------------------+------------------------+
|                   Estados/Acciones                  |  Agregar supervisor | Agregar o quitar arcos |
+-----------------------------------------------------+---------------------+------------------------+
|                        Start                        |        -90.0        |          0.0           |
|        Más sifónes vacíos en estado deadlock        |         0.0         |          0.0           |
|       Menos sifónes vacíos en estado deadlock       |         0.0         |          0.0           |
| Igual cantidad de sifónes vacíos en estado deadlock | -103.63376861894871 |   -7.987649298471202   |
|                         End                         |         0.0         |          0.0           |
+-----------------------------------------------------+---------------------+------------------------+
+----+-----+-----------------------------------+
| ID | Nro |               Plazas              |
+----+-----+-----------------------------------+
| 21 |  2  | ['P1', 'P7', 'P10', 'P17', 'P20'] |
+----+-----+-----------------------------------+
+----+----+----+----+----+----+----+----+----+----+-----+-----+-----+-----+-----+-----+-----+-----+
| T0 | T1 | T2 | T3 | T4 | T5 | T6 | T7 | T8 | T9 | T10 | T11 | T12 | T13 | T14 | T15 | T16 | T17 |
+----+----+----+----+----+----+----+----+----+----+-----+-----+-----+-----+-----+-----+-----+-----+
| 1  | 1  | 1  | 1  | 1  | 0  | 0  | 0  | 0  | 0  |  0  |  0  |  0  |  0  |  0  |  0  |  0  |  0  |
| 0  | 0  | 0  | 0  | 0  | 1  | 1  | 1  | 0  | 0  |  0  |  0  |  0  |  0  |  0  |  0  |  0  |  0  |
| 0  | 0  | 0  | 0  | 0  | 0  | 0  | 0  | 1  | 1  |  1  |  1  |  1  |  0  |  0  |  0  |  1  |  1  |
| 0  | 0  | 0  | 0  | 0  | 0  | 0  | 0  | 0  | 0  |  0  |  0  |  0  |  1  |  1  |  1  |  1  |  1  |
+----+----+----+----+----+----+----+----+----+----+-----+-----+-----+-----+-----+-----+-----+-----+
+-----+---------+-------------+---------------------+
|  ID | Marcado | T - Entrada |      T - Salida     |
+-----+---------+-------------+---------------------+
| P23 |    0    |   ['T16']   | ['T1', 'T6', 'T17'] |
+-----+---------+-------------+---------------------+
+-----------------------------------------------------+---------------------+------------------------+
|                   Estados/Acciones                  |  Agregar supervisor | Agregar o quitar arcos |
+-----------------------------------------------------+---------------------+------------------------+
|                        Start                        |        -90.0        |          0.0           |
|        Más sifónes vacíos en estado deadlock        |         0.0         |          0.0           |
|       Menos sifónes vacíos en estado deadlock       |         0.0         |          0.0           |
| Igual cantidad de sifónes vacíos en estado deadlock | -103.63376861894871 |   -8.168760861608792   |
|                         End                         |         0.0         |          0.0           |
+-----------------------------------------------------+---------------------+------------------------+
+----+-----+-----------------------------------+
| ID | Nro |               Plazas              |
+----+-----+-----------------------------------+
| 22 |  2  | ['P1', 'P7', 'P10', 'P17', 'P20'] |
+----+-----+-----------------------------------+
+----+----+----+----+----+----+----+----+----+----+-----+-----+-----+-----+-----+-----+-----+-----+
| T0 | T1 | T2 | T3 | T4 | T5 | T6 | T7 | T8 | T9 | T10 | T11 | T12 | T13 | T14 | T15 | T16 | T17 |
+----+----+----+----+----+----+----+----+----+----+-----+-----+-----+-----+-----+-----+-----+-----+
| 1  | 1  | 1  | 1  | 1  | 0  | 0  | 0  | 0  | 0  |  0  |  0  |  0  |  0  |  0  |  0  |  0  |  0  |
| 0  | 0  | 0  | 0  | 0  | 1  | 1  | 1  | 0  | 0  |  0  |  0  |  0  |  0  |  0  |  0  |  0  |  0  |
| 0  | 0  | 0  | 0  | 0  | 0  | 0  | 0  | 1  | 1  |  1  |  1  |  1  |  0  |  0  |  0  |  1  |  1  |
| 0  | 0  | 0  | 0  | 0  | 0  | 0  | 0  | 0  | 0  |  0  |  0  |  0  |  1  |  1  |  1  |  1  |  1  |
+----+----+----+----+----+----+----+----+----+----+-----+-----+-----+-----+-----+-----+-----+-----+
+-----+---------+-------------+---------------------+
|  ID | Marcado | T - Entrada |      T - Salida     |
+-----+---------+-------------+---------------------+
| P23 |    0    |   ['T16']   | ['T1', 'T6', 'T17'] |
+-----+---------+-------------+---------------------+
+-----------------------------------------------------+---------------------+------------------------+
|                   Estados/Acciones                  |  Agregar supervisor | Agregar o quitar arcos |
+-----------------------------------------------------+---------------------+------------------------+
|                        Start                        |        -90.0        |          0.0           |
|        Más sifónes vacíos en estado deadlock        |         0.0         |          0.0           |
|       Menos sifónes vacíos en estado deadlock       |         0.0         |          0.0           |
| Igual cantidad de sifónes vacíos en estado deadlock | -103.63376861894871 |   -8.333572384064002   |
|                         End                         |         0.0         |          0.0           |
+-----------------------------------------------------+---------------------+------------------------+
+----+-----+-----------------------------------+
| ID | Nro |               Plazas              |
+----+-----+-----------------------------------+
| 23 |  2  | ['P1', 'P7', 'P10', 'P17', 'P20'] |
+----+-----+-----------------------------------+
+----+----+----+----+----+----+----+----+----+----+-----+-----+-----+-----+-----+-----+-----+-----+
| T0 | T1 | T2 | T3 | T4 | T5 | T6 | T7 | T8 | T9 | T10 | T11 | T12 | T13 | T14 | T15 | T16 | T17 |
+----+----+----+----+----+----+----+----+----+----+-----+-----+-----+-----+-----+-----+-----+-----+
| 1  | 1  | 1  | 1  | 1  | 0  | 0  | 0  | 0  | 0  |  0  |  0  |  0  |  0  |  0  |  0  |  0  |  0  |
| 0  | 0  | 0  | 0  | 0  | 1  | 1  | 1  | 0  | 0  |  0  |  0  |  0  |  0  |  0  |  0  |  0  |  0  |
| 0  | 0  | 0  | 0  | 0  | 0  | 0  | 0  | 1  | 1  |  1  |  1  |  1  |  0  |  0  |  0  |  1  |  1  |
| 0  | 0  | 0  | 0  | 0  | 0  | 0  | 0  | 0  | 0  |  0  |  0  |  0  |  1  |  1  |  1  |  1  |  1  |
+----+----+----+----+----+----+----+----+----+----+-----+-----+-----+-----+-----+-----+-----+-----+
+-----+---------+-------------+---------------------+
|  ID | Marcado | T - Entrada |      T - Salida     |
+-----+---------+-------------+---------------------+
| P23 |    0    |   ['T16']   | ['T1', 'T6', 'T17'] |
+-----+---------+-------------+---------------------+
+-----------------------------------------------------+---------------------+------------------------+
|                   Estados/Acciones                  |  Agregar supervisor | Agregar o quitar arcos |
+-----------------------------------------------------+---------------------+------------------------+
|                        Start                        |        -90.0        |          0.0           |
|        Más sifónes vacíos en estado deadlock        |         0.0         |          0.0           |
|       Menos sifónes vacíos en estado deadlock       |         0.0         |          0.0           |
| Igual cantidad de sifónes vacíos en estado deadlock | -103.63376861894871 |   -8.483550869498242   |
|                         End                         |         0.0         |          0.0           |
+-----------------------------------------------------+---------------------+------------------------+
+----+-----+-----------------------------------+
| ID | Nro |               Plazas              |
+----+-----+-----------------------------------+
| 24 |  2  | ['P1', 'P7', 'P10', 'P17', 'P20'] |
+----+-----+-----------------------------------+
+----+----+----+----+----+----+----+----+----+----+-----+-----+-----+-----+-----+-----+-----+-----+
| T0 | T1 | T2 | T3 | T4 | T5 | T6 | T7 | T8 | T9 | T10 | T11 | T12 | T13 | T14 | T15 | T16 | T17 |
+----+----+----+----+----+----+----+----+----+----+-----+-----+-----+-----+-----+-----+-----+-----+
| 1  | 1  | 1  | 1  | 1  | 0  | 0  | 0  | 0  | 0  |  0  |  0  |  0  |  0  |  0  |  0  |  0  |  0  |
| 0  | 0  | 0  | 0  | 0  | 1  | 1  | 1  | 0  | 0  |  0  |  0  |  0  |  0  |  0  |  0  |  0  |  0  |
| 0  | 0  | 0  | 0  | 0  | 0  | 0  | 0  | 1  | 1  |  1  |  1  |  1  |  0  |  0  |  0  |  1  |  1  |
| 0  | 0  | 0  | 0  | 0  | 0  | 0  | 0  | 0  | 0  |  0  |  0  |  0  |  1  |  1  |  1  |  1  |  1  |
+----+----+----+----+----+----+----+----+----+----+-----+-----+-----+-----+-----+-----+-----+-----+
+-----+---------+-------------+---------------------+
|  ID | Marcado | T - Entrada |      T - Salida     |
+-----+---------+-------------+---------------------+
| P23 |    0    |   ['T16']   | ['T1', 'T6', 'T17'] |
+-----+---------+-------------+---------------------+
+-----------------------------------------------------+---------------------+------------------------+
|                   Estados/Acciones                  |  Agregar supervisor | Agregar o quitar arcos |
+-----------------------------------------------------+---------------------+------------------------+
|                        Start                        |        -90.0        |          0.0           |
|        Más sifónes vacíos en estado deadlock        |         0.0         |          0.0           |
|       Menos sifónes vacíos en estado deadlock       |         0.0         |          0.0           |
| Igual cantidad de sifónes vacíos en estado deadlock | -103.63376861894871 |    -8.6200312912434    |
|                         End                         |         0.0         |          0.0           |
+-----------------------------------------------------+---------------------+------------------------+
