19/07/2021 15:26:36[DEBUG] pflow_file:  ../analysis/analisis_11_18072021/gen_nets/20210719-151113_12/net.pflow  
19/07/2021 15:26:36[DEBUG] output_folder:  ../analysis/analisis_11_18072021/gen_nets/20210719-151113_12/  
19/07/2021 15:26:36[DEBUG] html_path:  ../analysis/analisis_11_18072021/gen_nets/20210719-151113_12/  
19/07/2021 15:26:36[DEBUG] txt_path:  ../analysis/analisis_11_18072021/gen_nets/20210719-151113_12/txt_info  

--------------------------------------------------------------------------   
19/07/2021 15:26:36[INFO] Ejecutando petrinator para conocer estado de la red...   
--------------------------------------------------------------------------
   
19/07/2021 15:26:40[ERROR] La red ingresada no tiene deadlock, cerrando analisis 
  
