21/07/2021 10:15:46[DEBUG] pflow_file:  ../analysis/analisis_12_20072021/gen_nets2/20210720-191422_39/net.pflow  
21/07/2021 10:15:46[DEBUG] output_folder:  ../analysis/analisis_12_20072021/gen_nets2/20210720-191422_39/  
21/07/2021 10:15:46[DEBUG] html_path:  ../analysis/analisis_12_20072021/gen_nets2/20210720-191422_39/  
21/07/2021 10:15:46[DEBUG] txt_path:  ../analysis/analisis_12_20072021/gen_nets2/20210720-191422_39/txt_info  

--------------------------------------------------------------------------   
21/07/2021 10:15:46[INFO] Ejecutando petrinator para conocer estado de la red...   
--------------------------------------------------------------------------
   
21/07/2021 10:15:49[ERROR] La red ingresada no tiene deadlock, cerrando analisis 
  
