
S23
S43
S125
S178
S203
S258
S291
S299
S304
S340
S542
S644
S893
S935
S941
S971
S982
S988
S1117
S1123
S1130
S1140
S1146
S1152
S1161
S1268
S1343
S1468
S1474
S1481
S1491
S1497
S1503
S1512
S1657
S1697
S1871
S1878
S1885
S1895
S1901
S1907
S1916
S2047
S2113
S2289
S2292
S2298
S2302
S2307
S2311
S2316
S2433
S2574
S2640
S2815
S2829
S2836
S2844
S2921
S3141
S3168
S3310
S3373
S3387
S3394
S3406
S3501
S3698
S3731
S3882
S3889
S3901
S3917
S3918
S4034
S4132
S4305
S4364
S4568
S4587
S4593
S4601
S4608
S4620
S4636
S4637
S4894
S4985
S5168
S5174
S5180
S5189
S5203
S5204
S5286
S5305
S5618
S5683
S5856
S5876
S5881
S5889
S5895
S5904
S5918
S6054
S6291
S6354
S6518
S6527
S6534
S6544
S6560
S6561
S6617
S7057
S7116
S7268
S7271
S7276
S7283
S7290
S7348
S7396
S7749
S7920
S8025
S8035
S8039
S8045
S8053
S8061
S8140
S8291
S8552