24/08/2021 18:50:42[DEBUG] pflow_file:  ../analysis/analisis_16_24082021/Ezpeleta_sindeadlock/net.pflow  
24/08/2021 18:50:42[DEBUG] output_folder:  ../analysis/analisis_16_24082021/Ezpeleta_sindeadlock/  
24/08/2021 18:50:42[DEBUG] html_path:  ../analysis/analisis_16_24082021/Ezpeleta_sindeadlock/  
24/08/2021 18:50:42[DEBUG] txt_path:  ../analysis/analisis_16_24082021/Ezpeleta_sindeadlock/txt_info  

--------------------------------------------------------------------------   
24/08/2021 18:50:42[INFO] Ejecutando petrinator para conocer estado de la red...   
--------------------------------------------------------------------------
   
24/08/2021 18:50:45[ERROR] La red ingresada NO TIENE DEADLOCK, abandonando analisis 
  
