 p 30 
 t 17 
 Reachable states from S0 [0, 0, 0, 0, 1, 1, 1, 3, 0, 0, 0, 1, 2, 0, 0, 1, 0, 0, 0, 0, 2, 1, 1, 1, 1, 1, 2, 2, 2, 1] 
 T1 => S1 [1, 0, 0, 0, 1, 1, 1, 2, 0, 0, 0, 1, 2, 0, 0, 1, 0, 0, 0, 0, 2, 0, 1, 1, 1, 1, 1, 1, 1, 1] 
 T6 => S19 [0, 0, 0, 0, 1, 1, 1, 3, 1, 0, 0, 1, 1, 0, 0, 1, 0, 0, 0, 0, 2, 1, 1, 1, 1, 1, 1, 1, 1, 0] 
 T16 => S152 [0, 0, 0, 0, 1, 1, 1, 3, 0, 0, 0, 1, 2, 0, 0, 1, 0, 0, 1, 0, 1, 1, 1, 1, 1, 1, 1, 1, 1, 0] 
 
 Reachable states from S1 [1, 0, 0, 0, 1, 1, 1, 2, 0, 0, 0, 1, 2, 0, 0, 1, 0, 0, 0, 0, 2, 0, 1, 1, 1, 1, 1, 1, 1, 1] 
 T2 => S2 [0, 1, 0, 0, 1, 1, 0, 2, 0, 0, 0, 1, 2, 0, 0, 1, 0, 0, 0, 0, 2, 1, 1, 1, 1, 0, 1, 1, 1, 1] 
 T6 => S20 [1, 0, 0, 0, 1, 1, 1, 2, 1, 0, 0, 1, 1, 0, 0, 1, 0, 0, 0, 0, 2, 0, 1, 1, 1, 1, 0, 0, 0, 0] 
 T16 => S153 [1, 0, 0, 0, 1, 1, 1, 2, 0, 0, 0, 1, 2, 0, 0, 1, 0, 0, 1, 0, 1, 0, 1, 1, 1, 1, 0, 0, 0, 0] 
 
 Reachable states from S2 [0, 1, 0, 0, 1, 1, 0, 2, 0, 0, 0, 1, 2, 0, 0, 1, 0, 0, 0, 0, 2, 1, 1, 1, 1, 0, 1, 1, 1, 1] 
 T1 => S3 [1, 1, 0, 0, 1, 1, 0, 1, 0, 0, 0, 1, 2, 0, 0, 1, 0, 0, 0, 0, 2, 0, 1, 1, 1, 0, 0, 0, 0, 1] 
 T3 => S11 [0, 0, 1, 0, 0, 1, 1, 2, 0, 0, 0, 1, 2, 0, 0, 1, 0, 0, 0, 0, 2, 1, 1, 1, 0, 1, 1, 1, 1, 1] 
 T6 => S21 [0, 1, 0, 0, 1, 1, 0, 2, 1, 0, 0, 1, 1, 0, 0, 1, 0, 0, 0, 0, 2, 1, 1, 1, 1, 0, 0, 0, 0, 0] 
 T16 => S37 [0, 1, 0, 0, 1, 1, 0, 2, 0, 0, 0, 1, 2, 0, 0, 1, 0, 0, 1, 0, 1, 1, 1, 1, 1, 0, 0, 0, 0, 0] 
 
 Reachable states from S3 [1, 1, 0, 0, 1, 1, 0, 1, 0, 0, 0, 1, 2, 0, 0, 1, 0, 0, 0, 0, 2, 0, 1, 1, 1, 0, 0, 0, 0, 1] 
 T3 => S4 [1, 0, 1, 0, 0, 1, 1, 1, 0, 0, 0, 1, 2, 0, 0, 1, 0, 0, 0, 0, 2, 0, 1, 1, 0, 1, 0, 0, 0, 1] 
 
 Reachable states from S4 [1, 0, 1, 0, 0, 1, 1, 1, 0, 0, 0, 1, 2, 0, 0, 1, 0, 0, 0, 0, 2, 0, 1, 1, 0, 1, 0, 0, 0, 1] 
 T2 => S5 [0, 1, 1, 0, 0, 1, 0, 1, 0, 0, 0, 1, 2, 0, 0, 1, 0, 0, 0, 0, 2, 1, 1, 1, 0, 0, 0, 0, 0, 1] 
 T4 => S13 [1, 0, 0, 1, 1, 0, 1, 1, 0, 0, 0, 1, 2, 0, 0, 1, 0, 0, 0, 0, 2, 0, 0, 0, 1, 1, 1, 1, 1, 1] 
 
 Reachable states from S5 [0, 1, 1, 0, 0, 1, 0, 1, 0, 0, 0, 1, 2, 0, 0, 1, 0, 0, 0, 0, 2, 1, 1, 1, 0, 0, 0, 0, 0, 1] 
 T4 => S6 [0, 1, 0, 1, 1, 0, 0, 1, 0, 0, 0, 1, 2, 0, 0, 1, 0, 0, 0, 0, 2, 1, 0, 0, 1, 0, 1, 1, 1, 1] 
 
 Reachable states from S6 [0, 1, 0, 1, 1, 0, 0, 1, 0, 0, 0, 1, 2, 0, 0, 1, 0, 0, 0, 0, 2, 1, 0, 0, 1, 0, 1, 1, 1, 1] 
 T5 => S2 [0, 1, 0, 0, 1, 1, 0, 2, 0, 0, 0, 1, 2, 0, 0, 1, 0, 0, 0, 0, 2, 1, 1, 1, 1, 0, 1, 1, 1, 1] 
 T1 => S7 [1, 1, 0, 1, 1, 0, 0, 0, 0, 0, 0, 1, 2, 0, 0, 1, 0, 0, 0, 0, 2, 0, 0, 0, 1, 0, 0, 0, 0, 1] 
 T3 => S10 [0, 0, 1, 1, 0, 0, 1, 1, 0, 0, 0, 1, 2, 0, 0, 1, 0, 0, 0, 0, 2, 1, 0, 0, 0, 1, 1, 1, 1, 1] 
 T6 => S15 [0, 1, 0, 1, 1, 0, 0, 1, 1, 0, 0, 1, 1, 0, 0, 1, 0, 0, 0, 0, 2, 1, 0, 0, 1, 0, 0, 0, 0, 0] 
 T16 => S35 [0, 1, 0, 1, 1, 0, 0, 1, 0, 0, 0, 1, 2, 0, 0, 1, 0, 0, 1, 0, 1, 1, 0, 0, 1, 0, 0, 0, 0, 0] 
 
 Reachable states from S7 [1, 1, 0, 1, 1, 0, 0, 0, 0, 0, 0, 1, 2, 0, 0, 1, 0, 0, 0, 0, 2, 0, 0, 0, 1, 0, 0, 0, 0, 1] 
 T5 => S3 [1, 1, 0, 0, 1, 1, 0, 1, 0, 0, 0, 1, 2, 0, 0, 1, 0, 0, 0, 0, 2, 0, 1, 1, 1, 0, 0, 0, 0, 1] 
 T3 => S8 [1, 0, 1, 1, 0, 0, 1, 0, 0, 0, 0, 1, 2, 0, 0, 1, 0, 0, 0, 0, 2, 0, 0, 0, 0, 1, 0, 0, 0, 1] 
 
 Reachable states from S8 [1, 0, 1, 1, 0, 0, 1, 0, 0, 0, 0, 1, 2, 0, 0, 1, 0, 0, 0, 0, 2, 0, 0, 0, 0, 1, 0, 0, 0, 1] 
 T5 => S4 [1, 0, 1, 0, 0, 1, 1, 1, 0, 0, 0, 1, 2, 0, 0, 1, 0, 0, 0, 0, 2, 0, 1, 1, 0, 1, 0, 0, 0, 1] 
 T2 => S9 [0, 1, 1, 1, 0, 0, 0, 0, 0, 0, 0, 1, 2, 0, 0, 1, 0, 0, 0, 0, 2, 1, 0, 0, 0, 0, 0, 0, 0, 1] 
 
 Reachable states from S9 [0, 1, 1, 1, 0, 0, 0, 0, 0, 0, 0, 1, 2, 0, 0, 1, 0, 0, 0, 0, 2, 1, 0, 0, 0, 0, 0, 0, 0, 1] 
 T5 => S5 [0, 1, 1, 0, 0, 1, 0, 1, 0, 0, 0, 1, 2, 0, 0, 1, 0, 0, 0, 0, 2, 1, 1, 1, 0, 0, 0, 0, 0, 1] 
 
 Reachable states from S10 [0, 0, 1, 1, 0, 0, 1, 1, 0, 0, 0, 1, 2, 0, 0, 1, 0, 0, 0, 0, 2, 1, 0, 0, 0, 1, 1, 1, 1, 1] 
 T1 => S8 [1, 0, 1, 1, 0, 0, 1, 0, 0, 0, 0, 1, 2, 0, 0, 1, 0, 0, 0, 0, 2, 0, 0, 0, 0, 1, 0, 0, 0, 1] 
 T5 => S11 [0, 0, 1, 0, 0, 1, 1, 2, 0, 0, 0, 1, 2, 0, 0, 1, 0, 0, 0, 0, 2, 1, 1, 1, 0, 1, 1, 1, 1, 1] 
 T6 => S16 [0, 0, 1, 1, 0, 0, 1, 1, 1, 0, 0, 1, 1, 0, 0, 1, 0, 0, 0, 0, 2, 1, 0, 0, 0, 1, 0, 0, 0, 0] 
 T16 => S36 [0, 0, 1, 1, 0, 0, 1, 1, 0, 0, 0, 1, 2, 0, 0, 1, 0, 0, 1, 0, 1, 1, 0, 0, 0, 1, 0, 0, 0, 0] 
 
 Reachable states from S11 [0, 0, 1, 0, 0, 1, 1, 2, 0, 0, 0, 1, 2, 0, 0, 1, 0, 0, 0, 0, 2, 1, 1, 1, 0, 1, 1, 1, 1, 1] 
 T1 => S4 [1, 0, 1, 0, 0, 1, 1, 1, 0, 0, 0, 1, 2, 0, 0, 1, 0, 0, 0, 0, 2, 0, 1, 1, 0, 1, 0, 0, 0, 1] 
 T4 => S12 [0, 0, 0, 1, 1, 0, 1, 2, 0, 0, 0, 1, 2, 0, 0, 1, 0, 0, 0, 0, 2, 1, 0, 0, 1, 1, 2, 2, 2, 1] 
 T6 => S17 [0, 0, 1, 0, 0, 1, 1, 2, 1, 0, 0, 1, 1, 0, 0, 1, 0, 0, 0, 0, 2, 1, 1, 1, 0, 1, 0, 0, 0, 0] 
 T16 => S32 [0, 0, 1, 0, 0, 1, 1, 2, 0, 0, 0, 1, 2, 0, 0, 1, 0, 0, 1, 0, 1, 1, 1, 1, 0, 1, 0, 0, 0, 0] 
 
 Reachable states from S12 [0, 0, 0, 1, 1, 0, 1, 2, 0, 0, 0, 1, 2, 0, 0, 1, 0, 0, 0, 0, 2, 1, 0, 0, 1, 1, 2, 2, 2, 1] 
 T5 => S0 [0, 0, 0, 0, 1, 1, 1, 3, 0, 0, 0, 1, 2, 0, 0, 1, 0, 0, 0, 0, 2, 1, 1, 1, 1, 1, 2, 2, 2, 1] 
 T1 => S13 [1, 0, 0, 1, 1, 0, 1, 1, 0, 0, 0, 1, 2, 0, 0, 1, 0, 0, 0, 0, 2, 0, 0, 0, 1, 1, 1, 1, 1, 1] 
 T6 => S18 [0, 0, 0, 1, 1, 0, 1, 2, 1, 0, 0, 1, 1, 0, 0, 1, 0, 0, 0, 0, 2, 1, 0, 0, 1, 1, 1, 1, 1, 0] 
 T16 => S33 [0, 0, 0, 1, 1, 0, 1, 2, 0, 0, 0, 1, 2, 0, 0, 1, 0, 0, 1, 0, 1, 1, 0, 0, 1, 1, 1, 1, 1, 0] 
 
 Reachable states from S13 [1, 0, 0, 1, 1, 0, 1, 1, 0, 0, 0, 1, 2, 0, 0, 1, 0, 0, 0, 0, 2, 0, 0, 0, 1, 1, 1, 1, 1, 1] 
 T5 => S1 [1, 0, 0, 0, 1, 1, 1, 2, 0, 0, 0, 1, 2, 0, 0, 1, 0, 0, 0, 0, 2, 0, 1, 1, 1, 1, 1, 1, 1, 1] 
 T2 => S6 [0, 1, 0, 1, 1, 0, 0, 1, 0, 0, 0, 1, 2, 0, 0, 1, 0, 0, 0, 0, 2, 1, 0, 0, 1, 0, 1, 1, 1, 1] 
 T6 => S14 [1, 0, 0, 1, 1, 0, 1, 1, 1, 0, 0, 1, 1, 0, 0, 1, 0, 0, 0, 0, 2, 0, 0, 0, 1, 1, 0, 0, 0, 0] 
 T16 => S34 [1, 0, 0, 1, 1, 0, 1, 1, 0, 0, 0, 1, 2, 0, 0, 1, 0, 0, 1, 0, 1, 0, 0, 0, 1, 1, 0, 0, 0, 0] 
 
 Reachable states from S14 [1, 0, 0, 1, 1, 0, 1, 1, 1, 0, 0, 1, 1, 0, 0, 1, 0, 0, 0, 0, 2, 0, 0, 0, 1, 1, 0, 0, 0, 0] 
 T2 => S15 [0, 1, 0, 1, 1, 0, 0, 1, 1, 0, 0, 1, 1, 0, 0, 1, 0, 0, 0, 0, 2, 1, 0, 0, 1, 0, 0, 0, 0, 0] 
 T5 => S20 [1, 0, 0, 0, 1, 1, 1, 2, 1, 0, 0, 1, 1, 0, 0, 1, 0, 0, 0, 0, 2, 0, 1, 1, 1, 1, 0, 0, 0, 0] 
 
 Reachable states from S15 [0, 1, 0, 1, 1, 0, 0, 1, 1, 0, 0, 1, 1, 0, 0, 1, 0, 0, 0, 0, 2, 1, 0, 0, 1, 0, 0, 0, 0, 0] 
 T3 => S16 [0, 0, 1, 1, 0, 0, 1, 1, 1, 0, 0, 1, 1, 0, 0, 1, 0, 0, 0, 0, 2, 1, 0, 0, 0, 1, 0, 0, 0, 0] 
 T5 => S21 [0, 1, 0, 0, 1, 1, 0, 2, 1, 0, 0, 1, 1, 0, 0, 1, 0, 0, 0, 0, 2, 1, 1, 1, 1, 0, 0, 0, 0, 0] 
 
 Reachable states from S16 [0, 0, 1, 1, 0, 0, 1, 1, 1, 0, 0, 1, 1, 0, 0, 1, 0, 0, 0, 0, 2, 1, 0, 0, 0, 1, 0, 0, 0, 0] 
 T5 => S17 [0, 0, 1, 0, 0, 1, 1, 2, 1, 0, 0, 1, 1, 0, 0, 1, 0, 0, 0, 0, 2, 1, 1, 1, 0, 1, 0, 0, 0, 0] 
 
 Reachable states from S17 [0, 0, 1, 0, 0, 1, 1, 2, 1, 0, 0, 1, 1, 0, 0, 1, 0, 0, 0, 0, 2, 1, 1, 1, 0, 1, 0, 0, 0, 0] 
 T4 => S18 [0, 0, 0, 1, 1, 0, 1, 2, 1, 0, 0, 1, 1, 0, 0, 1, 0, 0, 0, 0, 2, 1, 0, 0, 1, 1, 1, 1, 1, 0] 
 
 Reachable states from S18 [0, 0, 0, 1, 1, 0, 1, 2, 1, 0, 0, 1, 1, 0, 0, 1, 0, 0, 0, 0, 2, 1, 0, 0, 1, 1, 1, 1, 1, 0] 
 T1 => S14 [1, 0, 0, 1, 1, 0, 1, 1, 1, 0, 0, 1, 1, 0, 0, 1, 0, 0, 0, 0, 2, 0, 0, 0, 1, 1, 0, 0, 0, 0] 
 T5 => S19 [0, 0, 0, 0, 1, 1, 1, 3, 1, 0, 0, 1, 1, 0, 0, 1, 0, 0, 0, 0, 2, 1, 1, 1, 1, 1, 1, 1, 1, 0] 
 T7 => S166 [0, 0, 0, 1, 1, 0, 1, 2, 0, 1, 0, 0, 1, 0, 0, 1, 0, 0, 0, 0, 2, 0, 0, 0, 0, 0, 1, 1, 1, 0] 
 
 Reachable states from S19 [0, 0, 0, 0, 1, 1, 1, 3, 1, 0, 0, 1, 1, 0, 0, 1, 0, 0, 0, 0, 2, 1, 1, 1, 1, 1, 1, 1, 1, 0] 
 T1 => S20 [1, 0, 0, 0, 1, 1, 1, 2, 1, 0, 0, 1, 1, 0, 0, 1, 0, 0, 0, 0, 2, 0, 1, 1, 1, 1, 0, 0, 0, 0] 
 T7 => S22 [0, 0, 0, 0, 1, 1, 1, 3, 0, 1, 0, 0, 1, 0, 0, 1, 0, 0, 0, 0, 2, 0, 1, 1, 0, 0, 1, 1, 1, 0] 
 
 Reachable states from S20 [1, 0, 0, 0, 1, 1, 1, 2, 1, 0, 0, 1, 1, 0, 0, 1, 0, 0, 0, 0, 2, 0, 1, 1, 1, 1, 0, 0, 0, 0] 
 T2 => S21 [0, 1, 0, 0, 1, 1, 0, 2, 1, 0, 0, 1, 1, 0, 0, 1, 0, 0, 0, 0, 2, 1, 1, 1, 1, 0, 0, 0, 0, 0] 
 
 Reachable states from S21 [0, 1, 0, 0, 1, 1, 0, 2, 1, 0, 0, 1, 1, 0, 0, 1, 0, 0, 0, 0, 2, 1, 1, 1, 1, 0, 0, 0, 0, 0] 
 T3 => S17 [0, 0, 1, 0, 0, 1, 1, 2, 1, 0, 0, 1, 1, 0, 0, 1, 0, 0, 0, 0, 2, 1, 1, 1, 0, 1, 0, 0, 0, 0] 
 
 Reachable states from S22 [0, 0, 0, 0, 1, 1, 1, 3, 0, 1, 0, 0, 1, 0, 0, 1, 0, 0, 0, 0, 2, 0, 1, 1, 0, 0, 1, 1, 1, 0] 
 T8 => S23 [0, 0, 0, 0, 1, 1, 1, 3, 0, 0, 1, 1, 1, 0, 0, 1, 0, 0, 0, 0, 2, 1, 0, 0, 1, 1, 2, 2, 2, 1] 
 
 Reachable states from S23 [0, 0, 0, 0, 1, 1, 1, 3, 0, 0, 1, 1, 1, 0, 0, 1, 0, 0, 0, 0, 2, 1, 0, 0, 1, 1, 2, 2, 2, 1] 
 T9 => S0 [0, 0, 0, 0, 1, 1, 1, 3, 0, 0, 0, 1, 2, 0, 0, 1, 0, 0, 0, 0, 2, 1, 1, 1, 1, 1, 2, 2, 2, 1] 
 T1 => S24 [1, 0, 0, 0, 1, 1, 1, 2, 0, 0, 1, 1, 1, 0, 0, 1, 0, 0, 0, 0, 2, 0, 0, 0, 1, 1, 1, 1, 1, 1] 
 T6 => S163 [0, 0, 0, 0, 1, 1, 1, 3, 1, 0, 1, 1, 0, 0, 0, 1, 0, 0, 0, 0, 2, 1, 0, 0, 1, 1, 1, 1, 1, 0] 
 T16 => S172 [0, 0, 0, 0, 1, 1, 1, 3, 0, 0, 1, 1, 1, 0, 0, 1, 0, 0, 1, 0, 1, 1, 0, 0, 1, 1, 1, 1, 1, 0] 
 
 Reachable states from S24 [1, 0, 0, 0, 1, 1, 1, 2, 0, 0, 1, 1, 1, 0, 0, 1, 0, 0, 0, 0, 2, 0, 0, 0, 1, 1, 1, 1, 1, 1] 
 T9 => S1 [1, 0, 0, 0, 1, 1, 1, 2, 0, 0, 0, 1, 2, 0, 0, 1, 0, 0, 0, 0, 2, 0, 1, 1, 1, 1, 1, 1, 1, 1] 
 T2 => S25 [0, 1, 0, 0, 1, 1, 0, 2, 0, 0, 1, 1, 1, 0, 0, 1, 0, 0, 0, 0, 2, 1, 0, 0, 1, 0, 1, 1, 1, 1] 
 T6 => S110 [1, 0, 0, 0, 1, 1, 1, 2, 1, 0, 1, 1, 0, 0, 0, 1, 0, 0, 0, 0, 2, 0, 0, 0, 1, 1, 0, 0, 0, 0] 
 T16 => S170 [1, 0, 0, 0, 1, 1, 1, 2, 0, 0, 1, 1, 1, 0, 0, 1, 0, 0, 1, 0, 1, 0, 0, 0, 1, 1, 0, 0, 0, 0] 
 
 Reachable states from S25 [0, 1, 0, 0, 1, 1, 0, 2, 0, 0, 1, 1, 1, 0, 0, 1, 0, 0, 0, 0, 2, 1, 0, 0, 1, 0, 1, 1, 1, 1] 
 T9 => S2 [0, 1, 0, 0, 1, 1, 0, 2, 0, 0, 0, 1, 2, 0, 0, 1, 0, 0, 0, 0, 2, 1, 1, 1, 1, 0, 1, 1, 1, 1] 
 T1 => S26 [1, 1, 0, 0, 1, 1, 0, 1, 0, 0, 1, 1, 1, 0, 0, 1, 0, 0, 0, 0, 2, 0, 0, 0, 1, 0, 0, 0, 0, 1] 
 T3 => S29 [0, 0, 1, 0, 0, 1, 1, 2, 0, 0, 1, 1, 1, 0, 0, 1, 0, 0, 0, 0, 2, 1, 0, 0, 0, 1, 1, 1, 1, 1] 
 T6 => S105 [0, 1, 0, 0, 1, 1, 0, 2, 1, 0, 1, 1, 0, 0, 0, 1, 0, 0, 0, 0, 2, 1, 0, 0, 1, 0, 0, 0, 0, 0] 
 T16 => S168 [0, 1, 0, 0, 1, 1, 0, 2, 0, 0, 1, 1, 1, 0, 0, 1, 0, 0, 1, 0, 1, 1, 0, 0, 1, 0, 0, 0, 0, 0] 
 
 Reachable states from S26 [1, 1, 0, 0, 1, 1, 0, 1, 0, 0, 1, 1, 1, 0, 0, 1, 0, 0, 0, 0, 2, 0, 0, 0, 1, 0, 0, 0, 0, 1] 
 T9 => S3 [1, 1, 0, 0, 1, 1, 0, 1, 0, 0, 0, 1, 2, 0, 0, 1, 0, 0, 0, 0, 2, 0, 1, 1, 1, 0, 0, 0, 0, 1] 
 T3 => S27 [1, 0, 1, 0, 0, 1, 1, 1, 0, 0, 1, 1, 1, 0, 0, 1, 0, 0, 0, 0, 2, 0, 0, 0, 0, 1, 0, 0, 0, 1] 
 
 Reachable states from S27 [1, 0, 1, 0, 0, 1, 1, 1, 0, 0, 1, 1, 1, 0, 0, 1, 0, 0, 0, 0, 2, 0, 0, 0, 0, 1, 0, 0, 0, 1] 
 T9 => S4 [1, 0, 1, 0, 0, 1, 1, 1, 0, 0, 0, 1, 2, 0, 0, 1, 0, 0, 0, 0, 2, 0, 1, 1, 0, 1, 0, 0, 0, 1] 
 T2 => S28 [0, 1, 1, 0, 0, 1, 0, 1, 0, 0, 1, 1, 1, 0, 0, 1, 0, 0, 0, 0, 2, 1, 0, 0, 0, 0, 0, 0, 0, 1] 
 
 Reachable states from S28 [0, 1, 1, 0, 0, 1, 0, 1, 0, 0, 1, 1, 1, 0, 0, 1, 0, 0, 0, 0, 2, 1, 0, 0, 0, 0, 0, 0, 0, 1] 
 T9 => S5 [0, 1, 1, 0, 0, 1, 0, 1, 0, 0, 0, 1, 2, 0, 0, 1, 0, 0, 0, 0, 2, 1, 1, 1, 0, 0, 0, 0, 0, 1] 
 
 Reachable states from S29 [0, 0, 1, 0, 0, 1, 1, 2, 0, 0, 1, 1, 1, 0, 0, 1, 0, 0, 0, 0, 2, 1, 0, 0, 0, 1, 1, 1, 1, 1] 
 T9 => S11 [0, 0, 1, 0, 0, 1, 1, 2, 0, 0, 0, 1, 2, 0, 0, 1, 0, 0, 0, 0, 2, 1, 1, 1, 0, 1, 1, 1, 1, 1] 
 T1 => S27 [1, 0, 1, 0, 0, 1, 1, 1, 0, 0, 1, 1, 1, 0, 0, 1, 0, 0, 0, 0, 2, 0, 0, 0, 0, 1, 0, 0, 0, 1] 
 T6 => S30 [0, 0, 1, 0, 0, 1, 1, 2, 1, 0, 1, 1, 0, 0, 0, 1, 0, 0, 0, 0, 2, 1, 0, 0, 0, 1, 0, 0, 0, 0] 
 T16 => S31 [0, 0, 1, 0, 0, 1, 1, 2, 0, 0, 1, 1, 1, 0, 0, 1, 0, 0, 1, 0, 1, 1, 0, 0, 0, 1, 0, 0, 0, 0] 
 
 Reachable states from S30 [0, 0, 1, 0, 0, 1, 1, 2, 1, 0, 1, 1, 0, 0, 0, 1, 0, 0, 0, 0, 2, 1, 0, 0, 0, 1, 0, 0, 0, 0] 
 T9 => S17 [0, 0, 1, 0, 0, 1, 1, 2, 1, 0, 0, 1, 1, 0, 0, 1, 0, 0, 0, 0, 2, 1, 1, 1, 0, 1, 0, 0, 0, 0] 
 
 Reachable states from S31 [0, 0, 1, 0, 0, 1, 1, 2, 0, 0, 1, 1, 1, 0, 0, 1, 0, 0, 1, 0, 1, 1, 0, 0, 0, 1, 0, 0, 0, 0] 
 T9 => S32 [0, 0, 1, 0, 0, 1, 1, 2, 0, 0, 0, 1, 2, 0, 0, 1, 0, 0, 1, 0, 1, 1, 1, 1, 0, 1, 0, 0, 0, 0] 
 
 Reachable states from S32 [0, 0, 1, 0, 0, 1, 1, 2, 0, 0, 0, 1, 2, 0, 0, 1, 0, 0, 1, 0, 1, 1, 1, 1, 0, 1, 0, 0, 0, 0] 
 T4 => S33 [0, 0, 0, 1, 1, 0, 1, 2, 0, 0, 0, 1, 2, 0, 0, 1, 0, 0, 1, 0, 1, 1, 0, 0, 1, 1, 1, 1, 1, 0] 
 T10 => S39 [0, 0, 1, 0, 0, 1, 1, 2, 0, 0, 0, 1, 2, 1, 0, 0, 0, 0, 0, 0, 1, 0, 0, 1, 0, 1, 0, 0, 0, 0] 
 T13 => S139 [0, 0, 1, 0, 0, 1, 1, 2, 0, 0, 0, 1, 2, 0, 0, 1, 1, 0, 0, 0, 1, 1, 0, 0, 0, 1, 0, 0, 0, 0] 
 
 Reachable states from S33 [0, 0, 0, 1, 1, 0, 1, 2, 0, 0, 0, 1, 2, 0, 0, 1, 0, 0, 1, 0, 1, 1, 0, 0, 1, 1, 1, 1, 1, 0] 
 T1 => S34 [1, 0, 0, 1, 1, 0, 1, 1, 0, 0, 0, 1, 2, 0, 0, 1, 0, 0, 1, 0, 1, 0, 0, 0, 1, 1, 0, 0, 0, 0] 
 T5 => S152 [0, 0, 0, 0, 1, 1, 1, 3, 0, 0, 0, 1, 2, 0, 0, 1, 0, 0, 1, 0, 1, 1, 1, 1, 1, 1, 1, 1, 1, 0] 
 
 Reachable states from S34 [1, 0, 0, 1, 1, 0, 1, 1, 0, 0, 0, 1, 2, 0, 0, 1, 0, 0, 1, 0, 1, 0, 0, 0, 1, 1, 0, 0, 0, 0] 
 T2 => S35 [0, 1, 0, 1, 1, 0, 0, 1, 0, 0, 0, 1, 2, 0, 0, 1, 0, 0, 1, 0, 1, 1, 0, 0, 1, 0, 0, 0, 0, 0] 
 T5 => S153 [1, 0, 0, 0, 1, 1, 1, 2, 0, 0, 0, 1, 2, 0, 0, 1, 0, 0, 1, 0, 1, 0, 1, 1, 1, 1, 0, 0, 0, 0] 
 
 Reachable states from S35 [0, 1, 0, 1, 1, 0, 0, 1, 0, 0, 0, 1, 2, 0, 0, 1, 0, 0, 1, 0, 1, 1, 0, 0, 1, 0, 0, 0, 0, 0] 
 T3 => S36 [0, 0, 1, 1, 0, 0, 1, 1, 0, 0, 0, 1, 2, 0, 0, 1, 0, 0, 1, 0, 1, 1, 0, 0, 0, 1, 0, 0, 0, 0] 
 T5 => S37 [0, 1, 0, 0, 1, 1, 0, 2, 0, 0, 0, 1, 2, 0, 0, 1, 0, 0, 1, 0, 1, 1, 1, 1, 1, 0, 0, 0, 0, 0] 
 
 Reachable states from S36 [0, 0, 1, 1, 0, 0, 1, 1, 0, 0, 0, 1, 2, 0, 0, 1, 0, 0, 1, 0, 1, 1, 0, 0, 0, 1, 0, 0, 0, 0] 
 T5 => S32 [0, 0, 1, 0, 0, 1, 1, 2, 0, 0, 0, 1, 2, 0, 0, 1, 0, 0, 1, 0, 1, 1, 1, 1, 0, 1, 0, 0, 0, 0] 
 
 Reachable states from S37 [0, 1, 0, 0, 1, 1, 0, 2, 0, 0, 0, 1, 2, 0, 0, 1, 0, 0, 1, 0, 1, 1, 1, 1, 1, 0, 0, 0, 0, 0] 
 T3 => S32 [0, 0, 1, 0, 0, 1, 1, 2, 0, 0, 0, 1, 2, 0, 0, 1, 0, 0, 1, 0, 1, 1, 1, 1, 0, 1, 0, 0, 0, 0] 
 T10 => S38 [0, 1, 0, 0, 1, 1, 0, 2, 0, 0, 0, 1, 2, 1, 0, 0, 0, 0, 0, 0, 1, 0, 0, 1, 1, 0, 0, 0, 0, 0] 
 T13 => S138 [0, 1, 0, 0, 1, 1, 0, 2, 0, 0, 0, 1, 2, 0, 0, 1, 1, 0, 0, 0, 1, 1, 0, 0, 1, 0, 0, 0, 0, 0] 
 
 Reachable states from S38 [0, 1, 0, 0, 1, 1, 0, 2, 0, 0, 0, 1, 2, 1, 0, 0, 0, 0, 0, 0, 1, 0, 0, 1, 1, 0, 0, 0, 0, 0] 
 T3 => S39 [0, 0, 1, 0, 0, 1, 1, 2, 0, 0, 0, 1, 2, 1, 0, 0, 0, 0, 0, 0, 1, 0, 0, 1, 0, 1, 0, 0, 0, 0] 
 
 Reachable states from S39 [0, 0, 1, 0, 0, 1, 1, 2, 0, 0, 0, 1, 2, 1, 0, 0, 0, 0, 0, 0, 1, 0, 0, 1, 0, 1, 0, 0, 0, 0] 
 T11 => S40 [0, 0, 1, 0, 0, 1, 1, 2, 0, 0, 0, 1, 2, 0, 1, 1, 0, 0, 0, 0, 1, 1, 1, 0, 0, 0, 1, 1, 0, 1] 
 
 Reachable states from S40 [0, 0, 1, 0, 0, 1, 1, 2, 0, 0, 0, 1, 2, 0, 1, 1, 0, 0, 0, 0, 1, 1, 1, 0, 0, 0, 1, 1, 0, 1] 
 T12 => S41 [0, 0, 1, 0, 0, 1, 1, 2, 0, 0, 0, 1, 2, 0, 0, 1, 0, 0, 0, 1, 1, 1, 1, 1, 0, 1, 1, 1, 1, 1] 
 
 Reachable states from S41 [0, 0, 1, 0, 0, 1, 1, 2, 0, 0, 0, 1, 2, 0, 0, 1, 0, 0, 0, 1, 1, 1, 1, 1, 0, 1, 1, 1, 1, 1] 
 T17 => S11 [0, 0, 1, 0, 0, 1, 1, 2, 0, 0, 0, 1, 2, 0, 0, 1, 0, 0, 0, 0, 2, 1, 1, 1, 0, 1, 1, 1, 1, 1] 
 T1 => S42 [1, 0, 1, 0, 0, 1, 1, 1, 0, 0, 0, 1, 2, 0, 0, 1, 0, 0, 0, 1, 1, 0, 1, 1, 0, 1, 0, 0, 0, 1] 
 T6 => S51 [0, 0, 1, 0, 0, 1, 1, 2, 1, 0, 0, 1, 1, 0, 0, 1, 0, 0, 0, 1, 1, 1, 1, 1, 0, 1, 0, 0, 0, 0] 
 T16 => S68 [0, 0, 1, 0, 0, 1, 1, 2, 0, 0, 0, 1, 2, 0, 0, 1, 0, 0, 1, 1, 0, 1, 1, 1, 0, 1, 0, 0, 0, 0] 
 T4 => S146 [0, 0, 0, 1, 1, 0, 1, 2, 0, 0, 0, 1, 2, 0, 0, 1, 0, 0, 0, 1, 1, 1, 0, 0, 1, 1, 2, 2, 2, 1] 
 
 Reachable states from S42 [1, 0, 1, 0, 0, 1, 1, 1, 0, 0, 0, 1, 2, 0, 0, 1, 0, 0, 0, 1, 1, 0, 1, 1, 0, 1, 0, 0, 0, 1] 
 T17 => S4 [1, 0, 1, 0, 0, 1, 1, 1, 0, 0, 0, 1, 2, 0, 0, 1, 0, 0, 0, 0, 2, 0, 1, 1, 0, 1, 0, 0, 0, 1] 
 T2 => S43 [0, 1, 1, 0, 0, 1, 0, 1, 0, 0, 0, 1, 2, 0, 0, 1, 0, 0, 0, 1, 1, 1, 1, 1, 0, 0, 0, 0, 0, 1] 
 T4 => S147 [1, 0, 0, 1, 1, 0, 1, 1, 0, 0, 0, 1, 2, 0, 0, 1, 0, 0, 0, 1, 1, 0, 0, 0, 1, 1, 1, 1, 1, 1] 
 
 Reachable states from S43 [0, 1, 1, 0, 0, 1, 0, 1, 0, 0, 0, 1, 2, 0, 0, 1, 0, 0, 0, 1, 1, 1, 1, 1, 0, 0, 0, 0, 0, 1] 
 T17 => S5 [0, 1, 1, 0, 0, 1, 0, 1, 0, 0, 0, 1, 2, 0, 0, 1, 0, 0, 0, 0, 2, 1, 1, 1, 0, 0, 0, 0, 0, 1] 
 T4 => S44 [0, 1, 0, 1, 1, 0, 0, 1, 0, 0, 0, 1, 2, 0, 0, 1, 0, 0, 0, 1, 1, 1, 0, 0, 1, 0, 1, 1, 1, 1] 
 
 Reachable states from S44 [0, 1, 0, 1, 1, 0, 0, 1, 0, 0, 0, 1, 2, 0, 0, 1, 0, 0, 0, 1, 1, 1, 0, 0, 1, 0, 1, 1, 1, 1] 
 T17 => S6 [0, 1, 0, 1, 1, 0, 0, 1, 0, 0, 0, 1, 2, 0, 0, 1, 0, 0, 0, 0, 2, 1, 0, 0, 1, 0, 1, 1, 1, 1] 
 T1 => S45 [1, 1, 0, 1, 1, 0, 0, 0, 0, 0, 0, 1, 2, 0, 0, 1, 0, 0, 0, 1, 1, 0, 0, 0, 1, 0, 0, 0, 0, 1] 
 T3 => S49 [0, 0, 1, 1, 0, 0, 1, 1, 0, 0, 0, 1, 2, 0, 0, 1, 0, 0, 0, 1, 1, 1, 0, 0, 0, 1, 1, 1, 1, 1] 
 T6 => S54 [0, 1, 0, 1, 1, 0, 0, 1, 1, 0, 0, 1, 1, 0, 0, 1, 0, 0, 0, 1, 1, 1, 0, 0, 1, 0, 0, 0, 0, 0] 
 T16 => S71 [0, 1, 0, 1, 1, 0, 0, 1, 0, 0, 0, 1, 2, 0, 0, 1, 0, 0, 1, 1, 0, 1, 0, 0, 1, 0, 0, 0, 0, 0] 
 T5 => S107 [0, 1, 0, 0, 1, 1, 0, 2, 0, 0, 0, 1, 2, 0, 0, 1, 0, 0, 0, 1, 1, 1, 1, 1, 1, 0, 1, 1, 1, 1] 
 
 Reachable states from S45 [1, 1, 0, 1, 1, 0, 0, 0, 0, 0, 0, 1, 2, 0, 0, 1, 0, 0, 0, 1, 1, 0, 0, 0, 1, 0, 0, 0, 0, 1] 
 T17 => S7 [1, 1, 0, 1, 1, 0, 0, 0, 0, 0, 0, 1, 2, 0, 0, 1, 0, 0, 0, 0, 2, 0, 0, 0, 1, 0, 0, 0, 0, 1] 
 T3 => S46 [1, 0, 1, 1, 0, 0, 1, 0, 0, 0, 0, 1, 2, 0, 0, 1, 0, 0, 0, 1, 1, 0, 0, 0, 0, 1, 0, 0, 0, 1] 
 T5 => S48 [1, 1, 0, 0, 1, 1, 0, 1, 0, 0, 0, 1, 2, 0, 0, 1, 0, 0, 0, 1, 1, 0, 1, 1, 1, 0, 0, 0, 0, 1] 
 
 Reachable states from S46 [1, 0, 1, 1, 0, 0, 1, 0, 0, 0, 0, 1, 2, 0, 0, 1, 0, 0, 0, 1, 1, 0, 0, 0, 0, 1, 0, 0, 0, 1] 
 T17 => S8 [1, 0, 1, 1, 0, 0, 1, 0, 0, 0, 0, 1, 2, 0, 0, 1, 0, 0, 0, 0, 2, 0, 0, 0, 0, 1, 0, 0, 0, 1] 
 T5 => S42 [1, 0, 1, 0, 0, 1, 1, 1, 0, 0, 0, 1, 2, 0, 0, 1, 0, 0, 0, 1, 1, 0, 1, 1, 0, 1, 0, 0, 0, 1] 
 T2 => S47 [0, 1, 1, 1, 0, 0, 0, 0, 0, 0, 0, 1, 2, 0, 0, 1, 0, 0, 0, 1, 1, 1, 0, 0, 0, 0, 0, 0, 0, 1] 
 
 Reachable states from S47 [0, 1, 1, 1, 0, 0, 0, 0, 0, 0, 0, 1, 2, 0, 0, 1, 0, 0, 0, 1, 1, 1, 0, 0, 0, 0, 0, 0, 0, 1] 
 T17 => S9 [0, 1, 1, 1, 0, 0, 0, 0, 0, 0, 0, 1, 2, 0, 0, 1, 0, 0, 0, 0, 2, 1, 0, 0, 0, 0, 0, 0, 0, 1] 
 T5 => S43 [0, 1, 1, 0, 0, 1, 0, 1, 0, 0, 0, 1, 2, 0, 0, 1, 0, 0, 0, 1, 1, 1, 1, 1, 0, 0, 0, 0, 0, 1] 
 
 Reachable states from S48 [1, 1, 0, 0, 1, 1, 0, 1, 0, 0, 0, 1, 2, 0, 0, 1, 0, 0, 0, 1, 1, 0, 1, 1, 1, 0, 0, 0, 0, 1] 
 T17 => S3 [1, 1, 0, 0, 1, 1, 0, 1, 0, 0, 0, 1, 2, 0, 0, 1, 0, 0, 0, 0, 2, 0, 1, 1, 1, 0, 0, 0, 0, 1] 
 T3 => S42 [1, 0, 1, 0, 0, 1, 1, 1, 0, 0, 0, 1, 2, 0, 0, 1, 0, 0, 0, 1, 1, 0, 1, 1, 0, 1, 0, 0, 0, 1] 
 
 Reachable states from S49 [0, 0, 1, 1, 0, 0, 1, 1, 0, 0, 0, 1, 2, 0, 0, 1, 0, 0, 0, 1, 1, 1, 0, 0, 0, 1, 1, 1, 1, 1] 
 T17 => S10 [0, 0, 1, 1, 0, 0, 1, 1, 0, 0, 0, 1, 2, 0, 0, 1, 0, 0, 0, 0, 2, 1, 0, 0, 0, 1, 1, 1, 1, 1] 
 T5 => S41 [0, 0, 1, 0, 0, 1, 1, 2, 0, 0, 0, 1, 2, 0, 0, 1, 0, 0, 0, 1, 1, 1, 1, 1, 0, 1, 1, 1, 1, 1] 
 T1 => S46 [1, 0, 1, 1, 0, 0, 1, 0, 0, 0, 0, 1, 2, 0, 0, 1, 0, 0, 0, 1, 1, 0, 0, 0, 0, 1, 0, 0, 0, 1] 
 T6 => S50 [0, 0, 1, 1, 0, 0, 1, 1, 1, 0, 0, 1, 1, 0, 0, 1, 0, 0, 0, 1, 1, 1, 0, 0, 0, 1, 0, 0, 0, 0] 
 T16 => S72 [0, 0, 1, 1, 0, 0, 1, 1, 0, 0, 0, 1, 2, 0, 0, 1, 0, 0, 1, 1, 0, 1, 0, 0, 0, 1, 0, 0, 0, 0] 
 
 Reachable states from S50 [0, 0, 1, 1, 0, 0, 1, 1, 1, 0, 0, 1, 1, 0, 0, 1, 0, 0, 0, 1, 1, 1, 0, 0, 0, 1, 0, 0, 0, 0] 
 T17 => S16 [0, 0, 1, 1, 0, 0, 1, 1, 1, 0, 0, 1, 1, 0, 0, 1, 0, 0, 0, 0, 2, 1, 0, 0, 0, 1, 0, 0, 0, 0] 
 T5 => S51 [0, 0, 1, 0, 0, 1, 1, 2, 1, 0, 0, 1, 1, 0, 0, 1, 0, 0, 0, 1, 1, 1, 1, 1, 0, 1, 0, 0, 0, 0] 
 
 Reachable states from S51 [0, 0, 1, 0, 0, 1, 1, 2, 1, 0, 0, 1, 1, 0, 0, 1, 0, 0, 0, 1, 1, 1, 1, 1, 0, 1, 0, 0, 0, 0] 
 T17 => S17 [0, 0, 1, 0, 0, 1, 1, 2, 1, 0, 0, 1, 1, 0, 0, 1, 0, 0, 0, 0, 2, 1, 1, 1, 0, 1, 0, 0, 0, 0] 
 T4 => S52 [0, 0, 0, 1, 1, 0, 1, 2, 1, 0, 0, 1, 1, 0, 0, 1, 0, 0, 0, 1, 1, 1, 0, 0, 1, 1, 1, 1, 1, 0] 
 
 Reachable states from S52 [0, 0, 0, 1, 1, 0, 1, 2, 1, 0, 0, 1, 1, 0, 0, 1, 0, 0, 0, 1, 1, 1, 0, 0, 1, 1, 1, 1, 1, 0] 
 T17 => S18 [0, 0, 0, 1, 1, 0, 1, 2, 1, 0, 0, 1, 1, 0, 0, 1, 0, 0, 0, 0, 2, 1, 0, 0, 1, 1, 1, 1, 1, 0] 
 T1 => S53 [1, 0, 0, 1, 1, 0, 1, 1, 1, 0, 0, 1, 1, 0, 0, 1, 0, 0, 0, 1, 1, 0, 0, 0, 1, 1, 0, 0, 0, 0] 
 T5 => S57 [0, 0, 0, 0, 1, 1, 1, 3, 1, 0, 0, 1, 1, 0, 0, 1, 0, 0, 0, 1, 1, 1, 1, 1, 1, 1, 1, 1, 1, 0] 
 T7 => S165 [0, 0, 0, 1, 1, 0, 1, 2, 0, 1, 0, 0, 1, 0, 0, 1, 0, 0, 0, 1, 1, 0, 0, 0, 0, 0, 1, 1, 1, 0] 
 
 Reachable states from S53 [1, 0, 0, 1, 1, 0, 1, 1, 1, 0, 0, 1, 1, 0, 0, 1, 0, 0, 0, 1, 1, 0, 0, 0, 1, 1, 0, 0, 0, 0] 
 T17 => S14 [1, 0, 0, 1, 1, 0, 1, 1, 1, 0, 0, 1, 1, 0, 0, 1, 0, 0, 0, 0, 2, 0, 0, 0, 1, 1, 0, 0, 0, 0] 
 T2 => S54 [0, 1, 0, 1, 1, 0, 0, 1, 1, 0, 0, 1, 1, 0, 0, 1, 0, 0, 0, 1, 1, 1, 0, 0, 1, 0, 0, 0, 0, 0] 
 T5 => S56 [1, 0, 0, 0, 1, 1, 1, 2, 1, 0, 0, 1, 1, 0, 0, 1, 0, 0, 0, 1, 1, 0, 1, 1, 1, 1, 0, 0, 0, 0] 
 
 Reachable states from S54 [0, 1, 0, 1, 1, 0, 0, 1, 1, 0, 0, 1, 1, 0, 0, 1, 0, 0, 0, 1, 1, 1, 0, 0, 1, 0, 0, 0, 0, 0] 
 T17 => S15 [0, 1, 0, 1, 1, 0, 0, 1, 1, 0, 0, 1, 1, 0, 0, 1, 0, 0, 0, 0, 2, 1, 0, 0, 1, 0, 0, 0, 0, 0] 
 T3 => S50 [0, 0, 1, 1, 0, 0, 1, 1, 1, 0, 0, 1, 1, 0, 0, 1, 0, 0, 0, 1, 1, 1, 0, 0, 0, 1, 0, 0, 0, 0] 
 T5 => S55 [0, 1, 0, 0, 1, 1, 0, 2, 1, 0, 0, 1, 1, 0, 0, 1, 0, 0, 0, 1, 1, 1, 1, 1, 1, 0, 0, 0, 0, 0] 
 
 Reachable states from S55 [0, 1, 0, 0, 1, 1, 0, 2, 1, 0, 0, 1, 1, 0, 0, 1, 0, 0, 0, 1, 1, 1, 1, 1, 1, 0, 0, 0, 0, 0] 
 T17 => S21 [0, 1, 0, 0, 1, 1, 0, 2, 1, 0, 0, 1, 1, 0, 0, 1, 0, 0, 0, 0, 2, 1, 1, 1, 1, 0, 0, 0, 0, 0] 
 T3 => S51 [0, 0, 1, 0, 0, 1, 1, 2, 1, 0, 0, 1, 1, 0, 0, 1, 0, 0, 0, 1, 1, 1, 1, 1, 0, 1, 0, 0, 0, 0] 
 
 Reachable states from S56 [1, 0, 0, 0, 1, 1, 1, 2, 1, 0, 0, 1, 1, 0, 0, 1, 0, 0, 0, 1, 1, 0, 1, 1, 1, 1, 0, 0, 0, 0] 
 T17 => S20 [1, 0, 0, 0, 1, 1, 1, 2, 1, 0, 0, 1, 1, 0, 0, 1, 0, 0, 0, 0, 2, 0, 1, 1, 1, 1, 0, 0, 0, 0] 
 T2 => S55 [0, 1, 0, 0, 1, 1, 0, 2, 1, 0, 0, 1, 1, 0, 0, 1, 0, 0, 0, 1, 1, 1, 1, 1, 1, 0, 0, 0, 0, 0] 
 
 Reachable states from S57 [0, 0, 0, 0, 1, 1, 1, 3, 1, 0, 0, 1, 1, 0, 0, 1, 0, 0, 0, 1, 1, 1, 1, 1, 1, 1, 1, 1, 1, 0] 
 T17 => S19 [0, 0, 0, 0, 1, 1, 1, 3, 1, 0, 0, 1, 1, 0, 0, 1, 0, 0, 0, 0, 2, 1, 1, 1, 1, 1, 1, 1, 1, 0] 
 T1 => S56 [1, 0, 0, 0, 1, 1, 1, 2, 1, 0, 0, 1, 1, 0, 0, 1, 0, 0, 0, 1, 1, 0, 1, 1, 1, 1, 0, 0, 0, 0] 
 T7 => S58 [0, 0, 0, 0, 1, 1, 1, 3, 0, 1, 0, 0, 1, 0, 0, 1, 0, 0, 0, 1, 1, 0, 1, 1, 0, 0, 1, 1, 1, 0] 
 
 Reachable states from S58 [0, 0, 0, 0, 1, 1, 1, 3, 0, 1, 0, 0, 1, 0, 0, 1, 0, 0, 0, 1, 1, 0, 1, 1, 0, 0, 1, 1, 1, 0] 
 T17 => S22 [0, 0, 0, 0, 1, 1, 1, 3, 0, 1, 0, 0, 1, 0, 0, 1, 0, 0, 0, 0, 2, 0, 1, 1, 0, 0, 1, 1, 1, 0] 
 T8 => S59 [0, 0, 0, 0, 1, 1, 1, 3, 0, 0, 1, 1, 1, 0, 0, 1, 0, 0, 0, 1, 1, 1, 0, 0, 1, 1, 2, 2, 2, 1] 
 
 Reachable states from S59 [0, 0, 0, 0, 1, 1, 1, 3, 0, 0, 1, 1, 1, 0, 0, 1, 0, 0, 0, 1, 1, 1, 0, 0, 1, 1, 2, 2, 2, 1] 
 T17 => S23 [0, 0, 0, 0, 1, 1, 1, 3, 0, 0, 1, 1, 1, 0, 0, 1, 0, 0, 0, 0, 2, 1, 0, 0, 1, 1, 2, 2, 2, 1] 
 T1 => S60 [1, 0, 0, 0, 1, 1, 1, 2, 0, 0, 1, 1, 1, 0, 0, 1, 0, 0, 0, 1, 1, 0, 0, 0, 1, 1, 1, 1, 1, 1] 
 T9 => S123 [0, 0, 0, 0, 1, 1, 1, 3, 0, 0, 0, 1, 2, 0, 0, 1, 0, 0, 0, 1, 1, 1, 1, 1, 1, 1, 2, 2, 2, 1] 
 T6 => S162 [0, 0, 0, 0, 1, 1, 1, 3, 1, 0, 1, 1, 0, 0, 0, 1, 0, 0, 0, 1, 1, 1, 0, 0, 1, 1, 1, 1, 1, 0] 
 T16 => S171 [0, 0, 0, 0, 1, 1, 1, 3, 0, 0, 1, 1, 1, 0, 0, 1, 0, 0, 1, 1, 0, 1, 0, 0, 1, 1, 1, 1, 1, 0] 
 
 Reachable states from S60 [1, 0, 0, 0, 1, 1, 1, 2, 0, 0, 1, 1, 1, 0, 0, 1, 0, 0, 0, 1, 1, 0, 0, 0, 1, 1, 1, 1, 1, 1] 
 T17 => S24 [1, 0, 0, 0, 1, 1, 1, 2, 0, 0, 1, 1, 1, 0, 0, 1, 0, 0, 0, 0, 2, 0, 0, 0, 1, 1, 1, 1, 1, 1] 
 T2 => S61 [0, 1, 0, 0, 1, 1, 0, 2, 0, 0, 1, 1, 1, 0, 0, 1, 0, 0, 0, 1, 1, 1, 0, 0, 1, 0, 1, 1, 1, 1] 
 T6 => S109 [1, 0, 0, 0, 1, 1, 1, 2, 1, 0, 1, 1, 0, 0, 0, 1, 0, 0, 0, 1, 1, 0, 0, 0, 1, 1, 0, 0, 0, 0] 
 T9 => S112 [1, 0, 0, 0, 1, 1, 1, 2, 0, 0, 0, 1, 2, 0, 0, 1, 0, 0, 0, 1, 1, 0, 1, 1, 1, 1, 1, 1, 1, 1] 
 T16 => S169 [1, 0, 0, 0, 1, 1, 1, 2, 0, 0, 1, 1, 1, 0, 0, 1, 0, 0, 1, 1, 0, 0, 0, 0, 1, 1, 0, 0, 0, 0] 
 
 Reachable states from S61 [0, 1, 0, 0, 1, 1, 0, 2, 0, 0, 1, 1, 1, 0, 0, 1, 0, 0, 0, 1, 1, 1, 0, 0, 1, 0, 1, 1, 1, 1] 
 T17 => S25 [0, 1, 0, 0, 1, 1, 0, 2, 0, 0, 1, 1, 1, 0, 0, 1, 0, 0, 0, 0, 2, 1, 0, 0, 1, 0, 1, 1, 1, 1] 
 T1 => S62 [1, 1, 0, 0, 1, 1, 0, 1, 0, 0, 1, 1, 1, 0, 0, 1, 0, 0, 0, 1, 1, 0, 0, 0, 1, 0, 0, 0, 0, 1] 
 T3 => S65 [0, 0, 1, 0, 0, 1, 1, 2, 0, 0, 1, 1, 1, 0, 0, 1, 0, 0, 0, 1, 1, 1, 0, 0, 0, 1, 1, 1, 1, 1] 
 T6 => S104 [0, 1, 0, 0, 1, 1, 0, 2, 1, 0, 1, 1, 0, 0, 0, 1, 0, 0, 0, 1, 1, 1, 0, 0, 1, 0, 0, 0, 0, 0] 
 T9 => S107 [0, 1, 0, 0, 1, 1, 0, 2, 0, 0, 0, 1, 2, 0, 0, 1, 0, 0, 0, 1, 1, 1, 1, 1, 1, 0, 1, 1, 1, 1] 
 T16 => S167 [0, 1, 0, 0, 1, 1, 0, 2, 0, 0, 1, 1, 1, 0, 0, 1, 0, 0, 1, 1, 0, 1, 0, 0, 1, 0, 0, 0, 0, 0] 
 
 Reachable states from S62 [1, 1, 0, 0, 1, 1, 0, 1, 0, 0, 1, 1, 1, 0, 0, 1, 0, 0, 0, 1, 1, 0, 0, 0, 1, 0, 0, 0, 0, 1] 
 T17 => S26 [1, 1, 0, 0, 1, 1, 0, 1, 0, 0, 1, 1, 1, 0, 0, 1, 0, 0, 0, 0, 2, 0, 0, 0, 1, 0, 0, 0, 0, 1] 
 T9 => S48 [1, 1, 0, 0, 1, 1, 0, 1, 0, 0, 0, 1, 2, 0, 0, 1, 0, 0, 0, 1, 1, 0, 1, 1, 1, 0, 0, 0, 0, 1] 
 T3 => S63 [1, 0, 1, 0, 0, 1, 1, 1, 0, 0, 1, 1, 1, 0, 0, 1, 0, 0, 0, 1, 1, 0, 0, 0, 0, 1, 0, 0, 0, 1] 
 
 Reachable states from S63 [1, 0, 1, 0, 0, 1, 1, 1, 0, 0, 1, 1, 1, 0, 0, 1, 0, 0, 0, 1, 1, 0, 0, 0, 0, 1, 0, 0, 0, 1] 
 T17 => S27 [1, 0, 1, 0, 0, 1, 1, 1, 0, 0, 1, 1, 1, 0, 0, 1, 0, 0, 0, 0, 2, 0, 0, 0, 0, 1, 0, 0, 0, 1] 
 T9 => S42 [1, 0, 1, 0, 0, 1, 1, 1, 0, 0, 0, 1, 2, 0, 0, 1, 0, 0, 0, 1, 1, 0, 1, 1, 0, 1, 0, 0, 0, 1] 
 T2 => S64 [0, 1, 1, 0, 0, 1, 0, 1, 0, 0, 1, 1, 1, 0, 0, 1, 0, 0, 0, 1, 1, 1, 0, 0, 0, 0, 0, 0, 0, 1] 
 
 Reachable states from S64 [0, 1, 1, 0, 0, 1, 0, 1, 0, 0, 1, 1, 1, 0, 0, 1, 0, 0, 0, 1, 1, 1, 0, 0, 0, 0, 0, 0, 0, 1] 
 T17 => S28 [0, 1, 1, 0, 0, 1, 0, 1, 0, 0, 1, 1, 1, 0, 0, 1, 0, 0, 0, 0, 2, 1, 0, 0, 0, 0, 0, 0, 0, 1] 
 T9 => S43 [0, 1, 1, 0, 0, 1, 0, 1, 0, 0, 0, 1, 2, 0, 0, 1, 0, 0, 0, 1, 1, 1, 1, 1, 0, 0, 0, 0, 0, 1] 
 
 Reachable states from S65 [0, 0, 1, 0, 0, 1, 1, 2, 0, 0, 1, 1, 1, 0, 0, 1, 0, 0, 0, 1, 1, 1, 0, 0, 0, 1, 1, 1, 1, 1] 
 T17 => S29 [0, 0, 1, 0, 0, 1, 1, 2, 0, 0, 1, 1, 1, 0, 0, 1, 0, 0, 0, 0, 2, 1, 0, 0, 0, 1, 1, 1, 1, 1] 
 T9 => S41 [0, 0, 1, 0, 0, 1, 1, 2, 0, 0, 0, 1, 2, 0, 0, 1, 0, 0, 0, 1, 1, 1, 1, 1, 0, 1, 1, 1, 1, 1] 
 T1 => S63 [1, 0, 1, 0, 0, 1, 1, 1, 0, 0, 1, 1, 1, 0, 0, 1, 0, 0, 0, 1, 1, 0, 0, 0, 0, 1, 0, 0, 0, 1] 
 T6 => S66 [0, 0, 1, 0, 0, 1, 1, 2, 1, 0, 1, 1, 0, 0, 0, 1, 0, 0, 0, 1, 1, 1, 0, 0, 0, 1, 0, 0, 0, 0] 
 T16 => S67 [0, 0, 1, 0, 0, 1, 1, 2, 0, 0, 1, 1, 1, 0, 0, 1, 0, 0, 1, 1, 0, 1, 0, 0, 0, 1, 0, 0, 0, 0] 
 
 Reachable states from S66 [0, 0, 1, 0, 0, 1, 1, 2, 1, 0, 1, 1, 0, 0, 0, 1, 0, 0, 0, 1, 1, 1, 0, 0, 0, 1, 0, 0, 0, 0] 
 T17 => S30 [0, 0, 1, 0, 0, 1, 1, 2, 1, 0, 1, 1, 0, 0, 0, 1, 0, 0, 0, 0, 2, 1, 0, 0, 0, 1, 0, 0, 0, 0] 
 T9 => S51 [0, 0, 1, 0, 0, 1, 1, 2, 1, 0, 0, 1, 1, 0, 0, 1, 0, 0, 0, 1, 1, 1, 1, 1, 0, 1, 0, 0, 0, 0] 
 
 Reachable states from S67 [0, 0, 1, 0, 0, 1, 1, 2, 0, 0, 1, 1, 1, 0, 0, 1, 0, 0, 1, 1, 0, 1, 0, 0, 0, 1, 0, 0, 0, 0] 
 T17 => S31 [0, 0, 1, 0, 0, 1, 1, 2, 0, 0, 1, 1, 1, 0, 0, 1, 0, 0, 1, 0, 1, 1, 0, 0, 0, 1, 0, 0, 0, 0] 
 T9 => S68 [0, 0, 1, 0, 0, 1, 1, 2, 0, 0, 0, 1, 2, 0, 0, 1, 0, 0, 1, 1, 0, 1, 1, 1, 0, 1, 0, 0, 0, 0] 
 
 Reachable states from S68 [0, 0, 1, 0, 0, 1, 1, 2, 0, 0, 0, 1, 2, 0, 0, 1, 0, 0, 1, 1, 0, 1, 1, 1, 0, 1, 0, 0, 0, 0] 
 T17 => S32 [0, 0, 1, 0, 0, 1, 1, 2, 0, 0, 0, 1, 2, 0, 0, 1, 0, 0, 1, 0, 1, 1, 1, 1, 0, 1, 0, 0, 0, 0] 
 T4 => S69 [0, 0, 0, 1, 1, 0, 1, 2, 0, 0, 0, 1, 2, 0, 0, 1, 0, 0, 1, 1, 0, 1, 0, 0, 1, 1, 1, 1, 1, 0] 
 T10 => S75 [0, 0, 1, 0, 0, 1, 1, 2, 0, 0, 0, 1, 2, 1, 0, 0, 0, 0, 0, 1, 0, 0, 0, 1, 0, 1, 0, 0, 0, 0] 
 T13 => S116 [0, 0, 1, 0, 0, 1, 1, 2, 0, 0, 0, 1, 2, 0, 0, 1, 1, 0, 0, 1, 0, 1, 0, 0, 0, 1, 0, 0, 0, 0] 
 
 Reachable states from S69 [0, 0, 0, 1, 1, 0, 1, 2, 0, 0, 0, 1, 2, 0, 0, 1, 0, 0, 1, 1, 0, 1, 0, 0, 1, 1, 1, 1, 1, 0] 
 T17 => S33 [0, 0, 0, 1, 1, 0, 1, 2, 0, 0, 0, 1, 2, 0, 0, 1, 0, 0, 1, 0, 1, 1, 0, 0, 1, 1, 1, 1, 1, 0] 
 T1 => S70 [1, 0, 0, 1, 1, 0, 1, 1, 0, 0, 0, 1, 2, 0, 0, 1, 0, 0, 1, 1, 0, 0, 0, 0, 1, 1, 0, 0, 0, 0] 
 T5 => S124 [0, 0, 0, 0, 1, 1, 1, 3, 0, 0, 0, 1, 2, 0, 0, 1, 0, 0, 1, 1, 0, 1, 1, 1, 1, 1, 1, 1, 1, 0] 
 
 Reachable states from S70 [1, 0, 0, 1, 1, 0, 1, 1, 0, 0, 0, 1, 2, 0, 0, 1, 0, 0, 1, 1, 0, 0, 0, 0, 1, 1, 0, 0, 0, 0] 
 T17 => S34 [1, 0, 0, 1, 1, 0, 1, 1, 0, 0, 0, 1, 2, 0, 0, 1, 0, 0, 1, 0, 1, 0, 0, 0, 1, 1, 0, 0, 0, 0] 
 T2 => S71 [0, 1, 0, 1, 1, 0, 0, 1, 0, 0, 0, 1, 2, 0, 0, 1, 0, 0, 1, 1, 0, 1, 0, 0, 1, 0, 0, 0, 0, 0] 
 T5 => S113 [1, 0, 0, 0, 1, 1, 1, 2, 0, 0, 0, 1, 2, 0, 0, 1, 0, 0, 1, 1, 0, 0, 1, 1, 1, 1, 0, 0, 0, 0] 
 
 Reachable states from S71 [0, 1, 0, 1, 1, 0, 0, 1, 0, 0, 0, 1, 2, 0, 0, 1, 0, 0, 1, 1, 0, 1, 0, 0, 1, 0, 0, 0, 0, 0] 
 T17 => S35 [0, 1, 0, 1, 1, 0, 0, 1, 0, 0, 0, 1, 2, 0, 0, 1, 0, 0, 1, 0, 1, 1, 0, 0, 1, 0, 0, 0, 0, 0] 
 T3 => S72 [0, 0, 1, 1, 0, 0, 1, 1, 0, 0, 0, 1, 2, 0, 0, 1, 0, 0, 1, 1, 0, 1, 0, 0, 0, 1, 0, 0, 0, 0] 
 T5 => S73 [0, 1, 0, 0, 1, 1, 0, 2, 0, 0, 0, 1, 2, 0, 0, 1, 0, 0, 1, 1, 0, 1, 1, 1, 1, 0, 0, 0, 0, 0] 
 
 Reachable states from S72 [0, 0, 1, 1, 0, 0, 1, 1, 0, 0, 0, 1, 2, 0, 0, 1, 0, 0, 1, 1, 0, 1, 0, 0, 0, 1, 0, 0, 0, 0] 
 T17 => S36 [0, 0, 1, 1, 0, 0, 1, 1, 0, 0, 0, 1, 2, 0, 0, 1, 0, 0, 1, 0, 1, 1, 0, 0, 0, 1, 0, 0, 0, 0] 
 T5 => S68 [0, 0, 1, 0, 0, 1, 1, 2, 0, 0, 0, 1, 2, 0, 0, 1, 0, 0, 1, 1, 0, 1, 1, 1, 0, 1, 0, 0, 0, 0] 
 
 Reachable states from S73 [0, 1, 0, 0, 1, 1, 0, 2, 0, 0, 0, 1, 2, 0, 0, 1, 0, 0, 1, 1, 0, 1, 1, 1, 1, 0, 0, 0, 0, 0] 
 T17 => S37 [0, 1, 0, 0, 1, 1, 0, 2, 0, 0, 0, 1, 2, 0, 0, 1, 0, 0, 1, 0, 1, 1, 1, 1, 1, 0, 0, 0, 0, 0] 
 T3 => S68 [0, 0, 1, 0, 0, 1, 1, 2, 0, 0, 0, 1, 2, 0, 0, 1, 0, 0, 1, 1, 0, 1, 1, 1, 0, 1, 0, 0, 0, 0] 
 T10 => S74 [0, 1, 0, 0, 1, 1, 0, 2, 0, 0, 0, 1, 2, 1, 0, 0, 0, 0, 0, 1, 0, 0, 0, 1, 1, 0, 0, 0, 0, 0] 
 T13 => S115 [0, 1, 0, 0, 1, 1, 0, 2, 0, 0, 0, 1, 2, 0, 0, 1, 1, 0, 0, 1, 0, 1, 0, 0, 1, 0, 0, 0, 0, 0] 
 
 Reachable states from S74 [0, 1, 0, 0, 1, 1, 0, 2, 0, 0, 0, 1, 2, 1, 0, 0, 0, 0, 0, 1, 0, 0, 0, 1, 1, 0, 0, 0, 0, 0] 
 T17 => S38 [0, 1, 0, 0, 1, 1, 0, 2, 0, 0, 0, 1, 2, 1, 0, 0, 0, 0, 0, 0, 1, 0, 0, 1, 1, 0, 0, 0, 0, 0] 
 T3 => S75 [0, 0, 1, 0, 0, 1, 1, 2, 0, 0, 0, 1, 2, 1, 0, 0, 0, 0, 0, 1, 0, 0, 0, 1, 0, 1, 0, 0, 0, 0] 
 
 Reachable states from S75 [0, 0, 1, 0, 0, 1, 1, 2, 0, 0, 0, 1, 2, 1, 0, 0, 0, 0, 0, 1, 0, 0, 0, 1, 0, 1, 0, 0, 0, 0] 
 T17 => S39 [0, 0, 1, 0, 0, 1, 1, 2, 0, 0, 0, 1, 2, 1, 0, 0, 0, 0, 0, 0, 1, 0, 0, 1, 0, 1, 0, 0, 0, 0] 
 T11 => S76 [0, 0, 1, 0, 0, 1, 1, 2, 0, 0, 0, 1, 2, 0, 1, 1, 0, 0, 0, 1, 0, 1, 1, 0, 0, 0, 1, 1, 0, 1] 
 
 Reachable states from S76 [0, 0, 1, 0, 0, 1, 1, 2, 0, 0, 0, 1, 2, 0, 1, 1, 0, 0, 0, 1, 0, 1, 1, 0, 0, 0, 1, 1, 0, 1] 
 T17 => S40 [0, 0, 1, 0, 0, 1, 1, 2, 0, 0, 0, 1, 2, 0, 1, 1, 0, 0, 0, 0, 1, 1, 1, 0, 0, 0, 1, 1, 0, 1] 
 T12 => S77 [0, 0, 1, 0, 0, 1, 1, 2, 0, 0, 0, 1, 2, 0, 0, 1, 0, 0, 0, 2, 0, 1, 1, 1, 0, 1, 1, 1, 1, 1] 
 
 Reachable states from S77 [0, 0, 1, 0, 0, 1, 1, 2, 0, 0, 0, 1, 2, 0, 0, 1, 0, 0, 0, 2, 0, 1, 1, 1, 0, 1, 1, 1, 1, 1] 
 T17 => S41 [0, 0, 1, 0, 0, 1, 1, 2, 0, 0, 0, 1, 2, 0, 0, 1, 0, 0, 0, 1, 1, 1, 1, 1, 0, 1, 1, 1, 1, 1] 
 T1 => S78 [1, 0, 1, 0, 0, 1, 1, 1, 0, 0, 0, 1, 2, 0, 0, 1, 0, 0, 0, 2, 0, 0, 1, 1, 0, 1, 0, 0, 0, 1] 
 T6 => S87 [0, 0, 1, 0, 0, 1, 1, 2, 1, 0, 0, 1, 1, 0, 0, 1, 0, 0, 0, 2, 0, 1, 1, 1, 0, 1, 0, 0, 0, 0] 
 T4 => S155 [0, 0, 0, 1, 1, 0, 1, 2, 0, 0, 0, 1, 2, 0, 0, 1, 0, 0, 0, 2, 0, 1, 0, 0, 1, 1, 2, 2, 2, 1] 
 
 Reachable states from S78 [1, 0, 1, 0, 0, 1, 1, 1, 0, 0, 0, 1, 2, 0, 0, 1, 0, 0, 0, 2, 0, 0, 1, 1, 0, 1, 0, 0, 0, 1] 
 T17 => S42 [1, 0, 1, 0, 0, 1, 1, 1, 0, 0, 0, 1, 2, 0, 0, 1, 0, 0, 0, 1, 1, 0, 1, 1, 0, 1, 0, 0, 0, 1] 
 T2 => S79 [0, 1, 1, 0, 0, 1, 0, 1, 0, 0, 0, 1, 2, 0, 0, 1, 0, 0, 0, 2, 0, 1, 1, 1, 0, 0, 0, 0, 0, 1] 
 T4 => S156 [1, 0, 0, 1, 1, 0, 1, 1, 0, 0, 0, 1, 2, 0, 0, 1, 0, 0, 0, 2, 0, 0, 0, 0, 1, 1, 1, 1, 1, 1] 
 
 Reachable states from S79 [0, 1, 1, 0, 0, 1, 0, 1, 0, 0, 0, 1, 2, 0, 0, 1, 0, 0, 0, 2, 0, 1, 1, 1, 0, 0, 0, 0, 0, 1] 
 T17 => S43 [0, 1, 1, 0, 0, 1, 0, 1, 0, 0, 0, 1, 2, 0, 0, 1, 0, 0, 0, 1, 1, 1, 1, 1, 0, 0, 0, 0, 0, 1] 
 T4 => S80 [0, 1, 0, 1, 1, 0, 0, 1, 0, 0, 0, 1, 2, 0, 0, 1, 0, 0, 0, 2, 0, 1, 0, 0, 1, 0, 1, 1, 1, 1] 
 
 Reachable states from S80 [0, 1, 0, 1, 1, 0, 0, 1, 0, 0, 0, 1, 2, 0, 0, 1, 0, 0, 0, 2, 0, 1, 0, 0, 1, 0, 1, 1, 1, 1] 
 T17 => S44 [0, 1, 0, 1, 1, 0, 0, 1, 0, 0, 0, 1, 2, 0, 0, 1, 0, 0, 0, 1, 1, 1, 0, 0, 1, 0, 1, 1, 1, 1] 
 T1 => S81 [1, 1, 0, 1, 1, 0, 0, 0, 0, 0, 0, 1, 2, 0, 0, 1, 0, 0, 0, 2, 0, 0, 0, 0, 1, 0, 0, 0, 0, 1] 
 T3 => S85 [0, 0, 1, 1, 0, 0, 1, 1, 0, 0, 0, 1, 2, 0, 0, 1, 0, 0, 0, 2, 0, 1, 0, 0, 0, 1, 1, 1, 1, 1] 
 T6 => S90 [0, 1, 0, 1, 1, 0, 0, 1, 1, 0, 0, 1, 1, 0, 0, 1, 0, 0, 0, 2, 0, 1, 0, 0, 1, 0, 0, 0, 0, 0] 
 T5 => S106 [0, 1, 0, 0, 1, 1, 0, 2, 0, 0, 0, 1, 2, 0, 0, 1, 0, 0, 0, 2, 0, 1, 1, 1, 1, 0, 1, 1, 1, 1] 
 
 Reachable states from S81 [1, 1, 0, 1, 1, 0, 0, 0, 0, 0, 0, 1, 2, 0, 0, 1, 0, 0, 0, 2, 0, 0, 0, 0, 1, 0, 0, 0, 0, 1] 
 T17 => S45 [1, 1, 0, 1, 1, 0, 0, 0, 0, 0, 0, 1, 2, 0, 0, 1, 0, 0, 0, 1, 1, 0, 0, 0, 1, 0, 0, 0, 0, 1] 
 T3 => S82 [1, 0, 1, 1, 0, 0, 1, 0, 0, 0, 0, 1, 2, 0, 0, 1, 0, 0, 0, 2, 0, 0, 0, 0, 0, 1, 0, 0, 0, 1] 
 T5 => S84 [1, 1, 0, 0, 1, 1, 0, 1, 0, 0, 0, 1, 2, 0, 0, 1, 0, 0, 0, 2, 0, 0, 1, 1, 1, 0, 0, 0, 0, 1] 
 
 Reachable states from S82 [1, 0, 1, 1, 0, 0, 1, 0, 0, 0, 0, 1, 2, 0, 0, 1, 0, 0, 0, 2, 0, 0, 0, 0, 0, 1, 0, 0, 0, 1] 
 T17 => S46 [1, 0, 1, 1, 0, 0, 1, 0, 0, 0, 0, 1, 2, 0, 0, 1, 0, 0, 0, 1, 1, 0, 0, 0, 0, 1, 0, 0, 0, 1] 
 T5 => S78 [1, 0, 1, 0, 0, 1, 1, 1, 0, 0, 0, 1, 2, 0, 0, 1, 0, 0, 0, 2, 0, 0, 1, 1, 0, 1, 0, 0, 0, 1] 
 T2 => S83 [0, 1, 1, 1, 0, 0, 0, 0, 0, 0, 0, 1, 2, 0, 0, 1, 0, 0, 0, 2, 0, 1, 0, 0, 0, 0, 0, 0, 0, 1] 
 
 Reachable states from S83 [0, 1, 1, 1, 0, 0, 0, 0, 0, 0, 0, 1, 2, 0, 0, 1, 0, 0, 0, 2, 0, 1, 0, 0, 0, 0, 0, 0, 0, 1] 
 T17 => S47 [0, 1, 1, 1, 0, 0, 0, 0, 0, 0, 0, 1, 2, 0, 0, 1, 0, 0, 0, 1, 1, 1, 0, 0, 0, 0, 0, 0, 0, 1] 
 T5 => S79 [0, 1, 1, 0, 0, 1, 0, 1, 0, 0, 0, 1, 2, 0, 0, 1, 0, 0, 0, 2, 0, 1, 1, 1, 0, 0, 0, 0, 0, 1] 
 
 Reachable states from S84 [1, 1, 0, 0, 1, 1, 0, 1, 0, 0, 0, 1, 2, 0, 0, 1, 0, 0, 0, 2, 0, 0, 1, 1, 1, 0, 0, 0, 0, 1] 
 T17 => S48 [1, 1, 0, 0, 1, 1, 0, 1, 0, 0, 0, 1, 2, 0, 0, 1, 0, 0, 0, 1, 1, 0, 1, 1, 1, 0, 0, 0, 0, 1] 
 T3 => S78 [1, 0, 1, 0, 0, 1, 1, 1, 0, 0, 0, 1, 2, 0, 0, 1, 0, 0, 0, 2, 0, 0, 1, 1, 0, 1, 0, 0, 0, 1] 
 
 Reachable states from S85 [0, 0, 1, 1, 0, 0, 1, 1, 0, 0, 0, 1, 2, 0, 0, 1, 0, 0, 0, 2, 0, 1, 0, 0, 0, 1, 1, 1, 1, 1] 
 T17 => S49 [0, 0, 1, 1, 0, 0, 1, 1, 0, 0, 0, 1, 2, 0, 0, 1, 0, 0, 0, 1, 1, 1, 0, 0, 0, 1, 1, 1, 1, 1] 
 T5 => S77 [0, 0, 1, 0, 0, 1, 1, 2, 0, 0, 0, 1, 2, 0, 0, 1, 0, 0, 0, 2, 0, 1, 1, 1, 0, 1, 1, 1, 1, 1] 
 T1 => S82 [1, 0, 1, 1, 0, 0, 1, 0, 0, 0, 0, 1, 2, 0, 0, 1, 0, 0, 0, 2, 0, 0, 0, 0, 0, 1, 0, 0, 0, 1] 
 T6 => S86 [0, 0, 1, 1, 0, 0, 1, 1, 1, 0, 0, 1, 1, 0, 0, 1, 0, 0, 0, 2, 0, 1, 0, 0, 0, 1, 0, 0, 0, 0] 
 
 Reachable states from S86 [0, 0, 1, 1, 0, 0, 1, 1, 1, 0, 0, 1, 1, 0, 0, 1, 0, 0, 0, 2, 0, 1, 0, 0, 0, 1, 0, 0, 0, 0] 
 T17 => S50 [0, 0, 1, 1, 0, 0, 1, 1, 1, 0, 0, 1, 1, 0, 0, 1, 0, 0, 0, 1, 1, 1, 0, 0, 0, 1, 0, 0, 0, 0] 
 T5 => S87 [0, 0, 1, 0, 0, 1, 1, 2, 1, 0, 0, 1, 1, 0, 0, 1, 0, 0, 0, 2, 0, 1, 1, 1, 0, 1, 0, 0, 0, 0] 
 
 Reachable states from S87 [0, 0, 1, 0, 0, 1, 1, 2, 1, 0, 0, 1, 1, 0, 0, 1, 0, 0, 0, 2, 0, 1, 1, 1, 0, 1, 0, 0, 0, 0] 
 T17 => S51 [0, 0, 1, 0, 0, 1, 1, 2, 1, 0, 0, 1, 1, 0, 0, 1, 0, 0, 0, 1, 1, 1, 1, 1, 0, 1, 0, 0, 0, 0] 
 T4 => S88 [0, 0, 0, 1, 1, 0, 1, 2, 1, 0, 0, 1, 1, 0, 0, 1, 0, 0, 0, 2, 0, 1, 0, 0, 1, 1, 1, 1, 1, 0] 
 
 Reachable states from S88 [0, 0, 0, 1, 1, 0, 1, 2, 1, 0, 0, 1, 1, 0, 0, 1, 0, 0, 0, 2, 0, 1, 0, 0, 1, 1, 1, 1, 1, 0] 
 T17 => S52 [0, 0, 0, 1, 1, 0, 1, 2, 1, 0, 0, 1, 1, 0, 0, 1, 0, 0, 0, 1, 1, 1, 0, 0, 1, 1, 1, 1, 1, 0] 
 T1 => S89 [1, 0, 0, 1, 1, 0, 1, 1, 1, 0, 0, 1, 1, 0, 0, 1, 0, 0, 0, 2, 0, 0, 0, 0, 1, 1, 0, 0, 0, 0] 
 T5 => S93 [0, 0, 0, 0, 1, 1, 1, 3, 1, 0, 0, 1, 1, 0, 0, 1, 0, 0, 0, 2, 0, 1, 1, 1, 1, 1, 1, 1, 1, 0] 
 T7 => S164 [0, 0, 0, 1, 1, 0, 1, 2, 0, 1, 0, 0, 1, 0, 0, 1, 0, 0, 0, 2, 0, 0, 0, 0, 0, 0, 1, 1, 1, 0] 
 
 Reachable states from S89 [1, 0, 0, 1, 1, 0, 1, 1, 1, 0, 0, 1, 1, 0, 0, 1, 0, 0, 0, 2, 0, 0, 0, 0, 1, 1, 0, 0, 0, 0] 
 T17 => S53 [1, 0, 0, 1, 1, 0, 1, 1, 1, 0, 0, 1, 1, 0, 0, 1, 0, 0, 0, 1, 1, 0, 0, 0, 1, 1, 0, 0, 0, 0] 
 T2 => S90 [0, 1, 0, 1, 1, 0, 0, 1, 1, 0, 0, 1, 1, 0, 0, 1, 0, 0, 0, 2, 0, 1, 0, 0, 1, 0, 0, 0, 0, 0] 
 T5 => S92 [1, 0, 0, 0, 1, 1, 1, 2, 1, 0, 0, 1, 1, 0, 0, 1, 0, 0, 0, 2, 0, 0, 1, 1, 1, 1, 0, 0, 0, 0] 
 
 Reachable states from S90 [0, 1, 0, 1, 1, 0, 0, 1, 1, 0, 0, 1, 1, 0, 0, 1, 0, 0, 0, 2, 0, 1, 0, 0, 1, 0, 0, 0, 0, 0] 
 T17 => S54 [0, 1, 0, 1, 1, 0, 0, 1, 1, 0, 0, 1, 1, 0, 0, 1, 0, 0, 0, 1, 1, 1, 0, 0, 1, 0, 0, 0, 0, 0] 
 T3 => S86 [0, 0, 1, 1, 0, 0, 1, 1, 1, 0, 0, 1, 1, 0, 0, 1, 0, 0, 0, 2, 0, 1, 0, 0, 0, 1, 0, 0, 0, 0] 
 T5 => S91 [0, 1, 0, 0, 1, 1, 0, 2, 1, 0, 0, 1, 1, 0, 0, 1, 0, 0, 0, 2, 0, 1, 1, 1, 1, 0, 0, 0, 0, 0] 
 
 Reachable states from S91 [0, 1, 0, 0, 1, 1, 0, 2, 1, 0, 0, 1, 1, 0, 0, 1, 0, 0, 0, 2, 0, 1, 1, 1, 1, 0, 0, 0, 0, 0] 
 T17 => S55 [0, 1, 0, 0, 1, 1, 0, 2, 1, 0, 0, 1, 1, 0, 0, 1, 0, 0, 0, 1, 1, 1, 1, 1, 1, 0, 0, 0, 0, 0] 
 T3 => S87 [0, 0, 1, 0, 0, 1, 1, 2, 1, 0, 0, 1, 1, 0, 0, 1, 0, 0, 0, 2, 0, 1, 1, 1, 0, 1, 0, 0, 0, 0] 
 
 Reachable states from S92 [1, 0, 0, 0, 1, 1, 1, 2, 1, 0, 0, 1, 1, 0, 0, 1, 0, 0, 0, 2, 0, 0, 1, 1, 1, 1, 0, 0, 0, 0] 
 T17 => S56 [1, 0, 0, 0, 1, 1, 1, 2, 1, 0, 0, 1, 1, 0, 0, 1, 0, 0, 0, 1, 1, 0, 1, 1, 1, 1, 0, 0, 0, 0] 
 T2 => S91 [0, 1, 0, 0, 1, 1, 0, 2, 1, 0, 0, 1, 1, 0, 0, 1, 0, 0, 0, 2, 0, 1, 1, 1, 1, 0, 0, 0, 0, 0] 
 
 Reachable states from S93 [0, 0, 0, 0, 1, 1, 1, 3, 1, 0, 0, 1, 1, 0, 0, 1, 0, 0, 0, 2, 0, 1, 1, 1, 1, 1, 1, 1, 1, 0] 
 T17 => S57 [0, 0, 0, 0, 1, 1, 1, 3, 1, 0, 0, 1, 1, 0, 0, 1, 0, 0, 0, 1, 1, 1, 1, 1, 1, 1, 1, 1, 1, 0] 
 T1 => S92 [1, 0, 0, 0, 1, 1, 1, 2, 1, 0, 0, 1, 1, 0, 0, 1, 0, 0, 0, 2, 0, 0, 1, 1, 1, 1, 0, 0, 0, 0] 
 T7 => S94 [0, 0, 0, 0, 1, 1, 1, 3, 0, 1, 0, 0, 1, 0, 0, 1, 0, 0, 0, 2, 0, 0, 1, 1, 0, 0, 1, 1, 1, 0] 
 
 Reachable states from S94 [0, 0, 0, 0, 1, 1, 1, 3, 0, 1, 0, 0, 1, 0, 0, 1, 0, 0, 0, 2, 0, 0, 1, 1, 0, 0, 1, 1, 1, 0] 
 T17 => S58 [0, 0, 0, 0, 1, 1, 1, 3, 0, 1, 0, 0, 1, 0, 0, 1, 0, 0, 0, 1, 1, 0, 1, 1, 0, 0, 1, 1, 1, 0] 
 T8 => S95 [0, 0, 0, 0, 1, 1, 1, 3, 0, 0, 1, 1, 1, 0, 0, 1, 0, 0, 0, 2, 0, 1, 0, 0, 1, 1, 2, 2, 2, 1] 
 
 Reachable states from S95 [0, 0, 0, 0, 1, 1, 1, 3, 0, 0, 1, 1, 1, 0, 0, 1, 0, 0, 0, 2, 0, 1, 0, 0, 1, 1, 2, 2, 2, 1] 
 T17 => S59 [0, 0, 0, 0, 1, 1, 1, 3, 0, 0, 1, 1, 1, 0, 0, 1, 0, 0, 0, 1, 1, 1, 0, 0, 1, 1, 2, 2, 2, 1] 
 T1 => S96 [1, 0, 0, 0, 1, 1, 1, 2, 0, 0, 1, 1, 1, 0, 0, 1, 0, 0, 0, 2, 0, 0, 0, 0, 1, 1, 1, 1, 1, 1] 
 T9 => S122 [0, 0, 0, 0, 1, 1, 1, 3, 0, 0, 0, 1, 2, 0, 0, 1, 0, 0, 0, 2, 0, 1, 1, 1, 1, 1, 2, 2, 2, 1] 
 T6 => S158 [0, 0, 0, 0, 1, 1, 1, 3, 1, 0, 1, 1, 0, 0, 0, 1, 0, 0, 0, 2, 0, 1, 0, 0, 1, 1, 1, 1, 1, 0] 
 
 Reachable states from S96 [1, 0, 0, 0, 1, 1, 1, 2, 0, 0, 1, 1, 1, 0, 0, 1, 0, 0, 0, 2, 0, 0, 0, 0, 1, 1, 1, 1, 1, 1] 
 T17 => S60 [1, 0, 0, 0, 1, 1, 1, 2, 0, 0, 1, 1, 1, 0, 0, 1, 0, 0, 0, 1, 1, 0, 0, 0, 1, 1, 1, 1, 1, 1] 
 T2 => S97 [0, 1, 0, 0, 1, 1, 0, 2, 0, 0, 1, 1, 1, 0, 0, 1, 0, 0, 0, 2, 0, 1, 0, 0, 1, 0, 1, 1, 1, 1] 
 T6 => S108 [1, 0, 0, 0, 1, 1, 1, 2, 1, 0, 1, 1, 0, 0, 0, 1, 0, 0, 0, 2, 0, 0, 0, 0, 1, 1, 0, 0, 0, 0] 
 T9 => S111 [1, 0, 0, 0, 1, 1, 1, 2, 0, 0, 0, 1, 2, 0, 0, 1, 0, 0, 0, 2, 0, 0, 1, 1, 1, 1, 1, 1, 1, 1] 
 
 Reachable states from S97 [0, 1, 0, 0, 1, 1, 0, 2, 0, 0, 1, 1, 1, 0, 0, 1, 0, 0, 0, 2, 0, 1, 0, 0, 1, 0, 1, 1, 1, 1] 
 T17 => S61 [0, 1, 0, 0, 1, 1, 0, 2, 0, 0, 1, 1, 1, 0, 0, 1, 0, 0, 0, 1, 1, 1, 0, 0, 1, 0, 1, 1, 1, 1] 
 T1 => S98 [1, 1, 0, 0, 1, 1, 0, 1, 0, 0, 1, 1, 1, 0, 0, 1, 0, 0, 0, 2, 0, 0, 0, 0, 1, 0, 0, 0, 0, 1] 
 T3 => S101 [0, 0, 1, 0, 0, 1, 1, 2, 0, 0, 1, 1, 1, 0, 0, 1, 0, 0, 0, 2, 0, 1, 0, 0, 0, 1, 1, 1, 1, 1] 
 T6 => S103 [0, 1, 0, 0, 1, 1, 0, 2, 1, 0, 1, 1, 0, 0, 0, 1, 0, 0, 0, 2, 0, 1, 0, 0, 1, 0, 0, 0, 0, 0] 
 T9 => S106 [0, 1, 0, 0, 1, 1, 0, 2, 0, 0, 0, 1, 2, 0, 0, 1, 0, 0, 0, 2, 0, 1, 1, 1, 1, 0, 1, 1, 1, 1] 
 
 Reachable states from S98 [1, 1, 0, 0, 1, 1, 0, 1, 0, 0, 1, 1, 1, 0, 0, 1, 0, 0, 0, 2, 0, 0, 0, 0, 1, 0, 0, 0, 0, 1] 
 T17 => S62 [1, 1, 0, 0, 1, 1, 0, 1, 0, 0, 1, 1, 1, 0, 0, 1, 0, 0, 0, 1, 1, 0, 0, 0, 1, 0, 0, 0, 0, 1] 
 T9 => S84 [1, 1, 0, 0, 1, 1, 0, 1, 0, 0, 0, 1, 2, 0, 0, 1, 0, 0, 0, 2, 0, 0, 1, 1, 1, 0, 0, 0, 0, 1] 
 T3 => S99 [1, 0, 1, 0, 0, 1, 1, 1, 0, 0, 1, 1, 1, 0, 0, 1, 0, 0, 0, 2, 0, 0, 0, 0, 0, 1, 0, 0, 0, 1] 
 
 Reachable states from S99 [1, 0, 1, 0, 0, 1, 1, 1, 0, 0, 1, 1, 1, 0, 0, 1, 0, 0, 0, 2, 0, 0, 0, 0, 0, 1, 0, 0, 0, 1] 
 T17 => S63 [1, 0, 1, 0, 0, 1, 1, 1, 0, 0, 1, 1, 1, 0, 0, 1, 0, 0, 0, 1, 1, 0, 0, 0, 0, 1, 0, 0, 0, 1] 
 T9 => S78 [1, 0, 1, 0, 0, 1, 1, 1, 0, 0, 0, 1, 2, 0, 0, 1, 0, 0, 0, 2, 0, 0, 1, 1, 0, 1, 0, 0, 0, 1] 
 T2 => S100 [0, 1, 1, 0, 0, 1, 0, 1, 0, 0, 1, 1, 1, 0, 0, 1, 0, 0, 0, 2, 0, 1, 0, 0, 0, 0, 0, 0, 0, 1] 
 
 Reachable states from S100 [0, 1, 1, 0, 0, 1, 0, 1, 0, 0, 1, 1, 1, 0, 0, 1, 0, 0, 0, 2, 0, 1, 0, 0, 0, 0, 0, 0, 0, 1] 
 T17 => S64 [0, 1, 1, 0, 0, 1, 0, 1, 0, 0, 1, 1, 1, 0, 0, 1, 0, 0, 0, 1, 1, 1, 0, 0, 0, 0, 0, 0, 0, 1] 
 T9 => S79 [0, 1, 1, 0, 0, 1, 0, 1, 0, 0, 0, 1, 2, 0, 0, 1, 0, 0, 0, 2, 0, 1, 1, 1, 0, 0, 0, 0, 0, 1] 
 
 Reachable states from S101 [0, 0, 1, 0, 0, 1, 1, 2, 0, 0, 1, 1, 1, 0, 0, 1, 0, 0, 0, 2, 0, 1, 0, 0, 0, 1, 1, 1, 1, 1] 
 T17 => S65 [0, 0, 1, 0, 0, 1, 1, 2, 0, 0, 1, 1, 1, 0, 0, 1, 0, 0, 0, 1, 1, 1, 0, 0, 0, 1, 1, 1, 1, 1] 
 T9 => S77 [0, 0, 1, 0, 0, 1, 1, 2, 0, 0, 0, 1, 2, 0, 0, 1, 0, 0, 0, 2, 0, 1, 1, 1, 0, 1, 1, 1, 1, 1] 
 T1 => S99 [1, 0, 1, 0, 0, 1, 1, 1, 0, 0, 1, 1, 1, 0, 0, 1, 0, 0, 0, 2, 0, 0, 0, 0, 0, 1, 0, 0, 0, 1] 
 T6 => S102 [0, 0, 1, 0, 0, 1, 1, 2, 1, 0, 1, 1, 0, 0, 0, 1, 0, 0, 0, 2, 0, 1, 0, 0, 0, 1, 0, 0, 0, 0] 
 
 Reachable states from S102 [0, 0, 1, 0, 0, 1, 1, 2, 1, 0, 1, 1, 0, 0, 0, 1, 0, 0, 0, 2, 0, 1, 0, 0, 0, 1, 0, 0, 0, 0] 
 T17 => S66 [0, 0, 1, 0, 0, 1, 1, 2, 1, 0, 1, 1, 0, 0, 0, 1, 0, 0, 0, 1, 1, 1, 0, 0, 0, 1, 0, 0, 0, 0] 
 T9 => S87 [0, 0, 1, 0, 0, 1, 1, 2, 1, 0, 0, 1, 1, 0, 0, 1, 0, 0, 0, 2, 0, 1, 1, 1, 0, 1, 0, 0, 0, 0] 
 
 Reachable states from S103 [0, 1, 0, 0, 1, 1, 0, 2, 1, 0, 1, 1, 0, 0, 0, 1, 0, 0, 0, 2, 0, 1, 0, 0, 1, 0, 0, 0, 0, 0] 
 T9 => S91 [0, 1, 0, 0, 1, 1, 0, 2, 1, 0, 0, 1, 1, 0, 0, 1, 0, 0, 0, 2, 0, 1, 1, 1, 1, 0, 0, 0, 0, 0] 
 T3 => S102 [0, 0, 1, 0, 0, 1, 1, 2, 1, 0, 1, 1, 0, 0, 0, 1, 0, 0, 0, 2, 0, 1, 0, 0, 0, 1, 0, 0, 0, 0] 
 T17 => S104 [0, 1, 0, 0, 1, 1, 0, 2, 1, 0, 1, 1, 0, 0, 0, 1, 0, 0, 0, 1, 1, 1, 0, 0, 1, 0, 0, 0, 0, 0] 
 
 Reachable states from S104 [0, 1, 0, 0, 1, 1, 0, 2, 1, 0, 1, 1, 0, 0, 0, 1, 0, 0, 0, 1, 1, 1, 0, 0, 1, 0, 0, 0, 0, 0] 
 T9 => S55 [0, 1, 0, 0, 1, 1, 0, 2, 1, 0, 0, 1, 1, 0, 0, 1, 0, 0, 0, 1, 1, 1, 1, 1, 1, 0, 0, 0, 0, 0] 
 T3 => S66 [0, 0, 1, 0, 0, 1, 1, 2, 1, 0, 1, 1, 0, 0, 0, 1, 0, 0, 0, 1, 1, 1, 0, 0, 0, 1, 0, 0, 0, 0] 
 T17 => S105 [0, 1, 0, 0, 1, 1, 0, 2, 1, 0, 1, 1, 0, 0, 0, 1, 0, 0, 0, 0, 2, 1, 0, 0, 1, 0, 0, 0, 0, 0] 
 
 Reachable states from S105 [0, 1, 0, 0, 1, 1, 0, 2, 1, 0, 1, 1, 0, 0, 0, 1, 0, 0, 0, 0, 2, 1, 0, 0, 1, 0, 0, 0, 0, 0] 
 T9 => S21 [0, 1, 0, 0, 1, 1, 0, 2, 1, 0, 0, 1, 1, 0, 0, 1, 0, 0, 0, 0, 2, 1, 1, 1, 1, 0, 0, 0, 0, 0] 
 T3 => S30 [0, 0, 1, 0, 0, 1, 1, 2, 1, 0, 1, 1, 0, 0, 0, 1, 0, 0, 0, 0, 2, 1, 0, 0, 0, 1, 0, 0, 0, 0] 
 
 Reachable states from S106 [0, 1, 0, 0, 1, 1, 0, 2, 0, 0, 0, 1, 2, 0, 0, 1, 0, 0, 0, 2, 0, 1, 1, 1, 1, 0, 1, 1, 1, 1] 
 T3 => S77 [0, 0, 1, 0, 0, 1, 1, 2, 0, 0, 0, 1, 2, 0, 0, 1, 0, 0, 0, 2, 0, 1, 1, 1, 0, 1, 1, 1, 1, 1] 
 T1 => S84 [1, 1, 0, 0, 1, 1, 0, 1, 0, 0, 0, 1, 2, 0, 0, 1, 0, 0, 0, 2, 0, 0, 1, 1, 1, 0, 0, 0, 0, 1] 
 T6 => S91 [0, 1, 0, 0, 1, 1, 0, 2, 1, 0, 0, 1, 1, 0, 0, 1, 0, 0, 0, 2, 0, 1, 1, 1, 1, 0, 0, 0, 0, 0] 
 T17 => S107 [0, 1, 0, 0, 1, 1, 0, 2, 0, 0, 0, 1, 2, 0, 0, 1, 0, 0, 0, 1, 1, 1, 1, 1, 1, 0, 1, 1, 1, 1] 
 
 Reachable states from S107 [0, 1, 0, 0, 1, 1, 0, 2, 0, 0, 0, 1, 2, 0, 0, 1, 0, 0, 0, 1, 1, 1, 1, 1, 1, 0, 1, 1, 1, 1] 
 T17 => S2 [0, 1, 0, 0, 1, 1, 0, 2, 0, 0, 0, 1, 2, 0, 0, 1, 0, 0, 0, 0, 2, 1, 1, 1, 1, 0, 1, 1, 1, 1] 
 T3 => S41 [0, 0, 1, 0, 0, 1, 1, 2, 0, 0, 0, 1, 2, 0, 0, 1, 0, 0, 0, 1, 1, 1, 1, 1, 0, 1, 1, 1, 1, 1] 
 T1 => S48 [1, 1, 0, 0, 1, 1, 0, 1, 0, 0, 0, 1, 2, 0, 0, 1, 0, 0, 0, 1, 1, 0, 1, 1, 1, 0, 0, 0, 0, 1] 
 T6 => S55 [0, 1, 0, 0, 1, 1, 0, 2, 1, 0, 0, 1, 1, 0, 0, 1, 0, 0, 0, 1, 1, 1, 1, 1, 1, 0, 0, 0, 0, 0] 
 T16 => S73 [0, 1, 0, 0, 1, 1, 0, 2, 0, 0, 0, 1, 2, 0, 0, 1, 0, 0, 1, 1, 0, 1, 1, 1, 1, 0, 0, 0, 0, 0] 
 
 Reachable states from S108 [1, 0, 0, 0, 1, 1, 1, 2, 1, 0, 1, 1, 0, 0, 0, 1, 0, 0, 0, 2, 0, 0, 0, 0, 1, 1, 0, 0, 0, 0] 
 T9 => S92 [1, 0, 0, 0, 1, 1, 1, 2, 1, 0, 0, 1, 1, 0, 0, 1, 0, 0, 0, 2, 0, 0, 1, 1, 1, 1, 0, 0, 0, 0] 
 T2 => S103 [0, 1, 0, 0, 1, 1, 0, 2, 1, 0, 1, 1, 0, 0, 0, 1, 0, 0, 0, 2, 0, 1, 0, 0, 1, 0, 0, 0, 0, 0] 
 T17 => S109 [1, 0, 0, 0, 1, 1, 1, 2, 1, 0, 1, 1, 0, 0, 0, 1, 0, 0, 0, 1, 1, 0, 0, 0, 1, 1, 0, 0, 0, 0] 
 
 Reachable states from S109 [1, 0, 0, 0, 1, 1, 1, 2, 1, 0, 1, 1, 0, 0, 0, 1, 0, 0, 0, 1, 1, 0, 0, 0, 1, 1, 0, 0, 0, 0] 
 T9 => S56 [1, 0, 0, 0, 1, 1, 1, 2, 1, 0, 0, 1, 1, 0, 0, 1, 0, 0, 0, 1, 1, 0, 1, 1, 1, 1, 0, 0, 0, 0] 
 T2 => S104 [0, 1, 0, 0, 1, 1, 0, 2, 1, 0, 1, 1, 0, 0, 0, 1, 0, 0, 0, 1, 1, 1, 0, 0, 1, 0, 0, 0, 0, 0] 
 T17 => S110 [1, 0, 0, 0, 1, 1, 1, 2, 1, 0, 1, 1, 0, 0, 0, 1, 0, 0, 0, 0, 2, 0, 0, 0, 1, 1, 0, 0, 0, 0] 
 
 Reachable states from S110 [1, 0, 0, 0, 1, 1, 1, 2, 1, 0, 1, 1, 0, 0, 0, 1, 0, 0, 0, 0, 2, 0, 0, 0, 1, 1, 0, 0, 0, 0] 
 T9 => S20 [1, 0, 0, 0, 1, 1, 1, 2, 1, 0, 0, 1, 1, 0, 0, 1, 0, 0, 0, 0, 2, 0, 1, 1, 1, 1, 0, 0, 0, 0] 
 T2 => S105 [0, 1, 0, 0, 1, 1, 0, 2, 1, 0, 1, 1, 0, 0, 0, 1, 0, 0, 0, 0, 2, 1, 0, 0, 1, 0, 0, 0, 0, 0] 
 
 Reachable states from S111 [1, 0, 0, 0, 1, 1, 1, 2, 0, 0, 0, 1, 2, 0, 0, 1, 0, 0, 0, 2, 0, 0, 1, 1, 1, 1, 1, 1, 1, 1] 
 T6 => S92 [1, 0, 0, 0, 1, 1, 1, 2, 1, 0, 0, 1, 1, 0, 0, 1, 0, 0, 0, 2, 0, 0, 1, 1, 1, 1, 0, 0, 0, 0] 
 T2 => S106 [0, 1, 0, 0, 1, 1, 0, 2, 0, 0, 0, 1, 2, 0, 0, 1, 0, 0, 0, 2, 0, 1, 1, 1, 1, 0, 1, 1, 1, 1] 
 T17 => S112 [1, 0, 0, 0, 1, 1, 1, 2, 0, 0, 0, 1, 2, 0, 0, 1, 0, 0, 0, 1, 1, 0, 1, 1, 1, 1, 1, 1, 1, 1] 
 
 Reachable states from S112 [1, 0, 0, 0, 1, 1, 1, 2, 0, 0, 0, 1, 2, 0, 0, 1, 0, 0, 0, 1, 1, 0, 1, 1, 1, 1, 1, 1, 1, 1] 
 T17 => S1 [1, 0, 0, 0, 1, 1, 1, 2, 0, 0, 0, 1, 2, 0, 0, 1, 0, 0, 0, 0, 2, 0, 1, 1, 1, 1, 1, 1, 1, 1] 
 T6 => S56 [1, 0, 0, 0, 1, 1, 1, 2, 1, 0, 0, 1, 1, 0, 0, 1, 0, 0, 0, 1, 1, 0, 1, 1, 1, 1, 0, 0, 0, 0] 
 T2 => S107 [0, 1, 0, 0, 1, 1, 0, 2, 0, 0, 0, 1, 2, 0, 0, 1, 0, 0, 0, 1, 1, 1, 1, 1, 1, 0, 1, 1, 1, 1] 
 T16 => S113 [1, 0, 0, 0, 1, 1, 1, 2, 0, 0, 0, 1, 2, 0, 0, 1, 0, 0, 1, 1, 0, 0, 1, 1, 1, 1, 0, 0, 0, 0] 
 
 Reachable states from S113 [1, 0, 0, 0, 1, 1, 1, 2, 0, 0, 0, 1, 2, 0, 0, 1, 0, 0, 1, 1, 0, 0, 1, 1, 1, 1, 0, 0, 0, 0] 
 T2 => S73 [0, 1, 0, 0, 1, 1, 0, 2, 0, 0, 0, 1, 2, 0, 0, 1, 0, 0, 1, 1, 0, 1, 1, 1, 1, 0, 0, 0, 0, 0] 
 T13 => S114 [1, 0, 0, 0, 1, 1, 1, 2, 0, 0, 0, 1, 2, 0, 0, 1, 1, 0, 0, 1, 0, 0, 0, 0, 1, 1, 0, 0, 0, 0] 
 T17 => S153 [1, 0, 0, 0, 1, 1, 1, 2, 0, 0, 0, 1, 2, 0, 0, 1, 0, 0, 1, 0, 1, 0, 1, 1, 1, 1, 0, 0, 0, 0] 
 
 Reachable states from S114 [1, 0, 0, 0, 1, 1, 1, 2, 0, 0, 0, 1, 2, 0, 0, 1, 1, 0, 0, 1, 0, 0, 0, 0, 1, 1, 0, 0, 0, 0] 
 T2 => S115 [0, 1, 0, 0, 1, 1, 0, 2, 0, 0, 0, 1, 2, 0, 0, 1, 1, 0, 0, 1, 0, 1, 0, 0, 1, 0, 0, 0, 0, 0] 
 T17 => S137 [1, 0, 0, 0, 1, 1, 1, 2, 0, 0, 0, 1, 2, 0, 0, 1, 1, 0, 0, 0, 1, 0, 0, 0, 1, 1, 0, 0, 0, 0] 
 
 Reachable states from S115 [0, 1, 0, 0, 1, 1, 0, 2, 0, 0, 0, 1, 2, 0, 0, 1, 1, 0, 0, 1, 0, 1, 0, 0, 1, 0, 0, 0, 0, 0] 
 T3 => S116 [0, 0, 1, 0, 0, 1, 1, 2, 0, 0, 0, 1, 2, 0, 0, 1, 1, 0, 0, 1, 0, 1, 0, 0, 0, 1, 0, 0, 0, 0] 
 T17 => S138 [0, 1, 0, 0, 1, 1, 0, 2, 0, 0, 0, 1, 2, 0, 0, 1, 1, 0, 0, 0, 1, 1, 0, 0, 1, 0, 0, 0, 0, 0] 
 
 Reachable states from S116 [0, 0, 1, 0, 0, 1, 1, 2, 0, 0, 0, 1, 2, 0, 0, 1, 1, 0, 0, 1, 0, 1, 0, 0, 0, 1, 0, 0, 0, 0] 
 T14 => S117 [0, 0, 1, 0, 0, 1, 1, 2, 0, 0, 0, 1, 2, 0, 0, 1, 0, 1, 0, 1, 0, 0, 1, 1, 0, 0, 1, 1, 1, 1] 
 T17 => S139 [0, 0, 1, 0, 0, 1, 1, 2, 0, 0, 0, 1, 2, 0, 0, 1, 1, 0, 0, 0, 1, 1, 0, 0, 0, 1, 0, 0, 0, 0] 
 
 Reachable states from S117 [0, 0, 1, 0, 0, 1, 1, 2, 0, 0, 0, 1, 2, 0, 0, 1, 0, 1, 0, 1, 0, 0, 1, 1, 0, 0, 1, 1, 1, 1] 
 T15 => S77 [0, 0, 1, 0, 0, 1, 1, 2, 0, 0, 0, 1, 2, 0, 0, 1, 0, 0, 0, 2, 0, 1, 1, 1, 0, 1, 1, 1, 1, 1] 
 T4 => S118 [0, 0, 0, 1, 1, 0, 1, 2, 0, 0, 0, 1, 2, 0, 0, 1, 0, 1, 0, 1, 0, 0, 0, 0, 1, 0, 2, 2, 2, 1] 
 T17 => S140 [0, 0, 1, 0, 0, 1, 1, 2, 0, 0, 0, 1, 2, 0, 0, 1, 0, 1, 0, 0, 1, 0, 1, 1, 0, 0, 1, 1, 1, 1] 
 T6 => S157 [0, 0, 1, 0, 0, 1, 1, 2, 1, 0, 0, 1, 1, 0, 0, 1, 0, 1, 0, 1, 0, 0, 1, 1, 0, 0, 0, 0, 0, 0] 
 
 Reachable states from S118 [0, 0, 0, 1, 1, 0, 1, 2, 0, 0, 0, 1, 2, 0, 0, 1, 0, 1, 0, 1, 0, 0, 0, 0, 1, 0, 2, 2, 2, 1] 
 T5 => S119 [0, 0, 0, 0, 1, 1, 1, 3, 0, 0, 0, 1, 2, 0, 0, 1, 0, 1, 0, 1, 0, 0, 1, 1, 1, 0, 2, 2, 2, 1] 
 T17 => S141 [0, 0, 0, 1, 1, 0, 1, 2, 0, 0, 0, 1, 2, 0, 0, 1, 0, 1, 0, 0, 1, 0, 0, 0, 1, 0, 2, 2, 2, 1] 
 T6 => S154 [0, 0, 0, 1, 1, 0, 1, 2, 1, 0, 0, 1, 1, 0, 0, 1, 0, 1, 0, 1, 0, 0, 0, 0, 1, 0, 1, 1, 1, 0] 
 T15 => S155 [0, 0, 0, 1, 1, 0, 1, 2, 0, 0, 0, 1, 2, 0, 0, 1, 0, 0, 0, 2, 0, 1, 0, 0, 1, 1, 2, 2, 2, 1] 
 
 Reachable states from S119 [0, 0, 0, 0, 1, 1, 1, 3, 0, 0, 0, 1, 2, 0, 0, 1, 0, 1, 0, 1, 0, 0, 1, 1, 1, 0, 2, 2, 2, 1] 
 T6 => S120 [0, 0, 0, 0, 1, 1, 1, 3, 1, 0, 0, 1, 1, 0, 0, 1, 0, 1, 0, 1, 0, 0, 1, 1, 1, 0, 1, 1, 1, 0] 
 T15 => S122 [0, 0, 0, 0, 1, 1, 1, 3, 0, 0, 0, 1, 2, 0, 0, 1, 0, 0, 0, 2, 0, 1, 1, 1, 1, 1, 2, 2, 2, 1] 
 T17 => S142 [0, 0, 0, 0, 1, 1, 1, 3, 0, 0, 0, 1, 2, 0, 0, 1, 0, 1, 0, 0, 1, 0, 1, 1, 1, 0, 2, 2, 2, 1] 
 
 Reachable states from S120 [0, 0, 0, 0, 1, 1, 1, 3, 1, 0, 0, 1, 1, 0, 0, 1, 0, 1, 0, 1, 0, 0, 1, 1, 1, 0, 1, 1, 1, 0] 
 T15 => S93 [0, 0, 0, 0, 1, 1, 1, 3, 1, 0, 0, 1, 1, 0, 0, 1, 0, 0, 0, 2, 0, 1, 1, 1, 1, 1, 1, 1, 1, 0] 
 T17 => S121 [0, 0, 0, 0, 1, 1, 1, 3, 1, 0, 0, 1, 1, 0, 0, 1, 0, 1, 0, 0, 1, 0, 1, 1, 1, 0, 1, 1, 1, 0] 
 
 Reachable states from S121 [0, 0, 0, 0, 1, 1, 1, 3, 1, 0, 0, 1, 1, 0, 0, 1, 0, 1, 0, 0, 1, 0, 1, 1, 1, 0, 1, 1, 1, 0] 
 T15 => S57 [0, 0, 0, 0, 1, 1, 1, 3, 1, 0, 0, 1, 1, 0, 0, 1, 0, 0, 0, 1, 1, 1, 1, 1, 1, 1, 1, 1, 1, 0] 
 
 Reachable states from S122 [0, 0, 0, 0, 1, 1, 1, 3, 0, 0, 0, 1, 2, 0, 0, 1, 0, 0, 0, 2, 0, 1, 1, 1, 1, 1, 2, 2, 2, 1] 
 T6 => S93 [0, 0, 0, 0, 1, 1, 1, 3, 1, 0, 0, 1, 1, 0, 0, 1, 0, 0, 0, 2, 0, 1, 1, 1, 1, 1, 1, 1, 1, 0] 
 T1 => S111 [1, 0, 0, 0, 1, 1, 1, 2, 0, 0, 0, 1, 2, 0, 0, 1, 0, 0, 0, 2, 0, 0, 1, 1, 1, 1, 1, 1, 1, 1] 
 T17 => S123 [0, 0, 0, 0, 1, 1, 1, 3, 0, 0, 0, 1, 2, 0, 0, 1, 0, 0, 0, 1, 1, 1, 1, 1, 1, 1, 2, 2, 2, 1] 
 
 Reachable states from S123 [0, 0, 0, 0, 1, 1, 1, 3, 0, 0, 0, 1, 2, 0, 0, 1, 0, 0, 0, 1, 1, 1, 1, 1, 1, 1, 2, 2, 2, 1] 
 T17 => S0 [0, 0, 0, 0, 1, 1, 1, 3, 0, 0, 0, 1, 2, 0, 0, 1, 0, 0, 0, 0, 2, 1, 1, 1, 1, 1, 2, 2, 2, 1] 
 T6 => S57 [0, 0, 0, 0, 1, 1, 1, 3, 1, 0, 0, 1, 1, 0, 0, 1, 0, 0, 0, 1, 1, 1, 1, 1, 1, 1, 1, 1, 1, 0] 
 T1 => S112 [1, 0, 0, 0, 1, 1, 1, 2, 0, 0, 0, 1, 2, 0, 0, 1, 0, 0, 0, 1, 1, 0, 1, 1, 1, 1, 1, 1, 1, 1] 
 T16 => S124 [0, 0, 0, 0, 1, 1, 1, 3, 0, 0, 0, 1, 2, 0, 0, 1, 0, 0, 1, 1, 0, 1, 1, 1, 1, 1, 1, 1, 1, 0] 
 
 Reachable states from S124 [0, 0, 0, 0, 1, 1, 1, 3, 0, 0, 0, 1, 2, 0, 0, 1, 0, 0, 1, 1, 0, 1, 1, 1, 1, 1, 1, 1, 1, 0] 
 T1 => S113 [1, 0, 0, 0, 1, 1, 1, 2, 0, 0, 0, 1, 2, 0, 0, 1, 0, 0, 1, 1, 0, 0, 1, 1, 1, 1, 0, 0, 0, 0] 
 T10 => S125 [0, 0, 0, 0, 1, 1, 1, 3, 0, 0, 0, 1, 2, 1, 0, 0, 0, 0, 0, 1, 0, 0, 0, 1, 1, 1, 1, 1, 1, 0] 
 T13 => S135 [0, 0, 0, 0, 1, 1, 1, 3, 0, 0, 0, 1, 2, 0, 0, 1, 1, 0, 0, 1, 0, 1, 0, 0, 1, 1, 1, 1, 1, 0] 
 T17 => S152 [0, 0, 0, 0, 1, 1, 1, 3, 0, 0, 0, 1, 2, 0, 0, 1, 0, 0, 1, 0, 1, 1, 1, 1, 1, 1, 1, 1, 1, 0] 
 
 Reachable states from S125 [0, 0, 0, 0, 1, 1, 1, 3, 0, 0, 0, 1, 2, 1, 0, 0, 0, 0, 0, 1, 0, 0, 0, 1, 1, 1, 1, 1, 1, 0] 
 T11 => S126 [0, 0, 0, 0, 1, 1, 1, 3, 0, 0, 0, 1, 2, 0, 1, 1, 0, 0, 0, 1, 0, 1, 1, 0, 1, 0, 2, 2, 1, 1] 
 T17 => S134 [0, 0, 0, 0, 1, 1, 1, 3, 0, 0, 0, 1, 2, 1, 0, 0, 0, 0, 0, 0, 1, 0, 0, 1, 1, 1, 1, 1, 1, 0] 
 
 Reachable states from S126 [0, 0, 0, 0, 1, 1, 1, 3, 0, 0, 0, 1, 2, 0, 1, 1, 0, 0, 0, 1, 0, 1, 1, 0, 1, 0, 2, 2, 1, 1] 
 T12 => S122 [0, 0, 0, 0, 1, 1, 1, 3, 0, 0, 0, 1, 2, 0, 0, 1, 0, 0, 0, 2, 0, 1, 1, 1, 1, 1, 2, 2, 2, 1] 
 T1 => S127 [1, 0, 0, 0, 1, 1, 1, 2, 0, 0, 0, 1, 2, 0, 1, 1, 0, 0, 0, 1, 0, 0, 1, 0, 1, 0, 1, 1, 0, 1] 
 T6 => S129 [0, 0, 0, 0, 1, 1, 1, 3, 1, 0, 0, 1, 1, 0, 1, 1, 0, 0, 0, 1, 0, 1, 1, 0, 1, 0, 1, 1, 0, 0] 
 T17 => S131 [0, 0, 0, 0, 1, 1, 1, 3, 0, 0, 0, 1, 2, 0, 1, 1, 0, 0, 0, 0, 1, 1, 1, 0, 1, 0, 2, 2, 1, 1] 
 
 Reachable states from S127 [1, 0, 0, 0, 1, 1, 1, 2, 0, 0, 0, 1, 2, 0, 1, 1, 0, 0, 0, 1, 0, 0, 1, 0, 1, 0, 1, 1, 0, 1] 
 T12 => S111 [1, 0, 0, 0, 1, 1, 1, 2, 0, 0, 0, 1, 2, 0, 0, 1, 0, 0, 0, 2, 0, 0, 1, 1, 1, 1, 1, 1, 1, 1] 
 T17 => S128 [1, 0, 0, 0, 1, 1, 1, 2, 0, 0, 0, 1, 2, 0, 1, 1, 0, 0, 0, 0, 1, 0, 1, 0, 1, 0, 1, 1, 0, 1] 
 
 Reachable states from S128 [1, 0, 0, 0, 1, 1, 1, 2, 0, 0, 0, 1, 2, 0, 1, 1, 0, 0, 0, 0, 1, 0, 1, 0, 1, 0, 1, 1, 0, 1] 
 T12 => S112 [1, 0, 0, 0, 1, 1, 1, 2, 0, 0, 0, 1, 2, 0, 0, 1, 0, 0, 0, 1, 1, 0, 1, 1, 1, 1, 1, 1, 1, 1] 
 
 Reachable states from S129 [0, 0, 0, 0, 1, 1, 1, 3, 1, 0, 0, 1, 1, 0, 1, 1, 0, 0, 0, 1, 0, 1, 1, 0, 1, 0, 1, 1, 0, 0] 
 T12 => S93 [0, 0, 0, 0, 1, 1, 1, 3, 1, 0, 0, 1, 1, 0, 0, 1, 0, 0, 0, 2, 0, 1, 1, 1, 1, 1, 1, 1, 1, 0] 
 T17 => S130 [0, 0, 0, 0, 1, 1, 1, 3, 1, 0, 0, 1, 1, 0, 1, 1, 0, 0, 0, 0, 1, 1, 1, 0, 1, 0, 1, 1, 0, 0] 
 
 Reachable states from S130 [0, 0, 0, 0, 1, 1, 1, 3, 1, 0, 0, 1, 1, 0, 1, 1, 0, 0, 0, 0, 1, 1, 1, 0, 1, 0, 1, 1, 0, 0] 
 T12 => S57 [0, 0, 0, 0, 1, 1, 1, 3, 1, 0, 0, 1, 1, 0, 0, 1, 0, 0, 0, 1, 1, 1, 1, 1, 1, 1, 1, 1, 1, 0] 
 
 Reachable states from S131 [0, 0, 0, 0, 1, 1, 1, 3, 0, 0, 0, 1, 2, 0, 1, 1, 0, 0, 0, 0, 1, 1, 1, 0, 1, 0, 2, 2, 1, 1] 
 T12 => S123 [0, 0, 0, 0, 1, 1, 1, 3, 0, 0, 0, 1, 2, 0, 0, 1, 0, 0, 0, 1, 1, 1, 1, 1, 1, 1, 2, 2, 2, 1] 
 T1 => S128 [1, 0, 0, 0, 1, 1, 1, 2, 0, 0, 0, 1, 2, 0, 1, 1, 0, 0, 0, 0, 1, 0, 1, 0, 1, 0, 1, 1, 0, 1] 
 T6 => S130 [0, 0, 0, 0, 1, 1, 1, 3, 1, 0, 0, 1, 1, 0, 1, 1, 0, 0, 0, 0, 1, 1, 1, 0, 1, 0, 1, 1, 0, 0] 
 T16 => S132 [0, 0, 0, 0, 1, 1, 1, 3, 0, 0, 0, 1, 2, 0, 1, 1, 0, 0, 1, 0, 0, 1, 1, 0, 1, 0, 1, 1, 0, 0] 
 
 Reachable states from S132 [0, 0, 0, 0, 1, 1, 1, 3, 0, 0, 0, 1, 2, 0, 1, 1, 0, 0, 1, 0, 0, 1, 1, 0, 1, 0, 1, 1, 0, 0] 
 T12 => S124 [0, 0, 0, 0, 1, 1, 1, 3, 0, 0, 0, 1, 2, 0, 0, 1, 0, 0, 1, 1, 0, 1, 1, 1, 1, 1, 1, 1, 1, 0] 
 T10 => S133 [0, 0, 0, 0, 1, 1, 1, 3, 0, 0, 0, 1, 2, 1, 1, 0, 0, 0, 0, 0, 0, 0, 0, 0, 1, 0, 1, 1, 0, 0] 
 
 Reachable states from S133 [0, 0, 0, 0, 1, 1, 1, 3, 0, 0, 0, 1, 2, 1, 1, 0, 0, 0, 0, 0, 0, 0, 0, 0, 1, 0, 1, 1, 0, 0] 
 T12 => S125 [0, 0, 0, 0, 1, 1, 1, 3, 0, 0, 0, 1, 2, 1, 0, 0, 0, 0, 0, 1, 0, 0, 0, 1, 1, 1, 1, 1, 1, 0] 
 
 Reachable states from S134 [0, 0, 0, 0, 1, 1, 1, 3, 0, 0, 0, 1, 2, 1, 0, 0, 0, 0, 0, 0, 1, 0, 0, 1, 1, 1, 1, 1, 1, 0] 
 T11 => S131 [0, 0, 0, 0, 1, 1, 1, 3, 0, 0, 0, 1, 2, 0, 1, 1, 0, 0, 0, 0, 1, 1, 1, 0, 1, 0, 2, 2, 1, 1] 
 
 Reachable states from S135 [0, 0, 0, 0, 1, 1, 1, 3, 0, 0, 0, 1, 2, 0, 0, 1, 1, 0, 0, 1, 0, 1, 0, 0, 1, 1, 1, 1, 1, 0] 
 T1 => S114 [1, 0, 0, 0, 1, 1, 1, 2, 0, 0, 0, 1, 2, 0, 0, 1, 1, 0, 0, 1, 0, 0, 0, 0, 1, 1, 0, 0, 0, 0] 
 T14 => S119 [0, 0, 0, 0, 1, 1, 1, 3, 0, 0, 0, 1, 2, 0, 0, 1, 0, 1, 0, 1, 0, 0, 1, 1, 1, 0, 2, 2, 2, 1] 
 T17 => S136 [0, 0, 0, 0, 1, 1, 1, 3, 0, 0, 0, 1, 2, 0, 0, 1, 1, 0, 0, 0, 1, 1, 0, 0, 1, 1, 1, 1, 1, 0] 
 
 Reachable states from S136 [0, 0, 0, 0, 1, 1, 1, 3, 0, 0, 0, 1, 2, 0, 0, 1, 1, 0, 0, 0, 1, 1, 0, 0, 1, 1, 1, 1, 1, 0] 
 T1 => S137 [1, 0, 0, 0, 1, 1, 1, 2, 0, 0, 0, 1, 2, 0, 0, 1, 1, 0, 0, 0, 1, 0, 0, 0, 1, 1, 0, 0, 0, 0] 
 T14 => S142 [0, 0, 0, 0, 1, 1, 1, 3, 0, 0, 0, 1, 2, 0, 0, 1, 0, 1, 0, 0, 1, 0, 1, 1, 1, 0, 2, 2, 2, 1] 
 
 Reachable states from S137 [1, 0, 0, 0, 1, 1, 1, 2, 0, 0, 0, 1, 2, 0, 0, 1, 1, 0, 0, 0, 1, 0, 0, 0, 1, 1, 0, 0, 0, 0] 
 T2 => S138 [0, 1, 0, 0, 1, 1, 0, 2, 0, 0, 0, 1, 2, 0, 0, 1, 1, 0, 0, 0, 1, 1, 0, 0, 1, 0, 0, 0, 0, 0] 
 
 Reachable states from S138 [0, 1, 0, 0, 1, 1, 0, 2, 0, 0, 0, 1, 2, 0, 0, 1, 1, 0, 0, 0, 1, 1, 0, 0, 1, 0, 0, 0, 0, 0] 
 T3 => S139 [0, 0, 1, 0, 0, 1, 1, 2, 0, 0, 0, 1, 2, 0, 0, 1, 1, 0, 0, 0, 1, 1, 0, 0, 0, 1, 0, 0, 0, 0] 
 
 Reachable states from S139 [0, 0, 1, 0, 0, 1, 1, 2, 0, 0, 0, 1, 2, 0, 0, 1, 1, 0, 0, 0, 1, 1, 0, 0, 0, 1, 0, 0, 0, 0] 
 T14 => S140 [0, 0, 1, 0, 0, 1, 1, 2, 0, 0, 0, 1, 2, 0, 0, 1, 0, 1, 0, 0, 1, 0, 1, 1, 0, 0, 1, 1, 1, 1] 
 
 Reachable states from S140 [0, 0, 1, 0, 0, 1, 1, 2, 0, 0, 0, 1, 2, 0, 0, 1, 0, 1, 0, 0, 1, 0, 1, 1, 0, 0, 1, 1, 1, 1] 
 T15 => S41 [0, 0, 1, 0, 0, 1, 1, 2, 0, 0, 0, 1, 2, 0, 0, 1, 0, 0, 0, 1, 1, 1, 1, 1, 0, 1, 1, 1, 1, 1] 
 T4 => S141 [0, 0, 0, 1, 1, 0, 1, 2, 0, 0, 0, 1, 2, 0, 0, 1, 0, 1, 0, 0, 1, 0, 0, 0, 1, 0, 2, 2, 2, 1] 
 T6 => S149 [0, 0, 1, 0, 0, 1, 1, 2, 1, 0, 0, 1, 1, 0, 0, 1, 0, 1, 0, 0, 1, 0, 1, 1, 0, 0, 0, 0, 0, 0] 
 T16 => S150 [0, 0, 1, 0, 0, 1, 1, 2, 0, 0, 0, 1, 2, 0, 0, 1, 0, 1, 1, 0, 0, 0, 1, 1, 0, 0, 0, 0, 0, 0] 
 
 Reachable states from S141 [0, 0, 0, 1, 1, 0, 1, 2, 0, 0, 0, 1, 2, 0, 0, 1, 0, 1, 0, 0, 1, 0, 0, 0, 1, 0, 2, 2, 2, 1] 
 T5 => S142 [0, 0, 0, 0, 1, 1, 1, 3, 0, 0, 0, 1, 2, 0, 0, 1, 0, 1, 0, 0, 1, 0, 1, 1, 1, 0, 2, 2, 2, 1] 
 T6 => S145 [0, 0, 0, 1, 1, 0, 1, 2, 1, 0, 0, 1, 1, 0, 0, 1, 0, 1, 0, 0, 1, 0, 0, 0, 1, 0, 1, 1, 1, 0] 
 T15 => S146 [0, 0, 0, 1, 1, 0, 1, 2, 0, 0, 0, 1, 2, 0, 0, 1, 0, 0, 0, 1, 1, 1, 0, 0, 1, 1, 2, 2, 2, 1] 
 T16 => S148 [0, 0, 0, 1, 1, 0, 1, 2, 0, 0, 0, 1, 2, 0, 0, 1, 0, 1, 1, 0, 0, 0, 0, 0, 1, 0, 1, 1, 1, 0] 
 
 Reachable states from S142 [0, 0, 0, 0, 1, 1, 1, 3, 0, 0, 0, 1, 2, 0, 0, 1, 0, 1, 0, 0, 1, 0, 1, 1, 1, 0, 2, 2, 2, 1] 
 T6 => S121 [0, 0, 0, 0, 1, 1, 1, 3, 1, 0, 0, 1, 1, 0, 0, 1, 0, 1, 0, 0, 1, 0, 1, 1, 1, 0, 1, 1, 1, 0] 
 T15 => S123 [0, 0, 0, 0, 1, 1, 1, 3, 0, 0, 0, 1, 2, 0, 0, 1, 0, 0, 0, 1, 1, 1, 1, 1, 1, 1, 2, 2, 2, 1] 
 T16 => S143 [0, 0, 0, 0, 1, 1, 1, 3, 0, 0, 0, 1, 2, 0, 0, 1, 0, 1, 1, 0, 0, 0, 1, 1, 1, 0, 1, 1, 1, 0] 
 
 Reachable states from S143 [0, 0, 0, 0, 1, 1, 1, 3, 0, 0, 0, 1, 2, 0, 0, 1, 0, 1, 1, 0, 0, 0, 1, 1, 1, 0, 1, 1, 1, 0] 
 T15 => S124 [0, 0, 0, 0, 1, 1, 1, 3, 0, 0, 0, 1, 2, 0, 0, 1, 0, 0, 1, 1, 0, 1, 1, 1, 1, 1, 1, 1, 1, 0] 
 T13 => S144 [0, 0, 0, 0, 1, 1, 1, 3, 0, 0, 0, 1, 2, 0, 0, 1, 1, 1, 0, 0, 0, 0, 0, 0, 1, 0, 1, 1, 1, 0] 
 
 Reachable states from S144 [0, 0, 0, 0, 1, 1, 1, 3, 0, 0, 0, 1, 2, 0, 0, 1, 1, 1, 0, 0, 0, 0, 0, 0, 1, 0, 1, 1, 1, 0] 
 T15 => S135 [0, 0, 0, 0, 1, 1, 1, 3, 0, 0, 0, 1, 2, 0, 0, 1, 1, 0, 0, 1, 0, 1, 0, 0, 1, 1, 1, 1, 1, 0] 
 
 Reachable states from S145 [0, 0, 0, 1, 1, 0, 1, 2, 1, 0, 0, 1, 1, 0, 0, 1, 0, 1, 0, 0, 1, 0, 0, 0, 1, 0, 1, 1, 1, 0] 
 T15 => S52 [0, 0, 0, 1, 1, 0, 1, 2, 1, 0, 0, 1, 1, 0, 0, 1, 0, 0, 0, 1, 1, 1, 0, 0, 1, 1, 1, 1, 1, 0] 
 T5 => S121 [0, 0, 0, 0, 1, 1, 1, 3, 1, 0, 0, 1, 1, 0, 0, 1, 0, 1, 0, 0, 1, 0, 1, 1, 1, 0, 1, 1, 1, 0] 
 
 Reachable states from S146 [0, 0, 0, 1, 1, 0, 1, 2, 0, 0, 0, 1, 2, 0, 0, 1, 0, 0, 0, 1, 1, 1, 0, 0, 1, 1, 2, 2, 2, 1] 
 T17 => S12 [0, 0, 0, 1, 1, 0, 1, 2, 0, 0, 0, 1, 2, 0, 0, 1, 0, 0, 0, 0, 2, 1, 0, 0, 1, 1, 2, 2, 2, 1] 
 T6 => S52 [0, 0, 0, 1, 1, 0, 1, 2, 1, 0, 0, 1, 1, 0, 0, 1, 0, 0, 0, 1, 1, 1, 0, 0, 1, 1, 1, 1, 1, 0] 
 T16 => S69 [0, 0, 0, 1, 1, 0, 1, 2, 0, 0, 0, 1, 2, 0, 0, 1, 0, 0, 1, 1, 0, 1, 0, 0, 1, 1, 1, 1, 1, 0] 
 T5 => S123 [0, 0, 0, 0, 1, 1, 1, 3, 0, 0, 0, 1, 2, 0, 0, 1, 0, 0, 0, 1, 1, 1, 1, 1, 1, 1, 2, 2, 2, 1] 
 T1 => S147 [1, 0, 0, 1, 1, 0, 1, 1, 0, 0, 0, 1, 2, 0, 0, 1, 0, 0, 0, 1, 1, 0, 0, 0, 1, 1, 1, 1, 1, 1] 
 
 Reachable states from S147 [1, 0, 0, 1, 1, 0, 1, 1, 0, 0, 0, 1, 2, 0, 0, 1, 0, 0, 0, 1, 1, 0, 0, 0, 1, 1, 1, 1, 1, 1] 
 T17 => S13 [1, 0, 0, 1, 1, 0, 1, 1, 0, 0, 0, 1, 2, 0, 0, 1, 0, 0, 0, 0, 2, 0, 0, 0, 1, 1, 1, 1, 1, 1] 
 T2 => S44 [0, 1, 0, 1, 1, 0, 0, 1, 0, 0, 0, 1, 2, 0, 0, 1, 0, 0, 0, 1, 1, 1, 0, 0, 1, 0, 1, 1, 1, 1] 
 T6 => S53 [1, 0, 0, 1, 1, 0, 1, 1, 1, 0, 0, 1, 1, 0, 0, 1, 0, 0, 0, 1, 1, 0, 0, 0, 1, 1, 0, 0, 0, 0] 
 T16 => S70 [1, 0, 0, 1, 1, 0, 1, 1, 0, 0, 0, 1, 2, 0, 0, 1, 0, 0, 1, 1, 0, 0, 0, 0, 1, 1, 0, 0, 0, 0] 
 T5 => S112 [1, 0, 0, 0, 1, 1, 1, 2, 0, 0, 0, 1, 2, 0, 0, 1, 0, 0, 0, 1, 1, 0, 1, 1, 1, 1, 1, 1, 1, 1] 
 
 Reachable states from S148 [0, 0, 0, 1, 1, 0, 1, 2, 0, 0, 0, 1, 2, 0, 0, 1, 0, 1, 1, 0, 0, 0, 0, 0, 1, 0, 1, 1, 1, 0] 
 T15 => S69 [0, 0, 0, 1, 1, 0, 1, 2, 0, 0, 0, 1, 2, 0, 0, 1, 0, 0, 1, 1, 0, 1, 0, 0, 1, 1, 1, 1, 1, 0] 
 T5 => S143 [0, 0, 0, 0, 1, 1, 1, 3, 0, 0, 0, 1, 2, 0, 0, 1, 0, 1, 1, 0, 0, 0, 1, 1, 1, 0, 1, 1, 1, 0] 
 
 Reachable states from S149 [0, 0, 1, 0, 0, 1, 1, 2, 1, 0, 0, 1, 1, 0, 0, 1, 0, 1, 0, 0, 1, 0, 1, 1, 0, 0, 0, 0, 0, 0] 
 T15 => S51 [0, 0, 1, 0, 0, 1, 1, 2, 1, 0, 0, 1, 1, 0, 0, 1, 0, 0, 0, 1, 1, 1, 1, 1, 0, 1, 0, 0, 0, 0] 
 T4 => S145 [0, 0, 0, 1, 1, 0, 1, 2, 1, 0, 0, 1, 1, 0, 0, 1, 0, 1, 0, 0, 1, 0, 0, 0, 1, 0, 1, 1, 1, 0] 
 
 Reachable states from S150 [0, 0, 1, 0, 0, 1, 1, 2, 0, 0, 0, 1, 2, 0, 0, 1, 0, 1, 1, 0, 0, 0, 1, 1, 0, 0, 0, 0, 0, 0] 
 T15 => S68 [0, 0, 1, 0, 0, 1, 1, 2, 0, 0, 0, 1, 2, 0, 0, 1, 0, 0, 1, 1, 0, 1, 1, 1, 0, 1, 0, 0, 0, 0] 
 T4 => S148 [0, 0, 0, 1, 1, 0, 1, 2, 0, 0, 0, 1, 2, 0, 0, 1, 0, 1, 1, 0, 0, 0, 0, 0, 1, 0, 1, 1, 1, 0] 
 T13 => S151 [0, 0, 1, 0, 0, 1, 1, 2, 0, 0, 0, 1, 2, 0, 0, 1, 1, 1, 0, 0, 0, 0, 0, 0, 0, 0, 0, 0, 0, 0] 
 
 Reachable states from S151 [0, 0, 1, 0, 0, 1, 1, 2, 0, 0, 0, 1, 2, 0, 0, 1, 1, 1, 0, 0, 0, 0, 0, 0, 0, 0, 0, 0, 0, 0] 
 T15 => S116 [0, 0, 1, 0, 0, 1, 1, 2, 0, 0, 0, 1, 2, 0, 0, 1, 1, 0, 0, 1, 0, 1, 0, 0, 0, 1, 0, 0, 0, 0] 
 
 Reachable states from S152 [0, 0, 0, 0, 1, 1, 1, 3, 0, 0, 0, 1, 2, 0, 0, 1, 0, 0, 1, 0, 1, 1, 1, 1, 1, 1, 1, 1, 1, 0] 
 T10 => S134 [0, 0, 0, 0, 1, 1, 1, 3, 0, 0, 0, 1, 2, 1, 0, 0, 0, 0, 0, 0, 1, 0, 0, 1, 1, 1, 1, 1, 1, 0] 
 T13 => S136 [0, 0, 0, 0, 1, 1, 1, 3, 0, 0, 0, 1, 2, 0, 0, 1, 1, 0, 0, 0, 1, 1, 0, 0, 1, 1, 1, 1, 1, 0] 
 T1 => S153 [1, 0, 0, 0, 1, 1, 1, 2, 0, 0, 0, 1, 2, 0, 0, 1, 0, 0, 1, 0, 1, 0, 1, 1, 1, 1, 0, 0, 0, 0] 
 
 Reachable states from S153 [1, 0, 0, 0, 1, 1, 1, 2, 0, 0, 0, 1, 2, 0, 0, 1, 0, 0, 1, 0, 1, 0, 1, 1, 1, 1, 0, 0, 0, 0] 
 T2 => S37 [0, 1, 0, 0, 1, 1, 0, 2, 0, 0, 0, 1, 2, 0, 0, 1, 0, 0, 1, 0, 1, 1, 1, 1, 1, 0, 0, 0, 0, 0] 
 T13 => S137 [1, 0, 0, 0, 1, 1, 1, 2, 0, 0, 0, 1, 2, 0, 0, 1, 1, 0, 0, 0, 1, 0, 0, 0, 1, 1, 0, 0, 0, 0] 
 
 Reachable states from S154 [0, 0, 0, 1, 1, 0, 1, 2, 1, 0, 0, 1, 1, 0, 0, 1, 0, 1, 0, 1, 0, 0, 0, 0, 1, 0, 1, 1, 1, 0] 
 T15 => S88 [0, 0, 0, 1, 1, 0, 1, 2, 1, 0, 0, 1, 1, 0, 0, 1, 0, 0, 0, 2, 0, 1, 0, 0, 1, 1, 1, 1, 1, 0] 
 T5 => S120 [0, 0, 0, 0, 1, 1, 1, 3, 1, 0, 0, 1, 1, 0, 0, 1, 0, 1, 0, 1, 0, 0, 1, 1, 1, 0, 1, 1, 1, 0] 
 T17 => S145 [0, 0, 0, 1, 1, 0, 1, 2, 1, 0, 0, 1, 1, 0, 0, 1, 0, 1, 0, 0, 1, 0, 0, 0, 1, 0, 1, 1, 1, 0] 
 
 Reachable states from S155 [0, 0, 0, 1, 1, 0, 1, 2, 0, 0, 0, 1, 2, 0, 0, 1, 0, 0, 0, 2, 0, 1, 0, 0, 1, 1, 2, 2, 2, 1] 
 T6 => S88 [0, 0, 0, 1, 1, 0, 1, 2, 1, 0, 0, 1, 1, 0, 0, 1, 0, 0, 0, 2, 0, 1, 0, 0, 1, 1, 1, 1, 1, 0] 
 T5 => S122 [0, 0, 0, 0, 1, 1, 1, 3, 0, 0, 0, 1, 2, 0, 0, 1, 0, 0, 0, 2, 0, 1, 1, 1, 1, 1, 2, 2, 2, 1] 
 T17 => S146 [0, 0, 0, 1, 1, 0, 1, 2, 0, 0, 0, 1, 2, 0, 0, 1, 0, 0, 0, 1, 1, 1, 0, 0, 1, 1, 2, 2, 2, 1] 
 T1 => S156 [1, 0, 0, 1, 1, 0, 1, 1, 0, 0, 0, 1, 2, 0, 0, 1, 0, 0, 0, 2, 0, 0, 0, 0, 1, 1, 1, 1, 1, 1] 
 
 Reachable states from S156 [1, 0, 0, 1, 1, 0, 1, 1, 0, 0, 0, 1, 2, 0, 0, 1, 0, 0, 0, 2, 0, 0, 0, 0, 1, 1, 1, 1, 1, 1] 
 T2 => S80 [0, 1, 0, 1, 1, 0, 0, 1, 0, 0, 0, 1, 2, 0, 0, 1, 0, 0, 0, 2, 0, 1, 0, 0, 1, 0, 1, 1, 1, 1] 
 T6 => S89 [1, 0, 0, 1, 1, 0, 1, 1, 1, 0, 0, 1, 1, 0, 0, 1, 0, 0, 0, 2, 0, 0, 0, 0, 1, 1, 0, 0, 0, 0] 
 T5 => S111 [1, 0, 0, 0, 1, 1, 1, 2, 0, 0, 0, 1, 2, 0, 0, 1, 0, 0, 0, 2, 0, 0, 1, 1, 1, 1, 1, 1, 1, 1] 
 T17 => S147 [1, 0, 0, 1, 1, 0, 1, 1, 0, 0, 0, 1, 2, 0, 0, 1, 0, 0, 0, 1, 1, 0, 0, 0, 1, 1, 1, 1, 1, 1] 
 
 Reachable states from S157 [0, 0, 1, 0, 0, 1, 1, 2, 1, 0, 0, 1, 1, 0, 0, 1, 0, 1, 0, 1, 0, 0, 1, 1, 0, 0, 0, 0, 0, 0] 
 T15 => S87 [0, 0, 1, 0, 0, 1, 1, 2, 1, 0, 0, 1, 1, 0, 0, 1, 0, 0, 0, 2, 0, 1, 1, 1, 0, 1, 0, 0, 0, 0] 
 T17 => S149 [0, 0, 1, 0, 0, 1, 1, 2, 1, 0, 0, 1, 1, 0, 0, 1, 0, 1, 0, 0, 1, 0, 1, 1, 0, 0, 0, 0, 0, 0] 
 T4 => S154 [0, 0, 0, 1, 1, 0, 1, 2, 1, 0, 0, 1, 1, 0, 0, 1, 0, 1, 0, 1, 0, 0, 0, 0, 1, 0, 1, 1, 1, 0] 
 
 Reachable states from S158 [0, 0, 0, 0, 1, 1, 1, 3, 1, 0, 1, 1, 0, 0, 0, 1, 0, 0, 0, 2, 0, 1, 0, 0, 1, 1, 1, 1, 1, 0] 
 T9 => S93 [0, 0, 0, 0, 1, 1, 1, 3, 1, 0, 0, 1, 1, 0, 0, 1, 0, 0, 0, 2, 0, 1, 1, 1, 1, 1, 1, 1, 1, 0] 
 T1 => S108 [1, 0, 0, 0, 1, 1, 1, 2, 1, 0, 1, 1, 0, 0, 0, 1, 0, 0, 0, 2, 0, 0, 0, 0, 1, 1, 0, 0, 0, 0] 
 T7 => S159 [0, 0, 0, 0, 1, 1, 1, 3, 0, 1, 1, 0, 0, 0, 0, 1, 0, 0, 0, 2, 0, 0, 0, 0, 0, 0, 1, 1, 1, 0] 
 T17 => S162 [0, 0, 0, 0, 1, 1, 1, 3, 1, 0, 1, 1, 0, 0, 0, 1, 0, 0, 0, 1, 1, 1, 0, 0, 1, 1, 1, 1, 1, 0] 
 
 Reachable states from S159 [0, 0, 0, 0, 1, 1, 1, 3, 0, 1, 1, 0, 0, 0, 0, 1, 0, 0, 0, 2, 0, 0, 0, 0, 0, 0, 1, 1, 1, 0] 
 T9 => S94 [0, 0, 0, 0, 1, 1, 1, 3, 0, 1, 0, 0, 1, 0, 0, 1, 0, 0, 0, 2, 0, 0, 1, 1, 0, 0, 1, 1, 1, 0] 
 T17 => S160 [0, 0, 0, 0, 1, 1, 1, 3, 0, 1, 1, 0, 0, 0, 0, 1, 0, 0, 0, 1, 1, 0, 0, 0, 0, 0, 1, 1, 1, 0] 
 
 Reachable states from S160 [0, 0, 0, 0, 1, 1, 1, 3, 0, 1, 1, 0, 0, 0, 0, 1, 0, 0, 0, 1, 1, 0, 0, 0, 0, 0, 1, 1, 1, 0] 
 T9 => S58 [0, 0, 0, 0, 1, 1, 1, 3, 0, 1, 0, 0, 1, 0, 0, 1, 0, 0, 0, 1, 1, 0, 1, 1, 0, 0, 1, 1, 1, 0] 
 T17 => S161 [0, 0, 0, 0, 1, 1, 1, 3, 0, 1, 1, 0, 0, 0, 0, 1, 0, 0, 0, 0, 2, 0, 0, 0, 0, 0, 1, 1, 1, 0] 
 
 Reachable states from S161 [0, 0, 0, 0, 1, 1, 1, 3, 0, 1, 1, 0, 0, 0, 0, 1, 0, 0, 0, 0, 2, 0, 0, 0, 0, 0, 1, 1, 1, 0] 
 T9 => S22 [0, 0, 0, 0, 1, 1, 1, 3, 0, 1, 0, 0, 1, 0, 0, 1, 0, 0, 0, 0, 2, 0, 1, 1, 0, 0, 1, 1, 1, 0] 
 
 Reachable states from S162 [0, 0, 0, 0, 1, 1, 1, 3, 1, 0, 1, 1, 0, 0, 0, 1, 0, 0, 0, 1, 1, 1, 0, 0, 1, 1, 1, 1, 1, 0] 
 T9 => S57 [0, 0, 0, 0, 1, 1, 1, 3, 1, 0, 0, 1, 1, 0, 0, 1, 0, 0, 0, 1, 1, 1, 1, 1, 1, 1, 1, 1, 1, 0] 
 T1 => S109 [1, 0, 0, 0, 1, 1, 1, 2, 1, 0, 1, 1, 0, 0, 0, 1, 0, 0, 0, 1, 1, 0, 0, 0, 1, 1, 0, 0, 0, 0] 
 T7 => S160 [0, 0, 0, 0, 1, 1, 1, 3, 0, 1, 1, 0, 0, 0, 0, 1, 0, 0, 0, 1, 1, 0, 0, 0, 0, 0, 1, 1, 1, 0] 
 T17 => S163 [0, 0, 0, 0, 1, 1, 1, 3, 1, 0, 1, 1, 0, 0, 0, 1, 0, 0, 0, 0, 2, 1, 0, 0, 1, 1, 1, 1, 1, 0] 
 
 Reachable states from S163 [0, 0, 0, 0, 1, 1, 1, 3, 1, 0, 1, 1, 0, 0, 0, 1, 0, 0, 0, 0, 2, 1, 0, 0, 1, 1, 1, 1, 1, 0] 
 T9 => S19 [0, 0, 0, 0, 1, 1, 1, 3, 1, 0, 0, 1, 1, 0, 0, 1, 0, 0, 0, 0, 2, 1, 1, 1, 1, 1, 1, 1, 1, 0] 
 T1 => S110 [1, 0, 0, 0, 1, 1, 1, 2, 1, 0, 1, 1, 0, 0, 0, 1, 0, 0, 0, 0, 2, 0, 0, 0, 1, 1, 0, 0, 0, 0] 
 T7 => S161 [0, 0, 0, 0, 1, 1, 1, 3, 0, 1, 1, 0, 0, 0, 0, 1, 0, 0, 0, 0, 2, 0, 0, 0, 0, 0, 1, 1, 1, 0] 
 
 Reachable states from S164 [0, 0, 0, 1, 1, 0, 1, 2, 0, 1, 0, 0, 1, 0, 0, 1, 0, 0, 0, 2, 0, 0, 0, 0, 0, 0, 1, 1, 1, 0] 
 T5 => S94 [0, 0, 0, 0, 1, 1, 1, 3, 0, 1, 0, 0, 1, 0, 0, 1, 0, 0, 0, 2, 0, 0, 1, 1, 0, 0, 1, 1, 1, 0] 
 T17 => S165 [0, 0, 0, 1, 1, 0, 1, 2, 0, 1, 0, 0, 1, 0, 0, 1, 0, 0, 0, 1, 1, 0, 0, 0, 0, 0, 1, 1, 1, 0] 
 
 Reachable states from S165 [0, 0, 0, 1, 1, 0, 1, 2, 0, 1, 0, 0, 1, 0, 0, 1, 0, 0, 0, 1, 1, 0, 0, 0, 0, 0, 1, 1, 1, 0] 
 T5 => S58 [0, 0, 0, 0, 1, 1, 1, 3, 0, 1, 0, 0, 1, 0, 0, 1, 0, 0, 0, 1, 1, 0, 1, 1, 0, 0, 1, 1, 1, 0] 
 T17 => S166 [0, 0, 0, 1, 1, 0, 1, 2, 0, 1, 0, 0, 1, 0, 0, 1, 0, 0, 0, 0, 2, 0, 0, 0, 0, 0, 1, 1, 1, 0] 
 
 Reachable states from S166 [0, 0, 0, 1, 1, 0, 1, 2, 0, 1, 0, 0, 1, 0, 0, 1, 0, 0, 0, 0, 2, 0, 0, 0, 0, 0, 1, 1, 1, 0] 
 T5 => S22 [0, 0, 0, 0, 1, 1, 1, 3, 0, 1, 0, 0, 1, 0, 0, 1, 0, 0, 0, 0, 2, 0, 1, 1, 0, 0, 1, 1, 1, 0] 
 
 Reachable states from S167 [0, 1, 0, 0, 1, 1, 0, 2, 0, 0, 1, 1, 1, 0, 0, 1, 0, 0, 1, 1, 0, 1, 0, 0, 1, 0, 0, 0, 0, 0] 
 T3 => S67 [0, 0, 1, 0, 0, 1, 1, 2, 0, 0, 1, 1, 1, 0, 0, 1, 0, 0, 1, 1, 0, 1, 0, 0, 0, 1, 0, 0, 0, 0] 
 T9 => S73 [0, 1, 0, 0, 1, 1, 0, 2, 0, 0, 0, 1, 2, 0, 0, 1, 0, 0, 1, 1, 0, 1, 1, 1, 1, 0, 0, 0, 0, 0] 
 T17 => S168 [0, 1, 0, 0, 1, 1, 0, 2, 0, 0, 1, 1, 1, 0, 0, 1, 0, 0, 1, 0, 1, 1, 0, 0, 1, 0, 0, 0, 0, 0] 
 
 Reachable states from S168 [0, 1, 0, 0, 1, 1, 0, 2, 0, 0, 1, 1, 1, 0, 0, 1, 0, 0, 1, 0, 1, 1, 0, 0, 1, 0, 0, 0, 0, 0] 
 T3 => S31 [0, 0, 1, 0, 0, 1, 1, 2, 0, 0, 1, 1, 1, 0, 0, 1, 0, 0, 1, 0, 1, 1, 0, 0, 0, 1, 0, 0, 0, 0] 
 T9 => S37 [0, 1, 0, 0, 1, 1, 0, 2, 0, 0, 0, 1, 2, 0, 0, 1, 0, 0, 1, 0, 1, 1, 1, 1, 1, 0, 0, 0, 0, 0] 
 
 Reachable states from S169 [1, 0, 0, 0, 1, 1, 1, 2, 0, 0, 1, 1, 1, 0, 0, 1, 0, 0, 1, 1, 0, 0, 0, 0, 1, 1, 0, 0, 0, 0] 
 T9 => S113 [1, 0, 0, 0, 1, 1, 1, 2, 0, 0, 0, 1, 2, 0, 0, 1, 0, 0, 1, 1, 0, 0, 1, 1, 1, 1, 0, 0, 0, 0] 
 T2 => S167 [0, 1, 0, 0, 1, 1, 0, 2, 0, 0, 1, 1, 1, 0, 0, 1, 0, 0, 1, 1, 0, 1, 0, 0, 1, 0, 0, 0, 0, 0] 
 T17 => S170 [1, 0, 0, 0, 1, 1, 1, 2, 0, 0, 1, 1, 1, 0, 0, 1, 0, 0, 1, 0, 1, 0, 0, 0, 1, 1, 0, 0, 0, 0] 
 
 Reachable states from S170 [1, 0, 0, 0, 1, 1, 1, 2, 0, 0, 1, 1, 1, 0, 0, 1, 0, 0, 1, 0, 1, 0, 0, 0, 1, 1, 0, 0, 0, 0] 
 T9 => S153 [1, 0, 0, 0, 1, 1, 1, 2, 0, 0, 0, 1, 2, 0, 0, 1, 0, 0, 1, 0, 1, 0, 1, 1, 1, 1, 0, 0, 0, 0] 
 T2 => S168 [0, 1, 0, 0, 1, 1, 0, 2, 0, 0, 1, 1, 1, 0, 0, 1, 0, 0, 1, 0, 1, 1, 0, 0, 1, 0, 0, 0, 0, 0] 
 
 Reachable states from S171 [0, 0, 0, 0, 1, 1, 1, 3, 0, 0, 1, 1, 1, 0, 0, 1, 0, 0, 1, 1, 0, 1, 0, 0, 1, 1, 1, 1, 1, 0] 
 T9 => S124 [0, 0, 0, 0, 1, 1, 1, 3, 0, 0, 0, 1, 2, 0, 0, 1, 0, 0, 1, 1, 0, 1, 1, 1, 1, 1, 1, 1, 1, 0] 
 T1 => S169 [1, 0, 0, 0, 1, 1, 1, 2, 0, 0, 1, 1, 1, 0, 0, 1, 0, 0, 1, 1, 0, 0, 0, 0, 1, 1, 0, 0, 0, 0] 
 T17 => S172 [0, 0, 0, 0, 1, 1, 1, 3, 0, 0, 1, 1, 1, 0, 0, 1, 0, 0, 1, 0, 1, 1, 0, 0, 1, 1, 1, 1, 1, 0] 
 
 Reachable states from S172 [0, 0, 0, 0, 1, 1, 1, 3, 0, 0, 1, 1, 1, 0, 0, 1, 0, 0, 1, 0, 1, 1, 0, 0, 1, 1, 1, 1, 1, 0] 
 T9 => S152 [0, 0, 0, 0, 1, 1, 1, 3, 0, 0, 0, 1, 2, 0, 0, 1, 0, 0, 1, 0, 1, 1, 1, 1, 1, 1, 1, 1, 1, 0] 
 T1 => S170 [1, 0, 0, 0, 1, 1, 1, 2, 0, 0, 1, 1, 1, 0, 0, 1, 0, 0, 1, 0, 1, 0, 0, 0, 1, 1, 0, 0, 0, 0] 
