19/06/2021 18:05:35[DEBUG] pflow_file:  ../Prueba/gen_nets/20210619-175223_30/net.pflow  
19/06/2021 18:05:35[DEBUG] output_folder:  ../Prueba/gen_nets/20210619-175223_30/  
19/06/2021 18:05:35[DEBUG] html_path:  ../Prueba/gen_nets/20210619-175223_30/  
19/06/2021 18:05:35[DEBUG] txt_path:  ../Prueba/gen_nets/20210619-175223_30/txt_info  

--------------------------------------------------------------------------   
19/06/2021 18:05:35[INFO] Ejecutando petrinator para conocer estado de la red...   
--------------------------------------------------------------------------
   
19/06/2021 18:05:40[INFO] Leyendo archivos...   
19/06/2021 18:05:40[INFO] Cantidad de estados 612  
19/06/2021 18:05:40[INFO] Cantidad de transiciones 20  
19/06/2021 18:05:40[INFO] Cantidad de plazas 29  
19/06/2021 18:05:40[INFO] Cantidad de sifones 61  
19/06/2021 18:05:40[INFO] Cantidad de trampas 55  

--------------------------------------------------------------------------
   
19/06/2021 18:05:40[INFO] Cantidad de entrenamientos a realizar:  1  
19/06/2021 18:05:40[INFO] Entrenamiento numero : 0 
 
19/06/2021 18:05:40[INFO] Q-TABLE   
+-----------------------------------------------------+--------------------+------------------------+
|                   Estados/Acciones                  | Agregar supervisor | Agregar o quitar arcos |
+-----------------------------------------------------+--------------------+------------------------+
|                        Start                        |        0.0         |          0.0           |
|        Más sifónes vacíos en estado deadlock        |        0.0         |          0.0           |
|       Menos sifónes vacíos en estado deadlock       |        0.0         |          0.0           |
| Igual cantidad de sifónes vacíos en estado deadlock |        0.0         |          0.0           |
|                         End                         |        0.0         |          0.0           |
+-----------------------------------------------------+--------------------+------------------------+

--------------------------------------------------------------------------   
19/06/2021 18:05:40[INFO] Ejecutando petrinator para conocer estado de la red...   
--------------------------------------------------------------------------
   
19/06/2021 18:05:45[INFO] Importando datos desde html...   
19/06/2021 18:05:45[INFO] Analizando cantidad de supervisores que se pueden agregar...   
19/06/2021 18:05:45[ERROR] marcado: 1 t_in: 3   
19/06/2021 18:05:45[INFO] Cantidad de transiciones: 20  
19/06/2021 18:05:45[INFO] Estados de deadlock : [74, 77, 252, 254]  
19/06/2021 18:05:45[INFO] Cantidad de sifones: 61  
19/06/2021 18:05:45[INFO] Cantidad de sifones vacios en estado de deadlock: 1 
 
19/06/2021 18:05:45[INFO] SIFONES   
+----+-----+-------------------------------------------------+
| ID | Nro |                      Plazas                     |
+----+-----+-------------------------------------------------+
| 0  |  2  | ['P2', 'P8', 'P13', 'P16', 'P19', 'P26', 'P28'] |
+----+-----+-------------------------------------------------+
19/06/2021 18:05:45[INFO] T INVARIANTES   
+----+----+----+----+----+----+----+----+----+----+-----+-----+-----+-----+-----+-----+-----+-----+-----+-----+
| T0 | T1 | T2 | T3 | T4 | T5 | T6 | T7 | T8 | T9 | T10 | T11 | T12 | T13 | T14 | T15 | T16 | T17 | T18 | T19 |
+----+----+----+----+----+----+----+----+----+----+-----+-----+-----+-----+-----+-----+-----+-----+-----+-----+
| 1  | 1  | 1  | 0  | 0  | 0  | 0  | 0  | 0  | 0  |  0  |  0  |  0  |  0  |  0  |  0  |  0  |  0  |  0  |  0  |
| 0  | 0  | 0  | 1  | 1  | 1  | 1  | 1  | 0  | 0  |  0  |  0  |  0  |  0  |  0  |  0  |  0  |  0  |  0  |  0  |
| 0  | 0  | 0  | 0  | 0  | 0  | 0  | 0  | 1  | 1  |  1  |  1  |  1  |  0  |  0  |  0  |  0  |  0  |  1  |  1  |
| 0  | 0  | 0  | 0  | 0  | 0  | 0  | 0  | 0  | 0  |  0  |  0  |  0  |  1  |  1  |  1  |  1  |  1  |  1  |  1  |
+----+----+----+----+----+----+----+----+----+----+-----+-----+-----+-----+-----+-----+-----+-----+-----+-----+
19/06/2021 18:05:45[INFO] POSIBLES SUPERVISORES A AGREGAR   
+-----+---------+---------------------+---------------------+
|  ID | Marcado |     T - Entrada     |      T - Salida     |
+-----+---------+---------------------+---------------------+
| P30 |    1    | ['T2', 'T7', 'T11'] | ['T1', 'T4', 'T19'] |
+-----+---------+---------------------+---------------------+

--------------------------------------------------------------------------
   
19/06/2021 18:05:45[INFO] Ejecutando accion...   
19/06/2021 18:05:45[ACTION] Agregar supervisor    
19/06/2021 18:05:45[ACTION] Agrego supervisor Numero: 0   

--------------------------------------------------------------------------   
19/06/2021 18:05:45[INFO] Ejecutando petrinator para conocer estado de la red...   
--------------------------------------------------------------------------
   
19/06/2021 18:05:49[INFO] Importando datos desde html...   
19/06/2021 18:05:50[INFO] Analizando cantidad de supervisores que se pueden agregar...   
19/06/2021 18:05:50[ERROR] marcado: 0 t_in: 0   
19/06/2021 18:05:50[ERROR] marcado: 0 t_in: 1   
19/06/2021 18:05:50[ERROR] marcado: 0 t_in: 2   
19/06/2021 18:05:50[ERROR] marcado: 0 t_in: 2   
19/06/2021 18:05:50[ERROR] marcado: 0 t_in: 0   
19/06/2021 18:05:50[ERROR] marcado: 0 t_in: 1   
19/06/2021 18:05:50[ERROR] marcado: 0 t_in: 1   
19/06/2021 18:05:50[ERROR] marcado: 0 t_in: 2   
19/06/2021 18:05:50[INFO] Cantidad de sifones vacios en estado de deadlock ANTES: 1  
19/06/2021 18:05:50[INFO] Cantidad de sifones vacioes en estado de deadlock AHORA: 8  
19/06/2021 18:05:50[INFO] Cantidad de transiciones: 20  
19/06/2021 18:05:50[INFO] Estados de deadlock : [99]  
19/06/2021 18:05:50[INFO] Cantidad de sifones: 108  
19/06/2021 18:05:50[INFO] Cantidad de sifones vacios en estado de deadlock: 8 
 
19/06/2021 18:05:50[INFO] SIFONES   
+----+-----+---------------------------------------------------------------------------------+
| ID | Nro |                                      Plazas                                     |
+----+-----+---------------------------------------------------------------------------------+
| 1  |  10 |               ['P1', 'P5', 'P6', 'P7', 'P11', 'P12', 'P23', 'P30']              |
| 2  |  17 |            ['P1', 'P2', 'P5', 'P6', 'P7', 'P11', 'P12', 'P23', 'P30']           |
| 3  |  20 |        ['P1', 'P2', 'P5', 'P6', 'P7', 'P11', 'P12', 'P13', 'P23', 'P30']        |
| 4  |  28 |     ['P1', 'P2', 'P5', 'P6', 'P7', 'P11', 'P12', 'P13', 'P16', 'P23', 'P30']    |
| 5  |  52 |        ['P1', 'P5', 'P6', 'P7', 'P11', 'P12', 'P16', 'P17', 'P23', 'P30']       |
| 6  |  59 |    ['P1', 'P5', 'P6', 'P7', 'P11', 'P12', 'P13', 'P16', 'P17', 'P23', 'P30']    |
| 7  |  72 |     ['P1', 'P2', 'P5', 'P6', 'P7', 'P11', 'P12', 'P16', 'P17', 'P23', 'P30']    |
| 8  |  80 | ['P1', 'P2', 'P5', 'P6', 'P7', 'P11', 'P12', 'P13', 'P16', 'P17', 'P23', 'P30'] |
+----+-----+---------------------------------------------------------------------------------+
19/06/2021 18:05:50[INFO] T INVARIANTES   
+----+----+----+----+----+----+----+----+----+----+-----+-----+-----+-----+-----+-----+-----+-----+-----+-----+
| T0 | T1 | T2 | T3 | T4 | T5 | T6 | T7 | T8 | T9 | T10 | T11 | T12 | T13 | T14 | T15 | T16 | T17 | T18 | T19 |
+----+----+----+----+----+----+----+----+----+----+-----+-----+-----+-----+-----+-----+-----+-----+-----+-----+
| 1  | 1  | 1  | 0  | 0  | 0  | 0  | 0  | 0  | 0  |  0  |  0  |  0  |  0  |  0  |  0  |  0  |  0  |  0  |  0  |
| 0  | 0  | 0  | 1  | 1  | 1  | 1  | 1  | 0  | 0  |  0  |  0  |  0  |  0  |  0  |  0  |  0  |  0  |  0  |  0  |
| 0  | 0  | 0  | 0  | 0  | 0  | 0  | 0  | 1  | 1  |  1  |  1  |  1  |  0  |  0  |  0  |  0  |  0  |  1  |  1  |
+----+----+----+----+----+----+----+----+----+----+-----+-----+-----+-----+-----+-----+-----+-----+-----+-----+
19/06/2021 18:05:50[INFO] POSIBLES SUPERVISORES A AGREGAR   
+----+---------+-------------+------------+
| ID | Marcado | T - Entrada | T - Salida |
+----+---------+-------------+------------+
+----+---------+-------------+------------+
19/06/2021 18:05:50[INFO] Actualizando estado de la red..   
19/06/2021 18:05:50[STATE] Cambie al estado 1: Hay mas sifones vacios en deadlock   

--------------------------------------------------------------------------
   
19/06/2021 18:05:50[INFO] Calculando recompensa..   
19/06/2021 18:05:50[REWARD] El sifon se controlo correctamente, recompensa -1   

--------------------------------------------------------------------------
   
19/06/2021 18:05:50[INFO] NEW Q-TABLE   
+-----------------------------------------------------+--------------------+------------------------+
|                   Estados/Acciones                  | Agregar supervisor | Agregar o quitar arcos |
+-----------------------------------------------------+--------------------+------------------------+
|                        Start                        |        -0.9        |          0.0           |
|        Más sifónes vacíos en estado deadlock        |        0.0         |          0.0           |
|       Menos sifónes vacíos en estado deadlock       |        0.0         |          0.0           |
| Igual cantidad de sifónes vacíos en estado deadlock |        0.0         |          0.0           |
|                         End                         |        0.0         |          0.0           |
+-----------------------------------------------------+--------------------+------------------------+

--------------------------------------------------------------------------
   
19/06/2021 18:05:50[INFO] Ejecutando accion...   
19/06/2021 18:05:50[ACTION] Agregar o quitar arcos   
19/06/2021 18:05:50[ACTION] La transicion en conflicto T14 le tiene que devolver un token al supervisor P30   
19/06/2021 18:05:50[INFO] Se agrego un arco desde T14 hasta P30   

--------------------------------------------------------------------------   
19/06/2021 18:05:50[INFO] Ejecutando petrinator para conocer estado de la red...   
--------------------------------------------------------------------------
   
19/06/2021 18:05:54[INFO] Importando datos desde html...   
19/06/2021 18:05:54[INFO] Analizando cantidad de supervisores que se pueden agregar...   
19/06/2021 18:05:54[INFO] Cantidad de sifones vacios en estado de deadlock ANTES: 8  
19/06/2021 18:05:54[INFO] Cantidad de sifones vacioes en estado de deadlock AHORA: 0  
19/06/2021 18:05:54[INFO] Cantidad de transiciones: 20  
19/06/2021 18:05:54[INFO] Estados de deadlock : []  
19/06/2021 18:05:54[INFO] Cantidad de sifones: 109  
19/06/2021 18:05:54[INFO] Cantidad de sifones vacios en estado de deadlock: 0 
 
19/06/2021 18:05:54[INFO] SIFONES   
+----+-----+--------+
| ID | Nro | Plazas |
+----+-----+--------+
+----+-----+--------+
19/06/2021 18:05:54[INFO] T INVARIANTES   
+----+----+----+----+----+----+----+----+----+----+-----+-----+-----+-----+-----+-----+-----+-----+-----+-----+
| T0 | T1 | T2 | T3 | T4 | T5 | T6 | T7 | T8 | T9 | T10 | T11 | T12 | T13 | T14 | T15 | T16 | T17 | T18 | T19 |
+----+----+----+----+----+----+----+----+----+----+-----+-----+-----+-----+-----+-----+-----+-----+-----+-----+
| 1  | 1  | 1  | 0  | 0  | 0  | 0  | 0  | 0  | 0  |  0  |  0  |  0  |  0  |  0  |  0  |  0  |  0  |  0  |  0  |
| 0  | 0  | 0  | 1  | 1  | 1  | 1  | 1  | 0  | 0  |  0  |  0  |  0  |  0  |  0  |  0  |  0  |  0  |  0  |  0  |
| 0  | 0  | 0  | 0  | 0  | 0  | 0  | 0  | 1  | 1  |  1  |  1  |  1  |  0  |  0  |  0  |  0  |  0  |  1  |  1  |
| 0  | 0  | 0  | 0  | 0  | 0  | 0  | 0  | 0  | 0  |  0  |  0  |  0  |  1  |  1  |  1  |  1  |  1  |  1  |  1  |
+----+----+----+----+----+----+----+----+----+----+-----+-----+-----+-----+-----+-----+-----+-----+-----+-----+
19/06/2021 18:05:54[INFO] POSIBLES SUPERVISORES A AGREGAR   
+----+---------+-------------+------------+
| ID | Marcado | T - Entrada | T - Salida |
+----+---------+-------------+------------+
+----+---------+-------------+------------+
19/06/2021 18:05:54[INFO] Actualizando estado de la red..   
19/06/2021 18:05:54[STATE] Cambie al estado 2: Hay menos sifones vacios en deadlock   

--------------------------------------------------------------------------
   
19/06/2021 18:05:54[INFO] Calculando recompensa..   
19/06/2021 18:05:54[REWARD] No hay mas deadlock, recompensa 100   

--------------------------------------------------------------------------
   
19/06/2021 18:05:54[INFO] NEW Q-TABLE   
+-----------------------------------------------------+--------------------+------------------------+
|                   Estados/Acciones                  | Agregar supervisor | Agregar o quitar arcos |
+-----------------------------------------------------+--------------------+------------------------+
|                        Start                        |        -0.9        |          0.0           |
|        Más sifónes vacíos en estado deadlock        |        0.0         |          90.0          |
|       Menos sifónes vacíos en estado deadlock       |        0.0         |          0.0           |
| Igual cantidad de sifónes vacíos en estado deadlock |        0.0         |          0.0           |
|                         End                         |        0.0         |          0.0           |
+-----------------------------------------------------+--------------------+------------------------+

--------------------------------------------------------------------------
   
19/06/2021 18:05:54[STATE] Se llego al estado deseado, NO HAY MAS DEADLOCK   

--------------------------------------------------------------------------
   
19/06/2021 18:05:54[INFO] Training complete! 
  
