 Minimal siphons 
10 12
13 2 5 11 12
2 5 1 3 4
6 3
7 4
13 7 5 6 11 12
13 7 5 6 9 11
13 2 5 9 11
8 9 10 11
14 9 10
 Minimal traps 
10 12
13 2 5 9 12
2 5 1 3 4
6 3
7 4
13 7 2 6 9 12
13 7 2 6 9 11
13 14 7 2 6 9
13 2 5 9 11
13 14 2 5 9
8 9 10 11
14 9 10
13 14 7 2 6 9 10
13 14 2 5 9 10
14 8 9 10
 Analysis time: 0.049s