18/09/2021 19:52:57[DEBUG] pflow_file:  ../test_networks/20210918-193440_27/net.pflow  
18/09/2021 19:52:57[DEBUG] output_folder:  ../test_networks/20210918-193440_27/  
18/09/2021 19:52:57[DEBUG] html_path:  ../test_networks/20210918-193440_27/  
18/09/2021 19:52:57[DEBUG] txt_path:  ../test_networks/20210918-193440_27/txt_info  

--------------------------------------------------------------------------   
18/09/2021 19:52:57[INFO] Ejecutando petrinator para conocer estado de la red...   
--------------------------------------------------------------------------
   
18/09/2021 19:53:04[INFO] SIFONES   
+----+-----+--------------------------------------------------------+
| ID | Nro |                         Plazas                         |
+----+-----+--------------------------------------------------------+
| 0  |  23 | ['P2', 'P8', 'P14', 'P20', 'P23', 'P28', 'P30', 'P31'] |
+----+-----+--------------------------------------------------------+ 

18/09/2021 19:53:04[INFO] T INVARIANTES   
+----+----+----+----+----+----+----+----+----+----+-----+-----+-----+-----+-----+-----+-----+-----+-----+-----+-----+
| T0 | T1 | T2 | T3 | T4 | T5 | T6 | T7 | T8 | T9 | T10 | T11 | T12 | T13 | T14 | T15 | T16 | T17 | T18 | T19 | T20 |
+----+----+----+----+----+----+----+----+----+----+-----+-----+-----+-----+-----+-----+-----+-----+-----+-----+-----+
| 1  | 1  | 1  | 1  | 0  | 0  | 0  | 0  | 0  | 0  |  0  |  0  |  0  |  0  |  0  |  0  |  0  |  0  |  0  |  0  |  0  |
| 0  | 0  | 0  | 0  | 1  | 1  | 1  | 1  | 0  | 0  |  0  |  1  |  1  |  0  |  0  |  0  |  0  |  0  |  0  |  0  |  0  |
| 0  | 0  | 0  | 0  | 0  | 0  | 0  | 0  | 1  | 1  |  1  |  1  |  1  |  0  |  0  |  0  |  0  |  0  |  0  |  0  |  0  |
| 0  | 0  | 0  | 0  | 0  | 0  | 0  | 0  | 0  | 0  |  0  |  0  |  0  |  1  |  1  |  1  |  0  |  0  |  0  |  1  |  1  |
| 0  | 0  | 0  | 0  | 0  | 0  | 0  | 0  | 0  | 0  |  0  |  0  |  0  |  0  |  0  |  0  |  1  |  1  |  1  |  1  |  1  |
+----+----+----+----+----+----+----+----+----+----+-----+-----+-----+-----+-----+-----+-----+-----+-----+-----+-----+ 

18/09/2021 19:53:04[INFO] Supervisores para agregar   
+-----+---------+----------------------+---------------------+--------------------------------------------------------+
|  ID | Marcado |     T - Entrada      |      T - Salida     |                   Sifon a controlar                    |
+-----+---------+----------------------+---------------------+--------------------------------------------------------+
| P33 |    2    | ['T2', 'T10', 'T18'] | ['T1', 'T9', 'T17'] | ['P2', 'P8', 'P14', 'P20', 'P23', 'P28', 'P30', 'P31'] |
+-----+---------+----------------------+---------------------+--------------------------------------------------------+ 

18/09/2021 19:53:04[INFO] Supervisores agregados   
+-----+-------+---------+-------------+------------+----------------+
| Nro | Plaza | Marcado | T - Entrada | T - Salida | MAL supervisor |
+-----+-------+---------+-------------+------------+----------------+
+-----+-------+---------+-------------+------------+----------------+ 

18/09/2021 19:53:04[INFO] Supervisores eliminados   
+-----+-------+---------+-------------+------------+----------------+
| Nro | Plaza | Marcado | T - Entrada | T - Salida | MAL supervisor |
+-----+-------+---------+-------------+------------+----------------+
+-----+-------+---------+-------------+------------+----------------+ 

18/09/2021 19:53:04[INFO] Ejecutando accion...   
18/09/2021 19:53:04[ACTION] Agrego supervisor con menor numero de arcos de salida (MNAS)   
18/09/2021 19:53:04[INFO] Supervisor con menor cantidad de arcos de salida agregado 0   

--------------------------------------------------------------------------   
18/09/2021 19:53:04[INFO] Ejecutando petrinator para conocer estado de la red...   
--------------------------------------------------------------------------
   
--------------------------------------------------------------------------
   
18/09/2021 19:53:13[INFO] Calculando recompensa..   
18/09/2021 19:53:13[REWARD] No hay mas deadlock, recompensa 100   

--------------------------------------------------------------------------
   
18/09/2021 19:53:13[STATE] Se llego al estado deseado, NO HAY MAS DEADLOCK   

--------------------------------------------------------------------------
   
+--------+---------+-------------------+----------------+---------+---------+------------------------+
| Plazas | Estados | Tokens trabajando | Sifones vacios | Sifones | Trampas | Supervisores agregados |
+--------+---------+-------------------+----------------+---------+---------+------------------------+
|   33   |   820   |        2947       |       0        |   165   |    34   |           1            |
+--------+---------+-------------------+----------------+---------+---------+------------------------+ 
+------------------------------+------------+-----------------+--------------------+-----------------------+
|       Estados/Acciones       | + sup MNAS | + sup aleatorio | - sup MAL agregado | - ultimo sup agregado |
+------------------------------+------------+-----------------+--------------------+-----------------------+
|            Start             |   100.0    |       0.0       |        0.0         |          0.0          |
| + sifónes vacíos en deadlock |    0.0     |       0.0       |        0.0         |          0.0          |
| - sifónes vacíos en deadlock |    0.0     |       0.0       |        0.0         |          0.0          |
| = sifónes vacíos en deadlock |    0.0     |       0.0       |        0.0         |          0.0          |
|             End              |    0.0     |       0.0       |        0.0         |          0.0          |
+------------------------------+------------+-----------------+--------------------+-----------------------+ 

18/09/2021 19:53:13[INFO] Comienza proceso de eliminacion de supervisores redundantes   
18/09/2021 19:53:13[INFO] Supervisor a eliminar   
+-----+-------+---------+----------------------+---------------------+----------------+
| Nro | Plaza | Marcado |     T - Entrada      |      T - Salida     | MAL supervisor |
+-----+-------+---------+----------------------+---------------------+----------------+
|  1  |  P33  |    2    | ['T2', 'T10', 'T18'] | ['T1', 'T9', 'T17'] |     False      |
+-----+-------+---------+----------------------+---------------------+----------------+ 
18/09/2021 19:53:13[INFO] Eliminando supervisor ...   

--------------------------------------------------------------------------   
18/09/2021 19:53:13[INFO] Ejecutando petrinator para conocer estado de la red...   
--------------------------------------------------------------------------
   
18/09/2021 19:53:22[INFO] El supervisor eliminado no era redundante, volviendo a agregar supervisor   
18/09/2021 19:53:22[INFO] Se volvio a agregar correctamente el supervisor eliminado   

--------------------------------------------------------------------------   
18/09/2021 19:53:22[INFO] Ejecutando petrinator para conocer estado de la red...   
--------------------------------------------------------------------------
   
18/09/2021 19:53:31[INFO] Se eliminaron todos los supervisores redundantes   
+--------+---------+-------------------+----------------+---------+---------+------------------------+-------------------------+
| Plazas | Estados | Tokens trabajando | Sifones vacios | Sifones | Trampas | Supervisores agregados | Supervisores eliminados |
+--------+---------+-------------------+----------------+---------+---------+------------------------+-------------------------+
|   33   |   820   |        2947       |       0        |   165   |    34   |           1            |            0            |
+--------+---------+-------------------+----------------+---------+---------+------------------------+-------------------------+ 
