 Minimal siphons 
24 31 39
16 31 41
11 12 21 31 38 40 42
10 12
9 21 42
8 31 40
3 7
2 33 36
23 26
1 6
2 30 35
2 5
1 2 6
2 3 30 35
2 3 5
1 2 3 6
8 14
2 3 8 14 30 35
2 3 5 8 14
1 2 3 6 8 14
2 3 4 8 14 30 35
2 3 4 5 8 14
1 2 3 4 6 8 14
2 3 4 8 18 30 35
2 3 4 5 8 18
1 2 3 4 6 8 18
2 3 4 8 18 30 31 35
9 15
2 3 8 9 14 30 35
2 3 5 8 9 14
1 2 3 6 8 9 14
2 3 4 8 9 14 30 35
2 3 4 5 8 9 14
1 2 3 4 6 8 9 14
2 3 4 8 9 18 30 35
2 3 4 5 8 9 18
1 2 3 4 6 8 9 18
2 3 4 8 9 18 30 31 35
2 3 5 8 9 10 14
1 2 3 6 8 9 10 14
2 3 4 5 8 9 10 14
1 2 3 4 6 8 9 10 14
2 3 4 5 8 9 10 18
1 2 3 4 6 8 9 10 18
2 3 4 8 9 10 18 30 31 35
11 30 38
11 13
2 3 5 8 11 13 14
1 2 3 6 8 11 13 14
2 3 4 5 8 11 13 14
1 2 3 4 6 8 11 13 14
2 3 4 5 8 11 13 18
1 2 3 4 6 8 11 13 18
2 3 5 8 9 10 11 14
1 2 3 6 8 9 10 11 14
2 3 5 8 9 11 13 14
1 2 3 6 8 9 11 13 14
2 3 4 5 8 9 10 11 14
1 2 3 4 6 8 9 10 11 14
2 3 4 5 8 9 11 13 14
1 2 3 4 6 8 9 11 13 14
2 3 4 5 8 9 10 11 18
1 2 3 4 6 8 9 10 11 18
2 3 4 5 8 9 11 13 18
1 2 3 4 6 8 9 11 13 18
2 3 4 8 9 10 11 18 30 31 35
11 12 15 31 38 40
2 3 5 8 10 11 12 14
1 2 3 6 8 10 11 12 14
2 3 5 8 11 12 13 14
1 2 3 6 8 11 12 13 14
2 3 4 5 8 10 11 12 14
1 2 3 4 6 8 10 11 12 14
2 3 4 5 8 11 12 13 14
1 2 3 4 6 8 11 12 13 14
2 3 4 5 8 10 11 12 18
1 2 3 4 6 8 10 11 12 18
2 3 4 5 8 11 12 13 18
1 2 3 4 6 8 11 12 13 18
3 4 7 16 18
2 3 4 16 18 33 36
2 3 4 16 18 30 35
2 3 4 5 16 18
1 2 3 4 11 13 16 17 18 19 20
1 2 3 4 6 16 18
1 2 3 4 10 11 12 16 17 18 19 20
1 2 3 4 9 10 11 16 17 18 19 20 21 42
1 2 3 4 6 9 10 11 16 18 21 42
1 2 3 4 6 9 10 11 15 16 18
1 2 3 4 6 8 9 10 11 16 18
1 2 3 4 6 9 10 11 16 17 18 21 42
1 2 3 4 6 9 10 11 15 16 17 18
1 2 3 4 6 8 9 10 11 16 17 18
1 2 3 4 6 9 10 11 16 17 18 19 21 42
1 2 3 4 6 9 10 11 15 16 17 18 19
1 2 3 4 6 8 9 10 11 16 17 18 19
1 2 3 4 9 10 11 15 16 17 18 19 20
1 2 3 4 8 9 10 11 16 17 18 19 20
1 2 3 4 6 10 11 12 16 18
1 2 3 4 6 10 11 12 16 17 18
1 2 3 4 6 10 11 12 16 17 18 19
1 2 3 4 6 11 13 16 18
1 2 3 4 6 11 13 16 17 18
1 2 3 4 6 11 13 16 17 18 19
2 3 4 16 18 30 31 35
2 3 4 8 16 18 31 35 40
2 3 4 5 8 16 18 31 40
1 2 3 4 6 8 16 18 31 40
2 3 4 8 16 18 30 31 35
2 3 4 8 9 16 18 31 35 40
2 3 4 5 8 9 16 18 31 40
1 2 3 4 6 8 9 16 18 31 40
2 3 4 8 9 16 18 30 31 35
2 3 4 9 15 16 18 31 35 40
2 3 4 5 9 15 16 18 31 40
1 2 3 4 6 9 15 16 18 31 40
2 3 4 9 15 16 18 30 31 35
2 3 4 9 16 18 21 31 35 40 42
2 3 4 5 9 16 18 21 31 40 42
1 2 3 4 6 9 16 18 21 31 40 42
2 3 4 9 16 18 21 30 31 35 42
21 24 37
24 27
3 7 23 24 28 33 34 36
2 23 24 28 33 34 36
2 3 23 24 28 33 34 36
2 21 23 24 28 33 34 36
21 22 23 24 25 28 29 30 31 32 33 34
 Minimal traps 
23 26
8 12 21 30 38 40 42
9 21 42
21 24 37
10 12
11 30 38
1 6
2 33 36
24 31 39
16 31 41
3 7
24 27
2 30 35
2 5
2 3 7
1 2 5
1 2 3 7
1 6 11 19 20
11 13
1 2 11 19 20 33 36
1 2 11 13 33 36
1 2 5 11 13
1 2 3 7 11 13
1 2 5 11 19 20
1 2 3 7 11 19 20
1 6 11 13
1 2 11 19 20 30 35
1 6 10 11 19 20
10 11 13
1 2 10 11 19 20 33 36
1 2 10 11 13 33 36
1 2 5 10 11 13
1 2 3 7 10 11 13
1 2 5 10 11 19 20
1 2 3 7 10 11 19 20
1 6 10 11 13
1 2 10 11 19 20 30 35
2 21 22 29 30 35
1 2 21 22 29 30 35
1 2 11 19 20 21 22 29 30 35
1 2 10 11 19 20 21 22 29 30 35
2 21 22 24 29 30 35 39
2 21 22 24 25 29 30 35
1 2 21 22 24 29 30 35 39
1 2 21 22 24 25 29 30 35
1 2 11 19 20 21 22 24 29 30 35 39
1 2 11 19 20 21 22 24 25 29 30 35
1 2 10 11 19 20 21 22 24 29 30 35 39
1 2 10 11 19 20 21 22 24 25 29 30 35
9 15
1 6 9 10 11 19 20
9 10 11 13
1 2 9 10 11 19 20 33 36
1 2 9 10 11 13 33 36
1 2 5 9 10 11 13
1 2 3 7 9 10 11 13
1 2 5 9 10 11 19 20
1 2 3 7 9 10 11 19 20
1 6 9 10 11 13
1 2 9 10 11 19 20 30 35
1 2 9 10 11 19 20 21 22 29 30 35
1 2 9 10 11 19 20 21 22 24 29 30 35 39
1 2 9 10 11 19 20 21 22 24 25 29 30 35
2 8 30 35 40
8 31 40
8 14
8 9 21 42
8 9 15
2 8 31 33 36 40
2 8 14 33 36
2 8 9 21 33 36 42
2 8 9 15 33 36
2 5 8 9 15
2 3 7 8 9 15
2 5 8 9 21 42
2 3 7 8 9 21 42
2 5 8 14
2 3 7 8 14
2 5 8 31 40
2 3 7 8 31 40
2 3 4 8 16 18 31 40 41
2 3 4 8 14 16 18 31 41
2 3 4 8 9 16 18 21 31 41 42
2 3 4 8 9 15 16 18 31 41
2 8 30 31 33 36 40
2 5 8 30 31 40
2 3 7 8 30 31 40
2 3 4 8 16 18 30 31 40 41
2 3 4 8 14 16 18 30 31 41
2 3 4 8 9 16 18 21 30 31 41 42
2 3 4 8 9 15 16 18 30 31 41
1 2 8 30 35 40
1 2 8 31 33 36 40
1 2 8 14 33 36
1 2 8 9 21 33 36 42
1 2 8 9 15 33 36
1 2 5 8 9 15
1 2 3 7 8 9 15
1 2 3 4 8 9 15 16 17 18 19 20
1 2 5 8 9 21 42
1 2 3 7 8 9 21 42
1 2 3 4 8 9 16 17 18 19 20 21 42
1 2 5 8 14
1 2 3 7 8 14
1 2 3 4 8 14 16 17 18 19 20
1 2 5 8 31 40
1 2 3 7 8 31 40
1 2 3 4 8 16 18 31 40 41
1 2 3 4 8 14 16 18 31 41
1 2 3 4 8 9 16 18 21 31 41 42
1 2 3 4 8 9 15 16 18 31 41
1 2 3 4 8 16 17 18 19 20 31 40
1 2 8 30 31 33 36 40
1 2 5 8 30 31 40
1 2 3 7 8 30 31 40
1 2 3 4 8 16 18 30 31 40 41
1 2 3 4 8 14 16 18 30 31 41
1 2 3 4 8 9 16 18 21 30 31 41 42
1 2 3 4 8 9 15 16 18 30 31 41
1 2 3 4 8 16 17 18 19 20 30 31 40
1 6 8 31 40
1 6 8 14
1 6 8 9 21 42
1 6 8 9 15
1 6 8 30 31 40
1 6 8 11 19 20 31 40
8 11 13 31 40
8 11 13 14
8 9 11 13 21 42
8 9 11 13 15
8 9 10 11 13
1 2 8 11 19 20 31 33 36 40
1 2 8 11 13 31 33 36 40
1 2 8 11 13 14 33 36
1 2 8 9 11 13 21 33 36 42
1 2 8 9 11 13 15 33 36
1 2 8 9 10 11 13 33 36
1 2 5 8 9 10 11 13
1 2 3 7 8 9 10 11 13
1 2 5 8 9 11 13 15
1 2 3 7 8 9 11 13 15
1 2 5 8 9 11 13 21 42
1 2 3 7 8 9 11 13 21 42
1 2 5 8 11 13 14
1 2 3 7 8 11 13 14
1 2 5 8 11 13 31 40
1 2 3 7 8 11 13 31 40
1 2 3 4 8 11 13 16 18 31 40 41
1 2 3 4 8 11 13 14 16 18 31 41
1 2 3 4 8 9 11 13 16 18 21 31 41 42
1 2 3 4 8 9 11 13 15 16 18 31 41
1 2 3 4 8 9 10 11 13 16 18 31 41
1 2 8 11 14 19 20 33 36
1 2 8 9 11 19 20 21 33 36 42
1 2 8 9 11 15 19 20 33 36
1 2 8 9 10 11 19 20 33 36
1 2 5 8 9 10 11 19 20
1 2 3 7 8 9 10 11 19 20
1 2 3 4 8 9 10 11 16 17 18 19 20
1 2 5 8 9 11 15 19 20
1 2 3 7 8 9 11 15 19 20
1 2 3 4 8 9 11 15 16 17 18 19 20
1 2 5 8 9 11 19 20 21 42
1 2 3 7 8 9 11 19 20 21 42
1 2 3 4 8 9 11 16 17 18 19 20 21 42
1 2 5 8 11 14 19 20
1 2 3 7 8 11 14 19 20
1 2 3 4 8 11 14 16 17 18 19 20
1 2 5 8 11 19 20 31 40
1 2 3 7 8 11 19 20 31 40
1 2 3 4 8 11 16 18 19 20 31 40 41
1 2 3 4 8 11 14 16 18 19 20 31 41
1 2 3 4 8 9 11 16 18 19 20 21 31 41 42
1 2 3 4 8 9 11 15 16 18 19 20 31 41
1 2 3 4 8 9 10 11 16 18 19 20 31 41
1 2 3 4 8 11 16 17 18 19 20 31 40
1 6 8 11 13 31 40
1 6 8 11 13 14
1 6 8 9 11 13 21 42
1 6 8 9 11 13 15
1 6 8 9 10 11 13
1 6 8 11 14 19 20
1 6 8 9 11 19 20 21 42
1 6 8 9 11 15 19 20
1 6 8 9 10 11 19 20
8 11 13 30 31 40
2 8 11 13 30 31 33 36 40
2 5 8 11 13 30 31 40
2 3 7 8 11 13 30 31 40
2 3 4 8 11 13 16 18 30 31 40 41
2 3 4 8 11 13 14 16 18 30 31 41
2 3 4 8 9 11 13 16 18 21 30 31 41 42
2 3 4 8 9 11 13 15 16 18 30 31 41
2 3 4 8 9 10 11 13 16 18 30 31 41
1 2 8 11 19 20 30 35 40
1 2 8 11 13 30 31 33 36 40
1 2 5 8 11 13 30 31 40
1 2 3 7 8 11 13 30 31 40
1 2 3 4 8 11 13 16 18 30 31 40 41
1 2 3 4 8 11 13 14 16 18 30 31 41
1 2 3 4 8 9 11 13 16 18 21 30 31 41 42
1 2 3 4 8 9 11 13 15 16 18 30 31 41
1 2 3 4 8 9 10 11 13 16 18 30 31 41
1 2 8 11 19 20 30 31 33 36 40
1 2 5 8 11 19 20 30 31 40
1 2 3 7 8 11 19 20 30 31 40
1 2 3 4 8 11 16 18 19 20 30 31 40 41
1 2 3 4 8 11 14 16 18 19 20 30 31 41
1 2 3 4 8 9 11 16 18 19 20 21 30 31 41 42
1 2 3 4 8 9 11 15 16 18 19 20 30 31 41
1 2 3 4 8 9 10 11 16 18 19 20 30 31 41
1 2 3 4 8 11 16 17 18 19 20 30 31 40
1 2 8 9 10 11 19 20 30 35
1 2 8 9 10 11 19 20 21 22 29 30 35
1 2 8 9 10 11 19 20 21 22 24 29 30 35 39
1 2 8 9 10 11 19 20 21 22 24 25 29 30 35
1 6 8 11 13 30 31 40
1 6 8 11 19 20 30 31 40
8 12 15 30 38 40
8 10 12 31 40
8 10 12 14
8 9 10 12
8 10 12 30 31 40
2 8 10 12 30 31 33 36 40
2 5 8 10 12 30 31 40
2 3 7 8 10 12 30 31 40
2 3 4 8 10 12 16 18 30 31 40 41
2 3 4 8 10 12 14 16 18 30 31 41
2 3 4 8 9 10 12 16 18 30 31 41
1 2 8 10 12 30 31 33 36 40
1 2 5 8 10 12 30 31 40
1 2 3 7 8 10 12 30 31 40
1 2 3 4 8 10 12 16 18 30 31 40 41
1 2 3 4 8 10 12 14 16 18 30 31 41
1 2 3 4 8 9 10 12 16 18 30 31 41
1 2 3 4 8 10 12 16 17 18 19 20 30 31 40
1 6 8 10 12 30 31 40
8 12 15 31 40
8 12 14 15
8 9 12 15
2 8 12 15 30 35 40
8 12 15 30 31 40
2 8 12 15 30 31 33 36 40
2 5 8 12 15 30 31 40
2 3 7 8 12 15 30 31 40
2 3 4 8 12 15 16 18 30 31 40 41
2 3 4 8 12 14 15 16 18 30 31 41
2 3 4 8 9 12 15 16 18 30 31 41
1 2 8 12 15 30 35 40
1 2 8 12 15 30 31 33 36 40
1 2 5 8 12 15 30 31 40
1 2 3 7 8 12 15 30 31 40
1 2 3 4 8 12 15 16 18 30 31 40 41
1 2 3 4 8 12 14 15 16 18 30 31 41
1 2 3 4 8 9 12 15 16 18 30 31 41
1 2 3 4 8 12 15 16 17 18 19 20 30 31 40
1 6 8 12 15 30 31 40
8 12 21 31 40 42
8 12 14 21 42
8 9 12 21 42
2 8 12 21 30 35 40 42
8 12 21 30 31 40 42
8 10 12 21 22 29 30 31 40
8 10 12 21 22 24 25 29 30 31 40
8 12 15 21 22 29 30 31 40
8 12 15 21 22 24 25 29 30 31 40
2 8 12 21 30 31 33 36 40 42
2 5 8 12 21 30 31 40 42
2 3 7 8 12 21 30 31 40 42
2 3 4 8 12 16 18 21 30 31 40 41 42
2 3 4 8 12 14 16 18 21 30 31 41 42
2 3 4 8 9 12 16 18 21 30 31 41 42
2 3 7 8 10 12 21 22 29 30 31 40
2 3 7 8 10 12 21 22 24 25 29 30 31 40
2 3 7 8 12 15 21 22 29 30 31 40
2 3 7 8 12 15 21 22 24 25 29 30 31 40
2 5 8 10 12 21 22 29 30 31 40
2 5 8 10 12 21 22 24 25 29 30 31 40
2 5 8 12 15 21 22 29 30 31 40
2 5 8 12 15 21 22 24 25 29 30 31 40
2 8 10 12 21 22 29 30 31 33 36 40
2 8 10 12 21 22 24 25 29 30 31 33 36 40
2 8 12 15 21 22 29 30 31 33 36 40
2 8 12 15 21 22 24 25 29 30 31 33 36 40
2 8 12 15 21 22 29 30 35 40
2 8 12 15 21 22 24 29 30 35 39 40
2 8 12 15 21 22 24 25 29 30 35 40
1 2 8 12 21 30 35 40 42
1 2 8 12 21 30 31 33 36 40 42
1 2 5 8 12 21 30 31 40 42
1 2 3 7 8 12 21 30 31 40 42
1 2 3 4 8 12 16 18 21 30 31 40 41 42
1 2 3 4 8 12 14 16 18 21 30 31 41 42
1 2 3 4 8 9 12 16 18 21 30 31 41 42
1 2 3 4 8 12 16 17 18 19 20 21 30 31 40 42
1 2 3 7 8 10 12 21 22 29 30 31 40
1 2 3 7 8 10 12 21 22 24 25 29 30 31 40
1 2 3 7 8 12 15 21 22 29 30 31 40
1 2 3 7 8 12 15 21 22 24 25 29 30 31 40
1 2 5 8 10 12 21 22 29 30 31 40
1 2 5 8 10 12 21 22 24 25 29 30 31 40
1 2 5 8 12 15 21 22 29 30 31 40
1 2 5 8 12 15 21 22 24 25 29 30 31 40
1 2 8 10 12 21 22 29 30 31 33 36 40
1 2 8 10 12 21 22 24 25 29 30 31 33 36 40
1 2 8 12 15 21 22 29 30 31 33 36 40
1 2 8 12 15 21 22 24 25 29 30 31 33 36 40
1 2 8 12 15 21 22 29 30 35 40
1 2 8 12 15 21 22 24 29 30 35 39 40
1 2 8 12 15 21 22 24 25 29 30 35 40
1 6 8 12 21 30 31 40 42
1 6 8 10 12 21 22 29 30 31 40
1 6 8 10 12 21 22 24 25 29 30 31 40
1 6 8 12 15 21 22 29 30 31 40
1 6 8 12 15 21 22 24 25 29 30 31 40
2 23 24 30 35 39
2 23 24 25 29 30 35
1 2 23 24 30 35 39
1 2 23 24 25 29 30 35
1 2 11 19 20 23 24 30 35 39
1 2 11 19 20 23 24 25 29 30 35
1 2 10 11 19 20 23 24 30 35 39
1 2 10 11 19 20 23 24 25 29 30 35
43 21 22 23 24 28 29 30 39
2 21 22 23 24 29 30 35 39
21 22 23 24 25 28 29 30 31 32 33 34
2 21 22 23 24 25 29 30 35
1 2 21 22 23 24 29 30 35 39
1 2 21 22 23 24 25 29 30 35
43 21 22 23 24 25 28 29 30
43 11 13 21 22 23 24 28 29 30 39
43 11 13 21 22 23 24 25 28 29 30
1 2 11 19 20 21 22 23 24 29 30 35 39
1 2 11 19 20 21 22 23 24 25 29 30 35
43 10 11 13 21 22 23 24 28 29 30 39
43 10 11 13 21 22 23 24 25 28 29 30
1 2 10 11 19 20 21 22 23 24 29 30 35 39
1 2 10 11 19 20 21 22 23 24 25 29 30 35
43 10 12 21 22 23 24 28 29 30 39
43 10 12 21 22 23 24 25 28 29 30
1 2 9 10 11 19 20 23 24 30 35 39
1 2 9 10 11 19 20 23 24 25 29 30 35
43 9 10 11 13 21 22 23 24 25 28 29 30
43 9 10 11 13 21 22 23 24 28 29 30 39
1 2 9 10 11 19 20 21 22 23 24 25 29 30 35
1 2 9 10 11 19 20 21 22 23 24 29 30 35 39
43 9 10 12 21 22 23 24 25 28 29 30
43 9 10 12 21 22 23 24 28 29 30 39
43 8 21 23 24 28 39 40 42
2 8 23 24 30 35 39 40
8 23 24 25 29 30 31 40
8 21 23 24 25 29 30 31 40 42
8 21 22 23 24 25 29 30 31 40
2 3 7 8 23 24 25 29 30 31 40
2 3 7 8 21 23 24 25 29 30 31 40 42
2 3 7 8 21 22 23 24 25 29 30 31 40
2 5 8 23 24 25 29 30 31 40
2 5 8 21 23 24 25 29 30 31 40 42
2 5 8 21 22 23 24 25 29 30 31 40
2 3 7 8 21 23 24 25 28 29 30 31 33 34 40 42
2 3 7 8 21 22 23 24 25 28 29 30 31 33 34 40
2 5 8 21 23 24 25 28 29 30 31 33 34 40 42
2 5 8 21 22 23 24 25 28 29 30 31 33 34 40
2 8 23 24 25 29 30 31 33 36 40
2 8 21 23 24 25 29 30 31 33 36 40 42
2 8 21 22 23 24 25 29 30 31 33 36 40
2 8 23 24 25 29 30 35 40
2 8 21 23 24 25 29 30 35 40 42
2 8 21 22 23 24 25 29 30 35 40
1 2 8 23 24 30 35 39 40
1 2 3 7 8 23 24 25 29 30 31 40
1 2 3 7 8 21 23 24 25 29 30 31 40 42
1 2 3 7 8 21 22 23 24 25 29 30 31 40
1 2 5 8 23 24 25 29 30 31 40
1 2 5 8 21 23 24 25 29 30 31 40 42
1 2 5 8 21 22 23 24 25 29 30 31 40
1 2 3 7 8 21 23 24 25 28 29 30 31 33 34 40 42
1 2 3 7 8 21 22 23 24 25 28 29 30 31 33 34 40
1 2 5 8 21 23 24 25 28 29 30 31 33 34 40 42
1 2 5 8 21 22 23 24 25 28 29 30 31 33 34 40
1 2 8 23 24 25 29 30 31 33 36 40
1 2 8 21 23 24 25 29 30 31 33 36 40 42
1 2 8 21 22 23 24 25 29 30 31 33 36 40
1 2 8 23 24 25 29 30 35 40
1 2 8 21 23 24 25 29 30 35 40 42
1 2 8 21 22 23 24 25 29 30 35 40
1 6 8 23 24 25 29 30 31 40
1 6 8 21 23 24 25 29 30 31 40 42
1 6 8 21 22 23 24 25 29 30 31 40
43 8 21 23 24 25 28 29 30 40 42
43 8 11 13 21 23 24 28 39 40 42
43 8 11 13 21 23 24 28 30 39 40 42
43 8 11 13 21 23 24 25 28 29 30 40 42
43 8 9 10 11 13 21 22 23 24 25 28 29 30
43 8 11 13 21 22 23 24 25 28 29 30 40
43 8 9 10 11 13 21 22 23 24 28 29 30 39
43 8 11 13 21 22 23 24 28 29 30 39 40
8 11 13 23 24 25 29 30 31 40
8 11 13 21 23 24 25 29 30 31 40 42
8 11 13 21 22 23 24 25 29 30 31 40
2 3 7 8 11 13 23 24 25 29 30 31 40
2 3 7 8 11 13 21 23 24 25 29 30 31 40 42
2 3 7 8 11 13 21 22 23 24 25 29 30 31 40
2 5 8 11 13 23 24 25 29 30 31 40
2 5 8 11 13 21 23 24 25 29 30 31 40 42
2 5 8 11 13 21 22 23 24 25 29 30 31 40
2 3 7 8 11 13 21 23 24 25 28 29 30 31 33 34 40 42
2 3 7 8 11 13 21 22 23 24 25 28 29 30 31 33 34 40
2 5 8 11 13 21 23 24 25 28 29 30 31 33 34 40 42
2 5 8 11 13 21 22 23 24 25 28 29 30 31 33 34 40
2 8 11 13 23 24 25 29 30 31 33 36 40
2 8 11 13 21 23 24 25 29 30 31 33 36 40 42
2 8 11 13 21 22 23 24 25 29 30 31 33 36 40
1 2 8 11 19 20 23 24 30 35 39 40
1 2 3 7 8 11 13 23 24 25 29 30 31 40
1 2 3 7 8 11 13 21 23 24 25 29 30 31 40 42
1 2 3 7 8 11 13 21 22 23 24 25 29 30 31 40
1 2 5 8 11 13 23 24 25 29 30 31 40
1 2 5 8 11 13 21 23 24 25 29 30 31 40 42
1 2 5 8 11 13 21 22 23 24 25 29 30 31 40
1 2 3 7 8 11 13 21 23 24 25 28 29 30 31 33 34 40 42
1 2 3 7 8 11 13 21 22 23 24 25 28 29 30 31 33 34 40
1 2 5 8 11 13 21 23 24 25 28 29 30 31 33 34 40 42
1 2 5 8 11 13 21 22 23 24 25 28 29 30 31 33 34 40
1 2 8 11 13 23 24 25 29 30 31 33 36 40
1 2 8 11 13 21 23 24 25 29 30 31 33 36 40 42
1 2 8 11 13 21 22 23 24 25 29 30 31 33 36 40
1 2 3 7 8 11 19 20 23 24 25 29 30 31 40
1 2 3 7 8 11 19 20 21 23 24 25 29 30 31 40 42
1 2 3 7 8 11 19 20 21 22 23 24 25 29 30 31 40
1 2 5 8 11 19 20 23 24 25 29 30 31 40
1 2 5 8 11 19 20 21 23 24 25 29 30 31 40 42
1 2 5 8 11 19 20 21 22 23 24 25 29 30 31 40
1 2 3 7 8 11 19 20 21 23 24 25 28 29 30 31 33 34 40 42
1 2 3 7 8 11 19 20 21 22 23 24 25 28 29 30 31 33 34 40
1 2 5 8 11 19 20 21 23 24 25 28 29 30 31 33 34 40 42
1 2 5 8 11 19 20 21 22 23 24 25 28 29 30 31 33 34 40
1 2 8 11 19 20 23 24 25 29 30 31 33 36 40
1 2 8 11 19 20 21 23 24 25 29 30 31 33 36 40 42
1 2 8 11 19 20 21 22 23 24 25 29 30 31 33 36 40
1 2 8 11 19 20 23 24 25 29 30 35 40
1 2 8 9 10 11 19 20 23 24 25 29 30 35
1 2 8 11 19 20 21 23 24 25 29 30 35 40 42
1 2 8 9 10 11 19 20 21 22 23 24 25 29 30 35
1 2 8 11 19 20 21 22 23 24 25 29 30 35 40
1 2 8 9 10 11 19 20 23 24 30 35 39
1 2 8 9 10 11 19 20 21 22 23 24 29 30 35 39
1 6 8 11 13 23 24 25 29 30 31 40
1 6 8 11 13 21 23 24 25 29 30 31 40 42
1 6 8 11 13 21 22 23 24 25 29 30 31 40
1 6 8 11 19 20 23 24 25 29 30 31 40
1 6 8 11 19 20 21 23 24 25 29 30 31 40 42
1 6 8 11 19 20 21 22 23 24 25 29 30 31 40
8 10 12 23 24 25 29 30 31 40
2 3 7 8 10 12 23 24 25 29 30 31 40
2 5 8 10 12 23 24 25 29 30 31 40
2 8 10 12 23 24 25 29 30 31 33 36 40
1 2 3 7 8 10 12 23 24 25 29 30 31 40
1 2 5 8 10 12 23 24 25 29 30 31 40
1 2 8 10 12 23 24 25 29 30 31 33 36 40
1 6 8 10 12 23 24 25 29 30 31 40
2 8 12 15 23 24 30 35 39 40
8 12 15 23 24 25 29 30 31 40
2 3 7 8 12 15 23 24 25 29 30 31 40
2 5 8 12 15 23 24 25 29 30 31 40
2 8 12 15 23 24 25 29 30 31 33 36 40
2 8 12 15 23 24 25 29 30 35 40
1 2 8 12 15 23 24 30 35 39 40
1 2 3 7 8 12 15 23 24 25 29 30 31 40
1 2 5 8 12 15 23 24 25 29 30 31 40
1 2 8 12 15 23 24 25 29 30 31 33 36 40
1 2 8 12 15 23 24 25 29 30 35 40
1 6 8 12 15 23 24 25 29 30 31 40
2 8 12 21 23 24 30 35 39 40 42
43 8 12 21 23 24 28 30 39 40 42
43 8 12 21 23 24 25 28 29 30 40 42
43 8 9 10 12 21 22 23 24 25 28 29 30
43 8 12 15 21 22 23 24 25 28 29 30 40
43 8 10 12 21 22 23 24 25 28 29 30 40
43 8 9 10 12 21 22 23 24 28 29 30 39
43 8 10 12 21 22 23 24 28 29 30 39 40
43 8 12 15 21 22 23 24 28 29 30 39 40
8 12 21 23 24 25 29 30 31 40 42
8 12 15 21 22 23 24 25 29 30 31 40
8 10 12 21 22 23 24 25 29 30 31 40
2 3 7 8 12 21 23 24 25 29 30 31 40 42
2 3 7 8 12 15 21 22 23 24 25 29 30 31 40
2 3 7 8 10 12 21 22 23 24 25 29 30 31 40
2 5 8 12 21 23 24 25 29 30 31 40 42
2 5 8 12 15 21 22 23 24 25 29 30 31 40
2 5 8 10 12 21 22 23 24 25 29 30 31 40
2 3 7 8 12 21 23 24 25 28 29 30 31 33 34 40 42
2 3 7 8 12 15 21 22 23 24 25 28 29 30 31 33 34 40
2 3 7 8 10 12 21 22 23 24 25 28 29 30 31 33 34 40
2 5 8 12 21 23 24 25 28 29 30 31 33 34 40 42
2 5 8 12 15 21 22 23 24 25 28 29 30 31 33 34 40
2 5 8 10 12 21 22 23 24 25 28 29 30 31 33 34 40
2 8 12 21 23 24 25 29 30 31 33 36 40 42
2 8 12 15 21 22 23 24 25 29 30 31 33 36 40
2 8 10 12 21 22 23 24 25 29 30 31 33 36 40
2 8 12 21 23 24 25 29 30 35 40 42
2 8 12 15 21 22 23 24 25 29 30 35 40
2 8 12 15 21 22 23 24 29 30 35 39 40
1 2 8 12 21 23 24 30 35 39 40 42
1 2 3 7 8 12 21 23 24 25 29 30 31 40 42
1 2 3 7 8 12 15 21 22 23 24 25 29 30 31 40
1 2 3 7 8 10 12 21 22 23 24 25 29 30 31 40
1 2 5 8 12 21 23 24 25 29 30 31 40 42
1 2 5 8 12 15 21 22 23 24 25 29 30 31 40
1 2 5 8 10 12 21 22 23 24 25 29 30 31 40
1 2 3 7 8 12 21 23 24 25 28 29 30 31 33 34 40 42
1 2 3 7 8 12 15 21 22 23 24 25 28 29 30 31 33 34 40
1 2 3 7 8 10 12 21 22 23 24 25 28 29 30 31 33 34 40
1 2 5 8 12 21 23 24 25 28 29 30 31 33 34 40 42
1 2 5 8 12 15 21 22 23 24 25 28 29 30 31 33 34 40
1 2 5 8 10 12 21 22 23 24 25 28 29 30 31 33 34 40
1 2 8 12 21 23 24 25 29 30 31 33 36 40 42
1 2 8 12 15 21 22 23 24 25 29 30 31 33 36 40
1 2 8 10 12 21 22 23 24 25 29 30 31 33 36 40
1 2 8 12 21 23 24 25 29 30 35 40 42
1 2 8 12 15 21 22 23 24 25 29 30 35 40
1 2 8 12 15 21 22 23 24 29 30 35 39 40
1 6 8 12 21 23 24 25 29 30 31 40 42
1 6 8 12 15 21 22 23 24 25 29 30 31 40
1 6 8 10 12 21 22 23 24 25 29 30 31 40
 Analysis time: 63.42s