 Minimal siphons 
2 8 14 23 25 30 32 33
1 8 14 23 24 25
8 9 14 23 24
12 15
7 9
6 14 24
14 16
6 11 20
6 11 12 20
11 12 13 14 17
6 7 11 12 20
8 13 23
5 6 7 8 10
6 7 8 14 24
7 8 9
7 8 9 14 24
1 12 28
1 7 25
1 5 11 31
1 11 26
1 11 18
1 6 29
1 6 19
1 6 7 29
1 6 7 19
1 5 12 15 31
1 12 15 26
1 11 12 26
1 11 12 18
1 12 15 18
1 5 11 12 31
1 8 27
1 7 8 25
1 6 7 8 29
1 8 14 24 25 27
1 8 9 14 24 27
1 7 8 14 24 25
1 8 9 11 14 23 24 31
1 8 9 14 23 24 29
1 8 9 11 14 20 23 24 29
1 8 9 11 14 17 23 24 29
1 8 9 14 15 23 24 29
2 7 14 21 25 30 32 33
2 6 14 21 30 32 33
2 5 14 33
2 13 21
2 12 22
2 3
1 2 4
2 5 12 32
2 6 12 30 32
2 6 11 30
2 6 12 29 32
2 6 12 20 32
2 6 12 19 32
2 6 12 28 30
2 6 14 29 33
2 6 14 19 33
2 6 12 14 20 28 33
2 6 14 20 21 32 33
2 6 14 20 21 28 33
2 6 14 20 21 22 33
2 6 14 15 20 21 33
2 6 14 21 28 30 33
2 6 14 21 22 30 33
2 6 14 15 21 30 33
2 7 12 25 30 32
2 7 11 25 30
2 7 12 25 29 32
2 7 12 20 25 32
2 7 12 19 25 32
2 7 12 25 28 30
2 7 14 25 29 33
2 7 14 24 25 33
2 7 14 19 25 33
2 7 11 14 20 25 33
2 7 12 14 24 25 32
2 7 12 14 20 25 28 33
2 7 14 21 24 25
2 7 14 20 21 25 32 33
2 7 14 20 21 25 28 33
2 7 14 20 21 22 25 33
2 7 14 15 20 21 25 33
2 7 14 21 25 28 30 33
2 7 14 21 22 25 30 33
2 7 14 15 21 25 30 33
2 8 12 25 27 30 32
2 8 11 25 27 30
2 8 9 11 27 30
2 8 9 12 27 30 32
2 8 9 12 27 29 32
2 8 9 12 20 27 32
2 8 9 12 19 27 32
2 8 9 12 27 28 30
2 8 12 25 27 29 32
2 8 12 20 25 27 32
2 8 12 19 25 27 32
2 8 12 25 27 28 30
2 8 14 21 25 27 30 32 33
2 8 14 25 27 29 33
2 8 9 14 27 29 33
2 8 9 14 24 27 33
2 8 9 14 19 27 33
2 8 14 24 25 27 33
2 8 14 19 25 27 33
2 8 9 11 14 20 27 33
2 8 11 14 20 25 27 33
2 8 9 12 14 24 27 32
2 8 9 12 14 20 27 28 33
2 8 12 14 24 25 27 32
2 8 12 14 20 25 27 28 33
2 8 9 14 21 27 30 32 33
2 8 9 14 21 24 27
2 8 9 14 20 21 27 32 33
2 8 9 14 20 21 27 28 33
2 8 9 14 20 21 22 27 33
2 8 9 14 15 20 21 27 33
2 8 9 14 21 27 28 30 33
2 8 9 14 21 22 27 30 33
2 8 9 14 15 21 27 30 33
2 7 8 14 21 24 25
2 8 14 21 24 25 27
2 8 14 20 21 25 27 32 33
2 8 14 20 21 25 27 28 33
2 8 14 20 21 22 25 27 33
2 8 14 15 20 21 25 27 33
2 8 14 21 25 27 28 30 33
2 8 14 21 22 25 27 30 33
2 8 14 15 21 25 27 30 33
2 8 9 14 23 30 32 33
2 6 8 14 23 30 32 33
2 6 8 14 20 23 32 33
2 6 8 14 20 23 28 33
2 6 8 14 20 22 23 33
2 6 8 14 15 20 23 33
2 6 8 14 23 28 30 33
2 6 8 14 22 23 30 33
2 6 8 14 15 23 30 33
2 8 9 14 23 29 33
2 8 9 14 20 23 32 33
2 8 9 14 19 23 33
2 8 9 14 20 23 28 33
2 8 9 14 20 22 23 33
2 8 9 14 15 20 23 33
2 8 9 11 14 20 23 33
2 8 9 14 21 23 24
1 2 8 9 11 14 23 24 31
2 8 9 14 21 23 24 29
2 8 9 14 23 28 30 33
2 8 9 14 22 23 30 33
2 8 9 14 15 23 30 33
2 8 9 11 14 23 30 33
2 8 9 11 14 23 24 30
2 8 14 23 25 29 33
2 8 14 23 24 25 33
2 8 14 20 23 25 32 33
2 8 14 19 23 25 33
2 8 14 20 23 25 28 33
2 8 14 20 22 23 25 33
2 8 14 15 20 23 25 33
2 8 11 14 20 23 25 33
2 8 14 23 24 25 32
2 8 14 22 23 24 25
2 8 14 21 23 24 25
2 8 14 21 23 24 25 29
2 8 14 23 25 28 30 33
2 8 14 22 23 25 30 33
2 8 14 15 23 25 30 33
2 8 11 14 23 25 30 33
2 8 11 14 23 24 25 30
2 8 14 15 23 24 25 30
2 8 14 23 24 25 28 30
 Minimal traps 
1 5 11 25 30 32
2 5 11 30 32
6 11 20
12 15
7 9
8 13 23
14 16
11 12 13 14 17
6 14 24
5 6 7 8 10
6 9 13 23 24
2 6 11 30
2 12 22
2 13 21
2 3
2 12 13 21
2 3 6 11 20
2 5 12 32
2 5 9 13 23 24 33
2 5 14 33
2 5 11 20 32
2 5 9 11 20 22 23 33
2 5 8 11 20 22 23 33
2 5 11 20 21 22 33
2 5 11 15 20 21 33
2 5 8 11 15 20 23 33
2 5 9 11 15 20 23 33
2 5 9 11 13 20 23 33
2 5 9 11 22 23 30 33
2 5 8 11 22 23 30 33
2 5 11 21 22 30 33
2 5 11 15 21 30 33
2 5 8 11 15 23 30 33
2 5 9 11 15 23 30 33
2 5 9 11 13 23 30 33
1 6 29
1 11 26
1 12 28
1 7 25
1 8 27
1 2 4
1 2 3
1 7 8 27
1 2 4 7 9
1 2 3 7 9
1 2 4 12 15
1 2 3 12 15
1 11 18
1 6 11 28 30
1 6 13 23 24 25
1 6 19
1 6 13 21 24 25
1 6 9 13 21 24 27
1 6 12 21 22 24 25
1 6 9 12 21 22 24 27
1 6 8 12 19 22 23
1 6 9 12 22 23 24 27
1 6 12 22 23 24 25
1 6 11 25 30
1 6 9 11 27 30
1 2 4 6 11 20
1 2 3 6 11 20
1 2 4 6 11 15 20
1 2 3 6 11 15 20
1 2 4 6 9 11 20
1 2 3 6 9 11 20
1 5 12 29 32
1 5 13 23 25 29 33
1 5 14 29 33
1 5 14 24 25 33
1 5 14 19 33
1 5 9 14 24 27 33
1 5 13 21 29 33
1 5 13 21 24 25 33
1 5 13 19 21 33
1 5 9 13 21 24 27 33
1 5 9 13 23 29 33
1 5 9 13 23 24 27 33
1 5 9 13 19 23 33
1 5 13 23 24 25 33
1 5 13 19 23 25 33
1 5 12 23 24 25 32
1 5 12 19 32
1 5 12 14 24 25 32
1 5 9 12 14 24 27 32
1 5 12 14 19 24 32
1 2 5 12 14 24 32
1 5 8 10 12 14 19 24 32
1 2 5 8 10 12 14 24 32
1 5 9 12 14 19 24 32
1 2 5 9 12 14 24 32
1 5 12 21 24 25 32
1 5 12 19 21 22 33
1 5 9 12 21 24 27 32
1 5 9 12 21 22 24 27 33
1 5 12 21 22 24 25 33
1 5 8 12 23 28 32
1 5 7 8 12 23 28 32
1 5 8 12 19 23 32
1 5 8 12 19 22 23 33
1 5 6 8 12 19 22 23
1 5 9 12 19 22 23 33
1 5 12 19 22 23 25 33
1 5 8 12 23 24 28 32
1 5 9 12 23 24 27 32
1 5 9 12 22 23 24 27 33
1 5 12 22 23 24 25 33
1 5 12 21 22 29 33
1 5 8 12 22 23 29 33
1 5 6 8 12 22 23 29
1 5 9 12 22 23 29 33
1 5 12 22 23 25 29 33
1 5 11 31
1 5 11 29 30 32
1 5 9 11 23 28 30 33
1 5 8 11 23 28 30 33
1 5 11 21 28 30 33
1 5 11 14 28 30 33
1 5 11 28 30 32
1 5 11 19 30 32
1 5 11 19 20 32
1 5 11 20 28 32
1 5 11 14 20 28 33
1 5 11 19 20 21 22 33
1 5 11 15 19 20 21 33
1 5 11 19 21 22 30 33
1 5 11 15 19 21 30 33
1 5 11 20 21 28 33
1 5 8 11 19 20 22 23 33
1 5 8 11 15 19 20 23 33
1 5 8 11 19 22 23 30 33
1 5 8 11 15 19 23 30 33
1 5 8 11 20 23 28 33
1 5 8 11 12 23 28 32
1 5 8 11 20 23 28 32
1 5 8 11 23 28 30 32
1 5 6 8 11 23 28 30
1 5 9 11 27 30 32
1 5 9 11 20 27 32
1 5 9 11 14 27 30 33
1 2 5 9 11 12 14 24 32
1 5 9 11 14 20 27 33
1 5 9 11 20 21 22 27 33
1 5 9 11 15 20 21 27 33
1 5 9 11 13 20 21 27 33
1 5 9 11 21 22 27 30 33
1 5 9 11 15 21 27 30 33
1 5 9 11 13 21 27 30 33
1 5 6 9 11 13 18 19 23
1 5 9 11 19 20 22 23 33
1 5 9 11 15 19 20 23 33
1 5 9 11 19 22 23 30 33
1 5 9 11 15 19 23 30 33
1 5 9 11 20 22 23 27 33
1 5 9 11 15 20 23 27 33
1 5 9 11 13 20 23 27 33
1 5 9 11 22 23 27 30 33
1 5 9 11 15 23 27 30 33
1 5 9 11 13 23 27 30 33
1 5 9 11 20 23 28 33
1 5 9 11 12 19 23 28 33
1 5 11 20 29 32
1 5 6 8 11 12 22 23 29
1 5 11 20 21 22 29 33
1 5 11 15 20 21 29 33
1 5 8 11 20 22 23 29 33
1 5 8 11 15 20 23 29 33
1 5 9 11 20 22 23 29 33
1 5 9 11 15 20 23 29 33
1 5 11 21 22 29 30 33
1 5 11 15 21 29 30 33
1 5 8 11 22 23 29 30 33
1 5 8 11 15 23 29 30 33
1 5 6 8 11 15 23 29 30
1 5 6 8 11 22 23 29 30
1 5 6 8 11 23 28 29 30
1 5 9 11 22 23 29 30 33
1 5 9 11 15 23 29 30 33
1 5 11 20 25 32
1 5 11 12 19 25 32
1 5 11 14 20 25 33
1 5 11 12 14 19 25 32 33
1 5 11 12 14 17 19 25 32
1 5 11 14 17 20 25 32
1 5 11 14 20 24 25 33
1 5 11 12 14 24 25 32
1 5 11 14 20 24 25 32
1 5 11 20 21 25 32
1 5 11 12 19 21 25 32
1 5 11 20 21 25 28 33
1 5 11 20 21 22 25 33
1 5 11 15 20 21 25 33
1 5 11 13 20 21 25 33
1 5 11 20 21 24 25 32
1 5 11 12 21 24 25 32
1 5 11 20 23 25 28 33
1 5 11 20 22 23 25 33
1 5 11 15 20 23 25 33
1 5 11 13 20 23 25 33
1 5 11 23 25 28 30 33
1 5 11 21 25 28 30 33
1 5 11 14 25 30 33
1 5 6 11 25 30
1 5 6 11 14 17 25 30
1 5 11 21 22 25 30 33
1 5 11 15 21 25 30 33
1 5 11 13 21 25 30 33
1 5 6 11 13 21 25 30
1 5 6 11 15 21 25 30
1 5 6 11 21 22 25 30
1 5 6 11 21 25 28 30
1 5 11 22 23 25 30 33
1 5 11 15 23 25 30 33
1 5 11 13 23 25 30 33
1 5 6 11 15 23 25 30
1 5 6 11 22 23 25 30
1 5 6 11 23 25 28 30
 Analysis time: 7.525s