19/07/2021 15:26:40[DEBUG] pflow_file:  ../analysis/analisis_11_18072021/gen_nets/20210719-151113_2/net.pflow  
19/07/2021 15:26:40[DEBUG] output_folder:  ../analysis/analisis_11_18072021/gen_nets/20210719-151113_2/  
19/07/2021 15:26:40[DEBUG] html_path:  ../analysis/analisis_11_18072021/gen_nets/20210719-151113_2/  
19/07/2021 15:26:40[DEBUG] txt_path:  ../analysis/analisis_11_18072021/gen_nets/20210719-151113_2/txt_info  

--------------------------------------------------------------------------   
19/07/2021 15:26:40[INFO] Ejecutando petrinator para conocer estado de la red...   
--------------------------------------------------------------------------
   
19/07/2021 15:26:44[ERROR] La red ingresada no tiene deadlock, cerrando analisis 
  
