 Minimal siphons 
13 16 37
12 20 38
16 23 35 36
15 23 35
2 22 32
8 10
1 6 39
6 9
5 20 31
20 22 28
19 22 29
22 23 24 25
18 19 20 21
1 3
5 6 7 8 11
1 3 5 6 7 8 11
2 8 27
1 2 4
1 2 3
42 15 22
42 15 22 23
16 22 36
15 16 17
42 15 16 22
42 15 16 17 22
42 5 15 16 20 22 31
42 5 8 10 11 15 16 22
42 5 15 16 17 20 22 31
42 5 6 15 16 20 22 31
42 5 6 8 10 11 15 16 22
42 5 6 7 8 11 15 16 22
42 5 6 15 16 17 20 22 31
42 6 9 15 16 22
42 6 9 15 16 17 22
42 6 9 15 16 17 20 22 31
1 42 3 15 16 22
1 42 3 15 16 17 22
1 42 3 5 15 16 20 22 31
1 42 3 5 8 10 11 15 16 22
1 42 3 5 15 16 17 20 22 31
1 42 6 15 16 22 39
1 42 3 6 9 15 16 22
1 42 3 5 6 15 16 20 22 31
1 42 3 5 6 8 10 11 15 16 22
1 42 3 5 6 7 8 11 15 16 22
1 42 6 15 16 17 22 39
1 42 3 6 9 15 16 17 22
1 42 6 15 16 17 20 22 31 39
1 42 3 6 9 15 16 17 20 22 31
1 42 3 5 6 15 16 17 20 22 31
1 42 2 4 15 16 22
1 42 2 3 15 16 22
1 42 2 3 5 6 7 8 11 15 16 22
1 42 2 4 5 6 7 8 11 15 16 22
42 2 5 6 7 8 11 15 16 22 32
1 42 2 3 5 6 8 10 11 15 16 22
1 42 2 4 5 6 8 10 11 15 16 22
42 15 16 22 23
42 15 16 17 22 23
42 15 16 17 22 23 24
42 5 15 16 20 22 23 31
42 5 8 10 11 15 16 22 23
42 5 15 16 17 20 22 23 31
42 5 15 16 17 20 22 23 24 31
42 5 6 15 16 20 22 23 31
42 5 6 8 10 11 15 16 22 23
42 5 6 7 8 11 15 16 22 23
42 5 6 15 16 17 20 22 23 31
42 5 6 15 16 17 20 22 23 24 31
42 6 9 15 16 22 23
42 6 9 15 16 17 22 23
42 6 9 15 16 17 22 23 24
42 6 9 15 16 17 20 22 23 31
42 6 9 15 16 17 20 22 23 24 31
1 42 3 15 16 22 23
1 42 3 15 16 17 22 23
1 42 3 15 16 17 22 23 24
1 42 3 5 15 16 20 22 23 31
1 42 3 5 8 10 11 15 16 22 23
1 42 3 5 15 16 17 20 22 23 31
1 42 3 5 15 16 17 20 22 23 24 31
1 42 6 15 16 22 23 39
1 42 3 6 9 15 16 22 23
1 42 3 5 6 15 16 20 22 23 31
1 42 3 5 6 8 10 11 15 16 22 23
1 42 3 5 6 7 8 11 15 16 22 23
1 42 6 15 16 17 22 23 39
1 42 3 6 9 15 16 17 22 23
1 42 6 15 16 17 22 23 24 39
1 42 3 6 9 15 16 17 22 23 24
1 42 6 15 16 17 20 22 23 31 39
1 42 3 6 9 15 16 17 20 22 23 31
1 42 3 5 6 15 16 17 20 22 23 31
1 42 6 15 16 17 20 22 23 24 31 39
1 42 3 6 9 15 16 17 20 22 23 24 31
1 42 3 5 6 15 16 17 20 22 23 24 31
1 42 2 4 15 16 22 23
1 42 2 3 15 16 22 23
1 42 2 3 5 6 7 8 11 15 16 22 23
1 42 2 4 5 6 7 8 11 15 16 22 23
42 2 5 6 7 8 11 15 16 22 23 32
1 42 2 3 5 6 8 10 11 15 16 22 23
1 42 2 4 5 6 8 10 11 15 16 22 23
12 16 40
2 12 41
12 15 26
2 12 30
2 8 12 15 26 27
2 12 15 22 26 32
2 12 15 22 23 26 32
2 6 7 8 12 15 22 26 32 39
2 6 7 8 9 12 15 22 26 32
2 5 6 7 8 11 12 15 22 26 32
2 6 7 8 12 15 22 23 26 32 39
2 6 7 8 9 12 15 22 23 26 32
2 5 6 7 8 11 12 15 22 23 26 32
2 8 10 12 15 22 26 32
2 8 10 12 15 22 23 26 32
12 16 34
12 16 22 26 36
12 16 22 23 26 36
2 12 16 22 36 41
2 8 12 16 22 27 34 36
2 12 16 22 32 34 36
2 12 16 22 30 36
1 2 6 12 16 22 34 36 39
1 2 4 12 16 22 34 36
1 2 3 12 16 22 34 36
1 2 3 12 16 22 26 36
1 2 4 12 16 22 26 36
1 2 6 12 16 22 26 36 39
1 2 4 6 9 12 16 22 26 36
1 2 3 6 9 12 16 22 26 36
1 2 4 6 9 12 16 22 34 36
1 2 3 6 9 12 16 22 34 36
2 12 16 22 30 32 36
2 12 16 22 26 32 36
2 8 10 12 16 22 32 34 36
2 6 7 8 12 16 22 32 34 36 39
2 6 7 8 12 16 22 30 36 39
1 2 6 7 8 12 16 22 34 36 39
1 2 6 7 8 12 16 22 26 36 39
1 2 4 6 7 8 9 12 16 22 26 36
1 2 3 6 7 8 9 12 16 22 26 36
1 2 3 5 6 7 8 11 12 16 22 26 36
1 2 4 5 6 7 8 11 12 16 22 26 36
1 2 4 6 7 8 9 12 16 22 34 36
1 2 3 6 7 8 9 12 16 22 34 36
1 2 3 5 6 7 8 11 12 16 22 34 36
1 2 4 5 6 7 8 11 12 16 22 34 36
2 6 7 8 9 12 16 22 30 36
2 5 6 7 8 11 12 16 22 30 36
2 6 7 8 12 16 22 30 32 36 39
2 6 7 8 12 16 22 26 32 36 39
2 6 7 8 9 12 16 22 26 32 36
2 5 6 7 8 11 12 16 22 26 32 36
2 6 7 8 9 12 16 22 30 32 36
2 5 6 7 8 11 12 16 22 30 32 36
2 6 7 8 9 12 16 22 32 34 36
2 5 6 7 8 11 12 16 22 32 34 36
2 8 10 12 16 22 30 36
1 2 6 8 10 12 16 22 34 36 39
1 2 4 8 10 12 16 22 34 36
1 2 3 8 10 12 16 22 34 36
1 2 3 8 10 12 16 22 26 36
1 2 4 8 10 12 16 22 26 36
1 2 6 8 10 12 16 22 26 36 39
1 2 4 6 8 9 10 12 16 22 26 36
1 2 3 6 8 9 10 12 16 22 26 36
1 2 3 5 6 8 10 11 12 16 22 26 36
1 2 4 5 6 8 10 11 12 16 22 26 36
1 2 4 6 8 9 10 12 16 22 34 36
1 2 3 6 8 9 10 12 16 22 34 36
1 2 3 5 6 8 10 11 12 16 22 34 36
1 2 4 5 6 8 10 11 12 16 22 34 36
2 8 10 12 16 22 30 32 36
2 8 10 12 16 22 26 32 36
2 8 12 16 22 27 30 36
2 8 12 16 22 26 27 36
2 12 16 22 23 36 41
2 8 12 16 22 23 27 34 36
2 12 16 22 23 32 34 36
2 12 16 22 23 30 36
1 2 6 12 16 22 23 34 36 39
1 2 4 12 16 22 23 34 36
1 2 3 12 16 22 23 34 36
1 2 3 12 16 22 23 26 36
1 2 4 12 16 22 23 26 36
1 2 6 12 16 22 23 26 36 39
1 2 4 6 9 12 16 22 23 26 36
1 2 3 6 9 12 16 22 23 26 36
1 2 4 6 9 12 16 22 23 34 36
1 2 3 6 9 12 16 22 23 34 36
2 12 16 22 23 30 32 36
2 12 16 22 23 26 32 36
2 8 10 12 16 22 23 32 34 36
2 6 7 8 12 16 22 23 32 34 36 39
2 6 7 8 12 16 22 23 30 36 39
1 2 6 7 8 12 16 22 23 34 36 39
1 2 6 7 8 12 16 22 23 26 36 39
1 2 4 6 7 8 9 12 16 22 23 26 36
1 2 3 6 7 8 9 12 16 22 23 26 36
1 2 3 5 6 7 8 11 12 16 22 23 26 36
1 2 4 5 6 7 8 11 12 16 22 23 26 36
1 2 4 6 7 8 9 12 16 22 23 34 36
1 2 3 6 7 8 9 12 16 22 23 34 36
1 2 3 5 6 7 8 11 12 16 22 23 34 36
1 2 4 5 6 7 8 11 12 16 22 23 34 36
2 6 7 8 9 12 16 22 23 30 36
2 5 6 7 8 11 12 16 22 23 30 36
2 6 7 8 12 16 22 23 30 32 36 39
2 6 7 8 12 16 22 23 26 32 36 39
2 6 7 8 9 12 16 22 23 26 32 36
2 5 6 7 8 11 12 16 22 23 26 32 36
2 6 7 8 9 12 16 22 23 30 32 36
2 5 6 7 8 11 12 16 22 23 30 32 36
2 6 7 8 9 12 16 22 23 32 34 36
2 5 6 7 8 11 12 16 22 23 32 34 36
2 8 10 12 16 22 23 30 36
1 2 6 8 10 12 16 22 23 34 36 39
1 2 4 8 10 12 16 22 23 34 36
1 2 3 8 10 12 16 22 23 34 36
1 2 3 8 10 12 16 22 23 26 36
1 2 4 8 10 12 16 22 23 26 36
1 2 6 8 10 12 16 22 23 26 36 39
1 2 4 6 8 9 10 12 16 22 23 26 36
1 2 3 6 8 9 10 12 16 22 23 26 36
1 2 3 5 6 8 10 11 12 16 22 23 26 36
1 2 4 5 6 8 10 11 12 16 22 23 26 36
1 2 4 6 8 9 10 12 16 22 23 34 36
1 2 3 6 8 9 10 12 16 22 23 34 36
1 2 3 5 6 8 10 11 12 16 22 23 34 36
1 2 4 5 6 8 10 11 12 16 22 23 34 36
2 8 10 12 16 22 23 30 32 36
2 8 10 12 16 22 23 26 32 36
2 8 12 16 22 23 27 30 36
2 8 12 16 22 23 26 27 36
5 12 15 20 26 31
5 6 12 15 20 26 31
6 9 12 15 20 26 31
1 3 5 12 15 20 26 31
1 6 12 15 20 26 31 39
1 3 6 9 12 15 20 26 31
1 3 5 6 12 15 20 26 31
2 5 12 20 31 41
2 5 12 20 30 31
2 5 8 12 20 27 31 41
2 5 8 10 12 20 31 41
2 5 8 10 12 20 30 31
2 5 8 12 20 27 30 31
2 5 8 12 15 20 26 27 31
2 6 12 20 31 39 41
2 6 9 12 20 31 41
2 5 6 12 20 31 41
2 5 6 12 20 30 31
2 6 9 12 20 30 31
2 6 12 20 30 31 39
2 6 8 12 20 27 31 39 41
2 6 8 10 12 20 31 39 41
2 6 7 8 12 20 31 39 41
2 6 7 8 9 12 20 31 41
2 5 6 7 8 12 20 31 41
2 5 6 7 8 12 20 30 31
2 6 7 8 9 12 20 30 31
2 6 7 8 12 20 30 31 39
2 6 8 9 10 12 20 31 41
2 5 6 8 10 12 20 31 41
2 5 6 8 10 12 20 30 31
2 6 8 9 10 12 20 30 31
2 6 8 10 12 20 30 31 39
2 6 8 9 12 20 27 31 41
2 5 6 8 12 20 27 31 41
2 5 6 8 12 20 27 30 31
2 5 6 8 12 15 20 26 27 31
2 6 8 9 12 20 27 30 31
2 6 8 9 12 15 20 26 27 31
2 6 8 12 20 27 30 31 39
2 6 8 12 15 20 26 27 31 39
13 15 33
2 12 13 41
12 13 14
2 12 13 30
2 8 12 13 14 27
2 12 13 14 22 32
2 8 10 12 13 14 22 32
2 6 7 8 12 13 14 22 32 39
2 6 7 8 9 12 13 14 22 32
2 5 6 7 8 11 12 13 14 22 32
2 6 12 13 20 31 39 41
2 6 12 13 20 30 31 39
12 13 15 26
42 12 13 14 15 22
42 12 13 14 15 22 23
2 8 12 13 15 26 27
2 12 13 15 26 41
42 2 12 13 15 22 41
42 2 12 13 15 22 30
42 2 12 13 14 15 22 32
1 42 2 6 12 13 14 15 22 39
1 42 2 4 12 13 14 15 22
1 42 2 3 12 13 14 15 22
1 42 2 4 6 9 12 13 14 15 22
1 42 2 3 6 9 12 13 14 15 22
2 12 13 15 22 26 32
42 2 8 12 13 15 22 27 41
42 2 8 10 12 13 15 22 41
42 2 6 7 8 12 13 15 22 39 41
42 2 6 7 8 9 12 13 15 22 41
42 2 5 6 7 8 11 12 13 15 22 41
42 2 5 6 7 8 11 12 13 15 22 30
42 2 5 6 7 8 11 12 13 14 15 22 32
1 42 2 4 5 6 7 8 11 12 13 14 15 22
1 42 2 3 5 6 7 8 11 12 13 14 15 22
42 2 6 7 8 9 12 13 15 22 30
42 2 6 7 8 9 12 13 14 15 22 32
1 42 2 4 6 7 8 9 12 13 14 15 22
1 42 2 3 6 7 8 9 12 13 14 15 22
42 2 6 7 8 12 13 15 22 30 39
42 2 6 7 8 12 13 14 15 22 32 39
1 42 2 6 7 8 12 13 14 15 22 39
42 2 8 10 12 13 15 22 30
42 2 8 10 12 13 14 15 22 32
1 42 2 6 8 10 12 13 14 15 22 39
1 42 2 4 8 10 12 13 14 15 22
1 42 2 3 8 10 12 13 14 15 22
1 42 2 4 6 8 9 10 12 13 14 15 22
1 42 2 3 6 8 9 10 12 13 14 15 22
1 42 2 3 5 6 8 10 11 12 13 14 15 22
1 42 2 4 5 6 8 10 11 12 13 14 15 22
42 2 8 12 13 15 22 27 30
42 2 8 12 13 14 15 22 27
2 8 10 12 13 15 26 41
2 6 7 8 12 13 15 26 39 41
2 6 7 8 9 12 13 15 26 41
2 5 6 7 8 11 12 13 15 26 41
2 5 6 7 8 11 12 13 15 22 26 32
2 6 7 8 9 12 13 15 22 26 32
2 6 7 8 12 13 15 22 26 32 39
2 8 10 12 13 15 22 26 32
42 2 8 12 13 15 22 23 26 27
42 2 8 12 13 15 22 23 24 26 27
42 2 6 8 12 13 15 20 22 26 27 31 39
42 2 6 8 12 13 15 20 22 23 26 27 31 39
42 2 6 8 12 13 15 20 22 23 24 26 27 31 39
13 16 33 40
12 13 16 40
12 13 16 22 26 36
12 13 14 16 22 36
42 12 13 14 15 16 22
12 13 14 16 22 23 36
42 12 13 14 15 16 22 23
12 13 16 22 23 26 36
2 12 13 16 22 36 41
2 8 12 13 16 22 27 34 36
2 12 13 16 22 32 34 36
2 12 13 16 22 30 36
1 2 6 12 13 16 22 34 36 39
1 2 4 12 13 16 22 34 36
1 2 3 12 13 16 22 34 36
1 2 3 12 13 16 22 26 36
1 2 3 12 13 14 16 22 36
1 2 4 12 13 16 22 26 36
1 2 4 12 13 14 16 22 36
1 2 6 12 13 16 22 26 36 39
1 2 6 12 13 14 16 22 36 39
1 2 4 6 9 12 13 14 16 22 36
1 2 3 6 9 12 13 14 16 22 36
1 2 4 6 9 12 13 16 22 26 36
1 2 3 6 9 12 13 16 22 26 36
1 2 4 6 9 12 13 16 22 34 36
1 2 3 6 9 12 13 16 22 34 36
2 12 13 16 22 30 32 36
2 12 13 16 22 26 32 36
2 12 13 14 16 22 32 36
2 8 10 12 13 16 22 32 34 36
2 6 7 8 12 13 16 22 32 34 36 39
2 6 7 8 12 13 16 22 30 36 39
1 2 6 7 8 12 13 16 22 34 36 39
1 2 6 7 8 12 13 16 22 26 36 39
1 2 6 7 8 12 13 14 16 22 36 39
1 2 4 6 7 8 9 12 13 14 16 22 36
1 2 3 6 7 8 9 12 13 14 16 22 36
1 2 3 5 6 7 8 11 12 13 14 16 22 36
1 2 4 5 6 7 8 11 12 13 14 16 22 36
1 2 4 6 7 8 9 12 13 16 22 26 36
1 2 3 6 7 8 9 12 13 16 22 26 36
1 2 3 5 6 7 8 11 12 13 16 22 26 36
1 2 4 5 6 7 8 11 12 13 16 22 26 36
1 2 4 6 7 8 9 12 13 16 22 34 36
1 2 3 6 7 8 9 12 13 16 22 34 36
1 2 3 5 6 7 8 11 12 13 16 22 34 36
1 2 4 5 6 7 8 11 12 13 16 22 34 36
2 6 7 8 9 12 13 16 22 30 36
2 5 6 7 8 11 12 13 16 22 30 36
2 6 7 8 12 13 16 22 30 32 36 39
2 6 7 8 12 13 16 22 26 32 36 39
2 6 7 8 12 13 14 16 22 32 36 39
2 6 7 8 9 12 13 14 16 22 32 36
2 5 6 7 8 11 12 13 14 16 22 32 36
2 6 7 8 9 12 13 16 22 26 32 36
2 5 6 7 8 11 12 13 16 22 26 32 36
2 6 7 8 9 12 13 16 22 30 32 36
2 5 6 7 8 11 12 13 16 22 30 32 36
2 6 7 8 9 12 13 16 22 32 34 36
2 5 6 7 8 11 12 13 16 22 32 34 36
2 8 10 12 13 16 22 30 36
1 2 6 8 10 12 13 16 22 34 36 39
1 2 4 8 10 12 13 16 22 34 36
1 2 3 8 10 12 13 16 22 34 36
1 2 3 8 10 12 13 16 22 26 36
1 2 3 8 10 12 13 14 16 22 36
1 2 4 8 10 12 13 16 22 26 36
1 2 4 8 10 12 13 14 16 22 36
1 2 6 8 10 12 13 16 22 26 36 39
1 2 6 8 10 12 13 14 16 22 36 39
1 2 4 6 8 9 10 12 13 14 16 22 36
1 2 3 6 8 9 10 12 13 14 16 22 36
1 2 3 5 6 8 10 11 12 13 14 16 22 36
1 2 4 5 6 8 10 11 12 13 14 16 22 36
1 2 4 6 8 9 10 12 13 16 22 26 36
1 2 3 6 8 9 10 12 13 16 22 26 36
1 2 3 5 6 8 10 11 12 13 16 22 26 36
1 2 4 5 6 8 10 11 12 13 16 22 26 36
1 2 4 6 8 9 10 12 13 16 22 34 36
1 2 3 6 8 9 10 12 13 16 22 34 36
1 2 3 5 6 8 10 11 12 13 16 22 34 36
1 2 4 5 6 8 10 11 12 13 16 22 34 36
2 8 10 12 13 16 22 30 32 36
2 8 10 12 13 16 22 26 32 36
2 8 10 12 13 14 16 22 32 36
2 8 12 13 16 22 27 30 36
2 8 12 13 16 22 26 27 36
2 8 12 13 14 16 22 27 36
2 12 13 16 22 23 36 41
2 8 12 13 16 22 23 27 34 36
2 12 13 16 22 23 32 34 36
2 12 13 16 22 23 30 36
1 2 6 12 13 16 22 23 34 36 39
1 2 4 12 13 16 22 23 34 36
1 2 3 12 13 16 22 23 34 36
1 2 3 12 13 16 22 23 26 36
1 2 3 12 13 14 16 22 23 36
1 2 4 12 13 16 22 23 26 36
1 2 4 12 13 14 16 22 23 36
1 2 6 12 13 16 22 23 26 36 39
1 2 6 12 13 14 16 22 23 36 39
1 2 4 6 9 12 13 14 16 22 23 36
1 2 3 6 9 12 13 14 16 22 23 36
1 2 4 6 9 12 13 16 22 23 26 36
1 2 3 6 9 12 13 16 22 23 26 36
1 2 4 6 9 12 13 16 22 23 34 36
1 2 3 6 9 12 13 16 22 23 34 36
2 12 13 16 22 23 30 32 36
2 12 13 16 22 23 26 32 36
2 12 13 14 16 22 23 32 36
2 8 10 12 13 16 22 23 32 34 36
2 6 7 8 12 13 16 22 23 32 34 36 39
2 6 7 8 12 13 16 22 23 30 36 39
1 2 6 7 8 12 13 16 22 23 34 36 39
1 2 6 7 8 12 13 16 22 23 26 36 39
1 2 6 7 8 12 13 14 16 22 23 36 39
1 2 4 6 7 8 9 12 13 14 16 22 23 36
1 2 3 6 7 8 9 12 13 14 16 22 23 36
1 2 3 5 6 7 8 11 12 13 14 16 22 23 36
1 2 4 5 6 7 8 11 12 13 14 16 22 23 36
1 2 4 6 7 8 9 12 13 16 22 23 26 36
1 2 3 6 7 8 9 12 13 16 22 23 26 36
1 2 3 5 6 7 8 11 12 13 16 22 23 26 36
1 2 4 5 6 7 8 11 12 13 16 22 23 26 36
1 2 4 6 7 8 9 12 13 16 22 23 34 36
1 2 3 6 7 8 9 12 13 16 22 23 34 36
1 2 3 5 6 7 8 11 12 13 16 22 23 34 36
1 2 4 5 6 7 8 11 12 13 16 22 23 34 36
2 6 7 8 9 12 13 16 22 23 30 36
2 5 6 7 8 11 12 13 16 22 23 30 36
2 6 7 8 12 13 16 22 23 30 32 36 39
2 6 7 8 12 13 16 22 23 26 32 36 39
2 6 7 8 12 13 14 16 22 23 32 36 39
2 6 7 8 9 12 13 14 16 22 23 32 36
2 5 6 7 8 11 12 13 14 16 22 23 32 36
2 6 7 8 9 12 13 16 22 23 26 32 36
2 5 6 7 8 11 12 13 16 22 23 26 32 36
2 6 7 8 9 12 13 16 22 23 30 32 36
2 5 6 7 8 11 12 13 16 22 23 30 32 36
2 6 7 8 9 12 13 16 22 23 32 34 36
2 5 6 7 8 11 12 13 16 22 23 32 34 36
2 8 10 12 13 16 22 23 30 36
1 2 6 8 10 12 13 16 22 23 34 36 39
1 2 4 8 10 12 13 16 22 23 34 36
1 2 3 8 10 12 13 16 22 23 34 36
1 2 3 8 10 12 13 16 22 23 26 36
1 2 3 8 10 12 13 14 16 22 23 36
1 2 4 8 10 12 13 16 22 23 26 36
1 2 4 8 10 12 13 14 16 22 23 36
1 2 6 8 10 12 13 16 22 23 26 36 39
1 2 6 8 10 12 13 14 16 22 23 36 39
1 2 4 6 8 9 10 12 13 14 16 22 23 36
1 2 3 6 8 9 10 12 13 14 16 22 23 36
1 2 3 5 6 8 10 11 12 13 14 16 22 23 36
1 2 4 5 6 8 10 11 12 13 14 16 22 23 36
1 2 4 6 8 9 10 12 13 16 22 23 26 36
1 2 3 6 8 9 10 12 13 16 22 23 26 36
1 2 3 5 6 8 10 11 12 13 16 22 23 26 36
1 2 4 5 6 8 10 11 12 13 16 22 23 26 36
1 2 4 6 8 9 10 12 13 16 22 23 34 36
1 2 3 6 8 9 10 12 13 16 22 23 34 36
1 2 3 5 6 8 10 11 12 13 16 22 23 34 36
1 2 4 5 6 8 10 11 12 13 16 22 23 34 36
2 8 10 12 13 16 22 23 30 32 36
2 8 10 12 13 16 22 23 26 32 36
2 8 10 12 13 14 16 22 23 32 36
2 8 12 13 16 22 23 27 30 36
2 8 12 13 16 22 23 26 27 36
2 8 12 13 14 16 22 23 27 36
42 2 12 13 15 16 20 22 28 41
42 2 12 13 15 16 20 22 28 30
42 2 6 7 8 12 13 15 16 20 22 28 39 41
42 2 6 7 8 9 12 13 15 16 20 22 28 41
42 2 5 6 7 8 11 12 13 15 16 20 22 28 41
42 2 5 6 7 8 11 12 13 15 16 20 22 28 30
42 2 6 7 8 9 12 13 15 16 20 22 28 30
42 2 6 7 8 12 13 15 16 20 22 28 30 39
42 2 8 10 12 13 15 16 20 22 28 41
42 2 8 10 12 13 15 16 20 22 28 30
42 2 8 12 13 15 16 20 22 27 28 41
42 2 12 13 15 16 20 22 23 28 41
42 2 12 13 15 16 20 22 23 28 30
42 2 6 7 8 12 13 15 16 20 22 23 28 39 41
42 2 6 7 8 9 12 13 15 16 20 22 23 28 41
42 2 5 6 7 8 11 12 13 15 16 20 22 23 28 41
42 2 5 6 7 8 11 12 13 15 16 20 22 23 28 30
42 2 6 7 8 9 12 13 15 16 20 22 23 28 30
42 2 6 7 8 12 13 15 16 20 22 23 28 30 39
42 2 8 10 12 13 15 16 20 22 23 28 41
42 2 8 10 12 13 15 16 20 22 23 28 30
42 2 8 12 13 15 16 20 22 23 27 28 41
13 16 33 34
 Minimal traps 
19 22 29
15 22 35 36
16 22 36
5 20 31
12 20 38
20 22 28
1 6 39
6 9
2 22 32
22 23 24 25
8 10
2 8 27
2 6 7 8 27
6 7 8 10
1 3
1 2 4
1 2 6 7 8 27
2 12 41
12 13 14
2 12 30
1 2 12 41
1 2 12 30
1 2 6 7 8 12 27 41
1 2 6 7 8 12 27 30
2 5 6 7 8 27
5 6 7 8 11
5 6 7 8 10
1 2 5 6 7 8 27
12 16 40
13 16 37
2 12 16 37 41
12 16 34
2 8 10 12 16 34 41
2 8 10 12 16 30 34
2 12 16 30 37
2 8 12 16 27 30 37
1 2 12 16 37 41
1 2 12 16 34 41
1 2 12 16 30 34
1 2 4 12 16 34
1 2 12 16 30 37
2 12 16 22 32 37 41
2 12 16 22 30 32 37
1 6 12 16 22 32 39 40
1 3 12 16 22 32 40
1 2 12 16 22 32 40
1 2 13 16 22 32 37
1 3 6 9 12 16 22 32 40
1 2 6 9 12 16 22 32 40
1 2 6 7 8 12 16 22 27 32 40
1 2 6 7 8 10 12 16 22 32 40
1 3 6 7 8 12 16 22 27 32 40
1 3 6 7 8 10 12 16 22 32 40
15 23 35
2 12 15 33 41
12 15 33 40
13 15 33
15 16 17
12 15 26
12 15 33 34
2 12 15 16 37 41
2 12 15 16 30 37
2 8 10 12 15 16 40 41
2 8 10 12 15 16 37 41
2 8 10 12 15 16 34 41
2 8 10 12 15 16 30 34
2 8 10 12 15 16 30 37
2 8 10 12 15 16 30 40
2 8 12 15 16 27 37 41
2 8 12 15 16 27 30 37
2 8 10 12 15 26 41
2 8 10 12 15 26 30
2 12 15 30 33
2 8 10 12 15 30 33
2 8 12 15 27 30 33
1 2 12 15 33 41
1 2 12 15 26 41
1 2 12 15 16 40 41
1 2 12 15 16 37 41
1 2 12 15 16 34 41
1 2 12 15 16 30 34
1 2 4 12 15 16 34
1 2 12 15 16 30 37
1 2 12 15 16 30 40
1 2 4 12 15 16 40
1 2 12 15 26 30
1 2 4 12 15 26
1 2 12 15 30 33
2 12 15 22 33 36 41
42 15 22
42 15 16 17 22
42 13 15 22 37
42 13 15 16 22 37
42 13 15 22 33
42 12 15 22 40
42 12 15 22 34
42 12 13 15 22 37
42 12 15 16 22 40
42 12 15 16 22 34
42 12 13 15 16 22 37
42 5 12 15 16 20 22 31 34
42 12 15 22 26
42 12 15 22 33 40
42 12 15 22 33 34
42 12 13 15 22 33
42 2 15 22 32
42 2 13 15 22 32 37
42 2 8 15 22 27
42 2 8 10 15 22 32
2 8 10 15 16 22 32 36
2 8 10 15 16 17 22 32
42 2 8 15 16 17 22 27
2 8 10 13 15 22 32 33
2 8 10 13 15 16 22 32 37
42 2 8 10 13 15 22 32 37
42 2 8 13 15 22 27 37
42 2 8 13 15 16 22 27 37
42 2 8 13 15 22 27 33
42 2 12 15 22 41
42 2 12 15 22 32 40
42 2 12 15 22 30
42 2 12 15 22 32 34
42 2 12 15 22 30 32
42 2 12 13 15 22 32 37
42 2 12 15 16 22 40 41
42 2 12 15 16 22 37 41
42 2 12 15 16 22 34 41
42 2 12 15 16 17 22 41
42 2 12 15 16 17 22 30
42 2 12 15 16 22 30 34
42 2 12 15 16 22 30 37
42 2 12 15 16 22 30 40
2 12 15 16 22 32 37 41
2 12 15 16 22 30 32 37
42 2 12 15 22 26 41
42 2 12 15 22 26 30
42 2 8 12 15 22 27 41
42 2 8 10 12 15 22 41
42 2 8 12 15 22 27 40
42 2 8 12 15 22 27 34
42 2 8 12 15 22 27 30
42 2 8 12 13 15 22 27 37
2 8 10 12 15 16 22 32 40
42 2 8 12 15 16 22 27 40
42 2 8 12 15 16 22 27 37 41
42 2 8 12 15 16 22 27 34
42 2 8 12 15 16 17 22 27 41
42 2 8 12 15 16 17 22 27 30
42 2 8 12 15 16 22 27 34 37
42 2 8 12 15 16 22 27 30 37
42 2 8 12 13 15 16 22 27 37
2 8 12 15 16 22 27 32 37 41
2 8 12 15 16 22 27 30 32 37
2 8 10 12 15 22 26 36 41
2 8 10 12 15 22 26 32
2 8 10 12 15 22 26 32 36
2 8 10 12 15 22 26 30 36
42 2 8 12 15 22 26 27
2 12 15 22 32 33 41
42 2 12 15 22 33 41
42 2 8 12 15 22 27 33 40
42 2 12 15 22 30 33
42 2 8 12 15 22 27 33 34
42 2 8 12 15 22 27 30 33
42 2 8 12 13 15 22 27 33
2 12 15 22 30 32 33
2 12 15 22 30 33 36
2 12 15 22 30 32 33 36
2 8 12 15 22 27 30 33 36
1 2 12 15 22 33 36 41
1 2 13 15 22 32 33
1 2 15 16 22 32 36
1 42 2 15 22 32
1 42 2 4 15 22
1 2 4 15 16 22 36
1 2 15 16 17 22 32
1 2 13 15 16 22 32 37
1 42 2 13 15 22 32 37
1 2 12 15 22 26 36 41
1 42 2 12 15 22 41
1 2 12 15 16 22 32 40
1 2 12 15 22 26 32
1 2 12 15 22 26 32 36
1 2 12 15 22 26 30 36
1 2 4 12 15 22 26 36
1 2 8 15 16 22 27 36
1 42 2 8 15 22 27
1 42 2 8 10 15 22 32
1 42 2 4 8 10 15 22
1 2 8 10 15 16 22 32 36
1 2 4 8 10 15 16 22 36
1 2 8 10 15 16 17 22 32
1 42 2 8 12 15 16 22 27 40
1 42 2 8 12 15 16 22 27 34
1 42 2 8 12 15 22 26 27
1 3 15 16 22 36
1 42 3 15 22
1 6 15 16 22 36 39
1 42 6 15 22 39
1 42 3 6 9 15 22
1 42 2 6 8 9 15 22 27
1 42 2 6 9 15 22 32
1 42 2 4 6 9 15 22
1 42 2 6 7 8 15 22 27
1 42 2 6 7 8 10 15 22 32
1 42 2 4 6 7 8 10 15 22
1 42 2 6 8 9 10 15 22 32
1 42 2 4 6 8 9 10 15 22
1 42 3 6 7 8 15 22 27
1 42 3 6 7 8 10 15 22
1 3 6 9 15 16 22 36
1 2 6 8 9 15 16 22 27 36
1 2 6 9 15 16 22 32 36
1 2 4 6 9 15 16 22 36
1 2 6 7 8 15 16 22 27 36
1 2 6 7 8 10 15 16 22 32 36
1 2 4 6 7 8 10 15 16 22 36
1 2 6 8 9 10 15 16 22 32 36
1 2 4 6 8 9 10 15 16 22 36
1 3 6 7 8 15 16 22 27 36
1 3 6 7 8 10 15 16 22 36
1 42 2 6 7 8 12 15 16 22 27 40
1 42 2 6 7 8 12 15 16 22 27 34
1 42 2 6 7 8 12 15 22 26 27
1 42 2 5 6 7 8 12 15 16 22 27 40
1 42 2 5 6 7 8 12 15 16 22 27 34
1 42 2 5 6 7 8 12 15 22 26 27
1 42 2 4 5 12 15 16 20 22 31 34
1 42 2 4 5 8 10 12 15 16 20 22 31 34
1 42 2 4 5 8 11 12 15 16 20 22 31 34
2 15 22 32 35
42 15 22 35
42 2 8 15 22 27 35
42 2 12 15 22 35 41
42 2 8 12 15 22 27 35 40
42 2 12 15 22 30 35
42 2 8 12 15 22 27 34 35
42 2 8 12 15 22 27 30 35
42 2 8 12 13 15 22 27 35 37
1 6 15 22 32 35 39
1 3 15 22 32 35
1 2 15 22 32 35
1 42 2 6 7 8 15 22 27 35
1 3 6 9 15 22 32 35
1 2 6 9 15 22 32 35
1 2 6 7 8 15 22 27 32 35
1 2 6 7 8 10 15 22 32 35
1 3 6 7 8 15 22 27 32 35
1 3 6 7 8 10 15 22 32 35
1 42 2 5 6 7 8 15 22 27 35
5 19 20 31
12 19 20 38
18 19 20 21
1 5 6 12 19 20 38 39
5 6 9 12 19 20 38
2 5 6 7 8 12 19 20 27 38
5 6 7 8 11 12 19 20 38
5 6 7 8 10 12 19 20 38
2 5 6 7 8 11 12 19 20 38 41
2 5 6 7 8 10 12 19 20 38 41
2 5 6 7 8 10 12 19 20 30 38
2 5 6 7 8 11 12 19 20 30 38
1 3 5 6 9 12 19 20 38
1 2 5 6 8 9 12 19 20 27 38
1 2 5 6 9 12 19 20 38 41
1 2 5 6 9 12 19 20 30 38
1 2 4 5 6 9 12 19 20 38
1 2 5 6 7 8 12 19 20 27 38
1 2 5 6 7 8 11 12 19 20 38 41
1 2 5 6 7 8 10 12 19 20 38 41
1 2 5 6 7 8 10 12 19 20 30 38
1 2 4 5 6 7 8 10 12 19 20 38
1 2 5 6 7 8 11 12 19 20 30 38
1 2 4 5 6 7 8 11 12 19 20 38
1 2 5 6 8 9 11 12 19 20 38 41
1 2 5 6 8 9 10 12 19 20 38 41
1 2 5 6 8 9 10 12 19 20 30 38
1 2 4 5 6 8 9 10 12 19 20 38
1 2 5 6 8 9 11 12 19 20 30 38
1 2 4 5 6 8 9 11 12 19 20 38
1 3 5 6 7 8 12 19 20 27 38
1 3 5 6 7 8 11 12 19 20 38
1 3 5 6 7 8 10 12 19 20 38
42 5 12 15 16 19 20 22 31 34
1 42 2 4 5 12 15 16 19 20 22 31 34
1 42 2 4 5 8 10 12 15 16 19 20 22 31 34
1 42 2 4 5 8 11 12 15 16 19 20 22 31 34
 Analysis time: 71.876s