07/08/2021 22:32:27[INFO] Iniciando la clasificación serial de todos las redes... 
  
07/08/2021 22:35:27[INFO] Clasificando los resultados... 
  
07/08/2021 22:35:37[INFO] Generando estadísticas... 
  
07/08/2021 22:35:37[RESULT] Se analizaron 50 redes de petri, de las cuales:   
07/08/2021 22:35:37[RESULT] 48 se pudieron clasificar   
07/08/2021 22:35:37[RESULT] 6 no contenian DEADLOCK inicialmente   
+--------------------+-------------------+
|        Red         | Duracion Analisis |
+--------------------+-------------------+
| 20210807-223221_0  |    00h:00m:02s    |
| 20210807-223221_44 |    00h:00m:02s    |
| 20210807-223221_36 |    00h:00m:02s    |
| 20210807-223221_12 |    00h:00m:03s    |
| 20210807-223221_15 |    00h:00m:03s    |
| 20210807-223221_5  |    00h:00m:03s    |
+--------------------+-------------------+ 

07/08/2021 22:35:37[RESULT] 0 no eran del tipo S3PR   
07/08/2021 22:35:37[RESULT] 0 no pudieron clasificarse debido a corte por timeout del petrinator   
07/08/2021 22:35:37[RESULT] 2 expirementaron fallas inesperadas durante el análisis   
+--------------------+-------------------+
|        Red         | Duracion Analisis |
+--------------------+-------------------+
| 20210807-223221_24 |    00h:00m:04s    |
| 20210807-223221_39 |    00h:00m:05s    |
+--------------------+-------------------+ 

07/08/2021 22:35:37[RESULT] 42 cumplen las condiciones de tener DEADLOCK y ser tipo S3PR   
+--------------------+-------------------+
|        Red         | Duracion Analisis |
+--------------------+-------------------+
| 20210807-223221_43 |    00h:00m:02s    |
| 20210807-223221_26 |    00h:00m:03s    |
| 20210807-223221_11 |    00h:00m:03s    |
| 20210807-223221_7  |    00h:00m:03s    |
| 20210807-223221_10 |    00h:00m:03s    |
| 20210807-223221_1  |    00h:00m:03s    |
| 20210807-223221_2  |    00h:00m:03s    |
| 20210807-223221_25 |    00h:00m:03s    |
| 20210807-223221_23 |    00h:00m:03s    |
| 20210807-223221_6  |    00h:00m:03s    |
| 20210807-223221_45 |    00h:00m:03s    |
| 20210807-223221_46 |    00h:00m:03s    |
| 20210807-223221_19 |    00h:00m:03s    |
| 20210807-223221_49 |    00h:00m:03s    |
| 20210807-223221_37 |    00h:00m:03s    |
| 20210807-223221_18 |    00h:00m:03s    |
| 20210807-223221_27 |    00h:00m:03s    |
| 20210807-223221_17 |    00h:00m:03s    |
| 20210807-223221_22 |    00h:00m:03s    |
| 20210807-223221_21 |    00h:00m:03s    |
| 20210807-223221_30 |    00h:00m:03s    |
| 20210807-223221_13 |    00h:00m:03s    |
| 20210807-223221_42 |    00h:00m:03s    |
| 20210807-223221_8  |    00h:00m:03s    |
| 20210807-223221_28 |    00h:00m:03s    |
| 20210807-223221_47 |    00h:00m:03s    |
| 20210807-223221_14 |    00h:00m:03s    |
| 20210807-223221_32 |    00h:00m:03s    |
| 20210807-223221_16 |    00h:00m:03s    |
| 20210807-223221_41 |    00h:00m:03s    |
| 20210807-223221_20 |    00h:00m:03s    |
| 20210807-223221_35 |    00h:00m:03s    |
| 20210807-223221_29 |    00h:00m:03s    |
| 20210807-223221_9  |    00h:00m:03s    |
| 20210807-223221_48 |    00h:00m:04s    |
| 20210807-223221_34 |    00h:00m:04s    |
| 20210807-223221_33 |    00h:00m:04s    |
| 20210807-223221_4  |    00h:00m:04s    |
| 20210807-223221_38 |    00h:00m:04s    |
| 20210807-223221_40 |    00h:00m:04s    |
| 20210807-223221_31 |    00h:00m:04s    |
| 20210807-223221_3  |    00h:00m:05s    |
+--------------------+-------------------+ 

07/08/2021 22:35:37[RESULT] Del set de redes propuesto, observar los siguientes indicadores:   
07/08/2021 22:35:37[RESULT] - 87.50% de las redes válidas cumplen las condiciones esperadas -- Calidad del Algoritmo   
07/08/2021 22:35:37[RESULT] - 12.00% no cumplen condiciones iniciales (S3PR y DEADLOCK) -- Calidad del Generador/Muestra   
07/08/2021 22:35:37[RESULT] - 4.00% se debieron descartar por problemas petrinator -- Incidencias debido a factores externos   
07/08/2021 22:35:37[INFO] La ejecución masiva ha concluído exitosamente, luego de 00h:03m:10s 
  
