21/06/2021 12:45:19[DEBUG] pflow_file:  ../analisis_3_20062021/gen_nets/20210621-121849_18/net.pflow  
21/06/2021 12:45:19[DEBUG] output_folder:  ../analisis_3_20062021/gen_nets/20210621-121849_18/  
21/06/2021 12:45:19[DEBUG] html_path:  ../analisis_3_20062021/gen_nets/20210621-121849_18/  
21/06/2021 12:45:19[DEBUG] txt_path:  ../analisis_3_20062021/gen_nets/20210621-121849_18/txt_info  

--------------------------------------------------------------------------   
21/06/2021 12:45:19[INFO] Ejecutando petrinator para conocer estado de la red...   
--------------------------------------------------------------------------
   
21/06/2021 12:45:20[ERROR] La red ingresada no tiene deadlock, cerrando analisis 
  
