
S56
S65
S73
S158
S171
S184
S193
S201
S269
S283
S289
S343
S385
S453
S468
S801
S809
S817
S842
S865
S878
S882
S888
S906
S914
S969
S971
S986
S989
S995
S1030
S1079
S1086
S1093
S1113
S1149
S1208
S1264
S1282
S1300
S1318
S1562
S1580
S1598
S1705
S1727
S1763
S1946
S1995
S2030
S2097
S2100
S2106
S2127
S2414
S2416
S2418
S2422
S2427
S2428
S2434
S2452
S2460
S2515
S2550
S2624
S2645
S2932
S2936
S2940
S2945
S2946
S2952
S3059
S3131
S3149
S3160
S3181
S3471
S3481
S3489
S3557
S3579
S3686
S3776
S3781
S3789
S3810
S4102
S4133
S4219