 Minimal siphons 
3 7 11 13 17 23 24 27
2 7 11 13 17 23 24 26
7 8
1 6 10 13 17 23
17 20
16 21
6 9
1 5 28
1 6 9 28
1 5 6 28
6 7 9
5 6 7 10 11 12 13 14 15 16 17 18 19 22
1 6 7 9 28
1 5 6 7 28
1 6 7 9 10 14 28
1 5 6 7 10 14 28
1 6 7 9 10 12 13 14 28
1 5 6 7 10 12 13 14 28
1 29 5 6 7 10 11 12 13 14 15 16
2 6 11 13 17 23 24
1 2 5 28
1 2 6 9 28
1 2 5 6 28
2 6 11 12 16 24
2 7 10 13 26
1 2 7 8 9 28
1 2 6 7 9 28
1 2 5 6 7 28
1 2 5 7 8 28
1 2 7 8 9 10 14 28
1 2 6 7 9 10 14 28
1 2 5 6 7 10 14 28
1 2 5 7 8 10 14 28
1 2 6 7 9 10 12 13 14 28
1 2 5 6 7 10 12 13 14 28
1 2 7 8 9 10 12 13 14 28
1 2 5 7 8 10 12 13 14 28
1 2 6 7 9 10 11 14 28
1 2 5 6 7 10 11 14 28
1 2 7 8 9 10 11 14 28
1 2 5 7 8 10 11 14 28
2 7 11 13 16 24 26
1 2 3 5 28
1 2 3 4
1 2 3 6 9 28
1 2 3 5 6 28
1 2 3 4 6 9
3 7 10 13 27
1 2 3 7 8 9 28
1 2 3 6 7 9 28
1 2 3 5 6 7 28
1 2 3 4 6 7 9
1 2 3 5 7 8 28
1 2 3 4 7 8
1 2 3 4 7 8 9
3 7 10 12 25
1 2 3 7 8 9 10 14 28
1 2 3 6 7 9 10 14 28
1 2 3 5 6 7 10 14 28
1 2 3 4 6 7 9 10 14
1 2 3 5 7 8 10 14 28
1 2 3 4 7 8 10 14
1 2 3 4 7 8 9 10 14
1 2 3 7 8 9 10 12 14 28
1 2 3 6 7 9 10 12 14 28
1 2 3 5 6 7 10 12 14 28
1 2 3 4 6 7 9 10 12 14
1 2 3 5 7 8 10 12 14 28
1 2 3 4 7 8 10 12 14
1 2 3 4 7 8 9 10 12 14
3 7 10 13 25 26
1 2 3 6 7 9 10 12 13 14 28
1 2 3 5 6 7 10 12 13 14 28
1 2 3 4 6 7 9 10 12 13 14
1 2 3 7 8 9 10 12 13 14 28
1 2 3 5 7 8 10 12 13 14 28
1 2 3 4 7 8 10 12 13 14
1 2 3 4 7 8 9 10 12 13 14
1 3 7 10 13 17 23 25
3 7 10 12 13 25
1 3 7 9 10 12 13 25 28
1 3 5 7 10 12 13 25 28
1 3 4 7 10 12 13 25
1 3 4 7 9 10 12 13 25
1 2 3 7 8 9 10 11 14 28
1 2 3 6 7 9 10 11 14 28
1 2 3 5 6 7 10 11 14 28
1 2 3 4 6 7 9 10 11 14
1 2 3 5 7 8 10 11 14 28
1 2 3 4 7 8 10 11 14
1 2 3 4 7 8 9 10 11 14
3 7 11 12 16 24 25
3 7 11 13 16 24 27
3 7 11 13 16 24 25 26
3 7 11 13 17 23 24 25
 Minimal traps 
1 5 28
2 6 10 12 16 24 27
16 21
17 20
6 9
3 7 10 12 25
7 8
3 7 10 13 27
5 6 7 10 11 12 13 14 15 16 17 18 19 22
2 7 10 12 25 26
2 7 10 13 26
2 3 7 10 13 27
2 7 10 12 13 26
2 3 7 10 12 13 27
2 3 7 10 12 25
2 6 11 12 16 24
2 6 9 10 13 26
2 6 7 10 13 26
2 3 6 7 10 13 27
2 3 6 9 10 13 27
2 6 9 10 12 25 26
2 6 7 10 12 25 26
2 6 7 10 12 13 26
2 3 6 7 10 12 13 27
2 3 6 7 10 12 25
2 6 9 10 12 13 26
2 3 6 9 10 12 13 27
2 3 6 9 10 12 25
2 6 10 12 16 24 26
2 6 10 12 16 24 25
1 6 10 12 16 23 24
1 2 7 10 12 25 26
1 2 3 4
1 2 3 4 7 8
1 2 7 10 13 26
1 2 3 7 10 13 27
1 2 7 10 12 13 26
1 2 3 7 10 12 13 27
1 2 3 7 10 12 25
1 2 3 4 6 9
1 2 3 4 6 7 8
1 6 10 13 17 23
1 6 10 12 17 23 25 26
1 3 6 10 12 17 23 25
1 29 5 6 12 16 24
1 2 3 4 5 6 9
1 2 3 4 5 6 7 8
1 29 2 3 4 5 6 9
1 29 2 3 4 5 6 7 8
1 29 2 3 4 5 6 9 12 13 15 16
1 29 2 3 4 5 6 7 8 12 13 15 16
1 29 5 6 10 13 23
1 29 5 6 7 10 13 26
1 29 5 6 10 12 23 25 26
1 29 5 6 7 10 12 25 26
1 29 3 5 6 10 12 23 25
1 29 5 6 7 10 12 13 14 15 16
 Analysis time: 1.357s