21/07/2021 19:50:58[DEBUG] pflow_file:  ../prueba/POPN/net.pflow  
21/07/2021 19:50:58[DEBUG] output_folder:  ../prueba/POPN/  
21/07/2021 19:50:58[DEBUG] html_path:  ../prueba/POPN/  
21/07/2021 19:50:58[DEBUG] txt_path:  ../prueba/POPN/txt_info  

--------------------------------------------------------------------------   
21/07/2021 19:50:58[INFO] Ejecutando petrinator para conocer estado de la red...   
--------------------------------------------------------------------------
   
21/07/2021 19:51:03[INFO] SIFONES   
+----+-----+-------------------------------------------------+
| ID | Nro |                      Plazas                     |
+----+-----+-------------------------------------------------+
| 0  |  2  | ['P3', 'P8', 'P12', 'P14', 'P20', 'P22', 'P25'] |
| 1  |  43 | ['P3', 'P8', 'P12', 'P14', 'P19', 'P23', 'P25'] |
| 2  |  16 | ['P4', 'P9', 'P13', 'P14', 'P20', 'P22', 'P25'] |
| 3  |  22 | ['P4', 'P9', 'P13', 'P14', 'P19', 'P23', 'P25'] |
| 4  |  3  |    ['P4', 'P12', 'P14', 'P20', 'P22', 'P25']    |
+----+-----+-------------------------------------------------+ 

21/07/2021 19:51:03[INFO] T INVARIANTES   
+----+----+----+----+----+----+----+----+----+----+-----+-----+-----+-----+-----+-----+-----+-----+-----+-----+
| T0 | T1 | T2 | T3 | T4 | T5 | T6 | T7 | T8 | T9 | T10 | T11 | T12 | T13 | T14 | T15 | T16 | T17 | T18 | T19 |
+----+----+----+----+----+----+----+----+----+----+-----+-----+-----+-----+-----+-----+-----+-----+-----+-----+
| 1  | 1  | 1  | 1  | 1  | 1  | 0  | 0  | 0  | 0  |  0  |  0  |  0  |  0  |  0  |  0  |  0  |  0  |  0  |  0  |
| 0  | 0  | 0  | 0  | 0  | 0  | 1  | 1  | 1  | 1  |  1  |  1  |  0  |  0  |  0  |  0  |  0  |  0  |  0  |  0  |
| 0  | 0  | 0  | 0  | 0  | 0  | 0  | 0  | 0  | 0  |  1  |  1  |  1  |  1  |  1  |  1  |  0  |  0  |  0  |  0  |
| 0  | 0  | 0  | 0  | 0  | 0  | 0  | 0  | 0  | 0  |  0  |  0  |  0  |  0  |  0  |  0  |  1  |  1  |  1  |  1  |
+----+----+----+----+----+----+----+----+----+----+-----+-----+-----+-----+-----+-----+-----+-----+-----+-----+ 

21/07/2021 19:51:03[INFO] Supervisores para agregar   
+-----+---------+----------------------------+----------------------------+-------------------------------------------------+
|  ID | Marcado |        T - Entrada         |         T - Salida         |                Sifon a controlar                |
+-----+---------+----------------------------+----------------------------+-------------------------------------------------+
| P27 |    2    | ['T3', 'T8', 'T15', 'T19'] | ['T4', 'T7', 'T13', 'T17'] | ['P3', 'P8', 'P12', 'P14', 'P20', 'P22', 'P25'] |
| P27 |    1    |        ['T3', 'T8']        |        ['T4', 'T7']        | ['P3', 'P8', 'P12', 'P14', 'P19', 'P23', 'P25'] |
| P27 |    2    | ['T4', 'T9', 'T15', 'T19'] | ['T5', 'T8', 'T13', 'T17'] | ['P4', 'P9', 'P13', 'P14', 'P20', 'P22', 'P25'] |
| P27 |    1    |        ['T4', 'T9']        |        ['T5', 'T8']        | ['P4', 'P9', 'P13', 'P14', 'P19', 'P23', 'P25'] |
| P27 |    1    |       ['T15', 'T19']       |       ['T13', 'T17']       |    ['P4', 'P12', 'P14', 'P20', 'P22', 'P25']    |
+-----+---------+----------------------------+----------------------------+-------------------------------------------------+ 

21/07/2021 19:51:03[INFO] Supervisores agregados   
+-----+-------+---------+-------------+------------+
| Nro | Plaza | Marcado | T - Entrada | T - Salida |
+-----+-------+---------+-------------+------------+
+-----+-------+---------+-------------+------------+ 

21/07/2021 19:51:03[INFO] Ejecutando accion...   
21/07/2021 19:51:03[ACTION] Agrego supervisor aleatorio Numero: 3  

--------------------------------------------------------------------------   
21/07/2021 19:51:03[INFO] Ejecutando petrinator para conocer estado de la red...   
--------------------------------------------------------------------------
   
--------------------------------------------------------------------------
   
21/07/2021 19:51:08[INFO] Calculando recompensa..   
21/07/2021 19:51:08[REWARD] El sifon se controlo correctamente, recompensa -1   

--------------------------------------------------------------------------
   
21/07/2021 19:51:08[STATE] Cambie al estado 2: Hay menos sifones vacios en deadlock   
+-----------------------------------------------------+--------------------+------------------------+
|                   Estados/Acciones                  | Agregar supervisor | Agregar o quitar arcos |
+-----------------------------------------------------+--------------------+------------------------+
|                        Start                        |        -1.0        |          0.0           |
|        Más sifónes vacíos en estado deadlock        |        0.0         |          0.0           |
|       Menos sifónes vacíos en estado deadlock       |        0.0         |          0.0           |
| Igual cantidad de sifónes vacíos en estado deadlock |        0.0         |          0.0           |
|                         End                         |        0.0         |          0.0           |
+-----------------------------------------------------+--------------------+------------------------+ 

21/07/2021 19:51:08[INFO] SIFONES   
+----+-----+-------------------------------------------------+
| ID | Nro |                      Plazas                     |
+----+-----+-------------------------------------------------+
| 5  |  2  | ['P3', 'P8', 'P12', 'P14', 'P20', 'P22', 'P25'] |
| 6  |  59 | ['P3', 'P8', 'P12', 'P14', 'P19', 'P23', 'P25'] |
| 7  |  3  |    ['P4', 'P12', 'P14', 'P20', 'P22', 'P25']    |
| 8  |  19 | ['P4', 'P9', 'P13', 'P14', 'P20', 'P22', 'P25'] |
+----+-----+-------------------------------------------------+ 

21/07/2021 19:51:08[INFO] T INVARIANTES   
+----+----+----+----+----+----+----+----+----+----+-----+-----+-----+-----+-----+-----+-----+-----+-----+-----+
| T0 | T1 | T2 | T3 | T4 | T5 | T6 | T7 | T8 | T9 | T10 | T11 | T12 | T13 | T14 | T15 | T16 | T17 | T18 | T19 |
+----+----+----+----+----+----+----+----+----+----+-----+-----+-----+-----+-----+-----+-----+-----+-----+-----+
| 1  | 1  | 1  | 1  | 1  | 1  | 0  | 0  | 0  | 0  |  0  |  0  |  0  |  0  |  0  |  0  |  0  |  0  |  0  |  0  |
| 0  | 0  | 0  | 0  | 0  | 0  | 1  | 1  | 1  | 1  |  1  |  1  |  0  |  0  |  0  |  0  |  0  |  0  |  0  |  0  |
| 0  | 0  | 0  | 0  | 0  | 0  | 0  | 0  | 0  | 0  |  1  |  1  |  1  |  1  |  1  |  1  |  0  |  0  |  0  |  0  |
| 0  | 0  | 0  | 0  | 0  | 0  | 0  | 0  | 0  | 0  |  0  |  0  |  0  |  0  |  0  |  0  |  1  |  1  |  1  |  1  |
+----+----+----+----+----+----+----+----+----+----+-----+-----+-----+-----+-----+-----+-----+-----+-----+-----+ 

21/07/2021 19:51:08[INFO] Supervisores para agregar   
+-----+---------+----------------------------+----------------------------+-------------------------------------------------+
|  ID | Marcado |        T - Entrada         |         T - Salida         |                Sifon a controlar                |
+-----+---------+----------------------------+----------------------------+-------------------------------------------------+
| P28 |    2    | ['T3', 'T8', 'T15', 'T19'] | ['T4', 'T7', 'T13', 'T17'] | ['P3', 'P8', 'P12', 'P14', 'P20', 'P22', 'P25'] |
| P28 |    1    |        ['T3', 'T8']        |        ['T4', 'T7']        | ['P3', 'P8', 'P12', 'P14', 'P19', 'P23', 'P25'] |
| P28 |    1    |       ['T15', 'T19']       |       ['T13', 'T17']       |    ['P4', 'P12', 'P14', 'P20', 'P22', 'P25']    |
| P28 |    2    | ['T4', 'T9', 'T15', 'T19'] | ['T5', 'T8', 'T13', 'T17'] | ['P4', 'P9', 'P13', 'P14', 'P20', 'P22', 'P25'] |
+-----+---------+----------------------------+----------------------------+-------------------------------------------------+ 

21/07/2021 19:51:08[INFO] Supervisores agregados   
+-----+-------+---------+--------------+--------------+
| Nro | Plaza | Marcado | T - Entrada  |  T - Salida  |
+-----+-------+---------+--------------+--------------+
|  1  |  P27  |    1    | ['T4', 'T9'] | ['T5', 'T8'] |
+-----+-------+---------+--------------+--------------+ 

21/07/2021 19:51:08[INFO] Ejecutando accion...   
21/07/2021 19:51:08[ACTION] Agregar o quitar arcos   

--------------------------------------------------------------------------   
21/07/2021 19:51:08[INFO] Ejecutando petrinator para conocer estado de la red...   
--------------------------------------------------------------------------
   
--------------------------------------------------------------------------
   
21/07/2021 19:51:12[INFO] Calculando recompensa..   
21/07/2021 19:51:12[REWARD] Hay menos o igual cantidad de sifones vacios que en el estado anterior, recompensa -1   

--------------------------------------------------------------------------
   
21/07/2021 19:51:12[STATE] Cambie al estado 3: Hay igual cantidad de sifones vacios en deadlock   
+-----------------------------------------------------+--------------------+------------------------+
|                   Estados/Acciones                  | Agregar supervisor | Agregar o quitar arcos |
+-----------------------------------------------------+--------------------+------------------------+
|                        Start                        |        -1.0        |          0.0           |
|        Más sifónes vacíos en estado deadlock        |        0.0         |          0.0           |
|       Menos sifónes vacíos en estado deadlock       |        0.0         |          -1.0          |
| Igual cantidad de sifónes vacíos en estado deadlock |        0.0         |          0.0           |
|                         End                         |        0.0         |          0.0           |
+-----------------------------------------------------+--------------------+------------------------+ 

21/07/2021 19:51:12[INFO] SIFONES   
+----+-----+-------------------------------------------------+
| ID | Nro |                      Plazas                     |
+----+-----+-------------------------------------------------+
| 9  |  2  | ['P3', 'P8', 'P12', 'P14', 'P20', 'P22', 'P25'] |
| 10 |  59 | ['P3', 'P8', 'P12', 'P14', 'P19', 'P23', 'P25'] |
| 11 |  3  |    ['P4', 'P12', 'P14', 'P20', 'P22', 'P25']    |
| 12 |  19 | ['P4', 'P9', 'P13', 'P14', 'P20', 'P22', 'P25'] |
+----+-----+-------------------------------------------------+ 

21/07/2021 19:51:12[INFO] T INVARIANTES   
+----+----+----+----+----+----+----+----+----+----+-----+-----+-----+-----+-----+-----+-----+-----+-----+-----+
| T0 | T1 | T2 | T3 | T4 | T5 | T6 | T7 | T8 | T9 | T10 | T11 | T12 | T13 | T14 | T15 | T16 | T17 | T18 | T19 |
+----+----+----+----+----+----+----+----+----+----+-----+-----+-----+-----+-----+-----+-----+-----+-----+-----+
| 1  | 1  | 1  | 1  | 1  | 1  | 0  | 0  | 0  | 0  |  0  |  0  |  0  |  0  |  0  |  0  |  0  |  0  |  0  |  0  |
| 0  | 0  | 0  | 0  | 0  | 0  | 1  | 1  | 1  | 1  |  1  |  1  |  0  |  0  |  0  |  0  |  0  |  0  |  0  |  0  |
| 0  | 0  | 0  | 0  | 0  | 0  | 0  | 0  | 0  | 0  |  1  |  1  |  1  |  1  |  1  |  1  |  0  |  0  |  0  |  0  |
| 0  | 0  | 0  | 0  | 0  | 0  | 0  | 0  | 0  | 0  |  0  |  0  |  0  |  0  |  0  |  0  |  1  |  1  |  1  |  1  |
+----+----+----+----+----+----+----+----+----+----+-----+-----+-----+-----+-----+-----+-----+-----+-----+-----+ 

21/07/2021 19:51:12[INFO] Supervisores para agregar   
+-----+---------+----------------------------+----------------------------+-------------------------------------------------+
|  ID | Marcado |        T - Entrada         |         T - Salida         |                Sifon a controlar                |
+-----+---------+----------------------------+----------------------------+-------------------------------------------------+
| P28 |    2    | ['T3', 'T8', 'T15', 'T19'] | ['T4', 'T7', 'T13', 'T17'] | ['P3', 'P8', 'P12', 'P14', 'P20', 'P22', 'P25'] |
| P28 |    1    |        ['T3', 'T8']        |        ['T4', 'T7']        | ['P3', 'P8', 'P12', 'P14', 'P19', 'P23', 'P25'] |
| P28 |    1    |       ['T15', 'T19']       |       ['T13', 'T17']       |    ['P4', 'P12', 'P14', 'P20', 'P22', 'P25']    |
| P28 |    2    | ['T4', 'T9', 'T15', 'T19'] | ['T5', 'T8', 'T13', 'T17'] | ['P4', 'P9', 'P13', 'P14', 'P20', 'P22', 'P25'] |
+-----+---------+----------------------------+----------------------------+-------------------------------------------------+ 

21/07/2021 19:51:12[INFO] Supervisores agregados   
+-----+-------+---------+--------------+--------------+
| Nro | Plaza | Marcado | T - Entrada  |  T - Salida  |
+-----+-------+---------+--------------+--------------+
|  1  |  P27  |    1    | ['T4', 'T9'] | ['T5', 'T8'] |
+-----+-------+---------+--------------+--------------+ 

21/07/2021 19:51:12[INFO] Ejecutando accion...   
21/07/2021 19:51:12[ACTION] Agregar o quitar arcos   

--------------------------------------------------------------------------   
21/07/2021 19:51:12[INFO] Ejecutando petrinator para conocer estado de la red...   
--------------------------------------------------------------------------
   
--------------------------------------------------------------------------
   
21/07/2021 19:51:17[INFO] Calculando recompensa..   
21/07/2021 19:51:17[REWARD] Hay menos o igual cantidad de sifones vacios que en el estado anterior, recompensa -1   

--------------------------------------------------------------------------
   
21/07/2021 19:51:17[STATE] Cambie al estado 3: Hay igual cantidad de sifones vacios en deadlock   
+-----------------------------------------------------+--------------------+------------------------+
|                   Estados/Acciones                  | Agregar supervisor | Agregar o quitar arcos |
+-----------------------------------------------------+--------------------+------------------------+
|                        Start                        |        -1.0        |          0.0           |
|        Más sifónes vacíos en estado deadlock        |        0.0         |          0.0           |
|       Menos sifónes vacíos en estado deadlock       |        0.0         |          -1.0          |
| Igual cantidad de sifónes vacíos en estado deadlock |        0.0         |          -1.0          |
|                         End                         |        0.0         |          0.0           |
+-----------------------------------------------------+--------------------+------------------------+ 

21/07/2021 19:51:17[INFO] SIFONES   
+----+-----+-------------------------------------------------+
| ID | Nro |                      Plazas                     |
+----+-----+-------------------------------------------------+
| 13 |  2  | ['P3', 'P8', 'P12', 'P14', 'P20', 'P22', 'P25'] |
| 14 |  59 | ['P3', 'P8', 'P12', 'P14', 'P19', 'P23', 'P25'] |
| 15 |  3  |    ['P4', 'P12', 'P14', 'P20', 'P22', 'P25']    |
| 16 |  19 | ['P4', 'P9', 'P13', 'P14', 'P20', 'P22', 'P25'] |
+----+-----+-------------------------------------------------+ 

21/07/2021 19:51:17[INFO] T INVARIANTES   
+----+----+----+----+----+----+----+----+----+----+-----+-----+-----+-----+-----+-----+-----+-----+-----+-----+
| T0 | T1 | T2 | T3 | T4 | T5 | T6 | T7 | T8 | T9 | T10 | T11 | T12 | T13 | T14 | T15 | T16 | T17 | T18 | T19 |
+----+----+----+----+----+----+----+----+----+----+-----+-----+-----+-----+-----+-----+-----+-----+-----+-----+
| 1  | 1  | 1  | 1  | 1  | 1  | 0  | 0  | 0  | 0  |  0  |  0  |  0  |  0  |  0  |  0  |  0  |  0  |  0  |  0  |
| 0  | 0  | 0  | 0  | 0  | 0  | 1  | 1  | 1  | 1  |  1  |  1  |  0  |  0  |  0  |  0  |  0  |  0  |  0  |  0  |
| 0  | 0  | 0  | 0  | 0  | 0  | 0  | 0  | 0  | 0  |  1  |  1  |  1  |  1  |  1  |  1  |  0  |  0  |  0  |  0  |
| 0  | 0  | 0  | 0  | 0  | 0  | 0  | 0  | 0  | 0  |  0  |  0  |  0  |  0  |  0  |  0  |  1  |  1  |  1  |  1  |
+----+----+----+----+----+----+----+----+----+----+-----+-----+-----+-----+-----+-----+-----+-----+-----+-----+ 

21/07/2021 19:51:17[INFO] Supervisores para agregar   
+-----+---------+----------------------------+----------------------------+-------------------------------------------------+
|  ID | Marcado |        T - Entrada         |         T - Salida         |                Sifon a controlar                |
+-----+---------+----------------------------+----------------------------+-------------------------------------------------+
| P28 |    2    | ['T3', 'T8', 'T15', 'T19'] | ['T4', 'T7', 'T13', 'T17'] | ['P3', 'P8', 'P12', 'P14', 'P20', 'P22', 'P25'] |
| P28 |    1    |        ['T3', 'T8']        |        ['T4', 'T7']        | ['P3', 'P8', 'P12', 'P14', 'P19', 'P23', 'P25'] |
| P28 |    1    |       ['T15', 'T19']       |       ['T13', 'T17']       |    ['P4', 'P12', 'P14', 'P20', 'P22', 'P25']    |
| P28 |    2    | ['T4', 'T9', 'T15', 'T19'] | ['T5', 'T8', 'T13', 'T17'] | ['P4', 'P9', 'P13', 'P14', 'P20', 'P22', 'P25'] |
+-----+---------+----------------------------+----------------------------+-------------------------------------------------+ 

21/07/2021 19:51:17[INFO] Supervisores agregados   
+-----+-------+---------+--------------+--------------+
| Nro | Plaza | Marcado | T - Entrada  |  T - Salida  |
+-----+-------+---------+--------------+--------------+
|  1  |  P27  |    1    | ['T4', 'T9'] | ['T5', 'T8'] |
+-----+-------+---------+--------------+--------------+ 

21/07/2021 19:51:17[INFO] Ejecutando accion...   
21/07/2021 19:51:17[ACTION] Agrego supervisor aleatorio Numero: 0  

--------------------------------------------------------------------------   
21/07/2021 19:51:17[INFO] Ejecutando petrinator para conocer estado de la red...   
--------------------------------------------------------------------------
   
--------------------------------------------------------------------------
   
21/07/2021 19:51:22[INFO] Calculando recompensa..   
21/07/2021 19:51:22[REWARD] El sifon se controlo correctamente, recompensa -1   

--------------------------------------------------------------------------
   
21/07/2021 19:51:22[STATE] Cambie al estado 2: Hay menos sifones vacios en deadlock   
+-----------------------------------------------------+--------------------+------------------------+
|                   Estados/Acciones                  | Agregar supervisor | Agregar o quitar arcos |
+-----------------------------------------------------+--------------------+------------------------+
|                        Start                        |        -1.0        |          0.0           |
|        Más sifónes vacíos en estado deadlock        |        0.0         |          0.0           |
|       Menos sifónes vacíos en estado deadlock       |        0.0         |          -1.0          |
| Igual cantidad de sifónes vacíos en estado deadlock |        -1.0        |          -1.0          |
|                         End                         |        0.0         |          0.0           |
+-----------------------------------------------------+--------------------+------------------------+ 

21/07/2021 19:51:22[INFO] SIFONES   
+----+-----+-------------------------------------------------+
| ID | Nro |                      Plazas                     |
+----+-----+-------------------------------------------------+
| 17 |  71 | ['P3', 'P8', 'P12', 'P14', 'P19', 'P23', 'P25'] |
| 18 |  3  |    ['P4', 'P12', 'P14', 'P20', 'P22', 'P25']    |
| 19 |  19 | ['P4', 'P9', 'P13', 'P14', 'P20', 'P22', 'P25'] |
+----+-----+-------------------------------------------------+ 

21/07/2021 19:51:22[INFO] T INVARIANTES   
+----+----+----+----+----+----+----+----+----+----+-----+-----+-----+-----+-----+-----+-----+-----+-----+-----+
| T0 | T1 | T2 | T3 | T4 | T5 | T6 | T7 | T8 | T9 | T10 | T11 | T12 | T13 | T14 | T15 | T16 | T17 | T18 | T19 |
+----+----+----+----+----+----+----+----+----+----+-----+-----+-----+-----+-----+-----+-----+-----+-----+-----+
| 1  | 1  | 1  | 1  | 1  | 1  | 0  | 0  | 0  | 0  |  0  |  0  |  0  |  0  |  0  |  0  |  0  |  0  |  0  |  0  |
| 0  | 0  | 0  | 0  | 0  | 0  | 1  | 1  | 1  | 1  |  1  |  1  |  0  |  0  |  0  |  0  |  0  |  0  |  0  |  0  |
| 0  | 0  | 0  | 0  | 0  | 0  | 0  | 0  | 0  | 0  |  1  |  1  |  1  |  1  |  1  |  1  |  0  |  0  |  0  |  0  |
| 0  | 0  | 0  | 0  | 0  | 0  | 0  | 0  | 0  | 0  |  0  |  0  |  0  |  0  |  0  |  0  |  1  |  1  |  1  |  1  |
+----+----+----+----+----+----+----+----+----+----+-----+-----+-----+-----+-----+-----+-----+-----+-----+-----+ 

21/07/2021 19:51:22[INFO] Supervisores para agregar   
+-----+---------+----------------------------+----------------------------+-------------------------------------------------+
|  ID | Marcado |        T - Entrada         |         T - Salida         |                Sifon a controlar                |
+-----+---------+----------------------------+----------------------------+-------------------------------------------------+
| P29 |    1    |        ['T3', 'T8']        |        ['T4', 'T7']        | ['P3', 'P8', 'P12', 'P14', 'P19', 'P23', 'P25'] |
| P29 |    1    |       ['T15', 'T19']       |       ['T13', 'T17']       |    ['P4', 'P12', 'P14', 'P20', 'P22', 'P25']    |
| P29 |    2    | ['T4', 'T9', 'T15', 'T19'] | ['T5', 'T8', 'T13', 'T17'] | ['P4', 'P9', 'P13', 'P14', 'P20', 'P22', 'P25'] |
+-----+---------+----------------------------+----------------------------+-------------------------------------------------+ 

21/07/2021 19:51:22[INFO] Supervisores agregados   
+-----+-------+---------+----------------------------+----------------------------+
| Nro | Plaza | Marcado |        T - Entrada         |         T - Salida         |
+-----+-------+---------+----------------------------+----------------------------+
|  1  |  P27  |    1    |        ['T4', 'T9']        |        ['T5', 'T8']        |
|  2  |  P28  |    2    | ['T3', 'T8', 'T15', 'T19'] | ['T4', 'T7', 'T13', 'T17'] |
+-----+-------+---------+----------------------------+----------------------------+ 

21/07/2021 19:51:22[INFO] Ejecutando accion...   
21/07/2021 19:51:22[ACTION] Agrego supervisor aleatorio Numero: 2  

--------------------------------------------------------------------------   
21/07/2021 19:51:22[INFO] Ejecutando petrinator para conocer estado de la red...   
--------------------------------------------------------------------------
   
--------------------------------------------------------------------------
   
21/07/2021 19:51:29[INFO] Calculando recompensa..   
21/07/2021 19:51:29[REWARD] El sifon se controlo correctamente, recompensa -1   

--------------------------------------------------------------------------
   
21/07/2021 19:51:29[STATE] Cambie al estado 3: Hay igual cantidad de sifones vacios en deadlock   
+-----------------------------------------------------+--------------------+------------------------+
|                   Estados/Acciones                  | Agregar supervisor | Agregar o quitar arcos |
+-----------------------------------------------------+--------------------+------------------------+
|                        Start                        |        -1.0        |          0.0           |
|        Más sifónes vacíos en estado deadlock        |        0.0         |          0.0           |
|       Menos sifónes vacíos en estado deadlock       |        -1.9        |          -1.0          |
| Igual cantidad de sifónes vacíos en estado deadlock |        -1.0        |          -1.0          |
|                         End                         |        0.0         |          0.0           |
+-----------------------------------------------------+--------------------+------------------------+ 

21/07/2021 19:51:29[INFO] SIFONES   
+----+-----+---------------------------------------------------------+
| ID | Nro |                          Plazas                         |
+----+-----+---------------------------------------------------------+
| 20 |  89 |     ['P3', 'P8', 'P12', 'P14', 'P19', 'P23', 'P25']     |
| 21 |  3  |        ['P4', 'P12', 'P14', 'P20', 'P22', 'P25']        |
| 22 |  51 | ['P4', 'P10', 'P12', 'P14', 'P15', 'P22', 'P25', 'P29'] |
+----+-----+---------------------------------------------------------+ 

21/07/2021 19:51:29[INFO] T INVARIANTES   
+----+----+----+----+----+----+----+----+----+----+-----+-----+-----+-----+-----+-----+-----+-----+-----+-----+
| T0 | T1 | T2 | T3 | T4 | T5 | T6 | T7 | T8 | T9 | T10 | T11 | T12 | T13 | T14 | T15 | T16 | T17 | T18 | T19 |
+----+----+----+----+----+----+----+----+----+----+-----+-----+-----+-----+-----+-----+-----+-----+-----+-----+
| 1  | 1  | 1  | 1  | 1  | 1  | 0  | 0  | 0  | 0  |  0  |  0  |  0  |  0  |  0  |  0  |  0  |  0  |  0  |  0  |
| 0  | 0  | 0  | 0  | 0  | 0  | 1  | 1  | 1  | 1  |  1  |  1  |  0  |  0  |  0  |  0  |  0  |  0  |  0  |  0  |
| 0  | 0  | 0  | 0  | 0  | 0  | 0  | 0  | 0  | 0  |  1  |  1  |  1  |  1  |  1  |  1  |  0  |  0  |  0  |  0  |
| 0  | 0  | 0  | 0  | 0  | 0  | 0  | 0  | 0  | 0  |  0  |  0  |  0  |  0  |  0  |  0  |  1  |  1  |  1  |  1  |
+----+----+----+----+----+----+----+----+----+----+-----+-----+-----+-----+-----+-----+-----+-----+-----+-----+ 

21/07/2021 19:51:29[INFO] Supervisores para agregar   
+-----+---------+----------------------------+----------------------+---------------------------------------------------------+
|  ID | Marcado |        T - Entrada         |      T - Salida      |                    Sifon a controlar                    |
+-----+---------+----------------------------+----------------------+---------------------------------------------------------+
| P30 |    1    |        ['T3', 'T8']        |     ['T4', 'T7']     |     ['P3', 'P8', 'P12', 'P14', 'P19', 'P23', 'P25']     |
| P30 |    1    |       ['T15', 'T19']       |    ['T13', 'T17']    |        ['P4', 'P12', 'P14', 'P20', 'P22', 'P25']        |
| P30 |    2    | ['T4', 'T9', 'T15', 'T19'] | ['T6', 'T13', 'T17'] | ['P4', 'P10', 'P12', 'P14', 'P15', 'P22', 'P25', 'P29'] |
+-----+---------+----------------------------+----------------------+---------------------------------------------------------+ 

21/07/2021 19:51:29[INFO] Supervisores agregados   
+-----+-------+---------+----------------------------+----------------------------+
| Nro | Plaza | Marcado |        T - Entrada         |         T - Salida         |
+-----+-------+---------+----------------------------+----------------------------+
|  1  |  P27  |    1    |        ['T4', 'T9']        |        ['T5', 'T8']        |
|  2  |  P28  |    2    | ['T3', 'T8', 'T15', 'T19'] | ['T4', 'T7', 'T13', 'T17'] |
|  3  |  P29  |    2    | ['T4', 'T9', 'T15', 'T19'] | ['T5', 'T8', 'T13', 'T17'] |
+-----+-------+---------+----------------------------+----------------------------+ 

21/07/2021 19:51:29[INFO] Ejecutando accion...   
21/07/2021 19:51:29[ACTION] Agregar o quitar arcos   

--------------------------------------------------------------------------   
21/07/2021 19:51:29[INFO] Ejecutando petrinator para conocer estado de la red...   
--------------------------------------------------------------------------
   
--------------------------------------------------------------------------
   
21/07/2021 19:51:36[INFO] Calculando recompensa..   
21/07/2021 19:51:36[REWARD] Hay menos o igual cantidad de sifones vacios que en el estado anterior, recompensa -1   

--------------------------------------------------------------------------
   
21/07/2021 19:51:36[STATE] Cambie al estado 3: Hay igual cantidad de sifones vacios en deadlock   
+-----------------------------------------------------+--------------------+------------------------+
|                   Estados/Acciones                  | Agregar supervisor | Agregar o quitar arcos |
+-----------------------------------------------------+--------------------+------------------------+
|                        Start                        |        -1.0        |          0.0           |
|        Más sifónes vacíos en estado deadlock        |        0.0         |          0.0           |
|       Menos sifónes vacíos en estado deadlock       |        -1.9        |          -1.0          |
| Igual cantidad de sifónes vacíos en estado deadlock |        -1.0        |          -1.9          |
|                         End                         |        0.0         |          0.0           |
+-----------------------------------------------------+--------------------+------------------------+ 

21/07/2021 19:51:36[INFO] SIFONES   
+----+-----+---------------------------------------------------------+
| ID | Nro |                          Plazas                         |
+----+-----+---------------------------------------------------------+
| 23 |  89 |     ['P3', 'P8', 'P12', 'P14', 'P19', 'P23', 'P25']     |
| 24 |  3  |        ['P4', 'P12', 'P14', 'P20', 'P22', 'P25']        |
| 25 |  51 | ['P4', 'P10', 'P12', 'P14', 'P15', 'P22', 'P25', 'P29'] |
+----+-----+---------------------------------------------------------+ 

21/07/2021 19:51:36[INFO] T INVARIANTES   
+----+----+----+----+----+----+----+----+----+----+-----+-----+-----+-----+-----+-----+-----+-----+-----+-----+
| T0 | T1 | T2 | T3 | T4 | T5 | T6 | T7 | T8 | T9 | T10 | T11 | T12 | T13 | T14 | T15 | T16 | T17 | T18 | T19 |
+----+----+----+----+----+----+----+----+----+----+-----+-----+-----+-----+-----+-----+-----+-----+-----+-----+
| 1  | 1  | 1  | 1  | 1  | 1  | 0  | 0  | 0  | 0  |  0  |  0  |  0  |  0  |  0  |  0  |  0  |  0  |  0  |  0  |
| 0  | 0  | 0  | 0  | 0  | 0  | 1  | 1  | 1  | 1  |  1  |  1  |  0  |  0  |  0  |  0  |  0  |  0  |  0  |  0  |
| 0  | 0  | 0  | 0  | 0  | 0  | 0  | 0  | 0  | 0  |  1  |  1  |  1  |  1  |  1  |  1  |  0  |  0  |  0  |  0  |
| 0  | 0  | 0  | 0  | 0  | 0  | 0  | 0  | 0  | 0  |  0  |  0  |  0  |  0  |  0  |  0  |  1  |  1  |  1  |  1  |
+----+----+----+----+----+----+----+----+----+----+-----+-----+-----+-----+-----+-----+-----+-----+-----+-----+ 

21/07/2021 19:51:36[INFO] Supervisores para agregar   
+-----+---------+----------------------------+----------------------+---------------------------------------------------------+
|  ID | Marcado |        T - Entrada         |      T - Salida      |                    Sifon a controlar                    |
+-----+---------+----------------------------+----------------------+---------------------------------------------------------+
| P30 |    1    |        ['T3', 'T8']        |     ['T4', 'T7']     |     ['P3', 'P8', 'P12', 'P14', 'P19', 'P23', 'P25']     |
| P30 |    1    |       ['T15', 'T19']       |    ['T13', 'T17']    |        ['P4', 'P12', 'P14', 'P20', 'P22', 'P25']        |
| P30 |    2    | ['T4', 'T9', 'T15', 'T19'] | ['T6', 'T13', 'T17'] | ['P4', 'P10', 'P12', 'P14', 'P15', 'P22', 'P25', 'P29'] |
+-----+---------+----------------------------+----------------------+---------------------------------------------------------+ 

21/07/2021 19:51:36[INFO] Supervisores agregados   
+-----+-------+---------+----------------------------+----------------------------+
| Nro | Plaza | Marcado |        T - Entrada         |         T - Salida         |
+-----+-------+---------+----------------------------+----------------------------+
|  1  |  P27  |    1    |        ['T4', 'T9']        |        ['T5', 'T8']        |
|  2  |  P28  |    2    | ['T3', 'T8', 'T15', 'T19'] | ['T4', 'T7', 'T13', 'T17'] |
|  3  |  P29  |    2    | ['T4', 'T9', 'T15', 'T19'] | ['T5', 'T8', 'T13', 'T17'] |
+-----+-------+---------+----------------------------+----------------------------+ 

21/07/2021 19:51:36[INFO] Ejecutando accion...   
21/07/2021 19:51:36[ACTION] Agrego supervisor aleatorio Numero: 1  

--------------------------------------------------------------------------   
21/07/2021 19:51:36[INFO] Ejecutando petrinator para conocer estado de la red...   
--------------------------------------------------------------------------
   
--------------------------------------------------------------------------
   
21/07/2021 19:51:44[INFO] Calculando recompensa..   
21/07/2021 19:51:44[REWARD] El sifon se controlo correctamente, recompensa -1   

--------------------------------------------------------------------------
   
21/07/2021 19:51:44[STATE] Cambie al estado 2: Hay menos sifones vacios en deadlock   
+-----------------------------------------------------+--------------------+------------------------+
|                   Estados/Acciones                  | Agregar supervisor | Agregar o quitar arcos |
+-----------------------------------------------------+--------------------+------------------------+
|                        Start                        |        -1.0        |          0.0           |
|        Más sifónes vacíos en estado deadlock        |        0.0         |          0.0           |
|       Menos sifónes vacíos en estado deadlock       |        -1.9        |          -1.0          |
| Igual cantidad de sifónes vacíos en estado deadlock |        -1.9        |          -1.9          |
|                         End                         |        0.0         |          0.0           |
+-----------------------------------------------------+--------------------+------------------------+ 

21/07/2021 19:51:44[INFO] SIFONES   
+----+-----+-------------------------------------------------+
| ID | Nro |                      Plazas                     |
+----+-----+-------------------------------------------------+
| 26 |  93 | ['P3', 'P8', 'P12', 'P14', 'P19', 'P23', 'P25'] |
+----+-----+-------------------------------------------------+ 

21/07/2021 19:51:44[INFO] T INVARIANTES   
+----+----+----+----+----+----+----+----+----+----+-----+-----+-----+-----+-----+-----+-----+-----+-----+-----+
| T0 | T1 | T2 | T3 | T4 | T5 | T6 | T7 | T8 | T9 | T10 | T11 | T12 | T13 | T14 | T15 | T16 | T17 | T18 | T19 |
+----+----+----+----+----+----+----+----+----+----+-----+-----+-----+-----+-----+-----+-----+-----+-----+-----+
| 1  | 1  | 1  | 1  | 1  | 1  | 0  | 0  | 0  | 0  |  0  |  0  |  0  |  0  |  0  |  0  |  0  |  0  |  0  |  0  |
| 0  | 0  | 0  | 0  | 0  | 0  | 1  | 1  | 1  | 1  |  1  |  1  |  0  |  0  |  0  |  0  |  0  |  0  |  0  |  0  |
| 0  | 0  | 0  | 0  | 0  | 0  | 0  | 0  | 0  | 0  |  1  |  1  |  1  |  1  |  1  |  1  |  0  |  0  |  0  |  0  |
| 0  | 0  | 0  | 0  | 0  | 0  | 0  | 0  | 0  | 0  |  0  |  0  |  0  |  0  |  0  |  0  |  1  |  1  |  1  |  1  |
+----+----+----+----+----+----+----+----+----+----+-----+-----+-----+-----+-----+-----+-----+-----+-----+-----+ 

21/07/2021 19:51:44[INFO] Supervisores para agregar   
+-----+---------+--------------+--------------+-------------------------------------------------+
|  ID | Marcado | T - Entrada  |  T - Salida  |                Sifon a controlar                |
+-----+---------+--------------+--------------+-------------------------------------------------+
| P31 |    1    | ['T3', 'T8'] | ['T4', 'T7'] | ['P3', 'P8', 'P12', 'P14', 'P19', 'P23', 'P25'] |
+-----+---------+--------------+--------------+-------------------------------------------------+ 

21/07/2021 19:51:44[INFO] Supervisores agregados   
+-----+-------+---------+----------------------------+----------------------------+
| Nro | Plaza | Marcado |        T - Entrada         |         T - Salida         |
+-----+-------+---------+----------------------------+----------------------------+
|  1  |  P27  |    1    |        ['T4', 'T9']        |        ['T5', 'T8']        |
|  2  |  P28  |    2    | ['T3', 'T8', 'T15', 'T19'] | ['T4', 'T7', 'T13', 'T17'] |
|  3  |  P29  |    2    | ['T4', 'T9', 'T15', 'T19'] | ['T5', 'T8', 'T13', 'T17'] |
|  4  |  P30  |    1    |       ['T15', 'T19']       |       ['T13', 'T17']       |
+-----+-------+---------+----------------------------+----------------------------+ 

21/07/2021 19:51:44[INFO] Ejecutando accion...   
21/07/2021 19:51:44[ACTION] Agregar o quitar arcos   

--------------------------------------------------------------------------   
21/07/2021 19:51:44[INFO] Ejecutando petrinator para conocer estado de la red...   
--------------------------------------------------------------------------
   
--------------------------------------------------------------------------
   
21/07/2021 19:51:51[INFO] Calculando recompensa..   
21/07/2021 19:51:51[REWARD] Hay menos o igual cantidad de sifones vacios que en el estado anterior, recompensa -1   

--------------------------------------------------------------------------
   
21/07/2021 19:51:51[STATE] Cambie al estado 3: Hay igual cantidad de sifones vacios en deadlock   
+-----------------------------------------------------+--------------------+------------------------+
|                   Estados/Acciones                  | Agregar supervisor | Agregar o quitar arcos |
+-----------------------------------------------------+--------------------+------------------------+
|                        Start                        |        -1.0        |          0.0           |
|        Más sifónes vacíos en estado deadlock        |        0.0         |          0.0           |
|       Menos sifónes vacíos en estado deadlock       |        -1.9        |         -2.71          |
| Igual cantidad de sifónes vacíos en estado deadlock |        -1.9        |          -1.9          |
|                         End                         |        0.0         |          0.0           |
+-----------------------------------------------------+--------------------+------------------------+ 

21/07/2021 19:51:51[INFO] SIFONES   
+----+-----+-------------------------------------------------+
| ID | Nro |                      Plazas                     |
+----+-----+-------------------------------------------------+
| 27 |  93 | ['P3', 'P8', 'P12', 'P14', 'P19', 'P23', 'P25'] |
+----+-----+-------------------------------------------------+ 

21/07/2021 19:51:51[INFO] T INVARIANTES   
+----+----+----+----+----+----+----+----+----+----+-----+-----+-----+-----+-----+-----+-----+-----+-----+-----+
| T0 | T1 | T2 | T3 | T4 | T5 | T6 | T7 | T8 | T9 | T10 | T11 | T12 | T13 | T14 | T15 | T16 | T17 | T18 | T19 |
+----+----+----+----+----+----+----+----+----+----+-----+-----+-----+-----+-----+-----+-----+-----+-----+-----+
| 1  | 1  | 1  | 1  | 1  | 1  | 0  | 0  | 0  | 0  |  0  |  0  |  0  |  0  |  0  |  0  |  0  |  0  |  0  |  0  |
| 0  | 0  | 0  | 0  | 0  | 0  | 1  | 1  | 1  | 1  |  1  |  1  |  0  |  0  |  0  |  0  |  0  |  0  |  0  |  0  |
| 0  | 0  | 0  | 0  | 0  | 0  | 0  | 0  | 0  | 0  |  1  |  1  |  1  |  1  |  1  |  1  |  0  |  0  |  0  |  0  |
| 0  | 0  | 0  | 0  | 0  | 0  | 0  | 0  | 0  | 0  |  0  |  0  |  0  |  0  |  0  |  0  |  1  |  1  |  1  |  1  |
+----+----+----+----+----+----+----+----+----+----+-----+-----+-----+-----+-----+-----+-----+-----+-----+-----+ 

21/07/2021 19:51:51[INFO] Supervisores para agregar   
+-----+---------+--------------+--------------+-------------------------------------------------+
|  ID | Marcado | T - Entrada  |  T - Salida  |                Sifon a controlar                |
+-----+---------+--------------+--------------+-------------------------------------------------+
| P31 |    1    | ['T3', 'T8'] | ['T4', 'T7'] | ['P3', 'P8', 'P12', 'P14', 'P19', 'P23', 'P25'] |
+-----+---------+--------------+--------------+-------------------------------------------------+ 

21/07/2021 19:51:51[INFO] Supervisores agregados   
+-----+-------+---------+----------------------------+----------------------------+
| Nro | Plaza | Marcado |        T - Entrada         |         T - Salida         |
+-----+-------+---------+----------------------------+----------------------------+
|  1  |  P27  |    1    |        ['T4', 'T9']        |        ['T5', 'T8']        |
|  2  |  P28  |    2    | ['T3', 'T8', 'T15', 'T19'] | ['T4', 'T7', 'T13', 'T17'] |
|  3  |  P29  |    2    | ['T4', 'T9', 'T15', 'T19'] | ['T5', 'T8', 'T13', 'T17'] |
|  4  |  P30  |    1    |       ['T15', 'T19']       |       ['T13', 'T17']       |
+-----+-------+---------+----------------------------+----------------------------+ 

21/07/2021 19:51:51[INFO] Ejecutando accion...   
21/07/2021 19:51:51[ACTION] Agregar o quitar arcos   

--------------------------------------------------------------------------   
21/07/2021 19:51:51[INFO] Ejecutando petrinator para conocer estado de la red...   
--------------------------------------------------------------------------
   
--------------------------------------------------------------------------
   
21/07/2021 19:51:58[INFO] Calculando recompensa..   
21/07/2021 19:51:58[REWARD] Hay menos o igual cantidad de sifones vacios que en el estado anterior, recompensa -1   

--------------------------------------------------------------------------
   
21/07/2021 19:51:58[STATE] Cambie al estado 3: Hay igual cantidad de sifones vacios en deadlock   
+-----------------------------------------------------+--------------------+------------------------+
|                   Estados/Acciones                  | Agregar supervisor | Agregar o quitar arcos |
+-----------------------------------------------------+--------------------+------------------------+
|                        Start                        |        -1.0        |          0.0           |
|        Más sifónes vacíos en estado deadlock        |        0.0         |          0.0           |
|       Menos sifónes vacíos en estado deadlock       |        -1.9        |         -2.71          |
| Igual cantidad de sifónes vacíos en estado deadlock |        -1.9        |         -2.71          |
|                         End                         |        0.0         |          0.0           |
+-----------------------------------------------------+--------------------+------------------------+ 

21/07/2021 19:51:58[INFO] SIFONES   
+----+-----+-------------------------------------------------+
| ID | Nro |                      Plazas                     |
+----+-----+-------------------------------------------------+
| 28 |  93 | ['P3', 'P8', 'P12', 'P14', 'P19', 'P23', 'P25'] |
+----+-----+-------------------------------------------------+ 

21/07/2021 19:51:58[INFO] T INVARIANTES   
+----+----+----+----+----+----+----+----+----+----+-----+-----+-----+-----+-----+-----+-----+-----+-----+-----+
| T0 | T1 | T2 | T3 | T4 | T5 | T6 | T7 | T8 | T9 | T10 | T11 | T12 | T13 | T14 | T15 | T16 | T17 | T18 | T19 |
+----+----+----+----+----+----+----+----+----+----+-----+-----+-----+-----+-----+-----+-----+-----+-----+-----+
| 1  | 1  | 1  | 1  | 1  | 1  | 0  | 0  | 0  | 0  |  0  |  0  |  0  |  0  |  0  |  0  |  0  |  0  |  0  |  0  |
| 0  | 0  | 0  | 0  | 0  | 0  | 1  | 1  | 1  | 1  |  1  |  1  |  0  |  0  |  0  |  0  |  0  |  0  |  0  |  0  |
| 0  | 0  | 0  | 0  | 0  | 0  | 0  | 0  | 0  | 0  |  1  |  1  |  1  |  1  |  1  |  1  |  0  |  0  |  0  |  0  |
| 0  | 0  | 0  | 0  | 0  | 0  | 0  | 0  | 0  | 0  |  0  |  0  |  0  |  0  |  0  |  0  |  1  |  1  |  1  |  1  |
+----+----+----+----+----+----+----+----+----+----+-----+-----+-----+-----+-----+-----+-----+-----+-----+-----+ 

21/07/2021 19:51:58[INFO] Supervisores para agregar   
+-----+---------+--------------+--------------+-------------------------------------------------+
|  ID | Marcado | T - Entrada  |  T - Salida  |                Sifon a controlar                |
+-----+---------+--------------+--------------+-------------------------------------------------+
| P31 |    1    | ['T3', 'T8'] | ['T4', 'T7'] | ['P3', 'P8', 'P12', 'P14', 'P19', 'P23', 'P25'] |
+-----+---------+--------------+--------------+-------------------------------------------------+ 

21/07/2021 19:51:58[INFO] Supervisores agregados   
+-----+-------+---------+----------------------------+----------------------------+
| Nro | Plaza | Marcado |        T - Entrada         |         T - Salida         |
+-----+-------+---------+----------------------------+----------------------------+
|  1  |  P27  |    1    |        ['T4', 'T9']        |        ['T5', 'T8']        |
|  2  |  P28  |    2    | ['T3', 'T8', 'T15', 'T19'] | ['T4', 'T7', 'T13', 'T17'] |
|  3  |  P29  |    2    | ['T4', 'T9', 'T15', 'T19'] | ['T5', 'T8', 'T13', 'T17'] |
|  4  |  P30  |    1    |       ['T15', 'T19']       |       ['T13', 'T17']       |
+-----+-------+---------+----------------------------+----------------------------+ 

21/07/2021 19:51:58[INFO] Ejecutando accion...   
21/07/2021 19:51:58[ACTION] Agrego supervisor Numero: 0   

--------------------------------------------------------------------------   
21/07/2021 19:51:58[INFO] Ejecutando petrinator para conocer estado de la red...   
--------------------------------------------------------------------------
   
--------------------------------------------------------------------------
   
21/07/2021 19:52:07[INFO] Calculando recompensa..   
21/07/2021 19:52:07[REWARD] No hay mas deadlock, recompensa 100   

--------------------------------------------------------------------------
   
21/07/2021 19:52:07[STATE] Se llego al estado deseado, NO HAY MAS DEADLOCK   

--------------------------------------------------------------------------
   
+-----------------------------------------------------+--------------------+------------------------+
|                   Estados/Acciones                  | Agregar supervisor | Agregar o quitar arcos |
+-----------------------------------------------------+--------------------+------------------------+
|                        Start                        |        -1.0        |          0.0           |
|        Más sifónes vacíos en estado deadlock        |        0.0         |          0.0           |
|       Menos sifónes vacíos en estado deadlock       |        -1.9        |         -2.71          |
| Igual cantidad de sifónes vacíos en estado deadlock |       100.0        |         -2.71          |
|                         End                         |        0.0         |          0.0           |
+-----------------------------------------------------+--------------------+------------------------+ 

