 Minimal siphons 
2 7 8 12 14 20 21 22 25
3 8 12 14 20 22 25
4 12 14 20 22 25
20 22 24
23 24 25 26
18 21
29 5 10 12 15 22 24
5 9 10 15
6 10 15
27 5 12
5 9 13
30 19 23 24
30 5 9 13 19 23 24
29 5 12 19 23 24
30 5 9 13 19 23 24 25
18 19 20 21
30 19 20 23 24
5 9 13 15 16 18 19 20 17
6 10 15 16 18 19 20 17
11 12 13 15 16 18 19 20 17
5 6 10 15 16 18 19 20 17
27 5 12 13 15 16 18 19 20 17
27 5 10 12 15 16 18 19 20 17
5 9 10 15 16 18 19 20 17
4 9 13 14 20 22 25
4 5 6 10 15
31 4 11
28 4 11 19 23 24
4 9 10 14 15 22 25
4 5 9 10 15
28 4 9 10 11 15 22 24
31 4 9 10 11 15
31 27 4 9 10 15
31 29 4 9 10 15 22 24
31 29 4 9 10 15 19 23 24
28 27 4 9 10 15 22 24
29 28 4 9 10 15 22 24
29 28 4 9 10 15 19 23 24
28 27 4 9 10 15 19 23 24
4 9 10 14 15 19 23 25
4 5 9 13
31 4 9 11 13
31 27 4 9 13
31 29 4 9 13 19 23 24
29 28 4 9 13 19 23 24
28 27 4 9 13 19 23 24
4 9 13 14 19 23 25
31 4 11 12
31 27 4 12
31 29 4 10 12 15 22 24
31 29 4 12 19 23 24
29 28 4 10 12 15 22 24
29 28 4 12 19 23 24
28 27 4 10 12 15 22 24
28 27 4 12 19 23 24
4 5 6 10 11 12 15 16 17
27 4 5 12
29 4 5 12 19 23 24
27 4 5 6 10 12 15
29 4 5 6 10 12 15 22 24
31 4 5 6 10 11 12 15
27 4 5 9 12 13
27 4 5 9 10 12 15
4 5 9 10 11 12 15 16 17
31 4 5 9 10 11 12 15
31 4 5 9 11 12 13
31 4 5 9 10 11 12 13 15
31 4 5 9 11 12 13 15 18 19 20 21
4 5 9 10 11 12 13 15 16 17
4 5 9 11 12 13 15 16 18 19 20 17
27 4 10 12 14 15 22 25
29 4 10 12 14 15 22 25
4 12 14 19 23 25
3 4 5 6 10 15
31 3 4 11
3 4 5 9 10 15
31 3 4 9 10 11 15
31 27 3 4 9 10 15
3 4 5 9 13
31 3 4 9 11 13
31 27 3 4 9 13
31 3 4 11 12
31 27 3 4 12
3 4 5 6 10 11 12 15 16 17
27 3 4 5 12
29 3 4 5 12 19 23 24
27 3 4 5 6 10 12 15
29 3 4 5 6 10 12 15 22 24
31 3 4 5 6 10 11 12 15
27 3 4 5 9 12 13
27 3 4 5 9 10 12 15
3 4 5 9 10 11 12 15 16 17
31 3 4 5 9 10 11 12 15
31 3 4 5 9 11 12 13
31 3 4 5 9 10 11 12 13 15
31 3 4 5 9 11 12 13 15 18 19 20 21
3 4 5 9 10 11 12 13 15 16 17
3 4 5 9 11 12 13 15 16 18 19 20 17
3 8 9 13 14 20 22 25
3 8 11
3 8 9 10 14 15 22 25
3 5 8 9 10 11 15
31 3 8 9 10 11 15
31 27 3 8 9 10 15
31 29 3 8 9 10 15 22 24
31 29 3 8 9 10 15 19 23 24
28 27 3 8 9 10 15 22 24
29 28 3 8 9 10 15 22 24
29 28 3 8 9 10 15 19 23 24
28 27 3 8 9 10 15 19 23 24
27 3 5 8 9 10 15
3 8 9 10 14 15 19 23 25
3 5 8 9 11 13
31 3 8 9 11 13
31 27 3 8 9 13
31 29 3 8 9 13 19 23 24
29 28 3 8 9 13 19 23 24
28 27 3 8 9 13 19 23 24
27 3 5 8 9 13
3 8 9 13 14 19 23 25
3 8 11 12
27 3 5 8 12
31 29 3 8 10 12 15 22 24
31 29 3 8 12 19 23 24
29 28 3 8 10 12 15 22 24
29 28 3 8 12 19 23 24
31 27 3 8 12
28 27 3 8 10 12 15 22 24
28 27 3 8 12 19 23 24
27 3 8 10 12 14 15 22 25
29 3 8 10 12 14 15 22 25
3 8 12 14 19 23 25
2 3 4 5 6 10 15
31 2 3 4 11
1 2 3 4 5 6
2 3 4 5 9 10 15
31 2 3 4 9 10 11 15
31 27 2 3 4 9 10 15
2 3 4 5 9 13
31 2 3 4 9 11 13
31 27 2 3 4 9 13
31 2 3 4 11 12
31 27 2 3 4 12
2 3 4 5 6 10 11 12 15 16 17
27 2 3 4 5 12
29 2 3 4 5 12 19 23 24
1 27 2 3 4 5 6 12
1 31 2 3 4 5 6 11 12
1 31 2 3 4 5 6 11 12 13
1 31 2 3 4 5 6 11 12 13 15 18 19 20 21
1 2 3 4 5 6 11 12 13 15 16 18 19 20 17
27 2 3 4 5 6 10 12 15
29 2 3 4 5 6 10 12 15 22 24
31 2 3 4 5 6 10 11 12 15
27 2 3 4 5 9 12 13
27 2 3 4 5 9 10 12 15
2 3 4 5 9 10 11 12 15 16 17
31 2 3 4 5 9 10 11 12 15
31 2 3 4 5 9 11 12 13
31 2 3 4 5 9 10 11 12 13 15
31 2 3 4 5 9 11 12 13 15 18 19 20 21
2 3 4 5 9 10 11 12 13 15 16 17
2 3 4 5 9 11 12 13 15 16 18 19 20 17
2 3 8 11
2 3 5 8 9 10 11 15
31 2 3 8 9 10 11 15
31 27 2 3 8 9 10 15
27 2 3 5 8 9 10 15
2 3 5 8 9 11 13
31 2 3 8 9 11 13
31 27 2 3 8 9 13
27 2 3 5 8 9 13
2 3 8 11 12
27 2 3 5 8 12
31 27 2 3 8 12
2 7 16
31 2 4 7 11 18 21
31 2 4 7 9 10 11 15 18 21
31 27 2 4 7 9 10 15 18 21
31 2 4 7 9 11 13 18 21
31 27 2 4 7 9 13 18 21
31 2 4 7 11 12 18 21
31 27 2 4 7 12 18 21
31 27 2 4 7 10 12 14 15 21 22 25
31 29 2 4 7 10 12 14 15 21 22 25
31 29 2 4 7 10 12 14 15 19 21 23 25
31 27 2 4 7 10 12 14 15 19 21 23 25
28 27 2 4 7 10 12 14 15 21 22 25
29 28 2 4 7 10 12 14 15 21 22 25
29 28 2 4 7 10 12 14 15 19 21 23 25
28 27 2 4 7 10 12 14 15 19 21 23 25
2 7 8 9 13 14 20 21 22 25
2 7 8 11 18 21
30 2 6 7 8 10 11 15 21 22 24
2 7 8 11 16
30 2 7 8 11 19 21 23 24
30 2 7 8 11 19 20 21 23 24
1 30 2 6 7 8 11 19 21 23 24
1 30 2 6 7 8 11 19 20 21 23 24
30 2 6 7 8 10 11 15 16 22 24
28 2 7 8 11 19 21 23 24
28 2 6 7 8 10 11 15 16 22 24
2 7 8 11 16 18
2 7 8 9 10 14 15 21 22 25
2 5 7 8 9 10 11 15 18 21
28 2 7 8 9 10 11 15 21 22 24
31 2 7 8 9 10 11 15 18 21
31 27 2 7 8 9 10 15 18 21
31 29 2 7 8 9 10 15 21 22 24
31 29 2 7 8 9 10 15 19 21 23 24
31 30 27 2 7 8 9 10 15 21 22 24
31 27 2 7 8 9 10 15 16
31 30 27 2 7 8 9 10 15 16 22 24
31 27 2 7 8 9 10 15 16 18
31 30 2 7 8 9 10 11 15 21 22 24
31 2 7 8 9 10 11 15 16
31 30 2 7 8 9 10 11 15 16 22 24
31 2 7 8 9 10 11 15 16 18
28 27 2 7 8 9 10 15 21 22 24
29 28 2 7 8 9 10 15 21 22 24
29 28 2 7 8 9 10 15 19 21 23 24
28 27 2 7 8 9 10 15 19 21 23 24
27 2 5 7 8 9 10 15 18 21
29 2 5 7 8 9 10 15 21 22 24
29 2 5 7 8 9 10 15 16 22 24
29 2 5 7 8 9 10 15 16 19 23 24
29 2 5 7 8 9 10 15 19 21 23 24
29 27 2 5 7 8 9 10 15 21 22 24
30 27 2 5 7 8 9 10 15 21 22 24
27 2 5 7 8 9 10 15 16
30 27 2 5 7 8 9 10 15 16 22 24
29 27 2 5 7 8 9 10 15 16 22 24
27 2 5 7 8 9 10 15 16 18
29 2 5 7 8 9 10 11 15 21 22 24
30 2 5 7 8 9 10 11 15 21 22 24
2 5 7 8 9 10 11 15 16
30 2 5 7 8 9 10 11 15 16 22 24
29 2 5 7 8 9 10 11 15 16 22 24
2 5 7 8 9 10 11 15 16 18
2 7 8 9 10 14 15 19 21 23 25
2 5 7 8 9 11 13 18 21
31 2 7 8 9 11 13 18 21
31 27 2 7 8 9 13 18 21
31 29 2 7 8 9 13 19 21 23 24
31 27 2 7 8 9 13 16
31 30 27 2 7 8 9 10 13 15 16 22 24
31 27 2 7 8 9 13 16 18
31 2 7 8 9 11 13 16
31 30 2 7 8 9 10 11 13 15 16 22 24
31 2 7 8 9 11 13 16 18
29 28 2 7 8 9 13 19 21 23 24
28 27 2 7 8 9 13 19 21 23 24
27 2 5 7 8 9 13 18 21
29 2 5 7 8 9 10 13 15 21 22 24
29 2 5 7 8 9 13 19 21 23 24
29 2 5 7 8 9 13 16 19 23 24
29 2 5 7 8 9 10 13 15 16 22 24
29 2 5 7 8 9 10 13 15 16 19 23 24
29 2 5 7 8 9 10 13 15 19 21 23 24
29 2 5 7 8 9 13 16 19 20 23 24
29 2 5 7 8 9 13 19 20 21 23 24
27 2 5 7 8 9 13 16
30 27 2 5 7 8 9 10 13 15 21 22 24
30 27 2 5 7 8 9 10 13 15 16 22 24
29 27 2 5 7 8 9 10 13 15 21 22 24
29 27 2 5 7 8 9 10 13 15 16 22 24
27 2 5 7 8 9 13 16 18
2 5 7 8 9 11 13 16
30 2 5 7 8 9 10 11 13 15 21 22 24
30 2 5 7 8 9 10 11 13 15 16 22 24
29 2 5 7 8 9 10 11 13 15 21 22 24
29 2 5 7 8 9 10 11 13 15 16 22 24
2 5 7 8 9 11 13 16 18
2 7 8 9 13 14 19 21 23 25
2 7 8 11 12 18 21
27 2 5 7 8 12 18 21
31 29 2 7 8 10 12 15 21 22 24
31 29 2 7 8 12 19 21 23 24
29 28 2 7 8 10 12 15 21 22 24
29 28 2 7 8 12 19 21 23 24
29 2 5 7 8 10 12 15 21 22 24
29 2 5 7 8 12 19 21 23 24
29 2 5 7 8 10 12 15 19 21 23 24
29 2 5 7 8 12 19 20 21 23 24
31 27 2 7 8 12 18 21
31 27 2 7 8 12 16
31 30 27 2 7 8 10 12 15 21 22 24
31 30 27 2 7 8 10 12 15 16 22 24
31 27 2 7 8 12 16 18
28 27 2 7 8 10 12 15 21 22 24
28 27 2 7 8 12 19 21 23 24
27 2 5 7 8 12 16
30 27 2 5 7 8 10 12 15 21 22 24
30 27 2 5 7 8 12 19 21 23 24
30 27 2 5 7 8 10 12 15 16 22 24
30 27 2 5 7 8 10 12 15 19 21 23 24
30 27 2 5 7 8 12 19 20 21 23 24
29 27 2 5 7 8 10 12 15 21 22 24
29 27 2 5 7 8 12 19 21 23 24
29 27 2 5 7 8 10 12 15 19 21 23 24
29 27 2 5 7 8 12 19 20 21 23 24
27 2 5 7 8 12 16 18
2 7 8 11 12 16
30 2 5 7 8 9 10 11 12 15 21 22 24
30 2 6 7 8 10 11 12 15 21 22 24
30 2 7 8 11 12 19 21 23 24
1 30 2 6 7 8 11 12 19 21 23 24
30 2 6 7 8 10 11 12 15 16 22 24
31 30 2 6 7 8 10 11 12 15 21 22 24
31 30 2 7 8 11 12 19 21 23 24
31 30 27 2 7 8 11 12 19 21 23 24
31 30 27 2 7 8 10 11 12 15 16 22 24
1 31 30 2 6 7 8 11 12 19 21 23 24
31 30 2 6 7 8 10 11 12 15 16 22 24
31 30 2 7 8 9 11 12 13 19 21 23 24
31 30 2 7 8 9 10 11 12 15 16 22 24
30 2 5 6 7 8 10 11 12 15 21 22 24
30 27 2 5 7 8 10 11 12 15 21 22 24
30 27 2 5 7 8 11 12 19 21 23 24
30 27 2 5 7 8 10 11 12 15 16 22 24
30 27 2 5 7 8 10 11 12 15 19 21 23 24
1 30 2 5 6 7 8 11 12 19 21 23 24
30 2 5 6 7 8 10 11 12 15 16 22 24
30 2 5 7 8 9 10 11 12 15 16 22 24
30 2 7 8 11 12 16 19 20 23 24
30 2 7 8 11 12 19 20 21 23 24
29 2 5 7 8 10 11 12 15 21 22 24
29 2 5 7 8 11 12 19 21 23 24
29 2 5 7 8 10 11 12 15 19 21 23 24
29 2 5 7 8 11 12 19 20 21 23 24
29 28 2 7 8 10 11 12 15 21 22 24
29 28 2 7 8 11 12 19 21 23 24
29 28 2 7 8 10 11 12 15 19 21 23 24
28 2 6 7 8 10 11 12 15 16 22 24
2 7 8 11 12 16 18
27 2 7 8 10 12 14 15 21 22 25
29 2 7 8 10 12 14 15 21 22 25
2 7 8 12 14 19 21 23 25
 Minimal traps 
18 21
6 7 8 9 10 14 16 21 22 23
5 7 8 9 14 16 21 23 25
4 7 8 14 16 21 23 25
20 22 24
23 24 25 26
3 7 8 16
2 7 16
3 8 11
30 19 23 24
3 7 8 15 16 20 17
2 7 15 16 20 17
2 3 7 15 16 20 17
4 12 14 19 23 25
4 8 11 14 19 23 25
28 4 11 19 23 24
31 4 11
28 4 11 14 19 23
3 4 8 11
31 4 8 11
4 8 11 14 19 22 23
28 4 8 11 14 19 23
30 4 8 11 14 19 23
4 12 14 19 22 23
28 4 11 12 14 19 23
30 4 12 14 19 23
31 2 4 7 16
2 3 4 7 16
2 3 4 7 12 13 15 16 17
31 2 4 7 12 13 15 16 17
3 4 7 8 16
28 4 7 8 16 21 23 24
31 4 7 8 16
28 4 7 8 16 19 23 24
4 7 8 14 16 19 23 25
4 7 8 14 16 19 22 23
28 4 7 8 14 16 19 23
30 4 7 8 14 16 19 23
4 7 8 14 16 21 22 23
28 4 7 8 14 16 21 23
30 4 7 8 14 16 21 23
5 9 12 14 19 23 25
27 5 12
29 5 12 19 23 24
29 5 8 11 14 19 23
29 28 5 11 19 23 24
31 29 5 11 19 23 24
31 29 5 11 14 19 23
29 28 5 11 14 19 23
29 5 12 14 19 23
27 5 8 11 14 19 23 25
28 27 5 11 19 23 24
31 27 5 11
28 27 5 11 14 19 23
27 3 5 8 11
31 27 5 8 11
27 5 8 11 14 19 22 23
28 27 5 8 11 14 19 23
30 27 5 8 11 14 19 23
31 4 5 11
3 4 5 8 11
31 4 5 8 11
28 4 5 8 11 14 19 23
27 3 4 5 8 11 12
28 27 4 5 11 12 19 23 24
31 27 4 5 11 12
28 4 5 11 12 14 19 23
29 4 5 12 14 19 23
5 8 9 11 14 19 23 25
28 5 9 11 14 19 23
31 5 9 11 14 19 23 25
5 9 13
31 5 9 11 13
31 27 5 9 11
31 5 9 11 14 19 22 23
31 29 5 9 11 14 19 23
31 30 5 9 11 14 19 23
3 5 8 9 11 13
31 5 8 9 11 13
31 27 5 8 9 11
27 3 5 8 9 11
5 8 9 11 14 19 22 23
30 5 8 9 11 14 19 23
5 9 12 13
27 5 9 12
29 5 9 12 19 23 24
5 9 12 14 19 22 23
29 5 9 12 14 19 23
30 5 9 12 14 19 23
27 2 5 7 12 16
31 27 2 5 7 16
31 2 4 5 7 16
2 3 4 5 7 16
2 3 4 5 7 12 13 15 16 17
31 2 4 5 7 12 13 15 16 17
31 27 2 4 5 7 12 16
28 27 2 4 5 7 12 16 21 23 24
28 27 2 4 5 7 12 16 19 23 24
27 2 3 4 5 7 12 16
2 5 7 9 13 16
31 2 5 7 9 13 16
31 27 2 5 7 9 16
28 2 5 7 9 13 16 21 23 24
28 2 5 7 9 13 16 19 23 24
2 5 7 9 12 13 16
27 2 5 7 9 12 16
27 5 7 8 14 16 21 23 25
29 5 7 8 14 16 21 23
29 28 5 7 8 16 21 23 24
31 29 5 7 8 16 21 23 24
31 29 5 7 8 16 19 23 24
29 28 5 7 8 16 19 23 24
29 5 7 8 14 16 19 23
27 3 5 7 8 16
28 27 5 7 8 16 21 23 24
31 27 5 7 8 16
28 27 5 7 8 16 19 23 24
27 5 7 8 14 16 19 23 25
27 5 7 8 14 16 19 22 23
28 27 5 7 8 14 16 19 23
30 27 5 7 8 14 16 19 23
27 5 7 8 14 16 21 22 23
28 27 5 7 8 14 16 21 23
30 27 5 7 8 14 16 21 23
3 4 5 7 8 16
31 4 5 7 8 16
28 4 5 7 8 14 16 19 23
28 4 5 7 8 14 16 21 23
3 5 7 8 9 13 16
31 5 7 8 9 13 16
31 27 5 7 8 9 16
27 3 5 7 8 9 16
5 7 8 9 14 16 19 23 25
5 7 8 9 14 16 19 22 23
28 5 7 8 9 14 16 19 23
30 5 7 8 9 14 16 19 23
5 7 8 9 14 16 21 22 23
28 5 7 8 9 14 16 21 23
30 5 7 8 9 14 16 21 23
6 9 10 12 14 19 22 23
6 10 15
27 5 6 12
31 27 5 6 11
27 3 5 6 8 11
31 27 5 6 8 11
28 27 5 6 8 11 14 19 23
31 4 5 6 11
1 2 3 4 5 6
3 4 5 6 8 11
31 4 5 6 8 11
28 4 5 6 8 11 14 19 23
27 3 4 5 6 8 11 12
28 27 4 5 6 11 12 19 23 24
31 27 4 5 6 11 12
1 27 2 3 4 5 6 12
28 4 5 6 11 12 14 19 23
29 4 5 6 12 14 19 23
5 6 9 13
31 5 6 9 11 13
31 27 5 6 9 11
31 29 5 6 9 11 14 19 23
3 5 6 8 9 11 13
31 5 6 8 9 11 13
31 27 5 6 8 9 11
27 3 5 6 8 9 11
5 6 9 12 13
27 5 6 9 12
29 5 6 9 12 19 23 24
29 5 6 9 12 14 19 23
6 8 9 10 11 14 19 22 23
28 6 9 10 11 14 19 22 23
31 6 9 10 11 14 19 22 23
6 9 10 13 20 22 24
30 6 9 10 13 19 22 23 24
6 9 10 13 15
6 9 10 13 15 20
31 27 6 9 10 11 20 22 24
31 29 6 9 10 11 19 22 23 24
31 29 27 6 9 10 11 19 22 23 24
31 30 27 6 9 10 11 19 22 23 24
31 27 6 9 10 11 15
31 27 6 9 10 11 15 20
31 29 6 9 10 11 13 19 22 23 24
31 6 9 10 11 13 15
31 6 9 10 11 13 15 20
28 6 9 10 11 13 19 22 23 24
28 27 6 9 10 11 19 22 23 24
29 28 6 9 10 11 19 22 23 24
3 6 8 9 10 11 13 20 22 24
31 27 6 8 9 10 11 20 22 24
31 29 6 8 9 10 11 19 22 23 24
31 29 27 6 8 9 10 11 19 22 23 24
31 30 27 6 8 9 10 11 19 22 23 24
31 27 6 8 9 10 11 15
31 27 6 8 9 10 11 15 20
31 29 6 8 9 10 11 13 19 22 23 24
31 6 8 9 10 11 13 15
31 6 8 9 10 11 13 15 20
28 27 6 8 9 10 11 19 22 23 24
29 28 6 8 9 10 11 19 22 23 24
27 3 6 8 9 10 11 20 22 24
29 3 6 8 9 10 11 19 22 23 24
29 3 6 8 9 10 11 15 19 23 24
28 27 3 6 8 9 10 11 19 22 23 24
29 27 3 6 8 9 10 11 19 22 23 24
30 27 3 6 8 9 10 11 19 22 23 24
27 3 6 8 9 10 11 15
27 3 6 8 9 10 11 15 20
29 3 6 8 9 10 11 13 19 22 23 24
30 3 6 8 9 10 11 13 19 22 23 24
3 6 8 9 10 11 13 15
3 6 8 9 10 11 13 15 20
6 9 10 12 13 20 22 24
27 6 9 10 12 20 22 24
29 6 9 10 12 19 22 23 24
29 6 9 10 12 15 19 23 24
28 27 6 9 10 11 12 19 22 23 24
29 27 6 9 10 12 19 22 23 24
30 27 6 9 10 12 19 22 23 24
27 6 9 10 12 15
27 6 9 10 12 15 20
29 6 9 10 12 13 19 22 23 24
30 6 9 10 12 13 19 22 23 24
6 9 10 12 13 15
6 9 10 12 13 15 20
27 2 5 6 7 12 16
31 27 2 5 6 7 16
31 2 4 5 6 7 16
2 3 4 5 6 7 16
2 3 4 5 6 7 12 13 15 16 17
31 2 4 5 6 7 12 13 15 16 17
31 27 2 4 5 6 7 12 16
28 27 2 4 5 6 7 12 16 21 23 24
28 27 2 4 5 6 7 12 16 19 23 24
27 2 3 4 5 6 7 12 16
2 5 6 7 9 13 16
31 2 5 6 7 9 13 16
31 27 2 5 6 7 9 16
28 2 5 6 7 9 13 16 21 23 24
28 2 5 6 7 9 13 16 19 23 24
2 5 6 7 9 12 13 16
27 2 5 6 7 9 12 16
2 6 7 9 10 13 16 20 22 24
30 2 6 7 9 10 13 16 21 22 23 24
2 6 7 9 10 13 15 16
30 2 6 7 9 10 13 16 19 22 23 24
30 2 6 7 9 10 13 15 16 21 23 24
2 6 7 9 10 13 15 16 20
31 2 6 7 9 10 13 16 20 22 24
31 27 2 6 7 9 10 16 20 22 24
31 29 2 6 7 9 10 16 21 22 23 24
31 29 2 6 7 9 10 16 19 22 23 24
31 29 27 2 6 7 9 10 16 21 22 23 24
31 30 27 2 6 7 9 10 16 21 22 23 24
31 27 2 6 7 9 10 15 16
31 30 27 2 6 7 9 10 16 19 22 23 24
31 30 27 2 6 7 9 10 15 16 21 23 24
31 29 27 2 6 7 9 10 16 19 22 23 24
31 27 2 6 7 9 10 15 16 20
31 29 2 6 7 9 10 13 16 21 22 23 24
31 30 2 6 7 9 10 13 16 21 22 23 24
31 2 6 7 9 10 13 15 16
31 30 2 6 7 9 10 13 16 19 22 23 24
31 30 2 6 7 9 10 13 15 16 21 23 24
31 29 2 6 7 9 10 13 16 19 22 23 24
31 2 6 7 9 10 13 15 16 20
28 2 6 7 9 10 13 16 21 22 23 24
28 27 2 6 7 9 10 16 21 22 23 24
29 28 2 6 7 9 10 16 21 22 23 24
29 28 2 6 7 9 10 16 19 22 23 24
28 27 2 6 7 9 10 16 19 22 23 24
28 2 6 7 9 10 13 16 19 22 23 24
28 2 6 7 9 10 13 15 16 19 23 24
28 2 6 7 9 10 13 15 16 21 23 24
2 6 7 9 10 12 13 16 20 22 24
27 2 6 7 9 10 12 16 20 22 24
29 2 6 7 9 10 12 16 21 22 23 24
29 2 6 7 9 10 12 16 19 22 23 24
28 27 2 6 7 9 10 12 16 21 22 23 24
29 27 2 6 7 9 10 12 16 21 22 23 24
30 27 2 6 7 9 10 12 16 21 22 23 24
27 2 6 7 9 10 12 15 16
30 27 2 6 7 9 10 12 16 19 22 23 24
30 27 2 6 7 9 10 12 15 16 21 23 24
29 27 2 6 7 9 10 12 16 19 22 23 24
28 27 2 6 7 9 10 12 16 19 22 23 24
27 2 6 7 9 10 12 15 16 20
29 2 6 7 9 10 12 13 16 21 22 23 24
30 2 6 7 9 10 12 13 16 21 22 23 24
2 6 7 9 10 12 13 15 16
30 2 6 7 9 10 12 13 16 19 22 23 24
30 2 6 7 9 10 12 13 15 16 21 23 24
29 2 6 7 9 10 12 13 16 19 22 23 24
28 2 6 7 9 10 12 13 15 16 21 23 24
2 6 7 9 10 12 13 15 16 20
3 6 7 8 10 15 16
29 3 6 7 8 10 15 16 21 23 24
29 3 6 7 8 10 15 16 19 23 24
27 3 5 6 7 8 16
31 27 5 6 7 8 16
28 27 5 6 7 8 14 16 19 23
28 27 5 6 7 8 14 16 21 23
27 3 6 7 8 10 15 16
31 27 6 7 8 10 15 16
3 4 5 6 7 8 16
31 4 5 6 7 8 16
28 4 5 6 7 8 14 16 19 23
28 4 5 6 7 8 14 16 21 23
3 4 6 7 8 10 15 16
31 4 6 7 8 10 15 16
3 5 6 7 8 9 13 16
31 5 6 7 8 9 13 16
31 27 5 6 7 8 9 16
27 3 5 6 7 8 9 16
3 6 7 8 9 10 13 16 20 22 24
28 6 7 8 9 10 13 16 21 22 23 24
31 27 6 7 8 9 10 16 20 22 24
31 29 6 7 8 9 10 16 21 22 23 24
31 29 6 7 8 9 10 16 19 22 23 24
31 29 27 6 7 8 9 10 16 21 22 23 24
31 30 27 6 7 8 9 10 16 21 22 23 24
31 27 6 7 8 9 10 15 16
31 30 27 6 7 8 9 10 16 19 22 23 24
31 30 27 6 7 8 9 10 15 16 21 23 24
31 29 27 6 7 8 9 10 16 19 22 23 24
31 27 6 7 8 9 10 15 16 20
31 29 6 7 8 9 10 13 16 21 22 23 24
31 30 6 7 8 9 10 13 16 21 22 23 24
31 6 7 8 9 10 13 15 16
31 30 6 7 8 9 10 13 15 16 21 23 24
31 29 6 7 8 9 10 13 16 19 22 23 24
31 6 7 8 9 10 13 15 16 20
28 27 6 7 8 9 10 16 21 22 23 24
29 28 6 7 8 9 10 16 21 22 23 24
29 28 6 7 8 9 10 16 19 22 23 24
28 27 6 7 8 9 10 16 19 22 23 24
28 6 7 8 9 10 13 16 19 22 23 24
27 3 6 7 8 9 10 16 20 22 24
29 3 6 7 8 9 10 16 21 22 23 24
29 3 6 7 8 9 10 16 19 22 23 24
29 3 6 7 8 9 10 15 16 19 23 24
29 3 6 7 8 9 10 15 16 21 23 24
28 27 3 6 7 8 9 10 16 21 22 23 24
29 27 3 6 7 8 9 10 16 21 22 23 24
30 27 3 6 7 8 9 10 16 21 22 23 24
27 3 6 7 8 9 10 15 16
30 27 3 6 7 8 9 10 16 19 22 23 24
30 27 3 6 7 8 9 10 15 16 21 23 24
29 27 3 6 7 8 9 10 16 19 22 23 24
29 27 3 6 7 8 9 10 15 16 21 23 24
28 27 3 6 7 8 9 10 16 19 22 23 24
27 3 6 7 8 9 10 15 16 20
29 3 6 7 8 9 10 13 16 21 22 23 24
30 3 6 7 8 9 10 13 16 21 22 23 24
3 6 7 8 9 10 13 15 16
30 3 6 7 8 9 10 13 16 19 22 23 24
30 3 6 7 8 9 10 13 15 16 21 23 24
29 3 6 7 8 9 10 13 16 19 22 23 24
29 3 6 7 8 9 10 13 15 16 21 23 24
3 6 7 8 9 10 13 15 16 20
6 7 8 9 10 14 16 19 22 23
30 18 19 23 24
3 8 11 15 16 18 19 20 17
2 7 15 16 18 19 20 17
11 12 13 15 16 18 19 20 17
2 3 7 15 16 18 19 20 17
3 7 8 15 16 18 19 20 17
2 3 4 7 15 16 18 19 20 17
31 30 4 11 14 18 19 23
31 4 11 15 16 18 19 20 17
31 2 4 7 15 16 18 19 20 17
31 4 7 8 15 16 18 19 20 17
3 4 7 8 15 16 18 19 20 17
28 4 7 8 14 16 18 19 23
31 4 8 11 15 16 18 19 20 17
3 4 8 11 15 16 18 19 20 17
28 4 8 11 14 18 19 23
3 4 8 11 12 13 15 16 18 19 20 17
31 4 11 12 13 15 16 18 19 20 17
31 4 7 8 12 13 15 16 18 19 20 17
31 2 4 7 12 13 15 16 18 19 20 17
2 3 4 7 12 13 15 16 18 19 20 17
3 4 7 8 12 13 15 16 18 19 20 17
28 4 11 12 14 18 19 23
28 4 7 8 12 14 16 18 19 23
31 29 27 5 11 14 18 19 23
31 30 27 5 11 14 18 19 23
31 27 5 11 15 16 18 19 20 17
31 27 2 5 7 15 16 18 19 20 17
31 27 5 7 8 15 16 18 19 20 17
27 3 5 7 8 15 16 18 19 20 17
28 27 5 7 8 14 16 18 19 23
31 27 5 8 11 15 16 18 19 20 17
27 3 5 8 11 15 16 18 19 20 17
28 27 5 8 11 14 18 19 23
29 27 5 12 18 19 23 24
30 27 5 12 18 19 23 24
28 27 5 11 12 14 18 19 23
29 27 5 12 14 18 19 23
28 27 5 7 8 12 14 16 18 19 23
27 5 11 12 15 16 18 19 20 17
27 2 5 7 12 15 16 18 19 20 17
27 3 5 7 8 12 15 16 18 19 20 17
31 27 5 7 8 12 15 16 18 19 20 17
28 27 5 7 8 12 14 15 16 18 19 20 23 17
2 3 4 5 7 15 16 18 19 20 17
31 29 4 5 11 14 18 19 23
31 30 4 5 11 14 18 19 23
31 4 5 11 15 16 18 19 20 17
31 2 4 5 7 15 16 18 19 20 17
31 4 5 7 8 15 16 18 19 20 17
3 4 5 7 8 15 16 18 19 20 17
28 4 5 7 8 14 16 18 19 23
31 4 5 8 11 15 16 18 19 20 17
3 4 5 8 11 15 16 18 19 20 17
28 4 5 8 11 14 18 19 23
3 4 5 8 11 12 13 15 16 18 19 20 17
31 4 5 11 12 13 15 16 18 19 20 17
31 4 5 7 8 12 13 15 16 18 19 20 17
31 2 4 5 7 12 13 15 16 18 19 20 17
31 27 2 4 5 7 12 15 16 18 19 20 17
31 27 4 5 7 8 12 15 16 18 19 20 17
31 27 4 5 11 12 15 16 18 19 20 17
28 27 2 4 5 7 12 16 18 19 23 24
28 27 4 5 11 12 18 19 23 24
2 3 4 5 7 12 13 15 16 18 19 20 17
27 2 3 4 5 7 12 15 16 18 19 20 17
3 4 5 7 8 12 13 15 16 18 19 20 17
27 3 4 5 7 8 12 15 16 18 19 20 17
27 3 4 5 8 11 12 15 16 18 19 20 17
28 4 5 11 12 14 18 19 23
29 4 5 12 14 18 19 23
28 4 5 7 8 12 14 16 18 19 23
2 5 7 9 13 15 16 18 19 20 17
31 27 5 9 11 15 16 18 19 20 17
31 5 9 11 13 15 16 18 19 20 17
31 29 5 9 11 14 18 19 23
31 27 2 5 7 9 15 16 18 19 20 17
31 2 5 7 9 13 15 16 18 19 20 17
28 2 5 7 9 13 16 18 19 23 24
31 27 5 7 8 9 15 16 18 19 20 17
31 5 7 8 9 13 15 16 18 19 20 17
27 3 5 7 8 9 15 16 18 19 20 17
3 5 7 8 9 13 15 16 18 19 20 17
31 27 5 8 9 11 15 16 18 19 20 17
31 5 8 9 11 13 15 16 18 19 20 17
27 3 5 8 9 11 15 16 18 19 20 17
3 5 8 9 11 13 15 16 18 19 20 17
29 5 9 12 18 19 23 24
29 27 5 9 12 18 19 23 24
30 27 5 9 12 18 19 23 24
27 5 9 11 12 15 16 18 19 20 17
27 3 5 7 8 9 12 15 16 18 19 20 17
31 27 5 7 8 9 12 15 16 18 19 20 17
27 2 5 7 9 12 15 16 18 19 20 17
31 27 2 5 7 9 12 15 16 18 19 20 17
28 27 2 5 7 9 12 15 16 18 19 20 23 24 17
27 2 3 5 7 9 12 15 16 18 19 20 17
29 5 9 12 13 18 19 23 24
5 9 11 12 13 15 16 18 19 20 17
3 5 7 8 9 12 13 15 16 18 19 20 17
31 5 7 8 9 12 13 15 16 18 19 20 17
2 5 7 9 12 13 15 16 18 19 20 17
31 2 5 7 9 12 13 15 16 18 19 20 17
28 2 5 7 9 12 13 15 16 18 19 20 23 24 17
2 3 5 7 9 12 13 15 16 18 19 20 17
29 5 9 12 14 18 19 23
6 10 15 18 19 20
31 29 27 5 6 11 14 18 19 23
31 30 27 5 6 11 14 18 19 23
31 27 5 6 11 15 16 18 19 20 17
1 31 29 27 2 5 6 11 14 18 19 23
1 31 30 27 2 5 6 11 14 18 19 23
1 31 27 2 5 6 11 15 16 18 19 20 17
31 27 2 5 6 7 15 16 18 19 20 17
31 27 5 6 7 8 15 16 18 19 20 17
27 3 5 6 7 8 15 16 18 19 20 17
28 27 5 6 7 8 14 16 18 19 23
31 27 5 6 8 11 15 16 18 19 20 17
27 3 5 6 8 11 15 16 18 19 20 17
28 27 5 6 8 11 14 18 19 23
29 27 5 6 12 18 19 23 24
30 27 5 6 12 18 19 23 24
28 27 5 6 11 12 14 18 19 23
29 27 5 6 12 14 18 19 23
28 27 5 6 7 8 12 14 16 18 19 23
27 5 6 11 12 15 16 18 19 20 17
27 2 5 6 7 12 15 16 18 19 20 17
27 3 5 6 7 8 12 15 16 18 19 20 17
31 27 5 6 7 8 12 15 16 18 19 20 17
28 27 5 6 7 8 12 14 15 16 18 19 20 23 17
2 3 4 5 6 7 15 16 18 19 20 17
31 29 4 5 6 11 14 18 19 23
31 30 4 5 6 11 14 18 19 23
31 4 5 6 11 15 16 18 19 20 17
1 31 29 2 4 5 6 11 14 18 19 23
1 31 30 2 4 5 6 11 14 18 19 23
1 31 2 4 5 6 11 15 16 18 19 20 17
31 2 4 5 6 7 15 16 18 19 20 17
31 4 5 6 7 8 15 16 18 19 20 17
3 4 5 6 7 8 15 16 18 19 20 17
28 4 5 6 7 8 14 16 18 19 23
31 4 5 6 8 11 15 16 18 19 20 17
3 4 5 6 8 11 15 16 18 19 20 17
28 4 5 6 8 11 14 18 19 23
3 4 5 6 8 11 12 13 15 16 18 19 20 17
31 4 5 6 11 12 13 15 16 18 19 20 17
31 4 5 6 7 8 12 13 15 16 18 19 20 17
31 2 4 5 6 7 12 13 15 16 18 19 20 17
31 27 2 4 5 6 7 12 15 16 18 19 20 17
31 27 4 5 6 7 8 12 15 16 18 19 20 17
31 27 4 5 6 11 12 15 16 18 19 20 17
28 27 2 4 5 6 7 12 16 18 19 23 24
28 27 4 5 6 11 12 18 19 23 24
2 3 4 5 6 7 12 13 15 16 18 19 20 17
1 2 3 4 5 6 11 12 13 15 16 18 19 20 17
1 27 2 3 4 5 6 11 12 15 16 18 19 20 17
27 2 3 4 5 6 7 12 15 16 18 19 20 17
3 4 5 6 7 8 12 13 15 16 18 19 20 17
27 3 4 5 6 7 8 12 15 16 18 19 20 17
27 3 4 5 6 8 11 12 15 16 18 19 20 17
28 4 5 6 11 12 14 18 19 23
29 4 5 6 12 14 18 19 23
28 4 5 6 7 8 12 14 16 18 19 23
31 2 4 6 7 10 15 16 18 19 20
2 3 4 6 7 10 15 16 18 19 20
1 2 3 4 6 10 15 18 19 20
31 4 6 10 11 15 18 19 20
1 31 2 4 6 10 11 15 18 19 20
3 4 6 7 8 10 15 16 18 19 20
31 4 6 7 8 10 15 16 18 19 20
3 4 6 8 10 11 15 18 19 20
31 4 6 8 10 11 15 18 19 20
3 4 6 8 10 11 12 13 15 18 19 20
31 4 6 10 11 12 13 15 18 19 20
31 4 6 7 8 10 12 13 15 16 18 19 20
31 2 4 6 7 10 12 13 15 16 18 19 20
31 27 2 4 6 7 10 12 15 16 18 19 20
31 27 4 6 7 8 10 12 15 16 18 19 20
31 27 4 6 10 11 12 15 18 19 20
28 27 2 4 6 7 10 12 15 16 18 19 23 24
28 27 4 6 10 11 12 15 18 19 23 24
2 3 4 6 7 10 12 13 15 16 18 19 20
1 2 3 4 6 10 12 13 15 18 19 20
1 27 2 3 4 6 10 12 15 18 19 20
27 2 3 4 6 7 10 12 15 16 18 19 20
3 4 6 7 8 10 12 13 15 16 18 19 20
27 3 4 6 7 8 10 12 15 16 18 19 20
29 3 4 6 7 8 10 12 15 16 18 19 23 24
27 3 4 6 8 10 11 12 15 18 19 20
29 3 4 6 8 10 11 12 15 18 19 23 24
2 5 6 7 9 13 15 16 18 19 20 17
31 27 5 6 9 11 15 16 18 19 20 17
31 5 6 9 11 13 15 16 18 19 20 17
31 29 5 6 9 11 14 18 19 23
1 31 27 2 5 6 9 11 15 16 18 19 20 17
1 31 2 5 6 9 11 13 15 16 18 19 20 17
1 31 29 2 5 6 9 11 14 18 19 23
31 27 2 5 6 7 9 15 16 18 19 20 17
31 2 5 6 7 9 13 15 16 18 19 20 17
28 2 5 6 7 9 13 16 18 19 23 24
31 27 5 6 7 8 9 15 16 18 19 20 17
31 5 6 7 8 9 13 15 16 18 19 20 17
27 3 5 6 7 8 9 15 16 18 19 20 17
3 5 6 7 8 9 13 15 16 18 19 20 17
31 27 5 6 8 9 11 15 16 18 19 20 17
31 5 6 8 9 11 13 15 16 18 19 20 17
27 3 5 6 8 9 11 15 16 18 19 20 17
3 5 6 8 9 11 13 15 16 18 19 20 17
29 5 6 9 12 18 19 23 24
29 27 5 6 9 12 18 19 23 24
30 27 5 6 9 12 18 19 23 24
27 5 6 9 11 12 15 16 18 19 20 17
27 3 5 6 7 8 9 12 15 16 18 19 20 17
31 27 5 6 7 8 9 12 15 16 18 19 20 17
27 2 5 6 7 9 12 15 16 18 19 20 17
31 27 2 5 6 7 9 12 15 16 18 19 20 17
28 27 2 5 6 7 9 12 15 16 18 19 20 23 24 17
27 2 3 5 6 7 9 12 15 16 18 19 20 17
29 5 6 9 12 13 18 19 23 24
5 6 9 11 12 13 15 16 18 19 20 17
3 5 6 7 8 9 12 13 15 16 18 19 20 17
31 5 6 7 8 9 12 13 15 16 18 19 20 17
2 5 6 7 9 12 13 15 16 18 19 20 17
31 2 5 6 7 9 12 13 15 16 18 19 20 17
28 2 5 6 7 9 12 13 15 16 18 19 20 23 24 17
2 3 5 6 7 9 12 13 15 16 18 19 20 17
29 5 6 9 12 14 18 19 23
6 9 10 13 18 19 20 22 24
30 6 9 10 13 18 19 22 23 24
6 9 10 13 15 18 19 20
31 27 6 9 10 11 18 19 20 22 24
31 29 6 9 10 11 18 19 22 23 24
31 29 27 6 9 10 11 18 19 22 23 24
31 30 27 6 9 10 11 18 19 22 23 24
31 27 6 9 10 11 15 18 19 20
31 29 6 9 10 11 13 18 19 22 23 24
31 6 9 10 11 13 15 18 19 20
1 31 27 2 6 9 10 11 18 19 20 22 24
1 31 29 2 6 9 10 11 18 19 22 23 24
1 31 29 27 2 6 9 10 11 18 19 22 23 24
1 31 30 27 2 6 9 10 11 18 19 22 23 24
1 31 27 2 6 9 10 11 15 18 19 20
1 31 29 2 6 9 10 11 13 18 19 22 23 24
1 31 2 6 9 10 11 13 15 18 19 20
31 2 6 7 9 10 13 16 18 19 20 22 24
31 27 2 6 7 9 10 16 18 19 20 22 24
31 29 2 6 7 9 10 16 18 19 22 23 24
31 29 27 2 6 7 9 10 16 18 19 22 23 24
31 30 27 2 6 7 9 10 16 18 19 22 23 24
31 27 2 6 7 9 10 15 16 18 19 20
31 29 2 6 7 9 10 13 16 18 19 22 23 24
31 30 2 6 7 9 10 13 16 18 19 22 23 24
31 2 6 7 9 10 13 15 16 18 19 20
28 27 6 9 10 11 18 19 22 23 24
29 28 6 9 10 11 18 19 22 23 24
1 28 27 2 6 9 10 11 18 19 22 23 24
1 29 28 2 6 9 10 11 18 19 22 23 24
28 2 6 7 9 10 13 16 18 19 22 23 24
28 27 2 6 7 9 10 16 18 19 22 23 24
29 28 2 6 7 9 10 16 18 19 22 23 24
28 2 6 7 9 10 13 15 16 18 19 23 24
3 6 7 8 9 10 13 16 18 19 20 22 24
31 27 6 7 8 9 10 16 18 19 20 22 24
31 29 6 7 8 9 10 16 18 19 22 23 24
31 29 27 6 7 8 9 10 16 18 19 22 23 24
31 30 27 6 7 8 9 10 16 18 19 22 23 24
31 27 6 7 8 9 10 15 16 18 19 20
31 29 6 7 8 9 10 13 16 18 19 22 23 24
31 6 7 8 9 10 13 15 16 18 19 20
28 27 6 7 8 9 10 16 18 19 22 23 24
29 28 6 7 8 9 10 16 18 19 22 23 24
27 3 6 7 8 9 10 16 18 19 20 22 24
29 3 6 7 8 9 10 16 18 19 22 23 24
29 3 6 7 8 9 10 15 16 18 19 23 24
28 27 3 6 7 8 9 10 16 18 19 22 23 24
29 27 3 6 7 8 9 10 16 18 19 22 23 24
30 27 3 6 7 8 9 10 16 18 19 22 23 24
27 3 6 7 8 9 10 15 16 18 19 20
29 3 6 7 8 9 10 13 16 18 19 22 23 24
30 3 6 7 8 9 10 13 16 18 19 22 23 24
3 6 7 8 9 10 13 15 16 18 19 20
3 6 8 9 10 11 13 18 19 20 22 24
31 27 6 8 9 10 11 18 19 20 22 24
31 29 6 8 9 10 11 18 19 22 23 24
31 29 27 6 8 9 10 11 18 19 22 23 24
31 30 27 6 8 9 10 11 18 19 22 23 24
31 27 6 8 9 10 11 15 18 19 20
31 29 6 8 9 10 11 13 18 19 22 23 24
31 6 8 9 10 11 13 15 18 19 20
28 27 6 8 9 10 11 18 19 22 23 24
29 28 6 8 9 10 11 18 19 22 23 24
27 3 6 8 9 10 11 18 19 20 22 24
29 3 6 8 9 10 11 18 19 22 23 24
29 3 6 8 9 10 11 15 18 19 23 24
28 27 3 6 8 9 10 11 18 19 22 23 24
29 27 3 6 8 9 10 11 18 19 22 23 24
30 27 3 6 8 9 10 11 18 19 22 23 24
27 3 6 8 9 10 11 15 18 19 20
29 3 6 8 9 10 11 13 18 19 22 23 24
30 3 6 8 9 10 11 13 18 19 22 23 24
3 6 8 9 10 11 13 15 18 19 20
6 9 10 12 13 18 19 20 22 24
27 6 9 10 12 18 19 20 22 24
29 6 9 10 12 18 19 22 23 24
29 6 9 10 12 15 18 19 23 24
28 27 6 9 10 11 12 18 19 22 23 24
29 27 6 9 10 12 18 19 22 23 24
30 27 6 9 10 12 18 19 22 23 24
28 27 6 7 8 9 10 12 16 18 19 22 23 24
28 27 2 6 7 9 10 12 16 18 19 22 23 24
27 6 9 10 12 15 18 19 20
29 6 9 10 12 13 18 19 22 23 24
30 6 9 10 12 13 18 19 22 23 24
6 9 10 12 13 15 18 19 20
 Analysis time: 5.394s