 Minimal siphons 
16 19
2 7 21 25 28
1 7 21 25
15 18
12 14
7 9
6 8
6 7 10
1 7 20 24
2 6 12 21 28
1 2 3 4 5
1 2 3 4 5 6 8
2 6 12 20 26
1 2 3 4 5 6 8 12 14
2 6 12 20 23
2 7 12 20 26 27
2 7 11 20 27
1 2 3 4 5 7 9
1 2 3 4 5 6 7 10
1 2 3 4 5 6 7 8
2 7 12 20 23 27
2 7 12 20 23 24
2 7 12 20 24 26
2 7 12 20 21 27 28
2 7 12 20 21 24 28
2 7 20 21 25 26
2 7 20 21 23 25
2 7 14 20 21 25 27
1 7 15 16 20 24
11 12 13 15 16 17 20 21 22
1 29 6 11 12 13 15 16 17 20 21
2 6 12 15 16 20 26
2 6 12 15 16 20 23
 Minimal traps 
1 6 20 21 25 27 28
2 6 20 21 27 28
15 18
16 19
12 14
6 8
7 9
6 7 10
11 12 13 15 16 17 20 21 22
2 7 20 27
2 6 12 21 28
2 6 20 26 27
2 6 20 23 27
2 6 12 20 23
2 6 12 20 26
1 7 14 20 21 25 27
1 2 3 4 5
1 7 13 21 25
1 7 20 24
1 2 3 4 5 7 9
1 7 12 14 21 25
1 2 3 4 5 7 9 12 14
1 6 12 21 25 28
1 6 8 13 21 25
1 6 7 13 21 25
1 2 3 4 5 6 7 10
1 2 3 4 5 6 7 9
1 2 3 4 5 6 8
1 2 3 4 5 6 8 12 14
1 2 3 4 5 6 7 10 12 14
1 2 3 4 5 6 7 9 12 14
1 2 6 12 21 28
1 6 8 12 14 21 25
1 6 7 12 14 21 25
1 6 7 12 13 21 25
1 6 8 12 13 21 25
1 6 20 24 26 27
1 29 6 20 27
1 29 6 12 20 26
1 29 6 12 20 23
1 6 20 23 24 27
1 29 6 20 24
1 6 12 20 23 24
1 6 12 20 24 26
1 6 20 21 24 27 28
1 29 6 11 12 15 16 17 20 21 28
1 29 6 11 12 13 15 16 17 20 21
1 6 12 20 21 24 28
1 29 6 20 21 24 27
1 6 12 20 21 25 26
1 6 12 20 21 23 25
1 6 20 21 25 26 27
1 6 20 21 23 25 27
 Analysis time: 0.478s