 Minimal siphons 
6 8 10 14 15 18
5 18
3 7 10 14
9 10 17
7 8 16
1 11
2 12
1 3 11
20 3 7 9
20 3 7 9 10
1 3 4 5 11
19 3 4 5 7 9
20 3 4 5 7 9
19 3 4 5 7 9 10
20 3 4 5 7 9 10
1 2 3 4 5 6 13
1 3 4 5 6 11
1 2 3 4 5 6 11
19 3 4 5 6 7 9
20 3 4 5 6 7 9
19 3 4 5 6 7 9 10
20 3 4 5 6 7 9 10
6 8 9 15 18
20 3 4 5 6 7 8 9
19 3 4 5 6 7 8 9
4 6 8 9 15
20 3 4 5 6 7 8 9 10
19 3 4 5 6 7 8 9 10
20 3 4 5 6 7 8 9 10 16
19 3 4 5 6 7 8 9 10 16
19 3 4 5 6 7 8 9 10 16 17
20 3 4 5 6 7 8 9 10 16 17
4 6 8 10 14 15
 Minimal traps 
1 11
3 7 9 14 15 18
4 8 9 15 18
9 10 17
7 8 16
5 18
2 12
4 5 18
4 6 8 9 15
3 4 5 18
3 7 10 14
20 3 7 9
19 3 4 7 9 15
20 3 4 7 9 15 18
20 3 4 6 7 9 15
19 3 4 5 7 9
19 3 4 5 7 8 9 16
19 3 4 5 7 8 9 10 16 17
19 3 4 7 8 9 15
3 7 9 10 14
19 3 7 9 14
20 3 7 9 14
3 6 7 9 14 15
19 3 7 9 14 15
1 2 3 4 5 13 18
1 2 3 4 5 12 18
1 2 3 4 5 6 13
1 2 3 7 10 13 14
1 2 3 7 10 12 14
1 2 3 7 9 10 12 14
1 20 2 3 7 9 12 14
1 2 3 7 9 10 13 14
1 20 2 3 7 9 13 14
 Analysis time: 0.105s