21/06/2021 17:44:26[DEBUG] pflow_file:  ../analisis_4_21062021/gen_nets/20210621-134757_25/net.pflow  
21/06/2021 17:44:26[DEBUG] output_folder:  ../analisis_4_21062021/gen_nets/20210621-134757_25/  
21/06/2021 17:44:26[DEBUG] html_path:  ../analisis_4_21062021/gen_nets/20210621-134757_25/  
21/06/2021 17:44:26[DEBUG] txt_path:  ../analisis_4_21062021/gen_nets/20210621-134757_25/txt_info  

--------------------------------------------------------------------------   
21/06/2021 17:44:26[INFO] Ejecutando petrinator para conocer estado de la red...   
--------------------------------------------------------------------------
   
21/06/2021 17:44:30[ERROR] La red ingresada no es S3PR, cerrando analisis 
  
