 Minimal siphons 
3 6
2 10 14 22 25 27 29 30 31
1 10 27 30
21 24
20 25
19 22
18 23
16 17
9 12
8 11
8 9 10 13
14 15 16 18 19 20 21 26 27 28
1 4
1 32 8 9 14 15 16 18 19 20 21 26
1 4 9 10 12
1 4 8 9 10 13
1 4 8 9 10 11
1 10 14 18 29
1 10 14 18 19 29
1 10 14 18 19 20 29
1 10 14 18 19 20 21 29
2 5
1 2 4
2 5 9 12
1 2 4 9 12
1 2 4 8 9 11
1 33 2 8 9 18 26
2 5 8 9 11
2 9 16 18 26 31
2 10 22 25 26 27 30 31
2 10 18 26 27 30 31
1 2 4 9 10 12
1 2 4 8 9 10 13
1 2 4 8 9 10 11
2 5 9 10 12
2 5 8 9 10 13
2 5 8 9 10 11
1 2 4 9 10 12 18 23
1 2 4 8 9 10 13 18 23
1 2 4 8 9 10 11 18 23
2 5 9 10 12 18 23
2 5 8 9 10 13 18 23
2 5 8 9 10 11 18 23
2 9 10 16 18 26 31
33 2 5 9 10 12 18 26
1 33 2 9 10 12 18 26
1 33 2 8 9 10 18 26
33 2 5 8 9 10 18 26
33 2 5 9 10 12 16 17 18 26
1 33 2 9 10 12 16 17 18 26
1 33 2 8 9 10 16 17 18 26
33 2 5 8 9 10 16 17 18 26
1 2 4 9 10 12 19 22
1 2 4 8 9 10 13 19 22
1 2 4 8 9 10 11 19 22
2 5 9 10 12 19 22
2 5 8 9 10 13 19 22
2 5 8 9 10 11 19 22
2 9 10 16 19 22 26 31
33 2 5 9 10 12 19 22 26
1 33 2 9 10 12 19 22 26
1 33 2 8 9 10 19 22 26
33 2 5 8 9 10 19 22 26
33 2 5 9 10 12 16 17 19 22 26
1 33 2 9 10 12 16 17 19 22 26
1 33 2 8 9 10 16 17 19 22 26
33 2 5 8 9 10 16 17 19 22 26
2 10 14 18 27 29 30 31
2 10 14 16 18 29 31
2 5 10 14 18 29
1 2 10 14 18 29
1 33 2 9 10 12 14 18 26
1 33 2 8 9 10 14 18 26
33 2 5 9 10 12 14 18 26
33 2 5 8 9 10 14 18 26
2 9 10 14 16 18 26 31
33 2 5 9 10 12 14 16 17 18 26
1 33 2 9 10 12 14 16 17 18 26
1 33 2 8 9 10 14 16 17 18 26
1 33 2 8 9 10 14 15 16 18 26
1 33 2 9 10 12 14 15 16 18 26
33 2 5 8 9 10 14 16 17 18 26
33 2 5 8 9 10 14 15 16 18 26
33 2 5 9 10 12 14 15 16 18 26
2 5 10 14 16 17 18 29
1 2 10 14 16 17 18 29
1 2 10 14 15 16 18 29
2 5 10 14 15 16 18 29
2 10 14 16 19 22 29 31
2 5 10 14 19 22 29
1 2 10 14 19 22 29
1 33 2 9 10 12 14 19 22 26
1 33 2 8 9 10 14 19 22 26
33 2 5 9 10 12 14 19 22 26
33 2 5 8 9 10 14 19 22 26
2 9 10 14 16 19 22 26 31
33 2 5 9 10 12 14 16 17 19 22 26
1 33 2 9 10 12 14 16 17 19 22 26
1 33 2 8 9 10 14 16 17 19 22 26
1 33 2 8 9 10 14 15 16 19 22 26
1 33 2 9 10 12 14 15 16 19 22 26
33 2 5 8 9 10 14 16 17 19 22 26
33 2 5 8 9 10 14 15 16 19 22 26
33 2 5 9 10 12 14 15 16 19 22 26
2 5 10 14 16 17 19 22 29
1 2 10 14 16 17 19 22 29
1 2 10 14 15 16 19 22 29
2 5 10 14 15 16 19 22 29
2 3 5
1 2 3 7
1 2 3 4
2 3 5 9 12
1 2 3 7 9 12
1 2 3 4 9 12
1 2 3 4 8 9 11
1 2 3 7 8 9 11
2 3 5 8 9 11
1 2 3 7 9 10 12
1 2 3 4 9 10 12
1 2 3 4 8 9 10 13
1 2 3 4 8 9 10 11
1 2 3 7 8 9 10 13
1 2 3 7 8 9 10 11
2 3 5 9 10 12
2 3 5 8 9 10 13
2 3 5 8 9 10 11
1 2 3 7 9 10 12 18 23
1 2 3 4 9 10 12 18 23
1 2 3 4 8 9 10 13 18 23
1 2 3 4 8 9 10 11 18 23
1 2 3 7 8 9 10 13 18 23
1 2 3 7 8 9 10 11 18 23
2 3 5 9 10 12 18 23
2 3 5 8 9 10 13 18 23
2 3 5 8 9 10 11 18 23
2 3 9 10 16 18 26 31
33 2 3 5 9 10 12 18 26
1 33 2 3 9 10 12 18 26
1 33 2 3 8 9 10 18 26
33 2 3 5 8 9 10 18 26
33 2 3 5 9 10 12 16 17 18 26
1 33 2 3 9 10 12 16 17 18 26
1 33 2 3 8 9 10 16 17 18 26
33 2 3 5 8 9 10 16 17 18 26
1 2 3 7 9 10 12 19 22
1 2 3 4 9 10 12 19 22
1 2 3 4 8 9 10 13 19 22
1 2 3 4 8 9 10 11 19 22
1 2 3 7 8 9 10 13 19 22
1 2 3 7 8 9 10 11 19 22
2 3 5 9 10 12 19 22
2 3 5 8 9 10 13 19 22
2 3 5 8 9 10 11 19 22
2 3 9 10 16 19 22 26 31
33 2 3 5 9 10 12 19 22 26
1 33 2 3 9 10 12 19 22 26
1 33 2 3 8 9 10 19 22 26
33 2 3 5 8 9 10 19 22 26
33 2 3 5 9 10 12 16 17 19 22 26
1 33 2 3 9 10 12 16 17 19 22 26
1 33 2 3 8 9 10 16 17 19 22 26
33 2 3 5 8 9 10 16 17 19 22 26
2 3 10 14 16 18 29 31
2 3 5 10 14 18 29
1 2 3 10 14 18 29
1 33 2 3 9 10 12 14 18 26
1 33 2 3 8 9 10 14 18 26
33 2 3 5 9 10 12 14 18 26
33 2 3 5 8 9 10 14 18 26
2 3 9 10 14 16 18 26 31
33 2 3 5 9 10 12 14 16 17 18 26
1 33 2 3 9 10 12 14 16 17 18 26
1 33 2 3 8 9 10 14 16 17 18 26
1 33 2 3 8 9 10 14 15 16 18 26
1 33 2 3 9 10 12 14 15 16 18 26
33 2 3 5 8 9 10 14 16 17 18 26
33 2 3 5 8 9 10 14 15 16 18 26
33 2 3 5 9 10 12 14 15 16 18 26
2 3 5 10 14 16 17 18 29
1 2 3 10 14 16 17 18 29
1 2 3 10 14 15 16 18 29
2 3 5 10 14 15 16 18 29
2 3 10 14 16 19 22 29 31
2 3 5 10 14 19 22 29
1 2 3 10 14 19 22 29
1 33 2 3 9 10 12 14 19 22 26
1 33 2 3 8 9 10 14 19 22 26
33 2 3 5 9 10 12 14 19 22 26
33 2 3 5 8 9 10 14 19 22 26
2 3 9 10 14 16 19 22 26 31
33 2 3 5 9 10 12 14 16 17 19 22 26
1 33 2 3 9 10 12 14 16 17 19 22 26
1 33 2 3 8 9 10 14 16 17 19 22 26
1 33 2 3 8 9 10 14 15 16 19 22 26
1 33 2 3 9 10 12 14 15 16 19 22 26
33 2 3 5 8 9 10 14 16 17 19 22 26
33 2 3 5 8 9 10 14 15 16 19 22 26
33 2 3 5 9 10 12 14 15 16 19 22 26
2 3 5 10 14 16 17 19 22 29
1 2 3 10 14 16 17 19 22 29
1 2 3 10 14 15 16 19 22 29
2 3 5 10 14 15 16 19 22 29
 Minimal traps 
8 11
1 9 16 22 25 26 30 31
2 9 16 26 31
18 23
19 22
20 25
21 24
16 17
9 12
3 6
14 15 16 18 19 20 21 26 27 28
2 5
2 3 6
2 5 9 12
2 3 6 9 12
2 5 9 12 16 17
2 3 6 9 12 16 17
1 10 26 29
1 4
1 2 5
1 2 3 7
1 2 3 6
1 10 16 21 30
1 4 9 12
1 2 5 9 12
1 2 3 7 9 12
1 2 3 6 9 12
1 9 16 21 26 30 31
1 9 16 26 29 31
1 4 9 12 16 17
1 2 5 9 12 16 17
1 2 3 7 9 12 16 17
1 2 3 6 9 12 16 17
1 9 12 16 21 30
1 9 10 16 21 30
1 9 12 16 20 21 30
1 9 10 16 20 21 30
8 9 12
8 9 10 13
2 5 8 9 12
2 3 6 8 9 12
2 3 6 8 9 10 13
2 5 8 9 10 13
2 5 8 9 12 16 17
2 3 6 8 9 12 16 17
2 3 6 8 9 10 13 16 17
2 5 8 9 10 13 16 17
1 32 8 9 26 29
1 33 8 9 26
1 4 8 9 10 13
1 2 5 8 9 10 13
1 2 3 7 8 9 10 13
1 2 3 6 8 9 10 13
1 4 8 9 12
1 2 5 8 9 12
1 2 3 7 8 9 12
1 2 3 6 8 9 12
1 4 8 9 12 16 17
1 2 5 8 9 12 16 17
1 2 3 7 8 9 12 16 17
1 2 3 6 8 9 12 16 17
1 2 3 6 8 9 10 13 16 17
1 2 3 7 8 9 10 13 16 17
1 2 5 8 9 10 13 16 17
1 4 8 9 10 13 16 17
1 32 8 9 16 26 31
1 33 32 2 8 9 16 26
1 8 9 12 16 21 30
1 8 9 10 16 21 30
1 32 8 9 16 21 26 31
1 33 32 2 8 9 16 21 24 26
1 8 9 12 16 20 21 30
1 8 9 10 16 20 21 30
1 32 8 9 16 20 21 26 31
1 32 8 9 14 15 16 18 19 20 21 26
1 33 32 2 8 9 16 20 21 24 26
1 33 32 2 8 9 16 22 26
1 32 8 9 16 21 22 26 31
1 33 32 2 8 9 16 21 22 24 26
1 33 32 2 8 9 16 22 25 26
 Analysis time: 4.036s