18/09/2021 16:18:56[DEBUG] pflow_file:  ../analysis/analisis_19/20210918-141253_12/net.pflow  
18/09/2021 16:18:56[DEBUG] output_folder:  ../analysis/analisis_19/20210918-141253_12/  
18/09/2021 16:18:56[DEBUG] html_path:  ../analysis/analisis_19/20210918-141253_12/  
18/09/2021 16:18:56[DEBUG] txt_path:  ../analysis/analisis_19/20210918-141253_12/txt_info  

--------------------------------------------------------------------------   
18/09/2021 16:18:56[INFO] Ejecutando petrinator para conocer estado de la red...   
--------------------------------------------------------------------------
   
18/09/2021 16:19:09[INFO] SIFONES   
+----+-----+--------------------------------------------------------+
| ID | Nro |                         Plazas                         |
+----+-----+--------------------------------------------------------+
| 0  |  1  | ['P2', 'P9', 'P12', 'P19', 'P23', 'P29', 'P30', 'P31'] |
| 1  |  36 |        ['P2', 'P9', 'P11', 'P23', 'P29', 'P30']        |
| 2  |  48 |    ['P2', 'P9', 'P11', 'P12', 'P23', 'P29', 'P30']     |
| 3  |  23 | ['P2', 'P8', 'P12', 'P19', 'P23', 'P28', 'P29', 'P31'] |
| 4  |  29 |        ['P2', 'P8', 'P11', 'P23', 'P28', 'P29']        |
| 5  |  32 |    ['P2', 'P8', 'P11', 'P12', 'P23', 'P28', 'P29']     |
| 6  |  45 |     ['P2', 'P8', 'P9', 'P11', 'P23', 'P28', 'P29']     |
| 7  |  69 | ['P2', 'P8', 'P9', 'P11', 'P12', 'P23', 'P28', 'P29']  |
+----+-----+--------------------------------------------------------+ 

18/09/2021 16:19:09[INFO] T INVARIANTES   
+----+----+----+----+----+----+----+----+----+----+-----+-----+-----+-----+-----+-----+-----+-----+-----+-----+-----+-----+-----+-----+
| T0 | T1 | T2 | T3 | T4 | T5 | T6 | T7 | T8 | T9 | T10 | T11 | T12 | T13 | T14 | T15 | T16 | T17 | T18 | T19 | T20 | T21 | T22 | T23 |
+----+----+----+----+----+----+----+----+----+----+-----+-----+-----+-----+-----+-----+-----+-----+-----+-----+-----+-----+-----+-----+
| 1  | 1  | 1  | 1  | 1  | 0  | 0  | 0  | 0  | 0  |  0  |  0  |  0  |  0  |  0  |  0  |  0  |  0  |  0  |  0  |  0  |  0  |  0  |  0  |
| 0  | 0  | 0  | 0  | 0  | 1  | 1  | 1  | 1  | 0  |  0  |  0  |  0  |  1  |  1  |  0  |  0  |  0  |  0  |  0  |  0  |  0  |  0  |  0  |
| 0  | 0  | 0  | 0  | 0  | 0  | 0  | 0  | 0  | 1  |  1  |  1  |  1  |  1  |  1  |  0  |  0  |  0  |  0  |  0  |  0  |  0  |  0  |  0  |
| 0  | 0  | 0  | 0  | 0  | 0  | 0  | 0  | 0  | 0  |  0  |  0  |  0  |  0  |  0  |  1  |  1  |  1  |  0  |  0  |  0  |  0  |  1  |  1  |
| 0  | 0  | 0  | 0  | 0  | 0  | 0  | 0  | 0  | 0  |  0  |  0  |  0  |  0  |  0  |  0  |  0  |  0  |  1  |  1  |  1  |  1  |  1  |  1  |
+----+----+----+----+----+----+----+----+----+----+-----+-----+-----+-----+-----+-----+-----+-----+-----+-----+-----+-----+-----+-----+ 

18/09/2021 16:19:09[INFO] Supervisores para agregar   
+-----+---------+----------------------------+----------------------------+--------------------------------------------------------+
|  ID | Marcado |        T - Entrada         |         T - Salida         |                   Sifon a controlar                    |
+-----+---------+----------------------------+----------------------------+--------------------------------------------------------+
| P32 |    2    | ['T2', 'T8', 'T12', 'T22'] | ['T1', 'T6', 'T10', 'T20'] | ['P2', 'P9', 'P12', 'P19', 'P23', 'P29', 'P30', 'P31'] |
| P32 |    1    |    ['T8', 'T11', 'T21']    |    ['T7', 'T10', 'T20']    |        ['P2', 'P9', 'P11', 'P23', 'P29', 'P30']        |
| P32 |    1    |    ['T8', 'T11', 'T21']    |    ['T7', 'T10', 'T20']    |    ['P2', 'P9', 'P11', 'P12', 'P23', 'P29', 'P30']     |
| P32 |    2    | ['T2', 'T7', 'T12', 'T22'] | ['T1', 'T6', 'T10', 'T20'] | ['P2', 'P8', 'P12', 'P19', 'P23', 'P28', 'P29', 'P31'] |
| P32 |    1    |       ['T11', 'T21']       |       ['T10', 'T20']       |        ['P2', 'P8', 'P11', 'P23', 'P28', 'P29']        |
| P32 |    1    |       ['T11', 'T21']       |       ['T10', 'T20']       |    ['P2', 'P8', 'P11', 'P12', 'P23', 'P28', 'P29']     |
| P32 |    1    |    ['T8', 'T11', 'T21']    |    ['T9', 'T10', 'T20']    |     ['P2', 'P8', 'P9', 'P11', 'P23', 'P28', 'P29']     |
| P32 |    1    |    ['T8', 'T11', 'T21']    |    ['T9', 'T10', 'T20']    | ['P2', 'P8', 'P9', 'P11', 'P12', 'P23', 'P28', 'P29']  |
+-----+---------+----------------------------+----------------------------+--------------------------------------------------------+ 

18/09/2021 16:19:09[INFO] Supervisores agregados   
+-----+-------+---------+-------------+------------+----------------+
| Nro | Plaza | Marcado | T - Entrada | T - Salida | MAL supervisor |
+-----+-------+---------+-------------+------------+----------------+
+-----+-------+---------+-------------+------------+----------------+ 

18/09/2021 16:19:09[INFO] Supervisores eliminados   
+-----+-------+---------+-------------+------------+----------------+
| Nro | Plaza | Marcado | T - Entrada | T - Salida | MAL supervisor |
+-----+-------+---------+-------------+------------+----------------+
+-----+-------+---------+-------------+------------+----------------+ 

18/09/2021 16:19:09[INFO] Ejecutando accion...   
18/09/2021 16:19:09[ACTION] Agrego supervisor con menor numero de arcos de salida (MNAS)   
18/09/2021 16:19:09[INFO] Supervisor con menor cantidad de arcos de salida agregado 5   

--------------------------------------------------------------------------   
18/09/2021 16:19:09[INFO] Ejecutando petrinator para conocer estado de la red...   
--------------------------------------------------------------------------
   
--------------------------------------------------------------------------
   
18/09/2021 16:19:19[INFO] Calculando recompensa..   
18/09/2021 16:19:19[REWARD] Agregue un supervisor que genero menos sifones vacios en deadlock, recompensa -1   

--------------------------------------------------------------------------
   
18/09/2021 16:19:19[STATE] Cambie al estado 2: Hay menos sifones vacios en deadlock   
+--------+---------+-------------------+----------------+---------+---------+------------------------+
| Plazas | Estados | Tokens trabajando | Sifones vacios | Sifones | Trampas | Supervisores agregados |
+--------+---------+-------------------+----------------+---------+---------+------------------------+
|   32   |   888   |        2903       |       3        |   114   |    25   |           1            |
+--------+---------+-------------------+----------------+---------+---------+------------------------+ 
+------------------------------+------------+-----------------+--------------------+-----------------------+
|       Estados/Acciones       | + sup MNAS | + sup aleatorio | - sup MAL agregado | - ultimo sup agregado |
+------------------------------+------------+-----------------+--------------------+-----------------------+
|            Start             |    -1.0    |       0.0       |        0.0         |          0.0          |
| + sifónes vacíos en deadlock |    0.0     |       0.0       |        0.0         |          0.0          |
| - sifónes vacíos en deadlock |    0.0     |       0.0       |        0.0         |          0.0          |
| = sifónes vacíos en deadlock |    0.0     |       0.0       |        0.0         |          0.0          |
|             End              |    0.0     |       0.0       |        0.0         |          0.0          |
+------------------------------+------------+-----------------+--------------------+-----------------------+ 

18/09/2021 16:19:19[INFO] SIFONES   
+----+-----+--------------------------------------------------------+
| ID | Nro |                         Plazas                         |
+----+-----+--------------------------------------------------------+
| 8  |  1  | ['P2', 'P9', 'P12', 'P19', 'P23', 'P29', 'P30', 'P31'] |
| 9  |  42 |        ['P2', 'P9', 'P11', 'P23', 'P29', 'P30']        |
| 10 |  54 |    ['P2', 'P9', 'P11', 'P12', 'P23', 'P29', 'P30']     |
+----+-----+--------------------------------------------------------+ 

18/09/2021 16:19:19[INFO] T INVARIANTES   
+----+----+----+----+----+----+----+----+----+----+-----+-----+-----+-----+-----+-----+-----+-----+-----+-----+-----+-----+-----+-----+
| T0 | T1 | T2 | T3 | T4 | T5 | T6 | T7 | T8 | T9 | T10 | T11 | T12 | T13 | T14 | T15 | T16 | T17 | T18 | T19 | T20 | T21 | T22 | T23 |
+----+----+----+----+----+----+----+----+----+----+-----+-----+-----+-----+-----+-----+-----+-----+-----+-----+-----+-----+-----+-----+
| 1  | 1  | 1  | 1  | 1  | 0  | 0  | 0  | 0  | 0  |  0  |  0  |  0  |  0  |  0  |  0  |  0  |  0  |  0  |  0  |  0  |  0  |  0  |  0  |
| 0  | 0  | 0  | 0  | 0  | 1  | 1  | 1  | 1  | 0  |  0  |  0  |  0  |  1  |  1  |  0  |  0  |  0  |  0  |  0  |  0  |  0  |  0  |  0  |
| 0  | 0  | 0  | 0  | 0  | 0  | 0  | 0  | 0  | 1  |  1  |  1  |  1  |  1  |  1  |  0  |  0  |  0  |  0  |  0  |  0  |  0  |  0  |  0  |
| 0  | 0  | 0  | 0  | 0  | 0  | 0  | 0  | 0  | 0  |  0  |  0  |  0  |  0  |  0  |  1  |  1  |  1  |  0  |  0  |  0  |  0  |  1  |  1  |
| 0  | 0  | 0  | 0  | 0  | 0  | 0  | 0  | 0  | 0  |  0  |  0  |  0  |  0  |  0  |  0  |  0  |  0  |  1  |  1  |  1  |  1  |  1  |  1  |
+----+----+----+----+----+----+----+----+----+----+-----+-----+-----+-----+-----+-----+-----+-----+-----+-----+-----+-----+-----+-----+ 

18/09/2021 16:19:19[INFO] Supervisores para agregar   
+-----+---------+----------------------------+----------------------------+--------------------------------------------------------+
|  ID | Marcado |        T - Entrada         |         T - Salida         |                   Sifon a controlar                    |
+-----+---------+----------------------------+----------------------------+--------------------------------------------------------+
| P33 |    2    | ['T2', 'T8', 'T12', 'T22'] | ['T1', 'T6', 'T10', 'T20'] | ['P2', 'P9', 'P12', 'P19', 'P23', 'P29', 'P30', 'P31'] |
| P33 |    1    |    ['T8', 'T11', 'T21']    |    ['T7', 'T10', 'T20']    |        ['P2', 'P9', 'P11', 'P23', 'P29', 'P30']        |
| P33 |    1    |    ['T8', 'T11', 'T21']    |    ['T7', 'T10', 'T20']    |    ['P2', 'P9', 'P11', 'P12', 'P23', 'P29', 'P30']     |
+-----+---------+----------------------------+----------------------------+--------------------------------------------------------+ 

18/09/2021 16:19:19[INFO] Supervisores agregados   
+-----+-------+---------+----------------+----------------+----------------+
| Nro | Plaza | Marcado |  T - Entrada   |   T - Salida   | MAL supervisor |
+-----+-------+---------+----------------+----------------+----------------+
|  1  |  P32  |    1    | ['T11', 'T21'] | ['T10', 'T20'] |     False      |
+-----+-------+---------+----------------+----------------+----------------+ 

18/09/2021 16:19:19[INFO] Supervisores eliminados   
+-----+-------+---------+-------------+------------+----------------+
| Nro | Plaza | Marcado | T - Entrada | T - Salida | MAL supervisor |
+-----+-------+---------+-------------+------------+----------------+
+-----+-------+---------+-------------+------------+----------------+ 

18/09/2021 16:19:19[INFO] Ejecutando accion...   
18/09/2021 16:19:19[ACTION] Agrego supervisor con menor numero de arcos de salida (MNAS)   
18/09/2021 16:19:19[INFO] Supervisor con menor cantidad de arcos de salida agregado 2   

--------------------------------------------------------------------------   
18/09/2021 16:19:19[INFO] Ejecutando petrinator para conocer estado de la red...   
--------------------------------------------------------------------------
   
--------------------------------------------------------------------------
   
18/09/2021 16:19:33[INFO] Calculando recompensa..   
18/09/2021 16:19:33[REWARD] Agregue un supervisor que genero menos sifones vacios en deadlock, recompensa -1   

--------------------------------------------------------------------------
   
18/09/2021 16:19:33[STATE] Cambie al estado 3: Hay igual cantidad de sifones vacios en deadlock   
+--------+---------+-------------------+----------------+---------+---------+------------------------+
| Plazas | Estados | Tokens trabajando | Sifones vacios | Sifones | Trampas | Supervisores agregados |
+--------+---------+-------------------+----------------+---------+---------+------------------------+
|   32   |   888   |        2903       |       3        |   114   |    25   |           1            |
|   33   |   865   |        2821       |       3        |   263   |    35   |           2            |
+--------+---------+-------------------+----------------+---------+---------+------------------------+ 
+------------------------------+------------+-----------------+--------------------+-----------------------+
|       Estados/Acciones       | + sup MNAS | + sup aleatorio | - sup MAL agregado | - ultimo sup agregado |
+------------------------------+------------+-----------------+--------------------+-----------------------+
|            Start             |    -1.0    |       0.0       |        0.0         |          0.0          |
| + sifónes vacíos en deadlock |    0.0     |       0.0       |        0.0         |          0.0          |
| - sifónes vacíos en deadlock |    -1.0    |       0.0       |        0.0         |          0.0          |
| = sifónes vacíos en deadlock |    0.0     |       0.0       |        0.0         |          0.0          |
|             End              |    0.0     |       0.0       |        0.0         |          0.0          |
+------------------------------+------------+-----------------+--------------------+-----------------------+ 

18/09/2021 16:19:33[INFO] SIFONES   
+----+-----+--------------------------------------------------------+
| ID | Nro |                         Plazas                         |
+----+-----+--------------------------------------------------------+
| 11 |  28 | ['P1', 'P9', 'P12', 'P19', 'P23', 'P30', 'P31', 'P33'] |
| 12 |  30 | ['P1', 'P8', 'P12', 'P19', 'P23', 'P28', 'P31', 'P33'] |
| 13 |  38 | ['P1', 'P8', 'P10', 'P12', 'P19', 'P23', 'P31', 'P33'] |
+----+-----+--------------------------------------------------------+ 

18/09/2021 16:19:33[INFO] T INVARIANTES   
+----+----+----+----+----+----+----+----+----+----+-----+-----+-----+-----+-----+-----+-----+-----+-----+-----+-----+-----+-----+-----+
| T0 | T1 | T2 | T3 | T4 | T5 | T6 | T7 | T8 | T9 | T10 | T11 | T12 | T13 | T14 | T15 | T16 | T17 | T18 | T19 | T20 | T21 | T22 | T23 |
+----+----+----+----+----+----+----+----+----+----+-----+-----+-----+-----+-----+-----+-----+-----+-----+-----+-----+-----+-----+-----+
| 1  | 1  | 1  | 1  | 1  | 0  | 0  | 0  | 0  | 0  |  0  |  0  |  0  |  0  |  0  |  0  |  0  |  0  |  0  |  0  |  0  |  0  |  0  |  0  |
| 0  | 0  | 0  | 0  | 0  | 1  | 1  | 1  | 1  | 0  |  0  |  0  |  0  |  1  |  1  |  0  |  0  |  0  |  0  |  0  |  0  |  0  |  0  |  0  |
| 0  | 0  | 0  | 0  | 0  | 0  | 0  | 0  | 0  | 1  |  1  |  1  |  1  |  1  |  1  |  0  |  0  |  0  |  0  |  0  |  0  |  0  |  0  |  0  |
| 0  | 0  | 0  | 0  | 0  | 0  | 0  | 0  | 0  | 0  |  0  |  0  |  0  |  0  |  0  |  1  |  1  |  1  |  0  |  0  |  0  |  0  |  1  |  1  |
| 0  | 0  | 0  | 0  | 0  | 0  | 0  | 0  | 0  | 0  |  0  |  0  |  0  |  0  |  0  |  0  |  0  |  0  |  1  |  1  |  1  |  1  |  1  |  1  |
+----+----+----+----+----+----+----+----+----+----+-----+-----+-----+-----+-----+-----+-----+-----+-----+-----+-----+-----+-----+-----+ 

18/09/2021 16:19:33[INFO] Supervisores para agregar   
+-----+---------+----------------------+----------------------+--------------------------------------------------------+
|  ID | Marcado |     T - Entrada      |      T - Salida      |                   Sifon a controlar                    |
+-----+---------+----------------------+----------------------+--------------------------------------------------------+
| P34 |    1    | ['T8', 'T12', 'T21'] | ['T6', 'T10', 'T20'] | ['P1', 'P9', 'P12', 'P19', 'P23', 'P30', 'P31', 'P33'] |
| P34 |    1    | ['T7', 'T12', 'T21'] | ['T6', 'T10', 'T20'] | ['P1', 'P8', 'P12', 'P19', 'P23', 'P28', 'P31', 'P33'] |
+-----+---------+----------------------+----------------------+--------------------------------------------------------+ 

18/09/2021 16:19:33[INFO] Supervisores agregados   
+-----+-------+---------+----------------------+----------------------+----------------+
| Nro | Plaza | Marcado |     T - Entrada      |      T - Salida      | MAL supervisor |
+-----+-------+---------+----------------------+----------------------+----------------+
|  1  |  P32  |    1    |    ['T11', 'T21']    |    ['T10', 'T20']    |     False      |
|  2  |  P33  |    1    | ['T8', 'T11', 'T21'] | ['T7', 'T10', 'T20'] |     False      |
+-----+-------+---------+----------------------+----------------------+----------------+ 

18/09/2021 16:19:33[INFO] Supervisores eliminados   
+-----+-------+---------+-------------+------------+----------------+
| Nro | Plaza | Marcado | T - Entrada | T - Salida | MAL supervisor |
+-----+-------+---------+-------------+------------+----------------+
+-----+-------+---------+-------------+------------+----------------+ 

18/09/2021 16:19:33[INFO] Ejecutando accion...   
18/09/2021 16:19:33[ACTION] Agrego supervisor con menor numero de arcos de salida (MNAS)   
18/09/2021 16:19:33[INFO] Supervisor con menor cantidad de arcos de salida agregado 0   

--------------------------------------------------------------------------   
18/09/2021 16:19:33[INFO] Ejecutando petrinator para conocer estado de la red...   
--------------------------------------------------------------------------
   
--------------------------------------------------------------------------
   
18/09/2021 16:19:49[INFO] Calculando recompensa..   
18/09/2021 16:19:49[REWARD] No hay mas deadlock, recompensa 100   

--------------------------------------------------------------------------
   
18/09/2021 16:19:49[STATE] Se llego al estado deseado, NO HAY MAS DEADLOCK   

--------------------------------------------------------------------------
   
+--------+---------+-------------------+----------------+---------+---------+------------------------+
| Plazas | Estados | Tokens trabajando | Sifones vacios | Sifones | Trampas | Supervisores agregados |
+--------+---------+-------------------+----------------+---------+---------+------------------------+
|   32   |   888   |        2903       |       3        |   114   |    25   |           1            |
|   33   |   865   |        2821       |       3        |   263   |    35   |           2            |
|   34   |   845   |        2750       |       0        |   457   |    43   |           3            |
+--------+---------+-------------------+----------------+---------+---------+------------------------+ 
+------------------------------+------------+-----------------+--------------------+-----------------------+
|       Estados/Acciones       | + sup MNAS | + sup aleatorio | - sup MAL agregado | - ultimo sup agregado |
+------------------------------+------------+-----------------+--------------------+-----------------------+
|            Start             |    -1.0    |       0.0       |        0.0         |          0.0          |
| + sifónes vacíos en deadlock |    0.0     |       0.0       |        0.0         |          0.0          |
| - sifónes vacíos en deadlock |    -1.0    |       0.0       |        0.0         |          0.0          |
| = sifónes vacíos en deadlock |   100.0    |       0.0       |        0.0         |          0.0          |
|             End              |    0.0     |       0.0       |        0.0         |          0.0          |
+------------------------------+------------+-----------------+--------------------+-----------------------+ 

18/09/2021 16:19:49[INFO] Comienza proceso de eliminacion de supervisores redundantes   
18/09/2021 16:19:49[INFO] Supervisor a eliminar   
+-----+-------+---------+----------------+----------------+----------------+
| Nro | Plaza | Marcado |  T - Entrada   |   T - Salida   | MAL supervisor |
+-----+-------+---------+----------------+----------------+----------------+
|  1  |  P32  |    1    | ['T11', 'T21'] | ['T10', 'T20'] |     False      |
+-----+-------+---------+----------------+----------------+----------------+ 
18/09/2021 16:19:49[INFO] Eliminando supervisor ...   

--------------------------------------------------------------------------   
18/09/2021 16:19:49[INFO] Ejecutando petrinator para conocer estado de la red...   
--------------------------------------------------------------------------
   
18/09/2021 16:20:04[INFO] Se elimino correctamente supervisor redundante   
18/09/2021 16:20:04[INFO] Supervisor a eliminar   
+-----+-------+---------+----------------------+----------------------+----------------+
| Nro | Plaza | Marcado |     T - Entrada      |      T - Salida      | MAL supervisor |
+-----+-------+---------+----------------------+----------------------+----------------+
|  2  |  P33  |    1    | ['T8', 'T11', 'T21'] | ['T7', 'T10', 'T20'] |     False      |
+-----+-------+---------+----------------------+----------------------+----------------+ 
18/09/2021 16:20:04[INFO] Eliminando supervisor ...   

--------------------------------------------------------------------------   
18/09/2021 16:20:04[INFO] Ejecutando petrinator para conocer estado de la red...   
--------------------------------------------------------------------------
   
18/09/2021 16:20:17[INFO] Se elimino correctamente supervisor redundante   
18/09/2021 16:20:17[INFO] Supervisor a eliminar   
+-----+-------+---------+----------------------+----------------------+----------------+
| Nro | Plaza | Marcado |     T - Entrada      |      T - Salida      | MAL supervisor |
+-----+-------+---------+----------------------+----------------------+----------------+
|  3  |  P34  |    1    | ['T8', 'T12', 'T21'] | ['T6', 'T10', 'T20'] |     False      |
+-----+-------+---------+----------------------+----------------------+----------------+ 
18/09/2021 16:20:17[INFO] Eliminando supervisor ...   

--------------------------------------------------------------------------   
18/09/2021 16:20:17[INFO] Ejecutando petrinator para conocer estado de la red...   
--------------------------------------------------------------------------
   
18/09/2021 16:20:29[INFO] El supervisor eliminado no era redundante, volviendo a agregar supervisor   
18/09/2021 16:20:29[INFO] Se volvio a agregar correctamente el supervisor eliminado   

--------------------------------------------------------------------------   
18/09/2021 16:20:29[INFO] Ejecutando petrinator para conocer estado de la red...   
--------------------------------------------------------------------------
   
18/09/2021 16:20:43[INFO] Se eliminaron todos los supervisores redundantes   
+--------+---------+-------------------+----------------+---------+---------+------------------------+-------------------------+
| Plazas | Estados | Tokens trabajando | Sifones vacios | Sifones | Trampas | Supervisores agregados | Supervisores eliminados |
+--------+---------+-------------------+----------------+---------+---------+------------------------+-------------------------+
|   32   |   845   |        2750       |       0        |   218   |    23   |           1            |            2            |
+--------+---------+-------------------+----------------+---------+---------+------------------------+-------------------------+ 
