19/07/2021 23:33:08[DEBUG] pflow_file:  ../analysis/analisis_11_19072021/gen_nets/20210719-224351_36/net.pflow  
19/07/2021 23:33:08[DEBUG] output_folder:  ../analysis/analisis_11_19072021/gen_nets/20210719-224351_36/  
19/07/2021 23:33:08[DEBUG] html_path:  ../analysis/analisis_11_19072021/gen_nets/20210719-224351_36/  
19/07/2021 23:33:08[DEBUG] txt_path:  ../analysis/analisis_11_19072021/gen_nets/20210719-224351_36/txt_info  

--------------------------------------------------------------------------   
19/07/2021 23:33:08[INFO] Ejecutando petrinator para conocer estado de la red...   
--------------------------------------------------------------------------
   
19/07/2021 23:33:14[ERROR] La red ingresada no tiene deadlock, cerrando analisis 
  
