21/06/2021 19:04:21[DEBUG] pflow_file:  ../analisis_5_21062021/gen_nets/20210621-175515_37/net.pflow  
21/06/2021 19:04:21[DEBUG] output_folder:  ../analisis_5_21062021/gen_nets/20210621-175515_37/  
21/06/2021 19:04:21[DEBUG] html_path:  ../analisis_5_21062021/gen_nets/20210621-175515_37/  
21/06/2021 19:04:21[DEBUG] txt_path:  ../analisis_5_21062021/gen_nets/20210621-175515_37/txt_info  

--------------------------------------------------------------------------   
21/06/2021 19:04:21[INFO] Ejecutando petrinator para conocer estado de la red...   
--------------------------------------------------------------------------
   
21/06/2021 19:04:25[ERROR] La red ingresada no tiene deadlock, cerrando analisis 
  
