 Minimal siphons 
2 8 12 22 24 25
1 6 12 22
12 13
11 14
5 6 7 8 9
10 11 12 15 16 17 18 19 20 21
1 5 10 17 26
1 8 11 24
1 29 5 6 7 19
1 27 5 6 7 10 11 19
1 28 5 6 7 10 11 19
2 7 25
2 6 12 18 22 23
2 3
1 2 4
2 5 11 18 23
2 8 11 24 25
27 2 5 7 8 10 11 12 15 16 17 18 19 25
28 2 5 7 8 10 11 12 15 16 17 18 19 25
29 2 5 7 8 10 11 12 15 16 17 18 19 25
 Minimal traps 
1 5 10 17 26
2 7 25
11 14
12 13
5 6 7 8 9
10 11 12 15 16 17 18 19 20 21
2 5 11 18 23
2 3
2 3 5 6 7 8 9
1 6 11 22 24 25
1 7 11 24 25
1 8 11 24
1 2 4
1 2 3
1 2 7 25
1 6 12 22
1 6 11 12 22
1 29 5 17 19 26
1 5 11 18 22 23
1 29 5 11 18 19 23
1 29 27 5 6 19 22
1 29 28 5 6 19 22
1 29 5 6 7 19
1 29 5 6 11 19 22 24
1 27 5 10 11 18 19 23
1 28 5 10 11 18 19 23
1 28 5 6 10 11 19 22
1 28 5 6 7 10 11 19
1 27 5 6 10 11 19 22
1 27 5 6 7 10 11 19
 Analysis time: 1.103s