 p 16 
 t 11 
 Reachable states from S0 [3, 0, 1, 1, 0, 0, 2, 0, 0, 1, 0, 3, 0, 2, 0, 2] 
 T1 => S1 [2, 1, 0, 1, 0, 0, 2, 0, 0, 1, 0, 3, 0, 2, 0, 2] 
 T7 => S142 [3, 0, 1, 1, 0, 0, 2, 0, 0, 1, 0, 2, 0, 1, 1, 1] 
 
 Reachable states from S1 [2, 1, 0, 1, 0, 0, 2, 0, 0, 1, 0, 3, 0, 2, 0, 2] 
 T2 => S2 [2, 0, 1, 0, 1, 0, 2, 0, 0, 1, 0, 3, 0, 2, 0, 2] 
 T7 => S143 [2, 1, 0, 1, 0, 0, 2, 0, 0, 1, 0, 2, 0, 1, 1, 1] 
 T3 => S243 [2, 0, 1, 1, 0, 1, 1, 0, 0, 1, 0, 3, 0, 2, 0, 2] 
 
 Reachable states from S2 [2, 0, 1, 0, 1, 0, 2, 0, 0, 1, 0, 3, 0, 2, 0, 2] 
 T11 => S0 [3, 0, 1, 1, 0, 0, 2, 0, 0, 1, 0, 3, 0, 2, 0, 2] 
 T1 => S3 [1, 1, 0, 0, 1, 0, 2, 0, 0, 1, 0, 3, 0, 2, 0, 2] 
 T7 => S46 [2, 0, 1, 0, 1, 0, 2, 0, 0, 1, 0, 2, 0, 1, 1, 1] 
 
 Reachable states from S3 [1, 1, 0, 0, 1, 0, 2, 0, 0, 1, 0, 3, 0, 2, 0, 2] 
 T11 => S1 [2, 1, 0, 1, 0, 0, 2, 0, 0, 1, 0, 3, 0, 2, 0, 2] 
 T3 => S4 [1, 0, 1, 0, 1, 1, 1, 0, 0, 1, 0, 3, 0, 2, 0, 2] 
 T7 => S47 [1, 1, 0, 0, 1, 0, 2, 0, 0, 1, 0, 2, 0, 1, 1, 1] 
 
 Reachable states from S4 [1, 0, 1, 0, 1, 1, 1, 0, 0, 1, 0, 3, 0, 2, 0, 2] 
 T1 => S5 [0, 1, 0, 0, 1, 1, 1, 0, 0, 1, 0, 3, 0, 2, 0, 2] 
 T7 => S48 [1, 0, 1, 0, 1, 1, 1, 0, 0, 1, 0, 2, 0, 1, 1, 1] 
 T4 => S96 [1, 0, 1, 0, 1, 0, 2, 0, 1, 0, 0, 3, 0, 2, 0, 1] 
 T11 => S243 [2, 0, 1, 1, 0, 1, 1, 0, 0, 1, 0, 3, 0, 2, 0, 2] 
 
 Reachable states from S5 [0, 1, 0, 0, 1, 1, 1, 0, 0, 1, 0, 3, 0, 2, 0, 2] 
 T3 => S6 [0, 0, 1, 0, 1, 2, 0, 0, 0, 1, 0, 3, 0, 2, 0, 2] 
 T7 => S49 [0, 1, 0, 0, 1, 1, 1, 0, 0, 1, 0, 2, 0, 1, 1, 1] 
 T4 => S97 [0, 1, 0, 0, 1, 0, 2, 0, 1, 0, 0, 3, 0, 2, 0, 1] 
 T11 => S112 [1, 1, 0, 1, 0, 1, 1, 0, 0, 1, 0, 3, 0, 2, 0, 2] 
 
 Reachable states from S6 [0, 0, 1, 0, 1, 2, 0, 0, 0, 1, 0, 3, 0, 2, 0, 2] 
 T4 => S7 [0, 0, 1, 0, 1, 1, 1, 0, 1, 0, 0, 3, 0, 2, 0, 1] 
 T7 => S26 [0, 0, 1, 0, 1, 2, 0, 0, 0, 1, 0, 2, 0, 1, 1, 1] 
 T11 => S113 [1, 0, 1, 1, 0, 2, 0, 0, 0, 1, 0, 3, 0, 2, 0, 2] 
 
 Reachable states from S7 [0, 0, 1, 0, 1, 1, 1, 0, 1, 0, 0, 3, 0, 2, 0, 1] 
 T5 => S8 [0, 0, 1, 0, 1, 1, 1, 0, 0, 1, 0, 3, 1, 1, 0, 2] 
 T7 => S18 [0, 0, 1, 0, 1, 1, 1, 0, 1, 0, 0, 2, 0, 1, 1, 0] 
 T11 => S99 [1, 0, 1, 1, 0, 1, 1, 0, 1, 0, 0, 3, 0, 2, 0, 1] 
 
 Reachable states from S8 [0, 0, 1, 0, 1, 1, 1, 0, 0, 1, 0, 3, 1, 1, 0, 2] 
 T6 => S4 [1, 0, 1, 0, 1, 1, 1, 0, 0, 1, 0, 3, 0, 2, 0, 2] 
 T4 => S9 [0, 0, 1, 0, 1, 0, 2, 0, 1, 0, 0, 3, 1, 1, 0, 1] 
 T7 => S14 [0, 0, 1, 0, 1, 1, 1, 0, 0, 1, 0, 2, 1, 0, 1, 1] 
 T11 => S110 [1, 0, 1, 1, 0, 1, 1, 0, 0, 1, 0, 3, 1, 1, 0, 2] 
 
 Reachable states from S9 [0, 0, 1, 0, 1, 0, 2, 0, 1, 0, 0, 3, 1, 1, 0, 1] 
 T5 => S10 [0, 0, 1, 0, 1, 0, 2, 0, 0, 1, 0, 3, 2, 0, 0, 2] 
 T7 => S15 [0, 0, 1, 0, 1, 0, 2, 0, 1, 0, 0, 2, 1, 0, 1, 0] 
 T6 => S96 [1, 0, 1, 0, 1, 0, 2, 0, 1, 0, 0, 3, 0, 2, 0, 1] 
 T11 => S106 [1, 0, 1, 1, 0, 0, 2, 0, 1, 0, 0, 3, 1, 1, 0, 1] 
 
 Reachable states from S10 [0, 0, 1, 0, 1, 0, 2, 0, 0, 1, 0, 3, 2, 0, 0, 2] 
 T6 => S11 [1, 0, 1, 0, 1, 0, 2, 0, 0, 1, 0, 3, 1, 1, 0, 2] 
 T11 => S240 [1, 0, 1, 1, 0, 0, 2, 0, 0, 1, 0, 3, 2, 0, 0, 2] 
 
 Reachable states from S11 [1, 0, 1, 0, 1, 0, 2, 0, 0, 1, 0, 3, 1, 1, 0, 2] 
 T6 => S2 [2, 0, 1, 0, 1, 0, 2, 0, 0, 1, 0, 3, 0, 2, 0, 2] 
 T1 => S12 [0, 1, 0, 0, 1, 0, 2, 0, 0, 1, 0, 3, 1, 1, 0, 2] 
 T7 => S45 [1, 0, 1, 0, 1, 0, 2, 0, 0, 1, 0, 2, 1, 0, 1, 1] 
 T11 => S227 [2, 0, 1, 1, 0, 0, 2, 0, 0, 1, 0, 3, 1, 1, 0, 2] 
 
 Reachable states from S12 [0, 1, 0, 0, 1, 0, 2, 0, 0, 1, 0, 3, 1, 1, 0, 2] 
 T6 => S3 [1, 1, 0, 0, 1, 0, 2, 0, 0, 1, 0, 3, 0, 2, 0, 2] 
 T3 => S8 [0, 0, 1, 0, 1, 1, 1, 0, 0, 1, 0, 3, 1, 1, 0, 2] 
 T7 => S13 [0, 1, 0, 0, 1, 0, 2, 0, 0, 1, 0, 2, 1, 0, 1, 1] 
 T11 => S109 [1, 1, 0, 1, 0, 0, 2, 0, 0, 1, 0, 3, 1, 1, 0, 2] 
 
 Reachable states from S13 [0, 1, 0, 0, 1, 0, 2, 0, 0, 1, 0, 2, 1, 0, 1, 1] 
 T3 => S14 [0, 0, 1, 0, 1, 1, 1, 0, 0, 1, 0, 2, 1, 0, 1, 1] 
 T11 => S44 [1, 1, 0, 1, 0, 0, 2, 0, 0, 1, 0, 2, 1, 0, 1, 1] 
 T6 => S47 [1, 1, 0, 0, 1, 0, 2, 0, 0, 1, 0, 2, 0, 1, 1, 1] 
 T8 => S231 [0, 1, 0, 0, 1, 0, 2, 0, 0, 0, 1, 2, 1, 1, 0, 2] 
 
 Reachable states from S14 [0, 0, 1, 0, 1, 1, 1, 0, 0, 1, 0, 2, 1, 0, 1, 1] 
 T4 => S15 [0, 0, 1, 0, 1, 0, 2, 0, 1, 0, 0, 2, 1, 0, 1, 0] 
 T6 => S48 [1, 0, 1, 0, 1, 1, 1, 0, 0, 1, 0, 2, 0, 1, 1, 1] 
 T8 => S232 [0, 0, 1, 0, 1, 1, 1, 0, 0, 0, 1, 2, 1, 1, 0, 2] 
 T11 => S245 [1, 0, 1, 1, 0, 1, 1, 0, 0, 1, 0, 2, 1, 0, 1, 1] 
 
 Reachable states from S15 [0, 0, 1, 0, 1, 0, 2, 0, 1, 0, 0, 2, 1, 0, 1, 0] 
 T6 => S16 [1, 0, 1, 0, 1, 0, 2, 0, 1, 0, 0, 2, 0, 1, 1, 0] 
 T11 => S139 [1, 0, 1, 1, 0, 0, 2, 0, 1, 0, 0, 2, 1, 0, 1, 0] 
 
 Reachable states from S16 [1, 0, 1, 0, 1, 0, 2, 0, 1, 0, 0, 2, 0, 1, 1, 0] 
 T1 => S17 [0, 1, 0, 0, 1, 0, 2, 0, 1, 0, 0, 2, 0, 1, 1, 0] 
 T5 => S45 [1, 0, 1, 0, 1, 0, 2, 0, 0, 1, 0, 2, 1, 0, 1, 1] 
 T11 => S140 [2, 0, 1, 1, 0, 0, 2, 0, 1, 0, 0, 2, 0, 1, 1, 0] 
 
 Reachable states from S17 [0, 1, 0, 0, 1, 0, 2, 0, 1, 0, 0, 2, 0, 1, 1, 0] 
 T5 => S13 [0, 1, 0, 0, 1, 0, 2, 0, 0, 1, 0, 2, 1, 0, 1, 1] 
 T3 => S18 [0, 0, 1, 0, 1, 1, 1, 0, 1, 0, 0, 2, 0, 1, 1, 0] 
 T11 => S43 [1, 1, 0, 1, 0, 0, 2, 0, 1, 0, 0, 2, 0, 1, 1, 0] 
 
 Reachable states from S18 [0, 0, 1, 0, 1, 1, 1, 0, 1, 0, 0, 2, 0, 1, 1, 0] 
 T5 => S14 [0, 0, 1, 0, 1, 1, 1, 0, 0, 1, 0, 2, 1, 0, 1, 1] 
 T11 => S19 [1, 0, 1, 1, 0, 1, 1, 0, 1, 0, 0, 2, 0, 1, 1, 0] 
 
 Reachable states from S19 [1, 0, 1, 1, 0, 1, 1, 0, 1, 0, 0, 2, 0, 1, 1, 0] 
 T1 => S20 [0, 1, 0, 1, 0, 1, 1, 0, 1, 0, 0, 2, 0, 1, 1, 0] 
 T5 => S245 [1, 0, 1, 1, 0, 1, 1, 0, 0, 1, 0, 2, 1, 0, 1, 1] 
 
 Reachable states from S20 [0, 1, 0, 1, 0, 1, 1, 0, 1, 0, 0, 2, 0, 1, 1, 0] 
 T2 => S18 [0, 0, 1, 0, 1, 1, 1, 0, 1, 0, 0, 2, 0, 1, 1, 0] 
 T3 => S21 [0, 0, 1, 1, 0, 2, 0, 0, 1, 0, 0, 2, 0, 1, 1, 0] 
 T5 => S41 [0, 1, 0, 1, 0, 1, 1, 0, 0, 1, 0, 2, 1, 0, 1, 1] 
 
 Reachable states from S21 [0, 0, 1, 1, 0, 2, 0, 0, 1, 0, 0, 2, 0, 1, 1, 0] 
 T5 => S22 [0, 0, 1, 1, 0, 2, 0, 0, 0, 1, 0, 2, 1, 0, 1, 1] 
 
 Reachable states from S22 [0, 0, 1, 1, 0, 2, 0, 0, 0, 1, 0, 2, 1, 0, 1, 1] 
 T4 => S23 [0, 0, 1, 1, 0, 1, 1, 0, 1, 0, 0, 2, 1, 0, 1, 0] 
 T6 => S24 [1, 0, 1, 1, 0, 2, 0, 0, 0, 1, 0, 2, 0, 1, 1, 1] 
 T8 => S39 [0, 0, 1, 1, 0, 2, 0, 0, 0, 0, 1, 2, 1, 1, 0, 2] 
 
 Reachable states from S23 [0, 0, 1, 1, 0, 1, 1, 0, 1, 0, 0, 2, 1, 0, 1, 0] 
 T6 => S19 [1, 0, 1, 1, 0, 1, 1, 0, 1, 0, 0, 2, 0, 1, 1, 0] 
 
 Reachable states from S24 [1, 0, 1, 1, 0, 2, 0, 0, 0, 1, 0, 2, 0, 1, 1, 1] 
 T4 => S19 [1, 0, 1, 1, 0, 1, 1, 0, 1, 0, 0, 2, 0, 1, 1, 0] 
 T1 => S25 [0, 1, 0, 1, 0, 2, 0, 0, 0, 1, 0, 2, 0, 1, 1, 1] 
 T7 => S34 [1, 0, 1, 1, 0, 2, 0, 0, 0, 1, 0, 1, 0, 0, 2, 0] 
 T8 => S37 [1, 0, 1, 1, 0, 2, 0, 0, 0, 0, 1, 2, 0, 2, 0, 2] 
 
 Reachable states from S25 [0, 1, 0, 1, 0, 2, 0, 0, 0, 1, 0, 2, 0, 1, 1, 1] 
 T4 => S20 [0, 1, 0, 1, 0, 1, 1, 0, 1, 0, 0, 2, 0, 1, 1, 0] 
 T2 => S26 [0, 0, 1, 0, 1, 2, 0, 0, 0, 1, 0, 2, 0, 1, 1, 1] 
 T7 => S35 [0, 1, 0, 1, 0, 2, 0, 0, 0, 1, 0, 1, 0, 0, 2, 0] 
 T8 => S38 [0, 1, 0, 1, 0, 2, 0, 0, 0, 0, 1, 2, 0, 2, 0, 2] 
 
 Reachable states from S26 [0, 0, 1, 0, 1, 2, 0, 0, 0, 1, 0, 2, 0, 1, 1, 1] 
 T4 => S18 [0, 0, 1, 0, 1, 1, 1, 0, 1, 0, 0, 2, 0, 1, 1, 0] 
 T11 => S24 [1, 0, 1, 1, 0, 2, 0, 0, 0, 1, 0, 2, 0, 1, 1, 1] 
 T7 => S27 [0, 0, 1, 0, 1, 2, 0, 0, 0, 1, 0, 1, 0, 0, 2, 0] 
 T8 => S36 [0, 0, 1, 0, 1, 2, 0, 0, 0, 0, 1, 2, 0, 2, 0, 2] 
 
 Reachable states from S27 [0, 0, 1, 0, 1, 2, 0, 0, 0, 1, 0, 1, 0, 0, 2, 0] 
 T8 => S28 [0, 0, 1, 0, 1, 2, 0, 0, 0, 0, 1, 1, 0, 1, 1, 1] 
 T11 => S34 [1, 0, 1, 1, 0, 2, 0, 0, 0, 1, 0, 1, 0, 0, 2, 0] 
 
 Reachable states from S28 [0, 0, 1, 0, 1, 2, 0, 0, 0, 0, 1, 1, 0, 1, 1, 1] 
 T7 => S29 [0, 0, 1, 0, 1, 2, 0, 0, 0, 0, 1, 0, 0, 0, 2, 0] 
 T11 => S32 [1, 0, 1, 1, 0, 2, 0, 0, 0, 0, 1, 1, 0, 1, 1, 1] 
 
 Reachable states from S29 [0, 0, 1, 0, 1, 2, 0, 0, 0, 0, 1, 0, 0, 0, 2, 0] 
 T11 => S30 [1, 0, 1, 1, 0, 2, 0, 0, 0, 0, 1, 0, 0, 0, 2, 0] 
 
 Reachable states from S30 [1, 0, 1, 1, 0, 2, 0, 0, 0, 0, 1, 0, 0, 0, 2, 0] 
 T1 => S31 [0, 1, 0, 1, 0, 2, 0, 0, 0, 0, 1, 0, 0, 0, 2, 0] 
 
 Reachable states from S31 [0, 1, 0, 1, 0, 2, 0, 0, 0, 0, 1, 0, 0, 0, 2, 0] 
 T2 => S29 [0, 0, 1, 0, 1, 2, 0, 0, 0, 0, 1, 0, 0, 0, 2, 0] 
 
 Reachable states from S32 [1, 0, 1, 1, 0, 2, 0, 0, 0, 0, 1, 1, 0, 1, 1, 1] 
 T7 => S30 [1, 0, 1, 1, 0, 2, 0, 0, 0, 0, 1, 0, 0, 0, 2, 0] 
 T1 => S33 [0, 1, 0, 1, 0, 2, 0, 0, 0, 0, 1, 1, 0, 1, 1, 1] 
 
 Reachable states from S33 [0, 1, 0, 1, 0, 2, 0, 0, 0, 0, 1, 1, 0, 1, 1, 1] 
 T2 => S28 [0, 0, 1, 0, 1, 2, 0, 0, 0, 0, 1, 1, 0, 1, 1, 1] 
 T7 => S31 [0, 1, 0, 1, 0, 2, 0, 0, 0, 0, 1, 0, 0, 0, 2, 0] 
 
 Reachable states from S34 [1, 0, 1, 1, 0, 2, 0, 0, 0, 1, 0, 1, 0, 0, 2, 0] 
 T8 => S32 [1, 0, 1, 1, 0, 2, 0, 0, 0, 0, 1, 1, 0, 1, 1, 1] 
 T1 => S35 [0, 1, 0, 1, 0, 2, 0, 0, 0, 1, 0, 1, 0, 0, 2, 0] 
 
 Reachable states from S35 [0, 1, 0, 1, 0, 2, 0, 0, 0, 1, 0, 1, 0, 0, 2, 0] 
 T2 => S27 [0, 0, 1, 0, 1, 2, 0, 0, 0, 1, 0, 1, 0, 0, 2, 0] 
 T8 => S33 [0, 1, 0, 1, 0, 2, 0, 0, 0, 0, 1, 1, 0, 1, 1, 1] 
 
 Reachable states from S36 [0, 0, 1, 0, 1, 2, 0, 0, 0, 0, 1, 2, 0, 2, 0, 2] 
 T7 => S28 [0, 0, 1, 0, 1, 2, 0, 0, 0, 0, 1, 1, 0, 1, 1, 1] 
 T11 => S37 [1, 0, 1, 1, 0, 2, 0, 0, 0, 0, 1, 2, 0, 2, 0, 2] 
 
 Reachable states from S37 [1, 0, 1, 1, 0, 2, 0, 0, 0, 0, 1, 2, 0, 2, 0, 2] 
 T7 => S32 [1, 0, 1, 1, 0, 2, 0, 0, 0, 0, 1, 1, 0, 1, 1, 1] 
 T1 => S38 [0, 1, 0, 1, 0, 2, 0, 0, 0, 0, 1, 2, 0, 2, 0, 2] 
 
 Reachable states from S38 [0, 1, 0, 1, 0, 2, 0, 0, 0, 0, 1, 2, 0, 2, 0, 2] 
 T7 => S33 [0, 1, 0, 1, 0, 2, 0, 0, 0, 0, 1, 1, 0, 1, 1, 1] 
 T2 => S36 [0, 0, 1, 0, 1, 2, 0, 0, 0, 0, 1, 2, 0, 2, 0, 2] 
 
 Reachable states from S39 [0, 0, 1, 1, 0, 2, 0, 0, 0, 0, 1, 2, 1, 1, 0, 2] 
 T6 => S37 [1, 0, 1, 1, 0, 2, 0, 0, 0, 0, 1, 2, 0, 2, 0, 2] 
 T7 => S40 [0, 0, 1, 1, 0, 2, 0, 0, 0, 0, 1, 1, 1, 0, 1, 1] 
 
 Reachable states from S40 [0, 0, 1, 1, 0, 2, 0, 0, 0, 0, 1, 1, 1, 0, 1, 1] 
 T6 => S32 [1, 0, 1, 1, 0, 2, 0, 0, 0, 0, 1, 1, 0, 1, 1, 1] 
 
 Reachable states from S41 [0, 1, 0, 1, 0, 1, 1, 0, 0, 1, 0, 2, 1, 0, 1, 1] 
 T2 => S14 [0, 0, 1, 0, 1, 1, 1, 0, 0, 1, 0, 2, 1, 0, 1, 1] 
 T3 => S22 [0, 0, 1, 1, 0, 2, 0, 0, 0, 1, 0, 2, 1, 0, 1, 1] 
 T4 => S42 [0, 1, 0, 1, 0, 0, 2, 0, 1, 0, 0, 2, 1, 0, 1, 0] 
 T6 => S115 [1, 1, 0, 1, 0, 1, 1, 0, 0, 1, 0, 2, 0, 1, 1, 1] 
 T8 => S234 [0, 1, 0, 1, 0, 1, 1, 0, 0, 0, 1, 2, 1, 1, 0, 2] 
 
 Reachable states from S42 [0, 1, 0, 1, 0, 0, 2, 0, 1, 0, 0, 2, 1, 0, 1, 0] 
 T2 => S15 [0, 0, 1, 0, 1, 0, 2, 0, 1, 0, 0, 2, 1, 0, 1, 0] 
 T3 => S23 [0, 0, 1, 1, 0, 1, 1, 0, 1, 0, 0, 2, 1, 0, 1, 0] 
 T6 => S43 [1, 1, 0, 1, 0, 0, 2, 0, 1, 0, 0, 2, 0, 1, 1, 0] 
 
 Reachable states from S43 [1, 1, 0, 1, 0, 0, 2, 0, 1, 0, 0, 2, 0, 1, 1, 0] 
 T2 => S16 [1, 0, 1, 0, 1, 0, 2, 0, 1, 0, 0, 2, 0, 1, 1, 0] 
 T3 => S19 [1, 0, 1, 1, 0, 1, 1, 0, 1, 0, 0, 2, 0, 1, 1, 0] 
 T5 => S44 [1, 1, 0, 1, 0, 0, 2, 0, 0, 1, 0, 2, 1, 0, 1, 1] 
 
 Reachable states from S44 [1, 1, 0, 1, 0, 0, 2, 0, 0, 1, 0, 2, 1, 0, 1, 1] 
 T2 => S45 [1, 0, 1, 0, 1, 0, 2, 0, 0, 1, 0, 2, 1, 0, 1, 1] 
 T6 => S143 [2, 1, 0, 1, 0, 0, 2, 0, 0, 1, 0, 2, 0, 1, 1, 1] 
 T8 => S229 [1, 1, 0, 1, 0, 0, 2, 0, 0, 0, 1, 2, 1, 1, 0, 2] 
 T3 => S245 [1, 0, 1, 1, 0, 1, 1, 0, 0, 1, 0, 2, 1, 0, 1, 1] 
 
 Reachable states from S45 [1, 0, 1, 0, 1, 0, 2, 0, 0, 1, 0, 2, 1, 0, 1, 1] 
 T1 => S13 [0, 1, 0, 0, 1, 0, 2, 0, 0, 1, 0, 2, 1, 0, 1, 1] 
 T6 => S46 [2, 0, 1, 0, 1, 0, 2, 0, 0, 1, 0, 2, 0, 1, 1, 1] 
 T11 => S141 [2, 0, 1, 1, 0, 0, 2, 0, 0, 1, 0, 2, 1, 0, 1, 1] 
 T8 => S230 [1, 0, 1, 0, 1, 0, 2, 0, 0, 0, 1, 2, 1, 1, 0, 2] 
 
 Reachable states from S46 [2, 0, 1, 0, 1, 0, 2, 0, 0, 1, 0, 2, 0, 1, 1, 1] 
 T1 => S47 [1, 1, 0, 0, 1, 0, 2, 0, 0, 1, 0, 2, 0, 1, 1, 1] 
 T11 => S142 [3, 0, 1, 1, 0, 0, 2, 0, 0, 1, 0, 2, 0, 1, 1, 1] 
 T7 => S146 [2, 0, 1, 0, 1, 0, 2, 0, 0, 1, 0, 1, 0, 0, 2, 0] 
 T8 => S237 [2, 0, 1, 0, 1, 0, 2, 0, 0, 0, 1, 2, 0, 2, 0, 2] 
 
 Reachable states from S47 [1, 1, 0, 0, 1, 0, 2, 0, 0, 1, 0, 2, 0, 1, 1, 1] 
 T3 => S48 [1, 0, 1, 0, 1, 1, 1, 0, 0, 1, 0, 2, 0, 1, 1, 1] 
 T11 => S143 [2, 1, 0, 1, 0, 0, 2, 0, 0, 1, 0, 2, 0, 1, 1, 1] 
 T7 => S147 [1, 1, 0, 0, 1, 0, 2, 0, 0, 1, 0, 1, 0, 0, 2, 0] 
 T8 => S235 [1, 1, 0, 0, 1, 0, 2, 0, 0, 0, 1, 2, 0, 2, 0, 2] 
 
 Reachable states from S48 [1, 0, 1, 0, 1, 1, 1, 0, 0, 1, 0, 2, 0, 1, 1, 1] 
 T4 => S16 [1, 0, 1, 0, 1, 0, 2, 0, 1, 0, 0, 2, 0, 1, 1, 0] 
 T1 => S49 [0, 1, 0, 0, 1, 1, 1, 0, 0, 1, 0, 2, 0, 1, 1, 1] 
 T7 => S60 [1, 0, 1, 0, 1, 1, 1, 0, 0, 1, 0, 1, 0, 0, 2, 0] 
 T8 => S117 [1, 0, 1, 0, 1, 1, 1, 0, 0, 0, 1, 2, 0, 2, 0, 2] 
 T11 => S144 [2, 0, 1, 1, 0, 1, 1, 0, 0, 1, 0, 2, 0, 1, 1, 1] 
 
 Reachable states from S49 [0, 1, 0, 0, 1, 1, 1, 0, 0, 1, 0, 2, 0, 1, 1, 1] 
 T4 => S17 [0, 1, 0, 0, 1, 0, 2, 0, 1, 0, 0, 2, 0, 1, 1, 0] 
 T3 => S26 [0, 0, 1, 0, 1, 2, 0, 0, 0, 1, 0, 2, 0, 1, 1, 1] 
 T7 => S50 [0, 1, 0, 0, 1, 1, 1, 0, 0, 1, 0, 1, 0, 0, 2, 0] 
 T8 => S84 [0, 1, 0, 0, 1, 1, 1, 0, 0, 0, 1, 2, 0, 2, 0, 2] 
 T11 => S115 [1, 1, 0, 1, 0, 1, 1, 0, 0, 1, 0, 2, 0, 1, 1, 1] 
 
 Reachable states from S50 [0, 1, 0, 0, 1, 1, 1, 0, 0, 1, 0, 1, 0, 0, 2, 0] 
 T3 => S27 [0, 0, 1, 0, 1, 2, 0, 0, 0, 1, 0, 1, 0, 0, 2, 0] 
 T8 => S51 [0, 1, 0, 0, 1, 1, 1, 0, 0, 0, 1, 1, 0, 1, 1, 1] 
 T11 => S62 [1, 1, 0, 1, 0, 1, 1, 0, 0, 1, 0, 1, 0, 0, 2, 0] 
 
 Reachable states from S51 [0, 1, 0, 0, 1, 1, 1, 0, 0, 0, 1, 1, 0, 1, 1, 1] 
 T3 => S28 [0, 0, 1, 0, 1, 2, 0, 0, 0, 0, 1, 1, 0, 1, 1, 1] 
 T7 => S52 [0, 1, 0, 0, 1, 1, 1, 0, 0, 0, 1, 0, 0, 0, 2, 0] 
 T11 => S63 [1, 1, 0, 1, 0, 1, 1, 0, 0, 0, 1, 1, 0, 1, 1, 1] 
 T9 => S68 [0, 1, 0, 0, 1, 1, 0, 1, 0, 1, 0, 1, 0, 1, 1, 1] 
 
 Reachable states from S52 [0, 1, 0, 0, 1, 1, 1, 0, 0, 0, 1, 0, 0, 0, 2, 0] 
 T3 => S29 [0, 0, 1, 0, 1, 2, 0, 0, 0, 0, 1, 0, 0, 0, 2, 0] 
 T9 => S53 [0, 1, 0, 0, 1, 1, 0, 1, 0, 1, 0, 0, 0, 0, 2, 0] 
 T11 => S64 [1, 1, 0, 1, 0, 1, 1, 0, 0, 0, 1, 0, 0, 0, 2, 0] 
 
 Reachable states from S53 [0, 1, 0, 0, 1, 1, 0, 1, 0, 1, 0, 0, 0, 0, 2, 0] 
 T10 => S50 [0, 1, 0, 0, 1, 1, 1, 0, 0, 1, 0, 1, 0, 0, 2, 0] 
 T8 => S54 [0, 1, 0, 0, 1, 1, 0, 1, 0, 0, 1, 0, 0, 1, 1, 1] 
 T11 => S65 [1, 1, 0, 1, 0, 1, 0, 1, 0, 1, 0, 0, 0, 0, 2, 0] 
 
 Reachable states from S54 [0, 1, 0, 0, 1, 1, 0, 1, 0, 0, 1, 0, 0, 1, 1, 1] 
 T10 => S51 [0, 1, 0, 0, 1, 1, 1, 0, 0, 0, 1, 1, 0, 1, 1, 1] 
 T11 => S55 [1, 1, 0, 1, 0, 1, 0, 1, 0, 0, 1, 0, 0, 1, 1, 1] 
 
 Reachable states from S55 [1, 1, 0, 1, 0, 1, 0, 1, 0, 0, 1, 0, 0, 1, 1, 1] 
 T2 => S56 [1, 0, 1, 0, 1, 1, 0, 1, 0, 0, 1, 0, 0, 1, 1, 1] 
 T10 => S63 [1, 1, 0, 1, 0, 1, 1, 0, 0, 0, 1, 1, 0, 1, 1, 1] 
 
 Reachable states from S56 [1, 0, 1, 0, 1, 1, 0, 1, 0, 0, 1, 0, 0, 1, 1, 1] 
 T1 => S54 [0, 1, 0, 0, 1, 1, 0, 1, 0, 0, 1, 0, 0, 1, 1, 1] 
 T10 => S57 [1, 0, 1, 0, 1, 1, 1, 0, 0, 0, 1, 1, 0, 1, 1, 1] 
 T11 => S122 [2, 0, 1, 1, 0, 1, 0, 1, 0, 0, 1, 0, 0, 1, 1, 1] 
 
 Reachable states from S57 [1, 0, 1, 0, 1, 1, 1, 0, 0, 0, 1, 1, 0, 1, 1, 1] 
 T1 => S51 [0, 1, 0, 0, 1, 1, 1, 0, 0, 0, 1, 1, 0, 1, 1, 1] 
 T7 => S58 [1, 0, 1, 0, 1, 1, 1, 0, 0, 0, 1, 0, 0, 0, 2, 0] 
 T9 => S67 [1, 0, 1, 0, 1, 1, 0, 1, 0, 1, 0, 1, 0, 1, 1, 1] 
 T11 => S119 [2, 0, 1, 1, 0, 1, 1, 0, 0, 0, 1, 1, 0, 1, 1, 1] 
 
 Reachable states from S58 [1, 0, 1, 0, 1, 1, 1, 0, 0, 0, 1, 0, 0, 0, 2, 0] 
 T1 => S52 [0, 1, 0, 0, 1, 1, 1, 0, 0, 0, 1, 0, 0, 0, 2, 0] 
 T9 => S59 [1, 0, 1, 0, 1, 1, 0, 1, 0, 1, 0, 0, 0, 0, 2, 0] 
 T11 => S120 [2, 0, 1, 1, 0, 1, 1, 0, 0, 0, 1, 0, 0, 0, 2, 0] 
 
 Reachable states from S59 [1, 0, 1, 0, 1, 1, 0, 1, 0, 1, 0, 0, 0, 0, 2, 0] 
 T1 => S53 [0, 1, 0, 0, 1, 1, 0, 1, 0, 1, 0, 0, 0, 0, 2, 0] 
 T8 => S56 [1, 0, 1, 0, 1, 1, 0, 1, 0, 0, 1, 0, 0, 1, 1, 1] 
 T10 => S60 [1, 0, 1, 0, 1, 1, 1, 0, 0, 1, 0, 1, 0, 0, 2, 0] 
 T11 => S121 [2, 0, 1, 1, 0, 1, 0, 1, 0, 1, 0, 0, 0, 0, 2, 0] 
 
 Reachable states from S60 [1, 0, 1, 0, 1, 1, 1, 0, 0, 1, 0, 1, 0, 0, 2, 0] 
 T1 => S50 [0, 1, 0, 0, 1, 1, 1, 0, 0, 1, 0, 1, 0, 0, 2, 0] 
 T8 => S57 [1, 0, 1, 0, 1, 1, 1, 0, 0, 0, 1, 1, 0, 1, 1, 1] 
 T11 => S61 [2, 0, 1, 1, 0, 1, 1, 0, 0, 1, 0, 1, 0, 0, 2, 0] 
 
 Reachable states from S61 [2, 0, 1, 1, 0, 1, 1, 0, 0, 1, 0, 1, 0, 0, 2, 0] 
 T1 => S62 [1, 1, 0, 1, 0, 1, 1, 0, 0, 1, 0, 1, 0, 0, 2, 0] 
 T8 => S119 [2, 0, 1, 1, 0, 1, 1, 0, 0, 0, 1, 1, 0, 1, 1, 1] 
 
 Reachable states from S62 [1, 1, 0, 1, 0, 1, 1, 0, 0, 1, 0, 1, 0, 0, 2, 0] 
 T3 => S34 [1, 0, 1, 1, 0, 2, 0, 0, 0, 1, 0, 1, 0, 0, 2, 0] 
 T2 => S60 [1, 0, 1, 0, 1, 1, 1, 0, 0, 1, 0, 1, 0, 0, 2, 0] 
 T8 => S63 [1, 1, 0, 1, 0, 1, 1, 0, 0, 0, 1, 1, 0, 1, 1, 1] 
 
 Reachable states from S63 [1, 1, 0, 1, 0, 1, 1, 0, 0, 0, 1, 1, 0, 1, 1, 1] 
 T3 => S32 [1, 0, 1, 1, 0, 2, 0, 0, 0, 0, 1, 1, 0, 1, 1, 1] 
 T2 => S57 [1, 0, 1, 0, 1, 1, 1, 0, 0, 0, 1, 1, 0, 1, 1, 1] 
 T7 => S64 [1, 1, 0, 1, 0, 1, 1, 0, 0, 0, 1, 0, 0, 0, 2, 0] 
 T9 => S66 [1, 1, 0, 1, 0, 1, 0, 1, 0, 1, 0, 1, 0, 1, 1, 1] 
 
 Reachable states from S64 [1, 1, 0, 1, 0, 1, 1, 0, 0, 0, 1, 0, 0, 0, 2, 0] 
 T3 => S30 [1, 0, 1, 1, 0, 2, 0, 0, 0, 0, 1, 0, 0, 0, 2, 0] 
 T2 => S58 [1, 0, 1, 0, 1, 1, 1, 0, 0, 0, 1, 0, 0, 0, 2, 0] 
 T9 => S65 [1, 1, 0, 1, 0, 1, 0, 1, 0, 1, 0, 0, 0, 0, 2, 0] 
 
 Reachable states from S65 [1, 1, 0, 1, 0, 1, 0, 1, 0, 1, 0, 0, 0, 0, 2, 0] 
 T8 => S55 [1, 1, 0, 1, 0, 1, 0, 1, 0, 0, 1, 0, 0, 1, 1, 1] 
 T2 => S59 [1, 0, 1, 0, 1, 1, 0, 1, 0, 1, 0, 0, 0, 0, 2, 0] 
 T10 => S62 [1, 1, 0, 1, 0, 1, 1, 0, 0, 1, 0, 1, 0, 0, 2, 0] 
 
 Reachable states from S66 [1, 1, 0, 1, 0, 1, 0, 1, 0, 1, 0, 1, 0, 1, 1, 1] 
 T7 => S65 [1, 1, 0, 1, 0, 1, 0, 1, 0, 1, 0, 0, 0, 0, 2, 0] 
 T2 => S67 [1, 0, 1, 0, 1, 1, 0, 1, 0, 1, 0, 1, 0, 1, 1, 1] 
 T10 => S115 [1, 1, 0, 1, 0, 1, 1, 0, 0, 1, 0, 2, 0, 1, 1, 1] 
 T4 => S125 [1, 1, 0, 1, 0, 0, 1, 1, 1, 0, 0, 1, 0, 1, 1, 0] 
 T8 => S164 [1, 1, 0, 1, 0, 1, 0, 1, 0, 0, 1, 1, 0, 2, 0, 2] 
 
 Reachable states from S67 [1, 0, 1, 0, 1, 1, 0, 1, 0, 1, 0, 1, 0, 1, 1, 1] 
 T10 => S48 [1, 0, 1, 0, 1, 1, 1, 0, 0, 1, 0, 2, 0, 1, 1, 1] 
 T7 => S59 [1, 0, 1, 0, 1, 1, 0, 1, 0, 1, 0, 0, 0, 0, 2, 0] 
 T1 => S68 [0, 1, 0, 0, 1, 1, 0, 1, 0, 1, 0, 1, 0, 1, 1, 1] 
 T4 => S73 [1, 0, 1, 0, 1, 0, 1, 1, 1, 0, 0, 1, 0, 1, 1, 0] 
 T8 => S82 [1, 0, 1, 0, 1, 1, 0, 1, 0, 0, 1, 1, 0, 2, 0, 2] 
 T11 => S123 [2, 0, 1, 1, 0, 1, 0, 1, 0, 1, 0, 1, 0, 1, 1, 1] 
 
 Reachable states from S68 [0, 1, 0, 0, 1, 1, 0, 1, 0, 1, 0, 1, 0, 1, 1, 1] 
 T10 => S49 [0, 1, 0, 0, 1, 1, 1, 0, 0, 1, 0, 2, 0, 1, 1, 1] 
 T7 => S53 [0, 1, 0, 0, 1, 1, 0, 1, 0, 1, 0, 0, 0, 0, 2, 0] 
 T11 => S66 [1, 1, 0, 1, 0, 1, 0, 1, 0, 1, 0, 1, 0, 1, 1, 1] 
 T4 => S69 [0, 1, 0, 0, 1, 0, 1, 1, 1, 0, 0, 1, 0, 1, 1, 0] 
 T8 => S83 [0, 1, 0, 0, 1, 1, 0, 1, 0, 0, 1, 1, 0, 2, 0, 2] 
 
 Reachable states from S69 [0, 1, 0, 0, 1, 0, 1, 1, 1, 0, 0, 1, 0, 1, 1, 0] 
 T10 => S17 [0, 1, 0, 0, 1, 0, 2, 0, 1, 0, 0, 2, 0, 1, 1, 0] 
 T3 => S70 [0, 0, 1, 0, 1, 1, 0, 1, 1, 0, 0, 1, 0, 1, 1, 0] 
 T5 => S75 [0, 1, 0, 0, 1, 0, 1, 1, 0, 1, 0, 1, 1, 0, 1, 1] 
 T11 => S125 [1, 1, 0, 1, 0, 0, 1, 1, 1, 0, 0, 1, 0, 1, 1, 0] 
 
 Reachable states from S70 [0, 0, 1, 0, 1, 1, 0, 1, 1, 0, 0, 1, 0, 1, 1, 0] 
 T10 => S18 [0, 0, 1, 0, 1, 1, 1, 0, 1, 0, 0, 2, 0, 1, 1, 0] 
 T5 => S71 [0, 0, 1, 0, 1, 1, 0, 1, 0, 1, 0, 1, 1, 0, 1, 1] 
 T11 => S126 [1, 0, 1, 1, 0, 1, 0, 1, 1, 0, 0, 1, 0, 1, 1, 0] 
 
 Reachable states from S71 [0, 0, 1, 0, 1, 1, 0, 1, 0, 1, 0, 1, 1, 0, 1, 1] 
 T10 => S14 [0, 0, 1, 0, 1, 1, 1, 0, 0, 1, 0, 2, 1, 0, 1, 1] 
 T6 => S67 [1, 0, 1, 0, 1, 1, 0, 1, 0, 1, 0, 1, 0, 1, 1, 1] 
 T4 => S72 [0, 0, 1, 0, 1, 0, 1, 1, 1, 0, 0, 1, 1, 0, 1, 0] 
 T8 => S132 [0, 0, 1, 0, 1, 1, 0, 1, 0, 0, 1, 1, 1, 1, 0, 2] 
 T11 => S137 [1, 0, 1, 1, 0, 1, 0, 1, 0, 1, 0, 1, 1, 0, 1, 1] 
 
 Reachable states from S72 [0, 0, 1, 0, 1, 0, 1, 1, 1, 0, 0, 1, 1, 0, 1, 0] 
 T10 => S15 [0, 0, 1, 0, 1, 0, 2, 0, 1, 0, 0, 2, 1, 0, 1, 0] 
 T6 => S73 [1, 0, 1, 0, 1, 0, 1, 1, 1, 0, 0, 1, 0, 1, 1, 0] 
 T11 => S138 [1, 0, 1, 1, 0, 0, 1, 1, 1, 0, 0, 1, 1, 0, 1, 0] 
 
 Reachable states from S73 [1, 0, 1, 0, 1, 0, 1, 1, 1, 0, 0, 1, 0, 1, 1, 0] 
 T10 => S16 [1, 0, 1, 0, 1, 0, 2, 0, 1, 0, 0, 2, 0, 1, 1, 0] 
 T1 => S69 [0, 1, 0, 0, 1, 0, 1, 1, 1, 0, 0, 1, 0, 1, 1, 0] 
 T5 => S74 [1, 0, 1, 0, 1, 0, 1, 1, 0, 1, 0, 1, 1, 0, 1, 1] 
 T11 => S124 [2, 0, 1, 1, 0, 0, 1, 1, 1, 0, 0, 1, 0, 1, 1, 0] 
 
 Reachable states from S74 [1, 0, 1, 0, 1, 0, 1, 1, 0, 1, 0, 1, 1, 0, 1, 1] 
 T10 => S45 [1, 0, 1, 0, 1, 0, 2, 0, 0, 1, 0, 2, 1, 0, 1, 1] 
 T1 => S75 [0, 1, 0, 0, 1, 0, 1, 1, 0, 1, 0, 1, 1, 0, 1, 1] 
 T6 => S168 [2, 0, 1, 0, 1, 0, 1, 1, 0, 1, 0, 1, 0, 1, 1, 1] 
 T8 => S198 [1, 0, 1, 0, 1, 0, 1, 1, 0, 0, 1, 1, 1, 1, 0, 2] 
 T11 => S213 [2, 0, 1, 1, 0, 0, 1, 1, 0, 1, 0, 1, 1, 0, 1, 1] 
 
 Reachable states from S75 [0, 1, 0, 0, 1, 0, 1, 1, 0, 1, 0, 1, 1, 0, 1, 1] 
 T10 => S13 [0, 1, 0, 0, 1, 0, 2, 0, 0, 1, 0, 2, 1, 0, 1, 1] 
 T3 => S71 [0, 0, 1, 0, 1, 1, 0, 1, 0, 1, 0, 1, 1, 0, 1, 1] 
 T6 => S76 [1, 1, 0, 0, 1, 0, 1, 1, 0, 1, 0, 1, 0, 1, 1, 1] 
 T11 => S196 [1, 1, 0, 1, 0, 0, 1, 1, 0, 1, 0, 1, 1, 0, 1, 1] 
 T8 => S199 [0, 1, 0, 0, 1, 0, 1, 1, 0, 0, 1, 1, 1, 1, 0, 2] 
 
 Reachable states from S76 [1, 1, 0, 0, 1, 0, 1, 1, 0, 1, 0, 1, 0, 1, 1, 1] 
 T10 => S47 [1, 1, 0, 0, 1, 0, 2, 0, 0, 1, 0, 2, 0, 1, 1, 1] 
 T3 => S67 [1, 0, 1, 0, 1, 1, 0, 1, 0, 1, 0, 1, 0, 1, 1, 1] 
 T7 => S77 [1, 1, 0, 0, 1, 0, 1, 1, 0, 1, 0, 0, 0, 0, 2, 0] 
 T8 => S81 [1, 1, 0, 0, 1, 0, 1, 1, 0, 0, 1, 1, 0, 2, 0, 2] 
 T11 => S170 [2, 1, 0, 1, 0, 0, 1, 1, 0, 1, 0, 1, 0, 1, 1, 1] 
 
 Reachable states from S77 [1, 1, 0, 0, 1, 0, 1, 1, 0, 1, 0, 0, 0, 0, 2, 0] 
 T3 => S59 [1, 0, 1, 0, 1, 1, 0, 1, 0, 1, 0, 0, 0, 0, 2, 0] 
 T8 => S78 [1, 1, 0, 0, 1, 0, 1, 1, 0, 0, 1, 0, 0, 1, 1, 1] 
 T10 => S147 [1, 1, 0, 0, 1, 0, 2, 0, 0, 1, 0, 1, 0, 0, 2, 0] 
 T11 => S171 [2, 1, 0, 1, 0, 0, 1, 1, 0, 1, 0, 0, 0, 0, 2, 0] 
 
 Reachable states from S78 [1, 1, 0, 0, 1, 0, 1, 1, 0, 0, 1, 0, 0, 1, 1, 1] 
 T3 => S56 [1, 0, 1, 0, 1, 1, 0, 1, 0, 0, 1, 0, 0, 1, 1, 1] 
 T9 => S79 [1, 1, 0, 0, 1, 0, 0, 2, 0, 1, 0, 0, 0, 1, 1, 1] 
 T10 => S148 [1, 1, 0, 0, 1, 0, 2, 0, 0, 0, 1, 1, 0, 1, 1, 1] 
 T11 => S165 [2, 1, 0, 1, 0, 0, 1, 1, 0, 0, 1, 0, 0, 1, 1, 1] 
 
 Reachable states from S79 [1, 1, 0, 0, 1, 0, 0, 2, 0, 1, 0, 0, 0, 1, 1, 1] 
 T10 => S76 [1, 1, 0, 0, 1, 0, 1, 1, 0, 1, 0, 1, 0, 1, 1, 1] 
 T8 => S80 [1, 1, 0, 0, 1, 0, 0, 2, 0, 0, 1, 0, 0, 2, 0, 2] 
 T11 => S160 [2, 1, 0, 1, 0, 0, 0, 2, 0, 1, 0, 0, 0, 1, 1, 1] 
 
 Reachable states from S80 [1, 1, 0, 0, 1, 0, 0, 2, 0, 0, 1, 0, 0, 2, 0, 2] 
 T10 => S81 [1, 1, 0, 0, 1, 0, 1, 1, 0, 0, 1, 1, 0, 2, 0, 2] 
 T11 => S161 [2, 1, 0, 1, 0, 0, 0, 2, 0, 0, 1, 0, 0, 2, 0, 2] 
 
 Reachable states from S81 [1, 1, 0, 0, 1, 0, 1, 1, 0, 0, 1, 1, 0, 2, 0, 2] 
 T7 => S78 [1, 1, 0, 0, 1, 0, 1, 1, 0, 0, 1, 0, 0, 1, 1, 1] 
 T3 => S82 [1, 0, 1, 0, 1, 1, 0, 1, 0, 0, 1, 1, 0, 2, 0, 2] 
 T9 => S158 [1, 1, 0, 0, 1, 0, 0, 2, 0, 1, 0, 1, 0, 2, 0, 2] 
 T11 => S162 [2, 1, 0, 1, 0, 0, 1, 1, 0, 0, 1, 1, 0, 2, 0, 2] 
 T10 => S235 [1, 1, 0, 0, 1, 0, 2, 0, 0, 0, 1, 2, 0, 2, 0, 2] 
 
 Reachable states from S82 [1, 0, 1, 0, 1, 1, 0, 1, 0, 0, 1, 1, 0, 2, 0, 2] 
 T7 => S56 [1, 0, 1, 0, 1, 1, 0, 1, 0, 0, 1, 0, 0, 1, 1, 1] 
 T1 => S83 [0, 1, 0, 0, 1, 1, 0, 1, 0, 0, 1, 1, 0, 2, 0, 2] 
 T10 => S117 [1, 0, 1, 0, 1, 1, 1, 0, 0, 0, 1, 2, 0, 2, 0, 2] 
 T11 => S163 [2, 0, 1, 1, 0, 1, 0, 1, 0, 0, 1, 1, 0, 2, 0, 2] 
 
 Reachable states from S83 [0, 1, 0, 0, 1, 1, 0, 1, 0, 0, 1, 1, 0, 2, 0, 2] 
 T7 => S54 [0, 1, 0, 0, 1, 1, 0, 1, 0, 0, 1, 0, 0, 1, 1, 1] 
 T10 => S84 [0, 1, 0, 0, 1, 1, 1, 0, 0, 0, 1, 2, 0, 2, 0, 2] 
 T11 => S164 [1, 1, 0, 1, 0, 1, 0, 1, 0, 0, 1, 1, 0, 2, 0, 2] 
 
 Reachable states from S84 [0, 1, 0, 0, 1, 1, 1, 0, 0, 0, 1, 2, 0, 2, 0, 2] 
 T3 => S36 [0, 0, 1, 0, 1, 2, 0, 0, 0, 0, 1, 2, 0, 2, 0, 2] 
 T7 => S51 [0, 1, 0, 0, 1, 1, 1, 0, 0, 0, 1, 1, 0, 1, 1, 1] 
 T9 => S85 [0, 1, 0, 0, 1, 1, 0, 1, 0, 1, 0, 2, 0, 2, 0, 2] 
 T11 => S116 [1, 1, 0, 1, 0, 1, 1, 0, 0, 0, 1, 2, 0, 2, 0, 2] 
 
 Reachable states from S85 [0, 1, 0, 0, 1, 1, 0, 1, 0, 1, 0, 2, 0, 2, 0, 2] 
 T10 => S5 [0, 1, 0, 0, 1, 1, 1, 0, 0, 1, 0, 3, 0, 2, 0, 2] 
 T7 => S68 [0, 1, 0, 0, 1, 1, 0, 1, 0, 1, 0, 1, 0, 1, 1, 1] 
 T4 => S86 [0, 1, 0, 0, 1, 0, 1, 1, 1, 0, 0, 2, 0, 2, 0, 1] 
 T11 => S182 [1, 1, 0, 1, 0, 1, 0, 1, 0, 1, 0, 2, 0, 2, 0, 2] 
 
 Reachable states from S86 [0, 1, 0, 0, 1, 0, 1, 1, 1, 0, 0, 2, 0, 2, 0, 1] 
 T7 => S69 [0, 1, 0, 0, 1, 0, 1, 1, 1, 0, 0, 1, 0, 1, 1, 0] 
 T3 => S87 [0, 0, 1, 0, 1, 1, 0, 1, 1, 0, 0, 2, 0, 2, 0, 1] 
 T5 => S92 [0, 1, 0, 0, 1, 0, 1, 1, 0, 1, 0, 2, 1, 1, 0, 2] 
 T10 => S97 [0, 1, 0, 0, 1, 0, 2, 0, 1, 0, 0, 3, 0, 2, 0, 1] 
 T11 => S183 [1, 1, 0, 1, 0, 0, 1, 1, 1, 0, 0, 2, 0, 2, 0, 1] 
 
 Reachable states from S87 [0, 0, 1, 0, 1, 1, 0, 1, 1, 0, 0, 2, 0, 2, 0, 1] 
 T10 => S7 [0, 0, 1, 0, 1, 1, 1, 0, 1, 0, 0, 3, 0, 2, 0, 1] 
 T7 => S70 [0, 0, 1, 0, 1, 1, 0, 1, 1, 0, 0, 1, 0, 1, 1, 0] 
 T5 => S88 [0, 0, 1, 0, 1, 1, 0, 1, 0, 1, 0, 2, 1, 1, 0, 2] 
 T11 => S184 [1, 0, 1, 1, 0, 1, 0, 1, 1, 0, 0, 2, 0, 2, 0, 1] 
 
 Reachable states from S88 [0, 0, 1, 0, 1, 1, 0, 1, 0, 1, 0, 2, 1, 1, 0, 2] 
 T10 => S8 [0, 0, 1, 0, 1, 1, 1, 0, 0, 1, 0, 3, 1, 1, 0, 2] 
 T7 => S71 [0, 0, 1, 0, 1, 1, 0, 1, 0, 1, 0, 1, 1, 0, 1, 1] 
 T4 => S89 [0, 0, 1, 0, 1, 0, 1, 1, 1, 0, 0, 2, 1, 1, 0, 1] 
 T6 => S94 [1, 0, 1, 0, 1, 1, 0, 1, 0, 1, 0, 2, 0, 2, 0, 2] 
 T11 => S195 [1, 0, 1, 1, 0, 1, 0, 1, 0, 1, 0, 2, 1, 1, 0, 2] 
 
 Reachable states from S89 [0, 0, 1, 0, 1, 0, 1, 1, 1, 0, 0, 2, 1, 1, 0, 1] 
 T10 => S9 [0, 0, 1, 0, 1, 0, 2, 0, 1, 0, 0, 3, 1, 1, 0, 1] 
 T7 => S72 [0, 0, 1, 0, 1, 0, 1, 1, 1, 0, 0, 1, 1, 0, 1, 0] 
 T5 => S90 [0, 0, 1, 0, 1, 0, 1, 1, 0, 1, 0, 2, 2, 0, 0, 2] 
 T6 => S95 [1, 0, 1, 0, 1, 0, 1, 1, 1, 0, 0, 2, 0, 2, 0, 1] 
 T11 => S191 [1, 0, 1, 1, 0, 0, 1, 1, 1, 0, 0, 2, 1, 1, 0, 1] 
 
 Reachable states from S90 [0, 0, 1, 0, 1, 0, 1, 1, 0, 1, 0, 2, 2, 0, 0, 2] 
 T10 => S10 [0, 0, 1, 0, 1, 0, 2, 0, 0, 1, 0, 3, 2, 0, 0, 2] 
 T6 => S91 [1, 0, 1, 0, 1, 0, 1, 1, 0, 1, 0, 2, 1, 1, 0, 2] 
 T11 => S192 [1, 0, 1, 1, 0, 0, 1, 1, 0, 1, 0, 2, 2, 0, 0, 2] 
 
 Reachable states from S91 [1, 0, 1, 0, 1, 0, 1, 1, 0, 1, 0, 2, 1, 1, 0, 2] 
 T10 => S11 [1, 0, 1, 0, 1, 0, 2, 0, 0, 1, 0, 3, 1, 1, 0, 2] 
 T7 => S74 [1, 0, 1, 0, 1, 0, 1, 1, 0, 1, 0, 1, 1, 0, 1, 1] 
 T1 => S92 [0, 1, 0, 0, 1, 0, 1, 1, 0, 1, 0, 2, 1, 1, 0, 2] 
 T6 => S180 [2, 0, 1, 0, 1, 0, 1, 1, 0, 1, 0, 2, 0, 2, 0, 2] 
 T11 => S226 [2, 0, 1, 1, 0, 0, 1, 1, 0, 1, 0, 2, 1, 1, 0, 2] 
 
 Reachable states from S92 [0, 1, 0, 0, 1, 0, 1, 1, 0, 1, 0, 2, 1, 1, 0, 2] 
 T10 => S12 [0, 1, 0, 0, 1, 0, 2, 0, 0, 1, 0, 3, 1, 1, 0, 2] 
 T7 => S75 [0, 1, 0, 0, 1, 0, 1, 1, 0, 1, 0, 1, 1, 0, 1, 1] 
 T3 => S88 [0, 0, 1, 0, 1, 1, 0, 1, 0, 1, 0, 2, 1, 1, 0, 2] 
 T6 => S93 [1, 1, 0, 0, 1, 0, 1, 1, 0, 1, 0, 2, 0, 2, 0, 2] 
 T11 => S194 [1, 1, 0, 1, 0, 0, 1, 1, 0, 1, 0, 2, 1, 1, 0, 2] 
 
 Reachable states from S93 [1, 1, 0, 0, 1, 0, 1, 1, 0, 1, 0, 2, 0, 2, 0, 2] 
 T10 => S3 [1, 1, 0, 0, 1, 0, 2, 0, 0, 1, 0, 3, 0, 2, 0, 2] 
 T7 => S76 [1, 1, 0, 0, 1, 0, 1, 1, 0, 1, 0, 1, 0, 1, 1, 1] 
 T3 => S94 [1, 0, 1, 0, 1, 1, 0, 1, 0, 1, 0, 2, 0, 2, 0, 2] 
 T11 => S179 [2, 1, 0, 1, 0, 0, 1, 1, 0, 1, 0, 2, 0, 2, 0, 2] 
 
 Reachable states from S94 [1, 0, 1, 0, 1, 1, 0, 1, 0, 1, 0, 2, 0, 2, 0, 2] 
 T10 => S4 [1, 0, 1, 0, 1, 1, 1, 0, 0, 1, 0, 3, 0, 2, 0, 2] 
 T7 => S67 [1, 0, 1, 0, 1, 1, 0, 1, 0, 1, 0, 1, 0, 1, 1, 1] 
 T1 => S85 [0, 1, 0, 0, 1, 1, 0, 1, 0, 1, 0, 2, 0, 2, 0, 2] 
 T4 => S95 [1, 0, 1, 0, 1, 0, 1, 1, 1, 0, 0, 2, 0, 2, 0, 1] 
 T11 => S181 [2, 0, 1, 1, 0, 1, 0, 1, 0, 1, 0, 2, 0, 2, 0, 2] 
 
 Reachable states from S95 [1, 0, 1, 0, 1, 0, 1, 1, 1, 0, 0, 2, 0, 2, 0, 1] 
 T7 => S73 [1, 0, 1, 0, 1, 0, 1, 1, 1, 0, 0, 1, 0, 1, 1, 0] 
 T1 => S86 [0, 1, 0, 0, 1, 0, 1, 1, 1, 0, 0, 2, 0, 2, 0, 1] 
 T5 => S91 [1, 0, 1, 0, 1, 0, 1, 1, 0, 1, 0, 2, 1, 1, 0, 2] 
 T10 => S96 [1, 0, 1, 0, 1, 0, 2, 0, 1, 0, 0, 3, 0, 2, 0, 1] 
 T11 => S241 [2, 0, 1, 1, 0, 0, 1, 1, 1, 0, 0, 2, 0, 2, 0, 1] 
 
 Reachable states from S96 [1, 0, 1, 0, 1, 0, 2, 0, 1, 0, 0, 3, 0, 2, 0, 1] 
 T5 => S11 [1, 0, 1, 0, 1, 0, 2, 0, 0, 1, 0, 3, 1, 1, 0, 2] 
 T7 => S16 [1, 0, 1, 0, 1, 0, 2, 0, 1, 0, 0, 2, 0, 1, 1, 0] 
 T1 => S97 [0, 1, 0, 0, 1, 0, 2, 0, 1, 0, 0, 3, 0, 2, 0, 1] 
 T11 => S242 [2, 0, 1, 1, 0, 0, 2, 0, 1, 0, 0, 3, 0, 2, 0, 1] 
 
 Reachable states from S97 [0, 1, 0, 0, 1, 0, 2, 0, 1, 0, 0, 3, 0, 2, 0, 1] 
 T3 => S7 [0, 0, 1, 0, 1, 1, 1, 0, 1, 0, 0, 3, 0, 2, 0, 1] 
 T5 => S12 [0, 1, 0, 0, 1, 0, 2, 0, 0, 1, 0, 3, 1, 1, 0, 2] 
 T7 => S17 [0, 1, 0, 0, 1, 0, 2, 0, 1, 0, 0, 2, 0, 1, 1, 0] 
 T11 => S98 [1, 1, 0, 1, 0, 0, 2, 0, 1, 0, 0, 3, 0, 2, 0, 1] 
 
 Reachable states from S98 [1, 1, 0, 1, 0, 0, 2, 0, 1, 0, 0, 3, 0, 2, 0, 1] 
 T7 => S43 [1, 1, 0, 1, 0, 0, 2, 0, 1, 0, 0, 2, 0, 1, 1, 0] 
 T2 => S96 [1, 0, 1, 0, 1, 0, 2, 0, 1, 0, 0, 3, 0, 2, 0, 1] 
 T3 => S99 [1, 0, 1, 1, 0, 1, 1, 0, 1, 0, 0, 3, 0, 2, 0, 1] 
 T5 => S109 [1, 1, 0, 1, 0, 0, 2, 0, 0, 1, 0, 3, 1, 1, 0, 2] 
 
 Reachable states from S99 [1, 0, 1, 1, 0, 1, 1, 0, 1, 0, 0, 3, 0, 2, 0, 1] 
 T7 => S19 [1, 0, 1, 1, 0, 1, 1, 0, 1, 0, 0, 2, 0, 1, 1, 0] 
 T1 => S100 [0, 1, 0, 1, 0, 1, 1, 0, 1, 0, 0, 3, 0, 2, 0, 1] 
 T5 => S110 [1, 0, 1, 1, 0, 1, 1, 0, 0, 1, 0, 3, 1, 1, 0, 2] 
 
 Reachable states from S100 [0, 1, 0, 1, 0, 1, 1, 0, 1, 0, 0, 3, 0, 2, 0, 1] 
 T2 => S7 [0, 0, 1, 0, 1, 1, 1, 0, 1, 0, 0, 3, 0, 2, 0, 1] 
 T7 => S20 [0, 1, 0, 1, 0, 1, 1, 0, 1, 0, 0, 2, 0, 1, 1, 0] 
 T3 => S101 [0, 0, 1, 1, 0, 2, 0, 0, 1, 0, 0, 3, 0, 2, 0, 1] 
 T5 => S111 [0, 1, 0, 1, 0, 1, 1, 0, 0, 1, 0, 3, 1, 1, 0, 2] 
 
 Reachable states from S101 [0, 0, 1, 1, 0, 2, 0, 0, 1, 0, 0, 3, 0, 2, 0, 1] 
 T7 => S21 [0, 0, 1, 1, 0, 2, 0, 0, 1, 0, 0, 2, 0, 1, 1, 0] 
 T5 => S102 [0, 0, 1, 1, 0, 2, 0, 0, 0, 1, 0, 3, 1, 1, 0, 2] 
 
 Reachable states from S102 [0, 0, 1, 1, 0, 2, 0, 0, 0, 1, 0, 3, 1, 1, 0, 2] 
 T7 => S22 [0, 0, 1, 1, 0, 2, 0, 0, 0, 1, 0, 2, 1, 0, 1, 1] 
 T4 => S103 [0, 0, 1, 1, 0, 1, 1, 0, 1, 0, 0, 3, 1, 1, 0, 1] 
 T6 => S113 [1, 0, 1, 1, 0, 2, 0, 0, 0, 1, 0, 3, 0, 2, 0, 2] 
 
 Reachable states from S103 [0, 0, 1, 1, 0, 1, 1, 0, 1, 0, 0, 3, 1, 1, 0, 1] 
 T7 => S23 [0, 0, 1, 1, 0, 1, 1, 0, 1, 0, 0, 2, 1, 0, 1, 0] 
 T6 => S99 [1, 0, 1, 1, 0, 1, 1, 0, 1, 0, 0, 3, 0, 2, 0, 1] 
 T5 => S104 [0, 0, 1, 1, 0, 1, 1, 0, 0, 1, 0, 3, 2, 0, 0, 2] 
 
 Reachable states from S104 [0, 0, 1, 1, 0, 1, 1, 0, 0, 1, 0, 3, 2, 0, 0, 2] 
 T4 => S105 [0, 0, 1, 1, 0, 0, 2, 0, 1, 0, 0, 3, 2, 0, 0, 1] 
 T6 => S110 [1, 0, 1, 1, 0, 1, 1, 0, 0, 1, 0, 3, 1, 1, 0, 2] 
 
 Reachable states from S105 [0, 0, 1, 1, 0, 0, 2, 0, 1, 0, 0, 3, 2, 0, 0, 1] 
 T6 => S106 [1, 0, 1, 1, 0, 0, 2, 0, 1, 0, 0, 3, 1, 1, 0, 1] 
 
 Reachable states from S106 [1, 0, 1, 1, 0, 0, 2, 0, 1, 0, 0, 3, 1, 1, 0, 1] 
 T1 => S107 [0, 1, 0, 1, 0, 0, 2, 0, 1, 0, 0, 3, 1, 1, 0, 1] 
 T7 => S139 [1, 0, 1, 1, 0, 0, 2, 0, 1, 0, 0, 2, 1, 0, 1, 0] 
 T5 => S240 [1, 0, 1, 1, 0, 0, 2, 0, 0, 1, 0, 3, 2, 0, 0, 2] 
 T6 => S242 [2, 0, 1, 1, 0, 0, 2, 0, 1, 0, 0, 3, 0, 2, 0, 1] 
 
 Reachable states from S107 [0, 1, 0, 1, 0, 0, 2, 0, 1, 0, 0, 3, 1, 1, 0, 1] 
 T2 => S9 [0, 0, 1, 0, 1, 0, 2, 0, 1, 0, 0, 3, 1, 1, 0, 1] 
 T7 => S42 [0, 1, 0, 1, 0, 0, 2, 0, 1, 0, 0, 2, 1, 0, 1, 0] 
 T6 => S98 [1, 1, 0, 1, 0, 0, 2, 0, 1, 0, 0, 3, 0, 2, 0, 1] 
 T3 => S103 [0, 0, 1, 1, 0, 1, 1, 0, 1, 0, 0, 3, 1, 1, 0, 1] 
 T5 => S108 [0, 1, 0, 1, 0, 0, 2, 0, 0, 1, 0, 3, 2, 0, 0, 2] 
 
 Reachable states from S108 [0, 1, 0, 1, 0, 0, 2, 0, 0, 1, 0, 3, 2, 0, 0, 2] 
 T2 => S10 [0, 0, 1, 0, 1, 0, 2, 0, 0, 1, 0, 3, 2, 0, 0, 2] 
 T3 => S104 [0, 0, 1, 1, 0, 1, 1, 0, 0, 1, 0, 3, 2, 0, 0, 2] 
 T6 => S109 [1, 1, 0, 1, 0, 0, 2, 0, 0, 1, 0, 3, 1, 1, 0, 2] 
 
 Reachable states from S109 [1, 1, 0, 1, 0, 0, 2, 0, 0, 1, 0, 3, 1, 1, 0, 2] 
 T6 => S1 [2, 1, 0, 1, 0, 0, 2, 0, 0, 1, 0, 3, 0, 2, 0, 2] 
 T2 => S11 [1, 0, 1, 0, 1, 0, 2, 0, 0, 1, 0, 3, 1, 1, 0, 2] 
 T7 => S44 [1, 1, 0, 1, 0, 0, 2, 0, 0, 1, 0, 2, 1, 0, 1, 1] 
 T3 => S110 [1, 0, 1, 1, 0, 1, 1, 0, 0, 1, 0, 3, 1, 1, 0, 2] 
 
 Reachable states from S110 [1, 0, 1, 1, 0, 1, 1, 0, 0, 1, 0, 3, 1, 1, 0, 2] 
 T4 => S106 [1, 0, 1, 1, 0, 0, 2, 0, 1, 0, 0, 3, 1, 1, 0, 1] 
 T1 => S111 [0, 1, 0, 1, 0, 1, 1, 0, 0, 1, 0, 3, 1, 1, 0, 2] 
 T6 => S243 [2, 0, 1, 1, 0, 1, 1, 0, 0, 1, 0, 3, 0, 2, 0, 2] 
 T7 => S245 [1, 0, 1, 1, 0, 1, 1, 0, 0, 1, 0, 2, 1, 0, 1, 1] 
 
 Reachable states from S111 [0, 1, 0, 1, 0, 1, 1, 0, 0, 1, 0, 3, 1, 1, 0, 2] 
 T2 => S8 [0, 0, 1, 0, 1, 1, 1, 0, 0, 1, 0, 3, 1, 1, 0, 2] 
 T7 => S41 [0, 1, 0, 1, 0, 1, 1, 0, 0, 1, 0, 2, 1, 0, 1, 1] 
 T3 => S102 [0, 0, 1, 1, 0, 2, 0, 0, 0, 1, 0, 3, 1, 1, 0, 2] 
 T4 => S107 [0, 1, 0, 1, 0, 0, 2, 0, 1, 0, 0, 3, 1, 1, 0, 1] 
 T6 => S112 [1, 1, 0, 1, 0, 1, 1, 0, 0, 1, 0, 3, 0, 2, 0, 2] 
 
 Reachable states from S112 [1, 1, 0, 1, 0, 1, 1, 0, 0, 1, 0, 3, 0, 2, 0, 2] 
 T2 => S4 [1, 0, 1, 0, 1, 1, 1, 0, 0, 1, 0, 3, 0, 2, 0, 2] 
 T4 => S98 [1, 1, 0, 1, 0, 0, 2, 0, 1, 0, 0, 3, 0, 2, 0, 1] 
 T3 => S113 [1, 0, 1, 1, 0, 2, 0, 0, 0, 1, 0, 3, 0, 2, 0, 2] 
 T7 => S115 [1, 1, 0, 1, 0, 1, 1, 0, 0, 1, 0, 2, 0, 1, 1, 1] 
 
 Reachable states from S113 [1, 0, 1, 1, 0, 2, 0, 0, 0, 1, 0, 3, 0, 2, 0, 2] 
 T7 => S24 [1, 0, 1, 1, 0, 2, 0, 0, 0, 1, 0, 2, 0, 1, 1, 1] 
 T4 => S99 [1, 0, 1, 1, 0, 1, 1, 0, 1, 0, 0, 3, 0, 2, 0, 1] 
 T1 => S114 [0, 1, 0, 1, 0, 2, 0, 0, 0, 1, 0, 3, 0, 2, 0, 2] 
 
 Reachable states from S114 [0, 1, 0, 1, 0, 2, 0, 0, 0, 1, 0, 3, 0, 2, 0, 2] 
 T2 => S6 [0, 0, 1, 0, 1, 2, 0, 0, 0, 1, 0, 3, 0, 2, 0, 2] 
 T7 => S25 [0, 1, 0, 1, 0, 2, 0, 0, 0, 1, 0, 2, 0, 1, 1, 1] 
 T4 => S100 [0, 1, 0, 1, 0, 1, 1, 0, 1, 0, 0, 3, 0, 2, 0, 1] 
 
 Reachable states from S115 [1, 1, 0, 1, 0, 1, 1, 0, 0, 1, 0, 2, 0, 1, 1, 1] 
 T3 => S24 [1, 0, 1, 1, 0, 2, 0, 0, 0, 1, 0, 2, 0, 1, 1, 1] 
 T4 => S43 [1, 1, 0, 1, 0, 0, 2, 0, 1, 0, 0, 2, 0, 1, 1, 0] 
 T2 => S48 [1, 0, 1, 0, 1, 1, 1, 0, 0, 1, 0, 2, 0, 1, 1, 1] 
 T7 => S62 [1, 1, 0, 1, 0, 1, 1, 0, 0, 1, 0, 1, 0, 0, 2, 0] 
 T8 => S116 [1, 1, 0, 1, 0, 1, 1, 0, 0, 0, 1, 2, 0, 2, 0, 2] 
 
 Reachable states from S116 [1, 1, 0, 1, 0, 1, 1, 0, 0, 0, 1, 2, 0, 2, 0, 2] 
 T3 => S37 [1, 0, 1, 1, 0, 2, 0, 0, 0, 0, 1, 2, 0, 2, 0, 2] 
 T7 => S63 [1, 1, 0, 1, 0, 1, 1, 0, 0, 0, 1, 1, 0, 1, 1, 1] 
 T2 => S117 [1, 0, 1, 0, 1, 1, 1, 0, 0, 0, 1, 2, 0, 2, 0, 2] 
 T9 => S182 [1, 1, 0, 1, 0, 1, 0, 1, 0, 1, 0, 2, 0, 2, 0, 2] 
 
 Reachable states from S117 [1, 0, 1, 0, 1, 1, 1, 0, 0, 0, 1, 2, 0, 2, 0, 2] 
 T7 => S57 [1, 0, 1, 0, 1, 1, 1, 0, 0, 0, 1, 1, 0, 1, 1, 1] 
 T1 => S84 [0, 1, 0, 0, 1, 1, 1, 0, 0, 0, 1, 2, 0, 2, 0, 2] 
 T9 => S94 [1, 0, 1, 0, 1, 1, 0, 1, 0, 1, 0, 2, 0, 2, 0, 2] 
 T11 => S118 [2, 0, 1, 1, 0, 1, 1, 0, 0, 0, 1, 2, 0, 2, 0, 2] 
 
 Reachable states from S118 [2, 0, 1, 1, 0, 1, 1, 0, 0, 0, 1, 2, 0, 2, 0, 2] 
 T1 => S116 [1, 1, 0, 1, 0, 1, 1, 0, 0, 0, 1, 2, 0, 2, 0, 2] 
 T7 => S119 [2, 0, 1, 1, 0, 1, 1, 0, 0, 0, 1, 1, 0, 1, 1, 1] 
 T9 => S181 [2, 0, 1, 1, 0, 1, 0, 1, 0, 1, 0, 2, 0, 2, 0, 2] 
 
 Reachable states from S119 [2, 0, 1, 1, 0, 1, 1, 0, 0, 0, 1, 1, 0, 1, 1, 1] 
 T1 => S63 [1, 1, 0, 1, 0, 1, 1, 0, 0, 0, 1, 1, 0, 1, 1, 1] 
 T7 => S120 [2, 0, 1, 1, 0, 1, 1, 0, 0, 0, 1, 0, 0, 0, 2, 0] 
 T9 => S123 [2, 0, 1, 1, 0, 1, 0, 1, 0, 1, 0, 1, 0, 1, 1, 1] 
 
 Reachable states from S120 [2, 0, 1, 1, 0, 1, 1, 0, 0, 0, 1, 0, 0, 0, 2, 0] 
 T1 => S64 [1, 1, 0, 1, 0, 1, 1, 0, 0, 0, 1, 0, 0, 0, 2, 0] 
 T9 => S121 [2, 0, 1, 1, 0, 1, 0, 1, 0, 1, 0, 0, 0, 0, 2, 0] 
 
 Reachable states from S121 [2, 0, 1, 1, 0, 1, 0, 1, 0, 1, 0, 0, 0, 0, 2, 0] 
 T10 => S61 [2, 0, 1, 1, 0, 1, 1, 0, 0, 1, 0, 1, 0, 0, 2, 0] 
 T1 => S65 [1, 1, 0, 1, 0, 1, 0, 1, 0, 1, 0, 0, 0, 0, 2, 0] 
 T8 => S122 [2, 0, 1, 1, 0, 1, 0, 1, 0, 0, 1, 0, 0, 1, 1, 1] 
 
 Reachable states from S122 [2, 0, 1, 1, 0, 1, 0, 1, 0, 0, 1, 0, 0, 1, 1, 1] 
 T1 => S55 [1, 1, 0, 1, 0, 1, 0, 1, 0, 0, 1, 0, 0, 1, 1, 1] 
 T10 => S119 [2, 0, 1, 1, 0, 1, 1, 0, 0, 0, 1, 1, 0, 1, 1, 1] 
 
 Reachable states from S123 [2, 0, 1, 1, 0, 1, 0, 1, 0, 1, 0, 1, 0, 1, 1, 1] 
 T1 => S66 [1, 1, 0, 1, 0, 1, 0, 1, 0, 1, 0, 1, 0, 1, 1, 1] 
 T7 => S121 [2, 0, 1, 1, 0, 1, 0, 1, 0, 1, 0, 0, 0, 0, 2, 0] 
 T4 => S124 [2, 0, 1, 1, 0, 0, 1, 1, 1, 0, 0, 1, 0, 1, 1, 0] 
 T10 => S144 [2, 0, 1, 1, 0, 1, 1, 0, 0, 1, 0, 2, 0, 1, 1, 1] 
 T8 => S163 [2, 0, 1, 1, 0, 1, 0, 1, 0, 0, 1, 1, 0, 2, 0, 2] 
 
 Reachable states from S124 [2, 0, 1, 1, 0, 0, 1, 1, 1, 0, 0, 1, 0, 1, 1, 0] 
 T1 => S125 [1, 1, 0, 1, 0, 0, 1, 1, 1, 0, 0, 1, 0, 1, 1, 0] 
 T10 => S140 [2, 0, 1, 1, 0, 0, 2, 0, 1, 0, 0, 2, 0, 1, 1, 0] 
 T5 => S213 [2, 0, 1, 1, 0, 0, 1, 1, 0, 1, 0, 1, 1, 0, 1, 1] 
 
 Reachable states from S125 [1, 1, 0, 1, 0, 0, 1, 1, 1, 0, 0, 1, 0, 1, 1, 0] 
 T10 => S43 [1, 1, 0, 1, 0, 0, 2, 0, 1, 0, 0, 2, 0, 1, 1, 0] 
 T2 => S73 [1, 0, 1, 0, 1, 0, 1, 1, 1, 0, 0, 1, 0, 1, 1, 0] 
 T3 => S126 [1, 0, 1, 1, 0, 1, 0, 1, 1, 0, 0, 1, 0, 1, 1, 0] 
 T5 => S196 [1, 1, 0, 1, 0, 0, 1, 1, 0, 1, 0, 1, 1, 0, 1, 1] 
 
 Reachable states from S126 [1, 0, 1, 1, 0, 1, 0, 1, 1, 0, 0, 1, 0, 1, 1, 0] 
 T10 => S19 [1, 0, 1, 1, 0, 1, 1, 0, 1, 0, 0, 2, 0, 1, 1, 0] 
 T1 => S127 [0, 1, 0, 1, 0, 1, 0, 1, 1, 0, 0, 1, 0, 1, 1, 0] 
 T5 => S137 [1, 0, 1, 1, 0, 1, 0, 1, 0, 1, 0, 1, 1, 0, 1, 1] 
 
 Reachable states from S127 [0, 1, 0, 1, 0, 1, 0, 1, 1, 0, 0, 1, 0, 1, 1, 0] 
 T10 => S20 [0, 1, 0, 1, 0, 1, 1, 0, 1, 0, 0, 2, 0, 1, 1, 0] 
 T2 => S70 [0, 0, 1, 0, 1, 1, 0, 1, 1, 0, 0, 1, 0, 1, 1, 0] 
 T5 => S128 [0, 1, 0, 1, 0, 1, 0, 1, 0, 1, 0, 1, 1, 0, 1, 1] 
 
 Reachable states from S128 [0, 1, 0, 1, 0, 1, 0, 1, 0, 1, 0, 1, 1, 0, 1, 1] 
 T10 => S41 [0, 1, 0, 1, 0, 1, 1, 0, 0, 1, 0, 2, 1, 0, 1, 1] 
 T6 => S66 [1, 1, 0, 1, 0, 1, 0, 1, 0, 1, 0, 1, 0, 1, 1, 1] 
 T2 => S71 [0, 0, 1, 0, 1, 1, 0, 1, 0, 1, 0, 1, 1, 0, 1, 1] 
 T4 => S129 [0, 1, 0, 1, 0, 0, 1, 1, 1, 0, 0, 1, 1, 0, 1, 0] 
 T8 => S131 [0, 1, 0, 1, 0, 1, 0, 1, 0, 0, 1, 1, 1, 1, 0, 2] 
 
 Reachable states from S129 [0, 1, 0, 1, 0, 0, 1, 1, 1, 0, 0, 1, 1, 0, 1, 0] 
 T10 => S42 [0, 1, 0, 1, 0, 0, 2, 0, 1, 0, 0, 2, 1, 0, 1, 0] 
 T2 => S72 [0, 0, 1, 0, 1, 0, 1, 1, 1, 0, 0, 1, 1, 0, 1, 0] 
 T6 => S125 [1, 1, 0, 1, 0, 0, 1, 1, 1, 0, 0, 1, 0, 1, 1, 0] 
 T3 => S130 [0, 0, 1, 1, 0, 1, 0, 1, 1, 0, 0, 1, 1, 0, 1, 0] 
 
 Reachable states from S130 [0, 0, 1, 1, 0, 1, 0, 1, 1, 0, 0, 1, 1, 0, 1, 0] 
 T10 => S23 [0, 0, 1, 1, 0, 1, 1, 0, 1, 0, 0, 2, 1, 0, 1, 0] 
 T6 => S126 [1, 0, 1, 1, 0, 1, 0, 1, 1, 0, 0, 1, 0, 1, 1, 0] 
 
 Reachable states from S131 [0, 1, 0, 1, 0, 1, 0, 1, 0, 0, 1, 1, 1, 1, 0, 2] 
 T2 => S132 [0, 0, 1, 0, 1, 1, 0, 1, 0, 0, 1, 1, 1, 1, 0, 2] 
 T6 => S164 [1, 1, 0, 1, 0, 1, 0, 1, 0, 0, 1, 1, 0, 2, 0, 2] 
 T7 => S221 [0, 1, 0, 1, 0, 1, 0, 1, 0, 0, 1, 0, 1, 0, 1, 1] 
 T10 => S234 [0, 1, 0, 1, 0, 1, 1, 0, 0, 0, 1, 2, 1, 1, 0, 2] 
 
 Reachable states from S132 [0, 0, 1, 0, 1, 1, 0, 1, 0, 0, 1, 1, 1, 1, 0, 2] 
 T6 => S82 [1, 0, 1, 0, 1, 1, 0, 1, 0, 0, 1, 1, 0, 2, 0, 2] 
 T7 => S133 [0, 0, 1, 0, 1, 1, 0, 1, 0, 0, 1, 0, 1, 0, 1, 1] 
 T10 => S232 [0, 0, 1, 0, 1, 1, 1, 0, 0, 0, 1, 2, 1, 1, 0, 2] 
 T11 => S239 [1, 0, 1, 1, 0, 1, 0, 1, 0, 0, 1, 1, 1, 1, 0, 2] 
 
 Reachable states from S133 [0, 0, 1, 0, 1, 1, 0, 1, 0, 0, 1, 0, 1, 0, 1, 1] 
 T6 => S56 [1, 0, 1, 0, 1, 1, 0, 1, 0, 0, 1, 0, 0, 1, 1, 1] 
 T10 => S134 [0, 0, 1, 0, 1, 1, 1, 0, 0, 0, 1, 1, 1, 0, 1, 1] 
 T11 => S220 [1, 0, 1, 1, 0, 1, 0, 1, 0, 0, 1, 0, 1, 0, 1, 1] 
 
 Reachable states from S134 [0, 0, 1, 0, 1, 1, 1, 0, 0, 0, 1, 1, 1, 0, 1, 1] 
 T6 => S57 [1, 0, 1, 0, 1, 1, 1, 0, 0, 0, 1, 1, 0, 1, 1, 1] 
 T9 => S71 [0, 0, 1, 0, 1, 1, 0, 1, 0, 1, 0, 1, 1, 0, 1, 1] 
 T11 => S135 [1, 0, 1, 1, 0, 1, 1, 0, 0, 0, 1, 1, 1, 0, 1, 1] 
 
 Reachable states from S135 [1, 0, 1, 1, 0, 1, 1, 0, 0, 0, 1, 1, 1, 0, 1, 1] 
 T6 => S119 [2, 0, 1, 1, 0, 1, 1, 0, 0, 0, 1, 1, 0, 1, 1, 1] 
 T1 => S136 [0, 1, 0, 1, 0, 1, 1, 0, 0, 0, 1, 1, 1, 0, 1, 1] 
 T9 => S137 [1, 0, 1, 1, 0, 1, 0, 1, 0, 1, 0, 1, 1, 0, 1, 1] 
 
 Reachable states from S136 [0, 1, 0, 1, 0, 1, 1, 0, 0, 0, 1, 1, 1, 0, 1, 1] 
 T3 => S40 [0, 0, 1, 1, 0, 2, 0, 0, 0, 0, 1, 1, 1, 0, 1, 1] 
 T6 => S63 [1, 1, 0, 1, 0, 1, 1, 0, 0, 0, 1, 1, 0, 1, 1, 1] 
 T9 => S128 [0, 1, 0, 1, 0, 1, 0, 1, 0, 1, 0, 1, 1, 0, 1, 1] 
 T2 => S134 [0, 0, 1, 0, 1, 1, 1, 0, 0, 0, 1, 1, 1, 0, 1, 1] 
 
 Reachable states from S137 [1, 0, 1, 1, 0, 1, 0, 1, 0, 1, 0, 1, 1, 0, 1, 1] 
 T6 => S123 [2, 0, 1, 1, 0, 1, 0, 1, 0, 1, 0, 1, 0, 1, 1, 1] 
 T1 => S128 [0, 1, 0, 1, 0, 1, 0, 1, 0, 1, 0, 1, 1, 0, 1, 1] 
 T4 => S138 [1, 0, 1, 1, 0, 0, 1, 1, 1, 0, 0, 1, 1, 0, 1, 0] 
 T8 => S239 [1, 0, 1, 1, 0, 1, 0, 1, 0, 0, 1, 1, 1, 1, 0, 2] 
 T10 => S245 [1, 0, 1, 1, 0, 1, 1, 0, 0, 1, 0, 2, 1, 0, 1, 1] 
 
 Reachable states from S138 [1, 0, 1, 1, 0, 0, 1, 1, 1, 0, 0, 1, 1, 0, 1, 0] 
 T6 => S124 [2, 0, 1, 1, 0, 0, 1, 1, 1, 0, 0, 1, 0, 1, 1, 0] 
 T1 => S129 [0, 1, 0, 1, 0, 0, 1, 1, 1, 0, 0, 1, 1, 0, 1, 0] 
 T10 => S139 [1, 0, 1, 1, 0, 0, 2, 0, 1, 0, 0, 2, 1, 0, 1, 0] 
 
 Reachable states from S139 [1, 0, 1, 1, 0, 0, 2, 0, 1, 0, 0, 2, 1, 0, 1, 0] 
 T1 => S42 [0, 1, 0, 1, 0, 0, 2, 0, 1, 0, 0, 2, 1, 0, 1, 0] 
 T6 => S140 [2, 0, 1, 1, 0, 0, 2, 0, 1, 0, 0, 2, 0, 1, 1, 0] 
 
 Reachable states from S140 [2, 0, 1, 1, 0, 0, 2, 0, 1, 0, 0, 2, 0, 1, 1, 0] 
 T1 => S43 [1, 1, 0, 1, 0, 0, 2, 0, 1, 0, 0, 2, 0, 1, 1, 0] 
 T5 => S141 [2, 0, 1, 1, 0, 0, 2, 0, 0, 1, 0, 2, 1, 0, 1, 1] 
 
 Reachable states from S141 [2, 0, 1, 1, 0, 0, 2, 0, 0, 1, 0, 2, 1, 0, 1, 1] 
 T1 => S44 [1, 1, 0, 1, 0, 0, 2, 0, 0, 1, 0, 2, 1, 0, 1, 1] 
 T6 => S142 [3, 0, 1, 1, 0, 0, 2, 0, 0, 1, 0, 2, 0, 1, 1, 1] 
 T8 => S228 [2, 0, 1, 1, 0, 0, 2, 0, 0, 0, 1, 2, 1, 1, 0, 2] 
 
 Reachable states from S142 [3, 0, 1, 1, 0, 0, 2, 0, 0, 1, 0, 2, 0, 1, 1, 1] 
 T1 => S143 [2, 1, 0, 1, 0, 0, 2, 0, 0, 1, 0, 2, 0, 1, 1, 1] 
 T8 => S238 [3, 0, 1, 1, 0, 0, 2, 0, 0, 0, 1, 2, 0, 2, 0, 2] 
 T7 => S244 [3, 0, 1, 1, 0, 0, 2, 0, 0, 1, 0, 1, 0, 0, 2, 0] 
 
 Reachable states from S143 [2, 1, 0, 1, 0, 0, 2, 0, 0, 1, 0, 2, 0, 1, 1, 1] 
 T2 => S46 [2, 0, 1, 0, 1, 0, 2, 0, 0, 1, 0, 2, 0, 1, 1, 1] 
 T3 => S144 [2, 0, 1, 1, 0, 1, 1, 0, 0, 1, 0, 2, 0, 1, 1, 1] 
 T7 => S145 [2, 1, 0, 1, 0, 0, 2, 0, 0, 1, 0, 1, 0, 0, 2, 0] 
 T8 => S236 [2, 1, 0, 1, 0, 0, 2, 0, 0, 0, 1, 2, 0, 2, 0, 2] 
 
 Reachable states from S144 [2, 0, 1, 1, 0, 1, 1, 0, 0, 1, 0, 2, 0, 1, 1, 1] 
 T7 => S61 [2, 0, 1, 1, 0, 1, 1, 0, 0, 1, 0, 1, 0, 0, 2, 0] 
 T1 => S115 [1, 1, 0, 1, 0, 1, 1, 0, 0, 1, 0, 2, 0, 1, 1, 1] 
 T8 => S118 [2, 0, 1, 1, 0, 1, 1, 0, 0, 0, 1, 2, 0, 2, 0, 2] 
 T4 => S140 [2, 0, 1, 1, 0, 0, 2, 0, 1, 0, 0, 2, 0, 1, 1, 0] 
 
 Reachable states from S145 [2, 1, 0, 1, 0, 0, 2, 0, 0, 1, 0, 1, 0, 0, 2, 0] 
 T3 => S61 [2, 0, 1, 1, 0, 1, 1, 0, 0, 1, 0, 1, 0, 0, 2, 0] 
 T2 => S146 [2, 0, 1, 0, 1, 0, 2, 0, 0, 1, 0, 1, 0, 0, 2, 0] 
 T8 => S166 [2, 1, 0, 1, 0, 0, 2, 0, 0, 0, 1, 1, 0, 1, 1, 1] 
 
 Reachable states from S146 [2, 0, 1, 0, 1, 0, 2, 0, 0, 1, 0, 1, 0, 0, 2, 0] 
 T1 => S147 [1, 1, 0, 0, 1, 0, 2, 0, 0, 1, 0, 1, 0, 0, 2, 0] 
 T8 => S167 [2, 0, 1, 0, 1, 0, 2, 0, 0, 0, 1, 1, 0, 1, 1, 1] 
 T11 => S244 [3, 0, 1, 1, 0, 0, 2, 0, 0, 1, 0, 1, 0, 0, 2, 0] 
 
 Reachable states from S147 [1, 1, 0, 0, 1, 0, 2, 0, 0, 1, 0, 1, 0, 0, 2, 0] 
 T3 => S60 [1, 0, 1, 0, 1, 1, 1, 0, 0, 1, 0, 1, 0, 0, 2, 0] 
 T11 => S145 [2, 1, 0, 1, 0, 0, 2, 0, 0, 1, 0, 1, 0, 0, 2, 0] 
 T8 => S148 [1, 1, 0, 0, 1, 0, 2, 0, 0, 0, 1, 1, 0, 1, 1, 1] 
 
 Reachable states from S148 [1, 1, 0, 0, 1, 0, 2, 0, 0, 0, 1, 1, 0, 1, 1, 1] 
 T3 => S57 [1, 0, 1, 0, 1, 1, 1, 0, 0, 0, 1, 1, 0, 1, 1, 1] 
 T9 => S76 [1, 1, 0, 0, 1, 0, 1, 1, 0, 1, 0, 1, 0, 1, 1, 1] 
 T7 => S149 [1, 1, 0, 0, 1, 0, 2, 0, 0, 0, 1, 0, 0, 0, 2, 0] 
 T11 => S166 [2, 1, 0, 1, 0, 0, 2, 0, 0, 0, 1, 1, 0, 1, 1, 1] 
 
 Reachable states from S149 [1, 1, 0, 0, 1, 0, 2, 0, 0, 0, 1, 0, 0, 0, 2, 0] 
 T3 => S58 [1, 0, 1, 0, 1, 1, 1, 0, 0, 0, 1, 0, 0, 0, 2, 0] 
 T9 => S77 [1, 1, 0, 0, 1, 0, 1, 1, 0, 1, 0, 0, 0, 0, 2, 0] 
 T11 => S150 [2, 1, 0, 1, 0, 0, 2, 0, 0, 0, 1, 0, 0, 0, 2, 0] 
 
 Reachable states from S150 [2, 1, 0, 1, 0, 0, 2, 0, 0, 0, 1, 0, 0, 0, 2, 0] 
 T3 => S120 [2, 0, 1, 1, 0, 1, 1, 0, 0, 0, 1, 0, 0, 0, 2, 0] 
 T2 => S151 [2, 0, 1, 0, 1, 0, 2, 0, 0, 0, 1, 0, 0, 0, 2, 0] 
 T9 => S171 [2, 1, 0, 1, 0, 0, 1, 1, 0, 1, 0, 0, 0, 0, 2, 0] 
 
 Reachable states from S151 [2, 0, 1, 0, 1, 0, 2, 0, 0, 0, 1, 0, 0, 0, 2, 0] 
 T1 => S149 [1, 1, 0, 0, 1, 0, 2, 0, 0, 0, 1, 0, 0, 0, 2, 0] 
 T9 => S152 [2, 0, 1, 0, 1, 0, 1, 1, 0, 1, 0, 0, 0, 0, 2, 0] 
 T11 => S219 [3, 0, 1, 1, 0, 0, 2, 0, 0, 0, 1, 0, 0, 0, 2, 0] 
 
 Reachable states from S152 [2, 0, 1, 0, 1, 0, 1, 1, 0, 1, 0, 0, 0, 0, 2, 0] 
 T1 => S77 [1, 1, 0, 0, 1, 0, 1, 1, 0, 1, 0, 0, 0, 0, 2, 0] 
 T10 => S146 [2, 0, 1, 0, 1, 0, 2, 0, 0, 1, 0, 1, 0, 0, 2, 0] 
 T8 => S153 [2, 0, 1, 0, 1, 0, 1, 1, 0, 0, 1, 0, 0, 1, 1, 1] 
 T11 => S172 [3, 0, 1, 1, 0, 0, 1, 1, 0, 1, 0, 0, 0, 0, 2, 0] 
 
 Reachable states from S153 [2, 0, 1, 0, 1, 0, 1, 1, 0, 0, 1, 0, 0, 1, 1, 1] 
 T1 => S78 [1, 1, 0, 0, 1, 0, 1, 1, 0, 0, 1, 0, 0, 1, 1, 1] 
 T9 => S154 [2, 0, 1, 0, 1, 0, 0, 2, 0, 1, 0, 0, 0, 1, 1, 1] 
 T10 => S167 [2, 0, 1, 0, 1, 0, 2, 0, 0, 0, 1, 1, 0, 1, 1, 1] 
 T11 => S173 [3, 0, 1, 1, 0, 0, 1, 1, 0, 0, 1, 0, 0, 1, 1, 1] 
 
 Reachable states from S154 [2, 0, 1, 0, 1, 0, 0, 2, 0, 1, 0, 0, 0, 1, 1, 1] 
 T1 => S79 [1, 1, 0, 0, 1, 0, 0, 2, 0, 1, 0, 0, 0, 1, 1, 1] 
 T8 => S155 [2, 0, 1, 0, 1, 0, 0, 2, 0, 0, 1, 0, 0, 2, 0, 2] 
 T10 => S168 [2, 0, 1, 0, 1, 0, 1, 1, 0, 1, 0, 1, 0, 1, 1, 1] 
 T11 => S174 [3, 0, 1, 1, 0, 0, 0, 2, 0, 1, 0, 0, 0, 1, 1, 1] 
 
 Reachable states from S155 [2, 0, 1, 0, 1, 0, 0, 2, 0, 0, 1, 0, 0, 2, 0, 2] 
 T1 => S80 [1, 1, 0, 0, 1, 0, 0, 2, 0, 0, 1, 0, 0, 2, 0, 2] 
 T10 => S156 [2, 0, 1, 0, 1, 0, 1, 1, 0, 0, 1, 1, 0, 2, 0, 2] 
 T11 => S175 [3, 0, 1, 1, 0, 0, 0, 2, 0, 0, 1, 0, 0, 2, 0, 2] 
 
 Reachable states from S156 [2, 0, 1, 0, 1, 0, 1, 1, 0, 0, 1, 1, 0, 2, 0, 2] 
 T1 => S81 [1, 1, 0, 0, 1, 0, 1, 1, 0, 0, 1, 1, 0, 2, 0, 2] 
 T7 => S153 [2, 0, 1, 0, 1, 0, 1, 1, 0, 0, 1, 0, 0, 1, 1, 1] 
 T9 => S157 [2, 0, 1, 0, 1, 0, 0, 2, 0, 1, 0, 1, 0, 2, 0, 2] 
 T11 => S176 [3, 0, 1, 1, 0, 0, 1, 1, 0, 0, 1, 1, 0, 2, 0, 2] 
 T10 => S237 [2, 0, 1, 0, 1, 0, 2, 0, 0, 0, 1, 2, 0, 2, 0, 2] 
 
 Reachable states from S157 [2, 0, 1, 0, 1, 0, 0, 2, 0, 1, 0, 1, 0, 2, 0, 2] 
 T7 => S154 [2, 0, 1, 0, 1, 0, 0, 2, 0, 1, 0, 0, 0, 1, 1, 1] 
 T1 => S158 [1, 1, 0, 0, 1, 0, 0, 2, 0, 1, 0, 1, 0, 2, 0, 2] 
 T11 => S177 [3, 0, 1, 1, 0, 0, 0, 2, 0, 1, 0, 1, 0, 2, 0, 2] 
 T10 => S180 [2, 0, 1, 0, 1, 0, 1, 1, 0, 1, 0, 2, 0, 2, 0, 2] 
 
 Reachable states from S158 [1, 1, 0, 0, 1, 0, 0, 2, 0, 1, 0, 1, 0, 2, 0, 2] 
 T7 => S79 [1, 1, 0, 0, 1, 0, 0, 2, 0, 1, 0, 0, 0, 1, 1, 1] 
 T10 => S93 [1, 1, 0, 0, 1, 0, 1, 1, 0, 1, 0, 2, 0, 2, 0, 2] 
 T11 => S159 [2, 1, 0, 1, 0, 0, 0, 2, 0, 1, 0, 1, 0, 2, 0, 2] 
 
 Reachable states from S159 [2, 1, 0, 1, 0, 0, 0, 2, 0, 1, 0, 1, 0, 2, 0, 2] 
 T2 => S157 [2, 0, 1, 0, 1, 0, 0, 2, 0, 1, 0, 1, 0, 2, 0, 2] 
 T7 => S160 [2, 1, 0, 1, 0, 0, 0, 2, 0, 1, 0, 0, 0, 1, 1, 1] 
 T10 => S179 [2, 1, 0, 1, 0, 0, 1, 1, 0, 1, 0, 2, 0, 2, 0, 2] 
 
 Reachable states from S160 [2, 1, 0, 1, 0, 0, 0, 2, 0, 1, 0, 0, 0, 1, 1, 1] 
 T2 => S154 [2, 0, 1, 0, 1, 0, 0, 2, 0, 1, 0, 0, 0, 1, 1, 1] 
 T8 => S161 [2, 1, 0, 1, 0, 0, 0, 2, 0, 0, 1, 0, 0, 2, 0, 2] 
 T10 => S170 [2, 1, 0, 1, 0, 0, 1, 1, 0, 1, 0, 1, 0, 1, 1, 1] 
 
 Reachable states from S161 [2, 1, 0, 1, 0, 0, 0, 2, 0, 0, 1, 0, 0, 2, 0, 2] 
 T2 => S155 [2, 0, 1, 0, 1, 0, 0, 2, 0, 0, 1, 0, 0, 2, 0, 2] 
 T10 => S162 [2, 1, 0, 1, 0, 0, 1, 1, 0, 0, 1, 1, 0, 2, 0, 2] 
 
 Reachable states from S162 [2, 1, 0, 1, 0, 0, 1, 1, 0, 0, 1, 1, 0, 2, 0, 2] 
 T2 => S156 [2, 0, 1, 0, 1, 0, 1, 1, 0, 0, 1, 1, 0, 2, 0, 2] 
 T9 => S159 [2, 1, 0, 1, 0, 0, 0, 2, 0, 1, 0, 1, 0, 2, 0, 2] 
 T3 => S163 [2, 0, 1, 1, 0, 1, 0, 1, 0, 0, 1, 1, 0, 2, 0, 2] 
 T7 => S165 [2, 1, 0, 1, 0, 0, 1, 1, 0, 0, 1, 0, 0, 1, 1, 1] 
 T10 => S236 [2, 1, 0, 1, 0, 0, 2, 0, 0, 0, 1, 2, 0, 2, 0, 2] 
 
 Reachable states from S163 [2, 0, 1, 1, 0, 1, 0, 1, 0, 0, 1, 1, 0, 2, 0, 2] 
 T10 => S118 [2, 0, 1, 1, 0, 1, 1, 0, 0, 0, 1, 2, 0, 2, 0, 2] 
 T7 => S122 [2, 0, 1, 1, 0, 1, 0, 1, 0, 0, 1, 0, 0, 1, 1, 1] 
 T1 => S164 [1, 1, 0, 1, 0, 1, 0, 1, 0, 0, 1, 1, 0, 2, 0, 2] 
 
 Reachable states from S164 [1, 1, 0, 1, 0, 1, 0, 1, 0, 0, 1, 1, 0, 2, 0, 2] 
 T7 => S55 [1, 1, 0, 1, 0, 1, 0, 1, 0, 0, 1, 0, 0, 1, 1, 1] 
 T2 => S82 [1, 0, 1, 0, 1, 1, 0, 1, 0, 0, 1, 1, 0, 2, 0, 2] 
 T10 => S116 [1, 1, 0, 1, 0, 1, 1, 0, 0, 0, 1, 2, 0, 2, 0, 2] 
 
 Reachable states from S165 [2, 1, 0, 1, 0, 0, 1, 1, 0, 0, 1, 0, 0, 1, 1, 1] 
 T3 => S122 [2, 0, 1, 1, 0, 1, 0, 1, 0, 0, 1, 0, 0, 1, 1, 1] 
 T2 => S153 [2, 0, 1, 0, 1, 0, 1, 1, 0, 0, 1, 0, 0, 1, 1, 1] 
 T9 => S160 [2, 1, 0, 1, 0, 0, 0, 2, 0, 1, 0, 0, 0, 1, 1, 1] 
 T10 => S166 [2, 1, 0, 1, 0, 0, 2, 0, 0, 0, 1, 1, 0, 1, 1, 1] 
 
 Reachable states from S166 [2, 1, 0, 1, 0, 0, 2, 0, 0, 0, 1, 1, 0, 1, 1, 1] 
 T3 => S119 [2, 0, 1, 1, 0, 1, 1, 0, 0, 0, 1, 1, 0, 1, 1, 1] 
 T7 => S150 [2, 1, 0, 1, 0, 0, 2, 0, 0, 0, 1, 0, 0, 0, 2, 0] 
 T2 => S167 [2, 0, 1, 0, 1, 0, 2, 0, 0, 0, 1, 1, 0, 1, 1, 1] 
 T9 => S170 [2, 1, 0, 1, 0, 0, 1, 1, 0, 1, 0, 1, 0, 1, 1, 1] 
 
 Reachable states from S167 [2, 0, 1, 0, 1, 0, 2, 0, 0, 0, 1, 1, 0, 1, 1, 1] 
 T1 => S148 [1, 1, 0, 0, 1, 0, 2, 0, 0, 0, 1, 1, 0, 1, 1, 1] 
 T7 => S151 [2, 0, 1, 0, 1, 0, 2, 0, 0, 0, 1, 0, 0, 0, 2, 0] 
 T9 => S168 [2, 0, 1, 0, 1, 0, 1, 1, 0, 1, 0, 1, 0, 1, 1, 1] 
 T11 => S218 [3, 0, 1, 1, 0, 0, 2, 0, 0, 0, 1, 1, 0, 1, 1, 1] 
 
 Reachable states from S168 [2, 0, 1, 0, 1, 0, 1, 1, 0, 1, 0, 1, 0, 1, 1, 1] 
 T10 => S46 [2, 0, 1, 0, 1, 0, 2, 0, 0, 1, 0, 2, 0, 1, 1, 1] 
 T1 => S76 [1, 1, 0, 0, 1, 0, 1, 1, 0, 1, 0, 1, 0, 1, 1, 1] 
 T7 => S152 [2, 0, 1, 0, 1, 0, 1, 1, 0, 1, 0, 0, 0, 0, 2, 0] 
 T8 => S156 [2, 0, 1, 0, 1, 0, 1, 1, 0, 0, 1, 1, 0, 2, 0, 2] 
 T11 => S169 [3, 0, 1, 1, 0, 0, 1, 1, 0, 1, 0, 1, 0, 1, 1, 1] 
 
 Reachable states from S169 [3, 0, 1, 1, 0, 0, 1, 1, 0, 1, 0, 1, 0, 1, 1, 1] 
 T10 => S142 [3, 0, 1, 1, 0, 0, 2, 0, 0, 1, 0, 2, 0, 1, 1, 1] 
 T1 => S170 [2, 1, 0, 1, 0, 0, 1, 1, 0, 1, 0, 1, 0, 1, 1, 1] 
 T7 => S172 [3, 0, 1, 1, 0, 0, 1, 1, 0, 1, 0, 0, 0, 0, 2, 0] 
 T8 => S176 [3, 0, 1, 1, 0, 0, 1, 1, 0, 0, 1, 1, 0, 2, 0, 2] 
 
 Reachable states from S170 [2, 1, 0, 1, 0, 0, 1, 1, 0, 1, 0, 1, 0, 1, 1, 1] 
 T3 => S123 [2, 0, 1, 1, 0, 1, 0, 1, 0, 1, 0, 1, 0, 1, 1, 1] 
 T10 => S143 [2, 1, 0, 1, 0, 0, 2, 0, 0, 1, 0, 2, 0, 1, 1, 1] 
 T8 => S162 [2, 1, 0, 1, 0, 0, 1, 1, 0, 0, 1, 1, 0, 2, 0, 2] 
 T2 => S168 [2, 0, 1, 0, 1, 0, 1, 1, 0, 1, 0, 1, 0, 1, 1, 1] 
 T7 => S171 [2, 1, 0, 1, 0, 0, 1, 1, 0, 1, 0, 0, 0, 0, 2, 0] 
 
 Reachable states from S171 [2, 1, 0, 1, 0, 0, 1, 1, 0, 1, 0, 0, 0, 0, 2, 0] 
 T3 => S121 [2, 0, 1, 1, 0, 1, 0, 1, 0, 1, 0, 0, 0, 0, 2, 0] 
 T10 => S145 [2, 1, 0, 1, 0, 0, 2, 0, 0, 1, 0, 1, 0, 0, 2, 0] 
 T2 => S152 [2, 0, 1, 0, 1, 0, 1, 1, 0, 1, 0, 0, 0, 0, 2, 0] 
 T8 => S165 [2, 1, 0, 1, 0, 0, 1, 1, 0, 0, 1, 0, 0, 1, 1, 1] 
 
 Reachable states from S172 [3, 0, 1, 1, 0, 0, 1, 1, 0, 1, 0, 0, 0, 0, 2, 0] 
 T1 => S171 [2, 1, 0, 1, 0, 0, 1, 1, 0, 1, 0, 0, 0, 0, 2, 0] 
 T8 => S173 [3, 0, 1, 1, 0, 0, 1, 1, 0, 0, 1, 0, 0, 1, 1, 1] 
 T10 => S244 [3, 0, 1, 1, 0, 0, 2, 0, 0, 1, 0, 1, 0, 0, 2, 0] 
 
 Reachable states from S173 [3, 0, 1, 1, 0, 0, 1, 1, 0, 0, 1, 0, 0, 1, 1, 1] 
 T1 => S165 [2, 1, 0, 1, 0, 0, 1, 1, 0, 0, 1, 0, 0, 1, 1, 1] 
 T9 => S174 [3, 0, 1, 1, 0, 0, 0, 2, 0, 1, 0, 0, 0, 1, 1, 1] 
 T10 => S218 [3, 0, 1, 1, 0, 0, 2, 0, 0, 0, 1, 1, 0, 1, 1, 1] 
 
 Reachable states from S174 [3, 0, 1, 1, 0, 0, 0, 2, 0, 1, 0, 0, 0, 1, 1, 1] 
 T1 => S160 [2, 1, 0, 1, 0, 0, 0, 2, 0, 1, 0, 0, 0, 1, 1, 1] 
 T10 => S169 [3, 0, 1, 1, 0, 0, 1, 1, 0, 1, 0, 1, 0, 1, 1, 1] 
 T8 => S175 [3, 0, 1, 1, 0, 0, 0, 2, 0, 0, 1, 0, 0, 2, 0, 2] 
 
 Reachable states from S175 [3, 0, 1, 1, 0, 0, 0, 2, 0, 0, 1, 0, 0, 2, 0, 2] 
 T1 => S161 [2, 1, 0, 1, 0, 0, 0, 2, 0, 0, 1, 0, 0, 2, 0, 2] 
 T10 => S176 [3, 0, 1, 1, 0, 0, 1, 1, 0, 0, 1, 1, 0, 2, 0, 2] 
 
 Reachable states from S176 [3, 0, 1, 1, 0, 0, 1, 1, 0, 0, 1, 1, 0, 2, 0, 2] 
 T1 => S162 [2, 1, 0, 1, 0, 0, 1, 1, 0, 0, 1, 1, 0, 2, 0, 2] 
 T7 => S173 [3, 0, 1, 1, 0, 0, 1, 1, 0, 0, 1, 0, 0, 1, 1, 1] 
 T9 => S177 [3, 0, 1, 1, 0, 0, 0, 2, 0, 1, 0, 1, 0, 2, 0, 2] 
 T10 => S238 [3, 0, 1, 1, 0, 0, 2, 0, 0, 0, 1, 2, 0, 2, 0, 2] 
 
 Reachable states from S177 [3, 0, 1, 1, 0, 0, 0, 2, 0, 1, 0, 1, 0, 2, 0, 2] 
 T1 => S159 [2, 1, 0, 1, 0, 0, 0, 2, 0, 1, 0, 1, 0, 2, 0, 2] 
 T7 => S174 [3, 0, 1, 1, 0, 0, 0, 2, 0, 1, 0, 0, 0, 1, 1, 1] 
 T10 => S178 [3, 0, 1, 1, 0, 0, 1, 1, 0, 1, 0, 2, 0, 2, 0, 2] 
 
 Reachable states from S178 [3, 0, 1, 1, 0, 0, 1, 1, 0, 1, 0, 2, 0, 2, 0, 2] 
 T10 => S0 [3, 0, 1, 1, 0, 0, 2, 0, 0, 1, 0, 3, 0, 2, 0, 2] 
 T7 => S169 [3, 0, 1, 1, 0, 0, 1, 1, 0, 1, 0, 1, 0, 1, 1, 1] 
 T1 => S179 [2, 1, 0, 1, 0, 0, 1, 1, 0, 1, 0, 2, 0, 2, 0, 2] 
 
 Reachable states from S179 [2, 1, 0, 1, 0, 0, 1, 1, 0, 1, 0, 2, 0, 2, 0, 2] 
 T10 => S1 [2, 1, 0, 1, 0, 0, 2, 0, 0, 1, 0, 3, 0, 2, 0, 2] 
 T7 => S170 [2, 1, 0, 1, 0, 0, 1, 1, 0, 1, 0, 1, 0, 1, 1, 1] 
 T2 => S180 [2, 0, 1, 0, 1, 0, 1, 1, 0, 1, 0, 2, 0, 2, 0, 2] 
 T3 => S181 [2, 0, 1, 1, 0, 1, 0, 1, 0, 1, 0, 2, 0, 2, 0, 2] 
 
 Reachable states from S180 [2, 0, 1, 0, 1, 0, 1, 1, 0, 1, 0, 2, 0, 2, 0, 2] 
 T10 => S2 [2, 0, 1, 0, 1, 0, 2, 0, 0, 1, 0, 3, 0, 2, 0, 2] 
 T1 => S93 [1, 1, 0, 0, 1, 0, 1, 1, 0, 1, 0, 2, 0, 2, 0, 2] 
 T7 => S168 [2, 0, 1, 0, 1, 0, 1, 1, 0, 1, 0, 1, 0, 1, 1, 1] 
 T11 => S178 [3, 0, 1, 1, 0, 0, 1, 1, 0, 1, 0, 2, 0, 2, 0, 2] 
 
 Reachable states from S181 [2, 0, 1, 1, 0, 1, 0, 1, 0, 1, 0, 2, 0, 2, 0, 2] 
 T7 => S123 [2, 0, 1, 1, 0, 1, 0, 1, 0, 1, 0, 1, 0, 1, 1, 1] 
 T1 => S182 [1, 1, 0, 1, 0, 1, 0, 1, 0, 1, 0, 2, 0, 2, 0, 2] 
 T4 => S241 [2, 0, 1, 1, 0, 0, 1, 1, 1, 0, 0, 2, 0, 2, 0, 1] 
 T10 => S243 [2, 0, 1, 1, 0, 1, 1, 0, 0, 1, 0, 3, 0, 2, 0, 2] 
 
 Reachable states from S182 [1, 1, 0, 1, 0, 1, 0, 1, 0, 1, 0, 2, 0, 2, 0, 2] 
 T7 => S66 [1, 1, 0, 1, 0, 1, 0, 1, 0, 1, 0, 1, 0, 1, 1, 1] 
 T2 => S94 [1, 0, 1, 0, 1, 1, 0, 1, 0, 1, 0, 2, 0, 2, 0, 2] 
 T10 => S112 [1, 1, 0, 1, 0, 1, 1, 0, 0, 1, 0, 3, 0, 2, 0, 2] 
 T4 => S183 [1, 1, 0, 1, 0, 0, 1, 1, 1, 0, 0, 2, 0, 2, 0, 1] 
 
 Reachable states from S183 [1, 1, 0, 1, 0, 0, 1, 1, 1, 0, 0, 2, 0, 2, 0, 1] 
 T2 => S95 [1, 0, 1, 0, 1, 0, 1, 1, 1, 0, 0, 2, 0, 2, 0, 1] 
 T10 => S98 [1, 1, 0, 1, 0, 0, 2, 0, 1, 0, 0, 3, 0, 2, 0, 1] 
 T7 => S125 [1, 1, 0, 1, 0, 0, 1, 1, 1, 0, 0, 1, 0, 1, 1, 0] 
 T3 => S184 [1, 0, 1, 1, 0, 1, 0, 1, 1, 0, 0, 2, 0, 2, 0, 1] 
 T5 => S194 [1, 1, 0, 1, 0, 0, 1, 1, 0, 1, 0, 2, 1, 1, 0, 2] 
 
 Reachable states from S184 [1, 0, 1, 1, 0, 1, 0, 1, 1, 0, 0, 2, 0, 2, 0, 1] 
 T10 => S99 [1, 0, 1, 1, 0, 1, 1, 0, 1, 0, 0, 3, 0, 2, 0, 1] 
 T7 => S126 [1, 0, 1, 1, 0, 1, 0, 1, 1, 0, 0, 1, 0, 1, 1, 0] 
 T1 => S185 [0, 1, 0, 1, 0, 1, 0, 1, 1, 0, 0, 2, 0, 2, 0, 1] 
 T5 => S195 [1, 0, 1, 1, 0, 1, 0, 1, 0, 1, 0, 2, 1, 1, 0, 2] 
 
 Reachable states from S185 [0, 1, 0, 1, 0, 1, 0, 1, 1, 0, 0, 2, 0, 2, 0, 1] 
 T2 => S87 [0, 0, 1, 0, 1, 1, 0, 1, 1, 0, 0, 2, 0, 2, 0, 1] 
 T10 => S100 [0, 1, 0, 1, 0, 1, 1, 0, 1, 0, 0, 3, 0, 2, 0, 1] 
 T7 => S127 [0, 1, 0, 1, 0, 1, 0, 1, 1, 0, 0, 1, 0, 1, 1, 0] 
 T5 => S186 [0, 1, 0, 1, 0, 1, 0, 1, 0, 1, 0, 2, 1, 1, 0, 2] 
 
 Reachable states from S186 [0, 1, 0, 1, 0, 1, 0, 1, 0, 1, 0, 2, 1, 1, 0, 2] 
 T2 => S88 [0, 0, 1, 0, 1, 1, 0, 1, 0, 1, 0, 2, 1, 1, 0, 2] 
 T10 => S111 [0, 1, 0, 1, 0, 1, 1, 0, 0, 1, 0, 3, 1, 1, 0, 2] 
 T7 => S128 [0, 1, 0, 1, 0, 1, 0, 1, 0, 1, 0, 1, 1, 0, 1, 1] 
 T6 => S182 [1, 1, 0, 1, 0, 1, 0, 1, 0, 1, 0, 2, 0, 2, 0, 2] 
 T4 => S187 [0, 1, 0, 1, 0, 0, 1, 1, 1, 0, 0, 2, 1, 1, 0, 1] 
 
 Reachable states from S187 [0, 1, 0, 1, 0, 0, 1, 1, 1, 0, 0, 2, 1, 1, 0, 1] 
 T2 => S89 [0, 0, 1, 0, 1, 0, 1, 1, 1, 0, 0, 2, 1, 1, 0, 1] 
 T10 => S107 [0, 1, 0, 1, 0, 0, 2, 0, 1, 0, 0, 3, 1, 1, 0, 1] 
 T7 => S129 [0, 1, 0, 1, 0, 0, 1, 1, 1, 0, 0, 1, 1, 0, 1, 0] 
 T6 => S183 [1, 1, 0, 1, 0, 0, 1, 1, 1, 0, 0, 2, 0, 2, 0, 1] 
 T3 => S188 [0, 0, 1, 1, 0, 1, 0, 1, 1, 0, 0, 2, 1, 1, 0, 1] 
 T5 => S193 [0, 1, 0, 1, 0, 0, 1, 1, 0, 1, 0, 2, 2, 0, 0, 2] 
 
 Reachable states from S188 [0, 0, 1, 1, 0, 1, 0, 1, 1, 0, 0, 2, 1, 1, 0, 1] 
 T10 => S103 [0, 0, 1, 1, 0, 1, 1, 0, 1, 0, 0, 3, 1, 1, 0, 1] 
 T7 => S130 [0, 0, 1, 1, 0, 1, 0, 1, 1, 0, 0, 1, 1, 0, 1, 0] 
 T6 => S184 [1, 0, 1, 1, 0, 1, 0, 1, 1, 0, 0, 2, 0, 2, 0, 1] 
 T5 => S189 [0, 0, 1, 1, 0, 1, 0, 1, 0, 1, 0, 2, 2, 0, 0, 2] 
 
 Reachable states from S189 [0, 0, 1, 1, 0, 1, 0, 1, 0, 1, 0, 2, 2, 0, 0, 2] 
 T10 => S104 [0, 0, 1, 1, 0, 1, 1, 0, 0, 1, 0, 3, 2, 0, 0, 2] 
 T4 => S190 [0, 0, 1, 1, 0, 0, 1, 1, 1, 0, 0, 2, 2, 0, 0, 1] 
 T6 => S195 [1, 0, 1, 1, 0, 1, 0, 1, 0, 1, 0, 2, 1, 1, 0, 2] 
 
 Reachable states from S190 [0, 0, 1, 1, 0, 0, 1, 1, 1, 0, 0, 2, 2, 0, 0, 1] 
 T10 => S105 [0, 0, 1, 1, 0, 0, 2, 0, 1, 0, 0, 3, 2, 0, 0, 1] 
 T6 => S191 [1, 0, 1, 1, 0, 0, 1, 1, 1, 0, 0, 2, 1, 1, 0, 1] 
 
 Reachable states from S191 [1, 0, 1, 1, 0, 0, 1, 1, 1, 0, 0, 2, 1, 1, 0, 1] 
 T10 => S106 [1, 0, 1, 1, 0, 0, 2, 0, 1, 0, 0, 3, 1, 1, 0, 1] 
 T7 => S138 [1, 0, 1, 1, 0, 0, 1, 1, 1, 0, 0, 1, 1, 0, 1, 0] 
 T1 => S187 [0, 1, 0, 1, 0, 0, 1, 1, 1, 0, 0, 2, 1, 1, 0, 1] 
 T5 => S192 [1, 0, 1, 1, 0, 0, 1, 1, 0, 1, 0, 2, 2, 0, 0, 2] 
 T6 => S241 [2, 0, 1, 1, 0, 0, 1, 1, 1, 0, 0, 2, 0, 2, 0, 1] 
 
 Reachable states from S192 [1, 0, 1, 1, 0, 0, 1, 1, 0, 1, 0, 2, 2, 0, 0, 2] 
 T1 => S193 [0, 1, 0, 1, 0, 0, 1, 1, 0, 1, 0, 2, 2, 0, 0, 2] 
 T6 => S226 [2, 0, 1, 1, 0, 0, 1, 1, 0, 1, 0, 2, 1, 1, 0, 2] 
 T10 => S240 [1, 0, 1, 1, 0, 0, 2, 0, 0, 1, 0, 3, 2, 0, 0, 2] 
 
 Reachable states from S193 [0, 1, 0, 1, 0, 0, 1, 1, 0, 1, 0, 2, 2, 0, 0, 2] 
 T2 => S90 [0, 0, 1, 0, 1, 0, 1, 1, 0, 1, 0, 2, 2, 0, 0, 2] 
 T10 => S108 [0, 1, 0, 1, 0, 0, 2, 0, 0, 1, 0, 3, 2, 0, 0, 2] 
 T3 => S189 [0, 0, 1, 1, 0, 1, 0, 1, 0, 1, 0, 2, 2, 0, 0, 2] 
 T6 => S194 [1, 1, 0, 1, 0, 0, 1, 1, 0, 1, 0, 2, 1, 1, 0, 2] 
 
 Reachable states from S194 [1, 1, 0, 1, 0, 0, 1, 1, 0, 1, 0, 2, 1, 1, 0, 2] 
 T2 => S91 [1, 0, 1, 0, 1, 0, 1, 1, 0, 1, 0, 2, 1, 1, 0, 2] 
 T10 => S109 [1, 1, 0, 1, 0, 0, 2, 0, 0, 1, 0, 3, 1, 1, 0, 2] 
 T6 => S179 [2, 1, 0, 1, 0, 0, 1, 1, 0, 1, 0, 2, 0, 2, 0, 2] 
 T3 => S195 [1, 0, 1, 1, 0, 1, 0, 1, 0, 1, 0, 2, 1, 1, 0, 2] 
 T7 => S196 [1, 1, 0, 1, 0, 0, 1, 1, 0, 1, 0, 1, 1, 0, 1, 1] 
 
 Reachable states from S195 [1, 0, 1, 1, 0, 1, 0, 1, 0, 1, 0, 2, 1, 1, 0, 2] 
 T10 => S110 [1, 0, 1, 1, 0, 1, 1, 0, 0, 1, 0, 3, 1, 1, 0, 2] 
 T7 => S137 [1, 0, 1, 1, 0, 1, 0, 1, 0, 1, 0, 1, 1, 0, 1, 1] 
 T6 => S181 [2, 0, 1, 1, 0, 1, 0, 1, 0, 1, 0, 2, 0, 2, 0, 2] 
 T1 => S186 [0, 1, 0, 1, 0, 1, 0, 1, 0, 1, 0, 2, 1, 1, 0, 2] 
 T4 => S191 [1, 0, 1, 1, 0, 0, 1, 1, 1, 0, 0, 2, 1, 1, 0, 1] 
 
 Reachable states from S196 [1, 1, 0, 1, 0, 0, 1, 1, 0, 1, 0, 1, 1, 0, 1, 1] 
 T10 => S44 [1, 1, 0, 1, 0, 0, 2, 0, 0, 1, 0, 2, 1, 0, 1, 1] 
 T2 => S74 [1, 0, 1, 0, 1, 0, 1, 1, 0, 1, 0, 1, 1, 0, 1, 1] 
 T3 => S137 [1, 0, 1, 1, 0, 1, 0, 1, 0, 1, 0, 1, 1, 0, 1, 1] 
 T6 => S170 [2, 1, 0, 1, 0, 0, 1, 1, 0, 1, 0, 1, 0, 1, 1, 1] 
 T8 => S197 [1, 1, 0, 1, 0, 0, 1, 1, 0, 0, 1, 1, 1, 1, 0, 2] 
 
 Reachable states from S197 [1, 1, 0, 1, 0, 0, 1, 1, 0, 0, 1, 1, 1, 1, 0, 2] 
 T6 => S162 [2, 1, 0, 1, 0, 0, 1, 1, 0, 0, 1, 1, 0, 2, 0, 2] 
 T2 => S198 [1, 0, 1, 0, 1, 0, 1, 1, 0, 0, 1, 1, 1, 1, 0, 2] 
 T7 => S208 [1, 1, 0, 1, 0, 0, 1, 1, 0, 0, 1, 0, 1, 0, 1, 1] 
 T9 => S223 [1, 1, 0, 1, 0, 0, 0, 2, 0, 1, 0, 1, 1, 1, 0, 2] 
 T10 => S229 [1, 1, 0, 1, 0, 0, 2, 0, 0, 0, 1, 2, 1, 1, 0, 2] 
 T3 => S239 [1, 0, 1, 1, 0, 1, 0, 1, 0, 0, 1, 1, 1, 1, 0, 2] 
 
 Reachable states from S198 [1, 0, 1, 0, 1, 0, 1, 1, 0, 0, 1, 1, 1, 1, 0, 2] 
 T6 => S156 [2, 0, 1, 0, 1, 0, 1, 1, 0, 0, 1, 1, 0, 2, 0, 2] 
 T1 => S199 [0, 1, 0, 0, 1, 0, 1, 1, 0, 0, 1, 1, 1, 1, 0, 2] 
 T11 => S206 [2, 0, 1, 1, 0, 0, 1, 1, 0, 0, 1, 1, 1, 1, 0, 2] 
 T7 => S209 [1, 0, 1, 0, 1, 0, 1, 1, 0, 0, 1, 0, 1, 0, 1, 1] 
 T9 => S224 [1, 0, 1, 0, 1, 0, 0, 2, 0, 1, 0, 1, 1, 1, 0, 2] 
 T10 => S230 [1, 0, 1, 0, 1, 0, 2, 0, 0, 0, 1, 2, 1, 1, 0, 2] 
 
 Reachable states from S199 [0, 1, 0, 0, 1, 0, 1, 1, 0, 0, 1, 1, 1, 1, 0, 2] 
 T6 => S81 [1, 1, 0, 0, 1, 0, 1, 1, 0, 0, 1, 1, 0, 2, 0, 2] 
 T3 => S132 [0, 0, 1, 0, 1, 1, 0, 1, 0, 0, 1, 1, 1, 1, 0, 2] 
 T11 => S197 [1, 1, 0, 1, 0, 0, 1, 1, 0, 0, 1, 1, 1, 1, 0, 2] 
 T7 => S200 [0, 1, 0, 0, 1, 0, 1, 1, 0, 0, 1, 0, 1, 0, 1, 1] 
 T9 => S225 [0, 1, 0, 0, 1, 0, 0, 2, 0, 1, 0, 1, 1, 1, 0, 2] 
 T10 => S231 [0, 1, 0, 0, 1, 0, 2, 0, 0, 0, 1, 2, 1, 1, 0, 2] 
 
 Reachable states from S200 [0, 1, 0, 0, 1, 0, 1, 1, 0, 0, 1, 0, 1, 0, 1, 1] 
 T6 => S78 [1, 1, 0, 0, 1, 0, 1, 1, 0, 0, 1, 0, 0, 1, 1, 1] 
 T3 => S133 [0, 0, 1, 0, 1, 1, 0, 1, 0, 0, 1, 0, 1, 0, 1, 1] 
 T9 => S201 [0, 1, 0, 0, 1, 0, 0, 2, 0, 1, 0, 0, 1, 0, 1, 1] 
 T11 => S208 [1, 1, 0, 1, 0, 0, 1, 1, 0, 0, 1, 0, 1, 0, 1, 1] 
 T10 => S215 [0, 1, 0, 0, 1, 0, 2, 0, 0, 0, 1, 1, 1, 0, 1, 1] 
 
 Reachable states from S201 [0, 1, 0, 0, 1, 0, 0, 2, 0, 1, 0, 0, 1, 0, 1, 1] 
 T10 => S75 [0, 1, 0, 0, 1, 0, 1, 1, 0, 1, 0, 1, 1, 0, 1, 1] 
 T6 => S79 [1, 1, 0, 0, 1, 0, 0, 2, 0, 1, 0, 0, 0, 1, 1, 1] 
 T8 => S202 [0, 1, 0, 0, 1, 0, 0, 2, 0, 0, 1, 0, 1, 1, 0, 2] 
 T11 => S212 [1, 1, 0, 1, 0, 0, 0, 2, 0, 1, 0, 0, 1, 0, 1, 1] 
 
 Reachable states from S202 [0, 1, 0, 0, 1, 0, 0, 2, 0, 0, 1, 0, 1, 1, 0, 2] 
 T6 => S80 [1, 1, 0, 0, 1, 0, 0, 2, 0, 0, 1, 0, 0, 2, 0, 2] 
 T10 => S199 [0, 1, 0, 0, 1, 0, 1, 1, 0, 0, 1, 1, 1, 1, 0, 2] 
 T11 => S203 [1, 1, 0, 1, 0, 0, 0, 2, 0, 0, 1, 0, 1, 1, 0, 2] 
 
 Reachable states from S203 [1, 1, 0, 1, 0, 0, 0, 2, 0, 0, 1, 0, 1, 1, 0, 2] 
 T6 => S161 [2, 1, 0, 1, 0, 0, 0, 2, 0, 0, 1, 0, 0, 2, 0, 2] 
 T10 => S197 [1, 1, 0, 1, 0, 0, 1, 1, 0, 0, 1, 1, 1, 1, 0, 2] 
 T2 => S204 [1, 0, 1, 0, 1, 0, 0, 2, 0, 0, 1, 0, 1, 1, 0, 2] 
 
 Reachable states from S204 [1, 0, 1, 0, 1, 0, 0, 2, 0, 0, 1, 0, 1, 1, 0, 2] 
 T6 => S155 [2, 0, 1, 0, 1, 0, 0, 2, 0, 0, 1, 0, 0, 2, 0, 2] 
 T10 => S198 [1, 0, 1, 0, 1, 0, 1, 1, 0, 0, 1, 1, 1, 1, 0, 2] 
 T1 => S202 [0, 1, 0, 0, 1, 0, 0, 2, 0, 0, 1, 0, 1, 1, 0, 2] 
 T11 => S205 [2, 0, 1, 1, 0, 0, 0, 2, 0, 0, 1, 0, 1, 1, 0, 2] 
 
 Reachable states from S205 [2, 0, 1, 1, 0, 0, 0, 2, 0, 0, 1, 0, 1, 1, 0, 2] 
 T6 => S175 [3, 0, 1, 1, 0, 0, 0, 2, 0, 0, 1, 0, 0, 2, 0, 2] 
 T1 => S203 [1, 1, 0, 1, 0, 0, 0, 2, 0, 0, 1, 0, 1, 1, 0, 2] 
 T10 => S206 [2, 0, 1, 1, 0, 0, 1, 1, 0, 0, 1, 1, 1, 1, 0, 2] 
 
 Reachable states from S206 [2, 0, 1, 1, 0, 0, 1, 1, 0, 0, 1, 1, 1, 1, 0, 2] 
 T6 => S176 [3, 0, 1, 1, 0, 0, 1, 1, 0, 0, 1, 1, 0, 2, 0, 2] 
 T1 => S197 [1, 1, 0, 1, 0, 0, 1, 1, 0, 0, 1, 1, 1, 1, 0, 2] 
 T7 => S207 [2, 0, 1, 1, 0, 0, 1, 1, 0, 0, 1, 0, 1, 0, 1, 1] 
 T9 => S222 [2, 0, 1, 1, 0, 0, 0, 2, 0, 1, 0, 1, 1, 1, 0, 2] 
 T10 => S228 [2, 0, 1, 1, 0, 0, 2, 0, 0, 0, 1, 2, 1, 1, 0, 2] 
 
 Reachable states from S207 [2, 0, 1, 1, 0, 0, 1, 1, 0, 0, 1, 0, 1, 0, 1, 1] 
 T6 => S173 [3, 0, 1, 1, 0, 0, 1, 1, 0, 0, 1, 0, 0, 1, 1, 1] 
 T1 => S208 [1, 1, 0, 1, 0, 0, 1, 1, 0, 0, 1, 0, 1, 0, 1, 1] 
 T9 => S211 [2, 0, 1, 1, 0, 0, 0, 2, 0, 1, 0, 0, 1, 0, 1, 1] 
 T10 => S217 [2, 0, 1, 1, 0, 0, 2, 0, 0, 0, 1, 1, 1, 0, 1, 1] 
 
 Reachable states from S208 [1, 1, 0, 1, 0, 0, 1, 1, 0, 0, 1, 0, 1, 0, 1, 1] 
 T6 => S165 [2, 1, 0, 1, 0, 0, 1, 1, 0, 0, 1, 0, 0, 1, 1, 1] 
 T2 => S209 [1, 0, 1, 0, 1, 0, 1, 1, 0, 0, 1, 0, 1, 0, 1, 1] 
 T9 => S212 [1, 1, 0, 1, 0, 0, 0, 2, 0, 1, 0, 0, 1, 0, 1, 1] 
 T10 => S216 [1, 1, 0, 1, 0, 0, 2, 0, 0, 0, 1, 1, 1, 0, 1, 1] 
 T3 => S220 [1, 0, 1, 1, 0, 1, 0, 1, 0, 0, 1, 0, 1, 0, 1, 1] 
 
 Reachable states from S209 [1, 0, 1, 0, 1, 0, 1, 1, 0, 0, 1, 0, 1, 0, 1, 1] 
 T6 => S153 [2, 0, 1, 0, 1, 0, 1, 1, 0, 0, 1, 0, 0, 1, 1, 1] 
 T1 => S200 [0, 1, 0, 0, 1, 0, 1, 1, 0, 0, 1, 0, 1, 0, 1, 1] 
 T11 => S207 [2, 0, 1, 1, 0, 0, 1, 1, 0, 0, 1, 0, 1, 0, 1, 1] 
 T9 => S210 [1, 0, 1, 0, 1, 0, 0, 2, 0, 1, 0, 0, 1, 0, 1, 1] 
 T10 => S214 [1, 0, 1, 0, 1, 0, 2, 0, 0, 0, 1, 1, 1, 0, 1, 1] 
 
 Reachable states from S210 [1, 0, 1, 0, 1, 0, 0, 2, 0, 1, 0, 0, 1, 0, 1, 1] 
 T10 => S74 [1, 0, 1, 0, 1, 0, 1, 1, 0, 1, 0, 1, 1, 0, 1, 1] 
 T6 => S154 [2, 0, 1, 0, 1, 0, 0, 2, 0, 1, 0, 0, 0, 1, 1, 1] 
 T1 => S201 [0, 1, 0, 0, 1, 0, 0, 2, 0, 1, 0, 0, 1, 0, 1, 1] 
 T8 => S204 [1, 0, 1, 0, 1, 0, 0, 2, 0, 0, 1, 0, 1, 1, 0, 2] 
 T11 => S211 [2, 0, 1, 1, 0, 0, 0, 2, 0, 1, 0, 0, 1, 0, 1, 1] 
 
 Reachable states from S211 [2, 0, 1, 1, 0, 0, 0, 2, 0, 1, 0, 0, 1, 0, 1, 1] 
 T6 => S174 [3, 0, 1, 1, 0, 0, 0, 2, 0, 1, 0, 0, 0, 1, 1, 1] 
 T8 => S205 [2, 0, 1, 1, 0, 0, 0, 2, 0, 0, 1, 0, 1, 1, 0, 2] 
 T1 => S212 [1, 1, 0, 1, 0, 0, 0, 2, 0, 1, 0, 0, 1, 0, 1, 1] 
 T10 => S213 [2, 0, 1, 1, 0, 0, 1, 1, 0, 1, 0, 1, 1, 0, 1, 1] 
 
 Reachable states from S212 [1, 1, 0, 1, 0, 0, 0, 2, 0, 1, 0, 0, 1, 0, 1, 1] 
 T6 => S160 [2, 1, 0, 1, 0, 0, 0, 2, 0, 1, 0, 0, 0, 1, 1, 1] 
 T10 => S196 [1, 1, 0, 1, 0, 0, 1, 1, 0, 1, 0, 1, 1, 0, 1, 1] 
 T8 => S203 [1, 1, 0, 1, 0, 0, 0, 2, 0, 0, 1, 0, 1, 1, 0, 2] 
 T2 => S210 [1, 0, 1, 0, 1, 0, 0, 2, 0, 1, 0, 0, 1, 0, 1, 1] 
 
 Reachable states from S213 [2, 0, 1, 1, 0, 0, 1, 1, 0, 1, 0, 1, 1, 0, 1, 1] 
 T10 => S141 [2, 0, 1, 1, 0, 0, 2, 0, 0, 1, 0, 2, 1, 0, 1, 1] 
 T6 => S169 [3, 0, 1, 1, 0, 0, 1, 1, 0, 1, 0, 1, 0, 1, 1, 1] 
 T1 => S196 [1, 1, 0, 1, 0, 0, 1, 1, 0, 1, 0, 1, 1, 0, 1, 1] 
 T8 => S206 [2, 0, 1, 1, 0, 0, 1, 1, 0, 0, 1, 1, 1, 1, 0, 2] 
 
 Reachable states from S214 [1, 0, 1, 0, 1, 0, 2, 0, 0, 0, 1, 1, 1, 0, 1, 1] 
 T9 => S74 [1, 0, 1, 0, 1, 0, 1, 1, 0, 1, 0, 1, 1, 0, 1, 1] 
 T6 => S167 [2, 0, 1, 0, 1, 0, 2, 0, 0, 0, 1, 1, 0, 1, 1, 1] 
 T1 => S215 [0, 1, 0, 0, 1, 0, 2, 0, 0, 0, 1, 1, 1, 0, 1, 1] 
 T11 => S217 [2, 0, 1, 1, 0, 0, 2, 0, 0, 0, 1, 1, 1, 0, 1, 1] 
 
 Reachable states from S215 [0, 1, 0, 0, 1, 0, 2, 0, 0, 0, 1, 1, 1, 0, 1, 1] 
 T9 => S75 [0, 1, 0, 0, 1, 0, 1, 1, 0, 1, 0, 1, 1, 0, 1, 1] 
 T3 => S134 [0, 0, 1, 0, 1, 1, 1, 0, 0, 0, 1, 1, 1, 0, 1, 1] 
 T6 => S148 [1, 1, 0, 0, 1, 0, 2, 0, 0, 0, 1, 1, 0, 1, 1, 1] 
 T11 => S216 [1, 1, 0, 1, 0, 0, 2, 0, 0, 0, 1, 1, 1, 0, 1, 1] 
 
 Reachable states from S216 [1, 1, 0, 1, 0, 0, 2, 0, 0, 0, 1, 1, 1, 0, 1, 1] 
 T3 => S135 [1, 0, 1, 1, 0, 1, 1, 0, 0, 0, 1, 1, 1, 0, 1, 1] 
 T6 => S166 [2, 1, 0, 1, 0, 0, 2, 0, 0, 0, 1, 1, 0, 1, 1, 1] 
 T9 => S196 [1, 1, 0, 1, 0, 0, 1, 1, 0, 1, 0, 1, 1, 0, 1, 1] 
 T2 => S214 [1, 0, 1, 0, 1, 0, 2, 0, 0, 0, 1, 1, 1, 0, 1, 1] 
 
 Reachable states from S217 [2, 0, 1, 1, 0, 0, 2, 0, 0, 0, 1, 1, 1, 0, 1, 1] 
 T9 => S213 [2, 0, 1, 1, 0, 0, 1, 1, 0, 1, 0, 1, 1, 0, 1, 1] 
 T1 => S216 [1, 1, 0, 1, 0, 0, 2, 0, 0, 0, 1, 1, 1, 0, 1, 1] 
 T6 => S218 [3, 0, 1, 1, 0, 0, 2, 0, 0, 0, 1, 1, 0, 1, 1, 1] 
 
 Reachable states from S218 [3, 0, 1, 1, 0, 0, 2, 0, 0, 0, 1, 1, 0, 1, 1, 1] 
 T1 => S166 [2, 1, 0, 1, 0, 0, 2, 0, 0, 0, 1, 1, 0, 1, 1, 1] 
 T9 => S169 [3, 0, 1, 1, 0, 0, 1, 1, 0, 1, 0, 1, 0, 1, 1, 1] 
 T7 => S219 [3, 0, 1, 1, 0, 0, 2, 0, 0, 0, 1, 0, 0, 0, 2, 0] 
 
 Reachable states from S219 [3, 0, 1, 1, 0, 0, 2, 0, 0, 0, 1, 0, 0, 0, 2, 0] 
 T1 => S150 [2, 1, 0, 1, 0, 0, 2, 0, 0, 0, 1, 0, 0, 0, 2, 0] 
 T9 => S172 [3, 0, 1, 1, 0, 0, 1, 1, 0, 1, 0, 0, 0, 0, 2, 0] 
 
 Reachable states from S220 [1, 0, 1, 1, 0, 1, 0, 1, 0, 0, 1, 0, 1, 0, 1, 1] 
 T6 => S122 [2, 0, 1, 1, 0, 1, 0, 1, 0, 0, 1, 0, 0, 1, 1, 1] 
 T10 => S135 [1, 0, 1, 1, 0, 1, 1, 0, 0, 0, 1, 1, 1, 0, 1, 1] 
 T1 => S221 [0, 1, 0, 1, 0, 1, 0, 1, 0, 0, 1, 0, 1, 0, 1, 1] 
 
 Reachable states from S221 [0, 1, 0, 1, 0, 1, 0, 1, 0, 0, 1, 0, 1, 0, 1, 1] 
 T6 => S55 [1, 1, 0, 1, 0, 1, 0, 1, 0, 0, 1, 0, 0, 1, 1, 1] 
 T2 => S133 [0, 0, 1, 0, 1, 1, 0, 1, 0, 0, 1, 0, 1, 0, 1, 1] 
 T10 => S136 [0, 1, 0, 1, 0, 1, 1, 0, 0, 0, 1, 1, 1, 0, 1, 1] 
 
 Reachable states from S222 [2, 0, 1, 1, 0, 0, 0, 2, 0, 1, 0, 1, 1, 1, 0, 2] 
 T6 => S177 [3, 0, 1, 1, 0, 0, 0, 2, 0, 1, 0, 1, 0, 2, 0, 2] 
 T7 => S211 [2, 0, 1, 1, 0, 0, 0, 2, 0, 1, 0, 0, 1, 0, 1, 1] 
 T1 => S223 [1, 1, 0, 1, 0, 0, 0, 2, 0, 1, 0, 1, 1, 1, 0, 2] 
 T10 => S226 [2, 0, 1, 1, 0, 0, 1, 1, 0, 1, 0, 2, 1, 1, 0, 2] 
 
 Reachable states from S223 [1, 1, 0, 1, 0, 0, 0, 2, 0, 1, 0, 1, 1, 1, 0, 2] 
 T6 => S159 [2, 1, 0, 1, 0, 0, 0, 2, 0, 1, 0, 1, 0, 2, 0, 2] 
 T10 => S194 [1, 1, 0, 1, 0, 0, 1, 1, 0, 1, 0, 2, 1, 1, 0, 2] 
 T7 => S212 [1, 1, 0, 1, 0, 0, 0, 2, 0, 1, 0, 0, 1, 0, 1, 1] 
 T2 => S224 [1, 0, 1, 0, 1, 0, 0, 2, 0, 1, 0, 1, 1, 1, 0, 2] 
 
 Reachable states from S224 [1, 0, 1, 0, 1, 0, 0, 2, 0, 1, 0, 1, 1, 1, 0, 2] 
 T10 => S91 [1, 0, 1, 0, 1, 0, 1, 1, 0, 1, 0, 2, 1, 1, 0, 2] 
 T6 => S157 [2, 0, 1, 0, 1, 0, 0, 2, 0, 1, 0, 1, 0, 2, 0, 2] 
 T7 => S210 [1, 0, 1, 0, 1, 0, 0, 2, 0, 1, 0, 0, 1, 0, 1, 1] 
 T11 => S222 [2, 0, 1, 1, 0, 0, 0, 2, 0, 1, 0, 1, 1, 1, 0, 2] 
 T1 => S225 [0, 1, 0, 0, 1, 0, 0, 2, 0, 1, 0, 1, 1, 1, 0, 2] 
 
 Reachable states from S225 [0, 1, 0, 0, 1, 0, 0, 2, 0, 1, 0, 1, 1, 1, 0, 2] 
 T10 => S92 [0, 1, 0, 0, 1, 0, 1, 1, 0, 1, 0, 2, 1, 1, 0, 2] 
 T6 => S158 [1, 1, 0, 0, 1, 0, 0, 2, 0, 1, 0, 1, 0, 2, 0, 2] 
 T7 => S201 [0, 1, 0, 0, 1, 0, 0, 2, 0, 1, 0, 0, 1, 0, 1, 1] 
 T11 => S223 [1, 1, 0, 1, 0, 0, 0, 2, 0, 1, 0, 1, 1, 1, 0, 2] 
 
 Reachable states from S226 [2, 0, 1, 1, 0, 0, 1, 1, 0, 1, 0, 2, 1, 1, 0, 2] 
 T6 => S178 [3, 0, 1, 1, 0, 0, 1, 1, 0, 1, 0, 2, 0, 2, 0, 2] 
 T1 => S194 [1, 1, 0, 1, 0, 0, 1, 1, 0, 1, 0, 2, 1, 1, 0, 2] 
 T7 => S213 [2, 0, 1, 1, 0, 0, 1, 1, 0, 1, 0, 1, 1, 0, 1, 1] 
 T10 => S227 [2, 0, 1, 1, 0, 0, 2, 0, 0, 1, 0, 3, 1, 1, 0, 2] 
 
 Reachable states from S227 [2, 0, 1, 1, 0, 0, 2, 0, 0, 1, 0, 3, 1, 1, 0, 2] 
 T6 => S0 [3, 0, 1, 1, 0, 0, 2, 0, 0, 1, 0, 3, 0, 2, 0, 2] 
 T1 => S109 [1, 1, 0, 1, 0, 0, 2, 0, 0, 1, 0, 3, 1, 1, 0, 2] 
 T7 => S141 [2, 0, 1, 1, 0, 0, 2, 0, 0, 1, 0, 2, 1, 0, 1, 1] 
 
 Reachable states from S228 [2, 0, 1, 1, 0, 0, 2, 0, 0, 0, 1, 2, 1, 1, 0, 2] 
 T7 => S217 [2, 0, 1, 1, 0, 0, 2, 0, 0, 0, 1, 1, 1, 0, 1, 1] 
 T9 => S226 [2, 0, 1, 1, 0, 0, 1, 1, 0, 1, 0, 2, 1, 1, 0, 2] 
 T1 => S229 [1, 1, 0, 1, 0, 0, 2, 0, 0, 0, 1, 2, 1, 1, 0, 2] 
 T6 => S238 [3, 0, 1, 1, 0, 0, 2, 0, 0, 0, 1, 2, 0, 2, 0, 2] 
 
 Reachable states from S229 [1, 1, 0, 1, 0, 0, 2, 0, 0, 0, 1, 2, 1, 1, 0, 2] 
 T9 => S194 [1, 1, 0, 1, 0, 0, 1, 1, 0, 1, 0, 2, 1, 1, 0, 2] 
 T7 => S216 [1, 1, 0, 1, 0, 0, 2, 0, 0, 0, 1, 1, 1, 0, 1, 1] 
 T2 => S230 [1, 0, 1, 0, 1, 0, 2, 0, 0, 0, 1, 2, 1, 1, 0, 2] 
 T3 => S233 [1, 0, 1, 1, 0, 1, 1, 0, 0, 0, 1, 2, 1, 1, 0, 2] 
 T6 => S236 [2, 1, 0, 1, 0, 0, 2, 0, 0, 0, 1, 2, 0, 2, 0, 2] 
 
 Reachable states from S230 [1, 0, 1, 0, 1, 0, 2, 0, 0, 0, 1, 2, 1, 1, 0, 2] 
 T9 => S91 [1, 0, 1, 0, 1, 0, 1, 1, 0, 1, 0, 2, 1, 1, 0, 2] 
 T7 => S214 [1, 0, 1, 0, 1, 0, 2, 0, 0, 0, 1, 1, 1, 0, 1, 1] 
 T11 => S228 [2, 0, 1, 1, 0, 0, 2, 0, 0, 0, 1, 2, 1, 1, 0, 2] 
 T1 => S231 [0, 1, 0, 0, 1, 0, 2, 0, 0, 0, 1, 2, 1, 1, 0, 2] 
 T6 => S237 [2, 0, 1, 0, 1, 0, 2, 0, 0, 0, 1, 2, 0, 2, 0, 2] 
 
 Reachable states from S231 [0, 1, 0, 0, 1, 0, 2, 0, 0, 0, 1, 2, 1, 1, 0, 2] 
 T9 => S92 [0, 1, 0, 0, 1, 0, 1, 1, 0, 1, 0, 2, 1, 1, 0, 2] 
 T7 => S215 [0, 1, 0, 0, 1, 0, 2, 0, 0, 0, 1, 1, 1, 0, 1, 1] 
 T11 => S229 [1, 1, 0, 1, 0, 0, 2, 0, 0, 0, 1, 2, 1, 1, 0, 2] 
 T3 => S232 [0, 0, 1, 0, 1, 1, 1, 0, 0, 0, 1, 2, 1, 1, 0, 2] 
 T6 => S235 [1, 1, 0, 0, 1, 0, 2, 0, 0, 0, 1, 2, 0, 2, 0, 2] 
 
 Reachable states from S232 [0, 0, 1, 0, 1, 1, 1, 0, 0, 0, 1, 2, 1, 1, 0, 2] 
 T9 => S88 [0, 0, 1, 0, 1, 1, 0, 1, 0, 1, 0, 2, 1, 1, 0, 2] 
 T6 => S117 [1, 0, 1, 0, 1, 1, 1, 0, 0, 0, 1, 2, 0, 2, 0, 2] 
 T7 => S134 [0, 0, 1, 0, 1, 1, 1, 0, 0, 0, 1, 1, 1, 0, 1, 1] 
 T11 => S233 [1, 0, 1, 1, 0, 1, 1, 0, 0, 0, 1, 2, 1, 1, 0, 2] 
 
 Reachable states from S233 [1, 0, 1, 1, 0, 1, 1, 0, 0, 0, 1, 2, 1, 1, 0, 2] 
 T6 => S118 [2, 0, 1, 1, 0, 1, 1, 0, 0, 0, 1, 2, 0, 2, 0, 2] 
 T7 => S135 [1, 0, 1, 1, 0, 1, 1, 0, 0, 0, 1, 1, 1, 0, 1, 1] 
 T9 => S195 [1, 0, 1, 1, 0, 1, 0, 1, 0, 1, 0, 2, 1, 1, 0, 2] 
 T1 => S234 [0, 1, 0, 1, 0, 1, 1, 0, 0, 0, 1, 2, 1, 1, 0, 2] 
 
 Reachable states from S234 [0, 1, 0, 1, 0, 1, 1, 0, 0, 0, 1, 2, 1, 1, 0, 2] 
 T3 => S39 [0, 0, 1, 1, 0, 2, 0, 0, 0, 0, 1, 2, 1, 1, 0, 2] 
 T6 => S116 [1, 1, 0, 1, 0, 1, 1, 0, 0, 0, 1, 2, 0, 2, 0, 2] 
 T7 => S136 [0, 1, 0, 1, 0, 1, 1, 0, 0, 0, 1, 1, 1, 0, 1, 1] 
 T9 => S186 [0, 1, 0, 1, 0, 1, 0, 1, 0, 1, 0, 2, 1, 1, 0, 2] 
 T2 => S232 [0, 0, 1, 0, 1, 1, 1, 0, 0, 0, 1, 2, 1, 1, 0, 2] 
 
 Reachable states from S235 [1, 1, 0, 0, 1, 0, 2, 0, 0, 0, 1, 2, 0, 2, 0, 2] 
 T9 => S93 [1, 1, 0, 0, 1, 0, 1, 1, 0, 1, 0, 2, 0, 2, 0, 2] 
 T3 => S117 [1, 0, 1, 0, 1, 1, 1, 0, 0, 0, 1, 2, 0, 2, 0, 2] 
 T7 => S148 [1, 1, 0, 0, 1, 0, 2, 0, 0, 0, 1, 1, 0, 1, 1, 1] 
 T11 => S236 [2, 1, 0, 1, 0, 0, 2, 0, 0, 0, 1, 2, 0, 2, 0, 2] 
 
 Reachable states from S236 [2, 1, 0, 1, 0, 0, 2, 0, 0, 0, 1, 2, 0, 2, 0, 2] 
 T3 => S118 [2, 0, 1, 1, 0, 1, 1, 0, 0, 0, 1, 2, 0, 2, 0, 2] 
 T7 => S166 [2, 1, 0, 1, 0, 0, 2, 0, 0, 0, 1, 1, 0, 1, 1, 1] 
 T9 => S179 [2, 1, 0, 1, 0, 0, 1, 1, 0, 1, 0, 2, 0, 2, 0, 2] 
 T2 => S237 [2, 0, 1, 0, 1, 0, 2, 0, 0, 0, 1, 2, 0, 2, 0, 2] 
 
 Reachable states from S237 [2, 0, 1, 0, 1, 0, 2, 0, 0, 0, 1, 2, 0, 2, 0, 2] 
 T7 => S167 [2, 0, 1, 0, 1, 0, 2, 0, 0, 0, 1, 1, 0, 1, 1, 1] 
 T9 => S180 [2, 0, 1, 0, 1, 0, 1, 1, 0, 1, 0, 2, 0, 2, 0, 2] 
 T1 => S235 [1, 1, 0, 0, 1, 0, 2, 0, 0, 0, 1, 2, 0, 2, 0, 2] 
 T11 => S238 [3, 0, 1, 1, 0, 0, 2, 0, 0, 0, 1, 2, 0, 2, 0, 2] 
 
 Reachable states from S238 [3, 0, 1, 1, 0, 0, 2, 0, 0, 0, 1, 2, 0, 2, 0, 2] 
 T9 => S178 [3, 0, 1, 1, 0, 0, 1, 1, 0, 1, 0, 2, 0, 2, 0, 2] 
 T7 => S218 [3, 0, 1, 1, 0, 0, 2, 0, 0, 0, 1, 1, 0, 1, 1, 1] 
 T1 => S236 [2, 1, 0, 1, 0, 0, 2, 0, 0, 0, 1, 2, 0, 2, 0, 2] 
 
 Reachable states from S239 [1, 0, 1, 1, 0, 1, 0, 1, 0, 0, 1, 1, 1, 1, 0, 2] 
 T1 => S131 [0, 1, 0, 1, 0, 1, 0, 1, 0, 0, 1, 1, 1, 1, 0, 2] 
 T6 => S163 [2, 0, 1, 1, 0, 1, 0, 1, 0, 0, 1, 1, 0, 2, 0, 2] 
 T7 => S220 [1, 0, 1, 1, 0, 1, 0, 1, 0, 0, 1, 0, 1, 0, 1, 1] 
 T10 => S233 [1, 0, 1, 1, 0, 1, 1, 0, 0, 0, 1, 2, 1, 1, 0, 2] 
 
 Reachable states from S240 [1, 0, 1, 1, 0, 0, 2, 0, 0, 1, 0, 3, 2, 0, 0, 2] 
 T1 => S108 [0, 1, 0, 1, 0, 0, 2, 0, 0, 1, 0, 3, 2, 0, 0, 2] 
 T6 => S227 [2, 0, 1, 1, 0, 0, 2, 0, 0, 1, 0, 3, 1, 1, 0, 2] 
 
 Reachable states from S241 [2, 0, 1, 1, 0, 0, 1, 1, 1, 0, 0, 2, 0, 2, 0, 1] 
 T7 => S124 [2, 0, 1, 1, 0, 0, 1, 1, 1, 0, 0, 1, 0, 1, 1, 0] 
 T1 => S183 [1, 1, 0, 1, 0, 0, 1, 1, 1, 0, 0, 2, 0, 2, 0, 1] 
 T5 => S226 [2, 0, 1, 1, 0, 0, 1, 1, 0, 1, 0, 2, 1, 1, 0, 2] 
 T10 => S242 [2, 0, 1, 1, 0, 0, 2, 0, 1, 0, 0, 3, 0, 2, 0, 1] 
 
 Reachable states from S242 [2, 0, 1, 1, 0, 0, 2, 0, 1, 0, 0, 3, 0, 2, 0, 1] 
 T1 => S98 [1, 1, 0, 1, 0, 0, 2, 0, 1, 0, 0, 3, 0, 2, 0, 1] 
 T7 => S140 [2, 0, 1, 1, 0, 0, 2, 0, 1, 0, 0, 2, 0, 1, 1, 0] 
 T5 => S227 [2, 0, 1, 1, 0, 0, 2, 0, 0, 1, 0, 3, 1, 1, 0, 2] 
 
 Reachable states from S243 [2, 0, 1, 1, 0, 1, 1, 0, 0, 1, 0, 3, 0, 2, 0, 2] 
 T1 => S112 [1, 1, 0, 1, 0, 1, 1, 0, 0, 1, 0, 3, 0, 2, 0, 2] 
 T7 => S144 [2, 0, 1, 1, 0, 1, 1, 0, 0, 1, 0, 2, 0, 1, 1, 1] 
 T4 => S242 [2, 0, 1, 1, 0, 0, 2, 0, 1, 0, 0, 3, 0, 2, 0, 1] 
 
 Reachable states from S244 [3, 0, 1, 1, 0, 0, 2, 0, 0, 1, 0, 1, 0, 0, 2, 0] 
 T1 => S145 [2, 1, 0, 1, 0, 0, 2, 0, 0, 1, 0, 1, 0, 0, 2, 0] 
 T8 => S218 [3, 0, 1, 1, 0, 0, 2, 0, 0, 0, 1, 1, 0, 1, 1, 1] 
 
 Reachable states from S245 [1, 0, 1, 1, 0, 1, 1, 0, 0, 1, 0, 2, 1, 0, 1, 1] 
 T1 => S41 [0, 1, 0, 1, 0, 1, 1, 0, 0, 1, 0, 2, 1, 0, 1, 1] 
 T4 => S139 [1, 0, 1, 1, 0, 0, 2, 0, 1, 0, 0, 2, 1, 0, 1, 0] 
 T6 => S144 [2, 0, 1, 1, 0, 1, 1, 0, 0, 1, 0, 2, 0, 1, 1, 1] 
 T8 => S233 [1, 0, 1, 1, 0, 1, 1, 0, 0, 0, 1, 2, 1, 1, 0, 2] 
