 Minimal siphons 
1 4 10 12 16 21 26 28 32 33 34
10 26 30
4 7
3 9 12 16 21 28 32
26 27 28 29
21 22
20 24
16 17 18
12 13 15
35 9 19
19 23
12 14
35 9 19 20
35 9 19 20 21
19 20 21 25
3 5
35 3 5 9 21 22 24
36 3 9 21 22
36 3 9 20 24
36 3 9 19 20
36 3 9 20 21 24
36 3 9 19 20 21
36 35 3 9 21 22 24
36 35 3 9 20 24
36 35 3 9 19 20
36 35 3 9 20 21 24
36 35 3 9 19 20 21
36 35 3 9 19 21 22
35 3 5 9 20 24
35 3 5 9 19
35 3 5 9 19 20
35 3 5 9 20 21 24
35 3 5 9 19 20 21
35 3 5 9 19 21 22
35 3 5 9 12 13 15 21 22 24
36 3 9 12 13 15 21 22
36 3 9 12 14 21 22
36 3 9 12 14 20 24
36 3 9 12 14 19 20
36 3 9 12 14 20 21 24
36 3 9 12 14 19 20 21
36 3 9 12 13 14 21 22
36 3 9 12 13 14 20 24
36 3 9 12 13 14 19 20
36 3 9 12 13 14 20 21 24
36 3 9 12 13 14 19 20 21
36 3 9 12 13 15 20 24
36 3 9 12 13 15 19 20
36 3 9 12 13 15 20 21 24
36 3 9 12 13 15 19 20 21
36 35 3 9 12 13 15 21 22 24
36 35 3 9 12 14 21 22 24
36 35 3 9 12 14 20 24
36 35 3 9 12 14 19 20
36 35 3 9 12 14 20 21 24
36 35 3 9 12 14 19 20 21
36 35 3 9 12 14 19 21 22
36 35 3 9 12 13 14 21 22 24
36 35 3 9 12 13 14 20 24
36 35 3 9 12 13 14 19 20
36 35 3 9 12 13 14 20 21 24
36 35 3 9 12 13 14 19 20 21
36 35 3 9 12 13 14 19 21 22
36 35 3 9 12 13 15 20 24
36 35 3 9 12 13 15 19 20
36 35 3 9 12 13 15 20 21 24
36 35 3 9 12 13 15 19 20 21
36 35 3 9 12 13 15 19 21 22
35 3 5 9 12 14 21 22 24
35 3 5 9 12 14 20 24
35 3 5 9 12 14 19
35 3 5 9 12 14 19 20
35 3 5 9 12 14 20 21 24
35 3 5 9 12 14 19 20 21
35 3 5 9 12 14 19 21 22
35 3 5 9 12 13 14 21 22 24
35 3 5 9 12 13 14 20 24
35 3 5 9 12 13 14 19
35 3 5 9 12 13 14 19 20
35 3 5 9 12 13 14 20 21 24
35 3 5 9 12 13 14 19 20 21
35 3 5 9 12 13 14 19 21 22
35 3 5 9 12 13 15 20 24
35 3 5 9 12 13 15 19
35 3 5 9 12 13 15 19 20
35 3 5 9 12 13 15 20 21 24
35 3 5 9 12 13 15 19 20 21
35 3 5 9 12 13 15 19 21 22
35 3 5 9 12 13 15 16 17 18 20 24
36 3 9 12 13 15 16 17 18 20 24
36 3 9 12 14 16 17 18 20 24
36 3 9 12 14 16 17 18 19 20
36 3 9 12 13 14 16 17 18 20 24
36 3 9 12 13 14 16 17 18 19 20
36 3 9 12 13 15 16 17 18 19 20
36 35 3 9 12 13 15 16 17 18 20 24
36 35 3 9 12 14 16 17 18 20 24
36 35 3 9 12 14 16 17 18 19 20
36 35 3 9 12 13 14 16 17 18 20 24
36 35 3 9 12 13 14 16 17 18 19 20
36 35 3 9 12 13 15 16 17 18 19 20
35 3 5 9 12 14 16 17 18 20 24
35 3 5 9 12 14 16 17 18 19
35 3 5 9 12 14 16 17 18 19 20
35 3 5 9 12 13 14 16 17 18 20 24
35 3 5 9 12 13 14 16 17 18 19
35 3 5 9 12 13 14 16 17 18 19 20
35 3 5 9 12 13 15 16 17 18 19
35 3 5 9 12 13 15 16 17 18 19 20
3 4 5
35 3 4 5 9 21 22 24
36 3 4 9 21 22
36 3 4 9 20 24
36 3 4 9 19 20
36 3 4 9 20 21 24
36 3 4 9 19 20 21
36 35 3 4 9 21 22 24
36 35 3 4 9 20 24
36 35 3 4 9 19 20
36 35 3 4 9 20 21 24
36 35 3 4 9 19 20 21
36 35 3 4 9 19 21 22
35 3 4 5 9 20 24
35 3 4 5 9 19
35 3 4 5 9 19 20
35 3 4 5 9 20 21 24
35 3 4 5 9 19 20 21
35 3 4 5 9 19 21 22
35 3 4 5 9 12 13 15 21 22 24
36 3 4 9 12 13 15 21 22
36 3 4 9 12 14 21 22
36 3 4 9 12 14 20 24
36 3 4 9 12 14 19 20
36 3 4 9 12 14 20 21 24
36 3 4 9 12 14 19 20 21
36 3 4 9 12 13 14 21 22
36 3 4 9 12 13 14 20 24
36 3 4 9 12 13 14 19 20
36 3 4 9 12 13 14 20 21 24
36 3 4 9 12 13 14 19 20 21
36 3 4 9 12 13 15 20 24
36 3 4 9 12 13 15 19 20
36 3 4 9 12 13 15 20 21 24
36 3 4 9 12 13 15 19 20 21
36 35 3 4 9 12 13 15 21 22 24
36 35 3 4 9 12 14 21 22 24
36 35 3 4 9 12 14 20 24
36 35 3 4 9 12 14 19 20
36 35 3 4 9 12 14 20 21 24
36 35 3 4 9 12 14 19 20 21
36 35 3 4 9 12 14 19 21 22
36 35 3 4 9 12 13 14 21 22 24
36 35 3 4 9 12 13 14 20 24
36 35 3 4 9 12 13 14 19 20
36 35 3 4 9 12 13 14 20 21 24
36 35 3 4 9 12 13 14 19 20 21
36 35 3 4 9 12 13 14 19 21 22
36 35 3 4 9 12 13 15 20 24
36 35 3 4 9 12 13 15 19 20
36 35 3 4 9 12 13 15 20 21 24
36 35 3 4 9 12 13 15 19 20 21
36 35 3 4 9 12 13 15 19 21 22
35 3 4 5 9 12 14 21 22 24
35 3 4 5 9 12 14 20 24
35 3 4 5 9 12 14 19
35 3 4 5 9 12 14 19 20
35 3 4 5 9 12 14 20 21 24
35 3 4 5 9 12 14 19 20 21
35 3 4 5 9 12 14 19 21 22
35 3 4 5 9 12 13 14 21 22 24
35 3 4 5 9 12 13 14 20 24
35 3 4 5 9 12 13 14 19
35 3 4 5 9 12 13 14 19 20
35 3 4 5 9 12 13 14 20 21 24
35 3 4 5 9 12 13 14 19 20 21
35 3 4 5 9 12 13 14 19 21 22
35 3 4 5 9 12 13 15 20 24
35 3 4 5 9 12 13 15 19
35 3 4 5 9 12 13 15 19 20
35 3 4 5 9 12 13 15 20 21 24
35 3 4 5 9 12 13 15 19 20 21
35 3 4 5 9 12 13 15 19 21 22
35 3 4 5 9 12 13 15 16 17 18 20 24
36 3 4 9 12 13 15 16 17 18 20 24
36 3 4 9 12 14 16 17 18 20 24
36 3 4 9 12 14 16 17 18 19 20
36 3 4 9 12 13 14 16 17 18 20 24
36 3 4 9 12 13 14 16 17 18 19 20
36 3 4 9 12 13 15 16 17 18 19 20
36 35 3 4 9 12 13 15 16 17 18 20 24
36 35 3 4 9 12 14 16 17 18 20 24
36 35 3 4 9 12 14 16 17 18 19 20
36 35 3 4 9 12 13 14 16 17 18 20 24
36 35 3 4 9 12 13 14 16 17 18 19 20
36 35 3 4 9 12 13 15 16 17 18 19 20
35 3 4 5 9 12 14 16 17 18 20 24
35 3 4 5 9 12 14 16 17 18 19
35 3 4 5 9 12 14 16 17 18 19 20
35 3 4 5 9 12 13 14 16 17 18 20 24
35 3 4 5 9 12 13 14 16 17 18 19
35 3 4 5 9 12 13 14 16 17 18 19 20
35 3 4 5 9 12 13 15 16 17 18 19
35 3 4 5 9 12 13 15 16 17 18 19 20
4 10 12 16 21 24 28 32 33
9 10 11
35 9 10 19
35 9 10 19 20
35 9 10 19 20 21
3 5 9 10 11
36 3 9 10 19 20
36 3 9 10 19 20 21
36 3 5 9 10 19 20
36 3 5 9 10 19 20 21
35 3 5 9 10 19
35 3 5 9 10 19 20
35 3 5 9 10 19 20 21
3 5 9 10 11 12 13 15
3 5 9 10 11 12 14
3 5 9 10 11 12 13 14
3 5 9 10 11 12 13 15 16 17 18
3 5 9 10 11 12 14 16 17 18
3 5 9 10 11 12 13 14 16 17 18
4 10 19 33
4 7 9 10 11
3 4 5 9 10 11
35 3 4 5 9 10 19
35 3 4 5 9 10 11 19
35 4 7 9 10 19
35 4 7 9 10 11 19
4 10 19 20 33
36 3 4 9 10 19 20
35 3 4 5 9 10 19 20
36 3 4 5 9 10 19 20
35 3 4 5 9 10 11 19 20
36 3 4 5 9 10 11 19 20
35 4 7 9 10 19 20
36 4 7 9 10 19 20
35 4 7 9 10 11 19 20
36 4 7 9 10 11 19 20
4 10 19 20 21 33
36 3 4 9 10 19 20 21
35 3 4 5 9 10 19 20 21
36 3 4 5 9 10 19 20 21
35 3 4 5 9 10 11 19 20 21
36 3 4 5 9 10 11 19 20 21
35 4 7 9 10 19 20 21
36 4 7 9 10 19 20 21
35 4 7 9 10 11 19 20 21
36 4 7 9 10 11 19 20 21
4 10 12 19 28 31
4 10 12 16 21 24 28 31 32
1 6
1 35 6 9 21 22 24
1 35 6 9 20 24
1 35 6 9 19
1 35 6 9 19 20
1 35 6 9 20 21 24
1 35 6 9 19 20 21
1 35 6 9 19 21 22
1 35 6 9 12 13 15 21 22 24
1 35 6 9 12 14 21 22 24
1 35 6 9 12 14 20 24
1 35 6 9 12 14 19
1 35 6 9 12 14 19 20
1 35 6 9 12 14 20 21 24
1 35 6 9 12 14 19 20 21
1 35 6 9 12 14 19 21 22
1 35 6 9 12 13 14 21 22 24
1 35 6 9 12 13 14 20 24
1 35 6 9 12 13 14 19
1 35 6 9 12 13 14 19 20
1 35 6 9 12 13 14 20 21 24
1 35 6 9 12 13 14 19 20 21
1 35 6 9 12 13 14 19 21 22
1 35 6 9 12 13 15 20 24
1 35 6 9 12 13 15 19
1 35 6 9 12 13 15 19 20
1 35 6 9 12 13 15 20 21 24
1 35 6 9 12 13 15 19 20 21
1 35 6 9 12 13 15 19 21 22
1 9 12 16 20 26 34
1 35 6 9 12 13 15 16 17 18 19
1 35 6 9 12 14 16 17 18 19
1 35 6 9 12 13 14 16 17 18 19
1 6 10 26 30
1 6 9 10 11
1 35 6 9 10 19
1 35 6 9 10 19 20
1 35 6 9 10 19 20 21
1 6 10 12 13 15 26 30
1 6 10 12 14 26 30
1 6 9 10 11 12 14
1 6 10 12 13 14 26 30
1 6 9 10 11 12 13 14
1 6 9 10 11 12 13 15
1 6 10 12 13 15 16 17 18 26 30
1 6 10 12 14 16 17 18 26 30
1 6 9 10 11 12 14 16 17 18
1 6 10 12 13 14 16 17 18 26 30
1 6 9 10 11 12 13 14 16 17 18
1 6 9 10 11 12 13 15 16 17 18
1 3 5 6
1 2 3 6
1 35 3 5 6 9 21 22 24
1 36 3 6 9 21 22
1 36 3 6 9 20 24
1 36 3 6 9 19 20
1 36 3 6 9 20 21 24
1 36 3 6 9 19 20 21
1 35 2 3 6 9 21 22 24
1 36 35 3 6 9 21 22 24
1 36 35 3 6 9 20 24
1 36 35 3 6 9 19 20
1 36 35 3 6 9 20 21 24
1 36 35 3 6 9 19 20 21
1 36 35 3 6 9 19 21 22
1 35 2 3 6 9 20 24
1 35 2 3 6 9 19
1 35 2 3 6 9 19 20
1 35 2 3 6 9 20 21 24
1 35 2 3 6 9 19 20 21
1 35 2 3 6 9 19 21 22
1 35 3 5 6 9 20 24
1 35 3 5 6 9 19
1 35 3 5 6 9 19 20
1 35 3 5 6 9 20 21 24
1 35 3 5 6 9 19 20 21
1 35 3 5 6 9 19 21 22
1 35 3 5 6 9 12 13 15 21 22 24
1 36 3 6 9 12 13 15 21 22
1 36 3 6 9 12 14 21 22
1 36 3 6 9 12 14 20 24
1 36 3 6 9 12 14 19 20
1 36 3 6 9 12 14 20 21 24
1 36 3 6 9 12 14 19 20 21
1 36 3 6 9 12 13 14 21 22
1 36 3 6 9 12 13 14 20 24
1 36 3 6 9 12 13 14 19 20
1 36 3 6 9 12 13 14 20 21 24
1 36 3 6 9 12 13 14 19 20 21
1 36 3 6 9 12 13 15 20 24
1 36 3 6 9 12 13 15 19 20
1 36 3 6 9 12 13 15 20 21 24
1 36 3 6 9 12 13 15 19 20 21
1 35 2 3 6 9 12 13 15 21 22 24
1 36 35 3 6 9 12 13 15 21 22 24
1 36 35 3 6 9 12 14 21 22 24
1 36 35 3 6 9 12 14 20 24
1 36 35 3 6 9 12 14 19 20
1 36 35 3 6 9 12 14 20 21 24
1 36 35 3 6 9 12 14 19 20 21
1 36 35 3 6 9 12 14 19 21 22
1 36 35 3 6 9 12 13 14 21 22 24
1 36 35 3 6 9 12 13 14 20 24
1 36 35 3 6 9 12 13 14 19 20
1 36 35 3 6 9 12 13 14 20 21 24
1 36 35 3 6 9 12 13 14 19 20 21
1 36 35 3 6 9 12 13 14 19 21 22
1 36 35 3 6 9 12 13 15 20 24
1 36 35 3 6 9 12 13 15 19 20
1 36 35 3 6 9 12 13 15 20 21 24
1 36 35 3 6 9 12 13 15 19 20 21
1 36 35 3 6 9 12 13 15 19 21 22
1 35 2 3 6 9 12 14 21 22 24
1 35 2 3 6 9 12 14 20 24
1 35 2 3 6 9 12 14 19
1 35 2 3 6 9 12 14 19 20
1 35 2 3 6 9 12 14 20 21 24
1 35 2 3 6 9 12 14 19 20 21
1 35 2 3 6 9 12 14 19 21 22
1 35 2 3 6 9 12 13 14 21 22 24
1 35 2 3 6 9 12 13 14 20 24
1 35 2 3 6 9 12 13 14 19
1 35 2 3 6 9 12 13 14 19 20
1 35 2 3 6 9 12 13 14 20 21 24
1 35 2 3 6 9 12 13 14 19 20 21
1 35 2 3 6 9 12 13 14 19 21 22
1 35 2 3 6 9 12 13 15 20 24
1 35 2 3 6 9 12 13 15 19
1 35 2 3 6 9 12 13 15 19 20
1 35 2 3 6 9 12 13 15 20 21 24
1 35 2 3 6 9 12 13 15 19 20 21
1 35 2 3 6 9 12 13 15 19 21 22
1 35 3 5 6 9 12 14 21 22 24
1 35 3 5 6 9 12 14 20 24
1 35 3 5 6 9 12 14 19
1 35 3 5 6 9 12 14 19 20
1 35 3 5 6 9 12 14 20 21 24
1 35 3 5 6 9 12 14 19 20 21
1 35 3 5 6 9 12 14 19 21 22
1 35 3 5 6 9 12 13 14 21 22 24
1 35 3 5 6 9 12 13 14 20 24
1 35 3 5 6 9 12 13 14 19
1 35 3 5 6 9 12 13 14 19 20
1 35 3 5 6 9 12 13 14 20 21 24
1 35 3 5 6 9 12 13 14 19 20 21
1 35 3 5 6 9 12 13 14 19 21 22
1 35 3 5 6 9 12 13 15 20 24
1 35 3 5 6 9 12 13 15 19
1 35 3 5 6 9 12 13 15 19 20
1 35 3 5 6 9 12 13 15 20 21 24
1 35 3 5 6 9 12 13 15 19 20 21
1 35 3 5 6 9 12 13 15 19 21 22
1 35 2 3 6 9 12 13 15 16 17 18 19
1 35 2 3 6 9 12 14 16 17 18 19
1 35 2 3 6 9 12 13 14 16 17 18 19
1 35 3 5 6 9 12 13 15 16 17 18 19
1 35 3 5 6 9 12 14 16 17 18 19
1 35 3 5 6 9 12 13 14 16 17 18 19
1 3 5 6 10 26 30
1 2 3 6 10 26 30
1 36 3 6 10 19 20 26 30
1 36 3 6 9 10 19 20
1 36 3 6 10 19 20 21 26 30
1 36 3 6 9 10 19 20 21
1 2 3 6 9 10 11
1 36 2 3 6 9 10 19 20
1 36 2 3 6 9 10 19 20 21
1 35 2 3 6 9 10 19
1 35 2 3 6 9 10 19 20
1 35 2 3 6 9 10 19 20 21
1 3 5 6 9 10 11
1 36 3 5 6 9 10 19 20
1 36 3 5 6 9 10 19 20 21
1 35 3 5 6 9 10 19
1 35 3 5 6 9 10 19 20
1 35 3 5 6 9 10 19 20 21
1 3 5 6 10 12 13 15 26 30
1 2 3 6 10 12 13 15 26 30
1 2 3 6 10 12 14 26 30
1 2 3 6 9 10 11 12 14
1 2 3 6 10 12 13 14 26 30
1 2 3 6 9 10 11 12 13 14
1 2 3 6 9 10 11 12 13 15
1 3 5 6 10 12 14 26 30
1 3 5 6 9 10 11 12 14
1 3 5 6 10 12 13 14 26 30
1 3 5 6 9 10 11 12 13 14
1 3 5 6 9 10 11 12 13 15
1 2 3 6 10 12 13 15 16 17 18 26 30
1 2 3 6 10 12 14 16 17 18 26 30
1 2 3 6 9 10 11 12 14 16 17 18
1 2 3 6 10 12 13 14 16 17 18 26 30
1 2 3 6 9 10 11 12 13 14 16 17 18
1 2 3 6 9 10 11 12 13 15 16 17 18
1 3 5 6 10 12 13 15 16 17 18 26 30
1 3 5 6 10 12 14 16 17 18 26 30
1 3 5 6 9 10 11 12 14 16 17 18
1 3 5 6 10 12 13 14 16 17 18 26 30
1 3 5 6 9 10 11 12 13 14 16 17 18
1 3 5 6 9 10 11 12 13 15 16 17 18
1 3 4 5 8
1 2 3 4 8
1 2 3 4 6
1 3 4 5 6
1 35 3 4 5 8 9 21 22 24
1 36 3 4 8 9 21 22
1 36 3 4 6 9 21 22
1 36 3 4 6 9 20 24
1 36 3 4 6 9 19 20
1 36 3 4 6 9 20 21 24
1 36 3 4 6 9 19 20 21
1 36 3 4 8 9 20 24
1 36 3 4 8 9 19 20
1 36 3 4 8 9 20 21 24
1 36 3 4 8 9 19 20 21
1 35 2 3 4 8 9 21 22 24
1 36 35 3 4 8 9 21 22 24
1 36 35 3 4 6 9 21 22 24
1 36 35 3 4 6 9 20 24
1 36 35 3 4 6 9 19 20
1 36 35 3 4 6 9 20 21 24
1 36 35 3 4 6 9 19 20 21
1 36 35 3 4 6 9 19 21 22
1 36 35 3 4 8 9 20 24
1 36 35 3 4 8 9 19 20
1 36 35 3 4 8 9 20 21 24
1 36 35 3 4 8 9 19 20 21
1 36 35 3 4 8 9 19 21 22
1 35 2 3 4 6 9 21 22 24
1 35 2 3 4 6 9 20 24
1 35 2 3 4 6 9 19
1 35 2 3 4 6 9 19 20
1 35 2 3 4 6 9 20 21 24
1 35 2 3 4 6 9 19 20 21
1 35 2 3 4 6 9 19 21 22
1 35 2 3 4 8 9 20 24
1 35 2 3 4 8 9 19
1 35 2 3 4 8 9 19 20
1 35 2 3 4 8 9 20 21 24
1 35 2 3 4 8 9 19 20 21
1 35 2 3 4 8 9 19 21 22
1 35 3 4 5 6 9 21 22 24
1 35 3 4 5 6 9 20 24
1 35 3 4 5 6 9 19
1 35 3 4 5 6 9 19 20
1 35 3 4 5 6 9 20 21 24
1 35 3 4 5 6 9 19 20 21
1 35 3 4 5 6 9 19 21 22
1 35 3 4 5 8 9 20 24
1 35 3 4 5 8 9 19
1 35 3 4 5 8 9 19 20
1 35 3 4 5 8 9 20 21 24
1 35 3 4 5 8 9 19 20 21
1 35 3 4 5 8 9 19 21 22
1 35 3 4 5 8 9 12 13 15 21 22 24
1 36 3 4 8 9 12 13 15 21 22
1 36 3 4 6 9 12 13 15 21 22
1 36 3 4 6 9 12 14 21 22
1 36 3 4 6 9 12 14 20 24
1 36 3 4 6 9 12 14 19 20
1 36 3 4 6 9 12 14 20 21 24
1 36 3 4 6 9 12 14 19 20 21
1 36 3 4 6 9 12 13 14 21 22
1 36 3 4 6 9 12 13 14 20 24
1 36 3 4 6 9 12 13 14 19 20
1 36 3 4 6 9 12 13 14 20 21 24
1 36 3 4 6 9 12 13 14 19 20 21
1 36 3 4 6 9 12 13 15 20 24
1 36 3 4 6 9 12 13 15 19 20
1 36 3 4 6 9 12 13 15 20 21 24
1 36 3 4 6 9 12 13 15 19 20 21
1 36 3 4 8 9 12 14 21 22
1 36 3 4 8 9 12 14 20 24
1 36 3 4 8 9 12 14 19 20
1 36 3 4 8 9 12 14 20 21 24
1 36 3 4 8 9 12 14 19 20 21
1 36 3 4 8 9 12 13 14 21 22
1 36 3 4 8 9 12 13 14 20 24
1 36 3 4 8 9 12 13 14 19 20
1 36 3 4 8 9 12 13 14 20 21 24
1 36 3 4 8 9 12 13 14 19 20 21
1 36 3 4 8 9 12 13 15 20 24
1 36 3 4 8 9 12 13 15 19 20
1 36 3 4 8 9 12 13 15 20 21 24
1 36 3 4 8 9 12 13 15 19 20 21
1 35 2 3 4 8 9 12 13 15 21 22 24
1 36 35 3 4 8 9 12 13 15 21 22 24
1 36 35 3 4 6 9 12 13 15 21 22 24
1 36 35 3 4 6 9 12 14 21 22 24
1 36 35 3 4 6 9 12 14 20 24
1 36 35 3 4 6 9 12 14 19 20
1 36 35 3 4 6 9 12 14 20 21 24
1 36 35 3 4 6 9 12 14 19 20 21
1 36 35 3 4 6 9 12 14 19 21 22
1 36 35 3 4 6 9 12 13 14 21 22 24
1 36 35 3 4 6 9 12 13 14 20 24
1 36 35 3 4 6 9 12 13 14 19 20
1 36 35 3 4 6 9 12 13 14 20 21 24
1 36 35 3 4 6 9 12 13 14 19 20 21
1 36 35 3 4 6 9 12 13 14 19 21 22
1 36 35 3 4 6 9 12 13 15 20 24
1 36 35 3 4 6 9 12 13 15 19 20
1 36 35 3 4 6 9 12 13 15 20 21 24
1 36 35 3 4 6 9 12 13 15 19 20 21
1 36 35 3 4 6 9 12 13 15 19 21 22
1 36 35 3 4 8 9 12 14 21 22 24
1 36 35 3 4 8 9 12 14 20 24
1 36 35 3 4 8 9 12 14 19 20
1 36 35 3 4 8 9 12 14 20 21 24
1 36 35 3 4 8 9 12 14 19 20 21
1 36 35 3 4 8 9 12 14 19 21 22
1 36 35 3 4 8 9 12 13 14 21 22 24
1 36 35 3 4 8 9 12 13 14 20 24
1 36 35 3 4 8 9 12 13 14 19 20
1 36 35 3 4 8 9 12 13 14 20 21 24
1 36 35 3 4 8 9 12 13 14 19 20 21
1 36 35 3 4 8 9 12 13 14 19 21 22
1 36 35 3 4 8 9 12 13 15 20 24
1 36 35 3 4 8 9 12 13 15 19 20
1 36 35 3 4 8 9 12 13 15 20 21 24
1 36 35 3 4 8 9 12 13 15 19 20 21
1 36 35 3 4 8 9 12 13 15 19 21 22
1 35 2 3 4 6 9 12 13 15 21 22 24
1 35 2 3 4 6 9 12 14 21 22 24
1 35 2 3 4 6 9 12 14 20 24
1 35 2 3 4 6 9 12 14 19
1 35 2 3 4 6 9 12 14 19 20
1 35 2 3 4 6 9 12 14 20 21 24
1 35 2 3 4 6 9 12 14 19 20 21
1 35 2 3 4 6 9 12 14 19 21 22
1 35 2 3 4 6 9 12 13 14 21 22 24
1 35 2 3 4 6 9 12 13 14 20 24
1 35 2 3 4 6 9 12 13 14 19
1 35 2 3 4 6 9 12 13 14 19 20
1 35 2 3 4 6 9 12 13 14 20 21 24
1 35 2 3 4 6 9 12 13 14 19 20 21
1 35 2 3 4 6 9 12 13 14 19 21 22
1 35 2 3 4 6 9 12 13 15 20 24
1 35 2 3 4 6 9 12 13 15 19
1 35 2 3 4 6 9 12 13 15 19 20
1 35 2 3 4 6 9 12 13 15 20 21 24
1 35 2 3 4 6 9 12 13 15 19 20 21
1 35 2 3 4 6 9 12 13 15 19 21 22
1 35 2 3 4 8 9 12 14 21 22 24
1 35 2 3 4 8 9 12 14 20 24
1 35 2 3 4 8 9 12 14 19
1 35 2 3 4 8 9 12 14 19 20
1 35 2 3 4 8 9 12 14 20 21 24
1 35 2 3 4 8 9 12 14 19 20 21
1 35 2 3 4 8 9 12 14 19 21 22
1 35 2 3 4 8 9 12 13 14 21 22 24
1 35 2 3 4 8 9 12 13 14 20 24
1 35 2 3 4 8 9 12 13 14 19
1 35 2 3 4 8 9 12 13 14 19 20
1 35 2 3 4 8 9 12 13 14 20 21 24
1 35 2 3 4 8 9 12 13 14 19 20 21
1 35 2 3 4 8 9 12 13 14 19 21 22
1 35 2 3 4 8 9 12 13 15 20 24
1 35 2 3 4 8 9 12 13 15 19
1 35 2 3 4 8 9 12 13 15 19 20
1 35 2 3 4 8 9 12 13 15 20 21 24
1 35 2 3 4 8 9 12 13 15 19 20 21
1 35 2 3 4 8 9 12 13 15 19 21 22
1 35 3 4 5 6 9 12 13 15 21 22 24
1 35 3 4 5 6 9 12 14 21 22 24
1 35 3 4 5 6 9 12 14 20 24
1 35 3 4 5 6 9 12 14 19
1 35 3 4 5 6 9 12 14 19 20
1 35 3 4 5 6 9 12 14 20 21 24
1 35 3 4 5 6 9 12 14 19 20 21
1 35 3 4 5 6 9 12 14 19 21 22
1 35 3 4 5 6 9 12 13 14 21 22 24
1 35 3 4 5 6 9 12 13 14 20 24
1 35 3 4 5 6 9 12 13 14 19
1 35 3 4 5 6 9 12 13 14 19 20
1 35 3 4 5 6 9 12 13 14 20 21 24
1 35 3 4 5 6 9 12 13 14 19 20 21
1 35 3 4 5 6 9 12 13 14 19 21 22
1 35 3 4 5 6 9 12 13 15 20 24
1 35 3 4 5 6 9 12 13 15 19
1 35 3 4 5 6 9 12 13 15 19 20
1 35 3 4 5 6 9 12 13 15 20 21 24
1 35 3 4 5 6 9 12 13 15 19 20 21
1 35 3 4 5 6 9 12 13 15 19 21 22
1 35 3 4 5 8 9 12 14 21 22 24
1 35 3 4 5 8 9 12 14 20 24
1 35 3 4 5 8 9 12 14 19
1 35 3 4 5 8 9 12 14 19 20
1 35 3 4 5 8 9 12 14 20 21 24
1 35 3 4 5 8 9 12 14 19 20 21
1 35 3 4 5 8 9 12 14 19 21 22
1 35 3 4 5 8 9 12 13 14 21 22 24
1 35 3 4 5 8 9 12 13 14 20 24
1 35 3 4 5 8 9 12 13 14 19
1 35 3 4 5 8 9 12 13 14 19 20
1 35 3 4 5 8 9 12 13 14 20 21 24
1 35 3 4 5 8 9 12 13 14 19 20 21
1 35 3 4 5 8 9 12 13 14 19 21 22
1 35 3 4 5 8 9 12 13 15 20 24
1 35 3 4 5 8 9 12 13 15 19
1 35 3 4 5 8 9 12 13 15 19 20
1 35 3 4 5 8 9 12 13 15 20 21 24
1 35 3 4 5 8 9 12 13 15 19 20 21
1 35 3 4 5 8 9 12 13 15 19 21 22
1 35 2 3 4 8 9 12 13 15 16 17 18 19
1 35 2 3 4 6 9 12 13 15 16 17 18 19
1 35 2 3 4 6 9 12 14 16 17 18 19
1 35 2 3 4 6 9 12 13 14 16 17 18 19
1 35 2 3 4 8 9 12 14 16 17 18 19
1 35 2 3 4 8 9 12 13 14 16 17 18 19
1 35 3 4 5 8 9 12 13 15 16 17 18 19
1 35 3 4 5 6 9 12 13 15 16 17 18 19
1 35 3 4 5 6 9 12 14 16 17 18 19
1 35 3 4 5 6 9 12 13 14 16 17 18 19
1 35 3 4 5 8 9 12 14 16 17 18 19
1 35 3 4 5 8 9 12 13 14 16 17 18 19
1 4 7 8
1 4 6 7
1 35 4 7 8 9 21 22 24
1 36 4 7 8 9 21 22
1 36 4 6 7 9 21 22
1 36 4 6 7 9 20 24
1 36 4 6 7 9 19 20
1 36 4 6 7 9 20 21 24
1 36 4 6 7 9 19 20 21
1 36 4 7 8 9 20 24
1 36 4 7 8 9 19 20
1 36 4 7 8 9 20 21 24
1 36 4 7 8 9 19 20 21
1 35 4 6 7 9 21 22 24
1 35 4 6 7 9 20 24
1 35 4 6 7 9 19
1 35 4 6 7 9 19 20
1 35 4 6 7 9 20 21 24
1 35 4 6 7 9 19 20 21
1 35 4 6 7 9 19 21 22
1 35 4 7 8 9 20 24
1 35 4 7 8 9 19
1 35 4 7 8 9 19 20
1 35 4 7 8 9 20 21 24
1 35 4 7 8 9 19 20 21
1 35 4 7 8 9 19 21 22
1 35 4 7 8 9 12 13 15 21 22 24
1 36 4 7 8 9 12 13 15 21 22
1 36 4 6 7 9 12 13 15 21 22
1 36 4 6 7 9 12 14 21 22
1 36 4 6 7 9 12 14 20 24
1 36 4 6 7 9 12 14 19 20
1 36 4 6 7 9 12 14 20 21 24
1 36 4 6 7 9 12 14 19 20 21
1 36 4 6 7 9 12 13 14 21 22
1 36 4 6 7 9 12 13 14 20 24
1 36 4 6 7 9 12 13 14 19 20
1 36 4 6 7 9 12 13 14 20 21 24
1 36 4 6 7 9 12 13 14 19 20 21
1 36 4 6 7 9 12 13 15 20 24
1 36 4 6 7 9 12 13 15 19 20
1 36 4 6 7 9 12 13 15 20 21 24
1 36 4 6 7 9 12 13 15 19 20 21
1 36 4 7 8 9 12 14 21 22
1 36 4 7 8 9 12 14 20 24
1 36 4 7 8 9 12 14 19 20
1 36 4 7 8 9 12 14 20 21 24
1 36 4 7 8 9 12 14 19 20 21
1 36 4 7 8 9 12 13 14 21 22
1 36 4 7 8 9 12 13 14 20 24
1 36 4 7 8 9 12 13 14 19 20
1 36 4 7 8 9 12 13 14 20 21 24
1 36 4 7 8 9 12 13 14 19 20 21
1 36 4 7 8 9 12 13 15 20 24
1 36 4 7 8 9 12 13 15 19 20
1 36 4 7 8 9 12 13 15 20 21 24
1 36 4 7 8 9 12 13 15 19 20 21
1 35 4 6 7 9 12 13 15 21 22 24
1 35 4 6 7 9 12 14 21 22 24
1 35 4 6 7 9 12 14 20 24
1 35 4 6 7 9 12 14 19
1 35 4 6 7 9 12 14 19 20
1 35 4 6 7 9 12 14 20 21 24
1 35 4 6 7 9 12 14 19 20 21
1 35 4 6 7 9 12 14 19 21 22
1 35 4 6 7 9 12 13 14 21 22 24
1 35 4 6 7 9 12 13 14 20 24
1 35 4 6 7 9 12 13 14 19
1 35 4 6 7 9 12 13 14 19 20
1 35 4 6 7 9 12 13 14 20 21 24
1 35 4 6 7 9 12 13 14 19 20 21
1 35 4 6 7 9 12 13 14 19 21 22
1 35 4 6 7 9 12 13 15 20 24
1 35 4 6 7 9 12 13 15 19
1 35 4 6 7 9 12 13 15 19 20
1 35 4 6 7 9 12 13 15 20 21 24
1 35 4 6 7 9 12 13 15 19 20 21
1 35 4 6 7 9 12 13 15 19 21 22
1 35 4 7 8 9 12 14 21 22 24
1 35 4 7 8 9 12 14 20 24
1 35 4 7 8 9 12 14 19
1 35 4 7 8 9 12 14 19 20
1 35 4 7 8 9 12 14 20 21 24
1 35 4 7 8 9 12 14 19 20 21
1 35 4 7 8 9 12 14 19 21 22
1 35 4 7 8 9 12 13 14 21 22 24
1 35 4 7 8 9 12 13 14 20 24
1 35 4 7 8 9 12 13 14 19
1 35 4 7 8 9 12 13 14 19 20
1 35 4 7 8 9 12 13 14 20 21 24
1 35 4 7 8 9 12 13 14 19 20 21
1 35 4 7 8 9 12 13 14 19 21 22
1 35 4 7 8 9 12 13 15 20 24
1 35 4 7 8 9 12 13 15 19
1 35 4 7 8 9 12 13 15 19 20
1 35 4 7 8 9 12 13 15 20 21 24
1 35 4 7 8 9 12 13 15 19 20 21
1 35 4 7 8 9 12 13 15 19 21 22
1 35 4 7 8 9 12 13 15 16 17 18 19
1 35 4 6 7 9 12 13 15 16 17 18 19
1 35 4 6 7 9 12 14 16 17 18 19
1 35 4 6 7 9 12 13 14 16 17 18 19
1 35 4 7 8 9 12 14 16 17 18 19
1 35 4 7 8 9 12 13 14 16 17 18 19
1 4 6 10 19 33
1 4 6 7 10 26 30
1 3 4 5 6 10 26 30
1 2 3 4 6 10 26 30
1 2 3 4 6 9 10 11
1 3 4 5 6 9 10 11
1 4 6 7 9 10 11
1 35 2 3 4 6 10 19 26 30
1 35 2 3 4 6 9 10 19
1 35 2 3 4 6 9 10 19 23
1 35 3 4 5 6 10 19 26 30
1 35 3 4 5 6 9 10 19
1 35 3 4 5 6 9 10 19 23
1 35 4 6 7 10 19 26 30
1 35 4 6 7 9 10 19
1 35 4 6 7 9 10 19 23
1 4 6 10 19 20 33
1 36 3 4 6 10 19 20 26 30
1 36 3 4 6 9 10 19 20
1 35 2 3 4 6 10 19 20 26 30
1 36 2 3 4 6 10 19 20 26 30
1 36 2 3 4 6 9 10 19 20
1 35 2 3 4 6 9 10 19 20
1 35 2 3 4 6 9 10 19 20 23
1 36 2 3 4 6 9 10 19 20 23
1 35 3 4 5 6 10 19 20 26 30
1 36 3 4 5 6 10 19 20 26 30
1 36 3 4 5 6 9 10 19 20
1 35 3 4 5 6 9 10 19 20
1 35 3 4 5 6 9 10 19 20 23
1 36 3 4 5 6 9 10 19 20 23
1 35 4 6 7 10 19 20 26 30
1 36 4 6 7 10 19 20 26 30
1 36 4 6 7 9 10 19 20
1 35 4 6 7 9 10 19 20
1 35 4 6 7 9 10 19 20 23
1 36 4 6 7 9 10 19 20 23
1 4 6 10 19 20 21 33
1 36 3 4 6 10 19 20 21 26 30
1 36 3 4 6 9 10 19 20 21
1 35 2 3 4 6 10 19 20 21 26 30
1 36 2 3 4 6 10 19 20 21 26 30
1 36 2 3 4 6 9 10 19 20 21
1 35 2 3 4 6 9 10 19 20 21
1 35 2 3 4 6 9 10 19 20 21 23
1 36 2 3 4 6 9 10 19 20 21 23
1 35 2 3 4 6 9 10 19 20 21 25
1 36 2 3 4 6 9 10 19 20 21 25
1 35 3 4 5 6 10 19 20 21 26 30
1 36 3 4 5 6 10 19 20 21 26 30
1 36 3 4 5 6 9 10 19 20 21
1 35 3 4 5 6 9 10 19 20 21
1 35 3 4 5 6 9 10 19 20 21 23
1 36 3 4 5 6 9 10 19 20 21 23
1 35 3 4 5 6 9 10 19 20 21 25
1 36 3 4 5 6 9 10 19 20 21 25
1 35 4 6 7 10 19 20 21 26 30
1 36 4 6 7 10 19 20 21 26 30
1 36 4 6 7 9 10 19 20 21
1 35 4 6 7 9 10 19 20 21
1 35 4 6 7 9 10 19 20 21 23
1 36 4 6 7 9 10 19 20 21 23
1 35 4 6 7 9 10 19 20 21 25
1 36 4 6 7 9 10 19 20 21 25
1 4 8 10 19 33
1 4 7 8 10 26 30
1 3 4 5 8 10 26 30
1 2 3 4 8 10 26 30
1 2 3 4 8 9 10 11
1 3 4 5 8 9 10 11
1 4 7 8 9 10 11
1 35 2 3 4 8 10 19 26 30
1 35 2 3 4 8 9 10 19
1 35 2 3 4 8 9 10 19 23
1 35 3 4 5 8 10 19 26 30
1 35 3 4 5 8 9 10 19
1 35 3 4 5 8 9 10 19 23
1 35 4 7 8 10 19 26 30
1 35 4 7 8 9 10 19
1 35 4 7 8 9 10 19 23
1 4 8 10 19 20 33
1 36 3 4 8 10 19 20 26 30
1 36 3 4 8 9 10 19 20
1 35 2 3 4 8 10 19 20 26 30
1 36 2 3 4 8 10 19 20 26 30
1 36 2 3 4 8 9 10 19 20
1 35 2 3 4 8 9 10 19 20
1 35 2 3 4 8 9 10 19 20 23
1 36 2 3 4 8 9 10 19 20 23
1 35 3 4 5 8 10 19 20 26 30
1 36 3 4 5 8 10 19 20 26 30
1 36 3 4 5 8 9 10 19 20
1 35 3 4 5 8 9 10 19 20
1 35 3 4 5 8 9 10 19 20 23
1 36 3 4 5 8 9 10 19 20 23
1 35 4 7 8 10 19 20 26 30
1 36 4 7 8 10 19 20 26 30
1 36 4 7 8 9 10 19 20
1 35 4 7 8 9 10 19 20
1 35 4 7 8 9 10 19 20 23
1 36 4 7 8 9 10 19 20 23
1 4 8 10 19 20 21 33
1 36 3 4 8 10 19 20 21 26 30
1 36 3 4 8 9 10 19 20 21
1 35 2 3 4 8 10 19 20 21 26 30
1 36 2 3 4 8 10 19 20 21 26 30
1 36 2 3 4 8 9 10 19 20 21
1 35 2 3 4 8 9 10 19 20 21
1 35 2 3 4 8 9 10 19 20 21 23
1 36 2 3 4 8 9 10 19 20 21 23
1 35 2 3 4 8 9 10 19 20 21 25
1 36 2 3 4 8 9 10 19 20 21 25
1 35 3 4 5 8 10 19 20 21 26 30
1 36 3 4 5 8 10 19 20 21 26 30
1 36 3 4 5 8 9 10 19 20 21
1 35 3 4 5 8 9 10 19 20 21
1 35 3 4 5 8 9 10 19 20 21 23
1 36 3 4 5 8 9 10 19 20 21 23
1 35 3 4 5 8 9 10 19 20 21 25
1 36 3 4 5 8 9 10 19 20 21 25
1 35 4 7 8 10 19 20 21 26 30
1 36 4 7 8 10 19 20 21 26 30
1 36 4 7 8 9 10 19 20 21
1 35 4 7 8 9 10 19 20 21
1 35 4 7 8 9 10 19 20 21 23
1 36 4 7 8 9 10 19 20 21 23
1 35 4 7 8 9 10 19 20 21 25
1 36 4 7 8 9 10 19 20 21 25
1 4 6 10 12 19 28 31
1 4 6 10 12 19 20 28 31
1 4 6 10 12 19 20 21 28 31
1 4 8 10 12 19 28 31
1 4 8 10 12 19 20 28 31
1 4 8 10 12 19 20 21 28 31
1 4 10 12 16 20 26 28 31 34
1 4 10 12 16 20 26 33 34
1 4 10 12 16 21 26 28 31 32 34
 Minimal traps 
1 3 9 12 16 19 26 28 32 33 34
3 9 12 16 19 24 28 32 33
16 17 18
10 26 30
35 9 19
26 27 28 29
19 23
20 24
21 22
12 14
4 7
12 13 15
19 20 21 25
4 10 12 19 28 31
9 10 11
4 10 19 33
4 7 9 10 11
4 7 9 10 11 12 14
4 7 9 10 11 12 13 15
3 5
3 4 10 12 19 28 31
3 4 7
3 4 10 19 33
3 4 7 10 26 30
3 4 7 10 12 14 26 30
3 4 7 10 12 13 15 26 30
3 4 10 12 14 19 33
3 4 10 12 13 15 19 33
3 4 10 12 14 19 26 28 29 30 33
3 4 10 12 13 15 19 26 28 29 30 33
3 5 9 10 26 30
3 4 9 10 19 33
36 3 9 19 33
36 3 9 19 20
36 35 3 9 19
35 3 4 9 19 33
36 3 4 9 19 33
36 3 4 7 9 19 20
35 3 4 7 9 19
3 4 7 9 10 26 30
3 4 7 9 10 11
35 3 4 7 9 10 19 26 30
35 3 4 7 9 10 11 19
36 3 4 7 9 10 19 20 26 30
36 3 4 7 9 10 11 19 20
35 3 5 9 19
36 3 5 9 19 33
36 3 5 9 19 20
3 5 9 10 19 33
3 5 9 10 11
35 3 5 9 10 11 19
36 3 5 9 10 11 19 20
3 5 9 10 12 19 28 31
3 4 9 10 12 19 28 31
36 3 9 12 19 28 31
3 4 7 9 10 12 14 26 30
3 4 7 9 10 12 13 15 26 30
3 4 7 9 10 11 12 13 15
3 4 7 9 10 11 12 14
3 5 9 10 12 14 26 30
3 5 9 10 12 13 15 26 30
3 5 9 10 11 12 13 15
3 5 9 10 11 12 14
3 9 12 16 21 28 32
3 9 12 16 19 24 28 31 32
1 4 9 12 16 19 26 28 31 34
1 6
1 6 9 10 26 30
1 35 6 9 19
1 6 9 10 11
1 6 9 10 12 14 26 30
1 6 9 10 12 13 15 26 30
1 6 9 10 11 12 13 15
1 6 9 10 11 12 14
1 9 12 16 20 26 34
1 6 9 10 12 14 16 17 18 26 30
1 6 9 10 12 13 15 16 17 18 26 30
1 6 9 10 11 12 13 15 16 17 18
1 6 9 10 11 12 14 16 17 18
1 4 6 10 12 19 28 31
1 4 6 8
1 4 6 7
1 4 6 10 19 33
1 4 6 8 10 26 30
1 4 6 7 10 26 30
1 4 6 8 10 12 14 26 30
1 4 6 7 10 12 14 26 30
1 4 6 7 10 12 13 15 26 30
1 4 6 8 10 12 13 15 26 30
1 4 6 10 12 14 19 33
1 4 6 10 12 13 15 19 33
1 4 6 10 12 14 19 26 28 29 30 33
1 4 6 10 12 13 15 19 26 28 29 30 33
1 4 6 9 10 19 33
1 35 4 6 9 19 33
1 35 4 6 8 9 19
1 35 4 6 7 9 19
1 4 6 8 9 10 26 30
1 4 6 7 9 10 26 30
1 4 6 7 9 10 11
1 4 6 8 9 10 11
1 35 4 6 7 9 10 19 26 30
1 35 4 6 7 9 10 11 19
1 35 4 6 8 9 10 19 26 30
1 35 4 6 8 9 10 11 19
1 4 6 9 10 12 19 28 31
1 4 6 8 9 10 12 14 26 30
1 4 6 7 9 10 12 14 26 30
1 4 6 7 9 10 12 13 15 26 30
1 4 6 7 9 10 11 12 13 15
1 4 6 7 9 10 11 12 14
1 4 6 8 9 10 12 13 15 26 30
1 4 6 8 9 10 11 12 13 15
1 4 6 8 9 10 11 12 14
1 4 6 7 9 10 12 14 16 17 18 26 30
1 4 6 7 9 10 12 13 15 16 17 18 26 30
1 4 6 7 9 10 11 12 13 15 16 17 18
1 4 6 7 9 10 11 12 14 16 17 18
1 4 6 8 9 10 12 14 16 17 18 26 30
1 4 6 8 9 10 12 13 15 16 17 18 26 30
1 4 6 8 9 10 11 12 13 15 16 17 18
1 4 6 8 9 10 11 12 14 16 17 18
1 4 9 12 16 19 26 33 34
1 3 5 6
1 3 4 6 10 12 19 28 31
1 2 3 4 10 12 19 28 31
1 2 3 4 8
1 2 3 4 7
1 2 3 4 10 19 33
1 2 3 4 8 10 26 30
1 2 3 4 7 10 26 30
1 2 3 4 8 10 12 14 26 30
1 2 3 4 7 10 12 14 26 30
1 2 3 4 7 10 12 13 15 26 30
1 2 3 4 8 10 12 13 15 26 30
1 2 3 4 10 12 14 19 33
1 2 3 4 10 12 13 15 19 33
1 2 3 4 10 12 14 19 26 28 29 30 33
1 2 3 4 10 12 13 15 19 26 28 29 30 33
1 3 4 6 8
1 3 4 6 7
1 3 4 6 10 19 33
1 3 4 6 8 10 26 30
1 3 4 6 7 10 26 30
1 3 4 6 8 10 12 14 26 30
1 3 4 6 7 10 12 14 26 30
1 3 4 6 7 10 12 13 15 26 30
1 3 4 6 8 10 12 13 15 26 30
1 3 4 6 10 12 14 19 33
1 3 4 6 10 12 13 15 19 33
1 3 4 6 10 12 14 19 26 28 29 30 33
1 3 4 6 10 12 13 15 19 26 28 29 30 33
1 2 3 5
1 3 5 6 9 10 26 30
1 3 4 6 9 10 19 33
1 36 3 6 9 19 33
1 36 2 3 9 19 33
1 36 2 3 9 19 20
1 36 35 2 3 9 19
1 36 3 6 9 19 20
1 36 35 3 6 9 19
1 2 3 4 9 10 19 33
1 35 2 3 4 9 19 33
1 36 2 3 4 9 19 33
1 36 2 3 4 7 9 19 20
1 36 2 3 4 8 9 19 20
1 35 2 3 4 8 9 19
1 35 2 3 4 7 9 19
1 2 3 4 8 9 10 26 30
1 2 3 4 7 9 10 26 30
1 2 3 4 7 9 10 11
1 2 3 4 8 9 10 11
1 35 2 3 4 7 9 10 19 26 30
1 35 2 3 4 7 9 10 11 19
1 36 2 3 4 7 9 10 19 20 26 30
1 36 2 3 4 7 9 10 11 19 20
1 35 2 3 4 8 9 10 19 26 30
1 35 2 3 4 8 9 10 11 19
1 36 2 3 4 8 9 10 19 20 26 30
1 36 2 3 4 8 9 10 11 19 20
1 35 3 4 6 9 19 33
1 36 3 4 6 9 19 33
1 36 3 4 6 7 9 19 20
1 36 3 4 6 8 9 19 20
1 35 3 4 6 8 9 19
1 35 3 4 6 7 9 19
1 3 4 6 8 9 10 26 30
1 3 4 6 7 9 10 26 30
1 3 4 6 7 9 10 11
1 3 4 6 8 9 10 11
1 35 3 4 6 7 9 10 19 26 30
1 35 3 4 6 7 9 10 11 19
1 36 3 4 6 7 9 10 19 20 26 30
1 36 3 4 6 7 9 10 11 19 20
1 35 3 4 6 8 9 10 19 26 30
1 35 3 4 6 8 9 10 11 19
1 36 3 4 6 8 9 10 19 20 26 30
1 36 3 4 6 8 9 10 11 19 20
1 2 3 5 9 10 26 30
1 35 2 3 5 9 19
1 36 2 3 5 9 19 33
1 36 2 3 5 9 19 20
1 2 3 5 9 10 19 33
1 2 3 5 9 10 11
1 35 2 3 5 9 10 11 19
1 36 2 3 5 9 10 11 19 20
1 35 3 5 6 9 19
1 36 3 5 6 9 19 33
1 36 3 5 6 9 19 20
1 3 5 6 9 10 19 33
1 3 5 6 9 10 11
1 35 3 5 6 9 10 11 19
1 36 3 5 6 9 10 11 19 20
1 3 5 6 9 10 12 19 28 31
1 3 4 6 9 10 12 19 28 31
1 2 3 4 9 10 12 19 28 31
1 2 3 4 8 9 10 12 14 26 30
1 2 3 4 7 9 10 12 14 26 30
1 2 3 4 7 9 10 12 13 15 26 30
1 2 3 4 7 9 10 11 12 13 15
1 2 3 4 7 9 10 11 12 14
1 2 3 4 8 9 10 12 13 15 26 30
1 2 3 4 8 9 10 11 12 13 15
1 2 3 4 8 9 10 11 12 14
1 3 4 6 8 9 10 12 14 26 30
1 3 4 6 7 9 10 12 14 26 30
1 3 4 6 7 9 10 12 13 15 26 30
1 3 4 6 7 9 10 11 12 13 15
1 3 4 6 7 9 10 11 12 14
1 3 4 6 8 9 10 12 13 15 26 30
1 3 4 6 8 9 10 11 12 13 15
1 3 4 6 8 9 10 11 12 14
1 2 3 5 9 10 12 19 28 31
1 2 3 5 9 10 12 14 26 30
1 2 3 5 9 10 12 13 15 26 30
1 2 3 5 9 10 11 12 13 15
1 2 3 5 9 10 11 12 14
1 3 5 6 9 10 12 14 26 30
1 3 5 6 9 10 12 13 15 26 30
1 3 5 6 9 10 11 12 13 15
1 3 5 6 9 10 11 12 14
1 3 9 12 16 19 26 28 31 32 34
 Analysis time: 16.314s