 p 15 
 t 10 
 Reachable states from S0 [2, 0, 0, 0, 0, 1, 1, 2, 0, 0, 0, 1, 1, 3, 1] 
 T1 => S1 [1, 1, 0, 0, 0, 1, 1, 2, 0, 0, 0, 1, 0, 2, 0] 
 T7 => S24 [2, 0, 0, 0, 0, 1, 1, 1, 1, 0, 0, 1, 0, 2, 0] 
 
 Reachable states from S1 [1, 1, 0, 0, 0, 1, 1, 2, 0, 0, 0, 1, 0, 2, 0] 
 T2 => S2 [1, 0, 1, 0, 0, 0, 1, 2, 0, 0, 0, 1, 1, 2, 1] 
 T3 => S6 [1, 0, 0, 1, 0, 1, 0, 2, 0, 0, 0, 1, 1, 2, 1] 
 
 Reachable states from S2 [1, 0, 1, 0, 0, 0, 1, 2, 0, 0, 0, 1, 1, 2, 1] 
 T1 => S3 [0, 1, 1, 0, 0, 0, 1, 2, 0, 0, 0, 1, 0, 1, 0] 
 T4 => S8 [1, 0, 0, 0, 1, 1, 1, 2, 0, 0, 0, 1, 0, 3, 1] 
 T7 => S23 [1, 0, 1, 0, 0, 0, 1, 1, 1, 0, 0, 1, 0, 1, 0] 
 
 Reachable states from S3 [0, 1, 1, 0, 0, 0, 1, 2, 0, 0, 0, 1, 0, 1, 0] 
 T3 => S4 [0, 0, 1, 1, 0, 0, 0, 2, 0, 0, 0, 1, 1, 1, 1] 
 
 Reachable states from S4 [0, 0, 1, 1, 0, 0, 0, 2, 0, 0, 0, 1, 1, 1, 1] 
 T4 => S5 [0, 0, 0, 1, 1, 1, 0, 2, 0, 0, 0, 1, 0, 2, 1] 
 T5 => S15 [0, 0, 1, 0, 1, 0, 1, 2, 0, 0, 0, 1, 0, 2, 1] 
 T7 => S16 [0, 0, 1, 1, 0, 0, 0, 1, 1, 0, 0, 1, 0, 0, 0] 
 
 Reachable states from S5 [0, 0, 0, 1, 1, 1, 0, 2, 0, 0, 0, 1, 0, 2, 1] 
 T6 => S6 [1, 0, 0, 1, 0, 1, 0, 2, 0, 0, 0, 1, 1, 2, 1] 
 
 Reachable states from S6 [1, 0, 0, 1, 0, 1, 0, 2, 0, 0, 0, 1, 1, 2, 1] 
 T1 => S7 [0, 1, 0, 1, 0, 1, 0, 2, 0, 0, 0, 1, 0, 1, 0] 
 T5 => S8 [1, 0, 0, 0, 1, 1, 1, 2, 0, 0, 0, 1, 0, 3, 1] 
 T7 => S9 [1, 0, 0, 1, 0, 1, 0, 1, 1, 0, 0, 1, 0, 1, 0] 
 
 Reachable states from S7 [0, 1, 0, 1, 0, 1, 0, 2, 0, 0, 0, 1, 0, 1, 0] 
 T2 => S4 [0, 0, 1, 1, 0, 0, 0, 2, 0, 0, 0, 1, 1, 1, 1] 
 
 Reachable states from S8 [1, 0, 0, 0, 1, 1, 1, 2, 0, 0, 0, 1, 0, 3, 1] 
 T6 => S0 [2, 0, 0, 0, 0, 1, 1, 2, 0, 0, 0, 1, 1, 3, 1] 
 
 Reachable states from S9 [1, 0, 0, 1, 0, 1, 0, 1, 1, 0, 0, 1, 0, 1, 0] 
 T8 => S10 [1, 0, 0, 1, 0, 1, 0, 1, 0, 1, 0, 0, 1, 1, 0] 
 
 Reachable states from S10 [1, 0, 0, 1, 0, 1, 0, 1, 0, 1, 0, 0, 1, 1, 0] 
 T5 => S11 [1, 0, 0, 0, 1, 1, 1, 1, 0, 1, 0, 0, 0, 2, 0] 
 T9 => S14 [1, 0, 0, 1, 0, 1, 0, 1, 0, 0, 1, 1, 0, 2, 1] 
 
 Reachable states from S11 [1, 0, 0, 0, 1, 1, 1, 1, 0, 1, 0, 0, 0, 2, 0] 
 T6 => S12 [2, 0, 0, 0, 0, 1, 1, 1, 0, 1, 0, 0, 1, 2, 0] 
 
 Reachable states from S12 [2, 0, 0, 0, 0, 1, 1, 1, 0, 1, 0, 0, 1, 2, 0] 
 T9 => S13 [2, 0, 0, 0, 0, 1, 1, 1, 0, 0, 1, 1, 0, 3, 1] 
 
 Reachable states from S13 [2, 0, 0, 0, 0, 1, 1, 1, 0, 0, 1, 1, 0, 3, 1] 
 T10 => S0 [2, 0, 0, 0, 0, 1, 1, 2, 0, 0, 0, 1, 1, 3, 1] 
 
 Reachable states from S14 [1, 0, 0, 1, 0, 1, 0, 1, 0, 0, 1, 1, 0, 2, 1] 
 T10 => S6 [1, 0, 0, 1, 0, 1, 0, 2, 0, 0, 0, 1, 1, 2, 1] 
 
 Reachable states from S15 [0, 0, 1, 0, 1, 0, 1, 2, 0, 0, 0, 1, 0, 2, 1] 
 T6 => S2 [1, 0, 1, 0, 0, 0, 1, 2, 0, 0, 0, 1, 1, 2, 1] 
 
 Reachable states from S16 [0, 0, 1, 1, 0, 0, 0, 1, 1, 0, 0, 1, 0, 0, 0] 
 T8 => S17 [0, 0, 1, 1, 0, 0, 0, 1, 0, 1, 0, 0, 1, 0, 0] 
 
 Reachable states from S17 [0, 0, 1, 1, 0, 0, 0, 1, 0, 1, 0, 0, 1, 0, 0] 
 T4 => S18 [0, 0, 0, 1, 1, 1, 0, 1, 0, 1, 0, 0, 0, 1, 0] 
 T5 => S19 [0, 0, 1, 0, 1, 0, 1, 1, 0, 1, 0, 0, 0, 1, 0] 
 T9 => S22 [0, 0, 1, 1, 0, 0, 0, 1, 0, 0, 1, 1, 0, 1, 1] 
 
 Reachable states from S18 [0, 0, 0, 1, 1, 1, 0, 1, 0, 1, 0, 0, 0, 1, 0] 
 T6 => S10 [1, 0, 0, 1, 0, 1, 0, 1, 0, 1, 0, 0, 1, 1, 0] 
 
 Reachable states from S19 [0, 0, 1, 0, 1, 0, 1, 1, 0, 1, 0, 0, 0, 1, 0] 
 T6 => S20 [1, 0, 1, 0, 0, 0, 1, 1, 0, 1, 0, 0, 1, 1, 0] 
 
 Reachable states from S20 [1, 0, 1, 0, 0, 0, 1, 1, 0, 1, 0, 0, 1, 1, 0] 
 T4 => S11 [1, 0, 0, 0, 1, 1, 1, 1, 0, 1, 0, 0, 0, 2, 0] 
 T9 => S21 [1, 0, 1, 0, 0, 0, 1, 1, 0, 0, 1, 1, 0, 2, 1] 
 
 Reachable states from S21 [1, 0, 1, 0, 0, 0, 1, 1, 0, 0, 1, 1, 0, 2, 1] 
 T10 => S2 [1, 0, 1, 0, 0, 0, 1, 2, 0, 0, 0, 1, 1, 2, 1] 
 
 Reachable states from S22 [0, 0, 1, 1, 0, 0, 0, 1, 0, 0, 1, 1, 0, 1, 1] 
 T10 => S4 [0, 0, 1, 1, 0, 0, 0, 2, 0, 0, 0, 1, 1, 1, 1] 
 
 Reachable states from S23 [1, 0, 1, 0, 0, 0, 1, 1, 1, 0, 0, 1, 0, 1, 0] 
 T8 => S20 [1, 0, 1, 0, 0, 0, 1, 1, 0, 1, 0, 0, 1, 1, 0] 
 
 Reachable states from S24 [2, 0, 0, 0, 0, 1, 1, 1, 1, 0, 0, 1, 0, 2, 0] 
 T8 => S12 [2, 0, 0, 0, 0, 1, 1, 1, 0, 1, 0, 0, 1, 2, 0] 
