18/09/2021 17:21:33[DEBUG] pflow_file:  ../analysis/analisis_19/20210918-141254_20/net.pflow  
18/09/2021 17:21:33[DEBUG] output_folder:  ../analysis/analisis_19/20210918-141254_20/  
18/09/2021 17:21:33[DEBUG] html_path:  ../analysis/analisis_19/20210918-141254_20/  
18/09/2021 17:21:33[DEBUG] txt_path:  ../analysis/analisis_19/20210918-141254_20/txt_info  

--------------------------------------------------------------------------   
18/09/2021 17:21:33[INFO] Ejecutando petrinator para conocer estado de la red...   
--------------------------------------------------------------------------
   
18/09/2021 17:22:11[INFO] SIFONES   
+----+-----+--------------------------------------------------------+
| ID | Nro |                         Plazas                         |
+----+-----+--------------------------------------------------------+
| 0  |  43 | ['P3', 'P6', 'P12', 'P17', 'P19', 'P25', 'P33', 'P34'] |
| 1  |  25 | ['P3', 'P6', 'P12', 'P19', 'P20', 'P25', 'P33', 'P34'] |
+----+-----+--------------------------------------------------------+ 

18/09/2021 17:22:11[INFO] T INVARIANTES   
+----+----+----+----+----+----+----+----+----+----+-----+-----+-----+-----+-----+-----+-----+-----+-----+-----+-----+-----+-----+-----+
| T0 | T1 | T2 | T3 | T4 | T5 | T6 | T7 | T8 | T9 | T10 | T11 | T12 | T13 | T14 | T15 | T16 | T17 | T18 | T19 | T20 | T21 | T22 | T23 |
+----+----+----+----+----+----+----+----+----+----+-----+-----+-----+-----+-----+-----+-----+-----+-----+-----+-----+-----+-----+-----+
| 1  | 1  | 1  | 1  | 0  | 0  | 0  | 0  | 0  | 0  |  0  |  0  |  0  |  0  |  0  |  0  |  0  |  0  |  0  |  0  |  0  |  0  |  0  |  0  |
| 0  | 0  | 0  | 0  | 1  | 1  | 1  | 0  | 0  | 0  |  0  |  1  |  1  |  0  |  0  |  0  |  0  |  0  |  0  |  0  |  0  |  0  |  0  |  0  |
| 0  | 0  | 0  | 0  | 0  | 0  | 0  | 1  | 1  | 1  |  1  |  1  |  1  |  0  |  0  |  0  |  0  |  0  |  0  |  0  |  0  |  0  |  0  |  0  |
| 0  | 0  | 0  | 0  | 0  | 0  | 0  | 0  | 0  | 0  |  0  |  0  |  0  |  1  |  1  |  1  |  1  |  0  |  0  |  0  |  0  |  0  |  1  |  1  |
| 0  | 0  | 0  | 0  | 0  | 0  | 0  | 0  | 0  | 0  |  0  |  0  |  0  |  0  |  0  |  0  |  0  |  1  |  1  |  1  |  1  |  1  |  1  |  1  |
+----+----+----+----+----+----+----+----+----+----+-----+-----+-----+-----+-----+-----+-----+-----+-----+-----+-----+-----+-----+-----+ 

18/09/2021 17:22:11[INFO] Supervisores para agregar   
+-----+---------+----------------------+---------------------+--------------------------------------------------------+
|  ID | Marcado |     T - Entrada      |      T - Salida     |                   Sifon a controlar                    |
+-----+---------+----------------------+---------------------+--------------------------------------------------------+
| P35 |    1    |    ['T3', 'T10']     |     ['T2', 'T9']    | ['P3', 'P6', 'P12', 'P17', 'P19', 'P25', 'P33', 'P34'] |
| P35 |    2    | ['T3', 'T10', 'T16'] | ['T2', 'T9', 'T14'] | ['P3', 'P6', 'P12', 'P19', 'P20', 'P25', 'P33', 'P34'] |
+-----+---------+----------------------+---------------------+--------------------------------------------------------+ 

18/09/2021 17:22:11[INFO] Supervisores agregados   
+-----+-------+---------+-------------+------------+----------------+
| Nro | Plaza | Marcado | T - Entrada | T - Salida | MAL supervisor |
+-----+-------+---------+-------------+------------+----------------+
+-----+-------+---------+-------------+------------+----------------+ 

18/09/2021 17:22:11[INFO] Supervisores eliminados   
+-----+-------+---------+-------------+------------+----------------+
| Nro | Plaza | Marcado | T - Entrada | T - Salida | MAL supervisor |
+-----+-------+---------+-------------+------------+----------------+
+-----+-------+---------+-------------+------------+----------------+ 

18/09/2021 17:22:11[INFO] Ejecutando accion...   
18/09/2021 17:22:11[ACTION] Agrego supervisor con menor numero de arcos de salida (MNAS)   
18/09/2021 17:22:11[INFO] Supervisor con menor cantidad de arcos de salida agregado 0   

--------------------------------------------------------------------------   
18/09/2021 17:22:11[INFO] Ejecutando petrinator para conocer estado de la red...   
--------------------------------------------------------------------------
   
--------------------------------------------------------------------------
   
18/09/2021 17:22:56[INFO] Calculando recompensa..   
18/09/2021 17:22:56[REWARD] Agregue un supervisor que genero menos sifones vacios en deadlock, recompensa -1   

--------------------------------------------------------------------------
   
18/09/2021 17:22:56[STATE] Cambie al estado 2: Hay menos sifones vacios en deadlock   
+--------+---------+-------------------+----------------+---------+---------+------------------------+
| Plazas | Estados | Tokens trabajando | Sifones vacios | Sifones | Trampas | Supervisores agregados |
+--------+---------+-------------------+----------------+---------+---------+------------------------+
|   35   |   2624  |       10306       |       1        |   105   |   219   |           1            |
+--------+---------+-------------------+----------------+---------+---------+------------------------+ 
+------------------------------+------------+-----------------+--------------------+-----------------------+
|       Estados/Acciones       | + sup MNAS | + sup aleatorio | - sup MAL agregado | - ultimo sup agregado |
+------------------------------+------------+-----------------+--------------------+-----------------------+
|            Start             |    -1.0    |       0.0       |        0.0         |          0.0          |
| + sifónes vacíos en deadlock |    0.0     |       0.0       |        0.0         |          0.0          |
| - sifónes vacíos en deadlock |    0.0     |       0.0       |        0.0         |          0.0          |
| = sifónes vacíos en deadlock |    0.0     |       0.0       |        0.0         |          0.0          |
|             End              |    0.0     |       0.0       |        0.0         |          0.0          |
+------------------------------+------------+-----------------+--------------------+-----------------------+ 

18/09/2021 17:22:57[INFO] SIFONES   
+----+-----+--------------------------------------------------------+
| ID | Nro |                         Plazas                         |
+----+-----+--------------------------------------------------------+
| 2  |  31 | ['P3', 'P6', 'P12', 'P19', 'P20', 'P25', 'P33', 'P34'] |
+----+-----+--------------------------------------------------------+ 

18/09/2021 17:22:57[INFO] T INVARIANTES   
+----+----+----+----+----+----+----+----+----+----+-----+-----+-----+-----+-----+-----+-----+-----+-----+-----+-----+-----+-----+-----+
| T0 | T1 | T2 | T3 | T4 | T5 | T6 | T7 | T8 | T9 | T10 | T11 | T12 | T13 | T14 | T15 | T16 | T17 | T18 | T19 | T20 | T21 | T22 | T23 |
+----+----+----+----+----+----+----+----+----+----+-----+-----+-----+-----+-----+-----+-----+-----+-----+-----+-----+-----+-----+-----+
| 1  | 1  | 1  | 1  | 0  | 0  | 0  | 0  | 0  | 0  |  0  |  0  |  0  |  0  |  0  |  0  |  0  |  0  |  0  |  0  |  0  |  0  |  0  |  0  |
| 0  | 0  | 0  | 0  | 1  | 1  | 1  | 0  | 0  | 0  |  0  |  1  |  1  |  0  |  0  |  0  |  0  |  0  |  0  |  0  |  0  |  0  |  0  |  0  |
| 0  | 0  | 0  | 0  | 0  | 0  | 0  | 1  | 1  | 1  |  1  |  1  |  1  |  0  |  0  |  0  |  0  |  0  |  0  |  0  |  0  |  0  |  0  |  0  |
| 0  | 0  | 0  | 0  | 0  | 0  | 0  | 0  | 0  | 0  |  0  |  0  |  0  |  1  |  1  |  1  |  1  |  0  |  0  |  0  |  0  |  0  |  1  |  1  |
| 0  | 0  | 0  | 0  | 0  | 0  | 0  | 0  | 0  | 0  |  0  |  0  |  0  |  0  |  0  |  0  |  0  |  1  |  1  |  1  |  1  |  1  |  1  |  1  |
+----+----+----+----+----+----+----+----+----+----+-----+-----+-----+-----+-----+-----+-----+-----+-----+-----+-----+-----+-----+-----+ 

18/09/2021 17:22:57[INFO] Supervisores para agregar   
+-----+---------+----------------------+---------------------+--------------------------------------------------------+
|  ID | Marcado |     T - Entrada      |      T - Salida     |                   Sifon a controlar                    |
+-----+---------+----------------------+---------------------+--------------------------------------------------------+
| P36 |    2    | ['T3', 'T10', 'T16'] | ['T2', 'T9', 'T14'] | ['P3', 'P6', 'P12', 'P19', 'P20', 'P25', 'P33', 'P34'] |
+-----+---------+----------------------+---------------------+--------------------------------------------------------+ 

18/09/2021 17:22:57[INFO] Supervisores agregados   
+-----+-------+---------+---------------+--------------+----------------+
| Nro | Plaza | Marcado |  T - Entrada  |  T - Salida  | MAL supervisor |
+-----+-------+---------+---------------+--------------+----------------+
|  1  |  P35  |    1    | ['T3', 'T10'] | ['T2', 'T9'] |     False      |
+-----+-------+---------+---------------+--------------+----------------+ 

18/09/2021 17:22:57[INFO] Supervisores eliminados   
+-----+-------+---------+-------------+------------+----------------+
| Nro | Plaza | Marcado | T - Entrada | T - Salida | MAL supervisor |
+-----+-------+---------+-------------+------------+----------------+
+-----+-------+---------+-------------+------------+----------------+ 

18/09/2021 17:22:57[INFO] Ejecutando accion...   
18/09/2021 17:22:57[ACTION] Agrego supervisor con menor numero de arcos de salida (MNAS)   
18/09/2021 17:22:57[INFO] Supervisor con menor cantidad de arcos de salida agregado 0   

--------------------------------------------------------------------------   
18/09/2021 17:22:57[INFO] Ejecutando petrinator para conocer estado de la red...   
--------------------------------------------------------------------------
   
--------------------------------------------------------------------------
   
18/09/2021 17:23:57[INFO] Calculando recompensa..   
18/09/2021 17:23:57[REWARD] No hay mas deadlock, recompensa 100   

--------------------------------------------------------------------------
   
18/09/2021 17:23:57[STATE] Se llego al estado deseado, NO HAY MAS DEADLOCK   

--------------------------------------------------------------------------
   
+--------+---------+-------------------+----------------+---------+---------+------------------------+
| Plazas | Estados | Tokens trabajando | Sifones vacios | Sifones | Trampas | Supervisores agregados |
+--------+---------+-------------------+----------------+---------+---------+------------------------+
|   35   |   2624  |       10306       |       1        |   105   |   219   |           1            |
|   36   |   2611  |       10247       |       0        |   115   |   228   |           2            |
+--------+---------+-------------------+----------------+---------+---------+------------------------+ 
+------------------------------+------------+-----------------+--------------------+-----------------------+
|       Estados/Acciones       | + sup MNAS | + sup aleatorio | - sup MAL agregado | - ultimo sup agregado |
+------------------------------+------------+-----------------+--------------------+-----------------------+
|            Start             |    -1.0    |       0.0       |        0.0         |          0.0          |
| + sifónes vacíos en deadlock |    0.0     |       0.0       |        0.0         |          0.0          |
| - sifónes vacíos en deadlock |   100.0    |       0.0       |        0.0         |          0.0          |
| = sifónes vacíos en deadlock |    0.0     |       0.0       |        0.0         |          0.0          |
|             End              |    0.0     |       0.0       |        0.0         |          0.0          |
+------------------------------+------------+-----------------+--------------------+-----------------------+ 

18/09/2021 17:23:57[INFO] Comienza proceso de eliminacion de supervisores redundantes   
18/09/2021 17:23:57[INFO] Supervisor a eliminar   
+-----+-------+---------+---------------+--------------+----------------+
| Nro | Plaza | Marcado |  T - Entrada  |  T - Salida  | MAL supervisor |
+-----+-------+---------+---------------+--------------+----------------+
|  1  |  P35  |    1    | ['T3', 'T10'] | ['T2', 'T9'] |     False      |
+-----+-------+---------+---------------+--------------+----------------+ 
18/09/2021 17:23:57[INFO] Eliminando supervisor ...   

--------------------------------------------------------------------------   
18/09/2021 17:23:57[INFO] Ejecutando petrinator para conocer estado de la red...   
--------------------------------------------------------------------------
   
18/09/2021 17:24:45[INFO] El supervisor eliminado no era redundante, volviendo a agregar supervisor   
18/09/2021 17:24:45[INFO] Se volvio a agregar correctamente el supervisor eliminado   

--------------------------------------------------------------------------   
18/09/2021 17:24:45[INFO] Ejecutando petrinator para conocer estado de la red...   
--------------------------------------------------------------------------
   
18/09/2021 17:25:42[INFO] Supervisor a eliminar   
+-----+-------+---------+----------------------+---------------------+----------------+
| Nro | Plaza | Marcado |     T - Entrada      |      T - Salida     | MAL supervisor |
+-----+-------+---------+----------------------+---------------------+----------------+
|  2  |  P36  |    2    | ['T3', 'T10', 'T16'] | ['T2', 'T9', 'T14'] |     False      |
+-----+-------+---------+----------------------+---------------------+----------------+ 
18/09/2021 17:25:42[INFO] Eliminando supervisor ...   

--------------------------------------------------------------------------   
18/09/2021 17:25:42[INFO] Ejecutando petrinator para conocer estado de la red...   
--------------------------------------------------------------------------
   
18/09/2021 17:26:23[INFO] El supervisor eliminado no era redundante, volviendo a agregar supervisor   
18/09/2021 17:26:23[INFO] Se volvio a agregar correctamente el supervisor eliminado   

--------------------------------------------------------------------------   
18/09/2021 17:26:23[INFO] Ejecutando petrinator para conocer estado de la red...   
--------------------------------------------------------------------------
   
18/09/2021 17:27:10[INFO] Se eliminaron todos los supervisores redundantes   
+--------+---------+-------------------+----------------+---------+---------+------------------------+-------------------------+
| Plazas | Estados | Tokens trabajando | Sifones vacios | Sifones | Trampas | Supervisores agregados | Supervisores eliminados |
+--------+---------+-------------------+----------------+---------+---------+------------------------+-------------------------+
|   36   |   2611  |       10247       |       0        |   115   |   228   |           2            |            0            |
+--------+---------+-------------------+----------------+---------+---------+------------------------+-------------------------+ 
