18/09/2021 17:50:52[DEBUG] pflow_file:  ../analysis/analisis_19/20210918-141254_25/net.pflow  
18/09/2021 17:50:52[DEBUG] output_folder:  ../analysis/analisis_19/20210918-141254_25/  
18/09/2021 17:50:52[DEBUG] html_path:  ../analysis/analisis_19/20210918-141254_25/  
18/09/2021 17:50:52[DEBUG] txt_path:  ../analysis/analisis_19/20210918-141254_25/txt_info  

--------------------------------------------------------------------------   
18/09/2021 17:50:52[INFO] Ejecutando petrinator para conocer estado de la red...   
--------------------------------------------------------------------------
   
18/09/2021 17:51:07[INFO] SIFONES   
+----+-----+---------------------------------------------------------------------+
| ID | Nro |                                Plazas                               |
+----+-----+---------------------------------------------------------------------+
| 0  |  15 | ['P2', 'P4', 'P6', 'P10', 'P15', 'P17', 'P20', 'P26', 'P29', 'P30'] |
| 1  |  19 |     ['P2', 'P4', 'P6', 'P9', 'P15', 'P17', 'P20', 'P29', 'P30']     |
| 2  |  8  |           ['P1', 'P6', 'P10', 'P15', 'P20', 'P26', 'P30']           |
| 3  |  23 |  ['P2', 'P4', 'P7', 'P9', 'P15', 'P17', 'P20', 'P27', 'P29', 'P30'] |
+----+-----+---------------------------------------------------------------------+ 

18/09/2021 17:51:07[INFO] T INVARIANTES   
+----+----+----+----+----+----+----+----+----+----+-----+-----+-----+-----+-----+-----+-----+-----+-----+-----+-----+-----+-----+-----+-----+-----+
| T0 | T1 | T2 | T3 | T4 | T5 | T6 | T7 | T8 | T9 | T10 | T11 | T12 | T13 | T14 | T15 | T16 | T17 | T18 | T19 | T20 | T21 | T22 | T23 | T24 | T25 |
+----+----+----+----+----+----+----+----+----+----+-----+-----+-----+-----+-----+-----+-----+-----+-----+-----+-----+-----+-----+-----+-----+-----+
| 1  | 1  | 1  | 0  | 0  | 0  | 0  | 0  | 0  | 0  |  0  |  0  |  0  |  0  |  0  |  0  |  0  |  0  |  0  |  0  |  0  |  0  |  0  |  0  |  0  |  0  |
| 0  | 0  | 0  | 1  | 1  | 1  | 1  | 1  | 0  | 0  |  0  |  0  |  0  |  1  |  1  |  0  |  0  |  0  |  0  |  0  |  0  |  0  |  0  |  0  |  0  |  0  |
| 0  | 0  | 0  | 0  | 0  | 0  | 0  | 0  | 1  | 1  |  1  |  1  |  1  |  1  |  1  |  0  |  0  |  0  |  0  |  0  |  0  |  0  |  0  |  0  |  0  |  0  |
| 0  | 0  | 0  | 0  | 0  | 0  | 0  | 0  | 0  | 0  |  0  |  0  |  0  |  0  |  0  |  1  |  1  |  1  |  1  |  0  |  0  |  0  |  0  |  0  |  1  |  1  |
| 0  | 0  | 0  | 0  | 0  | 0  | 0  | 0  | 0  | 0  |  0  |  0  |  0  |  0  |  0  |  0  |  0  |  0  |  0  |  1  |  1  |  1  |  1  |  1  |  1  |  1  |
+----+----+----+----+----+----+----+----+----+----+-----+-----+-----+-----+-----+-----+-----+-----+-----+-----+-----+-----+-----+-----+-----+-----+ 

18/09/2021 17:51:07[INFO] Supervisores para agregar   
+-----+---------+----------------------------+---------------------------+---------------------------------------------------------------------+
|  ID | Marcado |        T - Entrada         |         T - Salida        |                          Sifon a controlar                          |
+-----+---------+----------------------------+---------------------------+---------------------------------------------------------------------+
| P31 |    2    |    ['T2', 'T11', 'T22']    |    ['T1', 'T9', 'T21']    | ['P2', 'P4', 'P6', 'P10', 'P15', 'P17', 'P20', 'P26', 'P29', 'P30'] |
| P31 |    1    |    ['T2', 'T10', 'T22']    |    ['T1', 'T9', 'T21']    |     ['P2', 'P4', 'P6', 'P9', 'P15', 'P17', 'P20', 'P29', 'P30']     |
| P31 |    1    |       ['T11', 'T22']       |       ['T10', 'T21']      |           ['P1', 'P6', 'P10', 'P15', 'P20', 'P26', 'P30']           |
| P31 |    2    | ['T2', 'T7', 'T10', 'T22'] | ['T1', 'T6', 'T9', 'T20'] |  ['P2', 'P4', 'P7', 'P9', 'P15', 'P17', 'P20', 'P27', 'P29', 'P30'] |
+-----+---------+----------------------------+---------------------------+---------------------------------------------------------------------+ 

18/09/2021 17:51:07[INFO] Supervisores agregados   
+-----+-------+---------+-------------+------------+----------------+
| Nro | Plaza | Marcado | T - Entrada | T - Salida | MAL supervisor |
+-----+-------+---------+-------------+------------+----------------+
+-----+-------+---------+-------------+------------+----------------+ 

18/09/2021 17:51:07[INFO] Supervisores eliminados   
+-----+-------+---------+-------------+------------+----------------+
| Nro | Plaza | Marcado | T - Entrada | T - Salida | MAL supervisor |
+-----+-------+---------+-------------+------------+----------------+
+-----+-------+---------+-------------+------------+----------------+ 

18/09/2021 17:51:07[INFO] Ejecutando accion...   
18/09/2021 17:51:07[ACTION] Agrego supervisor con menor numero de arcos de salida (MNAS)   
18/09/2021 17:51:07[INFO] Supervisor con menor cantidad de arcos de salida agregado 2   

--------------------------------------------------------------------------   
18/09/2021 17:51:07[INFO] Ejecutando petrinator para conocer estado de la red...   
--------------------------------------------------------------------------
   
--------------------------------------------------------------------------
   
18/09/2021 17:51:20[INFO] Calculando recompensa..   
18/09/2021 17:51:20[REWARD] Agregue un supervisor que genero menos sifones vacios en deadlock, recompensa -1   

--------------------------------------------------------------------------
   
18/09/2021 17:51:20[STATE] Cambie al estado 2: Hay menos sifones vacios en deadlock   
+--------+---------+-------------------+----------------+---------+---------+------------------------+
| Plazas | Estados | Tokens trabajando | Sifones vacios | Sifones | Trampas | Supervisores agregados |
+--------+---------+-------------------+----------------+---------+---------+------------------------+
|   31   |   882   |        2712       |       3        |    41   |    34   |           1            |
+--------+---------+-------------------+----------------+---------+---------+------------------------+ 
+------------------------------+------------+-----------------+--------------------+-----------------------+
|       Estados/Acciones       | + sup MNAS | + sup aleatorio | - sup MAL agregado | - ultimo sup agregado |
+------------------------------+------------+-----------------+--------------------+-----------------------+
|            Start             |    -1.0    |       0.0       |        0.0         |          0.0          |
| + sifónes vacíos en deadlock |    0.0     |       0.0       |        0.0         |          0.0          |
| - sifónes vacíos en deadlock |    0.0     |       0.0       |        0.0         |          0.0          |
| = sifónes vacíos en deadlock |    0.0     |       0.0       |        0.0         |          0.0          |
|             End              |    0.0     |       0.0       |        0.0         |          0.0          |
+------------------------------+------------+-----------------+--------------------+-----------------------+ 

18/09/2021 17:51:20[INFO] SIFONES   
+----+-----+---------------------------------------------------------------------+
| ID | Nro |                                Plazas                               |
+----+-----+---------------------------------------------------------------------+
| 4  |  25 | ['P2', 'P4', 'P6', 'P10', 'P15', 'P17', 'P20', 'P26', 'P29', 'P30'] |
| 5  |  33 |     ['P2', 'P4', 'P6', 'P9', 'P15', 'P17', 'P20', 'P29', 'P30']     |
| 6  |  38 |  ['P2', 'P4', 'P7', 'P9', 'P15', 'P17', 'P20', 'P27', 'P29', 'P30'] |
+----+-----+---------------------------------------------------------------------+ 

18/09/2021 17:51:20[INFO] T INVARIANTES   
+----+----+----+----+----+----+----+----+----+----+-----+-----+-----+-----+-----+-----+-----+-----+-----+-----+-----+-----+-----+-----+-----+-----+
| T0 | T1 | T2 | T3 | T4 | T5 | T6 | T7 | T8 | T9 | T10 | T11 | T12 | T13 | T14 | T15 | T16 | T17 | T18 | T19 | T20 | T21 | T22 | T23 | T24 | T25 |
+----+----+----+----+----+----+----+----+----+----+-----+-----+-----+-----+-----+-----+-----+-----+-----+-----+-----+-----+-----+-----+-----+-----+
| 1  | 1  | 1  | 0  | 0  | 0  | 0  | 0  | 0  | 0  |  0  |  0  |  0  |  0  |  0  |  0  |  0  |  0  |  0  |  0  |  0  |  0  |  0  |  0  |  0  |  0  |
| 0  | 0  | 0  | 1  | 1  | 1  | 1  | 1  | 0  | 0  |  0  |  0  |  0  |  1  |  1  |  0  |  0  |  0  |  0  |  0  |  0  |  0  |  0  |  0  |  0  |  0  |
| 0  | 0  | 0  | 0  | 0  | 0  | 0  | 0  | 1  | 1  |  1  |  1  |  1  |  1  |  1  |  0  |  0  |  0  |  0  |  0  |  0  |  0  |  0  |  0  |  0  |  0  |
| 0  | 0  | 0  | 0  | 0  | 0  | 0  | 0  | 0  | 0  |  0  |  0  |  0  |  0  |  0  |  1  |  1  |  1  |  1  |  0  |  0  |  0  |  0  |  0  |  1  |  1  |
| 0  | 0  | 0  | 0  | 0  | 0  | 0  | 0  | 0  | 0  |  0  |  0  |  0  |  0  |  0  |  0  |  0  |  0  |  0  |  1  |  1  |  1  |  1  |  1  |  1  |  1  |
+----+----+----+----+----+----+----+----+----+----+-----+-----+-----+-----+-----+-----+-----+-----+-----+-----+-----+-----+-----+-----+-----+-----+ 

18/09/2021 17:51:20[INFO] Supervisores para agregar   
+-----+---------+----------------------------+---------------------------+---------------------------------------------------------------------+
|  ID | Marcado |        T - Entrada         |         T - Salida        |                          Sifon a controlar                          |
+-----+---------+----------------------------+---------------------------+---------------------------------------------------------------------+
| P32 |    2    |    ['T2', 'T11', 'T22']    |    ['T1', 'T9', 'T21']    | ['P2', 'P4', 'P6', 'P10', 'P15', 'P17', 'P20', 'P26', 'P29', 'P30'] |
| P32 |    1    |    ['T2', 'T10', 'T22']    |    ['T1', 'T9', 'T21']    |     ['P2', 'P4', 'P6', 'P9', 'P15', 'P17', 'P20', 'P29', 'P30']     |
| P32 |    2    | ['T2', 'T7', 'T10', 'T22'] | ['T1', 'T6', 'T9', 'T20'] |  ['P2', 'P4', 'P7', 'P9', 'P15', 'P17', 'P20', 'P27', 'P29', 'P30'] |
+-----+---------+----------------------------+---------------------------+---------------------------------------------------------------------+ 

18/09/2021 17:51:20[INFO] Supervisores agregados   
+-----+-------+---------+----------------+----------------+----------------+
| Nro | Plaza | Marcado |  T - Entrada   |   T - Salida   | MAL supervisor |
+-----+-------+---------+----------------+----------------+----------------+
|  1  |  P31  |    1    | ['T11', 'T22'] | ['T10', 'T21'] |     False      |
+-----+-------+---------+----------------+----------------+----------------+ 

18/09/2021 17:51:20[INFO] Supervisores eliminados   
+-----+-------+---------+-------------+------------+----------------+
| Nro | Plaza | Marcado | T - Entrada | T - Salida | MAL supervisor |
+-----+-------+---------+-------------+------------+----------------+
+-----+-------+---------+-------------+------------+----------------+ 

18/09/2021 17:51:20[INFO] Ejecutando accion...   
18/09/2021 17:51:20[ACTION] Agrego supervisor con menor numero de arcos de salida (MNAS)   
18/09/2021 17:51:20[INFO] Supervisor con menor cantidad de arcos de salida agregado 0   

--------------------------------------------------------------------------   
18/09/2021 17:51:20[INFO] Ejecutando petrinator para conocer estado de la red...   
--------------------------------------------------------------------------
   
--------------------------------------------------------------------------
   
18/09/2021 17:51:36[INFO] Calculando recompensa..   
18/09/2021 17:51:36[REWARD] Sigue existiendo el sifon del diablo que se quiso controlar, recompensa -30   

--------------------------------------------------------------------------
   
18/09/2021 17:51:36[STATE] Cambie al estado 3: Hay igual cantidad de sifones vacios en deadlock   
+--------+---------+-------------------+----------------+---------+---------+------------------------+
| Plazas | Estados | Tokens trabajando | Sifones vacios | Sifones | Trampas | Supervisores agregados |
+--------+---------+-------------------+----------------+---------+---------+------------------------+
|   31   |   882   |        2712       |       3        |    41   |    34   |           1            |
|   32   |   882   |        2712       |       3        |    49   |    39   |           2            |
+--------+---------+-------------------+----------------+---------+---------+------------------------+ 
+------------------------------+------------+-----------------+--------------------+-----------------------+
|       Estados/Acciones       | + sup MNAS | + sup aleatorio | - sup MAL agregado | - ultimo sup agregado |
+------------------------------+------------+-----------------+--------------------+-----------------------+
|            Start             |    -1.0    |       0.0       |        0.0         |          0.0          |
| + sifónes vacíos en deadlock |    0.0     |       0.0       |        0.0         |          0.0          |
| - sifónes vacíos en deadlock |   -30.0    |       0.0       |        0.0         |          0.0          |
| = sifónes vacíos en deadlock |    0.0     |       0.0       |        0.0         |          0.0          |
|             End              |    0.0     |       0.0       |        0.0         |          0.0          |
+------------------------------+------------+-----------------+--------------------+-----------------------+ 

18/09/2021 17:51:36[INFO] SIFONES   
+----+-----+---------------------------------------------------------------------+
| ID | Nro |                                Plazas                               |
+----+-----+---------------------------------------------------------------------+
| 7  |  32 | ['P2', 'P4', 'P6', 'P10', 'P15', 'P17', 'P20', 'P26', 'P29', 'P30'] |
| 8  |  40 |     ['P2', 'P4', 'P6', 'P9', 'P15', 'P17', 'P20', 'P29', 'P30']     |
| 9  |  45 |  ['P2', 'P4', 'P7', 'P9', 'P15', 'P17', 'P20', 'P27', 'P29', 'P30'] |
+----+-----+---------------------------------------------------------------------+ 

18/09/2021 17:51:36[INFO] T INVARIANTES   
+----+----+----+----+----+----+----+----+----+----+-----+-----+-----+-----+-----+-----+-----+-----+-----+-----+-----+-----+-----+-----+-----+-----+
| T0 | T1 | T2 | T3 | T4 | T5 | T6 | T7 | T8 | T9 | T10 | T11 | T12 | T13 | T14 | T15 | T16 | T17 | T18 | T19 | T20 | T21 | T22 | T23 | T24 | T25 |
+----+----+----+----+----+----+----+----+----+----+-----+-----+-----+-----+-----+-----+-----+-----+-----+-----+-----+-----+-----+-----+-----+-----+
| 1  | 1  | 1  | 0  | 0  | 0  | 0  | 0  | 0  | 0  |  0  |  0  |  0  |  0  |  0  |  0  |  0  |  0  |  0  |  0  |  0  |  0  |  0  |  0  |  0  |  0  |
| 0  | 0  | 0  | 1  | 1  | 1  | 1  | 1  | 0  | 0  |  0  |  0  |  0  |  1  |  1  |  0  |  0  |  0  |  0  |  0  |  0  |  0  |  0  |  0  |  0  |  0  |
| 0  | 0  | 0  | 0  | 0  | 0  | 0  | 0  | 1  | 1  |  1  |  1  |  1  |  1  |  1  |  0  |  0  |  0  |  0  |  0  |  0  |  0  |  0  |  0  |  0  |  0  |
| 0  | 0  | 0  | 0  | 0  | 0  | 0  | 0  | 0  | 0  |  0  |  0  |  0  |  0  |  0  |  1  |  1  |  1  |  1  |  0  |  0  |  0  |  0  |  0  |  1  |  1  |
| 0  | 0  | 0  | 0  | 0  | 0  | 0  | 0  | 0  | 0  |  0  |  0  |  0  |  0  |  0  |  0  |  0  |  0  |  0  |  1  |  1  |  1  |  1  |  1  |  1  |  1  |
+----+----+----+----+----+----+----+----+----+----+-----+-----+-----+-----+-----+-----+-----+-----+-----+-----+-----+-----+-----+-----+-----+-----+ 

18/09/2021 17:51:36[INFO] Supervisores para agregar   
+-----+---------+----------------------------+---------------------------+---------------------------------------------------------------------+
|  ID | Marcado |        T - Entrada         |         T - Salida        |                          Sifon a controlar                          |
+-----+---------+----------------------------+---------------------------+---------------------------------------------------------------------+
| P33 |    2    |    ['T2', 'T11', 'T22']    |    ['T1', 'T9', 'T21']    | ['P2', 'P4', 'P6', 'P10', 'P15', 'P17', 'P20', 'P26', 'P29', 'P30'] |
| P33 |    1    |    ['T2', 'T10', 'T22']    |    ['T1', 'T9', 'T21']    |     ['P2', 'P4', 'P6', 'P9', 'P15', 'P17', 'P20', 'P29', 'P30']     |
| P33 |    2    | ['T2', 'T7', 'T10', 'T22'] | ['T1', 'T6', 'T9', 'T20'] |  ['P2', 'P4', 'P7', 'P9', 'P15', 'P17', 'P20', 'P27', 'P29', 'P30'] |
+-----+---------+----------------------------+---------------------------+---------------------------------------------------------------------+ 

18/09/2021 17:51:36[INFO] Supervisores agregados   
+-----+-------+---------+----------------------+---------------------+----------------+
| Nro | Plaza | Marcado |     T - Entrada      |      T - Salida     | MAL supervisor |
+-----+-------+---------+----------------------+---------------------+----------------+
|  1  |  P31  |    1    |    ['T11', 'T22']    |    ['T10', 'T21']   |     False      |
|  2  |  P32  |    2    | ['T2', 'T11', 'T22'] | ['T1', 'T9', 'T21'] |      True      |
+-----+-------+---------+----------------------+---------------------+----------------+ 

18/09/2021 17:51:36[INFO] Supervisores eliminados   
+-----+-------+---------+-------------+------------+----------------+
| Nro | Plaza | Marcado | T - Entrada | T - Salida | MAL supervisor |
+-----+-------+---------+-------------+------------+----------------+
+-----+-------+---------+-------------+------------+----------------+ 

18/09/2021 17:51:36[INFO] Ejecutando accion...   
18/09/2021 17:51:36[ACTION] Agrego supervisor con menor numero de arcos de salida (MNAS)   
18/09/2021 17:51:36[INFO] Supervisor con menor cantidad de arcos de salida agregado 0   

--------------------------------------------------------------------------   
18/09/2021 17:51:36[INFO] Ejecutando petrinator para conocer estado de la red...   
--------------------------------------------------------------------------
   
--------------------------------------------------------------------------
   
18/09/2021 17:51:49[INFO] Calculando recompensa..   
18/09/2021 17:51:49[REWARD] Sigue existiendo el sifon del diablo que se quiso controlar, recompensa -30   

--------------------------------------------------------------------------
   
18/09/2021 17:51:49[STATE] Cambie al estado 3: Hay igual cantidad de sifones vacios en deadlock   
+--------+---------+-------------------+----------------+---------+---------+------------------------+
| Plazas | Estados | Tokens trabajando | Sifones vacios | Sifones | Trampas | Supervisores agregados |
+--------+---------+-------------------+----------------+---------+---------+------------------------+
|   31   |   882   |        2712       |       3        |    41   |    34   |           1            |
|   32   |   882   |        2712       |       3        |    49   |    39   |           2            |
|   33   |   882   |        2712       |       3        |    57   |    44   |           3            |
+--------+---------+-------------------+----------------+---------+---------+------------------------+ 
+------------------------------+------------+-----------------+--------------------+-----------------------+
|       Estados/Acciones       | + sup MNAS | + sup aleatorio | - sup MAL agregado | - ultimo sup agregado |
+------------------------------+------------+-----------------+--------------------+-----------------------+
|            Start             |    -1.0    |       0.0       |        0.0         |          0.0          |
| + sifónes vacíos en deadlock |    0.0     |       0.0       |        0.0         |          0.0          |
| - sifónes vacíos en deadlock |   -30.0    |       0.0       |        0.0         |          0.0          |
| = sifónes vacíos en deadlock |   -30.0    |       0.0       |        0.0         |          0.0          |
|             End              |    0.0     |       0.0       |        0.0         |          0.0          |
+------------------------------+------------+-----------------+--------------------+-----------------------+ 

18/09/2021 17:51:49[INFO] SIFONES   
+----+-----+---------------------------------------------------------------------+
| ID | Nro |                                Plazas                               |
+----+-----+---------------------------------------------------------------------+
| 10 |  39 | ['P2', 'P4', 'P6', 'P10', 'P15', 'P17', 'P20', 'P26', 'P29', 'P30'] |
| 11 |  47 |     ['P2', 'P4', 'P6', 'P9', 'P15', 'P17', 'P20', 'P29', 'P30']     |
| 12 |  52 |  ['P2', 'P4', 'P7', 'P9', 'P15', 'P17', 'P20', 'P27', 'P29', 'P30'] |
+----+-----+---------------------------------------------------------------------+ 

18/09/2021 17:51:49[INFO] T INVARIANTES   
+----+----+----+----+----+----+----+----+----+----+-----+-----+-----+-----+-----+-----+-----+-----+-----+-----+-----+-----+-----+-----+-----+-----+
| T0 | T1 | T2 | T3 | T4 | T5 | T6 | T7 | T8 | T9 | T10 | T11 | T12 | T13 | T14 | T15 | T16 | T17 | T18 | T19 | T20 | T21 | T22 | T23 | T24 | T25 |
+----+----+----+----+----+----+----+----+----+----+-----+-----+-----+-----+-----+-----+-----+-----+-----+-----+-----+-----+-----+-----+-----+-----+
| 1  | 1  | 1  | 0  | 0  | 0  | 0  | 0  | 0  | 0  |  0  |  0  |  0  |  0  |  0  |  0  |  0  |  0  |  0  |  0  |  0  |  0  |  0  |  0  |  0  |  0  |
| 0  | 0  | 0  | 1  | 1  | 1  | 1  | 1  | 0  | 0  |  0  |  0  |  0  |  1  |  1  |  0  |  0  |  0  |  0  |  0  |  0  |  0  |  0  |  0  |  0  |  0  |
| 0  | 0  | 0  | 0  | 0  | 0  | 0  | 0  | 1  | 1  |  1  |  1  |  1  |  1  |  1  |  0  |  0  |  0  |  0  |  0  |  0  |  0  |  0  |  0  |  0  |  0  |
| 0  | 0  | 0  | 0  | 0  | 0  | 0  | 0  | 0  | 0  |  0  |  0  |  0  |  0  |  0  |  1  |  1  |  1  |  1  |  0  |  0  |  0  |  0  |  0  |  1  |  1  |
| 0  | 0  | 0  | 0  | 0  | 0  | 0  | 0  | 0  | 0  |  0  |  0  |  0  |  0  |  0  |  0  |  0  |  0  |  0  |  1  |  1  |  1  |  1  |  1  |  1  |  1  |
+----+----+----+----+----+----+----+----+----+----+-----+-----+-----+-----+-----+-----+-----+-----+-----+-----+-----+-----+-----+-----+-----+-----+ 

18/09/2021 17:51:49[INFO] Supervisores para agregar   
+-----+---------+----------------------------+---------------------------+---------------------------------------------------------------------+
|  ID | Marcado |        T - Entrada         |         T - Salida        |                          Sifon a controlar                          |
+-----+---------+----------------------------+---------------------------+---------------------------------------------------------------------+
| P34 |    2    |    ['T2', 'T11', 'T22']    |    ['T1', 'T9', 'T21']    | ['P2', 'P4', 'P6', 'P10', 'P15', 'P17', 'P20', 'P26', 'P29', 'P30'] |
| P34 |    1    |    ['T2', 'T10', 'T22']    |    ['T1', 'T9', 'T21']    |     ['P2', 'P4', 'P6', 'P9', 'P15', 'P17', 'P20', 'P29', 'P30']     |
| P34 |    2    | ['T2', 'T7', 'T10', 'T22'] | ['T1', 'T6', 'T9', 'T20'] |  ['P2', 'P4', 'P7', 'P9', 'P15', 'P17', 'P20', 'P27', 'P29', 'P30'] |
+-----+---------+----------------------------+---------------------------+---------------------------------------------------------------------+ 

18/09/2021 17:51:49[INFO] Supervisores agregados   
+-----+-------+---------+----------------------+---------------------+----------------+
| Nro | Plaza | Marcado |     T - Entrada      |      T - Salida     | MAL supervisor |
+-----+-------+---------+----------------------+---------------------+----------------+
|  1  |  P31  |    1    |    ['T11', 'T22']    |    ['T10', 'T21']   |     False      |
|  2  |  P32  |    2    | ['T2', 'T11', 'T22'] | ['T1', 'T9', 'T21'] |      True      |
|  3  |  P33  |    2    | ['T2', 'T11', 'T22'] | ['T1', 'T9', 'T21'] |      True      |
+-----+-------+---------+----------------------+---------------------+----------------+ 

18/09/2021 17:51:49[INFO] Supervisores eliminados   
+-----+-------+---------+-------------+------------+----------------+
| Nro | Plaza | Marcado | T - Entrada | T - Salida | MAL supervisor |
+-----+-------+---------+-------------+------------+----------------+
+-----+-------+---------+-------------+------------+----------------+ 

18/09/2021 17:51:49[INFO] Ejecutando accion...   
18/09/2021 17:51:49[ACTION] Agrego supervisor aleatorio Numero: 1  

--------------------------------------------------------------------------   
18/09/2021 17:51:49[INFO] Ejecutando petrinator para conocer estado de la red...   
--------------------------------------------------------------------------
   
--------------------------------------------------------------------------
   
18/09/2021 17:52:08[INFO] Calculando recompensa..   
18/09/2021 17:52:08[REWARD] Agregue un supervisor que genero menos sifones vacios en deadlock, recompensa -1   

--------------------------------------------------------------------------
   
18/09/2021 17:52:08[STATE] Cambie al estado 2: Hay menos sifones vacios en deadlock   
+--------+---------+-------------------+----------------+---------+---------+------------------------+
| Plazas | Estados | Tokens trabajando | Sifones vacios | Sifones | Trampas | Supervisores agregados |
+--------+---------+-------------------+----------------+---------+---------+------------------------+
|   31   |   882   |        2712       |       3        |    41   |    34   |           1            |
|   32   |   882   |        2712       |       3        |    49   |    39   |           2            |
|   33   |   882   |        2712       |       3        |    57   |    44   |           3            |
|   34   |   862   |        2639       |       2        |    68   |    81   |           4            |
+--------+---------+-------------------+----------------+---------+---------+------------------------+ 
+------------------------------+------------+-----------------+--------------------+-----------------------+
|       Estados/Acciones       | + sup MNAS | + sup aleatorio | - sup MAL agregado | - ultimo sup agregado |
+------------------------------+------------+-----------------+--------------------+-----------------------+
|            Start             |    -1.0    |       0.0       |        0.0         |          0.0          |
| + sifónes vacíos en deadlock |    0.0     |       0.0       |        0.0         |          0.0          |
| - sifónes vacíos en deadlock |   -30.0    |       0.0       |        0.0         |          0.0          |
| = sifónes vacíos en deadlock |   -30.0    |       -1.0      |        0.0         |          0.0          |
|             End              |    0.0     |       0.0       |        0.0         |          0.0          |
+------------------------------+------------+-----------------+--------------------+-----------------------+ 

18/09/2021 17:52:08[INFO] SIFONES   
+----+-----+--------------------------------------------------------------------+
| ID | Nro |                               Plazas                               |
+----+-----+--------------------------------------------------------------------+
| 13 |  27 |       ['P1', 'P7', 'P9', 'P15', 'P20', 'P27', 'P30', 'P34']        |
| 14 |  62 | ['P2', 'P4', 'P7', 'P9', 'P15', 'P17', 'P20', 'P27', 'P29', 'P30'] |
+----+-----+--------------------------------------------------------------------+ 

18/09/2021 17:52:08[INFO] T INVARIANTES   
+----+----+----+----+----+----+----+----+----+----+-----+-----+-----+-----+-----+-----+-----+-----+-----+-----+-----+-----+-----+-----+-----+-----+
| T0 | T1 | T2 | T3 | T4 | T5 | T6 | T7 | T8 | T9 | T10 | T11 | T12 | T13 | T14 | T15 | T16 | T17 | T18 | T19 | T20 | T21 | T22 | T23 | T24 | T25 |
+----+----+----+----+----+----+----+----+----+----+-----+-----+-----+-----+-----+-----+-----+-----+-----+-----+-----+-----+-----+-----+-----+-----+
| 1  | 1  | 1  | 0  | 0  | 0  | 0  | 0  | 0  | 0  |  0  |  0  |  0  |  0  |  0  |  0  |  0  |  0  |  0  |  0  |  0  |  0  |  0  |  0  |  0  |  0  |
| 0  | 0  | 0  | 1  | 1  | 1  | 1  | 1  | 0  | 0  |  0  |  0  |  0  |  1  |  1  |  0  |  0  |  0  |  0  |  0  |  0  |  0  |  0  |  0  |  0  |  0  |
| 0  | 0  | 0  | 0  | 0  | 0  | 0  | 0  | 1  | 1  |  1  |  1  |  1  |  1  |  1  |  0  |  0  |  0  |  0  |  0  |  0  |  0  |  0  |  0  |  0  |  0  |
| 0  | 0  | 0  | 0  | 0  | 0  | 0  | 0  | 0  | 0  |  0  |  0  |  0  |  0  |  0  |  1  |  1  |  1  |  1  |  0  |  0  |  0  |  0  |  0  |  1  |  1  |
| 0  | 0  | 0  | 0  | 0  | 0  | 0  | 0  | 0  | 0  |  0  |  0  |  0  |  0  |  0  |  0  |  0  |  0  |  0  |  1  |  1  |  1  |  1  |  1  |  1  |  1  |
+----+----+----+----+----+----+----+----+----+----+-----+-----+-----+-----+-----+-----+-----+-----+-----+-----+-----+-----+-----+-----+-----+-----+ 

18/09/2021 17:52:08[INFO] Supervisores para agregar   
+-----+---------+----------------------------+---------------------------+--------------------------------------------------------------------+
|  ID | Marcado |        T - Entrada         |         T - Salida        |                         Sifon a controlar                          |
+-----+---------+----------------------------+---------------------------+--------------------------------------------------------------------+
| P35 |    1    | ['T2', 'T7', 'T10', 'T22'] |    ['T6', 'T9', 'T20']    |       ['P1', 'P7', 'P9', 'P15', 'P20', 'P27', 'P30', 'P34']        |
| P35 |    2    | ['T2', 'T7', 'T10', 'T22'] | ['T1', 'T6', 'T9', 'T20'] | ['P2', 'P4', 'P7', 'P9', 'P15', 'P17', 'P20', 'P27', 'P29', 'P30'] |
+-----+---------+----------------------------+---------------------------+--------------------------------------------------------------------+ 

18/09/2021 17:52:08[INFO] Supervisores agregados   
+-----+-------+---------+----------------------+---------------------+----------------+
| Nro | Plaza | Marcado |     T - Entrada      |      T - Salida     | MAL supervisor |
+-----+-------+---------+----------------------+---------------------+----------------+
|  1  |  P31  |    1    |    ['T11', 'T22']    |    ['T10', 'T21']   |     False      |
|  2  |  P32  |    2    | ['T2', 'T11', 'T22'] | ['T1', 'T9', 'T21'] |      True      |
|  3  |  P33  |    2    | ['T2', 'T11', 'T22'] | ['T1', 'T9', 'T21'] |      True      |
|  4  |  P34  |    1    | ['T2', 'T10', 'T22'] | ['T1', 'T9', 'T21'] |     False      |
+-----+-------+---------+----------------------+---------------------+----------------+ 

18/09/2021 17:52:08[INFO] Supervisores eliminados   
+-----+-------+---------+-------------+------------+----------------+
| Nro | Plaza | Marcado | T - Entrada | T - Salida | MAL supervisor |
+-----+-------+---------+-------------+------------+----------------+
+-----+-------+---------+-------------+------------+----------------+ 

18/09/2021 17:52:08[INFO] Ejecutando accion...   
18/09/2021 17:52:08[ACTION] Agrego supervisor aleatorio Numero: 1  

--------------------------------------------------------------------------   
18/09/2021 17:52:08[INFO] Ejecutando petrinator para conocer estado de la red...   
--------------------------------------------------------------------------
   
--------------------------------------------------------------------------
   
18/09/2021 17:52:27[INFO] Calculando recompensa..   
18/09/2021 17:52:27[REWARD] No hay mas deadlock, recompensa 100   

--------------------------------------------------------------------------
   
18/09/2021 17:52:27[STATE] Se llego al estado deseado, NO HAY MAS DEADLOCK   

--------------------------------------------------------------------------
   
+--------+---------+-------------------+----------------+---------+---------+------------------------+
| Plazas | Estados | Tokens trabajando | Sifones vacios | Sifones | Trampas | Supervisores agregados |
+--------+---------+-------------------+----------------+---------+---------+------------------------+
|   31   |   882   |        2712       |       3        |    41   |    34   |           1            |
|   32   |   882   |        2712       |       3        |    49   |    39   |           2            |
|   33   |   882   |        2712       |       3        |    57   |    44   |           3            |
|   34   |   862   |        2639       |       2        |    68   |    81   |           4            |
|   35   |   861   |        2636       |       0        |    96   |   101   |           5            |
+--------+---------+-------------------+----------------+---------+---------+------------------------+ 
+------------------------------+------------+-----------------+--------------------+-----------------------+
|       Estados/Acciones       | + sup MNAS | + sup aleatorio | - sup MAL agregado | - ultimo sup agregado |
+------------------------------+------------+-----------------+--------------------+-----------------------+
|            Start             |    -1.0    |       0.0       |        0.0         |          0.0          |
| + sifónes vacíos en deadlock |    0.0     |       0.0       |        0.0         |          0.0          |
| - sifónes vacíos en deadlock |   -30.0    |      100.0      |        0.0         |          0.0          |
| = sifónes vacíos en deadlock |   -30.0    |       -1.0      |        0.0         |          0.0          |
|             End              |    0.0     |       0.0       |        0.0         |          0.0          |
+------------------------------+------------+-----------------+--------------------+-----------------------+ 

18/09/2021 17:52:27[INFO] Comienza proceso de eliminacion de supervisores redundantes   
18/09/2021 17:52:27[INFO] Supervisor a eliminar   
+-----+-------+---------+----------------+----------------+----------------+
| Nro | Plaza | Marcado |  T - Entrada   |   T - Salida   | MAL supervisor |
+-----+-------+---------+----------------+----------------+----------------+
|  1  |  P31  |    1    | ['T11', 'T22'] | ['T10', 'T21'] |     False      |
+-----+-------+---------+----------------+----------------+----------------+ 
18/09/2021 17:52:27[INFO] Eliminando supervisor ...   

--------------------------------------------------------------------------   
18/09/2021 17:52:27[INFO] Ejecutando petrinator para conocer estado de la red...   
--------------------------------------------------------------------------
   
18/09/2021 17:52:43[INFO] El supervisor eliminado no era redundante, volviendo a agregar supervisor   
18/09/2021 17:52:43[INFO] Se volvio a agregar correctamente el supervisor eliminado   

--------------------------------------------------------------------------   
18/09/2021 17:52:43[INFO] Ejecutando petrinator para conocer estado de la red...   
--------------------------------------------------------------------------
   
18/09/2021 17:53:01[INFO] Supervisor a eliminar   
+-----+-------+---------+----------------------+---------------------+----------------+
| Nro | Plaza | Marcado |     T - Entrada      |      T - Salida     | MAL supervisor |
+-----+-------+---------+----------------------+---------------------+----------------+
|  2  |  P32  |    2    | ['T2', 'T11', 'T22'] | ['T1', 'T9', 'T21'] |      True      |
+-----+-------+---------+----------------------+---------------------+----------------+ 
18/09/2021 17:53:01[INFO] Eliminando supervisor ...   

--------------------------------------------------------------------------   
18/09/2021 17:53:01[INFO] Ejecutando petrinator para conocer estado de la red...   
--------------------------------------------------------------------------
   
18/09/2021 17:53:17[INFO] Se elimino correctamente supervisor redundante   
18/09/2021 17:53:17[INFO] Supervisor a eliminar   
+-----+-------+---------+----------------------+---------------------+----------------+
| Nro | Plaza | Marcado |     T - Entrada      |      T - Salida     | MAL supervisor |
+-----+-------+---------+----------------------+---------------------+----------------+
|  3  |  P33  |    2    | ['T2', 'T11', 'T22'] | ['T1', 'T9', 'T21'] |      True      |
+-----+-------+---------+----------------------+---------------------+----------------+ 
18/09/2021 17:53:17[INFO] Eliminando supervisor ...   

--------------------------------------------------------------------------   
18/09/2021 17:53:17[INFO] Ejecutando petrinator para conocer estado de la red...   
--------------------------------------------------------------------------
   
18/09/2021 17:53:32[INFO] Se elimino correctamente supervisor redundante   
18/09/2021 17:53:32[INFO] Supervisor a eliminar   
+-----+-------+---------+----------------------+---------------------+----------------+
| Nro | Plaza | Marcado |     T - Entrada      |      T - Salida     | MAL supervisor |
+-----+-------+---------+----------------------+---------------------+----------------+
|  4  |  P34  |    1    | ['T2', 'T10', 'T22'] | ['T1', 'T9', 'T21'] |     False      |
+-----+-------+---------+----------------------+---------------------+----------------+ 
18/09/2021 17:53:32[INFO] Eliminando supervisor ...   

--------------------------------------------------------------------------   
18/09/2021 17:53:32[INFO] Ejecutando petrinator para conocer estado de la red...   
--------------------------------------------------------------------------
   
18/09/2021 17:53:44[INFO] El supervisor eliminado no era redundante, volviendo a agregar supervisor   
18/09/2021 17:53:44[INFO] Se volvio a agregar correctamente el supervisor eliminado   

--------------------------------------------------------------------------   
18/09/2021 17:53:44[INFO] Ejecutando petrinator para conocer estado de la red...   
--------------------------------------------------------------------------
   
18/09/2021 17:54:02[INFO] Supervisor a eliminar   
+-----+-------+---------+----------------------------+---------------------------+----------------+
| Nro | Plaza | Marcado |        T - Entrada         |         T - Salida        | MAL supervisor |
+-----+-------+---------+----------------------------+---------------------------+----------------+
|  5  |  P35  |    2    | ['T2', 'T7', 'T10', 'T22'] | ['T1', 'T6', 'T9', 'T20'] |     False      |
+-----+-------+---------+----------------------------+---------------------------+----------------+ 
18/09/2021 17:54:02[INFO] Eliminando supervisor ...   

--------------------------------------------------------------------------   
18/09/2021 17:54:02[INFO] Ejecutando petrinator para conocer estado de la red...   
--------------------------------------------------------------------------
   
18/09/2021 17:54:17[INFO] El supervisor eliminado no era redundante, volviendo a agregar supervisor   
18/09/2021 17:54:17[INFO] Se volvio a agregar correctamente el supervisor eliminado   

--------------------------------------------------------------------------   
18/09/2021 17:54:17[INFO] Ejecutando petrinator para conocer estado de la red...   
--------------------------------------------------------------------------
   
18/09/2021 17:54:36[INFO] Se eliminaron todos los supervisores redundantes   
+--------+---------+-------------------+----------------+---------+---------+------------------------+-------------------------+
| Plazas | Estados | Tokens trabajando | Sifones vacios | Sifones | Trampas | Supervisores agregados | Supervisores eliminados |
+--------+---------+-------------------+----------------+---------+---------+------------------------+-------------------------+
|   33   |   861   |        2636       |       0        |    70   |    69   |           3            |            2            |
+--------+---------+-------------------+----------------+---------+---------+------------------------+-------------------------+ 
