 Minimal siphons 
4 9 14 18 25 30 31
3 9 14 18 25 29 30
2 9 14 18 25 29
1 14 18
7 13 27
9 12 21
11 12 13 14 16
11 15
7 8 9 10
1 9 13 29
1 62 7 8 12 13
1 9 13 14 29
2 8 25
2 7 22
2 8 19
1 57 2 7 8
2 9 13 25 29
2 8 9 25
2 8 9 19
2 7 8 9 22
1 57 2 7 8 9
2 9 13 19 29
1 57 2 7 8 9 13 27
2 7 8 9 13 22 27
2 9 13 19 21 27
2 8 9 13 19 27
2 9 13 21 25 27
2 8 9 13 25 27
2 9 14 18 19 29
2 9 14 18 19 21 27
2 9 14 18 21 25 27
3 8 14 18 25 30
3 7 14 18 22 30
3 12 26
3 11 23
3 14 17
3 5
3 7 13 30
3 7 12 28
3 7 24
1 3 7 14 18 24
3 7 14 18 22 27 28
3 7 14 18 22 26 27
3 8 13 25 30
3 8 12 25 28
3 8 24 25
3 8 19 24
3 8 12 19 28
3 8 13 19 30
62 3 7 8 12 13 22 23
3 8 13 19 27 28
62 3 8 12 13 19 23
3 8 13 19 26 27
62 3 8 13 19 23 27
3 8 13 25 27 28
62 3 8 12 13 23 25
3 8 13 25 26 27
62 3 8 13 23 25 27
3 8 14 18 19 30
1 3 7 8 14 18 24
62 3 7 8 14 18 22 23
3 8 14 18 19 27 28
62 3 8 14 18 19 23
3 8 14 18 19 26 27
3 8 14 18 25 27 28
62 3 8 14 18 23 25
3 8 14 18 25 26 27
3 9 13 25 29 30
3 9 13 19 29 30
1 61 57 3 5 7 8 9 11 12 13
1 61 57 2 3 7 8 9 11 12 13
1 62 3 5 7 9 13 29
1 62 2 3 7 9 13 29
3 7 9 13 22 28 29
3 7 9 13 22 26 29
3 7 9 13 21 22 23 29
62 3 7 9 13 22 23 29
3 9 13 19 21 30
3 9 13 19 21 27 28
3 9 13 19 21 26 27
3 9 13 19 21 24 27
3 9 13 19 21 23 27
3 9 13 19 28 29
3 9 13 19 26 29
3 9 13 19 24 29
3 9 13 19 21 23 29
62 3 9 13 19 23 29
3 9 13 21 25 30
3 9 13 21 25 27 28
3 9 13 21 25 26 27
3 9 13 21 24 25 27
3 9 13 21 23 25 27
3 9 13 25 28 29
3 9 13 25 26 29
3 9 13 24 25 29
3 9 13 21 23 25 29
62 3 9 13 23 25 29
1 61 57 3 5 7 8 9 11 12 13 14
1 61 57 2 3 7 8 9 11 12 13 14
1 62 3 5 7 9 13 14 29
1 62 2 3 7 9 13 14 29
3 9 14 18 19 29 30
1 3 7 8 9 14 18 24
3 7 9 14 18 21 22 23 27
3 7 9 14 18 22 28 29
3 7 9 14 18 22 26 29
3 7 9 14 18 21 22 23 29
62 3 7 9 14 18 22 23 29
3 9 14 18 19 21 30
3 9 14 18 19 21 27 28
3 9 14 18 19 21 26 27
3 9 14 18 19 21 24 27
3 9 14 18 19 21 23 27
3 9 14 18 19 28 29
3 9 14 18 19 26 29
3 9 14 18 19 24 29
3 9 14 18 19 21 23 29
62 3 9 14 18 19 23 29
3 9 14 18 21 25 30
3 9 14 18 21 25 27 28
3 9 14 18 21 25 26 27
3 9 14 18 21 24 25 27
3 9 14 18 21 23 25 27
3 9 14 18 25 28 29
3 9 14 18 25 26 29
3 9 14 18 24 25 29
3 9 14 18 21 23 25 29
62 3 9 14 18 23 25 29
4 8 20
1 2 3 4 6
3 4 7 24
1 3 4 7 14 18 24
1 3 4 7 8 14 18 24
4 9 13 31
4 9 13 20 25 29 30
1 61 57 3 4 5 7 8 9 11 12 13
1 61 57 2 3 4 7 8 9 11 12 13
1 62 3 4 5 7 9 13 29
1 62 2 3 4 7 9 13 29
4 9 13 20 22 29 30
4 9 13 19 20 29 30
4 9 13 20 21 30
4 9 13 20 21 27
4 9 13 19 20 28 29
4 9 13 19 20 26 29
4 9 13 19 20 24 29
4 9 13 19 20 21 23 29
4 9 11 13 19 20 23 29
62 4 9 13 19 20 23 29
4 5 9 13 19 20 29
4 9 13 20 22 28 29
4 9 13 20 22 26 29
4 9 13 20 22 24 29
4 9 13 20 21 22 23 29
4 9 11 13 20 22 23 29
62 4 9 13 20 22 23 29
4 5 9 13 20 22 29
2 4 9 13 20 22 29
4 9 13 20 25 28 29
4 9 13 20 25 26 29
4 9 13 20 24 25 29
4 9 13 20 21 23 25 29
4 9 11 13 20 23 25 29
62 4 9 13 20 23 25 29
4 5 9 13 20 25 29
4 9 14 17 31
1 61 57 3 4 5 7 8 9 11 12 13 14
1 61 57 2 3 4 7 8 9 11 12 13 14
1 62 3 4 5 7 9 13 14 29
1 62 2 3 4 7 9 13 14 29
4 9 14 17 20 25 29
4 9 14 17 20 22 29
4 9 14 17 19 20 29
1 4 9 14 17 20 29
4 9 14 17 20 21 30
4 9 14 17 20 21 27
4 9 14 18 20 22 30 31
4 9 14 18 19 30 31
4 7 9 14 18 22 30 31
1 3 4 7 8 9 14 18 24
1 3 4 7 8 9 14 18 24 27
4 7 9 14 18 22 28 31
4 7 9 14 18 22 26 31
4 7 9 14 18 22 24 31
4 7 9 14 18 21 22 23 31
4 7 9 11 14 18 22 23 31
62 4 7 9 14 18 22 23 31
4 5 7 9 14 18 22 31
3 4 7 8 9 14 18 22 24
4 9 14 18 19 28 31
4 9 14 18 19 26 31
4 9 14 18 19 24 31
4 9 14 18 19 21 23 31
4 9 11 14 18 19 23 31
62 4 9 14 18 19 23 31
4 5 9 14 18 19 31
2 4 9 14 18 19 31
3 4 8 9 14 18 19 24
4 5 9 14 18 19 20 29
62 4 9 14 18 19 20 23 29
4 9 11 14 18 19 20 23 29
4 5 9 14 18 19 20 21 27
4 9 14 18 19 20 21 23 29
4 9 14 18 19 20 21 23 27
4 9 14 18 19 20 24 29
4 9 14 18 19 20 21 24 27
4 9 14 18 19 20 26 29
4 9 14 18 19 20 21 26 27
4 9 14 18 19 20 28 29
4 9 14 18 19 20 21 27 28
4 9 14 18 19 20 29 30
4 9 14 18 19 20 21 30
4 9 14 18 20 22 28 31
4 9 14 18 20 22 26 31
4 9 14 18 20 22 24 31
4 9 14 18 20 21 22 23 31
4 9 11 14 18 20 22 23 31
62 4 9 14 18 20 22 23 31
4 5 9 14 18 20 22 31
2 4 9 14 18 20 22 31
2 4 9 14 18 20 22 29
4 5 9 14 18 20 22 29
62 4 9 14 18 20 22 23 29
4 9 11 14 18 20 22 23 29
2 4 9 14 18 20 21 22 27
4 5 9 14 18 20 21 22 27
4 9 14 18 20 21 22 23 29
4 9 14 18 20 21 22 23 27
4 9 14 18 20 22 24 29
4 9 14 18 20 21 22 24 27
4 9 14 18 20 22 26 29
4 9 14 18 20 21 22 26 27
4 9 14 18 20 22 28 29
4 9 14 18 20 21 22 27 28
4 9 14 18 20 22 29 30
4 9 14 18 20 21 22 30
4 9 14 18 25 28 31
4 9 14 18 25 26 31
4 9 14 18 24 25 31
4 9 14 18 21 23 25 31
4 9 11 14 18 23 25 31
62 4 9 14 18 23 25 31
4 5 9 14 18 25 31
2 4 9 14 18 25 31
4 5 9 14 18 20 25 29
62 4 9 14 18 20 23 25 29
4 9 11 14 18 20 23 25 29
4 5 9 14 18 20 21 25 27
4 9 14 18 20 21 23 25 29
4 9 14 18 20 21 23 25 27
4 9 14 18 20 24 25 29
3 4 8 9 14 18 24 25
4 9 14 18 20 21 24 25 27
4 9 14 18 20 25 26 29
4 9 14 18 20 21 25 26 27
4 9 14 18 20 25 28 29
4 9 14 18 20 21 25 27 28
4 9 14 18 20 25 29 30
4 9 14 18 20 21 25 30
 Minimal traps 
1 7 11 23 25 28 29
2 7 11 23 25 28
3 11 23
11 15
4 7 12 20 21 27
9 12 21
7 13 27
7 8 9 10
4 8 20
4 9 13 31
11 12 13 14 16
3 7 12 28
3 12 26
3 8 13 17 20 31
3 9 13 17 31
3 14 17
3 5
3 8 12 17 20 21 31
3 7 13 30
3 7 24
3 7 12 20 21 30
3 7 12 17 20 21 27
2 8 25
2 8 19
2 3 8 9 11 21 23 26
2 7 12 25 28
2 7 13 25 30
2 7 24 25
2 7 22
2 7 19 24
2 3 7 24
2 7 13 19 30
2 7 13 17 19 22 31
2 5 7 13 19 22 31
2 4 7 13 19 22 31
2 7 12 19 28
2 7 12 19 26 30
2 7 12 19 21 30
2 7 12 19 21 27
2 7 12 19 26 27
2 7 12 19 21 22
2 7 12 13 17 19 22 31
2 5 7 12 13 19 22 31
2 4 7 12 13 19 22 31
2 7 12 25 26 30
2 7 12 21 25 30
2 7 12 21 25 27
2 7 12 25 26 27
2 7 11 12 19 21 22
2 7 11 12 13 17 19 22 31
2 5 7 11 12 13 19 22 31
2 4 7 11 12 13 19 22 31
2 7 11 19 23 28
2 3 7 11 23 24
2 3 7 9 10 11 23 24
2 3 7 11 20 23 24
2 3 7 8 11 20 23
2 3 7 8 9 11 21 23 26
2 7 11 19 23 26 30
2 7 11 19 21 23 30
2 7 11 19 21 23 27
2 7 11 19 23 26 27
2 7 11 23 25 26 30
2 7 11 21 23 25 30
2 7 11 21 23 25 27
2 7 11 23 25 26 27
1 8 11 23 25 26 29
1 61 11 23 25
1 14 18
1 9 13 29
1 9 12 13 29
1 9 11 12 13 29
1 2 3 4 6
1 2 3 9 11 21 23 26
1 61 11 12 25 26
1 61 11 12 19 26
1 61 4 11 12 20 21
1 61 11 12 13
1 61 4 6 11 12 13
1 61 3 11 12 17 20 21
1 61 3 4 6 11 12 13
1 61 3 11 12 13 17
1 61 3 9 11 12 13 17 31
1 61 11 12 19 21
1 61 11 12 21 25
1 61 11 19 23
1 8 12 25 26 29
1 8 13 25 29
1 8 13 19 29
1 3 8 13 17 20 29
1 8 13 17 18 19 31
1 5 8 13 18 19 31
1 4 8 13 18 19 31
1 8 13 17 18 25 31
1 5 8 13 18 25 31
1 4 8 13 18 25 31
1 8 12 19 26 29
1 3 8 12 17 20 21 29
1 8 12 19 21 29
1 4 8 12 13 18 19 31
1 8 12 17 18 19 21 31
1 5 8 12 18 19 21 31
1 4 8 12 18 19 21 31
1 8 12 18 19 26 31
1 8 12 21 25 29
1 8 12 17 18 21 25 31
1 5 8 12 18 21 25 31
1 4 8 12 18 21 25 31
1 8 12 18 25 26 31
1 4 8 11 12 13 18 19 31
1 4 8 11 12 18 19 21 31
1 61 4 8 11 12 19 21 31
1 8 11 19 23 26 29
1 2 3 8 9 11 21 23 26
1 8 11 19 21 23 29
1 8 11 13 18 19 23 31
1 8 11 18 19 21 23 31
1 8 11 18 19 23 26 31
1 8 11 21 23 25 29
1 8 11 13 18 23 25 31
1 8 11 18 21 23 25 31
1 8 11 18 23 25 26 31
1 7 12 25 28 29
1 7 13 25 29 30
1 57 2 7 8
1 57 2 7 24
1 7 13 20 22 29 30
1 7 13 19 29 30
1 57 7 13 29 30
1 7 13 18 22 30
1 57 7 13 18 30
1 57 2 7 13 30
1 57 2 7 13 14 17 24
1 57 7 13 18 24 31
1 57 7 13 17 18 22 31
1 57 5 7 13 18 22 31
1 57 4 7 13 18 22 31
1 57 4 7 8 13 18 31
1 57 5 7 8 13 18 31
1 57 7 8 13 17 18 31
1 57 7 13 24 29
1 57 7 13 22 29
1 57 7 8 13 29
1 7 8 9 13 29
1 7 9 13 18 22 24 31
1 7 9 13 17 18 22 31
1 5 7 9 13 18 22 31
1 4 7 9 13 18 22 31
1 7 13 18 19 30
1 2 7 13 14 17 19 24
1 7 13 18 19 24 31
1 7 13 17 18 19 22 31
1 5 7 13 18 19 22 31
1 4 7 13 18 19 22 31
1 7 13 19 24 29
1 7 13 19 22 29
1 7 13 18 20 22 24 31
1 7 13 17 18 20 22 31
1 5 7 13 18 20 22 31
1 4 7 13 18 20 22 31
1 7 13 20 22 24 29
1 7 13 17 20 22 29
1 5 7 13 20 22 29
1 4 7 13 20 22 29
1 7 13 18 25 30
1 7 13 18 24 25 31
1 7 13 17 18 22 25 31
1 5 7 13 18 22 25 31
1 4 7 13 18 22 25 31
1 7 13 24 25 29
1 7 13 22 25 29
1 7 12 20 22 28 29
1 7 12 19 28 29
1 7 9 12 22 28 29
1 57 7 12 28 29
1 62 7 12 22 28
1 7 12 18 22 28 30
1 2 3 7 12 24 26
1 7 12 18 22 26 30
1 7 12 18 22 26 27
1 7 12 18 22 27 28
1 62 7 12 21 27
1 62 7 8 12 13
1 62 7 8 12 21
1 62 3 7 12 21 30
1 62 7 12 22 26
1 62 7 12 21 22
1 62 7 12 13 22
1 57 7 12 26 29 30
1 57 7 12 21 29 30
1 62 57 7 12 13 30
1 62 57 7 12 13 24
1 62 57 7 12 13 27
1 62 57 2 5 7 8 12 13
1 57 2 7 12 13 14 17 24
1 62 57 2 7 12 13 24
1 62 57 5 7 8 12 13 18
1 62 57 7 12 13 18 24
1 57 7 12 18 21 30
1 57 2 7 12 21 30
1 62 57 7 12 21 30
1 62 57 7 12 21 24
1 62 57 7 12 21 27
1 57 2 7 12 21 27
1 57 7 12 18 21 24 31
1 57 7 12 18 21 27
1 57 7 12 17 18 21 22 31
1 57 5 7 12 18 21 22 31
1 57 4 7 12 18 21 22 31
1 57 4 7 8 12 18 21 31
1 57 5 7 8 12 18 21 31
1 62 57 5 7 8 12 18 21
1 57 7 8 12 17 18 21 31
1 62 57 7 12 18 21 24
1 57 7 12 21 24 29
1 57 7 12 21 27 29
1 57 7 12 21 22 29
1 57 7 8 12 21 29
1 57 7 12 18 26 30
1 57 2 7 12 26 30
1 62 57 7 12 26 30
1 62 57 7 12 26 27
1 62 57 7 12 24 26
1 62 57 7 8 12 26
1 57 2 7 12 26 27
1 57 7 12 18 26 27
1 57 7 12 18 24 26 31
1 57 7 12 18 22 26 31
1 57 7 8 12 18 26 31
1 62 57 7 8 12 18 26
1 62 57 7 12 18 24 26
1 57 7 12 26 27 29
1 57 7 12 24 26 29
1 57 7 12 22 26 29
1 57 7 8 12 26 29
1 57 7 12 18 28 31
1 57 2 7 12 28
1 62 57 7 12 28
1 57 7 12 18 28 30
1 57 7 12 18 27 28
1 62 57 7 12 18 28
1 7 8 9 12 13 29
1 62 57 7 9 10 12 13 24
1 2 3 4 6 7 8 9 12 21
1 2 3 7 9 10 12 24 26
1 7 9 12 22 26 29
1 62 4 7 9 12 13 22 31
1 62 7 9 10 12 13 22
1 62 4 6 7 9 10 12 13 22
1 62 5 7 9 10 12 13 22
1 62 7 9 10 12 13 17 22
1 62 7 9 10 12 13 22 24
1 4 7 9 12 13 18 22 31
1 7 9 12 18 22 26 31
1 7 9 12 18 22 28 31
1 7 12 19 26 29 30
1 7 12 19 21 29 30
1 62 7 12 13 19 30
1 62 7 12 13 19 24
1 62 7 12 13 19 27
1 2 7 12 13 14 17 19 24
1 62 2 7 12 13 19 24
1 62 7 12 13 18 19 24
1 7 12 18 19 21 30
1 62 7 12 19 21 30
1 62 7 12 19 21 24
1 62 7 12 19 21 27
1 7 12 18 19 21 24 31
1 7 12 18 19 21 27
1 7 12 17 18 19 21 22 31
1 5 7 12 18 19 21 22 31
1 4 7 12 18 19 21 22 31
1 62 7 12 18 19 21 24
1 7 12 19 21 24 29
1 7 12 19 21 27 29
1 7 12 19 21 22 29
1 7 12 18 19 26 30
1 62 7 12 19 26 30
1 62 7 12 19 26 27
1 62 7 12 19 24 26
1 62 7 8 12 19 26
1 7 12 18 19 26 27
1 7 12 18 19 24 26 31
1 7 12 18 19 22 26 31
1 62 7 12 18 19 24 26
1 7 12 19 26 27 29
1 7 12 19 24 26 29
1 7 12 19 22 26 29
1 7 12 18 19 28 31
1 62 7 12 19 28
1 7 12 18 19 28 30
1 7 12 18 19 27 28
1 62 7 12 18 19 28
1 7 12 20 22 26 29
1 7 12 20 21 22 29 30
1 62 4 7 12 13 20 22
1 4 7 12 13 18 20 22 31
1 4 7 12 13 20 22 29
1 7 12 18 20 21 22 30
1 62 4 7 12 20 21 22
1 7 12 18 20 21 22 24 31
1 7 12 17 18 20 21 22 31
1 5 7 12 18 20 21 22 31
1 4 7 12 18 20 21 22 31
1 5 7 12 18 20 21 22 27
1 7 12 17 18 20 21 22 27
1 7 12 18 20 21 22 24 27
1 7 12 20 21 22 24 29
1 7 12 17 20 21 22 29
1 5 7 12 20 21 22 29
1 4 7 12 20 21 22 29
1 7 12 18 20 22 26 31
1 7 12 18 20 22 28 31
1 7 12 25 26 29 30
1 7 12 21 25 29 30
1 62 7 12 13 25 30
1 62 7 12 13 24 25
1 7 12 18 21 25 30
1 62 7 12 21 25 30
1 62 7 12 21 24 25
1 7 12 18 21 24 25 31
1 7 12 18 21 25 27
1 7 12 17 18 21 22 25 31
1 5 7 12 18 21 22 25 31
1 4 7 12 18 21 22 25 31
1 7 12 21 24 25 29
1 7 12 21 25 27 29
1 7 12 21 22 25 29
1 7 12 18 25 26 30
1 62 7 12 25 26 30
1 62 7 12 25 26 27
1 62 7 12 24 25 26
1 62 7 8 12 25 26
1 7 12 18 25 26 27
1 7 12 18 24 25 26 31
1 7 12 18 22 25 26 31
1 7 12 25 26 27 29
1 7 12 24 25 26 29
1 7 12 22 25 26 29
1 7 12 18 25 28 31
1 62 7 12 25 28
1 7 12 18 25 28 30
1 7 12 18 25 27 28
1 61 7 11 12 22 28
1 61 7 11 12 22 26
1 2 3 7 11 12 24 26
1 61 7 11 12 13 18
1 61 3 4 6 7 11 12 13 18
1 61 3 7 11 12 13 17 18
1 62 61 7 11 12 21
1 62 57 7 11 12 13 30
1 62 57 7 11 12 13 24
1 62 57 7 11 12 13 27
1 62 57 2 5 7 8 11 12 13
1 57 2 7 11 12 13 14 17 24
1 62 57 2 7 11 12 13 24
1 61 57 4 6 7 11 12 13 18
1 62 57 5 7 8 11 12 13 18
1 62 57 7 11 12 13 18 24
1 61 57 7 11 12 21
1 62 57 7 11 12 21 30
1 62 57 7 11 12 21 24
1 62 57 7 11 12 21 27
1 62 57 5 7 8 11 12 18 21
1 62 57 7 11 12 18 21 24
1 61 57 7 11 12 26
1 62 57 7 11 12 26 30
1 62 57 7 11 12 26 27
1 62 57 7 11 12 24 26
1 62 57 7 8 11 12 26
1 62 57 7 8 11 12 18 26
1 61 57 7 11 12 18 24 26
1 62 57 7 11 12 18 24 26
1 61 57 7 11 12 28
1 62 57 7 11 12 28
1 57 7 11 12 18 28 30
1 57 7 11 12 18 27 28
1 61 57 7 11 12 18 28
1 62 57 7 11 12 18 28
1 7 8 9 11 12 13 29
1 61 7 9 10 11 12 13
1 61 4 6 7 9 10 11 12 13
1 62 57 7 9 10 11 12 13 24
1 61 57 7 9 10 11 12 13 18
1 61 57 4 6 7 9 10 11 12 13 18
1 61 57 5 7 9 10 11 12 13 18
1 61 3 4 6 7 9 10 11 12 13 18
1 61 3 7 9 10 11 12 13 17 18
1 2 3 7 9 10 11 12 24 26
1 62 4 7 9 11 12 13 22 31
1 62 7 9 10 11 12 13 22
1 62 4 6 7 9 10 11 12 13 22
1 62 5 7 9 10 11 12 13 22
1 62 7 9 10 11 12 13 17 22
1 62 7 9 10 11 12 13 22 24
1 4 7 9 11 12 13 18 22 31
1 62 7 11 12 13 19 30
1 62 7 11 12 13 19 24
1 62 7 11 12 13 19 27
1 2 7 11 12 13 14 17 19 24
1 62 2 7 11 12 13 19 24
1 62 7 11 12 13 18 19 24
1 62 7 11 12 19 21 30
1 62 7 11 12 19 21 24
1 62 7 11 12 19 21 27
1 62 7 11 12 18 19 21 24
1 62 7 11 12 19 26 30
1 62 7 11 12 19 26 27
1 62 7 11 12 19 24 26
1 61 7 11 12 18 19 24 26
1 62 7 11 12 18 19 24 26
1 61 7 11 12 19 28
1 62 7 11 12 19 28
1 7 11 12 18 19 28 30
1 7 11 12 18 19 27 28
1 61 7 11 12 18 19 28
1 62 7 11 12 18 19 28
1 62 4 7 11 12 13 20 22
1 4 7 11 12 13 18 20 22 31
1 4 7 11 12 13 20 22 29
1 61 7 11 12 20 21 22 30
1 62 4 7 11 12 20 21 22
1 61 7 11 12 20 21 22 24
1 61 7 11 12 17 20 21 22
1 61 5 7 11 12 20 21 22
1 4 7 11 12 18 20 21 22 31
1 4 7 11 12 20 21 22 29
1 61 7 11 12 25 28
1 7 11 20 22 23 28 29
1 7 11 19 23 28 29
1 7 9 11 22 23 28 29
1 57 7 11 23 28 29
1 62 7 11 22 23
1 7 11 18 22 23 28 30
1 61 7 11 22 23
1 2 3 7 11 23 24
1 2 3 7 11 23 24 26
1 7 11 18 22 23 26 30
1 7 11 18 22 23 26 27
1 7 11 18 22 23 27 28
1 57 7 11 23 26 29 30
1 57 7 11 21 23 29 30
1 61 57 7 11 23
1 62 57 7 11 23 24
1 57 2 7 11 23 24
1 62 57 7 8 11 23
1 57 2 7 11 14 17 23 24
1 61 57 7 11 14 17 23
1 62 57 7 11 14 17 23 24
1 62 57 7 11 14 16 23 24
1 62 57 7 8 11 14 16 23
1 62 57 7 8 11 14 17 23
1 61 57 7 11 14 16 23
1 57 2 7 11 14 16 23 24
1 61 57 2 7 11 14 16 23
1 61 57 2 7 11 14 17 23
1 61 57 7 11 14 18 23
1 62 57 7 11 13 23 30
1 62 57 7 11 13 23 27
1 62 57 7 11 13 23 24
1 62 57 7 8 11 13 23
1 62 57 2 7 8 11 13 23
1 57 2 7 11 13 14 17 23 24
1 61 57 2 7 11 13 23 24
1 62 57 2 7 11 13 23 24
1 57 2 7 11 13 14 16 23 24
1 57 7 11 13 18 22 23 31
1 57 7 8 11 13 18 23 31
1 62 57 7 8 11 13 18 23
1 61 57 7 11 13 18 23 24
1 62 57 7 11 13 18 23 24
1 57 7 11 18 21 23 30
1 57 2 7 11 21 23 30
1 62 57 7 11 21 23 30
1 62 57 7 11 21 23 27
1 62 57 7 11 21 23 24
1 62 57 7 8 11 21 23
1 57 2 7 11 21 23 27
1 57 7 11 18 21 23 27
1 57 7 11 18 21 23 24 31
1 57 7 11 18 21 22 23 31
1 57 7 8 11 18 21 23 31
1 62 57 7 8 11 18 21 23
1 61 57 7 11 18 21 23 24
1 62 57 7 11 18 21 23 24
1 57 7 11 21 23 27 29
1 57 7 11 21 23 24 29
1 57 7 11 21 22 23 29
1 57 7 8 11 21 23 29
1 57 7 11 18 23 26 30
1 57 2 7 11 23 26 30
1 62 57 7 11 23 26 30
1 62 57 7 11 23 26 27
1 62 57 7 11 23 24 26
1 62 57 7 8 11 23 26
1 57 2 7 11 23 26 27
1 57 7 11 18 23 26 27
1 57 7 11 18 23 24 26 31
1 57 7 11 18 22 23 26 31
1 57 7 8 11 18 23 26 31
1 62 57 7 8 11 18 23 26
1 61 57 7 11 18 23 24 26
1 62 57 7 11 18 23 24 26
1 57 7 11 23 26 27 29
1 57 7 11 23 24 26 29
1 57 7 11 22 23 26 29
1 57 7 8 11 23 26 29
1 57 7 11 18 23 28 31
1 57 2 7 11 23 28
1 62 57 7 11 23 28
1 57 7 11 18 23 28 30
1 57 7 11 18 23 27 28
1 61 57 7 11 18 23 28
1 62 57 7 11 18 23 28
1 2 3 7 8 9 11 21 23 26
1 2 3 7 9 11 21 23 24 26
1 2 3 7 9 10 11 23 24 26
1 7 9 11 22 23 26 29
1 7 9 11 21 22 23 29
1 7 9 11 13 18 22 23 31
1 7 9 11 18 21 22 23 31
1 7 9 11 18 21 22 23 30
1 7 9 11 18 21 22 23 27
1 7 9 11 18 22 23 26 31
1 7 9 11 18 22 23 28 31
1 7 11 19 23 26 29 30
1 7 11 19 21 23 29 30
1 61 7 11 19 23
1 62 7 11 19 23 24
1 2 7 11 19 23 24
1 62 7 8 11 19 23
1 2 7 11 14 17 19 23 24
1 61 7 11 14 17 19 23
1 62 7 11 14 17 19 23 24
1 62 7 11 14 16 19 23 24
1 61 7 11 14 16 19 23
1 2 7 11 14 16 19 23 24
1 62 7 11 13 19 23 30
1 62 7 11 13 19 23 27
1 62 7 11 13 19 23 24
1 2 7 11 13 14 17 19 23 24
1 61 2 7 11 13 19 23 24
1 62 2 7 11 13 19 23 24
1 2 7 11 13 14 16 19 23 24
1 7 11 13 18 19 22 23 31
1 61 7 11 13 18 19 23 24
1 62 7 11 13 18 19 23 24
1 7 11 18 19 21 23 30
1 62 7 11 19 21 23 30
1 62 7 11 19 21 23 27
1 62 7 11 19 21 23 24
1 7 11 18 19 21 23 27
1 7 11 18 19 21 23 24 31
1 7 11 18 19 21 22 23 31
1 61 7 11 18 19 21 23 24
1 62 7 11 18 19 21 23 24
1 7 11 19 21 23 27 29
1 7 11 19 21 23 24 29
1 7 11 19 21 22 23 29
1 7 11 18 19 23 26 30
1 62 7 11 19 23 26 30
1 62 7 11 19 23 26 27
1 62 7 11 19 23 24 26
1 7 11 18 19 23 26 27
1 7 11 18 19 23 24 26 31
1 7 11 18 19 22 23 26 31
1 61 7 11 18 19 23 24 26
1 62 7 11 18 19 23 24 26
1 7 11 19 23 26 27 29
1 7 11 19 23 24 26 29
1 7 11 19 22 23 26 29
1 7 11 18 19 23 28 31
1 62 7 11 19 23 28
1 7 11 18 19 23 28 30
1 7 11 18 19 23 27 28
1 61 7 11 18 19 23 28
1 62 7 11 18 19 23 28
1 7 11 20 22 23 26 29
1 7 11 20 21 22 23 29
1 7 11 13 20 22 23 29
1 7 11 13 18 20 22 23 31
1 7 11 18 20 21 22 23 31
1 7 11 18 20 21 22 23 30
1 7 11 18 20 21 22 23 27
1 7 11 18 20 22 23 26 31
1 7 11 18 20 22 23 28 31
1 7 11 23 25 26 29 30
1 7 11 21 23 25 29 30
1 62 7 11 23 24 25
1 62 7 8 11 23 25
1 62 7 11 13 23 25 30
1 7 11 13 18 22 23 25 31
1 7 11 18 21 23 25 30
1 62 7 11 21 23 25 30
1 62 7 11 21 23 25 27
1 7 11 18 21 23 25 27
1 7 11 18 21 23 24 25 31
1 7 11 18 21 22 23 25 31
1 7 11 21 23 25 27 29
1 7 11 21 23 24 25 29
1 7 11 21 22 23 25 29
1 7 11 18 23 25 26 30
1 62 7 11 23 25 26 30
1 62 7 11 23 25 26 27
1 7 11 18 23 25 26 27
1 7 11 18 23 24 25 26 31
1 7 11 18 22 23 25 26 31
1 7 11 23 25 26 27 29
1 7 11 23 24 25 26 29
1 7 11 22 23 25 26 29
1 7 11 18 23 25 28 31
1 62 7 11 23 25 28
1 7 11 18 23 25 28 30
1 7 11 18 23 25 27 28
 Analysis time: 11.562s