 Minimal siphons 
2 9 27 28
20 22
15 17
7 11
1 9 27
19 23
13 18
6 10
6 7 8 9 12
6 7 10
6 7 8 10
6 7 8 9 10
1 6 7 9 12 27
1 6 7 9 10 27
1 30 6 7 8 24
1 30 9 13 14 15 24 27
13 14 15 18
1 9 13 14 15 18 27
1 30 9 19 20 24 27
1 30 9 13 14 15 19 20 24 27
13 14 15 16 19 20 21 24 25 26
1 30 9 13 14 15 16 19 20 24 27
1 30 9 13 14 15 16 19 20 21 24 27
1 30 9 13 14 15 16 19 20 21 24 25 27
2 8 28
2 6 16 20 29
2 4
1 2 3 5
2 4 6 10
1 2 3 5 6 10
2 4 6 10 15 16 17
1 2 3 5 6 10 15 16 17
1 2 3 5 6 10 13 14 15 16 18
2 4 6 10 13 14 15 16 18
2 4 6 7 10
1 2 3 5 6 7 10
2 4 6 7 10 15 16 17
1 2 3 5 6 7 10 15 16 17
1 2 3 5 6 7 10 13 14 15 16 18
2 4 6 7 10 13 14 15 16 18
2 4 7 11
1 2 3 5 7 11
2 4 7 11 15 16 17
1 2 3 5 7 11 15 16 17
1 2 3 5 7 11 13 14 15 16 18
2 4 7 11 13 14 15 16 18
30 2 4 6 7 8 24
2 4 6 7 8 10
1 2 3 5 6 7 8 10
1 30 2 6 7 8 24
2 4 6 7 8 10 15 16 17
1 2 3 5 6 7 8 10 15 16 17
1 2 3 5 6 7 8 10 13 14 15 16 18
2 4 6 7 8 10 13 14 15 16 18
2 4 7 8 11
1 30 2 7 8 11 24
1 2 3 5 7 8 11
1 2 3 5 7 8 11 15 16 17
1 2 3 5 7 8 11 13 14 15 16 18
2 4 7 8 11 13 14 15 16 18
30 2 4 6 7 8 9 24
2 4 6 7 8 9 12
1 2 3 5 6 7 8 9 12
1 2 3 5 6 7 8 9 10
2 4 6 7 8 9 10
1 30 2 6 7 8 9 24
2 4 6 7 8 9 12 15 16 17
1 2 3 5 6 7 8 9 12 15 16 17
1 2 3 5 6 7 8 9 10 15 16 17
1 2 3 5 6 7 8 9 10 13 14 15 16 18
1 2 3 5 6 7 8 9 12 13 14 15 16 18
2 4 6 7 8 9 10 15 16 17
2 4 6 7 8 9 10 13 14 15 16 18
2 4 6 7 8 9 12 13 14 15 16 18
2 4 7 8 9 11
1 30 2 7 8 9 11 24
1 2 3 5 7 8 9 11
1 2 3 5 7 8 9 11 15 16 17
1 2 3 5 7 8 9 11 13 14 15 16 18
2 4 7 8 9 11 13 14 15 16 18
2 4 9 27
1 2 9 27
30 2 4 6 9 24 27
2 4 6 9 12 27
1 2 6 9 12 27
1 2 6 9 10 27
2 4 6 9 10 27
1 30 2 6 9 24 27
2 4 6 9 12 15 16 17 27
1 2 6 9 12 15 16 17 27
1 2 6 9 10 15 16 17 27
1 2 6 9 10 13 14 15 16 18 27
1 2 6 9 12 13 14 15 16 18 27
2 4 6 9 10 15 16 17 27
2 4 6 9 10 13 14 15 16 18 27
2 4 6 9 12 13 14 15 16 18 27
1 30 2 6 9 13 14 15 16 19 20 24 27
30 2 4 6 9 13 14 15 16 19 20 24 27
30 2 4 6 7 9 24 27
2 4 6 7 9 12 27
1 2 6 7 9 12 27
1 2 6 7 9 10 27
2 4 6 7 9 10 27
1 30 2 6 7 9 24 27
2 4 6 7 9 12 15 16 17 27
1 2 6 7 9 12 15 16 17 27
1 2 6 7 9 10 15 16 17 27
1 2 6 7 9 10 13 14 15 16 18 27
1 2 6 7 9 12 13 14 15 16 18 27
2 4 6 7 9 10 15 16 17 27
2 4 6 7 9 10 13 14 15 16 18 27
2 4 6 7 9 12 13 14 15 16 18 27
1 30 2 6 7 9 13 14 15 16 19 20 24 27
30 2 4 6 7 9 13 14 15 16 19 20 24 27
2 4 7 9 11 27
1 2 7 9 11 27
1 2 7 9 11 13 14 15 16 18 27
2 4 7 9 11 13 14 15 16 18 27
 Minimal traps 
19 23
15 17
1 30 6 16 23 24 29
13 18
2 6 16 20 29
20 22
6 10
7 11
6 7 8 9 12
2 7 11 28
2 8 28
2 4
2 7 8 28
2 4 7 11
2 6 10 11 28
2 6 7 11 28
2 6 7 8 28
2 4 6 7 8 9 12
2 4 6 7 11
2 6 8 10 28
2 4 6 10
2 4 6 8 9 10 12
2 4 6 10 11
1 6 11 16 20 27 28 29
1 7 11 27 28
1 8 27 28
1 9 27
1 2 4
1 2 3 5
1 2 8 28
1 8 9 27
1 7 8 27 28
1 2 7 8 28
1 7 8 9 27
1 2 7 11 28
1 2 4 7 11
1 2 3 5 7 11
1 7 9 11 27
1 6 8 16 20 27 28 29
1 6 9 16 20 27 29
1 2 6 16 20 29
1 2 4 6 10
1 2 3 5 6 10
1 6 9 10 27
1 2 4 6 9 10 12
1 2 3 5 6 9 10 12
1 2 6 9 12 16 20 29
1 6 8 10 27 28
1 6 7 8 27 28
1 2 6 7 8 28
1 2 4 6 7 8 9 12
1 2 3 5 6 7 8 9 12
1 6 7 8 9 27
1 2 6 8 10 28
1 2 4 6 8 9 10 12
1 2 3 5 6 8 9 10 12
1 6 8 9 10 27
1 2 6 8 16 20 28 29
1 2 6 8 9 12 16 20 29
1 6 8 9 16 20 27 29
1 6 10 11 27 28
1 6 7 11 27 28
1 2 6 7 11 28
1 2 4 6 7 11
1 2 3 5 6 7 11
1 6 7 9 11 27
1 2 6 10 11 28
1 2 4 6 10 11
1 2 3 5 6 10 11
1 6 9 10 11 27
1 2 6 11 16 20 29
1 6 9 11 16 20 27 29
1 30 6 7 8 24
1 30 6 16 20 24 29
2 6 15 16 20 29
1 6 11 15 16 20 27 28 29
1 6 8 15 16 20 27 28 29
1 6 9 15 16 20 27 29
1 2 6 15 16 20 29
1 2 6 9 12 15 16 20 29
1 2 6 8 15 16 20 28 29
1 2 6 8 9 12 15 16 20 29
1 6 8 9 15 16 20 27 29
1 2 6 11 15 16 20 29
1 6 9 11 15 16 20 27 29
13 18 19 20 21 24 25 26
13 14 15 16 19 20 21 24 25 26
2 4 13 18 19 20 21 24 25 26
2 8 13 18 19 20 21 24 25 26 28
2 7 8 13 18 19 20 21 24 25 26 28
2 7 11 13 18 19 20 21 24 25 26 28
2 4 7 11 13 18 19 20 21 24 25 26
2 6 16 19 20 29
2 6 15 16 19 20 29
1 2 3 5 13 18 19 20 21 24 25 26
1 2 4 13 18 19 20 21 24 25 26
1 9 13 18 19 20 21 24 25 26 27
1 8 13 18 19 20 21 24 25 26 27 28
1 2 8 13 18 19 20 21 24 25 26 28
1 8 9 13 18 19 20 21 24 25 26 27
1 7 8 13 18 19 20 21 24 25 26 27 28
1 2 7 8 13 18 19 20 21 24 25 26 28
1 7 8 9 13 18 19 20 21 24 25 26 27
1 7 11 13 18 19 20 21 24 25 26 27 28
1 2 7 11 13 18 19 20 21 24 25 26 28
1 2 4 7 11 13 18 19 20 21 24 25 26
1 2 3 5 7 11 13 18 19 20 21 24 25 26
1 7 9 11 13 18 19 20 21 24 25 26 27
1 2 6 16 19 20 29
1 2 6 15 16 19 20 29
1 6 9 16 19 20 27 29
1 2 6 9 12 16 19 20 29
1 6 9 15 16 19 20 27 29
1 2 6 9 12 15 16 19 20 29
1 6 8 16 19 20 27 28 29
1 2 6 8 16 19 20 28 29
1 2 6 8 9 12 16 19 20 29
1 6 8 9 16 19 20 27 29
1 6 8 15 16 19 20 27 28 29
1 2 6 8 15 16 19 20 28 29
1 2 6 8 9 12 15 16 19 20 29
1 6 8 9 15 16 19 20 27 29
1 6 11 16 19 20 27 28 29
1 2 6 11 16 19 20 29
1 6 9 11 16 19 20 27 29
1 6 11 15 16 19 20 27 28 29
1 2 6 11 15 16 19 20 29
1 6 9 11 15 16 19 20 27 29
 Analysis time: 3.287s