14/07/2021 15:35:04[DEBUG] pflow_file:  ../prueba/gen_nets/20210713-184900_7/net.pflow  
14/07/2021 15:35:04[DEBUG] output_folder:  ../prueba/gen_nets/20210713-184900_7/  
14/07/2021 15:35:04[DEBUG] html_path:  ../prueba/gen_nets/20210713-184900_7/  
14/07/2021 15:35:04[DEBUG] txt_path:  ../prueba/gen_nets/20210713-184900_7/txt_info  

--------------------------------------------------------------------------   
14/07/2021 15:35:04[INFO] Ejecutando petrinator para conocer estado de la red...   
--------------------------------------------------------------------------
   
+----+-----+---------------------------------------------------------------+
| ID | Nro |                             Plazas                            |
+----+-----+---------------------------------------------------------------+
| 0  |  33 |        ['P2', 'P6', 'P11', 'P17', 'P25', 'P26', 'P27']        |
| 1  |  44 |        ['P2', 'P6', 'P11', 'P17', 'P21', 'P26', 'P27']        |
| 2  |  46 |         ['P2', 'P4', 'P6', 'P11', 'P17', 'P26', 'P27']        |
| 3  |  1  | ['P2', 'P6', 'P13', 'P17', 'P22', 'P23', 'P25', 'P26', 'P27'] |
| 4  |  32 |     ['P2', 'P6', 'P12', 'P17', 'P22', 'P25', 'P26', 'P27']    |
| 5  |  43 |               ['P2', 'P6', 'P11', 'P24', 'P27']               |
| 6  |  45 |         ['P2', 'P6', 'P8', 'P11', 'P17', 'P26', 'P27']        |
| 7  |  47 |            ['P2', 'P6', 'P12', 'P22', 'P24', 'P27']           |
| 8  |  49 |     ['P2', 'P6', 'P12', 'P17', 'P21', 'P22', 'P26', 'P27']    |
| 9  |  50 |     ['P2', 'P6', 'P8', 'P12', 'P17', 'P22', 'P26', 'P27']     |
| 10 |  51 |        ['P2', 'P6', 'P13', 'P22', 'P23', 'P24', 'P27']        |
| 11 |  59 | ['P2', 'P6', 'P13', 'P17', 'P21', 'P22', 'P23', 'P26', 'P27'] |
| 12 |  60 |  ['P2', 'P6', 'P8', 'P13', 'P17', 'P22', 'P23', 'P26', 'P27'] |
+----+-----+---------------------------------------------------------------+
+----+----+----+----+----+----+----+----+----+----+-----+-----+-----+-----+-----+
| T0 | T1 | T2 | T3 | T4 | T5 | T6 | T7 | T8 | T9 | T10 | T11 | T12 | T13 | T14 |
+----+----+----+----+----+----+----+----+----+----+-----+-----+-----+-----+-----+
| 1  | 1  | 1  | 0  | 0  | 0  | 0  | 0  | 0  | 0  |  0  |  0  |  0  |  0  |  0  |
| 0  | 0  | 0  | 1  | 1  | 1  | 1  | 0  | 0  | 0  |  0  |  0  |  0  |  0  |  0  |
| 0  | 0  | 0  | 0  | 0  | 0  | 0  | 1  | 1  | 1  |  1  |  1  |  0  |  0  |  0  |
| 0  | 0  | 0  | 0  | 0  | 0  | 0  | 0  | 0  | 0  |  0  |  0  |  1  |  1  |  1  |
+----+----+----+----+----+----+----+----+----+----+-----+-----+-----+-----+-----+
14/07/2021 15:35:09[INFO] Supervisores para agregar   
+-----+---------+---------------------------------+---------------------------+
|  ID | Marcado |           T - Entrada           |         T - Salida        |
+-----+---------+---------------------------------+---------------------------+
| P28 |    2    |        ['T2', 'T6', 'T9']       | ['T1', 'T4', 'T8', 'T13'] |
| P28 |    2    |        ['T2', 'T6', 'T9']       | ['T1', 'T4', 'T8', 'T13'] |
| P28 |    1    |           ['T2', 'T9']          | ['T1', 'T4', 'T8', 'T13'] |
| P28 |    4    |    ['T3', 'T5', 'T6', 'T11']    | ['T1', 'T4', 'T8', 'T13'] |
| P28 |    3    | ['T2', 'T3', 'T5', 'T6', 'T10'] | ['T1', 'T4', 'T8', 'T13'] |
| P28 |    1    |        ['T3', 'T6', 'T9']       | ['T1', 'T4', 'T8', 'T13'] |
| P28 |    2    |        ['T2', 'T6', 'T9']       | ['T1', 'T4', 'T8', 'T13'] |
| P28 |    2    |       ['T3', 'T6', 'T10']       | ['T1', 'T4', 'T8', 'T13'] |
| P28 |    3    | ['T2', 'T3', 'T5', 'T6', 'T10'] | ['T1', 'T4', 'T8', 'T13'] |
| P28 |    3    |    ['T3', 'T5', 'T6', 'T10']    | ['T1', 'T4', 'T8', 'T13'] |
| P28 |    3    |    ['T3', 'T5', 'T6', 'T11']    | ['T1', 'T4', 'T8', 'T13'] |
| P28 |    4    |    ['T3', 'T5', 'T6', 'T11']    | ['T1', 'T4', 'T8', 'T13'] |
| P28 |    4    |    ['T3', 'T5', 'T6', 'T11']    | ['T1', 'T4', 'T8', 'T13'] |
+-----+---------+---------------------------------+---------------------------+
+-----+---------+-------------+------------+
| Nro | Marcado | T - Entrada | T - Salida |
+-----+---------+-------------+------------+
+-----+---------+-------------+------------+
14/07/2021 15:35:09[INFO] Ejecutando accion...   
14/07/2021 15:35:09[INFO] Ejecutando accion...   
14/07/2021 15:35:09[ACTION] Agrego supervisor aleatorio Numero: 10  

--------------------------------------------------------------------------   
14/07/2021 15:35:09[INFO] Ejecutando petrinator para conocer estado de la red...   
--------------------------------------------------------------------------
   

--------------------------------------------------------------------------
   
14/07/2021 15:35:16[INFO] Calculando recompensa..   
14/07/2021 15:35:16[REWARD] El sifon se controlo correctamente, recompensa -1   

--------------------------------------------------------------------------
   
14/07/2021 15:35:16[STATE] Cambie al estado 1: Hay mas sifones vacios en deadlock   
+-----------------------------------------------------+--------------------+------------------------+
|                   Estados/Acciones                  | Agregar supervisor | Agregar o quitar arcos |
+-----------------------------------------------------+--------------------+------------------------+
|                        Start                        |        -1.0        |          0.0           |
|        Más sifónes vacíos en estado deadlock        |        0.0         |          0.0           |
|       Menos sifónes vacíos en estado deadlock       |        0.0         |          0.0           |
| Igual cantidad de sifónes vacíos en estado deadlock |        0.0         |          0.0           |
|                         End                         |        0.0         |          0.0           |
+-----------------------------------------------------+--------------------+------------------------+
+----+-----+---------------------------------------------------------------+
| ID | Nro |                             Plazas                            |
+----+-----+---------------------------------------------------------------+
| 13 |  39 |        ['P2', 'P6', 'P11', 'P17', 'P25', 'P26', 'P27']        |
| 14 |  50 |        ['P2', 'P6', 'P11', 'P17', 'P21', 'P26', 'P27']        |
| 15 |  52 |         ['P2', 'P4', 'P6', 'P11', 'P17', 'P26', 'P27']        |
| 16 |  1  | ['P2', 'P6', 'P13', 'P17', 'P22', 'P23', 'P25', 'P26', 'P27'] |
| 17 |  38 |     ['P2', 'P6', 'P12', 'P17', 'P22', 'P25', 'P26', 'P27']    |
| 18 |  49 |               ['P2', 'P6', 'P11', 'P24', 'P27']               |
| 19 |  51 |         ['P2', 'P6', 'P8', 'P11', 'P17', 'P26', 'P27']        |
| 20 |  53 |            ['P2', 'P6', 'P12', 'P22', 'P24', 'P27']           |
| 21 |  55 |     ['P2', 'P6', 'P12', 'P17', 'P21', 'P22', 'P26', 'P27']    |
| 22 |  56 |     ['P2', 'P6', 'P8', 'P12', 'P17', 'P22', 'P26', 'P27']     |
| 23 |  57 |        ['P2', 'P6', 'P13', 'P22', 'P23', 'P24', 'P27']        |
| 24 |  65 | ['P2', 'P6', 'P13', 'P17', 'P21', 'P22', 'P23', 'P26', 'P27'] |
| 25 |  66 |  ['P2', 'P6', 'P8', 'P13', 'P17', 'P22', 'P23', 'P26', 'P27'] |
| 26 |  22 |      ['P1', 'P2', 'P4', 'P5', 'P10', 'P11', 'P12', 'P28']     |
+----+-----+---------------------------------------------------------------+
+----+----+----+----+----+----+----+----+----+----+-----+-----+-----+-----+-----+
| T0 | T1 | T2 | T3 | T4 | T5 | T6 | T7 | T8 | T9 | T10 | T11 | T12 | T13 | T14 |
+----+----+----+----+----+----+----+----+----+----+-----+-----+-----+-----+-----+
| 1  | 1  | 1  | 0  | 0  | 0  | 0  | 0  | 0  | 0  |  0  |  0  |  0  |  0  |  0  |
| 0  | 0  | 0  | 0  | 0  | 0  | 0  | 1  | 1  | 1  |  1  |  1  |  0  |  0  |  0  |
| 0  | 0  | 0  | 1  | 1  | 1  | 1  | 0  | 0  | 0  |  0  |  0  |  1  |  1  |  1  |
+----+----+----+----+----+----+----+----+----+----+-----+-----+-----+-----+-----+
14/07/2021 15:35:16[INFO] Supervisores para agregar   
+-----+---------+---------------------------------+---------------------------+
|  ID | Marcado |           T - Entrada           |         T - Salida        |
+-----+---------+---------------------------------+---------------------------+
| P29 |    2    |        ['T2', 'T6', 'T9']       | ['T1', 'T4', 'T8', 'T13'] |
| P29 |    2    |        ['T2', 'T6', 'T9']       | ['T1', 'T4', 'T8', 'T13'] |
| P29 |    1    |           ['T2', 'T9']          | ['T1', 'T4', 'T8', 'T13'] |
| P29 |    4    |    ['T3', 'T5', 'T6', 'T11']    | ['T1', 'T4', 'T8', 'T13'] |
| P29 |    3    | ['T2', 'T3', 'T5', 'T6', 'T10'] | ['T1', 'T4', 'T8', 'T13'] |
| P29 |    1    |        ['T3', 'T6', 'T9']       | ['T1', 'T4', 'T8', 'T13'] |
| P29 |    2    |        ['T2', 'T6', 'T9']       | ['T1', 'T4', 'T8', 'T13'] |
| P29 |    2    |       ['T3', 'T6', 'T10']       | ['T1', 'T4', 'T8', 'T13'] |
| P29 |    3    | ['T2', 'T3', 'T5', 'T6', 'T10'] | ['T1', 'T4', 'T8', 'T13'] |
| P29 |    3    |    ['T3', 'T5', 'T6', 'T10']    | ['T1', 'T4', 'T8', 'T13'] |
| P29 |    3    |    ['T3', 'T5', 'T6', 'T11']    | ['T1', 'T4', 'T8', 'T13'] |
| P29 |    4    |    ['T3', 'T5', 'T6', 'T11']    | ['T1', 'T4', 'T8', 'T13'] |
| P29 |    4    |    ['T3', 'T5', 'T6', 'T11']    | ['T1', 'T4', 'T8', 'T13'] |
| P29 |    2    |              ['T5']             | ['T1', 'T4', 'T8', 'T13'] |
+-----+---------+---------------------------------+---------------------------+
+-----+---------+---------------------------+---------------------------+
| Nro | Marcado |        T - Entrada        |         T - Salida        |
+-----+---------+---------------------------+---------------------------+
|  1  |    3    | ['T3', 'T5', 'T6', 'T11'] | ['T1', 'T4', 'T8', 'T13'] |
+-----+---------+---------------------------+---------------------------+
14/07/2021 15:35:16[INFO] Ejecutando accion...   
14/07/2021 15:35:16[ACTION] Agregar o quitar arcos   
14/07/2021 15:35:16[ACTION] Eliminar arco desde T5 hasta P28   
14/07/2021 15:35:16[INFO] Se elimino el arco con metodo 2 desde T5 hasta P28   
14/07/2021 15:35:16[ACTION] Eliminar arco desde P28 hasta T13   
14/07/2021 15:35:16[INFO] Se elimino el arco desde P28 hasta T13   

--------------------------------------------------------------------------   
14/07/2021 15:35:16[INFO] Ejecutando petrinator para conocer estado de la red...   
--------------------------------------------------------------------------
   

--------------------------------------------------------------------------
   
14/07/2021 15:35:21[INFO] Calculando recompensa..   
14/07/2021 15:35:21[REWARD] Hay menos o igual cantidad de sifones vacios que en el estado anterior, recompensa -1   

--------------------------------------------------------------------------
   
14/07/2021 15:35:21[STATE] Cambie al estado 2: Hay menos sifones vacios en deadlock   
+-----------------------------------------------------+--------------------+------------------------+
|                   Estados/Acciones                  | Agregar supervisor | Agregar o quitar arcos |
+-----------------------------------------------------+--------------------+------------------------+
|                        Start                        |        -1.0        |          0.0           |
|        Más sifónes vacíos en estado deadlock        |        0.0         |          -1.0          |
|       Menos sifónes vacíos en estado deadlock       |        0.0         |          0.0           |
| Igual cantidad de sifónes vacíos en estado deadlock |        0.0         |          0.0           |
|                         End                         |        0.0         |          0.0           |
+-----------------------------------------------------+--------------------+------------------------+
+----+-----+---------------------------------------------------------------+
| ID | Nro |                             Plazas                            |
+----+-----+---------------------------------------------------------------+
| 27 |  36 |        ['P2', 'P6', 'P11', 'P17', 'P25', 'P26', 'P27']        |
| 28 |  47 |        ['P2', 'P6', 'P11', 'P17', 'P21', 'P26', 'P27']        |
| 29 |  49 |         ['P2', 'P4', 'P6', 'P11', 'P17', 'P26', 'P27']        |
| 30 |  1  | ['P2', 'P6', 'P13', 'P17', 'P22', 'P23', 'P25', 'P26', 'P27'] |
| 31 |  35 |     ['P2', 'P6', 'P12', 'P17', 'P22', 'P25', 'P26', 'P27']    |
| 32 |  46 |               ['P2', 'P6', 'P11', 'P24', 'P27']               |
| 33 |  48 |         ['P2', 'P6', 'P8', 'P11', 'P17', 'P26', 'P27']        |
| 34 |  50 |            ['P2', 'P6', 'P12', 'P22', 'P24', 'P27']           |
| 35 |  52 |     ['P2', 'P6', 'P12', 'P17', 'P21', 'P22', 'P26', 'P27']    |
| 36 |  53 |     ['P2', 'P6', 'P8', 'P12', 'P17', 'P22', 'P26', 'P27']     |
| 37 |  54 |        ['P2', 'P6', 'P13', 'P22', 'P23', 'P24', 'P27']        |
| 38 |  62 | ['P2', 'P6', 'P13', 'P17', 'P21', 'P22', 'P23', 'P26', 'P27'] |
| 39 |  63 |  ['P2', 'P6', 'P8', 'P13', 'P17', 'P22', 'P23', 'P26', 'P27'] |
+----+-----+---------------------------------------------------------------+
+----+----+----+----+----+----+----+----+----+----+-----+-----+-----+-----+-----+
| T0 | T1 | T2 | T3 | T4 | T5 | T6 | T7 | T8 | T9 | T10 | T11 | T12 | T13 | T14 |
+----+----+----+----+----+----+----+----+----+----+-----+-----+-----+-----+-----+
| 1  | 1  | 1  | 0  | 0  | 0  | 0  | 0  | 0  | 0  |  0  |  0  |  0  |  0  |  0  |
| 0  | 0  | 0  | 1  | 1  | 1  | 1  | 0  | 0  | 0  |  0  |  0  |  0  |  0  |  0  |
| 0  | 0  | 0  | 0  | 0  | 0  | 0  | 1  | 1  | 1  |  1  |  1  |  0  |  0  |  0  |
| 0  | 0  | 0  | 0  | 0  | 0  | 0  | 0  | 0  | 0  |  0  |  0  |  1  |  1  |  1  |
+----+----+----+----+----+----+----+----+----+----+-----+-----+-----+-----+-----+
14/07/2021 15:35:21[INFO] Supervisores para agregar   
+-----+---------+---------------------------------+---------------------------+
|  ID | Marcado |           T - Entrada           |         T - Salida        |
+-----+---------+---------------------------------+---------------------------+
| P29 |    2    |        ['T2', 'T6', 'T9']       | ['T1', 'T4', 'T8', 'T13'] |
| P29 |    2    |        ['T2', 'T6', 'T9']       | ['T1', 'T4', 'T8', 'T13'] |
| P29 |    1    |           ['T2', 'T9']          | ['T1', 'T4', 'T8', 'T13'] |
| P29 |    4    |    ['T3', 'T5', 'T6', 'T11']    | ['T1', 'T4', 'T8', 'T13'] |
| P29 |    3    | ['T2', 'T3', 'T5', 'T6', 'T10'] | ['T1', 'T4', 'T8', 'T13'] |
| P29 |    1    |        ['T3', 'T6', 'T9']       | ['T1', 'T4', 'T8', 'T13'] |
| P29 |    2    |        ['T2', 'T6', 'T9']       | ['T1', 'T4', 'T8', 'T13'] |
| P29 |    2    |       ['T3', 'T6', 'T10']       | ['T1', 'T4', 'T8', 'T13'] |
| P29 |    3    | ['T2', 'T3', 'T5', 'T6', 'T10'] | ['T1', 'T4', 'T8', 'T13'] |
| P29 |    3    |    ['T3', 'T5', 'T6', 'T10']    | ['T1', 'T4', 'T8', 'T13'] |
| P29 |    3    |    ['T3', 'T5', 'T6', 'T11']    | ['T1', 'T4', 'T8', 'T13'] |
| P29 |    4    |    ['T3', 'T5', 'T6', 'T11']    | ['T1', 'T4', 'T8', 'T13'] |
| P29 |    4    |    ['T3', 'T5', 'T6', 'T11']    | ['T1', 'T4', 'T8', 'T13'] |
+-----+---------+---------------------------------+---------------------------+
+-----+---------+---------------------------+---------------------------+
| Nro | Marcado |        T - Entrada        |         T - Salida        |
+-----+---------+---------------------------+---------------------------+
|  1  |    3    | ['T3', 'T5', 'T6', 'T11'] | ['T1', 'T4', 'T8', 'T13'] |
+-----+---------+---------------------------+---------------------------+
14/07/2021 15:35:21[INFO] Ejecutando accion...   
14/07/2021 15:35:21[ACTION] Agregar o quitar arcos   

--------------------------------------------------------------------------   
14/07/2021 15:35:21[INFO] Ejecutando petrinator para conocer estado de la red...   
--------------------------------------------------------------------------
   

--------------------------------------------------------------------------
   
14/07/2021 15:35:30[INFO] Calculando recompensa..   
14/07/2021 15:35:30[REWARD] Hay menos o igual cantidad de sifones vacios que en el estado anterior, recompensa -1   

--------------------------------------------------------------------------
   
14/07/2021 15:35:30[STATE] Cambie al estado 3: Hay igual cantidad de sifones vacios en deadlock   
+-----------------------------------------------------+--------------------+------------------------+
|                   Estados/Acciones                  | Agregar supervisor | Agregar o quitar arcos |
+-----------------------------------------------------+--------------------+------------------------+
|                        Start                        |        -1.0        |          0.0           |
|        Más sifónes vacíos en estado deadlock        |        0.0         |          -1.0          |
|       Menos sifónes vacíos en estado deadlock       |        0.0         |          -1.0          |
| Igual cantidad de sifónes vacíos en estado deadlock |        0.0         |          0.0           |
|                         End                         |        0.0         |          0.0           |
+-----------------------------------------------------+--------------------+------------------------+
+----+-----+---------------------------------------------------------------+
| ID | Nro |                             Plazas                            |
+----+-----+---------------------------------------------------------------+
| 40 |  36 |        ['P2', 'P6', 'P11', 'P17', 'P25', 'P26', 'P27']        |
| 41 |  47 |        ['P2', 'P6', 'P11', 'P17', 'P21', 'P26', 'P27']        |
| 42 |  49 |         ['P2', 'P4', 'P6', 'P11', 'P17', 'P26', 'P27']        |
| 43 |  1  | ['P2', 'P6', 'P13', 'P17', 'P22', 'P23', 'P25', 'P26', 'P27'] |
| 44 |  35 |     ['P2', 'P6', 'P12', 'P17', 'P22', 'P25', 'P26', 'P27']    |
| 45 |  46 |               ['P2', 'P6', 'P11', 'P24', 'P27']               |
| 46 |  48 |         ['P2', 'P6', 'P8', 'P11', 'P17', 'P26', 'P27']        |
| 47 |  50 |            ['P2', 'P6', 'P12', 'P22', 'P24', 'P27']           |
| 48 |  52 |     ['P2', 'P6', 'P12', 'P17', 'P21', 'P22', 'P26', 'P27']    |
| 49 |  53 |     ['P2', 'P6', 'P8', 'P12', 'P17', 'P22', 'P26', 'P27']     |
| 50 |  54 |        ['P2', 'P6', 'P13', 'P22', 'P23', 'P24', 'P27']        |
| 51 |  62 | ['P2', 'P6', 'P13', 'P17', 'P21', 'P22', 'P23', 'P26', 'P27'] |
| 52 |  63 |  ['P2', 'P6', 'P8', 'P13', 'P17', 'P22', 'P23', 'P26', 'P27'] |
+----+-----+---------------------------------------------------------------+
+----+----+----+----+----+----+----+----+----+----+-----+-----+-----+-----+-----+
| T0 | T1 | T2 | T3 | T4 | T5 | T6 | T7 | T8 | T9 | T10 | T11 | T12 | T13 | T14 |
+----+----+----+----+----+----+----+----+----+----+-----+-----+-----+-----+-----+
| 1  | 1  | 1  | 0  | 0  | 0  | 0  | 0  | 0  | 0  |  0  |  0  |  0  |  0  |  0  |
| 0  | 0  | 0  | 1  | 1  | 1  | 1  | 0  | 0  | 0  |  0  |  0  |  0  |  0  |  0  |
| 0  | 0  | 0  | 0  | 0  | 0  | 0  | 1  | 1  | 1  |  1  |  1  |  0  |  0  |  0  |
| 0  | 0  | 0  | 0  | 0  | 0  | 0  | 0  | 0  | 0  |  0  |  0  |  1  |  1  |  1  |
+----+----+----+----+----+----+----+----+----+----+-----+-----+-----+-----+-----+
14/07/2021 15:35:30[INFO] Supervisores para agregar   
+-----+---------+---------------------------------+---------------------------+
|  ID | Marcado |           T - Entrada           |         T - Salida        |
+-----+---------+---------------------------------+---------------------------+
| P29 |    2    |        ['T2', 'T6', 'T9']       | ['T1', 'T4', 'T8', 'T13'] |
| P29 |    2    |        ['T2', 'T6', 'T9']       | ['T1', 'T4', 'T8', 'T13'] |
| P29 |    1    |           ['T2', 'T9']          | ['T1', 'T4', 'T8', 'T13'] |
| P29 |    4    |    ['T3', 'T5', 'T6', 'T11']    | ['T1', 'T4', 'T8', 'T13'] |
| P29 |    3    | ['T2', 'T3', 'T5', 'T6', 'T10'] | ['T1', 'T4', 'T8', 'T13'] |
| P29 |    1    |        ['T3', 'T6', 'T9']       | ['T1', 'T4', 'T8', 'T13'] |
| P29 |    2    |        ['T2', 'T6', 'T9']       | ['T1', 'T4', 'T8', 'T13'] |
| P29 |    2    |       ['T3', 'T6', 'T10']       | ['T1', 'T4', 'T8', 'T13'] |
| P29 |    3    | ['T2', 'T3', 'T5', 'T6', 'T10'] | ['T1', 'T4', 'T8', 'T13'] |
| P29 |    3    |    ['T3', 'T5', 'T6', 'T10']    | ['T1', 'T4', 'T8', 'T13'] |
| P29 |    3    |    ['T3', 'T5', 'T6', 'T11']    | ['T1', 'T4', 'T8', 'T13'] |
| P29 |    4    |    ['T3', 'T5', 'T6', 'T11']    | ['T1', 'T4', 'T8', 'T13'] |
| P29 |    4    |    ['T3', 'T5', 'T6', 'T11']    | ['T1', 'T4', 'T8', 'T13'] |
+-----+---------+---------------------------------+---------------------------+
+-----+---------+---------------------------+---------------------------+
| Nro | Marcado |        T - Entrada        |         T - Salida        |
+-----+---------+---------------------------+---------------------------+
|  1  |    3    | ['T3', 'T5', 'T6', 'T11'] | ['T1', 'T4', 'T8', 'T13'] |
+-----+---------+---------------------------+---------------------------+
14/07/2021 15:35:30[INFO] Ejecutando accion...   
14/07/2021 15:35:30[ACTION] Agregar o quitar arcos   

--------------------------------------------------------------------------   
14/07/2021 15:35:30[INFO] Ejecutando petrinator para conocer estado de la red...   
--------------------------------------------------------------------------
   

--------------------------------------------------------------------------
   
14/07/2021 15:35:37[INFO] Calculando recompensa..   
14/07/2021 15:35:37[REWARD] Hay menos o igual cantidad de sifones vacios que en el estado anterior, recompensa -1   

--------------------------------------------------------------------------
   
14/07/2021 15:35:37[STATE] Cambie al estado 3: Hay igual cantidad de sifones vacios en deadlock   
+-----------------------------------------------------+--------------------+------------------------+
|                   Estados/Acciones                  | Agregar supervisor | Agregar o quitar arcos |
+-----------------------------------------------------+--------------------+------------------------+
|                        Start                        |        -1.0        |          0.0           |
|        Más sifónes vacíos en estado deadlock        |        0.0         |          -1.0          |
|       Menos sifónes vacíos en estado deadlock       |        0.0         |          -1.0          |
| Igual cantidad de sifónes vacíos en estado deadlock |        0.0         |          -1.0          |
|                         End                         |        0.0         |          0.0           |
+-----------------------------------------------------+--------------------+------------------------+
+----+-----+---------------------------------------------------------------+
| ID | Nro |                             Plazas                            |
+----+-----+---------------------------------------------------------------+
| 53 |  36 |        ['P2', 'P6', 'P11', 'P17', 'P25', 'P26', 'P27']        |
| 54 |  47 |        ['P2', 'P6', 'P11', 'P17', 'P21', 'P26', 'P27']        |
| 55 |  49 |         ['P2', 'P4', 'P6', 'P11', 'P17', 'P26', 'P27']        |
| 56 |  1  | ['P2', 'P6', 'P13', 'P17', 'P22', 'P23', 'P25', 'P26', 'P27'] |
| 57 |  35 |     ['P2', 'P6', 'P12', 'P17', 'P22', 'P25', 'P26', 'P27']    |
| 58 |  46 |               ['P2', 'P6', 'P11', 'P24', 'P27']               |
| 59 |  48 |         ['P2', 'P6', 'P8', 'P11', 'P17', 'P26', 'P27']        |
| 60 |  50 |            ['P2', 'P6', 'P12', 'P22', 'P24', 'P27']           |
| 61 |  52 |     ['P2', 'P6', 'P12', 'P17', 'P21', 'P22', 'P26', 'P27']    |
| 62 |  53 |     ['P2', 'P6', 'P8', 'P12', 'P17', 'P22', 'P26', 'P27']     |
| 63 |  54 |        ['P2', 'P6', 'P13', 'P22', 'P23', 'P24', 'P27']        |
| 64 |  62 | ['P2', 'P6', 'P13', 'P17', 'P21', 'P22', 'P23', 'P26', 'P27'] |
| 65 |  63 |  ['P2', 'P6', 'P8', 'P13', 'P17', 'P22', 'P23', 'P26', 'P27'] |
+----+-----+---------------------------------------------------------------+
+----+----+----+----+----+----+----+----+----+----+-----+-----+-----+-----+-----+
| T0 | T1 | T2 | T3 | T4 | T5 | T6 | T7 | T8 | T9 | T10 | T11 | T12 | T13 | T14 |
+----+----+----+----+----+----+----+----+----+----+-----+-----+-----+-----+-----+
| 1  | 1  | 1  | 0  | 0  | 0  | 0  | 0  | 0  | 0  |  0  |  0  |  0  |  0  |  0  |
| 0  | 0  | 0  | 1  | 1  | 1  | 1  | 0  | 0  | 0  |  0  |  0  |  0  |  0  |  0  |
| 0  | 0  | 0  | 0  | 0  | 0  | 0  | 1  | 1  | 1  |  1  |  1  |  0  |  0  |  0  |
| 0  | 0  | 0  | 0  | 0  | 0  | 0  | 0  | 0  | 0  |  0  |  0  |  1  |  1  |  1  |
+----+----+----+----+----+----+----+----+----+----+-----+-----+-----+-----+-----+
14/07/2021 15:35:37[INFO] Supervisores para agregar   
+-----+---------+---------------------------------+---------------------------+
|  ID | Marcado |           T - Entrada           |         T - Salida        |
+-----+---------+---------------------------------+---------------------------+
| P29 |    2    |        ['T2', 'T6', 'T9']       | ['T1', 'T4', 'T8', 'T13'] |
| P29 |    2    |        ['T2', 'T6', 'T9']       | ['T1', 'T4', 'T8', 'T13'] |
| P29 |    1    |           ['T2', 'T9']          | ['T1', 'T4', 'T8', 'T13'] |
| P29 |    4    |    ['T3', 'T5', 'T6', 'T11']    | ['T1', 'T4', 'T8', 'T13'] |
| P29 |    3    | ['T2', 'T3', 'T5', 'T6', 'T10'] | ['T1', 'T4', 'T8', 'T13'] |
| P29 |    1    |        ['T3', 'T6', 'T9']       | ['T1', 'T4', 'T8', 'T13'] |
| P29 |    2    |        ['T2', 'T6', 'T9']       | ['T1', 'T4', 'T8', 'T13'] |
| P29 |    2    |       ['T3', 'T6', 'T10']       | ['T1', 'T4', 'T8', 'T13'] |
| P29 |    3    | ['T2', 'T3', 'T5', 'T6', 'T10'] | ['T1', 'T4', 'T8', 'T13'] |
| P29 |    3    |    ['T3', 'T5', 'T6', 'T10']    | ['T1', 'T4', 'T8', 'T13'] |
| P29 |    3    |    ['T3', 'T5', 'T6', 'T11']    | ['T1', 'T4', 'T8', 'T13'] |
| P29 |    4    |    ['T3', 'T5', 'T6', 'T11']    | ['T1', 'T4', 'T8', 'T13'] |
| P29 |    4    |    ['T3', 'T5', 'T6', 'T11']    | ['T1', 'T4', 'T8', 'T13'] |
+-----+---------+---------------------------------+---------------------------+
+-----+---------+---------------------------+---------------------------+
| Nro | Marcado |        T - Entrada        |         T - Salida        |
+-----+---------+---------------------------+---------------------------+
|  1  |    3    | ['T3', 'T5', 'T6', 'T11'] | ['T1', 'T4', 'T8', 'T13'] |
+-----+---------+---------------------------+---------------------------+
14/07/2021 15:35:37[INFO] Ejecutando accion...   
14/07/2021 15:35:37[INFO] Ejecutando accion...   
14/07/2021 15:35:37[ACTION] Agrego supervisor aleatorio Numero: 6  

--------------------------------------------------------------------------   
14/07/2021 15:35:37[INFO] Ejecutando petrinator para conocer estado de la red...   
--------------------------------------------------------------------------
   

--------------------------------------------------------------------------
   
14/07/2021 15:35:45[INFO] Calculando recompensa..   
14/07/2021 15:35:45[REWARD] El sifon se controlo correctamente, recompensa -1   

--------------------------------------------------------------------------
   
14/07/2021 15:35:45[STATE] Cambie al estado 2: Hay menos sifones vacios en deadlock   
+-----------------------------------------------------+--------------------+------------------------+
|                   Estados/Acciones                  | Agregar supervisor | Agregar o quitar arcos |
+-----------------------------------------------------+--------------------+------------------------+
|                        Start                        |        -1.0        |          0.0           |
|        Más sifónes vacíos en estado deadlock        |        0.0         |          -1.0          |
|       Menos sifónes vacíos en estado deadlock       |        0.0         |          -1.0          |
| Igual cantidad de sifónes vacíos en estado deadlock |        -1.0        |          -1.0          |
|                         End                         |        0.0         |          0.0           |
+-----------------------------------------------------+--------------------+------------------------+
+----+-----+-------------------------------------------------+
| ID | Nro |                      Plazas                     |
+----+-----+-------------------------------------------------+
| 66 |  10 |         ['P1', 'P4', 'P5', 'P10', 'P29']        |
| 67 |  35 | ['P2', 'P6', 'P11', 'P17', 'P25', 'P26', 'P27'] |
| 68 |  46 | ['P2', 'P6', 'P11', 'P17', 'P21', 'P26', 'P27'] |
| 69 |  48 |  ['P2', 'P4', 'P6', 'P11', 'P17', 'P26', 'P27'] |
| 70 |  45 |        ['P2', 'P6', 'P11', 'P24', 'P27']        |
+----+-----+-------------------------------------------------+
+----+----+----+----+----+----+----+----+----+----+-----+-----+-----+-----+-----+
| T0 | T1 | T2 | T3 | T4 | T5 | T6 | T7 | T8 | T9 | T10 | T11 | T12 | T13 | T14 |
+----+----+----+----+----+----+----+----+----+----+-----+-----+-----+-----+-----+
| 1  | 1  | 1  | 0  | 0  | 0  | 0  | 0  | 0  | 0  |  0  |  0  |  0  |  0  |  0  |
| 0  | 0  | 0  | 1  | 1  | 1  | 1  | 0  | 0  | 0  |  0  |  0  |  0  |  0  |  0  |
| 0  | 0  | 0  | 0  | 0  | 0  | 0  | 1  | 1  | 1  |  1  |  1  |  0  |  0  |  0  |
+----+----+----+----+----+----+----+----+----+----+-----+-----+-----+-----+-----+
14/07/2021 15:35:45[INFO] Supervisores para agregar   
+-----+---------+--------------------+---------------------------+
|  ID | Marcado |    T - Entrada     |         T - Salida        |
+-----+---------+--------------------+---------------------------+
| P30 |    2    | ['T2', 'T6', 'T9'] | ['T1', 'T4', 'T8', 'T13'] |
| P30 |    2    | ['T2', 'T6', 'T9'] | ['T1', 'T4', 'T8', 'T13'] |
| P30 |    1    |    ['T2', 'T9']    | ['T1', 'T4', 'T8', 'T13'] |
| P30 |    1    | ['T3', 'T6', 'T9'] | ['T1', 'T4', 'T8', 'T13'] |
+-----+---------+--------------------+---------------------------+
+-----+---------+---------------------------+---------------------------+
| Nro | Marcado |        T - Entrada        |         T - Salida        |
+-----+---------+---------------------------+---------------------------+
|  1  |    3    | ['T3', 'T5', 'T6', 'T11'] | ['T1', 'T4', 'T8', 'T13'] |
|  2  |    2    |     ['T2', 'T6', 'T9']    | ['T1', 'T4', 'T8', 'T13'] |
+-----+---------+---------------------------+---------------------------+
14/07/2021 15:35:45[INFO] Ejecutando accion...   
14/07/2021 15:35:45[INFO] Ejecutando accion...   
14/07/2021 15:35:45[ACTION] Agrego supervisor aleatorio Numero: 3  

--------------------------------------------------------------------------   
14/07/2021 15:35:45[INFO] Ejecutando petrinator para conocer estado de la red...   
--------------------------------------------------------------------------
   

--------------------------------------------------------------------------
   
14/07/2021 15:35:51[INFO] Calculando recompensa..   
14/07/2021 15:35:51[REWARD] El sifon se controlo correctamente, recompensa -1   

--------------------------------------------------------------------------
   
14/07/2021 15:35:51[STATE] Cambie al estado 2: Hay menos sifones vacios en deadlock   
+-----------------------------------------------------+--------------------+------------------------+
|                   Estados/Acciones                  | Agregar supervisor | Agregar o quitar arcos |
+-----------------------------------------------------+--------------------+------------------------+
|                        Start                        |        -1.0        |          0.0           |
|        Más sifónes vacíos en estado deadlock        |        0.0         |          -1.0          |
|       Menos sifónes vacíos en estado deadlock       |        -1.0        |          -1.0          |
| Igual cantidad de sifónes vacíos en estado deadlock |        -1.0        |          -1.0          |
|                         End                         |        0.0         |          0.0           |
+-----------------------------------------------------+--------------------+------------------------+
+----+-----+----------------------------------------+
| ID | Nro |                 Plazas                 |
+----+-----+----------------------------------------+
| 71 |  21 | ['P1', 'P2', 'P4', 'P5', 'P10', 'P30'] |
+----+-----+----------------------------------------+
+----+----+----+----+----+----+----+----+----+----+-----+-----+-----+-----+-----+
| T0 | T1 | T2 | T3 | T4 | T5 | T6 | T7 | T8 | T9 | T10 | T11 | T12 | T13 | T14 |
+----+----+----+----+----+----+----+----+----+----+-----+-----+-----+-----+-----+
| 1  | 1  | 1  | 0  | 0  | 0  | 0  | 0  | 0  | 0  |  0  |  0  |  0  |  0  |  0  |
| 0  | 0  | 0  | 1  | 1  | 1  | 1  | 0  | 0  | 0  |  0  |  0  |  0  |  0  |  0  |
| 0  | 0  | 0  | 0  | 0  | 0  | 0  | 1  | 1  | 1  |  1  |  1  |  0  |  0  |  0  |
+----+----+----+----+----+----+----+----+----+----+-----+-----+-----+-----+-----+
14/07/2021 15:35:51[INFO] Supervisores para agregar   
+----+---------+-------------+------------+
| ID | Marcado | T - Entrada | T - Salida |
+----+---------+-------------+------------+
+----+---------+-------------+------------+
+-----+---------+---------------------------+---------------------------+
| Nro | Marcado |        T - Entrada        |         T - Salida        |
+-----+---------+---------------------------+---------------------------+
|  1  |    3    | ['T3', 'T5', 'T6', 'T11'] | ['T1', 'T4', 'T8', 'T13'] |
|  2  |    2    |     ['T2', 'T6', 'T9']    | ['T1', 'T4', 'T8', 'T13'] |
|  3  |    1    |     ['T3', 'T6', 'T9']    | ['T1', 'T4', 'T8', 'T13'] |
+-----+---------+---------------------------+---------------------------+
14/07/2021 15:35:51[INFO] Ejecutando accion...   
14/07/2021 15:35:51[ACTION] Agregar o quitar arcos   
14/07/2021 15:35:51[ACTION] Eliminar arco desde P29 hasta T13   
14/07/2021 15:35:51[INFO] Se elimino el arco desde P29 hasta T13   
14/07/2021 15:35:51[ACTION] Eliminar arco desde P30 hasta T13   
14/07/2021 15:35:51[INFO] Se elimino el arco desde P30 hasta T13   

--------------------------------------------------------------------------   
14/07/2021 15:35:51[INFO] Ejecutando petrinator para conocer estado de la red...   
--------------------------------------------------------------------------
   

--------------------------------------------------------------------------
   
14/07/2021 15:35:58[INFO] Calculando recompensa..   
14/07/2021 15:35:58[REWARD] No hay mas deadlock, recompensa 100   

--------------------------------------------------------------------------
   
14/07/2021 15:35:58[STATE] Se llego al estado deseado, NO HAY MAS DEADLOCK   

--------------------------------------------------------------------------
   
14/07/2021 15:35:58[STATE] Cambie al estado 2: Hay menos sifones vacios en deadlock   
+-----------------------------------------------------+--------------------+------------------------+
|                   Estados/Acciones                  | Agregar supervisor | Agregar o quitar arcos |
+-----------------------------------------------------+--------------------+------------------------+
|                        Start                        |        -1.0        |          0.0           |
|        Más sifónes vacíos en estado deadlock        |        0.0         |          -1.0          |
|       Menos sifónes vacíos en estado deadlock       |        -1.0        |         100.0          |
| Igual cantidad de sifónes vacíos en estado deadlock |        -1.0        |          -1.0          |
|                         End                         |        0.0         |          0.0           |
+-----------------------------------------------------+--------------------+------------------------+
