18/07/2021 14:09:47[DEBUG] pflow_file:  ../analysis/analisis_8_08072021/gen_nets/20210708-094213_27/net.pflow  
18/07/2021 14:09:47[DEBUG] output_folder:  ../analysis/analisis_8_08072021/gen_nets/20210708-094213_27/  
18/07/2021 14:09:47[DEBUG] html_path:  ../analysis/analisis_8_08072021/gen_nets/20210708-094213_27/  
18/07/2021 14:09:47[DEBUG] txt_path:  ../analysis/analisis_8_08072021/gen_nets/20210708-094213_27/txt_info  

--------------------------------------------------------------------------   
18/07/2021 14:09:47[INFO] Ejecutando petrinator para conocer estado de la red...   
--------------------------------------------------------------------------
   
+----+-----+----------------------------------------------------------------------+
| ID | Nro |                                Plazas                                |
+----+-----+----------------------------------------------------------------------+
| 0  |  87 |           ['P4', 'P9', 'P12', 'P15', 'P24', 'P29', 'P30']            |
| 1  | 101 |        ['P4', 'P9', 'P12', 'P16', 'P24', 'P29', 'P30', 'P32']        |
| 2  |  4  |        ['P3', 'P9', 'P12', 'P16', 'P24', 'P29', 'P31', 'P32']        |
| 3  |  29 |        ['P3', 'P9', 'P12', 'P14', 'P16', 'P24', 'P29', 'P32']        |
| 4  |  2  | ['P4', 'P9', 'P12', 'P16', 'P21', 'P24', 'P28', 'P29', 'P31', 'P32'] |
| 5  |  88 |        ['P4', 'P9', 'P12', 'P14', 'P21', 'P24', 'P28', 'P29']        |
| 6  |  86 | ['P1', 'P4', 'P9', 'P12', 'P15', 'P21', 'P24', 'P28', 'P29', 'P31']  |
| 7  |  27 |        ['P1', 'P3', 'P9', 'P12', 'P15', 'P24', 'P29', 'P31']         |
| 8  |  28 |        ['P1', 'P3', 'P9', 'P12', 'P14', 'P24', 'P29', 'P33']         |
+----+-----+----------------------------------------------------------------------+
+----+----+----+----+----+----+----+----+----+----+-----+-----+-----+-----+-----+-----+-----+-----+-----+-----+-----+
| T0 | T1 | T2 | T3 | T4 | T5 | T6 | T7 | T8 | T9 | T10 | T11 | T12 | T13 | T14 | T15 | T16 | T17 | T18 | T19 | T20 |
+----+----+----+----+----+----+----+----+----+----+-----+-----+-----+-----+-----+-----+-----+-----+-----+-----+-----+
| 1  | 1  | 1  | 1  | 1  | 0  | 0  | 0  | 0  | 0  |  0  |  0  |  0  |  0  |  0  |  0  |  0  |  0  |  0  |  0  |  0  |
| 0  | 0  | 0  | 0  | 0  | 1  | 1  | 1  | 1  | 1  |  1  |  0  |  0  |  0  |  0  |  0  |  1  |  1  |  1  |  1  |  1  |
| 0  | 0  | 0  | 0  | 0  | 1  | 1  | 1  | 0  | 0  |  0  |  1  |  1  |  1  |  1  |  1  |  1  |  1  |  1  |  1  |  1  |
+----+----+----+----+----+----+----+----+----+----+-----+-----+-----+-----+-----+-----+-----+-----+-----+-----+-----+
18/07/2021 14:10:00[INFO] Supervisores para agregar   
+-----+---------+-----------------------------------+--------------+
|  ID | Marcado |            T - Entrada            |  T - Salida  |
+-----+---------+-----------------------------------+--------------+
| P34 |    1    | ['T4', 'T7', 'T10', 'T14', 'T21'] | ['T1', 'T6'] |
| P34 |    2    | ['T4', 'T7', 'T11', 'T15', 'T21'] | ['T1', 'T6'] |
| P34 |    2    |     ['T3', 'T7', 'T11', 'T15']    | ['T1', 'T6'] |
| P34 |    1    |        ['T3', 'T7', 'T10']        | ['T1', 'T6'] |
| P34 |    3    |  ['T4', 'T7', 'T8', 'T11', 'T15'] | ['T1', 'T6'] |
| P34 |    1    |     ['T4', 'T8', 'T10', 'T13']    | ['T1', 'T6'] |
| P34 |    2    |     ['T4', 'T8', 'T11', 'T14']    | ['T1', 'T6'] |
| P34 |    1    |        ['T7', 'T10', 'T14']       | ['T1', 'T6'] |
| P34 |    1    |           ['T7', 'T10']           | ['T1', 'T6'] |
+-----+---------+-----------------------------------+--------------+
18/07/2021 14:10:00[INFO] Supervisores agregados   
+-----+---------+-------------+------------+
| Nro | Marcado | T - Entrada | T - Salida |
+-----+---------+-------------+------------+
+-----+---------+-------------+------------+
18/07/2021 14:10:00[INFO] Ejecutando accion...   
18/07/2021 14:10:00[INFO] Ejecutando accion...   
18/07/2021 14:10:00[ACTION] Agrego supervisor aleatorio Numero: 7  

--------------------------------------------------------------------------   
18/07/2021 14:10:00[INFO] Ejecutando petrinator para conocer estado de la red...   
--------------------------------------------------------------------------
   

--------------------------------------------------------------------------
   
18/07/2021 14:11:03[INFO] Calculando recompensa..   
18/07/2021 14:11:03[REWARD] El sifon se controlo correctamente, recompensa -1   

--------------------------------------------------------------------------
   
18/07/2021 14:11:03[STATE] Cambie al estado 1: Hay mas sifones vacios en deadlock   
+-----------------------------------------------------+--------------------+------------------------+
|                   Estados/Acciones                  | Agregar supervisor | Agregar o quitar arcos |
+-----------------------------------------------------+--------------------+------------------------+
|                        Start                        |        -1.0        |          0.0           |
|        Más sifónes vacíos en estado deadlock        |        0.0         |          0.0           |
|       Menos sifónes vacíos en estado deadlock       |        0.0         |          0.0           |
| Igual cantidad de sifónes vacíos en estado deadlock |        0.0         |          0.0           |
|                         End                         |        0.0         |          0.0           |
+-----------------------------------------------------+--------------------+------------------------+
+----+-----+---------------------------------------------------------------------------------------------------------------------------------+
| ID | Nro |                                                              Plazas                                                             |
+----+-----+---------------------------------------------------------------------------------------------------------------------------------+
| 9  |  14 |                                         ['P8', 'P9', 'P11', 'P13', 'P14', 'P19', 'P34']                                         |
| 10 |  15 |                                      ['P1', 'P8', 'P9', 'P11', 'P13', 'P14', 'P19', 'P34']                                      |
| 11 |  16 |                                   ['P1', 'P2', 'P8', 'P9', 'P11', 'P13', 'P14', 'P19', 'P34']                                   |
| 12 |  31 |                                ['P1', 'P2', 'P3', 'P8', 'P9', 'P11', 'P13', 'P14', 'P19', 'P34']                                |
| 13 |  96 |                             ['P1', 'P2', 'P3', 'P4', 'P8', 'P9', 'P11', 'P13', 'P14', 'P19', 'P34']                             |
| 14 | 116 |                 ['P1', 'P8', 'P9', 'P11', 'P12', 'P13', 'P14', 'P15', 'P16', 'P19', 'P20', 'P21', 'P22', 'P34']                 |
| 15 | 119 |              ['P1', 'P2', 'P8', 'P9', 'P11', 'P12', 'P13', 'P14', 'P15', 'P16', 'P19', 'P20', 'P21', 'P22', 'P34']              |
| 16 | 124 |    ['P1', 'P2', 'P3', 'P8', 'P9', 'P11', 'P12', 'P13', 'P14', 'P15', 'P16', 'P19', 'P20', 'P21', 'P22', 'P23', 'P24', 'P34']    |
| 17 | 143 | ['P1', 'P2', 'P3', 'P4', 'P8', 'P9', 'P11', 'P12', 'P13', 'P14', 'P15', 'P16', 'P19', 'P20', 'P21', 'P22', 'P23', 'P24', 'P34'] |
| 18 | 100 |                                      ['P4', 'P9', 'P12', 'P14', 'P21', 'P24', 'P28', 'P29']                                     |
| 19 |  35 |                                      ['P3', 'P9', 'P12', 'P14', 'P16', 'P24', 'P29', 'P32']                                     |
| 20 |  99 |                                         ['P4', 'P9', 'P12', 'P15', 'P24', 'P29', 'P30']                                         |
| 21 | 113 |                                      ['P4', 'P9', 'P12', 'P16', 'P24', 'P29', 'P30', 'P32']                                     |
| 22 |  4  |                                      ['P3', 'P9', 'P12', 'P16', 'P24', 'P29', 'P31', 'P32']                                     |
| 23 |  2  |                               ['P4', 'P9', 'P12', 'P16', 'P21', 'P24', 'P28', 'P29', 'P31', 'P32']                              |
| 24 |  98 |                               ['P1', 'P4', 'P9', 'P12', 'P15', 'P21', 'P24', 'P28', 'P29', 'P31']                               |
| 25 |  33 |                                      ['P1', 'P3', 'P9', 'P12', 'P15', 'P24', 'P29', 'P31']                                      |
| 26 |  34 |                                      ['P1', 'P3', 'P9', 'P12', 'P14', 'P24', 'P29', 'P33']                                      |
+----+-----+---------------------------------------------------------------------------------------------------------------------------------+
+----+----+----+----+----+----+----+----+----+----+-----+-----+-----+-----+-----+-----+-----+-----+-----+-----+-----+
| T0 | T1 | T2 | T3 | T4 | T5 | T6 | T7 | T8 | T9 | T10 | T11 | T12 | T13 | T14 | T15 | T16 | T17 | T18 | T19 | T20 |
+----+----+----+----+----+----+----+----+----+----+-----+-----+-----+-----+-----+-----+-----+-----+-----+-----+-----+
| 1  | 1  | 1  | 1  | 1  | 1  | 1  | 1  | 1  | 1  |  1  |  0  |  0  |  0  |  0  |  0  |  1  |  1  |  1  |  1  |  1  |
| 1  | 1  | 1  | 1  | 1  | 1  | 1  | 1  | 0  | 0  |  0  |  1  |  1  |  1  |  1  |  1  |  1  |  1  |  1  |  1  |  1  |
+----+----+----+----+----+----+----+----+----+----+-----+-----+-----+-----+-----+-----+-----+-----+-----+-----+-----+
18/07/2021 14:11:03[INFO] Supervisores para agregar   
+-----+---------+-----------------------------------+--------------+
|  ID | Marcado |            T - Entrada            |  T - Salida  |
+-----+---------+-----------------------------------+--------------+
| P35 |    1    |     ['T4', 'T8', 'T10', 'T13']    | ['T1', 'T6'] |
| P35 |    1    |        ['T3', 'T7', 'T10']        | ['T1', 'T6'] |
| P35 |    1    | ['T4', 'T7', 'T10', 'T14', 'T21'] | ['T1', 'T6'] |
| P35 |    2    | ['T4', 'T7', 'T11', 'T15', 'T21'] | ['T1', 'T6'] |
| P35 |    2    |     ['T3', 'T7', 'T11', 'T15']    | ['T1', 'T6'] |
| P35 |    3    |  ['T4', 'T7', 'T8', 'T11', 'T15'] | ['T1', 'T6'] |
| P35 |    2    |     ['T4', 'T8', 'T11', 'T14']    | ['T1', 'T6'] |
| P35 |    1    |        ['T7', 'T10', 'T14']       | ['T1', 'T6'] |
| P35 |    1    |           ['T7', 'T10']           | ['T1', 'T6'] |
+-----+---------+-----------------------------------+--------------+
18/07/2021 14:11:03[INFO] Supervisores agregados   
+-----+---------+----------------------+--------------+
| Nro | Marcado |     T - Entrada      |  T - Salida  |
+-----+---------+----------------------+--------------+
|  1  |    1    | ['T7', 'T10', 'T14'] | ['T1', 'T6'] |
+-----+---------+----------------------+--------------+
18/07/2021 14:11:03[INFO] Ejecutando accion...   
18/07/2021 14:11:03[ACTION] Agregar o quitar arcos   
18/07/2021 14:11:03[ACTION] La transicion en conflicto T4 le tiene que devolver un token al supervisor P34   
18/07/2021 14:11:03[INFO] Se agrego un arco desde T4 hasta P34   
18/07/2021 14:11:03[ACTION] Eliminar arco desde T7 hasta P34   
18/07/2021 14:11:03[INFO] Se elimino el arco con metodo 2 desde T7 hasta P34   

--------------------------------------------------------------------------   
18/07/2021 14:11:03[INFO] Ejecutando petrinator para conocer estado de la red...   
--------------------------------------------------------------------------
   

--------------------------------------------------------------------------
   
18/07/2021 14:11:17[INFO] Calculando recompensa..   
18/07/2021 14:11:17[REWARD] No hay mas deadlock, recompensa 100   

--------------------------------------------------------------------------
   
18/07/2021 14:11:17[STATE] Se llego al estado deseado, NO HAY MAS DEADLOCK   

--------------------------------------------------------------------------
   
18/07/2021 14:11:17[STATE] Cambie al estado 2: Hay menos sifones vacios en deadlock   
+-----------------------------------------------------+--------------------+------------------------+
|                   Estados/Acciones                  | Agregar supervisor | Agregar o quitar arcos |
+-----------------------------------------------------+--------------------+------------------------+
|                        Start                        |        -1.0        |          0.0           |
|        Más sifónes vacíos en estado deadlock        |        0.0         |         100.0          |
|       Menos sifónes vacíos en estado deadlock       |        0.0         |          0.0           |
| Igual cantidad de sifónes vacíos en estado deadlock |        0.0         |          0.0           |
|                         End                         |        0.0         |          0.0           |
+-----------------------------------------------------+--------------------+------------------------+
