 p 24 
 t 16 
 Reachable states from S0 [0, 0, 1, 1, 3, 0, 0, 1, 2, 0, 0, 0, 0, 0, 0, 0, 0, 2, 1, 1, 1, 1, 1, 1] 
 T1 => S1 [1, 0, 1, 0, 2, 0, 0, 1, 2, 0, 0, 0, 0, 0, 0, 0, 0, 2, 0, 0, 1, 0, 1, 0] 
 T15 => S5 [0, 0, 1, 1, 3, 0, 0, 1, 2, 0, 0, 0, 0, 0, 0, 1, 0, 1, 1, 1, 1, 1, 1, 0] 
 T4 => S105 [0, 0, 1, 1, 3, 1, 0, 1, 1, 0, 0, 0, 0, 0, 0, 0, 0, 2, 1, 1, 1, 0, 0, 0] 
 
 Reachable states from S1 [1, 0, 1, 0, 2, 0, 0, 1, 2, 0, 0, 0, 0, 0, 0, 0, 0, 2, 0, 0, 1, 0, 1, 0] 
 T2 => S2 [0, 1, 0, 1, 2, 0, 0, 1, 2, 0, 0, 0, 0, 0, 0, 0, 0, 2, 1, 1, 0, 1, 0, 1] 
 
 Reachable states from S2 [0, 1, 0, 1, 2, 0, 0, 1, 2, 0, 0, 0, 0, 0, 0, 0, 0, 2, 1, 1, 0, 1, 0, 1] 
 T3 => S0 [0, 0, 1, 1, 3, 0, 0, 1, 2, 0, 0, 0, 0, 0, 0, 0, 0, 2, 1, 1, 1, 1, 1, 1] 
 T1 => S3 [1, 1, 0, 0, 1, 0, 0, 1, 2, 0, 0, 0, 0, 0, 0, 0, 0, 2, 0, 0, 0, 0, 0, 0] 
 T15 => S4 [0, 1, 0, 1, 2, 0, 0, 1, 2, 0, 0, 0, 0, 0, 0, 1, 0, 1, 1, 1, 0, 1, 0, 0] 
 
 Reachable states from S3 [1, 1, 0, 0, 1, 0, 0, 1, 2, 0, 0, 0, 0, 0, 0, 0, 0, 2, 0, 0, 0, 0, 0, 0] 
 T3 => S1 [1, 0, 1, 0, 2, 0, 0, 1, 2, 0, 0, 0, 0, 0, 0, 0, 0, 2, 0, 0, 1, 0, 1, 0] 
 
 Reachable states from S4 [0, 1, 0, 1, 2, 0, 0, 1, 2, 0, 0, 0, 0, 0, 0, 1, 0, 1, 1, 1, 0, 1, 0, 0] 
 T3 => S5 [0, 0, 1, 1, 3, 0, 0, 1, 2, 0, 0, 0, 0, 0, 0, 1, 0, 1, 1, 1, 1, 1, 1, 0] 
 T12 => S102 [0, 1, 0, 1, 2, 0, 0, 1, 2, 0, 0, 0, 0, 1, 0, 0, 0, 1, 1, 1, 0, 1, 0, 0] 
 
 Reachable states from S5 [0, 0, 1, 1, 3, 0, 0, 1, 2, 0, 0, 0, 0, 0, 0, 1, 0, 1, 1, 1, 1, 1, 1, 0] 
 T7 => S6 [0, 0, 1, 1, 3, 0, 0, 1, 2, 1, 0, 0, 0, 0, 0, 0, 0, 1, 1, 1, 1, 1, 0, 0] 
 T12 => S86 [0, 0, 1, 1, 3, 0, 0, 1, 2, 0, 0, 0, 0, 1, 0, 0, 0, 1, 1, 1, 1, 1, 1, 0] 
 
 Reachable states from S6 [0, 0, 1, 1, 3, 0, 0, 1, 2, 1, 0, 0, 0, 0, 0, 0, 0, 1, 1, 1, 1, 1, 0, 0] 
 T8 => S7 [0, 0, 1, 1, 3, 0, 0, 1, 2, 0, 1, 0, 0, 0, 0, 0, 0, 1, 0, 0, 1, 0, 1, 1] 
 
 Reachable states from S7 [0, 0, 1, 1, 3, 0, 0, 1, 2, 0, 1, 0, 0, 0, 0, 0, 0, 1, 0, 0, 1, 0, 1, 1] 
 T9 => S8 [0, 0, 1, 1, 3, 0, 0, 1, 2, 0, 0, 1, 0, 0, 0, 0, 0, 1, 1, 1, 1, 1, 1, 1] 
 T15 => S110 [0, 0, 1, 1, 3, 0, 0, 1, 2, 0, 1, 0, 0, 0, 0, 1, 0, 0, 0, 0, 1, 0, 1, 0] 
 
 Reachable states from S8 [0, 0, 1, 1, 3, 0, 0, 1, 2, 0, 0, 1, 0, 0, 0, 0, 0, 1, 1, 1, 1, 1, 1, 1] 
 T1 => S9 [1, 0, 1, 0, 2, 0, 0, 1, 2, 0, 0, 1, 0, 0, 0, 0, 0, 1, 0, 0, 1, 0, 1, 0] 
 T10 => S15 [0, 0, 1, 1, 3, 0, 0, 1, 2, 0, 0, 0, 1, 0, 0, 0, 0, 1, 1, 1, 1, 1, 1, 1] 
 T4 => S52 [0, 0, 1, 1, 3, 1, 0, 1, 1, 0, 0, 1, 0, 0, 0, 0, 0, 1, 1, 1, 1, 0, 0, 0] 
 T15 => S55 [0, 0, 1, 1, 3, 0, 0, 1, 2, 0, 0, 1, 0, 0, 0, 1, 0, 0, 1, 1, 1, 1, 1, 0] 
 
 Reachable states from S9 [1, 0, 1, 0, 2, 0, 0, 1, 2, 0, 0, 1, 0, 0, 0, 0, 0, 1, 0, 0, 1, 0, 1, 0] 
 T2 => S10 [0, 1, 0, 1, 2, 0, 0, 1, 2, 0, 0, 1, 0, 0, 0, 0, 0, 1, 1, 1, 0, 1, 0, 1] 
 T10 => S13 [1, 0, 1, 0, 2, 0, 0, 1, 2, 0, 0, 0, 1, 0, 0, 0, 0, 1, 0, 0, 1, 0, 1, 0] 
 
 Reachable states from S10 [0, 1, 0, 1, 2, 0, 0, 1, 2, 0, 0, 1, 0, 0, 0, 0, 0, 1, 1, 1, 0, 1, 0, 1] 
 T3 => S8 [0, 0, 1, 1, 3, 0, 0, 1, 2, 0, 0, 1, 0, 0, 0, 0, 0, 1, 1, 1, 1, 1, 1, 1] 
 T1 => S11 [1, 1, 0, 0, 1, 0, 0, 1, 2, 0, 0, 1, 0, 0, 0, 0, 0, 1, 0, 0, 0, 0, 0, 0] 
 T10 => S14 [0, 1, 0, 1, 2, 0, 0, 1, 2, 0, 0, 0, 1, 0, 0, 0, 0, 1, 1, 1, 0, 1, 0, 1] 
 T15 => S108 [0, 1, 0, 1, 2, 0, 0, 1, 2, 0, 0, 1, 0, 0, 0, 1, 0, 0, 1, 1, 0, 1, 0, 0] 
 
 Reachable states from S11 [1, 1, 0, 0, 1, 0, 0, 1, 2, 0, 0, 1, 0, 0, 0, 0, 0, 1, 0, 0, 0, 0, 0, 0] 
 T3 => S9 [1, 0, 1, 0, 2, 0, 0, 1, 2, 0, 0, 1, 0, 0, 0, 0, 0, 1, 0, 0, 1, 0, 1, 0] 
 T10 => S12 [1, 1, 0, 0, 1, 0, 0, 1, 2, 0, 0, 0, 1, 0, 0, 0, 0, 1, 0, 0, 0, 0, 0, 0] 
 
 Reachable states from S12 [1, 1, 0, 0, 1, 0, 0, 1, 2, 0, 0, 0, 1, 0, 0, 0, 0, 1, 0, 0, 0, 0, 0, 0] 
 T3 => S13 [1, 0, 1, 0, 2, 0, 0, 1, 2, 0, 0, 0, 1, 0, 0, 0, 0, 1, 0, 0, 1, 0, 1, 0] 
 T11 => S25 [1, 1, 0, 0, 1, 0, 0, 1, 2, 0, 0, 0, 0, 0, 0, 0, 1, 1, 0, 0, 0, 0, 0, 0] 
 
 Reachable states from S13 [1, 0, 1, 0, 2, 0, 0, 1, 2, 0, 0, 0, 1, 0, 0, 0, 0, 1, 0, 0, 1, 0, 1, 0] 
 T2 => S14 [0, 1, 0, 1, 2, 0, 0, 1, 2, 0, 0, 0, 1, 0, 0, 0, 0, 1, 1, 1, 0, 1, 0, 1] 
 T11 => S23 [1, 0, 1, 0, 2, 0, 0, 1, 2, 0, 0, 0, 0, 0, 0, 0, 1, 1, 0, 0, 1, 0, 1, 0] 
 
 Reachable states from S14 [0, 1, 0, 1, 2, 0, 0, 1, 2, 0, 0, 0, 1, 0, 0, 0, 0, 1, 1, 1, 0, 1, 0, 1] 
 T1 => S12 [1, 1, 0, 0, 1, 0, 0, 1, 2, 0, 0, 0, 1, 0, 0, 0, 0, 1, 0, 0, 0, 0, 0, 0] 
 T3 => S15 [0, 0, 1, 1, 3, 0, 0, 1, 2, 0, 0, 0, 1, 0, 0, 0, 0, 1, 1, 1, 1, 1, 1, 1] 
 T11 => S24 [0, 1, 0, 1, 2, 0, 0, 1, 2, 0, 0, 0, 0, 0, 0, 0, 1, 1, 1, 1, 0, 1, 0, 1] 
 T15 => S106 [0, 1, 0, 1, 2, 0, 0, 1, 2, 0, 0, 0, 1, 0, 0, 1, 0, 0, 1, 1, 0, 1, 0, 0] 
 
 Reachable states from S15 [0, 0, 1, 1, 3, 0, 0, 1, 2, 0, 0, 0, 1, 0, 0, 0, 0, 1, 1, 1, 1, 1, 1, 1] 
 T1 => S13 [1, 0, 1, 0, 2, 0, 0, 1, 2, 0, 0, 0, 1, 0, 0, 0, 0, 1, 0, 0, 1, 0, 1, 0] 
 T4 => S16 [0, 0, 1, 1, 3, 1, 0, 1, 1, 0, 0, 0, 1, 0, 0, 0, 0, 1, 1, 1, 1, 0, 0, 0] 
 T11 => S22 [0, 0, 1, 1, 3, 0, 0, 1, 2, 0, 0, 0, 0, 0, 0, 0, 1, 1, 1, 1, 1, 1, 1, 1] 
 T15 => S81 [0, 0, 1, 1, 3, 0, 0, 1, 2, 0, 0, 0, 1, 0, 0, 1, 0, 0, 1, 1, 1, 1, 1, 0] 
 
 Reachable states from S16 [0, 0, 1, 1, 3, 1, 0, 1, 1, 0, 0, 0, 1, 0, 0, 0, 0, 1, 1, 1, 1, 0, 0, 0] 
 T5 => S17 [0, 0, 1, 1, 3, 0, 1, 0, 1, 0, 0, 0, 1, 0, 0, 0, 0, 1, 0, 0, 0, 1, 1, 1] 
 T11 => S20 [0, 0, 1, 1, 3, 1, 0, 1, 1, 0, 0, 0, 0, 0, 0, 0, 1, 1, 1, 1, 1, 0, 0, 0] 
 
 Reachable states from S17 [0, 0, 1, 1, 3, 0, 1, 0, 1, 0, 0, 0, 1, 0, 0, 0, 0, 1, 0, 0, 0, 1, 1, 1] 
 T6 => S15 [0, 0, 1, 1, 3, 0, 0, 1, 2, 0, 0, 0, 1, 0, 0, 0, 0, 1, 1, 1, 1, 1, 1, 1] 
 T4 => S18 [0, 0, 1, 1, 3, 1, 1, 0, 0, 0, 0, 0, 1, 0, 0, 0, 0, 1, 0, 0, 0, 0, 0, 0] 
 T11 => S21 [0, 0, 1, 1, 3, 0, 1, 0, 1, 0, 0, 0, 0, 0, 0, 0, 1, 1, 0, 0, 0, 1, 1, 1] 
 T15 => S94 [0, 0, 1, 1, 3, 0, 1, 0, 1, 0, 0, 0, 1, 0, 0, 1, 0, 0, 0, 0, 0, 1, 1, 0] 
 
 Reachable states from S18 [0, 0, 1, 1, 3, 1, 1, 0, 0, 0, 0, 0, 1, 0, 0, 0, 0, 1, 0, 0, 0, 0, 0, 0] 
 T6 => S16 [0, 0, 1, 1, 3, 1, 0, 1, 1, 0, 0, 0, 1, 0, 0, 0, 0, 1, 1, 1, 1, 0, 0, 0] 
 T11 => S19 [0, 0, 1, 1, 3, 1, 1, 0, 0, 0, 0, 0, 0, 0, 0, 0, 1, 1, 0, 0, 0, 0, 0, 0] 
 
 Reachable states from S19 [0, 0, 1, 1, 3, 1, 1, 0, 0, 0, 0, 0, 0, 0, 0, 0, 1, 1, 0, 0, 0, 0, 0, 0] 
 T6 => S20 [0, 0, 1, 1, 3, 1, 0, 1, 1, 0, 0, 0, 0, 0, 0, 0, 1, 1, 1, 1, 1, 0, 0, 0] 
 T16 => S104 [0, 0, 1, 1, 3, 1, 1, 0, 0, 0, 0, 0, 0, 0, 0, 0, 0, 2, 0, 0, 0, 0, 0, 0] 
 
 Reachable states from S20 [0, 0, 1, 1, 3, 1, 0, 1, 1, 0, 0, 0, 0, 0, 0, 0, 1, 1, 1, 1, 1, 0, 0, 0] 
 T5 => S21 [0, 0, 1, 1, 3, 0, 1, 0, 1, 0, 0, 0, 0, 0, 0, 0, 1, 1, 0, 0, 0, 1, 1, 1] 
 T16 => S105 [0, 0, 1, 1, 3, 1, 0, 1, 1, 0, 0, 0, 0, 0, 0, 0, 0, 2, 1, 1, 1, 0, 0, 0] 
 
 Reachable states from S21 [0, 0, 1, 1, 3, 0, 1, 0, 1, 0, 0, 0, 0, 0, 0, 0, 1, 1, 0, 0, 0, 1, 1, 1] 
 T4 => S19 [0, 0, 1, 1, 3, 1, 1, 0, 0, 0, 0, 0, 0, 0, 0, 0, 1, 1, 0, 0, 0, 0, 0, 0] 
 T6 => S22 [0, 0, 1, 1, 3, 0, 0, 1, 2, 0, 0, 0, 0, 0, 0, 0, 1, 1, 1, 1, 1, 1, 1, 1] 
 T15 => S95 [0, 0, 1, 1, 3, 0, 1, 0, 1, 0, 0, 0, 0, 0, 0, 1, 1, 0, 0, 0, 0, 1, 1, 0] 
 T16 => S103 [0, 0, 1, 1, 3, 0, 1, 0, 1, 0, 0, 0, 0, 0, 0, 0, 0, 2, 0, 0, 0, 1, 1, 1] 
 
 Reachable states from S22 [0, 0, 1, 1, 3, 0, 0, 1, 2, 0, 0, 0, 0, 0, 0, 0, 1, 1, 1, 1, 1, 1, 1, 1] 
 T16 => S0 [0, 0, 1, 1, 3, 0, 0, 1, 2, 0, 0, 0, 0, 0, 0, 0, 0, 2, 1, 1, 1, 1, 1, 1] 
 T4 => S20 [0, 0, 1, 1, 3, 1, 0, 1, 1, 0, 0, 0, 0, 0, 0, 0, 1, 1, 1, 1, 1, 0, 0, 0] 
 T1 => S23 [1, 0, 1, 0, 2, 0, 0, 1, 2, 0, 0, 0, 0, 0, 0, 0, 1, 1, 0, 0, 1, 0, 1, 0] 
 T15 => S27 [0, 0, 1, 1, 3, 0, 0, 1, 2, 0, 0, 0, 0, 0, 0, 1, 1, 0, 1, 1, 1, 1, 1, 0] 
 
 Reachable states from S23 [1, 0, 1, 0, 2, 0, 0, 1, 2, 0, 0, 0, 0, 0, 0, 0, 1, 1, 0, 0, 1, 0, 1, 0] 
 T16 => S1 [1, 0, 1, 0, 2, 0, 0, 1, 2, 0, 0, 0, 0, 0, 0, 0, 0, 2, 0, 0, 1, 0, 1, 0] 
 T2 => S24 [0, 1, 0, 1, 2, 0, 0, 1, 2, 0, 0, 0, 0, 0, 0, 0, 1, 1, 1, 1, 0, 1, 0, 1] 
 
 Reachable states from S24 [0, 1, 0, 1, 2, 0, 0, 1, 2, 0, 0, 0, 0, 0, 0, 0, 1, 1, 1, 1, 0, 1, 0, 1] 
 T16 => S2 [0, 1, 0, 1, 2, 0, 0, 1, 2, 0, 0, 0, 0, 0, 0, 0, 0, 2, 1, 1, 0, 1, 0, 1] 
 T3 => S22 [0, 0, 1, 1, 3, 0, 0, 1, 2, 0, 0, 0, 0, 0, 0, 0, 1, 1, 1, 1, 1, 1, 1, 1] 
 T1 => S25 [1, 1, 0, 0, 1, 0, 0, 1, 2, 0, 0, 0, 0, 0, 0, 0, 1, 1, 0, 0, 0, 0, 0, 0] 
 T15 => S26 [0, 1, 0, 1, 2, 0, 0, 1, 2, 0, 0, 0, 0, 0, 0, 1, 1, 0, 1, 1, 0, 1, 0, 0] 
 
 Reachable states from S25 [1, 1, 0, 0, 1, 0, 0, 1, 2, 0, 0, 0, 0, 0, 0, 0, 1, 1, 0, 0, 0, 0, 0, 0] 
 T16 => S3 [1, 1, 0, 0, 1, 0, 0, 1, 2, 0, 0, 0, 0, 0, 0, 0, 0, 2, 0, 0, 0, 0, 0, 0] 
 T3 => S23 [1, 0, 1, 0, 2, 0, 0, 1, 2, 0, 0, 0, 0, 0, 0, 0, 1, 1, 0, 0, 1, 0, 1, 0] 
 
 Reachable states from S26 [0, 1, 0, 1, 2, 0, 0, 1, 2, 0, 0, 0, 0, 0, 0, 1, 1, 0, 1, 1, 0, 1, 0, 0] 
 T16 => S4 [0, 1, 0, 1, 2, 0, 0, 1, 2, 0, 0, 0, 0, 0, 0, 1, 0, 1, 1, 1, 0, 1, 0, 0] 
 T3 => S27 [0, 0, 1, 1, 3, 0, 0, 1, 2, 0, 0, 0, 0, 0, 0, 1, 1, 0, 1, 1, 1, 1, 1, 0] 
 T12 => S101 [0, 1, 0, 1, 2, 0, 0, 1, 2, 0, 0, 0, 0, 1, 0, 0, 1, 0, 1, 1, 0, 1, 0, 0] 
 
 Reachable states from S27 [0, 0, 1, 1, 3, 0, 0, 1, 2, 0, 0, 0, 0, 0, 0, 1, 1, 0, 1, 1, 1, 1, 1, 0] 
 T16 => S5 [0, 0, 1, 1, 3, 0, 0, 1, 2, 0, 0, 0, 0, 0, 0, 1, 0, 1, 1, 1, 1, 1, 1, 0] 
 T7 => S28 [0, 0, 1, 1, 3, 0, 0, 1, 2, 1, 0, 0, 0, 0, 0, 0, 1, 0, 1, 1, 1, 1, 0, 0] 
 T12 => S83 [0, 0, 1, 1, 3, 0, 0, 1, 2, 0, 0, 0, 0, 1, 0, 0, 1, 0, 1, 1, 1, 1, 1, 0] 
 
 Reachable states from S28 [0, 0, 1, 1, 3, 0, 0, 1, 2, 1, 0, 0, 0, 0, 0, 0, 1, 0, 1, 1, 1, 1, 0, 0] 
 T16 => S6 [0, 0, 1, 1, 3, 0, 0, 1, 2, 1, 0, 0, 0, 0, 0, 0, 0, 1, 1, 1, 1, 1, 0, 0] 
 T8 => S29 [0, 0, 1, 1, 3, 0, 0, 1, 2, 0, 1, 0, 0, 0, 0, 0, 1, 0, 0, 0, 1, 0, 1, 1] 
 
 Reachable states from S29 [0, 0, 1, 1, 3, 0, 0, 1, 2, 0, 1, 0, 0, 0, 0, 0, 1, 0, 0, 0, 1, 0, 1, 1] 
 T16 => S7 [0, 0, 1, 1, 3, 0, 0, 1, 2, 0, 1, 0, 0, 0, 0, 0, 0, 1, 0, 0, 1, 0, 1, 1] 
 T9 => S30 [0, 0, 1, 1, 3, 0, 0, 1, 2, 0, 0, 1, 0, 0, 0, 0, 1, 0, 1, 1, 1, 1, 1, 1] 
 
 Reachable states from S30 [0, 0, 1, 1, 3, 0, 0, 1, 2, 0, 0, 1, 0, 0, 0, 0, 1, 0, 1, 1, 1, 1, 1, 1] 
 T16 => S8 [0, 0, 1, 1, 3, 0, 0, 1, 2, 0, 0, 1, 0, 0, 0, 0, 0, 1, 1, 1, 1, 1, 1, 1] 
 T1 => S31 [1, 0, 1, 0, 2, 0, 0, 1, 2, 0, 0, 1, 0, 0, 0, 0, 1, 0, 0, 0, 1, 0, 1, 0] 
 T10 => S37 [0, 0, 1, 1, 3, 0, 0, 1, 2, 0, 0, 0, 1, 0, 0, 0, 1, 0, 1, 1, 1, 1, 1, 1] 
 T4 => S48 [0, 0, 1, 1, 3, 1, 0, 1, 1, 0, 0, 1, 0, 0, 0, 0, 1, 0, 1, 1, 1, 0, 0, 0] 
 
 Reachable states from S31 [1, 0, 1, 0, 2, 0, 0, 1, 2, 0, 0, 1, 0, 0, 0, 0, 1, 0, 0, 0, 1, 0, 1, 0] 
 T16 => S9 [1, 0, 1, 0, 2, 0, 0, 1, 2, 0, 0, 1, 0, 0, 0, 0, 0, 1, 0, 0, 1, 0, 1, 0] 
 T2 => S32 [0, 1, 0, 1, 2, 0, 0, 1, 2, 0, 0, 1, 0, 0, 0, 0, 1, 0, 1, 1, 0, 1, 0, 1] 
 T10 => S35 [1, 0, 1, 0, 2, 0, 0, 1, 2, 0, 0, 0, 1, 0, 0, 0, 1, 0, 0, 0, 1, 0, 1, 0] 
 
 Reachable states from S32 [0, 1, 0, 1, 2, 0, 0, 1, 2, 0, 0, 1, 0, 0, 0, 0, 1, 0, 1, 1, 0, 1, 0, 1] 
 T16 => S10 [0, 1, 0, 1, 2, 0, 0, 1, 2, 0, 0, 1, 0, 0, 0, 0, 0, 1, 1, 1, 0, 1, 0, 1] 
 T3 => S30 [0, 0, 1, 1, 3, 0, 0, 1, 2, 0, 0, 1, 0, 0, 0, 0, 1, 0, 1, 1, 1, 1, 1, 1] 
 T1 => S33 [1, 1, 0, 0, 1, 0, 0, 1, 2, 0, 0, 1, 0, 0, 0, 0, 1, 0, 0, 0, 0, 0, 0, 0] 
 T10 => S36 [0, 1, 0, 1, 2, 0, 0, 1, 2, 0, 0, 0, 1, 0, 0, 0, 1, 0, 1, 1, 0, 1, 0, 1] 
 
 Reachable states from S33 [1, 1, 0, 0, 1, 0, 0, 1, 2, 0, 0, 1, 0, 0, 0, 0, 1, 0, 0, 0, 0, 0, 0, 0] 
 T16 => S11 [1, 1, 0, 0, 1, 0, 0, 1, 2, 0, 0, 1, 0, 0, 0, 0, 0, 1, 0, 0, 0, 0, 0, 0] 
 T3 => S31 [1, 0, 1, 0, 2, 0, 0, 1, 2, 0, 0, 1, 0, 0, 0, 0, 1, 0, 0, 0, 1, 0, 1, 0] 
 T10 => S34 [1, 1, 0, 0, 1, 0, 0, 1, 2, 0, 0, 0, 1, 0, 0, 0, 1, 0, 0, 0, 0, 0, 0, 0] 
 
 Reachable states from S34 [1, 1, 0, 0, 1, 0, 0, 1, 2, 0, 0, 0, 1, 0, 0, 0, 1, 0, 0, 0, 0, 0, 0, 0] 
 T16 => S12 [1, 1, 0, 0, 1, 0, 0, 1, 2, 0, 0, 0, 1, 0, 0, 0, 0, 1, 0, 0, 0, 0, 0, 0] 
 T3 => S35 [1, 0, 1, 0, 2, 0, 0, 1, 2, 0, 0, 0, 1, 0, 0, 0, 1, 0, 0, 0, 1, 0, 1, 0] 
 T11 => S47 [1, 1, 0, 0, 1, 0, 0, 1, 2, 0, 0, 0, 0, 0, 0, 0, 2, 0, 0, 0, 0, 0, 0, 0] 
 
 Reachable states from S35 [1, 0, 1, 0, 2, 0, 0, 1, 2, 0, 0, 0, 1, 0, 0, 0, 1, 0, 0, 0, 1, 0, 1, 0] 
 T16 => S13 [1, 0, 1, 0, 2, 0, 0, 1, 2, 0, 0, 0, 1, 0, 0, 0, 0, 1, 0, 0, 1, 0, 1, 0] 
 T2 => S36 [0, 1, 0, 1, 2, 0, 0, 1, 2, 0, 0, 0, 1, 0, 0, 0, 1, 0, 1, 1, 0, 1, 0, 1] 
 T11 => S45 [1, 0, 1, 0, 2, 0, 0, 1, 2, 0, 0, 0, 0, 0, 0, 0, 2, 0, 0, 0, 1, 0, 1, 0] 
 
 Reachable states from S36 [0, 1, 0, 1, 2, 0, 0, 1, 2, 0, 0, 0, 1, 0, 0, 0, 1, 0, 1, 1, 0, 1, 0, 1] 
 T16 => S14 [0, 1, 0, 1, 2, 0, 0, 1, 2, 0, 0, 0, 1, 0, 0, 0, 0, 1, 1, 1, 0, 1, 0, 1] 
 T1 => S34 [1, 1, 0, 0, 1, 0, 0, 1, 2, 0, 0, 0, 1, 0, 0, 0, 1, 0, 0, 0, 0, 0, 0, 0] 
 T3 => S37 [0, 0, 1, 1, 3, 0, 0, 1, 2, 0, 0, 0, 1, 0, 0, 0, 1, 0, 1, 1, 1, 1, 1, 1] 
 T11 => S46 [0, 1, 0, 1, 2, 0, 0, 1, 2, 0, 0, 0, 0, 0, 0, 0, 2, 0, 1, 1, 0, 1, 0, 1] 
 
 Reachable states from S37 [0, 0, 1, 1, 3, 0, 0, 1, 2, 0, 0, 0, 1, 0, 0, 0, 1, 0, 1, 1, 1, 1, 1, 1] 
 T16 => S15 [0, 0, 1, 1, 3, 0, 0, 1, 2, 0, 0, 0, 1, 0, 0, 0, 0, 1, 1, 1, 1, 1, 1, 1] 
 T1 => S35 [1, 0, 1, 0, 2, 0, 0, 1, 2, 0, 0, 0, 1, 0, 0, 0, 1, 0, 0, 0, 1, 0, 1, 0] 
 T4 => S38 [0, 0, 1, 1, 3, 1, 0, 1, 1, 0, 0, 0, 1, 0, 0, 0, 1, 0, 1, 1, 1, 0, 0, 0] 
 T11 => S44 [0, 0, 1, 1, 3, 0, 0, 1, 2, 0, 0, 0, 0, 0, 0, 0, 2, 0, 1, 1, 1, 1, 1, 1] 
 
 Reachable states from S38 [0, 0, 1, 1, 3, 1, 0, 1, 1, 0, 0, 0, 1, 0, 0, 0, 1, 0, 1, 1, 1, 0, 0, 0] 
 T16 => S16 [0, 0, 1, 1, 3, 1, 0, 1, 1, 0, 0, 0, 1, 0, 0, 0, 0, 1, 1, 1, 1, 0, 0, 0] 
 T5 => S39 [0, 0, 1, 1, 3, 0, 1, 0, 1, 0, 0, 0, 1, 0, 0, 0, 1, 0, 0, 0, 0, 1, 1, 1] 
 T11 => S42 [0, 0, 1, 1, 3, 1, 0, 1, 1, 0, 0, 0, 0, 0, 0, 0, 2, 0, 1, 1, 1, 0, 0, 0] 
 
 Reachable states from S39 [0, 0, 1, 1, 3, 0, 1, 0, 1, 0, 0, 0, 1, 0, 0, 0, 1, 0, 0, 0, 0, 1, 1, 1] 
 T16 => S17 [0, 0, 1, 1, 3, 0, 1, 0, 1, 0, 0, 0, 1, 0, 0, 0, 0, 1, 0, 0, 0, 1, 1, 1] 
 T6 => S37 [0, 0, 1, 1, 3, 0, 0, 1, 2, 0, 0, 0, 1, 0, 0, 0, 1, 0, 1, 1, 1, 1, 1, 1] 
 T4 => S40 [0, 0, 1, 1, 3, 1, 1, 0, 0, 0, 0, 0, 1, 0, 0, 0, 1, 0, 0, 0, 0, 0, 0, 0] 
 T11 => S43 [0, 0, 1, 1, 3, 0, 1, 0, 1, 0, 0, 0, 0, 0, 0, 0, 2, 0, 0, 0, 0, 1, 1, 1] 
 
 Reachable states from S40 [0, 0, 1, 1, 3, 1, 1, 0, 0, 0, 0, 0, 1, 0, 0, 0, 1, 0, 0, 0, 0, 0, 0, 0] 
 T16 => S18 [0, 0, 1, 1, 3, 1, 1, 0, 0, 0, 0, 0, 1, 0, 0, 0, 0, 1, 0, 0, 0, 0, 0, 0] 
 T6 => S38 [0, 0, 1, 1, 3, 1, 0, 1, 1, 0, 0, 0, 1, 0, 0, 0, 1, 0, 1, 1, 1, 0, 0, 0] 
 T11 => S41 [0, 0, 1, 1, 3, 1, 1, 0, 0, 0, 0, 0, 0, 0, 0, 0, 2, 0, 0, 0, 0, 0, 0, 0] 
 
 Reachable states from S41 [0, 0, 1, 1, 3, 1, 1, 0, 0, 0, 0, 0, 0, 0, 0, 0, 2, 0, 0, 0, 0, 0, 0, 0] 
 T16 => S19 [0, 0, 1, 1, 3, 1, 1, 0, 0, 0, 0, 0, 0, 0, 0, 0, 1, 1, 0, 0, 0, 0, 0, 0] 
 T6 => S42 [0, 0, 1, 1, 3, 1, 0, 1, 1, 0, 0, 0, 0, 0, 0, 0, 2, 0, 1, 1, 1, 0, 0, 0] 
 
 Reachable states from S42 [0, 0, 1, 1, 3, 1, 0, 1, 1, 0, 0, 0, 0, 0, 0, 0, 2, 0, 1, 1, 1, 0, 0, 0] 
 T16 => S20 [0, 0, 1, 1, 3, 1, 0, 1, 1, 0, 0, 0, 0, 0, 0, 0, 1, 1, 1, 1, 1, 0, 0, 0] 
 T5 => S43 [0, 0, 1, 1, 3, 0, 1, 0, 1, 0, 0, 0, 0, 0, 0, 0, 2, 0, 0, 0, 0, 1, 1, 1] 
 
 Reachable states from S43 [0, 0, 1, 1, 3, 0, 1, 0, 1, 0, 0, 0, 0, 0, 0, 0, 2, 0, 0, 0, 0, 1, 1, 1] 
 T16 => S21 [0, 0, 1, 1, 3, 0, 1, 0, 1, 0, 0, 0, 0, 0, 0, 0, 1, 1, 0, 0, 0, 1, 1, 1] 
 T4 => S41 [0, 0, 1, 1, 3, 1, 1, 0, 0, 0, 0, 0, 0, 0, 0, 0, 2, 0, 0, 0, 0, 0, 0, 0] 
 T6 => S44 [0, 0, 1, 1, 3, 0, 0, 1, 2, 0, 0, 0, 0, 0, 0, 0, 2, 0, 1, 1, 1, 1, 1, 1] 
 
 Reachable states from S44 [0, 0, 1, 1, 3, 0, 0, 1, 2, 0, 0, 0, 0, 0, 0, 0, 2, 0, 1, 1, 1, 1, 1, 1] 
 T16 => S22 [0, 0, 1, 1, 3, 0, 0, 1, 2, 0, 0, 0, 0, 0, 0, 0, 1, 1, 1, 1, 1, 1, 1, 1] 
 T4 => S42 [0, 0, 1, 1, 3, 1, 0, 1, 1, 0, 0, 0, 0, 0, 0, 0, 2, 0, 1, 1, 1, 0, 0, 0] 
 T1 => S45 [1, 0, 1, 0, 2, 0, 0, 1, 2, 0, 0, 0, 0, 0, 0, 0, 2, 0, 0, 0, 1, 0, 1, 0] 
 
 Reachable states from S45 [1, 0, 1, 0, 2, 0, 0, 1, 2, 0, 0, 0, 0, 0, 0, 0, 2, 0, 0, 0, 1, 0, 1, 0] 
 T16 => S23 [1, 0, 1, 0, 2, 0, 0, 1, 2, 0, 0, 0, 0, 0, 0, 0, 1, 1, 0, 0, 1, 0, 1, 0] 
 T2 => S46 [0, 1, 0, 1, 2, 0, 0, 1, 2, 0, 0, 0, 0, 0, 0, 0, 2, 0, 1, 1, 0, 1, 0, 1] 
 
 Reachable states from S46 [0, 1, 0, 1, 2, 0, 0, 1, 2, 0, 0, 0, 0, 0, 0, 0, 2, 0, 1, 1, 0, 1, 0, 1] 
 T16 => S24 [0, 1, 0, 1, 2, 0, 0, 1, 2, 0, 0, 0, 0, 0, 0, 0, 1, 1, 1, 1, 0, 1, 0, 1] 
 T3 => S44 [0, 0, 1, 1, 3, 0, 0, 1, 2, 0, 0, 0, 0, 0, 0, 0, 2, 0, 1, 1, 1, 1, 1, 1] 
 T1 => S47 [1, 1, 0, 0, 1, 0, 0, 1, 2, 0, 0, 0, 0, 0, 0, 0, 2, 0, 0, 0, 0, 0, 0, 0] 
 
 Reachable states from S47 [1, 1, 0, 0, 1, 0, 0, 1, 2, 0, 0, 0, 0, 0, 0, 0, 2, 0, 0, 0, 0, 0, 0, 0] 
 T16 => S25 [1, 1, 0, 0, 1, 0, 0, 1, 2, 0, 0, 0, 0, 0, 0, 0, 1, 1, 0, 0, 0, 0, 0, 0] 
 T3 => S45 [1, 0, 1, 0, 2, 0, 0, 1, 2, 0, 0, 0, 0, 0, 0, 0, 2, 0, 0, 0, 1, 0, 1, 0] 
 
 Reachable states from S48 [0, 0, 1, 1, 3, 1, 0, 1, 1, 0, 0, 1, 0, 0, 0, 0, 1, 0, 1, 1, 1, 0, 0, 0] 
 T10 => S38 [0, 0, 1, 1, 3, 1, 0, 1, 1, 0, 0, 0, 1, 0, 0, 0, 1, 0, 1, 1, 1, 0, 0, 0] 
 T5 => S49 [0, 0, 1, 1, 3, 0, 1, 0, 1, 0, 0, 1, 0, 0, 0, 0, 1, 0, 0, 0, 0, 1, 1, 1] 
 T16 => S52 [0, 0, 1, 1, 3, 1, 0, 1, 1, 0, 0, 1, 0, 0, 0, 0, 0, 1, 1, 1, 1, 0, 0, 0] 
 
 Reachable states from S49 [0, 0, 1, 1, 3, 0, 1, 0, 1, 0, 0, 1, 0, 0, 0, 0, 1, 0, 0, 0, 0, 1, 1, 1] 
 T6 => S30 [0, 0, 1, 1, 3, 0, 0, 1, 2, 0, 0, 1, 0, 0, 0, 0, 1, 0, 1, 1, 1, 1, 1, 1] 
 T10 => S39 [0, 0, 1, 1, 3, 0, 1, 0, 1, 0, 0, 0, 1, 0, 0, 0, 1, 0, 0, 0, 0, 1, 1, 1] 
 T4 => S50 [0, 0, 1, 1, 3, 1, 1, 0, 0, 0, 0, 1, 0, 0, 0, 0, 1, 0, 0, 0, 0, 0, 0, 0] 
 T16 => S53 [0, 0, 1, 1, 3, 0, 1, 0, 1, 0, 0, 1, 0, 0, 0, 0, 0, 1, 0, 0, 0, 1, 1, 1] 
 
 Reachable states from S50 [0, 0, 1, 1, 3, 1, 1, 0, 0, 0, 0, 1, 0, 0, 0, 0, 1, 0, 0, 0, 0, 0, 0, 0] 
 T10 => S40 [0, 0, 1, 1, 3, 1, 1, 0, 0, 0, 0, 0, 1, 0, 0, 0, 1, 0, 0, 0, 0, 0, 0, 0] 
 T6 => S48 [0, 0, 1, 1, 3, 1, 0, 1, 1, 0, 0, 1, 0, 0, 0, 0, 1, 0, 1, 1, 1, 0, 0, 0] 
 T16 => S51 [0, 0, 1, 1, 3, 1, 1, 0, 0, 0, 0, 1, 0, 0, 0, 0, 0, 1, 0, 0, 0, 0, 0, 0] 
 
 Reachable states from S51 [0, 0, 1, 1, 3, 1, 1, 0, 0, 0, 0, 1, 0, 0, 0, 0, 0, 1, 0, 0, 0, 0, 0, 0] 
 T10 => S18 [0, 0, 1, 1, 3, 1, 1, 0, 0, 0, 0, 0, 1, 0, 0, 0, 0, 1, 0, 0, 0, 0, 0, 0] 
 T6 => S52 [0, 0, 1, 1, 3, 1, 0, 1, 1, 0, 0, 1, 0, 0, 0, 0, 0, 1, 1, 1, 1, 0, 0, 0] 
 
 Reachable states from S52 [0, 0, 1, 1, 3, 1, 0, 1, 1, 0, 0, 1, 0, 0, 0, 0, 0, 1, 1, 1, 1, 0, 0, 0] 
 T10 => S16 [0, 0, 1, 1, 3, 1, 0, 1, 1, 0, 0, 0, 1, 0, 0, 0, 0, 1, 1, 1, 1, 0, 0, 0] 
 T5 => S53 [0, 0, 1, 1, 3, 0, 1, 0, 1, 0, 0, 1, 0, 0, 0, 0, 0, 1, 0, 0, 0, 1, 1, 1] 
 
 Reachable states from S53 [0, 0, 1, 1, 3, 0, 1, 0, 1, 0, 0, 1, 0, 0, 0, 0, 0, 1, 0, 0, 0, 1, 1, 1] 
 T6 => S8 [0, 0, 1, 1, 3, 0, 0, 1, 2, 0, 0, 1, 0, 0, 0, 0, 0, 1, 1, 1, 1, 1, 1, 1] 
 T10 => S17 [0, 0, 1, 1, 3, 0, 1, 0, 1, 0, 0, 0, 1, 0, 0, 0, 0, 1, 0, 0, 0, 1, 1, 1] 
 T4 => S51 [0, 0, 1, 1, 3, 1, 1, 0, 0, 0, 0, 1, 0, 0, 0, 0, 0, 1, 0, 0, 0, 0, 0, 0] 
 T15 => S54 [0, 0, 1, 1, 3, 0, 1, 0, 1, 0, 0, 1, 0, 0, 0, 1, 0, 0, 0, 0, 0, 1, 1, 0] 
 
 Reachable states from S54 [0, 0, 1, 1, 3, 0, 1, 0, 1, 0, 0, 1, 0, 0, 0, 1, 0, 0, 0, 0, 0, 1, 1, 0] 
 T6 => S55 [0, 0, 1, 1, 3, 0, 0, 1, 2, 0, 0, 1, 0, 0, 0, 1, 0, 0, 1, 1, 1, 1, 1, 0] 
 T7 => S90 [0, 0, 1, 1, 3, 0, 1, 0, 1, 1, 0, 1, 0, 0, 0, 0, 0, 0, 0, 0, 0, 1, 0, 0] 
 T10 => S94 [0, 0, 1, 1, 3, 0, 1, 0, 1, 0, 0, 0, 1, 0, 0, 1, 0, 0, 0, 0, 0, 1, 1, 0] 
 T12 => S100 [0, 0, 1, 1, 3, 0, 1, 0, 1, 0, 0, 1, 0, 1, 0, 0, 0, 0, 0, 0, 0, 1, 1, 0] 
 
 Reachable states from S55 [0, 0, 1, 1, 3, 0, 0, 1, 2, 0, 0, 1, 0, 0, 0, 1, 0, 0, 1, 1, 1, 1, 1, 0] 
 T7 => S56 [0, 0, 1, 1, 3, 0, 0, 1, 2, 1, 0, 1, 0, 0, 0, 0, 0, 0, 1, 1, 1, 1, 0, 0] 
 T10 => S81 [0, 0, 1, 1, 3, 0, 0, 1, 2, 0, 0, 0, 1, 0, 0, 1, 0, 0, 1, 1, 1, 1, 1, 0] 
 T12 => S88 [0, 0, 1, 1, 3, 0, 0, 1, 2, 0, 0, 1, 0, 1, 0, 0, 0, 0, 1, 1, 1, 1, 1, 0] 
 
 Reachable states from S56 [0, 0, 1, 1, 3, 0, 0, 1, 2, 1, 0, 1, 0, 0, 0, 0, 0, 0, 1, 1, 1, 1, 0, 0] 
 T8 => S57 [0, 0, 1, 1, 3, 0, 0, 1, 2, 0, 1, 1, 0, 0, 0, 0, 0, 0, 0, 0, 1, 0, 1, 1] 
 T10 => S80 [0, 0, 1, 1, 3, 0, 0, 1, 2, 1, 0, 0, 1, 0, 0, 0, 0, 0, 1, 1, 1, 1, 0, 0] 
 
 Reachable states from S57 [0, 0, 1, 1, 3, 0, 0, 1, 2, 0, 1, 1, 0, 0, 0, 0, 0, 0, 0, 0, 1, 0, 1, 1] 
 T9 => S58 [0, 0, 1, 1, 3, 0, 0, 1, 2, 0, 0, 2, 0, 0, 0, 0, 0, 0, 1, 1, 1, 1, 1, 1] 
 T10 => S79 [0, 0, 1, 1, 3, 0, 0, 1, 2, 0, 1, 0, 1, 0, 0, 0, 0, 0, 0, 0, 1, 0, 1, 1] 
 
 Reachable states from S58 [0, 0, 1, 1, 3, 0, 0, 1, 2, 0, 0, 2, 0, 0, 0, 0, 0, 0, 1, 1, 1, 1, 1, 1] 
 T1 => S59 [1, 0, 1, 0, 2, 0, 0, 1, 2, 0, 0, 2, 0, 0, 0, 0, 0, 0, 0, 0, 1, 0, 1, 0] 
 T10 => S65 [0, 0, 1, 1, 3, 0, 0, 1, 2, 0, 0, 1, 1, 0, 0, 0, 0, 0, 1, 1, 1, 1, 1, 1] 
 T4 => S76 [0, 0, 1, 1, 3, 1, 0, 1, 1, 0, 0, 2, 0, 0, 0, 0, 0, 0, 1, 1, 1, 0, 0, 0] 
 
 Reachable states from S59 [1, 0, 1, 0, 2, 0, 0, 1, 2, 0, 0, 2, 0, 0, 0, 0, 0, 0, 0, 0, 1, 0, 1, 0] 
 T2 => S60 [0, 1, 0, 1, 2, 0, 0, 1, 2, 0, 0, 2, 0, 0, 0, 0, 0, 0, 1, 1, 0, 1, 0, 1] 
 T10 => S63 [1, 0, 1, 0, 2, 0, 0, 1, 2, 0, 0, 1, 1, 0, 0, 0, 0, 0, 0, 0, 1, 0, 1, 0] 
 
 Reachable states from S60 [0, 1, 0, 1, 2, 0, 0, 1, 2, 0, 0, 2, 0, 0, 0, 0, 0, 0, 1, 1, 0, 1, 0, 1] 
 T3 => S58 [0, 0, 1, 1, 3, 0, 0, 1, 2, 0, 0, 2, 0, 0, 0, 0, 0, 0, 1, 1, 1, 1, 1, 1] 
 T1 => S61 [1, 1, 0, 0, 1, 0, 0, 1, 2, 0, 0, 2, 0, 0, 0, 0, 0, 0, 0, 0, 0, 0, 0, 0] 
 T10 => S64 [0, 1, 0, 1, 2, 0, 0, 1, 2, 0, 0, 1, 1, 0, 0, 0, 0, 0, 1, 1, 0, 1, 0, 1] 
 
 Reachable states from S61 [1, 1, 0, 0, 1, 0, 0, 1, 2, 0, 0, 2, 0, 0, 0, 0, 0, 0, 0, 0, 0, 0, 0, 0] 
 T3 => S59 [1, 0, 1, 0, 2, 0, 0, 1, 2, 0, 0, 2, 0, 0, 0, 0, 0, 0, 0, 0, 1, 0, 1, 0] 
 T10 => S62 [1, 1, 0, 0, 1, 0, 0, 1, 2, 0, 0, 1, 1, 0, 0, 0, 0, 0, 0, 0, 0, 0, 0, 0] 
 
 Reachable states from S62 [1, 1, 0, 0, 1, 0, 0, 1, 2, 0, 0, 1, 1, 0, 0, 0, 0, 0, 0, 0, 0, 0, 0, 0] 
 T11 => S33 [1, 1, 0, 0, 1, 0, 0, 1, 2, 0, 0, 1, 0, 0, 0, 0, 1, 0, 0, 0, 0, 0, 0, 0] 
 T3 => S63 [1, 0, 1, 0, 2, 0, 0, 1, 2, 0, 0, 1, 1, 0, 0, 0, 0, 0, 0, 0, 1, 0, 1, 0] 
 T10 => S75 [1, 1, 0, 0, 1, 0, 0, 1, 2, 0, 0, 0, 2, 0, 0, 0, 0, 0, 0, 0, 0, 0, 0, 0] 
 
 Reachable states from S63 [1, 0, 1, 0, 2, 0, 0, 1, 2, 0, 0, 1, 1, 0, 0, 0, 0, 0, 0, 0, 1, 0, 1, 0] 
 T11 => S31 [1, 0, 1, 0, 2, 0, 0, 1, 2, 0, 0, 1, 0, 0, 0, 0, 1, 0, 0, 0, 1, 0, 1, 0] 
 T2 => S64 [0, 1, 0, 1, 2, 0, 0, 1, 2, 0, 0, 1, 1, 0, 0, 0, 0, 0, 1, 1, 0, 1, 0, 1] 
 T10 => S73 [1, 0, 1, 0, 2, 0, 0, 1, 2, 0, 0, 0, 2, 0, 0, 0, 0, 0, 0, 0, 1, 0, 1, 0] 
 
 Reachable states from S64 [0, 1, 0, 1, 2, 0, 0, 1, 2, 0, 0, 1, 1, 0, 0, 0, 0, 0, 1, 1, 0, 1, 0, 1] 
 T11 => S32 [0, 1, 0, 1, 2, 0, 0, 1, 2, 0, 0, 1, 0, 0, 0, 0, 1, 0, 1, 1, 0, 1, 0, 1] 
 T1 => S62 [1, 1, 0, 0, 1, 0, 0, 1, 2, 0, 0, 1, 1, 0, 0, 0, 0, 0, 0, 0, 0, 0, 0, 0] 
 T3 => S65 [0, 0, 1, 1, 3, 0, 0, 1, 2, 0, 0, 1, 1, 0, 0, 0, 0, 0, 1, 1, 1, 1, 1, 1] 
 T10 => S74 [0, 1, 0, 1, 2, 0, 0, 1, 2, 0, 0, 0, 2, 0, 0, 0, 0, 0, 1, 1, 0, 1, 0, 1] 
 
 Reachable states from S65 [0, 0, 1, 1, 3, 0, 0, 1, 2, 0, 0, 1, 1, 0, 0, 0, 0, 0, 1, 1, 1, 1, 1, 1] 
 T11 => S30 [0, 0, 1, 1, 3, 0, 0, 1, 2, 0, 0, 1, 0, 0, 0, 0, 1, 0, 1, 1, 1, 1, 1, 1] 
 T1 => S63 [1, 0, 1, 0, 2, 0, 0, 1, 2, 0, 0, 1, 1, 0, 0, 0, 0, 0, 0, 0, 1, 0, 1, 0] 
 T4 => S66 [0, 0, 1, 1, 3, 1, 0, 1, 1, 0, 0, 1, 1, 0, 0, 0, 0, 0, 1, 1, 1, 0, 0, 0] 
 T10 => S72 [0, 0, 1, 1, 3, 0, 0, 1, 2, 0, 0, 0, 2, 0, 0, 0, 0, 0, 1, 1, 1, 1, 1, 1] 
 
 Reachable states from S66 [0, 0, 1, 1, 3, 1, 0, 1, 1, 0, 0, 1, 1, 0, 0, 0, 0, 0, 1, 1, 1, 0, 0, 0] 
 T11 => S48 [0, 0, 1, 1, 3, 1, 0, 1, 1, 0, 0, 1, 0, 0, 0, 0, 1, 0, 1, 1, 1, 0, 0, 0] 
 T5 => S67 [0, 0, 1, 1, 3, 0, 1, 0, 1, 0, 0, 1, 1, 0, 0, 0, 0, 0, 0, 0, 0, 1, 1, 1] 
 T10 => S70 [0, 0, 1, 1, 3, 1, 0, 1, 1, 0, 0, 0, 2, 0, 0, 0, 0, 0, 1, 1, 1, 0, 0, 0] 
 
 Reachable states from S67 [0, 0, 1, 1, 3, 0, 1, 0, 1, 0, 0, 1, 1, 0, 0, 0, 0, 0, 0, 0, 0, 1, 1, 1] 
 T11 => S49 [0, 0, 1, 1, 3, 0, 1, 0, 1, 0, 0, 1, 0, 0, 0, 0, 1, 0, 0, 0, 0, 1, 1, 1] 
 T6 => S65 [0, 0, 1, 1, 3, 0, 0, 1, 2, 0, 0, 1, 1, 0, 0, 0, 0, 0, 1, 1, 1, 1, 1, 1] 
 T4 => S68 [0, 0, 1, 1, 3, 1, 1, 0, 0, 0, 0, 1, 1, 0, 0, 0, 0, 0, 0, 0, 0, 0, 0, 0] 
 T10 => S71 [0, 0, 1, 1, 3, 0, 1, 0, 1, 0, 0, 0, 2, 0, 0, 0, 0, 0, 0, 0, 0, 1, 1, 1] 
 
 Reachable states from S68 [0, 0, 1, 1, 3, 1, 1, 0, 0, 0, 0, 1, 1, 0, 0, 0, 0, 0, 0, 0, 0, 0, 0, 0] 
 T11 => S50 [0, 0, 1, 1, 3, 1, 1, 0, 0, 0, 0, 1, 0, 0, 0, 0, 1, 0, 0, 0, 0, 0, 0, 0] 
 T6 => S66 [0, 0, 1, 1, 3, 1, 0, 1, 1, 0, 0, 1, 1, 0, 0, 0, 0, 0, 1, 1, 1, 0, 0, 0] 
 T10 => S69 [0, 0, 1, 1, 3, 1, 1, 0, 0, 0, 0, 0, 2, 0, 0, 0, 0, 0, 0, 0, 0, 0, 0, 0] 
 
 Reachable states from S69 [0, 0, 1, 1, 3, 1, 1, 0, 0, 0, 0, 0, 2, 0, 0, 0, 0, 0, 0, 0, 0, 0, 0, 0] 
 T11 => S40 [0, 0, 1, 1, 3, 1, 1, 0, 0, 0, 0, 0, 1, 0, 0, 0, 1, 0, 0, 0, 0, 0, 0, 0] 
 T6 => S70 [0, 0, 1, 1, 3, 1, 0, 1, 1, 0, 0, 0, 2, 0, 0, 0, 0, 0, 1, 1, 1, 0, 0, 0] 
 
 Reachable states from S70 [0, 0, 1, 1, 3, 1, 0, 1, 1, 0, 0, 0, 2, 0, 0, 0, 0, 0, 1, 1, 1, 0, 0, 0] 
 T11 => S38 [0, 0, 1, 1, 3, 1, 0, 1, 1, 0, 0, 0, 1, 0, 0, 0, 1, 0, 1, 1, 1, 0, 0, 0] 
 T5 => S71 [0, 0, 1, 1, 3, 0, 1, 0, 1, 0, 0, 0, 2, 0, 0, 0, 0, 0, 0, 0, 0, 1, 1, 1] 
 
 Reachable states from S71 [0, 0, 1, 1, 3, 0, 1, 0, 1, 0, 0, 0, 2, 0, 0, 0, 0, 0, 0, 0, 0, 1, 1, 1] 
 T11 => S39 [0, 0, 1, 1, 3, 0, 1, 0, 1, 0, 0, 0, 1, 0, 0, 0, 1, 0, 0, 0, 0, 1, 1, 1] 
 T4 => S69 [0, 0, 1, 1, 3, 1, 1, 0, 0, 0, 0, 0, 2, 0, 0, 0, 0, 0, 0, 0, 0, 0, 0, 0] 
 T6 => S72 [0, 0, 1, 1, 3, 0, 0, 1, 2, 0, 0, 0, 2, 0, 0, 0, 0, 0, 1, 1, 1, 1, 1, 1] 
 
 Reachable states from S72 [0, 0, 1, 1, 3, 0, 0, 1, 2, 0, 0, 0, 2, 0, 0, 0, 0, 0, 1, 1, 1, 1, 1, 1] 
 T11 => S37 [0, 0, 1, 1, 3, 0, 0, 1, 2, 0, 0, 0, 1, 0, 0, 0, 1, 0, 1, 1, 1, 1, 1, 1] 
 T4 => S70 [0, 0, 1, 1, 3, 1, 0, 1, 1, 0, 0, 0, 2, 0, 0, 0, 0, 0, 1, 1, 1, 0, 0, 0] 
 T1 => S73 [1, 0, 1, 0, 2, 0, 0, 1, 2, 0, 0, 0, 2, 0, 0, 0, 0, 0, 0, 0, 1, 0, 1, 0] 
 
 Reachable states from S73 [1, 0, 1, 0, 2, 0, 0, 1, 2, 0, 0, 0, 2, 0, 0, 0, 0, 0, 0, 0, 1, 0, 1, 0] 
 T11 => S35 [1, 0, 1, 0, 2, 0, 0, 1, 2, 0, 0, 0, 1, 0, 0, 0, 1, 0, 0, 0, 1, 0, 1, 0] 
 T2 => S74 [0, 1, 0, 1, 2, 0, 0, 1, 2, 0, 0, 0, 2, 0, 0, 0, 0, 0, 1, 1, 0, 1, 0, 1] 
 
 Reachable states from S74 [0, 1, 0, 1, 2, 0, 0, 1, 2, 0, 0, 0, 2, 0, 0, 0, 0, 0, 1, 1, 0, 1, 0, 1] 
 T11 => S36 [0, 1, 0, 1, 2, 0, 0, 1, 2, 0, 0, 0, 1, 0, 0, 0, 1, 0, 1, 1, 0, 1, 0, 1] 
 T3 => S72 [0, 0, 1, 1, 3, 0, 0, 1, 2, 0, 0, 0, 2, 0, 0, 0, 0, 0, 1, 1, 1, 1, 1, 1] 
 T1 => S75 [1, 1, 0, 0, 1, 0, 0, 1, 2, 0, 0, 0, 2, 0, 0, 0, 0, 0, 0, 0, 0, 0, 0, 0] 
 
 Reachable states from S75 [1, 1, 0, 0, 1, 0, 0, 1, 2, 0, 0, 0, 2, 0, 0, 0, 0, 0, 0, 0, 0, 0, 0, 0] 
 T11 => S34 [1, 1, 0, 0, 1, 0, 0, 1, 2, 0, 0, 0, 1, 0, 0, 0, 1, 0, 0, 0, 0, 0, 0, 0] 
 T3 => S73 [1, 0, 1, 0, 2, 0, 0, 1, 2, 0, 0, 0, 2, 0, 0, 0, 0, 0, 0, 0, 1, 0, 1, 0] 
 
 Reachable states from S76 [0, 0, 1, 1, 3, 1, 0, 1, 1, 0, 0, 2, 0, 0, 0, 0, 0, 0, 1, 1, 1, 0, 0, 0] 
 T10 => S66 [0, 0, 1, 1, 3, 1, 0, 1, 1, 0, 0, 1, 1, 0, 0, 0, 0, 0, 1, 1, 1, 0, 0, 0] 
 T5 => S77 [0, 0, 1, 1, 3, 0, 1, 0, 1, 0, 0, 2, 0, 0, 0, 0, 0, 0, 0, 0, 0, 1, 1, 1] 
 
 Reachable states from S77 [0, 0, 1, 1, 3, 0, 1, 0, 1, 0, 0, 2, 0, 0, 0, 0, 0, 0, 0, 0, 0, 1, 1, 1] 
 T6 => S58 [0, 0, 1, 1, 3, 0, 0, 1, 2, 0, 0, 2, 0, 0, 0, 0, 0, 0, 1, 1, 1, 1, 1, 1] 
 T10 => S67 [0, 0, 1, 1, 3, 0, 1, 0, 1, 0, 0, 1, 1, 0, 0, 0, 0, 0, 0, 0, 0, 1, 1, 1] 
 T4 => S78 [0, 0, 1, 1, 3, 1, 1, 0, 0, 0, 0, 2, 0, 0, 0, 0, 0, 0, 0, 0, 0, 0, 0, 0] 
 
 Reachable states from S78 [0, 0, 1, 1, 3, 1, 1, 0, 0, 0, 0, 2, 0, 0, 0, 0, 0, 0, 0, 0, 0, 0, 0, 0] 
 T10 => S68 [0, 0, 1, 1, 3, 1, 1, 0, 0, 0, 0, 1, 1, 0, 0, 0, 0, 0, 0, 0, 0, 0, 0, 0] 
 T6 => S76 [0, 0, 1, 1, 3, 1, 0, 1, 1, 0, 0, 2, 0, 0, 0, 0, 0, 0, 1, 1, 1, 0, 0, 0] 
 
 Reachable states from S79 [0, 0, 1, 1, 3, 0, 0, 1, 2, 0, 1, 0, 1, 0, 0, 0, 0, 0, 0, 0, 1, 0, 1, 1] 
 T11 => S29 [0, 0, 1, 1, 3, 0, 0, 1, 2, 0, 1, 0, 0, 0, 0, 0, 1, 0, 0, 0, 1, 0, 1, 1] 
 T9 => S65 [0, 0, 1, 1, 3, 0, 0, 1, 2, 0, 0, 1, 1, 0, 0, 0, 0, 0, 1, 1, 1, 1, 1, 1] 
 
 Reachable states from S80 [0, 0, 1, 1, 3, 0, 0, 1, 2, 1, 0, 0, 1, 0, 0, 0, 0, 0, 1, 1, 1, 1, 0, 0] 
 T11 => S28 [0, 0, 1, 1, 3, 0, 0, 1, 2, 1, 0, 0, 0, 0, 0, 0, 1, 0, 1, 1, 1, 1, 0, 0] 
 T8 => S79 [0, 0, 1, 1, 3, 0, 0, 1, 2, 0, 1, 0, 1, 0, 0, 0, 0, 0, 0, 0, 1, 0, 1, 1] 
 
 Reachable states from S81 [0, 0, 1, 1, 3, 0, 0, 1, 2, 0, 0, 0, 1, 0, 0, 1, 0, 0, 1, 1, 1, 1, 1, 0] 
 T11 => S27 [0, 0, 1, 1, 3, 0, 0, 1, 2, 0, 0, 0, 0, 0, 0, 1, 1, 0, 1, 1, 1, 1, 1, 0] 
 T7 => S80 [0, 0, 1, 1, 3, 0, 0, 1, 2, 1, 0, 0, 1, 0, 0, 0, 0, 0, 1, 1, 1, 1, 0, 0] 
 T12 => S82 [0, 0, 1, 1, 3, 0, 0, 1, 2, 0, 0, 0, 1, 1, 0, 0, 0, 0, 1, 1, 1, 1, 1, 0] 
 
 Reachable states from S82 [0, 0, 1, 1, 3, 0, 0, 1, 2, 0, 0, 0, 1, 1, 0, 0, 0, 0, 1, 1, 1, 1, 1, 0] 
 T11 => S83 [0, 0, 1, 1, 3, 0, 0, 1, 2, 0, 0, 0, 0, 1, 0, 0, 1, 0, 1, 1, 1, 1, 1, 0] 
 T13 => S87 [0, 0, 1, 1, 3, 0, 0, 1, 2, 0, 0, 0, 1, 0, 1, 0, 0, 0, 1, 0, 1, 0, 0, 0] 
 
 Reachable states from S83 [0, 0, 1, 1, 3, 0, 0, 1, 2, 0, 0, 0, 0, 1, 0, 0, 1, 0, 1, 1, 1, 1, 1, 0] 
 T13 => S84 [0, 0, 1, 1, 3, 0, 0, 1, 2, 0, 0, 0, 0, 0, 1, 0, 1, 0, 1, 0, 1, 0, 0, 0] 
 T16 => S86 [0, 0, 1, 1, 3, 0, 0, 1, 2, 0, 0, 0, 0, 1, 0, 0, 0, 1, 1, 1, 1, 1, 1, 0] 
 
 Reachable states from S84 [0, 0, 1, 1, 3, 0, 0, 1, 2, 0, 0, 0, 0, 0, 1, 0, 1, 0, 1, 0, 1, 0, 0, 0] 
 T14 => S44 [0, 0, 1, 1, 3, 0, 0, 1, 2, 0, 0, 0, 0, 0, 0, 0, 2, 0, 1, 1, 1, 1, 1, 1] 
 T16 => S85 [0, 0, 1, 1, 3, 0, 0, 1, 2, 0, 0, 0, 0, 0, 1, 0, 0, 1, 1, 0, 1, 0, 0, 0] 
 
 Reachable states from S85 [0, 0, 1, 1, 3, 0, 0, 1, 2, 0, 0, 0, 0, 0, 1, 0, 0, 1, 1, 0, 1, 0, 0, 0] 
 T14 => S22 [0, 0, 1, 1, 3, 0, 0, 1, 2, 0, 0, 0, 0, 0, 0, 0, 1, 1, 1, 1, 1, 1, 1, 1] 
 
 Reachable states from S86 [0, 0, 1, 1, 3, 0, 0, 1, 2, 0, 0, 0, 0, 1, 0, 0, 0, 1, 1, 1, 1, 1, 1, 0] 
 T13 => S85 [0, 0, 1, 1, 3, 0, 0, 1, 2, 0, 0, 0, 0, 0, 1, 0, 0, 1, 1, 0, 1, 0, 0, 0] 
 
 Reachable states from S87 [0, 0, 1, 1, 3, 0, 0, 1, 2, 0, 0, 0, 1, 0, 1, 0, 0, 0, 1, 0, 1, 0, 0, 0] 
 T14 => S37 [0, 0, 1, 1, 3, 0, 0, 1, 2, 0, 0, 0, 1, 0, 0, 0, 1, 0, 1, 1, 1, 1, 1, 1] 
 T11 => S84 [0, 0, 1, 1, 3, 0, 0, 1, 2, 0, 0, 0, 0, 0, 1, 0, 1, 0, 1, 0, 1, 0, 0, 0] 
 
 Reachable states from S88 [0, 0, 1, 1, 3, 0, 0, 1, 2, 0, 0, 1, 0, 1, 0, 0, 0, 0, 1, 1, 1, 1, 1, 0] 
 T10 => S82 [0, 0, 1, 1, 3, 0, 0, 1, 2, 0, 0, 0, 1, 1, 0, 0, 0, 0, 1, 1, 1, 1, 1, 0] 
 T13 => S89 [0, 0, 1, 1, 3, 0, 0, 1, 2, 0, 0, 1, 0, 0, 1, 0, 0, 0, 1, 0, 1, 0, 0, 0] 
 
 Reachable states from S89 [0, 0, 1, 1, 3, 0, 0, 1, 2, 0, 0, 1, 0, 0, 1, 0, 0, 0, 1, 0, 1, 0, 0, 0] 
 T14 => S30 [0, 0, 1, 1, 3, 0, 0, 1, 2, 0, 0, 1, 0, 0, 0, 0, 1, 0, 1, 1, 1, 1, 1, 1] 
 T10 => S87 [0, 0, 1, 1, 3, 0, 0, 1, 2, 0, 0, 0, 1, 0, 1, 0, 0, 0, 1, 0, 1, 0, 0, 0] 
 
 Reachable states from S90 [0, 0, 1, 1, 3, 0, 1, 0, 1, 1, 0, 1, 0, 0, 0, 0, 0, 0, 0, 0, 0, 1, 0, 0] 
 T6 => S56 [0, 0, 1, 1, 3, 0, 0, 1, 2, 1, 0, 1, 0, 0, 0, 0, 0, 0, 1, 1, 1, 1, 0, 0] 
 T10 => S91 [0, 0, 1, 1, 3, 0, 1, 0, 1, 1, 0, 0, 1, 0, 0, 0, 0, 0, 0, 0, 0, 1, 0, 0] 
 
 Reachable states from S91 [0, 0, 1, 1, 3, 0, 1, 0, 1, 1, 0, 0, 1, 0, 0, 0, 0, 0, 0, 0, 0, 1, 0, 0] 
 T6 => S80 [0, 0, 1, 1, 3, 0, 0, 1, 2, 1, 0, 0, 1, 0, 0, 0, 0, 0, 1, 1, 1, 1, 0, 0] 
 T11 => S92 [0, 0, 1, 1, 3, 0, 1, 0, 1, 1, 0, 0, 0, 0, 0, 0, 1, 0, 0, 0, 0, 1, 0, 0] 
 
 Reachable states from S92 [0, 0, 1, 1, 3, 0, 1, 0, 1, 1, 0, 0, 0, 0, 0, 0, 1, 0, 0, 0, 0, 1, 0, 0] 
 T6 => S28 [0, 0, 1, 1, 3, 0, 0, 1, 2, 1, 0, 0, 0, 0, 0, 0, 1, 0, 1, 1, 1, 1, 0, 0] 
 T16 => S93 [0, 0, 1, 1, 3, 0, 1, 0, 1, 1, 0, 0, 0, 0, 0, 0, 0, 1, 0, 0, 0, 1, 0, 0] 
 
 Reachable states from S93 [0, 0, 1, 1, 3, 0, 1, 0, 1, 1, 0, 0, 0, 0, 0, 0, 0, 1, 0, 0, 0, 1, 0, 0] 
 T6 => S6 [0, 0, 1, 1, 3, 0, 0, 1, 2, 1, 0, 0, 0, 0, 0, 0, 0, 1, 1, 1, 1, 1, 0, 0] 
 
 Reachable states from S94 [0, 0, 1, 1, 3, 0, 1, 0, 1, 0, 0, 0, 1, 0, 0, 1, 0, 0, 0, 0, 0, 1, 1, 0] 
 T6 => S81 [0, 0, 1, 1, 3, 0, 0, 1, 2, 0, 0, 0, 1, 0, 0, 1, 0, 0, 1, 1, 1, 1, 1, 0] 
 T7 => S91 [0, 0, 1, 1, 3, 0, 1, 0, 1, 1, 0, 0, 1, 0, 0, 0, 0, 0, 0, 0, 0, 1, 0, 0] 
 T11 => S95 [0, 0, 1, 1, 3, 0, 1, 0, 1, 0, 0, 0, 0, 0, 0, 1, 1, 0, 0, 0, 0, 1, 1, 0] 
 T12 => S99 [0, 0, 1, 1, 3, 0, 1, 0, 1, 0, 0, 0, 1, 1, 0, 0, 0, 0, 0, 0, 0, 1, 1, 0] 
 
 Reachable states from S95 [0, 0, 1, 1, 3, 0, 1, 0, 1, 0, 0, 0, 0, 0, 0, 1, 1, 0, 0, 0, 0, 1, 1, 0] 
 T6 => S27 [0, 0, 1, 1, 3, 0, 0, 1, 2, 0, 0, 0, 0, 0, 0, 1, 1, 0, 1, 1, 1, 1, 1, 0] 
 T7 => S92 [0, 0, 1, 1, 3, 0, 1, 0, 1, 1, 0, 0, 0, 0, 0, 0, 1, 0, 0, 0, 0, 1, 0, 0] 
 T12 => S96 [0, 0, 1, 1, 3, 0, 1, 0, 1, 0, 0, 0, 0, 1, 0, 0, 1, 0, 0, 0, 0, 1, 1, 0] 
 T16 => S98 [0, 0, 1, 1, 3, 0, 1, 0, 1, 0, 0, 0, 0, 0, 0, 1, 0, 1, 0, 0, 0, 1, 1, 0] 
 
 Reachable states from S96 [0, 0, 1, 1, 3, 0, 1, 0, 1, 0, 0, 0, 0, 1, 0, 0, 1, 0, 0, 0, 0, 1, 1, 0] 
 T6 => S83 [0, 0, 1, 1, 3, 0, 0, 1, 2, 0, 0, 0, 0, 1, 0, 0, 1, 0, 1, 1, 1, 1, 1, 0] 
 T16 => S97 [0, 0, 1, 1, 3, 0, 1, 0, 1, 0, 0, 0, 0, 1, 0, 0, 0, 1, 0, 0, 0, 1, 1, 0] 
 
 Reachable states from S97 [0, 0, 1, 1, 3, 0, 1, 0, 1, 0, 0, 0, 0, 1, 0, 0, 0, 1, 0, 0, 0, 1, 1, 0] 
 T6 => S86 [0, 0, 1, 1, 3, 0, 0, 1, 2, 0, 0, 0, 0, 1, 0, 0, 0, 1, 1, 1, 1, 1, 1, 0] 
 
 Reachable states from S98 [0, 0, 1, 1, 3, 0, 1, 0, 1, 0, 0, 0, 0, 0, 0, 1, 0, 1, 0, 0, 0, 1, 1, 0] 
 T6 => S5 [0, 0, 1, 1, 3, 0, 0, 1, 2, 0, 0, 0, 0, 0, 0, 1, 0, 1, 1, 1, 1, 1, 1, 0] 
 T7 => S93 [0, 0, 1, 1, 3, 0, 1, 0, 1, 1, 0, 0, 0, 0, 0, 0, 0, 1, 0, 0, 0, 1, 0, 0] 
 T12 => S97 [0, 0, 1, 1, 3, 0, 1, 0, 1, 0, 0, 0, 0, 1, 0, 0, 0, 1, 0, 0, 0, 1, 1, 0] 
 
 Reachable states from S99 [0, 0, 1, 1, 3, 0, 1, 0, 1, 0, 0, 0, 1, 1, 0, 0, 0, 0, 0, 0, 0, 1, 1, 0] 
 T6 => S82 [0, 0, 1, 1, 3, 0, 0, 1, 2, 0, 0, 0, 1, 1, 0, 0, 0, 0, 1, 1, 1, 1, 1, 0] 
 T11 => S96 [0, 0, 1, 1, 3, 0, 1, 0, 1, 0, 0, 0, 0, 1, 0, 0, 1, 0, 0, 0, 0, 1, 1, 0] 
 
 Reachable states from S100 [0, 0, 1, 1, 3, 0, 1, 0, 1, 0, 0, 1, 0, 1, 0, 0, 0, 0, 0, 0, 0, 1, 1, 0] 
 T6 => S88 [0, 0, 1, 1, 3, 0, 0, 1, 2, 0, 0, 1, 0, 1, 0, 0, 0, 0, 1, 1, 1, 1, 1, 0] 
 T10 => S99 [0, 0, 1, 1, 3, 0, 1, 0, 1, 0, 0, 0, 1, 1, 0, 0, 0, 0, 0, 0, 0, 1, 1, 0] 
 
 Reachable states from S101 [0, 1, 0, 1, 2, 0, 0, 1, 2, 0, 0, 0, 0, 1, 0, 0, 1, 0, 1, 1, 0, 1, 0, 0] 
 T3 => S83 [0, 0, 1, 1, 3, 0, 0, 1, 2, 0, 0, 0, 0, 1, 0, 0, 1, 0, 1, 1, 1, 1, 1, 0] 
 T16 => S102 [0, 1, 0, 1, 2, 0, 0, 1, 2, 0, 0, 0, 0, 1, 0, 0, 0, 1, 1, 1, 0, 1, 0, 0] 
 
 Reachable states from S102 [0, 1, 0, 1, 2, 0, 0, 1, 2, 0, 0, 0, 0, 1, 0, 0, 0, 1, 1, 1, 0, 1, 0, 0] 
 T3 => S86 [0, 0, 1, 1, 3, 0, 0, 1, 2, 0, 0, 0, 0, 1, 0, 0, 0, 1, 1, 1, 1, 1, 1, 0] 
 
 Reachable states from S103 [0, 0, 1, 1, 3, 0, 1, 0, 1, 0, 0, 0, 0, 0, 0, 0, 0, 2, 0, 0, 0, 1, 1, 1] 
 T6 => S0 [0, 0, 1, 1, 3, 0, 0, 1, 2, 0, 0, 0, 0, 0, 0, 0, 0, 2, 1, 1, 1, 1, 1, 1] 
 T15 => S98 [0, 0, 1, 1, 3, 0, 1, 0, 1, 0, 0, 0, 0, 0, 0, 1, 0, 1, 0, 0, 0, 1, 1, 0] 
 T4 => S104 [0, 0, 1, 1, 3, 1, 1, 0, 0, 0, 0, 0, 0, 0, 0, 0, 0, 2, 0, 0, 0, 0, 0, 0] 
 
 Reachable states from S104 [0, 0, 1, 1, 3, 1, 1, 0, 0, 0, 0, 0, 0, 0, 0, 0, 0, 2, 0, 0, 0, 0, 0, 0] 
 T6 => S105 [0, 0, 1, 1, 3, 1, 0, 1, 1, 0, 0, 0, 0, 0, 0, 0, 0, 2, 1, 1, 1, 0, 0, 0] 
 
 Reachable states from S105 [0, 0, 1, 1, 3, 1, 0, 1, 1, 0, 0, 0, 0, 0, 0, 0, 0, 2, 1, 1, 1, 0, 0, 0] 
 T5 => S103 [0, 0, 1, 1, 3, 0, 1, 0, 1, 0, 0, 0, 0, 0, 0, 0, 0, 2, 0, 0, 0, 1, 1, 1] 
 
 Reachable states from S106 [0, 1, 0, 1, 2, 0, 0, 1, 2, 0, 0, 0, 1, 0, 0, 1, 0, 0, 1, 1, 0, 1, 0, 0] 
 T11 => S26 [0, 1, 0, 1, 2, 0, 0, 1, 2, 0, 0, 0, 0, 0, 0, 1, 1, 0, 1, 1, 0, 1, 0, 0] 
 T3 => S81 [0, 0, 1, 1, 3, 0, 0, 1, 2, 0, 0, 0, 1, 0, 0, 1, 0, 0, 1, 1, 1, 1, 1, 0] 
 T12 => S107 [0, 1, 0, 1, 2, 0, 0, 1, 2, 0, 0, 0, 1, 1, 0, 0, 0, 0, 1, 1, 0, 1, 0, 0] 
 
 Reachable states from S107 [0, 1, 0, 1, 2, 0, 0, 1, 2, 0, 0, 0, 1, 1, 0, 0, 0, 0, 1, 1, 0, 1, 0, 0] 
 T3 => S82 [0, 0, 1, 1, 3, 0, 0, 1, 2, 0, 0, 0, 1, 1, 0, 0, 0, 0, 1, 1, 1, 1, 1, 0] 
 T11 => S101 [0, 1, 0, 1, 2, 0, 0, 1, 2, 0, 0, 0, 0, 1, 0, 0, 1, 0, 1, 1, 0, 1, 0, 0] 
 
 Reachable states from S108 [0, 1, 0, 1, 2, 0, 0, 1, 2, 0, 0, 1, 0, 0, 0, 1, 0, 0, 1, 1, 0, 1, 0, 0] 
 T3 => S55 [0, 0, 1, 1, 3, 0, 0, 1, 2, 0, 0, 1, 0, 0, 0, 1, 0, 0, 1, 1, 1, 1, 1, 0] 
 T10 => S106 [0, 1, 0, 1, 2, 0, 0, 1, 2, 0, 0, 0, 1, 0, 0, 1, 0, 0, 1, 1, 0, 1, 0, 0] 
 T12 => S109 [0, 1, 0, 1, 2, 0, 0, 1, 2, 0, 0, 1, 0, 1, 0, 0, 0, 0, 1, 1, 0, 1, 0, 0] 
 
 Reachable states from S109 [0, 1, 0, 1, 2, 0, 0, 1, 2, 0, 0, 1, 0, 1, 0, 0, 0, 0, 1, 1, 0, 1, 0, 0] 
 T3 => S88 [0, 0, 1, 1, 3, 0, 0, 1, 2, 0, 0, 1, 0, 1, 0, 0, 0, 0, 1, 1, 1, 1, 1, 0] 
 T10 => S107 [0, 1, 0, 1, 2, 0, 0, 1, 2, 0, 0, 0, 1, 1, 0, 0, 0, 0, 1, 1, 0, 1, 0, 0] 
 
 Reachable states from S110 [0, 0, 1, 1, 3, 0, 0, 1, 2, 0, 1, 0, 0, 0, 0, 1, 0, 0, 0, 0, 1, 0, 1, 0] 
 T9 => S55 [0, 0, 1, 1, 3, 0, 0, 1, 2, 0, 0, 1, 0, 0, 0, 1, 0, 0, 1, 1, 1, 1, 1, 0] 
 T7 => S111 [0, 0, 1, 1, 3, 0, 0, 1, 2, 1, 1, 0, 0, 0, 0, 0, 0, 0, 0, 0, 1, 0, 0, 0] 
 T12 => S112 [0, 0, 1, 1, 3, 0, 0, 1, 2, 0, 1, 0, 0, 1, 0, 0, 0, 0, 0, 0, 1, 0, 1, 0] 
 
 Reachable states from S111 [0, 0, 1, 1, 3, 0, 0, 1, 2, 1, 1, 0, 0, 0, 0, 0, 0, 0, 0, 0, 1, 0, 0, 0] 
 T9 => S56 [0, 0, 1, 1, 3, 0, 0, 1, 2, 1, 0, 1, 0, 0, 0, 0, 0, 0, 1, 1, 1, 1, 0, 0] 
 
 Reachable states from S112 [0, 0, 1, 1, 3, 0, 0, 1, 2, 0, 1, 0, 0, 1, 0, 0, 0, 0, 0, 0, 1, 0, 1, 0] 
 T9 => S88 [0, 0, 1, 1, 3, 0, 0, 1, 2, 0, 0, 1, 0, 1, 0, 0, 0, 0, 1, 1, 1, 1, 1, 0] 
