19/07/2021 23:53:14[DEBUG] pflow_file:  ../analysis/analisis_11_19072021/gen_nets/20210719-224351_44/net.pflow  
19/07/2021 23:53:14[DEBUG] output_folder:  ../analysis/analisis_11_19072021/gen_nets/20210719-224351_44/  
19/07/2021 23:53:14[DEBUG] html_path:  ../analysis/analisis_11_19072021/gen_nets/20210719-224351_44/  
19/07/2021 23:53:14[DEBUG] txt_path:  ../analysis/analisis_11_19072021/gen_nets/20210719-224351_44/txt_info  

--------------------------------------------------------------------------   
19/07/2021 23:53:14[INFO] Ejecutando petrinator para conocer estado de la red...   
--------------------------------------------------------------------------
   
19/07/2021 23:53:19[ERROR] La red ingresada no tiene deadlock, cerrando analisis 
  
