 Minimal siphons 
3 6 12 17 19 20
2 6 10 17
1 6 16
6 8
5 7
5 6 9 10 11 12 13 14 15
1 5 12 20
27 2 5 10
1 25 2 5 10 11
27 2 6 10 16
27 3 5 12 19 20
3 5 11 19
1 2 3 4
3 6 11 18 19
3 6 10 18
3 6 11 17 19
27 3 6 11 16 19
27 3 6 12 18 19 20
1 3 6 12 18 19 20
27 3 6 12 16 19 20
3 6 11 12 17 19
 Minimal traps 
1 5 10 17 19 20
2 5 10 17 19
3 5 10 18 19
5 7
6 8
5 6 9 10 11 12 13 14 15
3 6 10 18
3 5 11 19
2 6 10 17
27 2 5 10
1 6 16
1 2 3 4
1 5 12 20
1 25 5 10 18 20
1 27 5 10 19 20
1 27 5 10 16
1 25 5 10 11 20
1 27 25 5 10 20
1 25 5 10 11 16
1 25 2 5 10 11
1 25 5 10 16 18
1 25 2 5 10 18
1 25 5 10 17 20
1 25 5 10 16 17
1 25 2 5 10 17
1 25 5 9 10 12 13 14 15 16 17
1 25 2 5 9 10 12 13 14 15 17
1 5 10 16 17 19
 Analysis time: 0.212s