19/06/2021 18:07:57[DEBUG] pflow_file:  ../Prueba/gen_nets/20210619-175223_34/net.pflow  
19/06/2021 18:07:57[DEBUG] output_folder:  ../Prueba/gen_nets/20210619-175223_34/  
19/06/2021 18:07:57[DEBUG] html_path:  ../Prueba/gen_nets/20210619-175223_34/  
19/06/2021 18:07:57[DEBUG] txt_path:  ../Prueba/gen_nets/20210619-175223_34/txt_info  

--------------------------------------------------------------------------   
19/06/2021 18:07:57[INFO] Ejecutando petrinator para conocer estado de la red...   
--------------------------------------------------------------------------
   
19/06/2021 18:08:05[INFO] Leyendo archivos...   
19/06/2021 18:08:06[INFO] Cantidad de estados 1309  
19/06/2021 18:08:06[INFO] Cantidad de transiciones 21  
19/06/2021 18:08:06[INFO] Cantidad de plazas 31  
19/06/2021 18:08:06[INFO] Cantidad de sifones 27  
19/06/2021 18:08:06[INFO] Cantidad de trampas 42  

--------------------------------------------------------------------------
   
19/06/2021 18:08:06[INFO] Cantidad de entrenamientos a realizar:  1  
19/06/2021 18:08:06[INFO] Entrenamiento numero : 0 
 
19/06/2021 18:08:06[INFO] Q-TABLE   
+-----------------------------------------------------+--------------------+------------------------+
|                   Estados/Acciones                  | Agregar supervisor | Agregar o quitar arcos |
+-----------------------------------------------------+--------------------+------------------------+
|                        Start                        |        0.0         |          0.0           |
|        Más sifónes vacíos en estado deadlock        |        0.0         |          0.0           |
|       Menos sifónes vacíos en estado deadlock       |        0.0         |          0.0           |
| Igual cantidad de sifónes vacíos en estado deadlock |        0.0         |          0.0           |
|                         End                         |        0.0         |          0.0           |
+-----------------------------------------------------+--------------------+------------------------+

--------------------------------------------------------------------------   
19/06/2021 18:08:06[INFO] Ejecutando petrinator para conocer estado de la red...   
--------------------------------------------------------------------------
   
19/06/2021 18:08:13[INFO] Importando datos desde html...   
19/06/2021 18:08:14[INFO] Analizando cantidad de supervisores que se pueden agregar...   
19/06/2021 18:08:14[ERROR] marcado: 1 t_in: 3   
19/06/2021 18:08:14[ERROR] marcado: 1 t_in: 3   
19/06/2021 18:08:14[ERROR] marcado: 2 t_in: 4   
19/06/2021 18:08:14[ERROR] marcado: 3 t_in: 5   
19/06/2021 18:08:14[ERROR] marcado: 3 t_in: 4   
19/06/2021 18:08:14[ERROR] marcado: 2 t_in: 4   
19/06/2021 18:08:14[ERROR] marcado: 2 t_in: 4   
19/06/2021 18:08:14[ERROR] marcado: 1 t_in: 4   
19/06/2021 18:08:14[ERROR] marcado: 2 t_in: 3   
19/06/2021 18:08:14[ERROR] marcado: 2 t_in: 3   
19/06/2021 18:08:14[INFO] Cantidad de transiciones: 21  
19/06/2021 18:08:14[INFO] Estados de deadlock : [156, 173, 182, 186, 286, 357, 442, 443, 447, 659, 708]  
19/06/2021 18:08:14[INFO] Cantidad de sifones: 27  
19/06/2021 18:08:14[INFO] Cantidad de sifones vacios en estado de deadlock: 10 
 
19/06/2021 18:08:14[INFO] SIFONES   
+----+-----+---------------------------------------------------------+
| ID | Nro |                          Plazas                         |
+----+-----+---------------------------------------------------------+
| 0  |  19 |     ['P2', 'P8', 'P11', 'P17', 'P22', 'P28', 'P30']     |
| 1  |  20 |     ['P2', 'P9', 'P11', 'P17', 'P22', 'P27', 'P28']     |
| 2  |  21 |     ['P2', 'P11', 'P13', 'P17', 'P22', 'P27', 'P28']    |
| 3  |  26 | ['P3', 'P11', 'P13', 'P18', 'P22', 'P27', 'P28', 'P29'] |
| 4  |  3  | ['P2', 'P11', 'P13', 'P18', 'P22', 'P27', 'P28', 'P31'] |
| 5  |  14 |  ['P2', 'P9', 'P11', 'P18', 'P22', 'P27', 'P28', 'P31'] |
| 6  |  15 |  ['P2', 'P8', 'P11', 'P18', 'P22', 'P28', 'P30', 'P31'] |
| 7  |  16 |        ['P2', 'P11', 'P18', 'P21', 'P28', 'P31']        |
| 8  |  24 |     ['P3', 'P11', 'P13', 'P18', 'P21', 'P28', 'P29']    |
| 9  |  25 |     ['P3', 'P11', 'P13', 'P18', 'P20', 'P29', 'P31']    |
+----+-----+---------------------------------------------------------+
19/06/2021 18:08:14[INFO] T INVARIANTES   
+----+----+----+----+----+----+----+----+----+----+-----+-----+-----+-----+-----+-----+-----+-----+-----+-----+-----+
| T0 | T1 | T2 | T3 | T4 | T5 | T6 | T7 | T8 | T9 | T10 | T11 | T12 | T13 | T14 | T15 | T16 | T17 | T18 | T19 | T20 |
+----+----+----+----+----+----+----+----+----+----+-----+-----+-----+-----+-----+-----+-----+-----+-----+-----+-----+
| 1  | 1  | 1  | 1  | 1  | 0  | 0  | 0  | 0  | 0  |  0  |  0  |  0  |  0  |  0  |  0  |  0  |  0  |  0  |  0  |  0  |
| 0  | 0  | 0  | 0  | 0  | 1  | 1  | 1  | 1  | 1  |  0  |  0  |  0  |  0  |  0  |  0  |  0  |  0  |  0  |  0  |  0  |
| 0  | 0  | 0  | 0  | 0  | 0  | 0  | 0  | 0  | 0  |  1  |  1  |  1  |  1  |  0  |  0  |  0  |  0  |  0  |  1  |  1  |
| 0  | 0  | 0  | 0  | 0  | 0  | 0  | 0  | 0  | 0  |  0  |  0  |  0  |  0  |  1  |  1  |  1  |  1  |  1  |  1  |  1  |
+----+----+----+----+----+----+----+----+----+----+-----+-----+-----+-----+-----+-----+-----+-----+-----+-----+-----+
19/06/2021 18:08:14[INFO] POSIBLES SUPERVISORES A AGREGAR   
+-----+---------+----------------------------------+---------------------+
|  ID | Marcado |           T - Entrada            |      T - Salida     |
+-----+---------+----------------------------------+---------------------+
| P32 |    1    |       ['T2', 'T13', 'T18']       | ['T1', 'T6', 'T20'] |
| P32 |    1    |       ['T2', 'T13', 'T18']       | ['T1', 'T6', 'T20'] |
| P32 |    2    |    ['T2', 'T9', 'T13', 'T18']    | ['T1', 'T6', 'T20'] |
| P32 |    3    | ['T3', 'T8', 'T9', 'T13', 'T18'] | ['T1', 'T6', 'T20'] |
| P32 |    3    |   ['T3', 'T10', 'T13', 'T18']    | ['T1', 'T6', 'T20'] |
| P32 |    2    |   ['T3', 'T10', 'T13', 'T18']    | ['T1', 'T6', 'T20'] |
| P32 |    2    |   ['T3', 'T10', 'T13', 'T18']    | ['T1', 'T6', 'T20'] |
| P32 |    1    |   ['T3', 'T10', 'T13', 'T17']    | ['T1', 'T6', 'T20'] |
| P32 |    2    |       ['T3', 'T9', 'T13']        | ['T1', 'T6', 'T20'] |
| P32 |    2    |       ['T3', 'T9', 'T14']        | ['T1', 'T6', 'T20'] |
+-----+---------+----------------------------------+---------------------+

--------------------------------------------------------------------------
   
19/06/2021 18:08:14[INFO] Ejecutando accion...   
19/06/2021 18:08:14[ACTION] Agregar supervisor    
19/06/2021 18:08:14[ACTION] Agrego supervisor Numero: 6  

--------------------------------------------------------------------------   
19/06/2021 18:08:14[INFO] Ejecutando petrinator para conocer estado de la red...   
--------------------------------------------------------------------------
   
19/06/2021 18:08:21[INFO] Importando datos desde html...   
19/06/2021 18:08:21[INFO] Analizando cantidad de supervisores que se pueden agregar...   
19/06/2021 18:08:21[ERROR] marcado: 1 t_in: 3   
19/06/2021 18:08:21[ERROR] marcado: 1 t_in: 3   
19/06/2021 18:08:21[ERROR] marcado: 2 t_in: 4   
19/06/2021 18:08:21[ERROR] marcado: 2 t_in: 4   
19/06/2021 18:08:21[ERROR] marcado: 1 t_in: 4   
19/06/2021 18:08:21[INFO] Cantidad de sifones vacios en estado de deadlock ANTES: 10  
19/06/2021 18:08:21[INFO] Cantidad de sifones vacioes en estado de deadlock AHORA: 5  
19/06/2021 18:08:21[INFO] Cantidad de transiciones: 21  
19/06/2021 18:08:21[INFO] Estados de deadlock : [160, 301]  
19/06/2021 18:08:21[INFO] Cantidad de sifones: 48  
19/06/2021 18:08:21[INFO] Cantidad de sifones vacios en estado de deadlock: 5 
 
19/06/2021 18:08:21[INFO] SIFONES   
+----+-----+--------------------------------------------------------+
| ID | Nro |                         Plazas                         |
+----+-----+--------------------------------------------------------+
| 10 |  19 |    ['P2', 'P8', 'P11', 'P17', 'P22', 'P28', 'P30']     |
| 11 |  21 |    ['P2', 'P9', 'P11', 'P17', 'P22', 'P27', 'P28']     |
| 12 |  14 | ['P2', 'P9', 'P11', 'P18', 'P22', 'P27', 'P28', 'P31'] |
| 13 |  15 | ['P2', 'P8', 'P11', 'P18', 'P22', 'P28', 'P30', 'P31'] |
| 14 |  16 |       ['P2', 'P11', 'P18', 'P21', 'P28', 'P31']        |
+----+-----+--------------------------------------------------------+
19/06/2021 18:08:21[INFO] T INVARIANTES   
+----+----+----+----+----+----+----+----+----+----+-----+-----+-----+-----+-----+-----+-----+-----+-----+-----+-----+
| T0 | T1 | T2 | T3 | T4 | T5 | T6 | T7 | T8 | T9 | T10 | T11 | T12 | T13 | T14 | T15 | T16 | T17 | T18 | T19 | T20 |
+----+----+----+----+----+----+----+----+----+----+-----+-----+-----+-----+-----+-----+-----+-----+-----+-----+-----+
| 1  | 1  | 1  | 1  | 1  | 0  | 0  | 0  | 0  | 0  |  0  |  0  |  0  |  0  |  0  |  0  |  0  |  0  |  0  |  0  |  0  |
| 0  | 0  | 0  | 0  | 0  | 1  | 1  | 1  | 1  | 1  |  0  |  0  |  0  |  0  |  0  |  0  |  0  |  0  |  0  |  0  |  0  |
| 0  | 0  | 0  | 0  | 0  | 0  | 0  | 0  | 0  | 0  |  1  |  1  |  1  |  1  |  0  |  0  |  0  |  0  |  0  |  1  |  1  |
| 0  | 0  | 0  | 0  | 0  | 0  | 0  | 0  | 0  | 0  |  0  |  0  |  0  |  0  |  1  |  1  |  1  |  1  |  1  |  1  |  1  |
+----+----+----+----+----+----+----+----+----+----+-----+-----+-----+-----+-----+-----+-----+-----+-----+-----+-----+
19/06/2021 18:08:21[INFO] POSIBLES SUPERVISORES A AGREGAR   
+-----+---------+-----------------------------+---------------------+
|  ID | Marcado |         T - Entrada         |      T - Salida     |
+-----+---------+-----------------------------+---------------------+
| P33 |    1    |     ['T2', 'T13', 'T18']    | ['T1', 'T6', 'T20'] |
| P33 |    1    |     ['T2', 'T13', 'T18']    | ['T1', 'T6', 'T20'] |
| P33 |    2    | ['T3', 'T10', 'T13', 'T18'] | ['T1', 'T6', 'T20'] |
| P33 |    2    | ['T3', 'T10', 'T13', 'T18'] | ['T1', 'T6', 'T20'] |
| P33 |    1    | ['T3', 'T10', 'T13', 'T17'] | ['T1', 'T6', 'T20'] |
+-----+---------+-----------------------------+---------------------+
19/06/2021 18:08:21[INFO] Actualizando estado de la red..   
19/06/2021 18:08:21[STATE] Cambie al estado 2: Hay menos sifones vacios en deadlock   

--------------------------------------------------------------------------
   
19/06/2021 18:08:21[INFO] Calculando recompensa..   
19/06/2021 18:08:21[REWARD] El sifon se controlo correctamente, recompensa -1   

--------------------------------------------------------------------------
   
19/06/2021 18:08:21[INFO] NEW Q-TABLE   
+-----------------------------------------------------+--------------------+------------------------+
|                   Estados/Acciones                  | Agregar supervisor | Agregar o quitar arcos |
+-----------------------------------------------------+--------------------+------------------------+
|                        Start                        |        -0.9        |          0.0           |
|        Más sifónes vacíos en estado deadlock        |        0.0         |          0.0           |
|       Menos sifónes vacíos en estado deadlock       |        0.0         |          0.0           |
| Igual cantidad de sifónes vacíos en estado deadlock |        0.0         |          0.0           |
|                         End                         |        0.0         |          0.0           |
+-----------------------------------------------------+--------------------+------------------------+

--------------------------------------------------------------------------
   
19/06/2021 18:08:21[INFO] Ejecutando accion...   
19/06/2021 18:08:21[ACTION] Agregar o quitar arcos   

--------------------------------------------------------------------------   
19/06/2021 18:08:21[INFO] Ejecutando petrinator para conocer estado de la red...   
--------------------------------------------------------------------------
   
19/06/2021 18:08:29[INFO] Importando datos desde html...   
19/06/2021 18:08:29[INFO] Analizando cantidad de supervisores que se pueden agregar...   
19/06/2021 18:08:29[ERROR] marcado: 1 t_in: 3   
19/06/2021 18:08:29[ERROR] marcado: 1 t_in: 3   
19/06/2021 18:08:29[ERROR] marcado: 2 t_in: 4   
19/06/2021 18:08:29[ERROR] marcado: 2 t_in: 4   
19/06/2021 18:08:29[ERROR] marcado: 1 t_in: 4   
19/06/2021 18:08:29[INFO] Cantidad de sifones vacios en estado de deadlock ANTES: 5  
19/06/2021 18:08:29[INFO] Cantidad de sifones vacioes en estado de deadlock AHORA: 5  
19/06/2021 18:08:29[INFO] Cantidad de transiciones: 21  
19/06/2021 18:08:29[INFO] Estados de deadlock : [160, 301]  
19/06/2021 18:08:29[INFO] Cantidad de sifones: 48  
19/06/2021 18:08:29[INFO] Cantidad de sifones vacios en estado de deadlock: 5 
 
19/06/2021 18:08:29[INFO] SIFONES   
+----+-----+--------------------------------------------------------+
| ID | Nro |                         Plazas                         |
+----+-----+--------------------------------------------------------+
| 15 |  19 |    ['P2', 'P8', 'P11', 'P17', 'P22', 'P28', 'P30']     |
| 16 |  21 |    ['P2', 'P9', 'P11', 'P17', 'P22', 'P27', 'P28']     |
| 17 |  14 | ['P2', 'P9', 'P11', 'P18', 'P22', 'P27', 'P28', 'P31'] |
| 18 |  15 | ['P2', 'P8', 'P11', 'P18', 'P22', 'P28', 'P30', 'P31'] |
| 19 |  16 |       ['P2', 'P11', 'P18', 'P21', 'P28', 'P31']        |
+----+-----+--------------------------------------------------------+
19/06/2021 18:08:29[INFO] T INVARIANTES   
+----+----+----+----+----+----+----+----+----+----+-----+-----+-----+-----+-----+-----+-----+-----+-----+-----+-----+
| T0 | T1 | T2 | T3 | T4 | T5 | T6 | T7 | T8 | T9 | T10 | T11 | T12 | T13 | T14 | T15 | T16 | T17 | T18 | T19 | T20 |
+----+----+----+----+----+----+----+----+----+----+-----+-----+-----+-----+-----+-----+-----+-----+-----+-----+-----+
| 1  | 1  | 1  | 1  | 1  | 0  | 0  | 0  | 0  | 0  |  0  |  0  |  0  |  0  |  0  |  0  |  0  |  0  |  0  |  0  |  0  |
| 0  | 0  | 0  | 0  | 0  | 1  | 1  | 1  | 1  | 1  |  0  |  0  |  0  |  0  |  0  |  0  |  0  |  0  |  0  |  0  |  0  |
| 0  | 0  | 0  | 0  | 0  | 0  | 0  | 0  | 0  | 0  |  1  |  1  |  1  |  1  |  0  |  0  |  0  |  0  |  0  |  1  |  1  |
| 0  | 0  | 0  | 0  | 0  | 0  | 0  | 0  | 0  | 0  |  0  |  0  |  0  |  0  |  1  |  1  |  1  |  1  |  1  |  1  |  1  |
+----+----+----+----+----+----+----+----+----+----+-----+-----+-----+-----+-----+-----+-----+-----+-----+-----+-----+
19/06/2021 18:08:29[INFO] POSIBLES SUPERVISORES A AGREGAR   
+-----+---------+-----------------------------+---------------------+
|  ID | Marcado |         T - Entrada         |      T - Salida     |
+-----+---------+-----------------------------+---------------------+
| P33 |    1    |     ['T2', 'T13', 'T18']    | ['T1', 'T6', 'T20'] |
| P33 |    1    |     ['T2', 'T13', 'T18']    | ['T1', 'T6', 'T20'] |
| P33 |    2    | ['T3', 'T10', 'T13', 'T18'] | ['T1', 'T6', 'T20'] |
| P33 |    2    | ['T3', 'T10', 'T13', 'T18'] | ['T1', 'T6', 'T20'] |
| P33 |    1    | ['T3', 'T10', 'T13', 'T17'] | ['T1', 'T6', 'T20'] |
+-----+---------+-----------------------------+---------------------+
19/06/2021 18:08:29[INFO] Actualizando estado de la red..   
19/06/2021 18:08:29[STATE] Cambie al estado 3: Hay igual cantidad de sifones vacios en deadlock   

--------------------------------------------------------------------------
   
19/06/2021 18:08:29[INFO] Calculando recompensa..   
19/06/2021 18:08:29[REWARD] Hay menos o igual cantidad de sifones vacios que en el estado anterior, recompensa -1   

--------------------------------------------------------------------------
   
19/06/2021 18:08:29[INFO] NEW Q-TABLE   
+-----------------------------------------------------+--------------------+------------------------+
|                   Estados/Acciones                  | Agregar supervisor | Agregar o quitar arcos |
+-----------------------------------------------------+--------------------+------------------------+
|                        Start                        |        -0.9        |          0.0           |
|        Más sifónes vacíos en estado deadlock        |        0.0         |          0.0           |
|       Menos sifónes vacíos en estado deadlock       |        0.0         |          -0.9          |
| Igual cantidad de sifónes vacíos en estado deadlock |        0.0         |          0.0           |
|                         End                         |        0.0         |          0.0           |
+-----------------------------------------------------+--------------------+------------------------+

--------------------------------------------------------------------------
   
19/06/2021 18:08:29[INFO] Ejecutando accion...   
19/06/2021 18:08:29[ACTION] Agregar o quitar arcos   

--------------------------------------------------------------------------   
19/06/2021 18:08:29[INFO] Ejecutando petrinator para conocer estado de la red...   
--------------------------------------------------------------------------
   
19/06/2021 18:08:37[INFO] Importando datos desde html...   
19/06/2021 18:08:37[INFO] Analizando cantidad de supervisores que se pueden agregar...   
19/06/2021 18:08:37[ERROR] marcado: 1 t_in: 3   
19/06/2021 18:08:37[ERROR] marcado: 1 t_in: 3   
19/06/2021 18:08:37[ERROR] marcado: 2 t_in: 4   
19/06/2021 18:08:37[ERROR] marcado: 2 t_in: 4   
19/06/2021 18:08:37[ERROR] marcado: 1 t_in: 4   
19/06/2021 18:08:37[INFO] Cantidad de sifones vacios en estado de deadlock ANTES: 5  
19/06/2021 18:08:37[INFO] Cantidad de sifones vacioes en estado de deadlock AHORA: 5  
19/06/2021 18:08:37[INFO] Cantidad de transiciones: 21  
19/06/2021 18:08:37[INFO] Estados de deadlock : [160, 301]  
19/06/2021 18:08:37[INFO] Cantidad de sifones: 48  
19/06/2021 18:08:37[INFO] Cantidad de sifones vacios en estado de deadlock: 5 
 
19/06/2021 18:08:37[INFO] SIFONES   
+----+-----+--------------------------------------------------------+
| ID | Nro |                         Plazas                         |
+----+-----+--------------------------------------------------------+
| 20 |  19 |    ['P2', 'P8', 'P11', 'P17', 'P22', 'P28', 'P30']     |
| 21 |  21 |    ['P2', 'P9', 'P11', 'P17', 'P22', 'P27', 'P28']     |
| 22 |  14 | ['P2', 'P9', 'P11', 'P18', 'P22', 'P27', 'P28', 'P31'] |
| 23 |  15 | ['P2', 'P8', 'P11', 'P18', 'P22', 'P28', 'P30', 'P31'] |
| 24 |  16 |       ['P2', 'P11', 'P18', 'P21', 'P28', 'P31']        |
+----+-----+--------------------------------------------------------+
19/06/2021 18:08:37[INFO] T INVARIANTES   
+----+----+----+----+----+----+----+----+----+----+-----+-----+-----+-----+-----+-----+-----+-----+-----+-----+-----+
| T0 | T1 | T2 | T3 | T4 | T5 | T6 | T7 | T8 | T9 | T10 | T11 | T12 | T13 | T14 | T15 | T16 | T17 | T18 | T19 | T20 |
+----+----+----+----+----+----+----+----+----+----+-----+-----+-----+-----+-----+-----+-----+-----+-----+-----+-----+
| 1  | 1  | 1  | 1  | 1  | 0  | 0  | 0  | 0  | 0  |  0  |  0  |  0  |  0  |  0  |  0  |  0  |  0  |  0  |  0  |  0  |
| 0  | 0  | 0  | 0  | 0  | 1  | 1  | 1  | 1  | 1  |  0  |  0  |  0  |  0  |  0  |  0  |  0  |  0  |  0  |  0  |  0  |
| 0  | 0  | 0  | 0  | 0  | 0  | 0  | 0  | 0  | 0  |  1  |  1  |  1  |  1  |  0  |  0  |  0  |  0  |  0  |  1  |  1  |
| 0  | 0  | 0  | 0  | 0  | 0  | 0  | 0  | 0  | 0  |  0  |  0  |  0  |  0  |  1  |  1  |  1  |  1  |  1  |  1  |  1  |
+----+----+----+----+----+----+----+----+----+----+-----+-----+-----+-----+-----+-----+-----+-----+-----+-----+-----+
19/06/2021 18:08:37[INFO] POSIBLES SUPERVISORES A AGREGAR   
+-----+---------+-----------------------------+---------------------+
|  ID | Marcado |         T - Entrada         |      T - Salida     |
+-----+---------+-----------------------------+---------------------+
| P33 |    1    |     ['T2', 'T13', 'T18']    | ['T1', 'T6', 'T20'] |
| P33 |    1    |     ['T2', 'T13', 'T18']    | ['T1', 'T6', 'T20'] |
| P33 |    2    | ['T3', 'T10', 'T13', 'T18'] | ['T1', 'T6', 'T20'] |
| P33 |    2    | ['T3', 'T10', 'T13', 'T18'] | ['T1', 'T6', 'T20'] |
| P33 |    1    | ['T3', 'T10', 'T13', 'T17'] | ['T1', 'T6', 'T20'] |
+-----+---------+-----------------------------+---------------------+
19/06/2021 18:08:37[INFO] Actualizando estado de la red..   
19/06/2021 18:08:37[STATE] Cambie al estado 3: Hay igual cantidad de sifones vacios en deadlock   

--------------------------------------------------------------------------
   
19/06/2021 18:08:37[INFO] Calculando recompensa..   
19/06/2021 18:08:37[REWARD] Hay menos o igual cantidad de sifones vacios que en el estado anterior, recompensa -1   

--------------------------------------------------------------------------
   
19/06/2021 18:08:37[INFO] NEW Q-TABLE   
+-----------------------------------------------------+--------------------+------------------------+
|                   Estados/Acciones                  | Agregar supervisor | Agregar o quitar arcos |
+-----------------------------------------------------+--------------------+------------------------+
|                        Start                        |        -0.9        |          0.0           |
|        Más sifónes vacíos en estado deadlock        |        0.0         |          0.0           |
|       Menos sifónes vacíos en estado deadlock       |        0.0         |          -0.9          |
| Igual cantidad de sifónes vacíos en estado deadlock |        0.0         |          -0.9          |
|                         End                         |        0.0         |          0.0           |
+-----------------------------------------------------+--------------------+------------------------+

--------------------------------------------------------------------------
   
19/06/2021 18:08:37[INFO] Ejecutando accion...   
19/06/2021 18:08:37[ACTION] Agregar supervisor    
19/06/2021 18:08:37[ACTION] Agrego supervisor Numero: 0  

--------------------------------------------------------------------------   
19/06/2021 18:08:37[INFO] Ejecutando petrinator para conocer estado de la red...   
--------------------------------------------------------------------------
   
19/06/2021 18:08:46[INFO] Importando datos desde html...   
19/06/2021 18:08:46[INFO] Analizando cantidad de supervisores que se pueden agregar...   
19/06/2021 18:08:46[ERROR] marcado: 0 t_in: 0   
19/06/2021 18:08:46[INFO] Cantidad de sifones vacios en estado de deadlock ANTES: 5  
19/06/2021 18:08:46[INFO] Cantidad de sifones vacioes en estado de deadlock AHORA: 1  
19/06/2021 18:08:46[INFO] Cantidad de transiciones: 21  
19/06/2021 18:08:46[INFO] Estados de deadlock : [16]  
19/06/2021 18:08:46[INFO] Cantidad de sifones: 86  
19/06/2021 18:08:46[INFO] Cantidad de sifones vacios en estado de deadlock: 1 
 
19/06/2021 18:08:46[INFO] SIFONES   
+----+-----+---------------------------------------------------------+
| ID | Nro |                          Plazas                         |
+----+-----+---------------------------------------------------------+
| 25 |  10 | ['P1', 'P16', 'P17', 'P19', 'P20', 'P21', 'P23', 'P33'] |
+----+-----+---------------------------------------------------------+
19/06/2021 18:08:46[INFO] T INVARIANTES   
+----+----+----+----+----+----+----+----+----+----+-----+-----+-----+-----+-----+-----+-----+-----+-----+-----+-----+
| T0 | T1 | T2 | T3 | T4 | T5 | T6 | T7 | T8 | T9 | T10 | T11 | T12 | T13 | T14 | T15 | T16 | T17 | T18 | T19 | T20 |
+----+----+----+----+----+----+----+----+----+----+-----+-----+-----+-----+-----+-----+-----+-----+-----+-----+-----+
| 1  | 1  | 1  | 1  | 1  | 0  | 0  | 0  | 0  | 0  |  0  |  0  |  0  |  0  |  0  |  0  |  0  |  0  |  0  |  0  |  0  |
| 0  | 0  | 0  | 0  | 0  | 0  | 0  | 0  | 0  | 0  |  1  |  1  |  1  |  1  |  0  |  0  |  0  |  0  |  0  |  1  |  1  |
| 0  | 0  | 0  | 0  | 0  | 0  | 0  | 0  | 0  | 0  |  0  |  0  |  0  |  0  |  1  |  1  |  1  |  1  |  1  |  1  |  1  |
+----+----+----+----+----+----+----+----+----+----+-----+-----+-----+-----+-----+-----+-----+-----+-----+-----+-----+
19/06/2021 18:08:46[INFO] POSIBLES SUPERVISORES A AGREGAR   
+----+---------+-------------+------------+
| ID | Marcado | T - Entrada | T - Salida |
+----+---------+-------------+------------+
+----+---------+-------------+------------+
19/06/2021 18:08:46[INFO] Actualizando estado de la red..   
19/06/2021 18:08:46[STATE] Cambie al estado 2: Hay menos sifones vacios en deadlock   

--------------------------------------------------------------------------
   
19/06/2021 18:08:46[INFO] Calculando recompensa..   
19/06/2021 18:08:46[REWARD] El sifon se controlo correctamente, recompensa -1   

--------------------------------------------------------------------------
   
19/06/2021 18:08:46[INFO] NEW Q-TABLE   
+-----------------------------------------------------+--------------------+------------------------+
|                   Estados/Acciones                  | Agregar supervisor | Agregar o quitar arcos |
+-----------------------------------------------------+--------------------+------------------------+
|                        Start                        |        -0.9        |          0.0           |
|        Más sifónes vacíos en estado deadlock        |        0.0         |          0.0           |
|       Menos sifónes vacíos en estado deadlock       |        0.0         |          -0.9          |
| Igual cantidad de sifónes vacíos en estado deadlock |        -0.9        |          -0.9          |
|                         End                         |        0.0         |          0.0           |
+-----------------------------------------------------+--------------------+------------------------+

--------------------------------------------------------------------------
   
19/06/2021 18:08:46[INFO] Ejecutando accion...   
19/06/2021 18:08:46[ACTION] Agregar o quitar arcos   
19/06/2021 18:08:46[ACTION] Eliminar arco desde P33 hasta T6   
19/06/2021 18:08:46[INFO] Se elimino el arco desde P33 hasta T6   

--------------------------------------------------------------------------   
19/06/2021 18:08:46[INFO] Ejecutando petrinator para conocer estado de la red...   
--------------------------------------------------------------------------
   
19/06/2021 18:08:55[INFO] Importando datos desde html...   
19/06/2021 18:08:56[INFO] Analizando cantidad de supervisores que se pueden agregar...   
19/06/2021 18:08:56[INFO] Cantidad de sifones vacios en estado de deadlock ANTES: 1  
19/06/2021 18:08:56[INFO] Cantidad de sifones vacioes en estado de deadlock AHORA: 0  
19/06/2021 18:08:56[INFO] Cantidad de transiciones: 21  
19/06/2021 18:08:56[INFO] Estados de deadlock : []  
19/06/2021 18:08:56[INFO] Cantidad de sifones: 49  
19/06/2021 18:08:56[INFO] Cantidad de sifones vacios en estado de deadlock: 0 
 
19/06/2021 18:08:56[INFO] SIFONES   
+----+-----+--------+
| ID | Nro | Plazas |
+----+-----+--------+
+----+-----+--------+
19/06/2021 18:08:56[INFO] T INVARIANTES   
+----+----+----+----+----+----+----+----+----+----+-----+-----+-----+-----+-----+-----+-----+-----+-----+-----+-----+
| T0 | T1 | T2 | T3 | T4 | T5 | T6 | T7 | T8 | T9 | T10 | T11 | T12 | T13 | T14 | T15 | T16 | T17 | T18 | T19 | T20 |
+----+----+----+----+----+----+----+----+----+----+-----+-----+-----+-----+-----+-----+-----+-----+-----+-----+-----+
| 1  | 1  | 1  | 1  | 1  | 0  | 0  | 0  | 0  | 0  |  0  |  0  |  0  |  0  |  0  |  0  |  0  |  0  |  0  |  0  |  0  |
| 0  | 0  | 0  | 0  | 0  | 1  | 1  | 1  | 1  | 1  |  0  |  0  |  0  |  0  |  0  |  0  |  0  |  0  |  0  |  0  |  0  |
| 0  | 0  | 0  | 0  | 0  | 0  | 0  | 0  | 0  | 0  |  1  |  1  |  1  |  1  |  0  |  0  |  0  |  0  |  0  |  1  |  1  |
| 0  | 0  | 0  | 0  | 0  | 0  | 0  | 0  | 0  | 0  |  0  |  0  |  0  |  0  |  1  |  1  |  1  |  1  |  1  |  1  |  1  |
+----+----+----+----+----+----+----+----+----+----+-----+-----+-----+-----+-----+-----+-----+-----+-----+-----+-----+
19/06/2021 18:08:56[INFO] POSIBLES SUPERVISORES A AGREGAR   
+----+---------+-------------+------------+
| ID | Marcado | T - Entrada | T - Salida |
+----+---------+-------------+------------+
+----+---------+-------------+------------+
19/06/2021 18:08:56[INFO] Actualizando estado de la red..   
19/06/2021 18:08:56[STATE] Cambie al estado 2: Hay menos sifones vacios en deadlock   

--------------------------------------------------------------------------
   
19/06/2021 18:08:56[INFO] Calculando recompensa..   
19/06/2021 18:08:56[REWARD] No hay mas deadlock, recompensa 100   

--------------------------------------------------------------------------
   
19/06/2021 18:08:56[INFO] NEW Q-TABLE   
+-----------------------------------------------------+--------------------+------------------------+
|                   Estados/Acciones                  | Agregar supervisor | Agregar o quitar arcos |
+-----------------------------------------------------+--------------------+------------------------+
|                        Start                        |        -0.9        |          0.0           |
|        Más sifónes vacíos en estado deadlock        |        0.0         |          0.0           |
|       Menos sifónes vacíos en estado deadlock       |        0.0         |         89.91          |
| Igual cantidad de sifónes vacíos en estado deadlock |        -0.9        |          -0.9          |
|                         End                         |        0.0         |          0.0           |
+-----------------------------------------------------+--------------------+------------------------+

--------------------------------------------------------------------------
   
19/06/2021 18:08:56[STATE] Se llego al estado deseado, NO HAY MAS DEADLOCK   

--------------------------------------------------------------------------
   
19/06/2021 18:08:56[INFO] Training complete! 
  
