 Minimal siphons 
11 24 27
3 8 10 15 19 24 29 30 31
2 7 10 15 19 24 30 31
6 10 15 19 23 30
15 16
1 10 14 18 23 28
22 23 24 26
18 19 20 21
10 12
22 25
14 15 17
6 7 8 9
32 6 18 23
32 6 7 18 23
32 6 7 8 18 23
6 7 8 9 10 12
6 7 8 9 10 12 15 16
6 7 8 9 10 12 14 15 17
6 7 8 9 10 12 15 16 18 19 20 21
6 7 8 9 10 12 14 15 17 18 19 20 21
2 4
2 4 6 7 8 9
33 2 6 7 14 18 23
32 2 4 6 7 18 23
32 2 4 6 7 8 18 23
2 7 10 18 24 31
2 4 6 7 8 9 10 12
2 4 6 7 8 9 10 12 18 19 20 21
2 4 6 7 8 9 10 12 14 15 17
2 4 6 7 8 9 10 12 15 16
2 4 6 7 8 9 10 12 15 16 18 19 20 21
2 4 6 7 8 9 10 12 14 15 17 18 19 20 21
2 3 4
1 2 3 5
1 2 3 5 10 12
1 2 3 5 10 12 14 15 17
1 2 3 5 10 12 14 15 17 18 19 20 21
1 2 3 5 10 12 15 16
1 2 3 5 10 12 15 16 18 19 20 21
1 32 2 3 5 6 18 23
32 2 3 4 6 7 18 23
1 32 2 3 5 6 7 18 23
2 3 4 6 7 8 9
1 2 3 5 6 7 8 9
1 32 2 3 5 6 7 8 18 23
32 2 3 4 6 7 8 18 23
3 8 10 14 29
2 3 4 6 7 8 9 10 12
1 2 3 5 6 7 8 9 10 12
2 3 4 6 7 8 9 10 12 18 19 20 21
1 2 3 5 6 7 8 9 10 12 18 19 20 21
2 3 4 6 7 8 9 10 12 14 15 17
1 2 3 5 6 7 8 9 10 12 14 15 17
2 3 4 6 7 8 9 10 12 15 16
1 2 3 5 6 7 8 9 10 12 15 16
3 8 10 15 16 18 19 20 21 29
3 8 10 14 15 18 19 20 21 29
1 3 5 8 10 14 15 18 19 20 21 29
1 3 5 8 10 15 16 18 19 20 21 29
3 4 8 10 14 15 18 19 20 21 29
3 4 8 10 15 16 18 19 20 21 29
3 6 8 9 10 15 16 18 19 20 21 29
3 6 8 9 10 14 15 18 19 20 21 29
2 3 4 6 7 8 9 10 12 14 15 17 18 19 20 21
1 2 3 5 6 7 8 9 10 12 14 15 17 18 19 20 21
2 3 4 6 7 8 9 10 12 15 16 18 19 20 21
1 2 3 5 6 7 8 9 10 12 15 16 18 19 20 21
10 11 13
10 11 12
2 4 10 11 13
2 4 10 11 12
2 4 10 11 13 14 15 17
2 4 10 11 12 14 15 17
2 4 10 11 13 14 15 17 18 19 20 21
2 4 10 11 12 14 15 17 18 19 20 21
2 4 10 11 13 15 16
2 4 10 11 12 15 16
2 4 10 11 13 15 16 18 19 20 21
2 4 10 11 12 15 16 18 19 20 21
1 2 3 5 10 11 13
1 2 3 5 10 11 12
1 2 3 5 10 11 13 14 15 17
1 2 3 5 10 11 12 14 15 17
1 2 3 5 10 11 13 14 15 17 18 19 20 21
1 2 3 5 10 11 12 14 15 17 18 19 20 21
1 2 3 5 10 11 13 15 16
1 2 3 5 10 11 12 15 16
1 2 3 5 10 11 13 15 16 18 19 20 21
1 2 3 5 10 11 12 15 16 18 19 20 21
2 3 4 10 11 13
2 3 4 10 11 12
2 3 4 10 11 13 14 15 17
2 3 4 10 11 12 14 15 17
2 3 4 10 11 13 14 15 17 18 19 20 21
2 3 4 10 11 12 14 15 17 18 19 20 21
2 3 4 10 11 13 15 16
2 3 4 10 11 12 15 16
2 3 4 10 11 13 15 16 18 19 20 21
2 3 4 10 11 12 15 16 18 19 20 21
6 7 8 9 10 11 13
6 7 8 9 10 11 12
2 4 6 7 8 9 10 11 13
2 4 6 7 8 9 10 11 12
2 3 4 6 7 8 9 10 11 13
1 2 3 5 6 7 8 9 10 11 13
1 2 3 5 6 7 8 9 10 11 12
2 3 4 6 7 8 9 10 11 12
6 7 8 9 10 11 13 15 16
6 7 8 9 10 11 12 15 16
6 7 8 9 10 11 12 14 15 17
6 7 8 9 10 11 13 14 15 17
2 4 6 7 8 9 10 11 13 14 15 17
2 4 6 7 8 9 10 11 12 14 15 17
2 4 6 7 8 9 10 11 13 15 16
2 4 6 7 8 9 10 11 12 15 16
1 2 3 5 6 7 8 9 10 11 13 14 15 17
1 2 3 5 6 7 8 9 10 11 12 14 15 17
2 3 4 6 7 8 9 10 11 13 14 15 17
2 3 4 6 7 8 9 10 11 12 14 15 17
1 2 3 5 6 7 8 9 10 11 13 15 16
1 2 3 5 6 7 8 9 10 11 12 15 16
2 3 4 6 7 8 9 10 11 13 15 16
2 3 4 6 7 8 9 10 11 12 15 16
3 6 8 9 10 11 15 16 18 19 20 21 29
6 7 8 9 10 11 13 15 16 18 19 20 21
6 7 8 9 10 11 12 15 16 18 19 20 21
6 7 8 9 10 11 12 14 15 17 18 19 20 21
6 7 8 9 10 11 13 14 15 17 18 19 20 21
3 6 8 9 10 11 14 15 18 19 20 21 29
2 3 4 6 7 8 9 10 11 13 14 15 17 18 19 20 21
1 2 3 5 6 7 8 9 10 11 13 14 15 17 18 19 20 21
1 2 3 5 6 7 8 9 10 11 12 14 15 17 18 19 20 21
2 3 4 6 7 8 9 10 11 12 14 15 17 18 19 20 21
2 3 4 6 7 8 9 10 11 13 15 16 18 19 20 21
1 2 3 5 6 7 8 9 10 11 13 15 16 18 19 20 21
1 2 3 5 6 7 8 9 10 11 12 15 16 18 19 20 21
2 3 4 6 7 8 9 10 11 12 15 16 18 19 20 21
 Minimal traps 
22 25
1 10 14 18 23 28
2 6 10 14 18 23 29 30 31
3 8 10 14 29
6 10 15 19 23 30
18 19 20 21
14 15 17
15 16
10 12
11 24 27
10 11 13
6 7 8 9
32 6 18 23
6 7 8 9 10 12
6 7 8 9 10 11 24 27
6 7 8 9 10 11 13
2 7 10 18 24 31
2 4
2 3 8 10 14 29
2 4 6 7 8 9
33 2 6 7 14 18 23
32 2 4 6 18 23
2 6 10 15 18 23 30 31
33 2 6 10 14 18 23 30
1 2 4
1 2 3 5
1 2 7 10 18 24 31
1 2 4 10 12
1 2 3 5 10 12
1 2 3 5 10 11 24 27
1 2 3 5 10 11 13
1 2 4 10 11 24 27
1 2 4 10 11 13
10 12 22 23 24 27
11 22 23 24 27
22 23 24 26
10 11 22 23 24 27
6 7 8 9 11 22 23 24 27
32 6 18 22 23
32 6 7 8 9 18 22 23
32 6 7 8 9 11 18 22 23 27
6 7 8 9 10 12 22 23 24 27
6 7 8 9 10 11 22 23 24 27
3 8 10 14 22 23 24 27 29
2 4 8 10 14 22 23 24 27 29
2 3 8 10 14 22 23 24 27 29
2 4 10 12 22 23 24 27
2 4 11 22 23 24 27
2 4 10 11 22 23 24 27
2 4 6 7 8 9 11 22 23 24 27
32 2 4 6 18 22 23
32 2 4 6 7 8 9 18 22 23
32 2 4 6 7 8 9 11 18 22 23 27
1 2 4 11 22 23 24 27
1 2 3 5 11 22 23 24 27
1 32 2 3 5 6 18 22 23
1 32 2 3 5 6 11 18 22 23 27
1 32 2 4 6 18 22 23
1 32 2 4 6 11 18 22 23 27
1 2 7 10 18 22 23 24 31
1 2 4 10 12 22 23 24 27
1 2 3 5 10 12 22 23 24 27
1 2 3 5 10 11 22 23 24 27
1 2 4 10 11 22 23 24 27
 Analysis time: 4.83s