19/07/2021 15:12:14[DEBUG] pflow_file:  ../analysis/analisis_11_18072021/gen_nets/20210719-151113_0/net.pflow  
19/07/2021 15:12:14[DEBUG] output_folder:  ../analysis/analisis_11_18072021/gen_nets/20210719-151113_0/  
19/07/2021 15:12:14[DEBUG] html_path:  ../analysis/analisis_11_18072021/gen_nets/20210719-151113_0/  
19/07/2021 15:12:14[DEBUG] txt_path:  ../analysis/analisis_11_18072021/gen_nets/20210719-151113_0/txt_info  

--------------------------------------------------------------------------   
19/07/2021 15:12:14[INFO] Ejecutando petrinator para conocer estado de la red...   
--------------------------------------------------------------------------
   
19/07/2021 15:12:17[ERROR] La red ingresada no tiene deadlock, cerrando analisis 
  
