18/09/2021 19:47:33[DEBUG] pflow_file:  ../test_networks/20210918-193440_18/net.pflow  
18/09/2021 19:47:33[DEBUG] output_folder:  ../test_networks/20210918-193440_18/  
18/09/2021 19:47:33[DEBUG] html_path:  ../test_networks/20210918-193440_18/  
18/09/2021 19:47:33[DEBUG] txt_path:  ../test_networks/20210918-193440_18/txt_info  

--------------------------------------------------------------------------   
18/09/2021 19:47:33[INFO] Ejecutando petrinator para conocer estado de la red...   
--------------------------------------------------------------------------
   
18/09/2021 19:47:44[INFO] SIFONES   
+----+-----+------------------------------------------------------+
| ID | Nro |                        Plazas                        |
+----+-----+------------------------------------------------------+
| 0  |  15 |       ['P2', 'P7', 'P20', 'P25', 'P35', 'P37']       |
| 1  |  80 |    ['P2', 'P7', 'P8', 'P20', 'P25', 'P35', 'P37']    |
| 2  | 145 | ['P2', 'P7', 'P8', 'P9', 'P20', 'P25', 'P35', 'P37'] |
+----+-----+------------------------------------------------------+ 

18/09/2021 19:47:44[INFO] T INVARIANTES   
+----+----+----+----+----+----+----+----+----+----+-----+-----+-----+-----+-----+-----+-----+-----+-----+-----+-----+-----+-----+-----+-----+
| T0 | T1 | T2 | T3 | T4 | T5 | T6 | T7 | T8 | T9 | T10 | T11 | T12 | T13 | T14 | T15 | T16 | T17 | T18 | T19 | T20 | T21 | T22 | T23 | T24 |
+----+----+----+----+----+----+----+----+----+----+-----+-----+-----+-----+-----+-----+-----+-----+-----+-----+-----+-----+-----+-----+-----+
| 1  | 1  | 1  | 0  | 0  | 0  | 0  | 0  | 0  | 0  |  0  |  0  |  0  |  0  |  0  |  0  |  0  |  0  |  0  |  0  |  0  |  0  |  0  |  0  |  0  |
| 0  | 0  | 0  | 1  | 1  | 1  | 1  | 1  | 0  | 0  |  0  |  1  |  1  |  0  |  0  |  0  |  0  |  0  |  0  |  0  |  0  |  0  |  0  |  0  |  0  |
| 0  | 0  | 0  | 0  | 0  | 0  | 0  | 0  | 1  | 1  |  1  |  1  |  1  |  0  |  0  |  0  |  0  |  0  |  0  |  0  |  0  |  0  |  0  |  0  |  0  |
| 0  | 0  | 0  | 0  | 0  | 0  | 0  | 0  | 0  | 0  |  0  |  0  |  0  |  1  |  1  |  1  |  1  |  1  |  0  |  0  |  0  |  0  |  0  |  1  |  1  |
| 0  | 0  | 0  | 0  | 0  | 0  | 0  | 0  | 0  | 0  |  0  |  0  |  0  |  0  |  0  |  0  |  0  |  0  |  1  |  1  |  1  |  1  |  1  |  1  |  1  |
+----+----+----+----+----+----+----+----+----+----+-----+-----+-----+-----+-----+-----+-----+-----+-----+-----+-----+-----+-----+-----+-----+ 

18/09/2021 19:47:44[INFO] Supervisores para agregar   
+-----+---------+---------------------+---------------------+------------------------------------------------------+
|  ID | Marcado |     T - Entrada     |      T - Salida     |                  Sifon a controlar                   |
+-----+---------+---------------------+---------------------+------------------------------------------------------+
| P39 |    1    |    ['T2', 'T16']    |    ['T1', 'T15']    |       ['P2', 'P7', 'P20', 'P25', 'P35', 'P37']       |
| P39 |    1    | ['T2', 'T6', 'T16'] | ['T1', 'T7', 'T15'] |    ['P2', 'P7', 'P8', 'P20', 'P25', 'P35', 'P37']    |
| P39 |    1    | ['T2', 'T6', 'T16'] | ['T1', 'T8', 'T15'] | ['P2', 'P7', 'P8', 'P9', 'P20', 'P25', 'P35', 'P37'] |
+-----+---------+---------------------+---------------------+------------------------------------------------------+ 

18/09/2021 19:47:44[INFO] Supervisores agregados   
+-----+-------+---------+-------------+------------+----------------+
| Nro | Plaza | Marcado | T - Entrada | T - Salida | MAL supervisor |
+-----+-------+---------+-------------+------------+----------------+
+-----+-------+---------+-------------+------------+----------------+ 

18/09/2021 19:47:44[INFO] Supervisores eliminados   
+-----+-------+---------+-------------+------------+----------------+
| Nro | Plaza | Marcado | T - Entrada | T - Salida | MAL supervisor |
+-----+-------+---------+-------------+------------+----------------+
+-----+-------+---------+-------------+------------+----------------+ 

18/09/2021 19:47:44[INFO] Ejecutando accion...   
18/09/2021 19:47:44[ACTION] Agrego supervisor con menor numero de arcos de salida (MNAS)   
18/09/2021 19:47:44[INFO] Supervisor con menor cantidad de arcos de salida agregado 0   

--------------------------------------------------------------------------   
18/09/2021 19:47:44[INFO] Ejecutando petrinator para conocer estado de la red...   
--------------------------------------------------------------------------
   
--------------------------------------------------------------------------
   
18/09/2021 19:47:57[INFO] Calculando recompensa..   
18/09/2021 19:47:57[REWARD] No hay mas deadlock, recompensa 100   

--------------------------------------------------------------------------
   
18/09/2021 19:47:57[STATE] Se llego al estado deseado, NO HAY MAS DEADLOCK   

--------------------------------------------------------------------------
   
+--------+---------+-------------------+----------------+---------+---------+------------------------+
| Plazas | Estados | Tokens trabajando | Sifones vacios | Sifones | Trampas | Supervisores agregados |
+--------+---------+-------------------+----------------+---------+---------+------------------------+
|   39   |   276   |        723        |       0        |   315   |   306   |           1            |
+--------+---------+-------------------+----------------+---------+---------+------------------------+ 
+------------------------------+------------+-----------------+--------------------+-----------------------+
|       Estados/Acciones       | + sup MNAS | + sup aleatorio | - sup MAL agregado | - ultimo sup agregado |
+------------------------------+------------+-----------------+--------------------+-----------------------+
|            Start             |   100.0    |       0.0       |        0.0         |          0.0          |
| + sifónes vacíos en deadlock |    0.0     |       0.0       |        0.0         |          0.0          |
| - sifónes vacíos en deadlock |    0.0     |       0.0       |        0.0         |          0.0          |
| = sifónes vacíos en deadlock |    0.0     |       0.0       |        0.0         |          0.0          |
|             End              |    0.0     |       0.0       |        0.0         |          0.0          |
+------------------------------+------------+-----------------+--------------------+-----------------------+ 

18/09/2021 19:47:57[INFO] Comienza proceso de eliminacion de supervisores redundantes   
18/09/2021 19:47:57[INFO] Supervisor a eliminar   
+-----+-------+---------+---------------+---------------+----------------+
| Nro | Plaza | Marcado |  T - Entrada  |   T - Salida  | MAL supervisor |
+-----+-------+---------+---------------+---------------+----------------+
|  1  |  P39  |    1    | ['T2', 'T16'] | ['T1', 'T15'] |     False      |
+-----+-------+---------+---------------+---------------+----------------+ 
18/09/2021 19:47:57[INFO] Eliminando supervisor ...   

--------------------------------------------------------------------------   
18/09/2021 19:47:57[INFO] Ejecutando petrinator para conocer estado de la red...   
--------------------------------------------------------------------------
   
18/09/2021 19:48:07[INFO] El supervisor eliminado no era redundante, volviendo a agregar supervisor   
18/09/2021 19:48:07[INFO] Se volvio a agregar correctamente el supervisor eliminado   

--------------------------------------------------------------------------   
18/09/2021 19:48:07[INFO] Ejecutando petrinator para conocer estado de la red...   
--------------------------------------------------------------------------
   
18/09/2021 19:48:19[INFO] Se eliminaron todos los supervisores redundantes   
+--------+---------+-------------------+----------------+---------+---------+------------------------+-------------------------+
| Plazas | Estados | Tokens trabajando | Sifones vacios | Sifones | Trampas | Supervisores agregados | Supervisores eliminados |
+--------+---------+-------------------+----------------+---------+---------+------------------------+-------------------------+
|   39   |   276   |        723        |       0        |   315   |   306   |           1            |            0            |
+--------+---------+-------------------+----------------+---------+---------+------------------------+-------------------------+ 
