07/08/2021 21:21:30[INFO] Iniciando la clasificación serial de todos las redes... 
  
07/08/2021 21:24:45[INFO] Clasificando los resultados... 
  
07/08/2021 21:24:55[INFO] Generando estadísticas... 
  
07/08/2021 21:24:55[RESULT] Se analizaron 50 redes de petri, de las cuales:   
07/08/2021 21:24:55[RESULT] 33 se pudieron clasificar   
07/08/2021 21:24:55[RESULT] 27 no contenian DEADLOCK inicialmente   
+--------------------+-------------------+
|        Red         | Duracion Analisis |
+--------------------+-------------------+
| 20210807-212122_1  |    00h:00m:02s    |
| 20210807-212122_40 |    00h:00m:03s    |
| 20210807-212122_2  |    00h:00m:03s    |
| 20210807-212122_7  |    00h:00m:03s    |
| 20210807-212122_9  |    00h:00m:03s    |
| 20210807-212122_0  |    00h:00m:03s    |
| 20210807-212122_25 |    00h:00m:03s    |
| 20210807-212122_20 |    00h:00m:03s    |
| 20210807-212122_37 |    00h:00m:03s    |
| 20210807-212122_24 |    00h:00m:03s    |
| 20210807-212122_29 |    00h:00m:03s    |
| 20210807-212122_10 |    00h:00m:03s    |
| 20210807-212122_19 |    00h:00m:03s    |
| 20210807-212122_15 |    00h:00m:03s    |
| 20210807-212122_32 |    00h:00m:03s    |
| 20210807-212122_5  |    00h:00m:03s    |
| 20210807-212122_23 |    00h:00m:03s    |
| 20210807-212122_44 |    00h:00m:03s    |
| 20210807-212122_49 |    00h:00m:03s    |
| 20210807-212122_11 |    00h:00m:03s    |
| 20210807-212122_36 |    00h:00m:03s    |
| 20210807-212122_30 |    00h:00m:03s    |
| 20210807-212122_17 |    00h:00m:04s    |
| 20210807-212122_6  |    00h:00m:04s    |
| 20210807-212122_16 |    00h:00m:04s    |
| 20210807-212122_13 |    00h:00m:04s    |
| 20210807-212122_12 |    00h:00m:05s    |
+--------------------+-------------------+ 

07/08/2021 21:24:55[RESULT] 0 no eran del tipo S3PR   
07/08/2021 21:24:55[RESULT] 0 no pudieron clasificarse debido a corte por timeout del petrinator   
07/08/2021 21:24:55[RESULT] 17 expirementaron fallas inesperadas durante el análisis   
+--------------------+-------------------+
|        Red         | Duracion Analisis |
+--------------------+-------------------+
| 20210807-212122_4  |    00h:00m:03s    |
| 20210807-212122_42 |    00h:00m:04s    |
| 20210807-212122_3  |    00h:00m:04s    |
| 20210807-212122_26 |    00h:00m:04s    |
| 20210807-212122_48 |    00h:00m:04s    |
| 20210807-212122_39 |    00h:00m:04s    |
| 20210807-212122_8  |    00h:00m:04s    |
| 20210807-212122_14 |    00h:00m:04s    |
| 20210807-212122_38 |    00h:00m:04s    |
| 20210807-212122_33 |    00h:00m:04s    |
| 20210807-212122_41 |    00h:00m:04s    |
| 20210807-212122_46 |    00h:00m:04s    |
| 20210807-212122_31 |    00h:00m:04s    |
| 20210807-212122_43 |    00h:00m:04s    |
| 20210807-212122_45 |    00h:00m:04s    |
| 20210807-212122_28 |    00h:00m:04s    |
| 20210807-212122_34 |    00h:00m:04s    |
+--------------------+-------------------+ 

07/08/2021 21:24:55[RESULT] 6 cumplen las condiciones de tener DEADLOCK y ser tipo S3PR   
+--------------------+-------------------+
|        Red         | Duracion Analisis |
+--------------------+-------------------+
| 20210807-212122_21 |    00h:00m:03s    |
| 20210807-212122_35 |    00h:00m:03s    |
| 20210807-212122_22 |    00h:00m:03s    |
| 20210807-212122_18 |    00h:00m:03s    |
| 20210807-212122_27 |    00h:00m:03s    |
| 20210807-212122_47 |    00h:00m:04s    |
+--------------------+-------------------+ 

07/08/2021 21:24:55[RESULT] Del set de redes propuesto, observar los siguientes indicadores:   
07/08/2021 21:24:55[RESULT] - 18.18% de las redes válidas cumplen las condiciones esperadas -- Calidad del Algoritmo   
07/08/2021 21:24:55[RESULT] - 54.00% no cumplen condiciones iniciales (S3PR y DEADLOCK) -- Calidad del Generador/Muestra   
07/08/2021 21:24:55[RESULT] - 34.00% se debieron descartar por problemas petrinator -- Incidencias debido a factores externos   
07/08/2021 21:24:55[INFO] La ejecución masiva ha concluído exitosamente, luego de 00h:03m:25s 
  
