20/09/2021 20:34:28[DEBUG] pflow_file:  ../test_networks/20210910-223922_15/net.pflow  
20/09/2021 20:34:28[DEBUG] output_folder:  ../test_networks/20210910-223922_15/  
20/09/2021 20:34:28[DEBUG] html_path:  ../test_networks/20210910-223922_15/  
20/09/2021 20:34:28[DEBUG] txt_path:  ../test_networks/20210910-223922_15/txt_info  

--------------------------------------------------------------------------   
20/09/2021 20:34:28[INFO] Ejecutando petrinator para conocer estado de la red...   
--------------------------------------------------------------------------
   
20/09/2021 20:34:43[INFO] SIFONES   
+----+-----+---------------------------------------------------------------+
| ID | Nro |                             Plazas                            |
+----+-----+---------------------------------------------------------------+
| 0  |  23 |     ['P2', 'P8', 'P16', 'P19', 'P20', 'P22', 'P33', 'P34']    |
| 1  |  46 |               ['P4', 'P16', 'P21', 'P31', 'P32']              |
| 2  |  17 |     ['P2', 'P8', 'P14', 'P16', 'P22', 'P23', 'P33', 'P34']    |
| 3  |  33 |     ['P3', 'P8', 'P14', 'P16', 'P22', 'P31', 'P33', 'P34']    |
| 4  |  59 | ['P4', 'P8', 'P14', 'P16', 'P22', 'P31', 'P32', 'P33', 'P34'] |
+----+-----+---------------------------------------------------------------+ 

20/09/2021 20:34:43[INFO] T INVARIANTES   
+----+----+----+----+----+----+----+----+----+----+-----+-----+-----+-----+-----+-----+-----+-----+-----+-----+-----+
| T0 | T1 | T2 | T3 | T4 | T5 | T6 | T7 | T8 | T9 | T10 | T11 | T12 | T13 | T14 | T15 | T16 | T17 | T18 | T19 | T20 |
+----+----+----+----+----+----+----+----+----+----+-----+-----+-----+-----+-----+-----+-----+-----+-----+-----+-----+
| 1  | 1  | 1  | 1  | 1  | 0  | 0  | 0  | 0  | 1  |  1  |  0  |  0  |  0  |  0  |  0  |  0  |  0  |  0  |  0  |  0  |
| 0  | 0  | 0  | 0  | 0  | 1  | 1  | 1  | 1  | 1  |  1  |  0  |  0  |  0  |  0  |  0  |  0  |  0  |  0  |  0  |  0  |
| 0  | 0  | 0  | 0  | 0  | 0  | 0  | 0  | 0  | 0  |  0  |  1  |  1  |  1  |  1  |  0  |  0  |  0  |  0  |  1  |  1  |
| 0  | 0  | 0  | 0  | 0  | 0  | 0  | 0  | 0  | 0  |  0  |  0  |  0  |  0  |  0  |  1  |  1  |  1  |  1  |  1  |  1  |
+----+----+----+----+----+----+----+----+----+----+-----+-----+-----+-----+-----+-----+-----+-----+-----+-----+-----+ 

20/09/2021 20:34:43[INFO] Supervisores para agregar   
+-----+---------+---------------------+---------------------+---------------------------------------------------------------+
|  ID | Marcado |     T - Entrada     |      T - Salida     |                       Sifon a controlar                       |
+-----+---------+---------------------+---------------------+---------------------------------------------------------------+
| P35 |    2    | ['T2', 'T8', 'T14'] | ['T1', 'T7', 'T12'] |     ['P2', 'P8', 'P16', 'P19', 'P20', 'P22', 'P33', 'P34']    |
| P35 |    1    |    ['T4', 'T17']    |    ['T3', 'T16']    |               ['P4', 'P16', 'P21', 'P31', 'P32']              |
| P35 |    2    | ['T2', 'T8', 'T18'] | ['T1', 'T7', 'T16'] |     ['P2', 'P8', 'P14', 'P16', 'P22', 'P23', 'P33', 'P34']    |
| P35 |    2    | ['T3', 'T8', 'T18'] | ['T1', 'T7', 'T16'] |     ['P3', 'P8', 'P14', 'P16', 'P22', 'P31', 'P33', 'P34']    |
| P35 |    3    | ['T4', 'T8', 'T17'] | ['T1', 'T7', 'T16'] | ['P4', 'P8', 'P14', 'P16', 'P22', 'P31', 'P32', 'P33', 'P34'] |
+-----+---------+---------------------+---------------------+---------------------------------------------------------------+ 

20/09/2021 20:34:43[INFO] Supervisores agregados   
+-----+-------+---------+-------------+------------+----------------+
| Nro | Plaza | Marcado | T - Entrada | T - Salida | MAL supervisor |
+-----+-------+---------+-------------+------------+----------------+
+-----+-------+---------+-------------+------------+----------------+ 

20/09/2021 20:34:43[INFO] Supervisores eliminados   
+-----+-------+---------+-------------+------------+----------------+
| Nro | Plaza | Marcado | T - Entrada | T - Salida | MAL supervisor |
+-----+-------+---------+-------------+------------+----------------+
+-----+-------+---------+-------------+------------+----------------+ 

20/09/2021 20:34:43[INFO] Ejecutando accion...   
20/09/2021 20:34:43[ACTION] Agrego supervisor con menor numero de arcos de salida (MNAS)   
20/09/2021 20:34:43[INFO] Supervisor con menor cantidad de arcos de salida agregado 1   

--------------------------------------------------------------------------   
20/09/2021 20:34:43[INFO] Ejecutando petrinator para conocer estado de la red...   
--------------------------------------------------------------------------
   
--------------------------------------------------------------------------
   
20/09/2021 20:35:02[INFO] Calculando recompensa..   
20/09/2021 20:35:02[REWARD] Agregue un supervisor que genero mas sifones vacios en deadlock, recompensa -10   

--------------------------------------------------------------------------
   
20/09/2021 20:35:02[STATE] Cambie al estado 1: Hay mas sifones vacios en deadlock   
+--------+---------+-------------------+----------------+---------+---------+------------------------+
| Plazas | Estados | Tokens trabajando | Sifones vacios | Sifones | Trampas | Supervisores agregados |
+--------+---------+-------------------+----------------+---------+---------+------------------------+
|   35   |   271   |        691        |       6        |   111   |    66   |           1            |
+--------+---------+-------------------+----------------+---------+---------+------------------------+ 
+------------------------------+------------+-----------------+--------------------+-----------------------+
|       Estados/Acciones       | + sup MNAS | + sup aleatorio | - sup MAL agregado | - ultimo sup agregado |
+------------------------------+------------+-----------------+--------------------+-----------------------+
|            Start             |   -10.0    |       0.0       |        0.0         |          0.0          |
| + sifónes vacíos en deadlock |    0.0     |       0.0       |        0.0         |          0.0          |
| - sifónes vacíos en deadlock |    0.0     |       0.0       |        0.0         |          0.0          |
| = sifónes vacíos en deadlock |    0.0     |       0.0       |        0.0         |          0.0          |
|             End              |    0.0     |       0.0       |        0.0         |          0.0          |
+------------------------------+------------+-----------------+--------------------+-----------------------+ 

20/09/2021 20:35:02[INFO] SIFONES   
+----+-----+----------------------------------------------------------------------+
| ID | Nro |                                Plazas                                |
+----+-----+----------------------------------------------------------------------+
| 5  |  23 |        ['P2', 'P8', 'P16', 'P19', 'P20', 'P22', 'P33', 'P34']        |
| 6  |  17 |        ['P2', 'P8', 'P14', 'P16', 'P22', 'P23', 'P33', 'P34']        |
| 7  |  40 |        ['P3', 'P8', 'P14', 'P16', 'P22', 'P31', 'P33', 'P34']        |
| 8  |  54 |    ['P3', 'P8', 'P14', 'P16', 'P22', 'P23', 'P33', 'P34', 'P35']     |
| 9  |  81 |    ['P4', 'P8', 'P14', 'P16', 'P22', 'P31', 'P32', 'P33', 'P34']     |
| 10 | 107 | ['P4', 'P8', 'P14', 'P16', 'P22', 'P23', 'P32', 'P33', 'P34', 'P35'] |
+----+-----+----------------------------------------------------------------------+ 

20/09/2021 20:35:02[INFO] T INVARIANTES   
+----+----+----+----+----+----+----+----+----+----+-----+-----+-----+-----+-----+-----+-----+-----+-----+-----+-----+
| T0 | T1 | T2 | T3 | T4 | T5 | T6 | T7 | T8 | T9 | T10 | T11 | T12 | T13 | T14 | T15 | T16 | T17 | T18 | T19 | T20 |
+----+----+----+----+----+----+----+----+----+----+-----+-----+-----+-----+-----+-----+-----+-----+-----+-----+-----+
| 1  | 1  | 1  | 1  | 1  | 0  | 0  | 0  | 0  | 1  |  1  |  0  |  0  |  0  |  0  |  0  |  0  |  0  |  0  |  0  |  0  |
| 0  | 0  | 0  | 0  | 0  | 1  | 1  | 1  | 1  | 1  |  1  |  0  |  0  |  0  |  0  |  0  |  0  |  0  |  0  |  0  |  0  |
| 0  | 0  | 0  | 0  | 0  | 0  | 0  | 0  | 0  | 0  |  0  |  1  |  1  |  1  |  1  |  0  |  0  |  0  |  0  |  1  |  1  |
| 0  | 0  | 0  | 0  | 0  | 0  | 0  | 0  | 0  | 0  |  0  |  0  |  0  |  0  |  0  |  1  |  1  |  1  |  1  |  1  |  1  |
+----+----+----+----+----+----+----+----+----+----+-----+-----+-----+-----+-----+-----+-----+-----+-----+-----+-----+ 

20/09/2021 20:35:02[INFO] Supervisores para agregar   
+-----+---------+---------------------+---------------------+----------------------------------------------------------------------+
|  ID | Marcado |     T - Entrada     |      T - Salida     |                          Sifon a controlar                           |
+-----+---------+---------------------+---------------------+----------------------------------------------------------------------+
| P36 |    2    | ['T2', 'T8', 'T14'] | ['T1', 'T7', 'T12'] |        ['P2', 'P8', 'P16', 'P19', 'P20', 'P22', 'P33', 'P34']        |
| P36 |    2    | ['T2', 'T8', 'T18'] | ['T1', 'T7', 'T16'] |        ['P2', 'P8', 'P14', 'P16', 'P22', 'P23', 'P33', 'P34']        |
| P36 |    2    | ['T3', 'T8', 'T18'] | ['T1', 'T7', 'T16'] |        ['P3', 'P8', 'P14', 'P16', 'P22', 'P31', 'P33', 'P34']        |
| P36 |    2    | ['T3', 'T8', 'T17'] | ['T1', 'T7', 'T16'] |    ['P3', 'P8', 'P14', 'P16', 'P22', 'P23', 'P33', 'P34', 'P35']     |
| P36 |    3    | ['T4', 'T8', 'T17'] | ['T1', 'T7', 'T16'] |    ['P4', 'P8', 'P14', 'P16', 'P22', 'P31', 'P32', 'P33', 'P34']     |
| P36 |    3    | ['T4', 'T8', 'T17'] | ['T1', 'T7', 'T16'] | ['P4', 'P8', 'P14', 'P16', 'P22', 'P23', 'P32', 'P33', 'P34', 'P35'] |
+-----+---------+---------------------+---------------------+----------------------------------------------------------------------+ 

20/09/2021 20:35:02[INFO] Supervisores agregados   
+-----+-------+---------+---------------+---------------+----------------+
| Nro | Plaza | Marcado |  T - Entrada  |   T - Salida  | MAL supervisor |
+-----+-------+---------+---------------+---------------+----------------+
|  1  |  P35  |    1    | ['T4', 'T17'] | ['T3', 'T16'] |     False      |
+-----+-------+---------+---------------+---------------+----------------+ 

20/09/2021 20:35:02[INFO] Supervisores eliminados   
+-----+-------+---------+-------------+------------+----------------+
| Nro | Plaza | Marcado | T - Entrada | T - Salida | MAL supervisor |
+-----+-------+---------+-------------+------------+----------------+
+-----+-------+---------+-------------+------------+----------------+ 

20/09/2021 20:35:02[INFO] Ejecutando accion...   
20/09/2021 20:35:02[ACTION] Agrego supervisor con menor numero de arcos de salida (MNAS)   
20/09/2021 20:35:02[INFO] Supervisor con menor cantidad de arcos de salida agregado 3   

--------------------------------------------------------------------------   
20/09/2021 20:35:02[INFO] Ejecutando petrinator para conocer estado de la red...   
--------------------------------------------------------------------------
   
--------------------------------------------------------------------------
   
20/09/2021 20:35:26[INFO] Calculando recompensa..   
20/09/2021 20:35:26[REWARD] Sigue existiendo el sifon del diablo que se quiso controlar, recompensa -30   

--------------------------------------------------------------------------
   
20/09/2021 20:35:26[STATE] Cambie al estado 3: Hay igual cantidad de sifones vacios en deadlock   
+--------+---------+-------------------+----------------+---------+---------+------------------------+
| Plazas | Estados | Tokens trabajando | Sifones vacios | Sifones | Trampas | Supervisores agregados |
+--------+---------+-------------------+----------------+---------+---------+------------------------+
|   35   |   271   |        691        |       6        |   111   |    66   |           1            |
|   36   |   271   |        691        |       6        |   125   |    95   |           2            |
+--------+---------+-------------------+----------------+---------+---------+------------------------+ 
+------------------------------+------------+-----------------+--------------------+-----------------------+
|       Estados/Acciones       | + sup MNAS | + sup aleatorio | - sup MAL agregado | - ultimo sup agregado |
+------------------------------+------------+-----------------+--------------------+-----------------------+
|            Start             |   -10.0    |       0.0       |        0.0         |          0.0          |
| + sifónes vacíos en deadlock |   -30.0    |       0.0       |        0.0         |          0.0          |
| - sifónes vacíos en deadlock |    0.0     |       0.0       |        0.0         |          0.0          |
| = sifónes vacíos en deadlock |    0.0     |       0.0       |        0.0         |          0.0          |
|             End              |    0.0     |       0.0       |        0.0         |          0.0          |
+------------------------------+------------+-----------------+--------------------+-----------------------+ 

20/09/2021 20:35:26[INFO] SIFONES   
+----+-----+----------------------------------------------------------------------+
| ID | Nro |                                Plazas                                |
+----+-----+----------------------------------------------------------------------+
| 11 |  24 |        ['P2', 'P8', 'P16', 'P19', 'P20', 'P22', 'P33', 'P34']        |
| 12 |  18 |        ['P2', 'P8', 'P14', 'P16', 'P22', 'P23', 'P33', 'P34']        |
| 13 |  47 |        ['P3', 'P8', 'P14', 'P16', 'P22', 'P31', 'P33', 'P34']        |
| 14 |  63 |    ['P3', 'P8', 'P14', 'P16', 'P22', 'P23', 'P33', 'P34', 'P35']     |
| 15 |  92 |    ['P4', 'P8', 'P14', 'P16', 'P22', 'P31', 'P32', 'P33', 'P34']     |
| 16 | 121 | ['P4', 'P8', 'P14', 'P16', 'P22', 'P23', 'P32', 'P33', 'P34', 'P35'] |
+----+-----+----------------------------------------------------------------------+ 

20/09/2021 20:35:26[INFO] T INVARIANTES   
+----+----+----+----+----+----+----+----+----+----+-----+-----+-----+-----+-----+-----+-----+-----+-----+-----+-----+
| T0 | T1 | T2 | T3 | T4 | T5 | T6 | T7 | T8 | T9 | T10 | T11 | T12 | T13 | T14 | T15 | T16 | T17 | T18 | T19 | T20 |
+----+----+----+----+----+----+----+----+----+----+-----+-----+-----+-----+-----+-----+-----+-----+-----+-----+-----+
| 1  | 1  | 1  | 1  | 1  | 0  | 0  | 0  | 0  | 1  |  1  |  0  |  0  |  0  |  0  |  0  |  0  |  0  |  0  |  0  |  0  |
| 0  | 0  | 0  | 0  | 0  | 1  | 1  | 1  | 1  | 1  |  1  |  0  |  0  |  0  |  0  |  0  |  0  |  0  |  0  |  0  |  0  |
| 0  | 0  | 0  | 0  | 0  | 0  | 0  | 0  | 0  | 0  |  0  |  1  |  1  |  1  |  1  |  0  |  0  |  0  |  0  |  1  |  1  |
| 0  | 0  | 0  | 0  | 0  | 0  | 0  | 0  | 0  | 0  |  0  |  0  |  0  |  0  |  0  |  1  |  1  |  1  |  1  |  1  |  1  |
+----+----+----+----+----+----+----+----+----+----+-----+-----+-----+-----+-----+-----+-----+-----+-----+-----+-----+ 

20/09/2021 20:35:26[INFO] Supervisores para agregar   
+-----+---------+---------------------+---------------------+----------------------------------------------------------------------+
|  ID | Marcado |     T - Entrada     |      T - Salida     |                          Sifon a controlar                           |
+-----+---------+---------------------+---------------------+----------------------------------------------------------------------+
| P37 |    2    | ['T2', 'T8', 'T14'] | ['T1', 'T7', 'T12'] |        ['P2', 'P8', 'P16', 'P19', 'P20', 'P22', 'P33', 'P34']        |
| P37 |    2    | ['T2', 'T8', 'T18'] | ['T1', 'T7', 'T16'] |        ['P2', 'P8', 'P14', 'P16', 'P22', 'P23', 'P33', 'P34']        |
| P37 |    2    | ['T3', 'T8', 'T18'] | ['T1', 'T7', 'T16'] |        ['P3', 'P8', 'P14', 'P16', 'P22', 'P31', 'P33', 'P34']        |
| P37 |    2    | ['T3', 'T8', 'T17'] | ['T1', 'T7', 'T16'] |    ['P3', 'P8', 'P14', 'P16', 'P22', 'P23', 'P33', 'P34', 'P35']     |
| P37 |    3    | ['T4', 'T8', 'T17'] | ['T1', 'T7', 'T16'] |    ['P4', 'P8', 'P14', 'P16', 'P22', 'P31', 'P32', 'P33', 'P34']     |
| P37 |    3    | ['T4', 'T8', 'T17'] | ['T1', 'T7', 'T16'] | ['P4', 'P8', 'P14', 'P16', 'P22', 'P23', 'P32', 'P33', 'P34', 'P35'] |
+-----+---------+---------------------+---------------------+----------------------------------------------------------------------+ 

20/09/2021 20:35:26[INFO] Supervisores agregados   
+-----+-------+---------+---------------------+---------------------+----------------+
| Nro | Plaza | Marcado |     T - Entrada     |      T - Salida     | MAL supervisor |
+-----+-------+---------+---------------------+---------------------+----------------+
|  1  |  P35  |    1    |    ['T4', 'T17']    |    ['T3', 'T16']    |     False      |
|  2  |  P36  |    2    | ['T3', 'T8', 'T17'] | ['T1', 'T7', 'T16'] |      True      |
+-----+-------+---------+---------------------+---------------------+----------------+ 

20/09/2021 20:35:26[INFO] Supervisores eliminados   
+-----+-------+---------+-------------+------------+----------------+
| Nro | Plaza | Marcado | T - Entrada | T - Salida | MAL supervisor |
+-----+-------+---------+-------------+------------+----------------+
+-----+-------+---------+-------------+------------+----------------+ 

20/09/2021 20:35:26[INFO] Ejecutando accion...   
20/09/2021 20:35:26[ACTION] Agrego supervisor con menor numero de arcos de salida (MNAS)   
20/09/2021 20:35:26[INFO] Supervisor con menor cantidad de arcos de salida agregado 1   

--------------------------------------------------------------------------   
20/09/2021 20:35:26[INFO] Ejecutando petrinator para conocer estado de la red...   
--------------------------------------------------------------------------
   
--------------------------------------------------------------------------
   
20/09/2021 20:35:56[INFO] Calculando recompensa..   
20/09/2021 20:35:56[REWARD] Agregue un supervisor que genero menos sifones vacios en deadlock, recompensa -1   

--------------------------------------------------------------------------
   
20/09/2021 20:35:56[STATE] Cambie al estado 2: Hay menos sifones vacios en deadlock   
+--------+---------+-------------------+----------------+---------+---------+------------------------+
| Plazas | Estados | Tokens trabajando | Sifones vacios | Sifones | Trampas | Supervisores agregados |
+--------+---------+-------------------+----------------+---------+---------+------------------------+
|   35   |   271   |        691        |       6        |   111   |    66   |           1            |
|   36   |   271   |        691        |       6        |   125   |    95   |           2            |
|   37   |   270   |        688        |       1        |   127   |   206   |           3            |
+--------+---------+-------------------+----------------+---------+---------+------------------------+ 
+------------------------------+------------+-----------------+--------------------+-----------------------+
|       Estados/Acciones       | + sup MNAS | + sup aleatorio | - sup MAL agregado | - ultimo sup agregado |
+------------------------------+------------+-----------------+--------------------+-----------------------+
|            Start             |   -10.0    |       0.0       |        0.0         |          0.0          |
| + sifónes vacíos en deadlock |   -30.0    |       0.0       |        0.0         |          0.0          |
| - sifónes vacíos en deadlock |    0.0     |       0.0       |        0.0         |          0.0          |
| = sifónes vacíos en deadlock |    -1.0    |       0.0       |        0.0         |          0.0          |
|             End              |    0.0     |       0.0       |        0.0         |          0.0          |
+------------------------------+------------+-----------------+--------------------+-----------------------+ 

20/09/2021 20:35:56[INFO] SIFONES   
+----+-----+--------------------------------------------------------+
| ID | Nro |                         Plazas                         |
+----+-----+--------------------------------------------------------+
| 17 |  26 | ['P2', 'P8', 'P16', 'P19', 'P20', 'P22', 'P33', 'P34'] |
+----+-----+--------------------------------------------------------+ 

20/09/2021 20:35:56[INFO] T INVARIANTES   
+----+----+----+----+----+----+----+----+----+----+-----+-----+-----+-----+-----+-----+-----+-----+-----+-----+-----+
| T0 | T1 | T2 | T3 | T4 | T5 | T6 | T7 | T8 | T9 | T10 | T11 | T12 | T13 | T14 | T15 | T16 | T17 | T18 | T19 | T20 |
+----+----+----+----+----+----+----+----+----+----+-----+-----+-----+-----+-----+-----+-----+-----+-----+-----+-----+
| 1  | 1  | 1  | 1  | 1  | 0  | 0  | 0  | 0  | 1  |  1  |  0  |  0  |  0  |  0  |  0  |  0  |  0  |  0  |  0  |  0  |
| 0  | 0  | 0  | 0  | 0  | 1  | 1  | 1  | 1  | 1  |  1  |  0  |  0  |  0  |  0  |  0  |  0  |  0  |  0  |  0  |  0  |
| 0  | 0  | 0  | 0  | 0  | 0  | 0  | 0  | 0  | 0  |  0  |  1  |  1  |  1  |  1  |  0  |  0  |  0  |  0  |  1  |  1  |
| 0  | 0  | 0  | 0  | 0  | 0  | 0  | 0  | 0  | 0  |  0  |  0  |  0  |  0  |  0  |  1  |  1  |  1  |  1  |  1  |  1  |
+----+----+----+----+----+----+----+----+----+----+-----+-----+-----+-----+-----+-----+-----+-----+-----+-----+-----+ 

20/09/2021 20:35:56[INFO] Supervisores para agregar   
+-----+---------+---------------------+---------------------+--------------------------------------------------------+
|  ID | Marcado |     T - Entrada     |      T - Salida     |                   Sifon a controlar                    |
+-----+---------+---------------------+---------------------+--------------------------------------------------------+
| P38 |    2    | ['T2', 'T8', 'T14'] | ['T1', 'T7', 'T12'] | ['P2', 'P8', 'P16', 'P19', 'P20', 'P22', 'P33', 'P34'] |
+-----+---------+---------------------+---------------------+--------------------------------------------------------+ 

20/09/2021 20:35:56[INFO] Supervisores agregados   
+-----+-------+---------+---------------------+---------------------+----------------+
| Nro | Plaza | Marcado |     T - Entrada     |      T - Salida     | MAL supervisor |
+-----+-------+---------+---------------------+---------------------+----------------+
|  1  |  P35  |    1    |    ['T4', 'T17']    |    ['T3', 'T16']    |     False      |
|  2  |  P36  |    2    | ['T3', 'T8', 'T17'] | ['T1', 'T7', 'T16'] |      True      |
|  3  |  P37  |    2    | ['T2', 'T8', 'T18'] | ['T1', 'T7', 'T16'] |     False      |
+-----+-------+---------+---------------------+---------------------+----------------+ 

20/09/2021 20:35:56[INFO] Supervisores eliminados   
+-----+-------+---------+-------------+------------+----------------+
| Nro | Plaza | Marcado | T - Entrada | T - Salida | MAL supervisor |
+-----+-------+---------+-------------+------------+----------------+
+-----+-------+---------+-------------+------------+----------------+ 

20/09/2021 20:35:56[INFO] Ejecutando accion...   
20/09/2021 20:35:56[ACTION] Agrego supervisor con menor numero de arcos de salida (MNAS)   
20/09/2021 20:35:56[INFO] Supervisor con menor cantidad de arcos de salida agregado 0   

--------------------------------------------------------------------------   
20/09/2021 20:35:56[INFO] Ejecutando petrinator para conocer estado de la red...   
--------------------------------------------------------------------------
   
--------------------------------------------------------------------------
   
20/09/2021 20:36:36[INFO] Calculando recompensa..   
20/09/2021 20:36:36[REWARD] No hay mas deadlock, recompensa 100   

--------------------------------------------------------------------------
   
20/09/2021 20:36:36[STATE] Se llego al estado deseado, NO HAY MAS DEADLOCK   

--------------------------------------------------------------------------
   
+--------+---------+-------------------+----------------+---------+---------+------------------------+
| Plazas | Estados | Tokens trabajando | Sifones vacios | Sifones | Trampas | Supervisores agregados |
+--------+---------+-------------------+----------------+---------+---------+------------------------+
|   35   |   271   |        691        |       6        |   111   |    66   |           1            |
|   36   |   271   |        691        |       6        |   125   |    95   |           2            |
|   37   |   270   |        688        |       1        |   127   |   206   |           3            |
|   38   |   269   |        685        |       0        |   259   |   210   |           4            |
+--------+---------+-------------------+----------------+---------+---------+------------------------+ 
+------------------------------+------------+-----------------+--------------------+-----------------------+
|       Estados/Acciones       | + sup MNAS | + sup aleatorio | - sup MAL agregado | - ultimo sup agregado |
+------------------------------+------------+-----------------+--------------------+-----------------------+
|            Start             |   -10.0    |       0.0       |        0.0         |          0.0          |
| + sifónes vacíos en deadlock |   -30.0    |       0.0       |        0.0         |          0.0          |
| - sifónes vacíos en deadlock |   100.0    |       0.0       |        0.0         |          0.0          |
| = sifónes vacíos en deadlock |    -1.0    |       0.0       |        0.0         |          0.0          |
|             End              |    0.0     |       0.0       |        0.0         |          0.0          |
+------------------------------+------------+-----------------+--------------------+-----------------------+ 

20/09/2021 20:36:36[INFO] Comienza proceso de eliminacion de supervisores redundantes   
20/09/2021 20:36:36[INFO] Supervisor a eliminar   
+-----+-------+---------+---------------+---------------+----------------+
| Nro | Plaza | Marcado |  T - Entrada  |   T - Salida  | MAL supervisor |
+-----+-------+---------+---------------+---------------+----------------+
|  1  |  P35  |    1    | ['T4', 'T17'] | ['T3', 'T16'] |     False      |
+-----+-------+---------+---------------+---------------+----------------+ 
20/09/2021 20:36:36[INFO] Eliminando supervisor ...   

--------------------------------------------------------------------------   
20/09/2021 20:36:36[INFO] Ejecutando petrinator para conocer estado de la red...   
--------------------------------------------------------------------------
   
20/09/2021 20:37:06[INFO] El supervisor eliminado no era redundante, volviendo a agregar supervisor   
20/09/2021 20:37:06[INFO] Se volvio a agregar correctamente el supervisor eliminado   

--------------------------------------------------------------------------   
20/09/2021 20:37:06[INFO] Ejecutando petrinator para conocer estado de la red...   
--------------------------------------------------------------------------
   
20/09/2021 20:37:50[INFO] Supervisor a eliminar   
+-----+-------+---------+---------------------+---------------------+----------------+
| Nro | Plaza | Marcado |     T - Entrada     |      T - Salida     | MAL supervisor |
+-----+-------+---------+---------------------+---------------------+----------------+
|  2  |  P36  |    2    | ['T3', 'T8', 'T17'] | ['T1', 'T7', 'T16'] |      True      |
+-----+-------+---------+---------------------+---------------------+----------------+ 
20/09/2021 20:37:50[INFO] Eliminando supervisor ...   

--------------------------------------------------------------------------   
20/09/2021 20:37:50[INFO] Ejecutando petrinator para conocer estado de la red...   
--------------------------------------------------------------------------
   
20/09/2021 20:38:21[INFO] Se elimino correctamente supervisor redundante   
20/09/2021 20:38:21[INFO] Supervisor a eliminar   
+-----+-------+---------+---------------------+---------------------+----------------+
| Nro | Plaza | Marcado |     T - Entrada     |      T - Salida     | MAL supervisor |
+-----+-------+---------+---------------------+---------------------+----------------+
|  3  |  P37  |    2    | ['T2', 'T8', 'T18'] | ['T1', 'T7', 'T16'] |     False      |
+-----+-------+---------+---------------------+---------------------+----------------+ 
20/09/2021 20:38:21[INFO] Eliminando supervisor ...   

--------------------------------------------------------------------------   
20/09/2021 20:38:21[INFO] Ejecutando petrinator para conocer estado de la red...   
--------------------------------------------------------------------------
   
20/09/2021 20:38:46[INFO] El supervisor eliminado no era redundante, volviendo a agregar supervisor   
20/09/2021 20:38:46[INFO] Se volvio a agregar correctamente el supervisor eliminado   

--------------------------------------------------------------------------   
20/09/2021 20:38:46[INFO] Ejecutando petrinator para conocer estado de la red...   
--------------------------------------------------------------------------
   
20/09/2021 20:39:17[INFO] Supervisor a eliminar   
+-----+-------+---------+---------------------+---------------------+----------------+
| Nro | Plaza | Marcado |     T - Entrada     |      T - Salida     | MAL supervisor |
+-----+-------+---------+---------------------+---------------------+----------------+
|  4  |  P38  |    2    | ['T2', 'T8', 'T14'] | ['T1', 'T7', 'T12'] |     False      |
+-----+-------+---------+---------------------+---------------------+----------------+ 
20/09/2021 20:39:17[INFO] Eliminando supervisor ...   

--------------------------------------------------------------------------   
20/09/2021 20:39:17[INFO] Ejecutando petrinator para conocer estado de la red...   
--------------------------------------------------------------------------
   
20/09/2021 20:39:41[INFO] El supervisor eliminado no era redundante, volviendo a agregar supervisor   
20/09/2021 20:39:41[INFO] Se volvio a agregar correctamente el supervisor eliminado   

--------------------------------------------------------------------------   
20/09/2021 20:39:41[INFO] Ejecutando petrinator para conocer estado de la red...   
--------------------------------------------------------------------------
   
20/09/2021 20:40:12[INFO] Se eliminaron todos los supervisores redundantes   
+--------+---------+-------------------+----------------+---------+---------+------------------------+-------------------------+
| Plazas | Estados | Tokens trabajando | Sifones vacios | Sifones | Trampas | Supervisores agregados | Supervisores eliminados |
+--------+---------+-------------------+----------------+---------+---------+------------------------+-------------------------+
|   37   |   269   |        685        |       0        |   166   |    95   |           3            |            1            |
+--------+---------+-------------------+----------------+---------+---------+------------------------+-------------------------+ 
