 p 32 
 t 19 
 Reachable states from S0 [0, 0, 1, 2, 0, 0, 0, 0, 1, 3, 0, 0, 0, 1, 1, 0, 0, 0, 0, 1, 1, 0, 0, 1, 1, 1, 1, 1, 1, 1, 2, 1] 
 T1 => S1 [1, 0, 1, 1, 0, 0, 0, 0, 1, 3, 0, 0, 0, 1, 1, 0, 0, 0, 0, 1, 1, 0, 0, 1, 1, 0, 0, 0, 1, 1, 1, 0] 
 T4 => S4 [0, 0, 1, 2, 1, 0, 0, 0, 1, 2, 0, 0, 0, 1, 1, 0, 0, 0, 0, 1, 1, 0, 0, 1, 0, 1, 1, 1, 0, 0, 1, 0] 
 T18 => S33 [0, 0, 1, 2, 0, 0, 0, 0, 1, 3, 0, 0, 0, 1, 1, 0, 0, 0, 0, 1, 1, 1, 0, 0, 0, 1, 0, 0, 1, 0, 1, 0] 
 
 Reachable states from S1 [1, 0, 1, 1, 0, 0, 0, 0, 1, 3, 0, 0, 0, 1, 1, 0, 0, 0, 0, 1, 1, 0, 0, 1, 1, 0, 0, 0, 1, 1, 1, 0] 
 T2 => S2 [0, 1, 0, 1, 0, 0, 0, 0, 1, 3, 0, 0, 0, 1, 1, 0, 0, 0, 0, 1, 1, 0, 0, 1, 0, 1, 1, 1, 0, 0, 2, 1] 
 
 Reachable states from S2 [0, 1, 0, 1, 0, 0, 0, 0, 1, 3, 0, 0, 0, 1, 1, 0, 0, 0, 0, 1, 1, 0, 0, 1, 0, 1, 1, 1, 0, 0, 2, 1] 
 T3 => S0 [0, 0, 1, 2, 0, 0, 0, 0, 1, 3, 0, 0, 0, 1, 1, 0, 0, 0, 0, 1, 1, 0, 0, 1, 1, 1, 1, 1, 1, 1, 2, 1] 
 T1 => S3 [1, 1, 0, 0, 0, 0, 0, 0, 1, 3, 0, 0, 0, 1, 1, 0, 0, 0, 0, 1, 1, 0, 0, 1, 0, 0, 0, 0, 0, 0, 1, 0] 
 
 Reachable states from S3 [1, 1, 0, 0, 0, 0, 0, 0, 1, 3, 0, 0, 0, 1, 1, 0, 0, 0, 0, 1, 1, 0, 0, 1, 0, 0, 0, 0, 0, 0, 1, 0] 
 T3 => S1 [1, 0, 1, 1, 0, 0, 0, 0, 1, 3, 0, 0, 0, 1, 1, 0, 0, 0, 0, 1, 1, 0, 0, 1, 1, 0, 0, 0, 1, 1, 1, 0] 
 
 Reachable states from S4 [0, 0, 1, 2, 1, 0, 0, 0, 1, 2, 0, 0, 0, 1, 1, 0, 0, 0, 0, 1, 1, 0, 0, 1, 0, 1, 1, 1, 0, 0, 1, 0] 
 T5 => S5 [0, 0, 1, 2, 0, 1, 0, 0, 1, 2, 0, 0, 0, 1, 1, 0, 0, 0, 0, 1, 1, 0, 0, 1, 1, 0, 1, 1, 1, 1, 1, 1] 
 
 Reachable states from S5 [0, 0, 1, 2, 0, 1, 0, 0, 1, 2, 0, 0, 0, 1, 1, 0, 0, 0, 0, 1, 1, 0, 0, 1, 1, 0, 1, 1, 1, 1, 1, 1] 
 T4 => S6 [0, 0, 1, 2, 1, 1, 0, 0, 1, 1, 0, 0, 0, 1, 1, 0, 0, 0, 0, 1, 1, 0, 0, 1, 0, 0, 1, 1, 0, 0, 0, 0] 
 T6 => S27 [0, 0, 1, 2, 0, 0, 1, 0, 0, 2, 0, 0, 0, 1, 1, 0, 0, 0, 0, 1, 1, 0, 0, 1, 1, 1, 0, 0, 1, 1, 2, 1] 
 T18 => S43 [0, 0, 1, 2, 0, 1, 0, 0, 1, 2, 0, 0, 0, 1, 1, 0, 0, 0, 0, 1, 1, 1, 0, 0, 0, 0, 0, 0, 1, 0, 0, 0] 
 
 Reachable states from S6 [0, 0, 1, 2, 1, 1, 0, 0, 1, 1, 0, 0, 0, 1, 1, 0, 0, 0, 0, 1, 1, 0, 0, 1, 0, 0, 1, 1, 0, 0, 0, 0] 
 T6 => S7 [0, 0, 1, 2, 1, 0, 1, 0, 0, 1, 0, 0, 0, 1, 1, 0, 0, 0, 0, 1, 1, 0, 0, 1, 0, 1, 0, 0, 0, 0, 1, 0] 
 
 Reachable states from S7 [0, 0, 1, 2, 1, 0, 1, 0, 0, 1, 0, 0, 0, 1, 1, 0, 0, 0, 0, 1, 1, 0, 0, 1, 0, 1, 0, 0, 0, 0, 1, 0] 
 T5 => S8 [0, 0, 1, 2, 0, 1, 1, 0, 0, 1, 0, 0, 0, 1, 1, 0, 0, 0, 0, 1, 1, 0, 0, 1, 1, 0, 0, 0, 1, 1, 1, 1] 
 T7 => S24 [0, 0, 1, 2, 1, 0, 0, 1, 1, 1, 0, 0, 0, 1, 1, 0, 0, 0, 0, 1, 1, 0, 0, 1, 0, 1, 1, 1, 0, 0, 1, 0] 
 
 Reachable states from S8 [0, 0, 1, 2, 0, 1, 1, 0, 0, 1, 0, 0, 0, 1, 1, 0, 0, 0, 0, 1, 1, 0, 0, 1, 1, 0, 0, 0, 1, 1, 1, 1] 
 T4 => S9 [0, 0, 1, 2, 1, 1, 1, 0, 0, 0, 0, 0, 0, 1, 1, 0, 0, 0, 0, 1, 1, 0, 0, 1, 0, 0, 0, 0, 0, 0, 0, 0] 
 T7 => S25 [0, 0, 1, 2, 0, 1, 0, 1, 1, 1, 0, 0, 0, 1, 1, 0, 0, 0, 0, 1, 1, 0, 0, 1, 1, 0, 1, 1, 1, 1, 1, 1] 
 
 Reachable states from S9 [0, 0, 1, 2, 1, 1, 1, 0, 0, 0, 0, 0, 0, 1, 1, 0, 0, 0, 0, 1, 1, 0, 0, 1, 0, 0, 0, 0, 0, 0, 0, 0] 
 T7 => S10 [0, 0, 1, 2, 1, 1, 0, 1, 1, 0, 0, 0, 0, 1, 1, 0, 0, 0, 0, 1, 1, 0, 0, 1, 0, 0, 1, 1, 0, 0, 0, 0] 
 
 Reachable states from S10 [0, 0, 1, 2, 1, 1, 0, 1, 1, 0, 0, 0, 0, 1, 1, 0, 0, 0, 0, 1, 1, 0, 0, 1, 0, 0, 1, 1, 0, 0, 0, 0] 
 T8 => S6 [0, 0, 1, 2, 1, 1, 0, 0, 1, 1, 0, 0, 0, 1, 1, 0, 0, 0, 0, 1, 1, 0, 0, 1, 0, 0, 1, 1, 0, 0, 0, 0] 
 T6 => S11 [0, 0, 1, 2, 1, 0, 1, 1, 0, 0, 0, 0, 0, 1, 1, 0, 0, 0, 0, 1, 1, 0, 0, 1, 0, 1, 0, 0, 0, 0, 1, 0] 
 
 Reachable states from S11 [0, 0, 1, 2, 1, 0, 1, 1, 0, 0, 0, 0, 0, 1, 1, 0, 0, 0, 0, 1, 1, 0, 0, 1, 0, 1, 0, 0, 0, 0, 1, 0] 
 T8 => S7 [0, 0, 1, 2, 1, 0, 1, 0, 0, 1, 0, 0, 0, 1, 1, 0, 0, 0, 0, 1, 1, 0, 0, 1, 0, 1, 0, 0, 0, 0, 1, 0] 
 T5 => S12 [0, 0, 1, 2, 0, 1, 1, 1, 0, 0, 0, 0, 0, 1, 1, 0, 0, 0, 0, 1, 1, 0, 0, 1, 1, 0, 0, 0, 1, 1, 1, 1] 
 T7 => S23 [0, 0, 1, 2, 1, 0, 0, 2, 1, 0, 0, 0, 0, 1, 1, 0, 0, 0, 0, 1, 1, 0, 0, 1, 0, 1, 1, 1, 0, 0, 1, 0] 
 
 Reachable states from S12 [0, 0, 1, 2, 0, 1, 1, 1, 0, 0, 0, 0, 0, 1, 1, 0, 0, 0, 0, 1, 1, 0, 0, 1, 1, 0, 0, 0, 1, 1, 1, 1] 
 T8 => S8 [0, 0, 1, 2, 0, 1, 1, 0, 0, 1, 0, 0, 0, 1, 1, 0, 0, 0, 0, 1, 1, 0, 0, 1, 1, 0, 0, 0, 1, 1, 1, 1] 
 T7 => S13 [0, 0, 1, 2, 0, 1, 0, 2, 1, 0, 0, 0, 0, 1, 1, 0, 0, 0, 0, 1, 1, 0, 0, 1, 1, 0, 1, 1, 1, 1, 1, 1] 
 
 Reachable states from S13 [0, 0, 1, 2, 0, 1, 0, 2, 1, 0, 0, 0, 0, 1, 1, 0, 0, 0, 0, 1, 1, 0, 0, 1, 1, 0, 1, 1, 1, 1, 1, 1] 
 T6 => S14 [0, 0, 1, 2, 0, 0, 1, 2, 0, 0, 0, 0, 0, 1, 1, 0, 0, 0, 0, 1, 1, 0, 0, 1, 1, 1, 0, 0, 1, 1, 2, 1] 
 T8 => S25 [0, 0, 1, 2, 0, 1, 0, 1, 1, 1, 0, 0, 0, 1, 1, 0, 0, 0, 0, 1, 1, 0, 0, 1, 1, 0, 1, 1, 1, 1, 1, 1] 
 T18 => S70 [0, 0, 1, 2, 0, 1, 0, 2, 1, 0, 0, 0, 0, 1, 1, 0, 0, 0, 0, 1, 1, 1, 0, 0, 0, 0, 0, 0, 1, 0, 0, 0] 
 
 Reachable states from S14 [0, 0, 1, 2, 0, 0, 1, 2, 0, 0, 0, 0, 0, 1, 1, 0, 0, 0, 0, 1, 1, 0, 0, 1, 1, 1, 0, 0, 1, 1, 2, 1] 
 T7 => S15 [0, 0, 1, 2, 0, 0, 0, 3, 1, 0, 0, 0, 0, 1, 1, 0, 0, 0, 0, 1, 1, 0, 0, 1, 1, 1, 1, 1, 1, 1, 2, 1] 
 T8 => S26 [0, 0, 1, 2, 0, 0, 1, 1, 0, 1, 0, 0, 0, 1, 1, 0, 0, 0, 0, 1, 1, 0, 0, 1, 1, 1, 0, 0, 1, 1, 2, 1] 
 
 Reachable states from S15 [0, 0, 1, 2, 0, 0, 0, 3, 1, 0, 0, 0, 0, 1, 1, 0, 0, 0, 0, 1, 1, 0, 0, 1, 1, 1, 1, 1, 1, 1, 2, 1] 
 T1 => S16 [1, 0, 1, 1, 0, 0, 0, 3, 1, 0, 0, 0, 0, 1, 1, 0, 0, 0, 0, 1, 1, 0, 0, 1, 1, 0, 0, 0, 1, 1, 1, 0] 
 T8 => S22 [0, 0, 1, 2, 0, 0, 0, 2, 1, 1, 0, 0, 0, 1, 1, 0, 0, 0, 0, 1, 1, 0, 0, 1, 1, 1, 1, 1, 1, 1, 2, 1] 
 T18 => S65 [0, 0, 1, 2, 0, 0, 0, 3, 1, 0, 0, 0, 0, 1, 1, 0, 0, 0, 0, 1, 1, 1, 0, 0, 0, 1, 0, 0, 1, 0, 1, 0] 
 
 Reachable states from S16 [1, 0, 1, 1, 0, 0, 0, 3, 1, 0, 0, 0, 0, 1, 1, 0, 0, 0, 0, 1, 1, 0, 0, 1, 1, 0, 0, 0, 1, 1, 1, 0] 
 T2 => S17 [0, 1, 0, 1, 0, 0, 0, 3, 1, 0, 0, 0, 0, 1, 1, 0, 0, 0, 0, 1, 1, 0, 0, 1, 0, 1, 1, 1, 0, 0, 2, 1] 
 T8 => S20 [1, 0, 1, 1, 0, 0, 0, 2, 1, 1, 0, 0, 0, 1, 1, 0, 0, 0, 0, 1, 1, 0, 0, 1, 1, 0, 0, 0, 1, 1, 1, 0] 
 
 Reachable states from S17 [0, 1, 0, 1, 0, 0, 0, 3, 1, 0, 0, 0, 0, 1, 1, 0, 0, 0, 0, 1, 1, 0, 0, 1, 0, 1, 1, 1, 0, 0, 2, 1] 
 T3 => S15 [0, 0, 1, 2, 0, 0, 0, 3, 1, 0, 0, 0, 0, 1, 1, 0, 0, 0, 0, 1, 1, 0, 0, 1, 1, 1, 1, 1, 1, 1, 2, 1] 
 T1 => S18 [1, 1, 0, 0, 0, 0, 0, 3, 1, 0, 0, 0, 0, 1, 1, 0, 0, 0, 0, 1, 1, 0, 0, 1, 0, 0, 0, 0, 0, 0, 1, 0] 
 T8 => S21 [0, 1, 0, 1, 0, 0, 0, 2, 1, 1, 0, 0, 0, 1, 1, 0, 0, 0, 0, 1, 1, 0, 0, 1, 0, 1, 1, 1, 0, 0, 2, 1] 
 
 Reachable states from S18 [1, 1, 0, 0, 0, 0, 0, 3, 1, 0, 0, 0, 0, 1, 1, 0, 0, 0, 0, 1, 1, 0, 0, 1, 0, 0, 0, 0, 0, 0, 1, 0] 
 T3 => S16 [1, 0, 1, 1, 0, 0, 0, 3, 1, 0, 0, 0, 0, 1, 1, 0, 0, 0, 0, 1, 1, 0, 0, 1, 1, 0, 0, 0, 1, 1, 1, 0] 
 T8 => S19 [1, 1, 0, 0, 0, 0, 0, 2, 1, 1, 0, 0, 0, 1, 1, 0, 0, 0, 0, 1, 1, 0, 0, 1, 0, 0, 0, 0, 0, 0, 1, 0] 
 
 Reachable states from S19 [1, 1, 0, 0, 0, 0, 0, 2, 1, 1, 0, 0, 0, 1, 1, 0, 0, 0, 0, 1, 1, 0, 0, 1, 0, 0, 0, 0, 0, 0, 1, 0] 
 T3 => S20 [1, 0, 1, 1, 0, 0, 0, 2, 1, 1, 0, 0, 0, 1, 1, 0, 0, 0, 0, 1, 1, 0, 0, 1, 1, 0, 0, 0, 1, 1, 1, 0] 
 T8 => S31 [1, 1, 0, 0, 0, 0, 0, 1, 1, 2, 0, 0, 0, 1, 1, 0, 0, 0, 0, 1, 1, 0, 0, 1, 0, 0, 0, 0, 0, 0, 1, 0] 
 
 Reachable states from S20 [1, 0, 1, 1, 0, 0, 0, 2, 1, 1, 0, 0, 0, 1, 1, 0, 0, 0, 0, 1, 1, 0, 0, 1, 1, 0, 0, 0, 1, 1, 1, 0] 
 T2 => S21 [0, 1, 0, 1, 0, 0, 0, 2, 1, 1, 0, 0, 0, 1, 1, 0, 0, 0, 0, 1, 1, 0, 0, 1, 0, 1, 1, 1, 0, 0, 2, 1] 
 T8 => S29 [1, 0, 1, 1, 0, 0, 0, 1, 1, 2, 0, 0, 0, 1, 1, 0, 0, 0, 0, 1, 1, 0, 0, 1, 1, 0, 0, 0, 1, 1, 1, 0] 
 
 Reachable states from S21 [0, 1, 0, 1, 0, 0, 0, 2, 1, 1, 0, 0, 0, 1, 1, 0, 0, 0, 0, 1, 1, 0, 0, 1, 0, 1, 1, 1, 0, 0, 2, 1] 
 T1 => S19 [1, 1, 0, 0, 0, 0, 0, 2, 1, 1, 0, 0, 0, 1, 1, 0, 0, 0, 0, 1, 1, 0, 0, 1, 0, 0, 0, 0, 0, 0, 1, 0] 
 T3 => S22 [0, 0, 1, 2, 0, 0, 0, 2, 1, 1, 0, 0, 0, 1, 1, 0, 0, 0, 0, 1, 1, 0, 0, 1, 1, 1, 1, 1, 1, 1, 2, 1] 
 T8 => S30 [0, 1, 0, 1, 0, 0, 0, 1, 1, 2, 0, 0, 0, 1, 1, 0, 0, 0, 0, 1, 1, 0, 0, 1, 0, 1, 1, 1, 0, 0, 2, 1] 
 
 Reachable states from S22 [0, 0, 1, 2, 0, 0, 0, 2, 1, 1, 0, 0, 0, 1, 1, 0, 0, 0, 0, 1, 1, 0, 0, 1, 1, 1, 1, 1, 1, 1, 2, 1] 
 T1 => S20 [1, 0, 1, 1, 0, 0, 0, 2, 1, 1, 0, 0, 0, 1, 1, 0, 0, 0, 0, 1, 1, 0, 0, 1, 1, 0, 0, 0, 1, 1, 1, 0] 
 T4 => S23 [0, 0, 1, 2, 1, 0, 0, 2, 1, 0, 0, 0, 0, 1, 1, 0, 0, 0, 0, 1, 1, 0, 0, 1, 0, 1, 1, 1, 0, 0, 1, 0] 
 T8 => S28 [0, 0, 1, 2, 0, 0, 0, 1, 1, 2, 0, 0, 0, 1, 1, 0, 0, 0, 0, 1, 1, 0, 0, 1, 1, 1, 1, 1, 1, 1, 2, 1] 
 T18 => S64 [0, 0, 1, 2, 0, 0, 0, 2, 1, 1, 0, 0, 0, 1, 1, 0, 0, 0, 0, 1, 1, 1, 0, 0, 0, 1, 0, 0, 1, 0, 1, 0] 
 
 Reachable states from S23 [0, 0, 1, 2, 1, 0, 0, 2, 1, 0, 0, 0, 0, 1, 1, 0, 0, 0, 0, 1, 1, 0, 0, 1, 0, 1, 1, 1, 0, 0, 1, 0] 
 T5 => S13 [0, 0, 1, 2, 0, 1, 0, 2, 1, 0, 0, 0, 0, 1, 1, 0, 0, 0, 0, 1, 1, 0, 0, 1, 1, 0, 1, 1, 1, 1, 1, 1] 
 T8 => S24 [0, 0, 1, 2, 1, 0, 0, 1, 1, 1, 0, 0, 0, 1, 1, 0, 0, 0, 0, 1, 1, 0, 0, 1, 0, 1, 1, 1, 0, 0, 1, 0] 
 
 Reachable states from S24 [0, 0, 1, 2, 1, 0, 0, 1, 1, 1, 0, 0, 0, 1, 1, 0, 0, 0, 0, 1, 1, 0, 0, 1, 0, 1, 1, 1, 0, 0, 1, 0] 
 T8 => S4 [0, 0, 1, 2, 1, 0, 0, 0, 1, 2, 0, 0, 0, 1, 1, 0, 0, 0, 0, 1, 1, 0, 0, 1, 0, 1, 1, 1, 0, 0, 1, 0] 
 T5 => S25 [0, 0, 1, 2, 0, 1, 0, 1, 1, 1, 0, 0, 0, 1, 1, 0, 0, 0, 0, 1, 1, 0, 0, 1, 1, 0, 1, 1, 1, 1, 1, 1] 
 
 Reachable states from S25 [0, 0, 1, 2, 0, 1, 0, 1, 1, 1, 0, 0, 0, 1, 1, 0, 0, 0, 0, 1, 1, 0, 0, 1, 1, 0, 1, 1, 1, 1, 1, 1] 
 T8 => S5 [0, 0, 1, 2, 0, 1, 0, 0, 1, 2, 0, 0, 0, 1, 1, 0, 0, 0, 0, 1, 1, 0, 0, 1, 1, 0, 1, 1, 1, 1, 1, 1] 
 T4 => S10 [0, 0, 1, 2, 1, 1, 0, 1, 1, 0, 0, 0, 0, 1, 1, 0, 0, 0, 0, 1, 1, 0, 0, 1, 0, 0, 1, 1, 0, 0, 0, 0] 
 T6 => S26 [0, 0, 1, 2, 0, 0, 1, 1, 0, 1, 0, 0, 0, 1, 1, 0, 0, 0, 0, 1, 1, 0, 0, 1, 1, 1, 0, 0, 1, 1, 2, 1] 
 T18 => S42 [0, 0, 1, 2, 0, 1, 0, 1, 1, 1, 0, 0, 0, 1, 1, 0, 0, 0, 0, 1, 1, 1, 0, 0, 0, 0, 0, 0, 1, 0, 0, 0] 
 
 Reachable states from S26 [0, 0, 1, 2, 0, 0, 1, 1, 0, 1, 0, 0, 0, 1, 1, 0, 0, 0, 0, 1, 1, 0, 0, 1, 1, 1, 0, 0, 1, 1, 2, 1] 
 T4 => S11 [0, 0, 1, 2, 1, 0, 1, 1, 0, 0, 0, 0, 0, 1, 1, 0, 0, 0, 0, 1, 1, 0, 0, 1, 0, 1, 0, 0, 0, 0, 1, 0] 
 T7 => S22 [0, 0, 1, 2, 0, 0, 0, 2, 1, 1, 0, 0, 0, 1, 1, 0, 0, 0, 0, 1, 1, 0, 0, 1, 1, 1, 1, 1, 1, 1, 2, 1] 
 T8 => S27 [0, 0, 1, 2, 0, 0, 1, 0, 0, 2, 0, 0, 0, 1, 1, 0, 0, 0, 0, 1, 1, 0, 0, 1, 1, 1, 0, 0, 1, 1, 2, 1] 
 
 Reachable states from S27 [0, 0, 1, 2, 0, 0, 1, 0, 0, 2, 0, 0, 0, 1, 1, 0, 0, 0, 0, 1, 1, 0, 0, 1, 1, 1, 0, 0, 1, 1, 2, 1] 
 T4 => S7 [0, 0, 1, 2, 1, 0, 1, 0, 0, 1, 0, 0, 0, 1, 1, 0, 0, 0, 0, 1, 1, 0, 0, 1, 0, 1, 0, 0, 0, 0, 1, 0] 
 T7 => S28 [0, 0, 1, 2, 0, 0, 0, 1, 1, 2, 0, 0, 0, 1, 1, 0, 0, 0, 0, 1, 1, 0, 0, 1, 1, 1, 1, 1, 1, 1, 2, 1] 
 
 Reachable states from S28 [0, 0, 1, 2, 0, 0, 0, 1, 1, 2, 0, 0, 0, 1, 1, 0, 0, 0, 0, 1, 1, 0, 0, 1, 1, 1, 1, 1, 1, 1, 2, 1] 
 T8 => S0 [0, 0, 1, 2, 0, 0, 0, 0, 1, 3, 0, 0, 0, 1, 1, 0, 0, 0, 0, 1, 1, 0, 0, 1, 1, 1, 1, 1, 1, 1, 2, 1] 
 T4 => S24 [0, 0, 1, 2, 1, 0, 0, 1, 1, 1, 0, 0, 0, 1, 1, 0, 0, 0, 0, 1, 1, 0, 0, 1, 0, 1, 1, 1, 0, 0, 1, 0] 
 T1 => S29 [1, 0, 1, 1, 0, 0, 0, 1, 1, 2, 0, 0, 0, 1, 1, 0, 0, 0, 0, 1, 1, 0, 0, 1, 1, 0, 0, 0, 1, 1, 1, 0] 
 T18 => S32 [0, 0, 1, 2, 0, 0, 0, 1, 1, 2, 0, 0, 0, 1, 1, 0, 0, 0, 0, 1, 1, 1, 0, 0, 0, 1, 0, 0, 1, 0, 1, 0] 
 
 Reachable states from S29 [1, 0, 1, 1, 0, 0, 0, 1, 1, 2, 0, 0, 0, 1, 1, 0, 0, 0, 0, 1, 1, 0, 0, 1, 1, 0, 0, 0, 1, 1, 1, 0] 
 T8 => S1 [1, 0, 1, 1, 0, 0, 0, 0, 1, 3, 0, 0, 0, 1, 1, 0, 0, 0, 0, 1, 1, 0, 0, 1, 1, 0, 0, 0, 1, 1, 1, 0] 
 T2 => S30 [0, 1, 0, 1, 0, 0, 0, 1, 1, 2, 0, 0, 0, 1, 1, 0, 0, 0, 0, 1, 1, 0, 0, 1, 0, 1, 1, 1, 0, 0, 2, 1] 
 
 Reachable states from S30 [0, 1, 0, 1, 0, 0, 0, 1, 1, 2, 0, 0, 0, 1, 1, 0, 0, 0, 0, 1, 1, 0, 0, 1, 0, 1, 1, 1, 0, 0, 2, 1] 
 T8 => S2 [0, 1, 0, 1, 0, 0, 0, 0, 1, 3, 0, 0, 0, 1, 1, 0, 0, 0, 0, 1, 1, 0, 0, 1, 0, 1, 1, 1, 0, 0, 2, 1] 
 T3 => S28 [0, 0, 1, 2, 0, 0, 0, 1, 1, 2, 0, 0, 0, 1, 1, 0, 0, 0, 0, 1, 1, 0, 0, 1, 1, 1, 1, 1, 1, 1, 2, 1] 
 T1 => S31 [1, 1, 0, 0, 0, 0, 0, 1, 1, 2, 0, 0, 0, 1, 1, 0, 0, 0, 0, 1, 1, 0, 0, 1, 0, 0, 0, 0, 0, 0, 1, 0] 
 
 Reachable states from S31 [1, 1, 0, 0, 0, 0, 0, 1, 1, 2, 0, 0, 0, 1, 1, 0, 0, 0, 0, 1, 1, 0, 0, 1, 0, 0, 0, 0, 0, 0, 1, 0] 
 T8 => S3 [1, 1, 0, 0, 0, 0, 0, 0, 1, 3, 0, 0, 0, 1, 1, 0, 0, 0, 0, 1, 1, 0, 0, 1, 0, 0, 0, 0, 0, 0, 1, 0] 
 T3 => S29 [1, 0, 1, 1, 0, 0, 0, 1, 1, 2, 0, 0, 0, 1, 1, 0, 0, 0, 0, 1, 1, 0, 0, 1, 1, 0, 0, 0, 1, 1, 1, 0] 
 
 Reachable states from S32 [0, 0, 1, 2, 0, 0, 0, 1, 1, 2, 0, 0, 0, 1, 1, 0, 0, 0, 0, 1, 1, 1, 0, 0, 0, 1, 0, 0, 1, 0, 1, 0] 
 T8 => S33 [0, 0, 1, 2, 0, 0, 0, 0, 1, 3, 0, 0, 0, 1, 1, 0, 0, 0, 0, 1, 1, 1, 0, 0, 0, 1, 0, 0, 1, 0, 1, 0] 
 T13 => S38 [0, 0, 1, 2, 0, 0, 0, 1, 1, 2, 0, 0, 0, 1, 1, 1, 0, 0, 0, 1, 0, 0, 0, 0, 1, 1, 1, 1, 1, 1, 1, 0] 
 
 Reachable states from S33 [0, 0, 1, 2, 0, 0, 0, 0, 1, 3, 0, 0, 0, 1, 1, 0, 0, 0, 0, 1, 1, 1, 0, 0, 0, 1, 0, 0, 1, 0, 1, 0] 
 T13 => S34 [0, 0, 1, 2, 0, 0, 0, 0, 1, 3, 0, 0, 0, 1, 1, 1, 0, 0, 0, 1, 0, 0, 0, 0, 1, 1, 1, 1, 1, 1, 1, 0] 
 
 Reachable states from S34 [0, 0, 1, 2, 0, 0, 0, 0, 1, 3, 0, 0, 0, 1, 1, 1, 0, 0, 0, 1, 0, 0, 0, 0, 1, 1, 1, 1, 1, 1, 1, 0] 
 T14 => S35 [0, 0, 1, 2, 0, 0, 0, 0, 1, 3, 0, 0, 0, 1, 1, 0, 1, 0, 0, 0, 1, 0, 0, 0, 1, 1, 1, 1, 1, 1, 1, 0] 
 
 Reachable states from S35 [0, 0, 1, 2, 0, 0, 0, 0, 1, 3, 0, 0, 0, 1, 1, 0, 1, 0, 0, 0, 1, 0, 0, 0, 1, 1, 1, 1, 1, 1, 1, 0] 
 T15 => S36 [0, 0, 1, 2, 0, 0, 0, 0, 1, 3, 0, 0, 0, 1, 1, 0, 0, 1, 0, 1, 1, 0, 0, 0, 1, 1, 1, 1, 1, 1, 1, 0] 
 
 Reachable states from S36 [0, 0, 1, 2, 0, 0, 0, 0, 1, 3, 0, 0, 0, 1, 1, 0, 0, 1, 0, 1, 1, 0, 0, 0, 1, 1, 1, 1, 1, 1, 1, 0] 
 T16 => S37 [0, 0, 1, 2, 0, 0, 0, 0, 1, 3, 0, 0, 0, 1, 1, 0, 0, 0, 1, 1, 1, 0, 0, 0, 1, 1, 1, 1, 0, 0, 1, 0] 
 Deadlock on S37 [0, 0, 1, 2, 0, 0, 0, 0, 1, 3, 0, 0, 0, 1, 1, 0, 0, 0, 1, 1, 1, 0, 0, 0, 1, 1, 1, 1, 0, 0, 1, 0] 
 
 Reachable states from S38 [0, 0, 1, 2, 0, 0, 0, 1, 1, 2, 0, 0, 0, 1, 1, 1, 0, 0, 0, 1, 0, 0, 0, 0, 1, 1, 1, 1, 1, 1, 1, 0] 
 T8 => S34 [0, 0, 1, 2, 0, 0, 0, 0, 1, 3, 0, 0, 0, 1, 1, 1, 0, 0, 0, 1, 0, 0, 0, 0, 1, 1, 1, 1, 1, 1, 1, 0] 
 T14 => S39 [0, 0, 1, 2, 0, 0, 0, 1, 1, 2, 0, 0, 0, 1, 1, 0, 1, 0, 0, 0, 1, 0, 0, 0, 1, 1, 1, 1, 1, 1, 1, 0] 
 
 Reachable states from S39 [0, 0, 1, 2, 0, 0, 0, 1, 1, 2, 0, 0, 0, 1, 1, 0, 1, 0, 0, 0, 1, 0, 0, 0, 1, 1, 1, 1, 1, 1, 1, 0] 
 T8 => S35 [0, 0, 1, 2, 0, 0, 0, 0, 1, 3, 0, 0, 0, 1, 1, 0, 1, 0, 0, 0, 1, 0, 0, 0, 1, 1, 1, 1, 1, 1, 1, 0] 
 T15 => S40 [0, 0, 1, 2, 0, 0, 0, 1, 1, 2, 0, 0, 0, 1, 1, 0, 0, 1, 0, 1, 1, 0, 0, 0, 1, 1, 1, 1, 1, 1, 1, 0] 
 
 Reachable states from S40 [0, 0, 1, 2, 0, 0, 0, 1, 1, 2, 0, 0, 0, 1, 1, 0, 0, 1, 0, 1, 1, 0, 0, 0, 1, 1, 1, 1, 1, 1, 1, 0] 
 T8 => S36 [0, 0, 1, 2, 0, 0, 0, 0, 1, 3, 0, 0, 0, 1, 1, 0, 0, 1, 0, 1, 1, 0, 0, 0, 1, 1, 1, 1, 1, 1, 1, 0] 
 T16 => S41 [0, 0, 1, 2, 0, 0, 0, 1, 1, 2, 0, 0, 0, 1, 1, 0, 0, 0, 1, 1, 1, 0, 0, 0, 1, 1, 1, 1, 0, 0, 1, 0] 
 
 Reachable states from S41 [0, 0, 1, 2, 0, 0, 0, 1, 1, 2, 0, 0, 0, 1, 1, 0, 0, 0, 1, 1, 1, 0, 0, 0, 1, 1, 1, 1, 0, 0, 1, 0] 
 T8 => S37 [0, 0, 1, 2, 0, 0, 0, 0, 1, 3, 0, 0, 0, 1, 1, 0, 0, 0, 1, 1, 1, 0, 0, 0, 1, 1, 1, 1, 0, 0, 1, 0] 
 
 Reachable states from S42 [0, 0, 1, 2, 0, 1, 0, 1, 1, 1, 0, 0, 0, 1, 1, 0, 0, 0, 0, 1, 1, 1, 0, 0, 0, 0, 0, 0, 1, 0, 0, 0] 
 T8 => S43 [0, 0, 1, 2, 0, 1, 0, 0, 1, 2, 0, 0, 0, 1, 1, 0, 0, 0, 0, 1, 1, 1, 0, 0, 0, 0, 0, 0, 1, 0, 0, 0] 
 T13 => S52 [0, 0, 1, 2, 0, 1, 0, 1, 1, 1, 0, 0, 0, 1, 1, 1, 0, 0, 0, 1, 0, 0, 0, 0, 1, 0, 1, 1, 1, 1, 0, 0] 
 
 Reachable states from S43 [0, 0, 1, 2, 0, 1, 0, 0, 1, 2, 0, 0, 0, 1, 1, 0, 0, 0, 0, 1, 1, 1, 0, 0, 0, 0, 0, 0, 1, 0, 0, 0] 
 T13 => S44 [0, 0, 1, 2, 0, 1, 0, 0, 1, 2, 0, 0, 0, 1, 1, 1, 0, 0, 0, 1, 0, 0, 0, 0, 1, 0, 1, 1, 1, 1, 0, 0] 
 
 Reachable states from S44 [0, 0, 1, 2, 0, 1, 0, 0, 1, 2, 0, 0, 0, 1, 1, 1, 0, 0, 0, 1, 0, 0, 0, 0, 1, 0, 1, 1, 1, 1, 0, 0] 
 T6 => S45 [0, 0, 1, 2, 0, 0, 1, 0, 0, 2, 0, 0, 0, 1, 1, 1, 0, 0, 0, 1, 0, 0, 0, 0, 1, 1, 0, 0, 1, 1, 1, 0] 
 T14 => S49 [0, 0, 1, 2, 0, 1, 0, 0, 1, 2, 0, 0, 0, 1, 1, 0, 1, 0, 0, 0, 1, 0, 0, 0, 1, 0, 1, 1, 1, 1, 0, 0] 
 
 Reachable states from S45 [0, 0, 1, 2, 0, 0, 1, 0, 0, 2, 0, 0, 0, 1, 1, 1, 0, 0, 0, 1, 0, 0, 0, 0, 1, 1, 0, 0, 1, 1, 1, 0] 
 T7 => S38 [0, 0, 1, 2, 0, 0, 0, 1, 1, 2, 0, 0, 0, 1, 1, 1, 0, 0, 0, 1, 0, 0, 0, 0, 1, 1, 1, 1, 1, 1, 1, 0] 
 T14 => S46 [0, 0, 1, 2, 0, 0, 1, 0, 0, 2, 0, 0, 0, 1, 1, 0, 1, 0, 0, 0, 1, 0, 0, 0, 1, 1, 0, 0, 1, 1, 1, 0] 
 
 Reachable states from S46 [0, 0, 1, 2, 0, 0, 1, 0, 0, 2, 0, 0, 0, 1, 1, 0, 1, 0, 0, 0, 1, 0, 0, 0, 1, 1, 0, 0, 1, 1, 1, 0] 
 T7 => S39 [0, 0, 1, 2, 0, 0, 0, 1, 1, 2, 0, 0, 0, 1, 1, 0, 1, 0, 0, 0, 1, 0, 0, 0, 1, 1, 1, 1, 1, 1, 1, 0] 
 T15 => S47 [0, 0, 1, 2, 0, 0, 1, 0, 0, 2, 0, 0, 0, 1, 1, 0, 0, 1, 0, 1, 1, 0, 0, 0, 1, 1, 0, 0, 1, 1, 1, 0] 
 
 Reachable states from S47 [0, 0, 1, 2, 0, 0, 1, 0, 0, 2, 0, 0, 0, 1, 1, 0, 0, 1, 0, 1, 1, 0, 0, 0, 1, 1, 0, 0, 1, 1, 1, 0] 
 T7 => S40 [0, 0, 1, 2, 0, 0, 0, 1, 1, 2, 0, 0, 0, 1, 1, 0, 0, 1, 0, 1, 1, 0, 0, 0, 1, 1, 1, 1, 1, 1, 1, 0] 
 T16 => S48 [0, 0, 1, 2, 0, 0, 1, 0, 0, 2, 0, 0, 0, 1, 1, 0, 0, 0, 1, 1, 1, 0, 0, 0, 1, 1, 0, 0, 0, 0, 1, 0] 
 
 Reachable states from S48 [0, 0, 1, 2, 0, 0, 1, 0, 0, 2, 0, 0, 0, 1, 1, 0, 0, 0, 1, 1, 1, 0, 0, 0, 1, 1, 0, 0, 0, 0, 1, 0] 
 T7 => S41 [0, 0, 1, 2, 0, 0, 0, 1, 1, 2, 0, 0, 0, 1, 1, 0, 0, 0, 1, 1, 1, 0, 0, 0, 1, 1, 1, 1, 0, 0, 1, 0] 
 
 Reachable states from S49 [0, 0, 1, 2, 0, 1, 0, 0, 1, 2, 0, 0, 0, 1, 1, 0, 1, 0, 0, 0, 1, 0, 0, 0, 1, 0, 1, 1, 1, 1, 0, 0] 
 T6 => S46 [0, 0, 1, 2, 0, 0, 1, 0, 0, 2, 0, 0, 0, 1, 1, 0, 1, 0, 0, 0, 1, 0, 0, 0, 1, 1, 0, 0, 1, 1, 1, 0] 
 T15 => S50 [0, 0, 1, 2, 0, 1, 0, 0, 1, 2, 0, 0, 0, 1, 1, 0, 0, 1, 0, 1, 1, 0, 0, 0, 1, 0, 1, 1, 1, 1, 0, 0] 
 
 Reachable states from S50 [0, 0, 1, 2, 0, 1, 0, 0, 1, 2, 0, 0, 0, 1, 1, 0, 0, 1, 0, 1, 1, 0, 0, 0, 1, 0, 1, 1, 1, 1, 0, 0] 
 T6 => S47 [0, 0, 1, 2, 0, 0, 1, 0, 0, 2, 0, 0, 0, 1, 1, 0, 0, 1, 0, 1, 1, 0, 0, 0, 1, 1, 0, 0, 1, 1, 1, 0] 
 T16 => S51 [0, 0, 1, 2, 0, 1, 0, 0, 1, 2, 0, 0, 0, 1, 1, 0, 0, 0, 1, 1, 1, 0, 0, 0, 1, 0, 1, 1, 0, 0, 0, 0] 
 
 Reachable states from S51 [0, 0, 1, 2, 0, 1, 0, 0, 1, 2, 0, 0, 0, 1, 1, 0, 0, 0, 1, 1, 1, 0, 0, 0, 1, 0, 1, 1, 0, 0, 0, 0] 
 T6 => S48 [0, 0, 1, 2, 0, 0, 1, 0, 0, 2, 0, 0, 0, 1, 1, 0, 0, 0, 1, 1, 1, 0, 0, 0, 1, 1, 0, 0, 0, 0, 1, 0] 
 
 Reachable states from S52 [0, 0, 1, 2, 0, 1, 0, 1, 1, 1, 0, 0, 0, 1, 1, 1, 0, 0, 0, 1, 0, 0, 0, 0, 1, 0, 1, 1, 1, 1, 0, 0] 
 T8 => S44 [0, 0, 1, 2, 0, 1, 0, 0, 1, 2, 0, 0, 0, 1, 1, 1, 0, 0, 0, 1, 0, 0, 0, 0, 1, 0, 1, 1, 1, 1, 0, 0] 
 T6 => S53 [0, 0, 1, 2, 0, 0, 1, 1, 0, 1, 0, 0, 0, 1, 1, 1, 0, 0, 0, 1, 0, 0, 0, 0, 1, 1, 0, 0, 1, 1, 1, 0] 
 T14 => S61 [0, 0, 1, 2, 0, 1, 0, 1, 1, 1, 0, 0, 0, 1, 1, 0, 1, 0, 0, 0, 1, 0, 0, 0, 1, 0, 1, 1, 1, 1, 0, 0] 
 
 Reachable states from S53 [0, 0, 1, 2, 0, 0, 1, 1, 0, 1, 0, 0, 0, 1, 1, 1, 0, 0, 0, 1, 0, 0, 0, 0, 1, 1, 0, 0, 1, 1, 1, 0] 
 T8 => S45 [0, 0, 1, 2, 0, 0, 1, 0, 0, 2, 0, 0, 0, 1, 1, 1, 0, 0, 0, 1, 0, 0, 0, 0, 1, 1, 0, 0, 1, 1, 1, 0] 
 T7 => S54 [0, 0, 1, 2, 0, 0, 0, 2, 1, 1, 0, 0, 0, 1, 1, 1, 0, 0, 0, 1, 0, 0, 0, 0, 1, 1, 1, 1, 1, 1, 1, 0] 
 T14 => S58 [0, 0, 1, 2, 0, 0, 1, 1, 0, 1, 0, 0, 0, 1, 1, 0, 1, 0, 0, 0, 1, 0, 0, 0, 1, 1, 0, 0, 1, 1, 1, 0] 
 
 Reachable states from S54 [0, 0, 1, 2, 0, 0, 0, 2, 1, 1, 0, 0, 0, 1, 1, 1, 0, 0, 0, 1, 0, 0, 0, 0, 1, 1, 1, 1, 1, 1, 1, 0] 
 T8 => S38 [0, 0, 1, 2, 0, 0, 0, 1, 1, 2, 0, 0, 0, 1, 1, 1, 0, 0, 0, 1, 0, 0, 0, 0, 1, 1, 1, 1, 1, 1, 1, 0] 
 T14 => S55 [0, 0, 1, 2, 0, 0, 0, 2, 1, 1, 0, 0, 0, 1, 1, 0, 1, 0, 0, 0, 1, 0, 0, 0, 1, 1, 1, 1, 1, 1, 1, 0] 
 
 Reachable states from S55 [0, 0, 1, 2, 0, 0, 0, 2, 1, 1, 0, 0, 0, 1, 1, 0, 1, 0, 0, 0, 1, 0, 0, 0, 1, 1, 1, 1, 1, 1, 1, 0] 
 T8 => S39 [0, 0, 1, 2, 0, 0, 0, 1, 1, 2, 0, 0, 0, 1, 1, 0, 1, 0, 0, 0, 1, 0, 0, 0, 1, 1, 1, 1, 1, 1, 1, 0] 
 T15 => S56 [0, 0, 1, 2, 0, 0, 0, 2, 1, 1, 0, 0, 0, 1, 1, 0, 0, 1, 0, 1, 1, 0, 0, 0, 1, 1, 1, 1, 1, 1, 1, 0] 
 
 Reachable states from S56 [0, 0, 1, 2, 0, 0, 0, 2, 1, 1, 0, 0, 0, 1, 1, 0, 0, 1, 0, 1, 1, 0, 0, 0, 1, 1, 1, 1, 1, 1, 1, 0] 
 T8 => S40 [0, 0, 1, 2, 0, 0, 0, 1, 1, 2, 0, 0, 0, 1, 1, 0, 0, 1, 0, 1, 1, 0, 0, 0, 1, 1, 1, 1, 1, 1, 1, 0] 
 T16 => S57 [0, 0, 1, 2, 0, 0, 0, 2, 1, 1, 0, 0, 0, 1, 1, 0, 0, 0, 1, 1, 1, 0, 0, 0, 1, 1, 1, 1, 0, 0, 1, 0] 
 
 Reachable states from S57 [0, 0, 1, 2, 0, 0, 0, 2, 1, 1, 0, 0, 0, 1, 1, 0, 0, 0, 1, 1, 1, 0, 0, 0, 1, 1, 1, 1, 0, 0, 1, 0] 
 T8 => S41 [0, 0, 1, 2, 0, 0, 0, 1, 1, 2, 0, 0, 0, 1, 1, 0, 0, 0, 1, 1, 1, 0, 0, 0, 1, 1, 1, 1, 0, 0, 1, 0] 
 
 Reachable states from S58 [0, 0, 1, 2, 0, 0, 1, 1, 0, 1, 0, 0, 0, 1, 1, 0, 1, 0, 0, 0, 1, 0, 0, 0, 1, 1, 0, 0, 1, 1, 1, 0] 
 T8 => S46 [0, 0, 1, 2, 0, 0, 1, 0, 0, 2, 0, 0, 0, 1, 1, 0, 1, 0, 0, 0, 1, 0, 0, 0, 1, 1, 0, 0, 1, 1, 1, 0] 
 T7 => S55 [0, 0, 1, 2, 0, 0, 0, 2, 1, 1, 0, 0, 0, 1, 1, 0, 1, 0, 0, 0, 1, 0, 0, 0, 1, 1, 1, 1, 1, 1, 1, 0] 
 T15 => S59 [0, 0, 1, 2, 0, 0, 1, 1, 0, 1, 0, 0, 0, 1, 1, 0, 0, 1, 0, 1, 1, 0, 0, 0, 1, 1, 0, 0, 1, 1, 1, 0] 
 
 Reachable states from S59 [0, 0, 1, 2, 0, 0, 1, 1, 0, 1, 0, 0, 0, 1, 1, 0, 0, 1, 0, 1, 1, 0, 0, 0, 1, 1, 0, 0, 1, 1, 1, 0] 
 T8 => S47 [0, 0, 1, 2, 0, 0, 1, 0, 0, 2, 0, 0, 0, 1, 1, 0, 0, 1, 0, 1, 1, 0, 0, 0, 1, 1, 0, 0, 1, 1, 1, 0] 
 T7 => S56 [0, 0, 1, 2, 0, 0, 0, 2, 1, 1, 0, 0, 0, 1, 1, 0, 0, 1, 0, 1, 1, 0, 0, 0, 1, 1, 1, 1, 1, 1, 1, 0] 
 T16 => S60 [0, 0, 1, 2, 0, 0, 1, 1, 0, 1, 0, 0, 0, 1, 1, 0, 0, 0, 1, 1, 1, 0, 0, 0, 1, 1, 0, 0, 0, 0, 1, 0] 
 
 Reachable states from S60 [0, 0, 1, 2, 0, 0, 1, 1, 0, 1, 0, 0, 0, 1, 1, 0, 0, 0, 1, 1, 1, 0, 0, 0, 1, 1, 0, 0, 0, 0, 1, 0] 
 T8 => S48 [0, 0, 1, 2, 0, 0, 1, 0, 0, 2, 0, 0, 0, 1, 1, 0, 0, 0, 1, 1, 1, 0, 0, 0, 1, 1, 0, 0, 0, 0, 1, 0] 
 T7 => S57 [0, 0, 1, 2, 0, 0, 0, 2, 1, 1, 0, 0, 0, 1, 1, 0, 0, 0, 1, 1, 1, 0, 0, 0, 1, 1, 1, 1, 0, 0, 1, 0] 
 
 Reachable states from S61 [0, 0, 1, 2, 0, 1, 0, 1, 1, 1, 0, 0, 0, 1, 1, 0, 1, 0, 0, 0, 1, 0, 0, 0, 1, 0, 1, 1, 1, 1, 0, 0] 
 T8 => S49 [0, 0, 1, 2, 0, 1, 0, 0, 1, 2, 0, 0, 0, 1, 1, 0, 1, 0, 0, 0, 1, 0, 0, 0, 1, 0, 1, 1, 1, 1, 0, 0] 
 T6 => S58 [0, 0, 1, 2, 0, 0, 1, 1, 0, 1, 0, 0, 0, 1, 1, 0, 1, 0, 0, 0, 1, 0, 0, 0, 1, 1, 0, 0, 1, 1, 1, 0] 
 T15 => S62 [0, 0, 1, 2, 0, 1, 0, 1, 1, 1, 0, 0, 0, 1, 1, 0, 0, 1, 0, 1, 1, 0, 0, 0, 1, 0, 1, 1, 1, 1, 0, 0] 
 
 Reachable states from S62 [0, 0, 1, 2, 0, 1, 0, 1, 1, 1, 0, 0, 0, 1, 1, 0, 0, 1, 0, 1, 1, 0, 0, 0, 1, 0, 1, 1, 1, 1, 0, 0] 
 T8 => S50 [0, 0, 1, 2, 0, 1, 0, 0, 1, 2, 0, 0, 0, 1, 1, 0, 0, 1, 0, 1, 1, 0, 0, 0, 1, 0, 1, 1, 1, 1, 0, 0] 
 T6 => S59 [0, 0, 1, 2, 0, 0, 1, 1, 0, 1, 0, 0, 0, 1, 1, 0, 0, 1, 0, 1, 1, 0, 0, 0, 1, 1, 0, 0, 1, 1, 1, 0] 
 T16 => S63 [0, 0, 1, 2, 0, 1, 0, 1, 1, 1, 0, 0, 0, 1, 1, 0, 0, 0, 1, 1, 1, 0, 0, 0, 1, 0, 1, 1, 0, 0, 0, 0] 
 
 Reachable states from S63 [0, 0, 1, 2, 0, 1, 0, 1, 1, 1, 0, 0, 0, 1, 1, 0, 0, 0, 1, 1, 1, 0, 0, 0, 1, 0, 1, 1, 0, 0, 0, 0] 
 T8 => S51 [0, 0, 1, 2, 0, 1, 0, 0, 1, 2, 0, 0, 0, 1, 1, 0, 0, 0, 1, 1, 1, 0, 0, 0, 1, 0, 1, 1, 0, 0, 0, 0] 
 T6 => S60 [0, 0, 1, 2, 0, 0, 1, 1, 0, 1, 0, 0, 0, 1, 1, 0, 0, 0, 1, 1, 1, 0, 0, 0, 1, 1, 0, 0, 0, 0, 1, 0] 
 
 Reachable states from S64 [0, 0, 1, 2, 0, 0, 0, 2, 1, 1, 0, 0, 0, 1, 1, 0, 0, 0, 0, 1, 1, 1, 0, 0, 0, 1, 0, 0, 1, 0, 1, 0] 
 T8 => S32 [0, 0, 1, 2, 0, 0, 0, 1, 1, 2, 0, 0, 0, 1, 1, 0, 0, 0, 0, 1, 1, 1, 0, 0, 0, 1, 0, 0, 1, 0, 1, 0] 
 T13 => S54 [0, 0, 1, 2, 0, 0, 0, 2, 1, 1, 0, 0, 0, 1, 1, 1, 0, 0, 0, 1, 0, 0, 0, 0, 1, 1, 1, 1, 1, 1, 1, 0] 
 
 Reachable states from S65 [0, 0, 1, 2, 0, 0, 0, 3, 1, 0, 0, 0, 0, 1, 1, 0, 0, 0, 0, 1, 1, 1, 0, 0, 0, 1, 0, 0, 1, 0, 1, 0] 
 T8 => S64 [0, 0, 1, 2, 0, 0, 0, 2, 1, 1, 0, 0, 0, 1, 1, 0, 0, 0, 0, 1, 1, 1, 0, 0, 0, 1, 0, 0, 1, 0, 1, 0] 
 T13 => S66 [0, 0, 1, 2, 0, 0, 0, 3, 1, 0, 0, 0, 0, 1, 1, 1, 0, 0, 0, 1, 0, 0, 0, 0, 1, 1, 1, 1, 1, 1, 1, 0] 
 
 Reachable states from S66 [0, 0, 1, 2, 0, 0, 0, 3, 1, 0, 0, 0, 0, 1, 1, 1, 0, 0, 0, 1, 0, 0, 0, 0, 1, 1, 1, 1, 1, 1, 1, 0] 
 T8 => S54 [0, 0, 1, 2, 0, 0, 0, 2, 1, 1, 0, 0, 0, 1, 1, 1, 0, 0, 0, 1, 0, 0, 0, 0, 1, 1, 1, 1, 1, 1, 1, 0] 
 T14 => S67 [0, 0, 1, 2, 0, 0, 0, 3, 1, 0, 0, 0, 0, 1, 1, 0, 1, 0, 0, 0, 1, 0, 0, 0, 1, 1, 1, 1, 1, 1, 1, 0] 
 
 Reachable states from S67 [0, 0, 1, 2, 0, 0, 0, 3, 1, 0, 0, 0, 0, 1, 1, 0, 1, 0, 0, 0, 1, 0, 0, 0, 1, 1, 1, 1, 1, 1, 1, 0] 
 T8 => S55 [0, 0, 1, 2, 0, 0, 0, 2, 1, 1, 0, 0, 0, 1, 1, 0, 1, 0, 0, 0, 1, 0, 0, 0, 1, 1, 1, 1, 1, 1, 1, 0] 
 T15 => S68 [0, 0, 1, 2, 0, 0, 0, 3, 1, 0, 0, 0, 0, 1, 1, 0, 0, 1, 0, 1, 1, 0, 0, 0, 1, 1, 1, 1, 1, 1, 1, 0] 
 
 Reachable states from S68 [0, 0, 1, 2, 0, 0, 0, 3, 1, 0, 0, 0, 0, 1, 1, 0, 0, 1, 0, 1, 1, 0, 0, 0, 1, 1, 1, 1, 1, 1, 1, 0] 
 T8 => S56 [0, 0, 1, 2, 0, 0, 0, 2, 1, 1, 0, 0, 0, 1, 1, 0, 0, 1, 0, 1, 1, 0, 0, 0, 1, 1, 1, 1, 1, 1, 1, 0] 
 T16 => S69 [0, 0, 1, 2, 0, 0, 0, 3, 1, 0, 0, 0, 0, 1, 1, 0, 0, 0, 1, 1, 1, 0, 0, 0, 1, 1, 1, 1, 0, 0, 1, 0] 
 
 Reachable states from S69 [0, 0, 1, 2, 0, 0, 0, 3, 1, 0, 0, 0, 0, 1, 1, 0, 0, 0, 1, 1, 1, 0, 0, 0, 1, 1, 1, 1, 0, 0, 1, 0] 
 T8 => S57 [0, 0, 1, 2, 0, 0, 0, 2, 1, 1, 0, 0, 0, 1, 1, 0, 0, 0, 1, 1, 1, 0, 0, 0, 1, 1, 1, 1, 0, 0, 1, 0] 
 
 Reachable states from S70 [0, 0, 1, 2, 0, 1, 0, 2, 1, 0, 0, 0, 0, 1, 1, 0, 0, 0, 0, 1, 1, 1, 0, 0, 0, 0, 0, 0, 1, 0, 0, 0] 
 T8 => S42 [0, 0, 1, 2, 0, 1, 0, 1, 1, 1, 0, 0, 0, 1, 1, 0, 0, 0, 0, 1, 1, 1, 0, 0, 0, 0, 0, 0, 1, 0, 0, 0] 
 T13 => S71 [0, 0, 1, 2, 0, 1, 0, 2, 1, 0, 0, 0, 0, 1, 1, 1, 0, 0, 0, 1, 0, 0, 0, 0, 1, 0, 1, 1, 1, 1, 0, 0] 
 
 Reachable states from S71 [0, 0, 1, 2, 0, 1, 0, 2, 1, 0, 0, 0, 0, 1, 1, 1, 0, 0, 0, 1, 0, 0, 0, 0, 1, 0, 1, 1, 1, 1, 0, 0] 
 T8 => S52 [0, 0, 1, 2, 0, 1, 0, 1, 1, 1, 0, 0, 0, 1, 1, 1, 0, 0, 0, 1, 0, 0, 0, 0, 1, 0, 1, 1, 1, 1, 0, 0] 
 T6 => S72 [0, 0, 1, 2, 0, 0, 1, 2, 0, 0, 0, 0, 0, 1, 1, 1, 0, 0, 0, 1, 0, 0, 0, 0, 1, 1, 0, 0, 1, 1, 1, 0] 
 T14 => S76 [0, 0, 1, 2, 0, 1, 0, 2, 1, 0, 0, 0, 0, 1, 1, 0, 1, 0, 0, 0, 1, 0, 0, 0, 1, 0, 1, 1, 1, 1, 0, 0] 
 
 Reachable states from S72 [0, 0, 1, 2, 0, 0, 1, 2, 0, 0, 0, 0, 0, 1, 1, 1, 0, 0, 0, 1, 0, 0, 0, 0, 1, 1, 0, 0, 1, 1, 1, 0] 
 T8 => S53 [0, 0, 1, 2, 0, 0, 1, 1, 0, 1, 0, 0, 0, 1, 1, 1, 0, 0, 0, 1, 0, 0, 0, 0, 1, 1, 0, 0, 1, 1, 1, 0] 
 T7 => S66 [0, 0, 1, 2, 0, 0, 0, 3, 1, 0, 0, 0, 0, 1, 1, 1, 0, 0, 0, 1, 0, 0, 0, 0, 1, 1, 1, 1, 1, 1, 1, 0] 
 T14 => S73 [0, 0, 1, 2, 0, 0, 1, 2, 0, 0, 0, 0, 0, 1, 1, 0, 1, 0, 0, 0, 1, 0, 0, 0, 1, 1, 0, 0, 1, 1, 1, 0] 
 
 Reachable states from S73 [0, 0, 1, 2, 0, 0, 1, 2, 0, 0, 0, 0, 0, 1, 1, 0, 1, 0, 0, 0, 1, 0, 0, 0, 1, 1, 0, 0, 1, 1, 1, 0] 
 T8 => S58 [0, 0, 1, 2, 0, 0, 1, 1, 0, 1, 0, 0, 0, 1, 1, 0, 1, 0, 0, 0, 1, 0, 0, 0, 1, 1, 0, 0, 1, 1, 1, 0] 
 T7 => S67 [0, 0, 1, 2, 0, 0, 0, 3, 1, 0, 0, 0, 0, 1, 1, 0, 1, 0, 0, 0, 1, 0, 0, 0, 1, 1, 1, 1, 1, 1, 1, 0] 
 T15 => S74 [0, 0, 1, 2, 0, 0, 1, 2, 0, 0, 0, 0, 0, 1, 1, 0, 0, 1, 0, 1, 1, 0, 0, 0, 1, 1, 0, 0, 1, 1, 1, 0] 
 
 Reachable states from S74 [0, 0, 1, 2, 0, 0, 1, 2, 0, 0, 0, 0, 0, 1, 1, 0, 0, 1, 0, 1, 1, 0, 0, 0, 1, 1, 0, 0, 1, 1, 1, 0] 
 T8 => S59 [0, 0, 1, 2, 0, 0, 1, 1, 0, 1, 0, 0, 0, 1, 1, 0, 0, 1, 0, 1, 1, 0, 0, 0, 1, 1, 0, 0, 1, 1, 1, 0] 
 T7 => S68 [0, 0, 1, 2, 0, 0, 0, 3, 1, 0, 0, 0, 0, 1, 1, 0, 0, 1, 0, 1, 1, 0, 0, 0, 1, 1, 1, 1, 1, 1, 1, 0] 
 T16 => S75 [0, 0, 1, 2, 0, 0, 1, 2, 0, 0, 0, 0, 0, 1, 1, 0, 0, 0, 1, 1, 1, 0, 0, 0, 1, 1, 0, 0, 0, 0, 1, 0] 
 
 Reachable states from S75 [0, 0, 1, 2, 0, 0, 1, 2, 0, 0, 0, 0, 0, 1, 1, 0, 0, 0, 1, 1, 1, 0, 0, 0, 1, 1, 0, 0, 0, 0, 1, 0] 
 T8 => S60 [0, 0, 1, 2, 0, 0, 1, 1, 0, 1, 0, 0, 0, 1, 1, 0, 0, 0, 1, 1, 1, 0, 0, 0, 1, 1, 0, 0, 0, 0, 1, 0] 
 T7 => S69 [0, 0, 1, 2, 0, 0, 0, 3, 1, 0, 0, 0, 0, 1, 1, 0, 0, 0, 1, 1, 1, 0, 0, 0, 1, 1, 1, 1, 0, 0, 1, 0] 
 
 Reachable states from S76 [0, 0, 1, 2, 0, 1, 0, 2, 1, 0, 0, 0, 0, 1, 1, 0, 1, 0, 0, 0, 1, 0, 0, 0, 1, 0, 1, 1, 1, 1, 0, 0] 
 T8 => S61 [0, 0, 1, 2, 0, 1, 0, 1, 1, 1, 0, 0, 0, 1, 1, 0, 1, 0, 0, 0, 1, 0, 0, 0, 1, 0, 1, 1, 1, 1, 0, 0] 
 T6 => S73 [0, 0, 1, 2, 0, 0, 1, 2, 0, 0, 0, 0, 0, 1, 1, 0, 1, 0, 0, 0, 1, 0, 0, 0, 1, 1, 0, 0, 1, 1, 1, 0] 
 T15 => S77 [0, 0, 1, 2, 0, 1, 0, 2, 1, 0, 0, 0, 0, 1, 1, 0, 0, 1, 0, 1, 1, 0, 0, 0, 1, 0, 1, 1, 1, 1, 0, 0] 
 
 Reachable states from S77 [0, 0, 1, 2, 0, 1, 0, 2, 1, 0, 0, 0, 0, 1, 1, 0, 0, 1, 0, 1, 1, 0, 0, 0, 1, 0, 1, 1, 1, 1, 0, 0] 
 T8 => S62 [0, 0, 1, 2, 0, 1, 0, 1, 1, 1, 0, 0, 0, 1, 1, 0, 0, 1, 0, 1, 1, 0, 0, 0, 1, 0, 1, 1, 1, 1, 0, 0] 
 T6 => S74 [0, 0, 1, 2, 0, 0, 1, 2, 0, 0, 0, 0, 0, 1, 1, 0, 0, 1, 0, 1, 1, 0, 0, 0, 1, 1, 0, 0, 1, 1, 1, 0] 
 T16 => S78 [0, 0, 1, 2, 0, 1, 0, 2, 1, 0, 0, 0, 0, 1, 1, 0, 0, 0, 1, 1, 1, 0, 0, 0, 1, 0, 1, 1, 0, 0, 0, 0] 
 
 Reachable states from S78 [0, 0, 1, 2, 0, 1, 0, 2, 1, 0, 0, 0, 0, 1, 1, 0, 0, 0, 1, 1, 1, 0, 0, 0, 1, 0, 1, 1, 0, 0, 0, 0] 
 T8 => S63 [0, 0, 1, 2, 0, 1, 0, 1, 1, 1, 0, 0, 0, 1, 1, 0, 0, 0, 1, 1, 1, 0, 0, 0, 1, 0, 1, 1, 0, 0, 0, 0] 
 T6 => S75 [0, 0, 1, 2, 0, 0, 1, 2, 0, 0, 0, 0, 0, 1, 1, 0, 0, 0, 1, 1, 1, 0, 0, 0, 1, 1, 0, 0, 0, 0, 1, 0] 
