 Minimal siphons 
2 6 10 14 17 20 24 25 26
1 10 14 17 20 25 26
9 14 17 20 25
19 20 21
16 17 18
12 13 14 15
5 6 7 8
28 5 16
28 5 16 17
5 9 17 23
9 10 11
28 5 9 10 11 16
5 6 7 8 9 10 11
5 6 7 8 9 10 11 16 17 18
28 5 9 10 11 16 17
28 5 6 9 10 11 16 17
28 5 6 7 9 10 11 16 17
28 5 6 7 8 9 10 11 16 17
9 10 11 12 13 14 15
1 3
1 27 9
1 10 13 26
1 3 5 9 10 17 23
1 27 9 10
1 3 9 10 11
1 27 3 9 10
1 28 3 5 9 10 11 16
1 3 5 6 7 8 9 10 11
1 27 3 5 6 7 8 9 10
1 28 27 3 5 9 10 16
1 3 5 6 7 8 9 10 11 16 17 18
1 28 3 5 9 10 11 16 17
1 28 27 3 5 9 10 16 17
1 28 3 5 6 9 10 11 16 17
1 28 27 3 5 6 9 10 16 17
1 28 3 5 6 7 9 10 11 16 17
1 28 27 3 5 6 7 9 10 16 17
1 27 3 5 6 7 8 9 10 16 17 18
1 28 27 3 5 6 7 8 9 10 16 17
1 28 3 5 6 7 8 9 10 11 16 17
1 10 13 14 26
1 3 9 10 11 12 13 14 15
1 27 9 10 12 13 14 15
1 27 3 9 10 12 13 14 15
2 20 22
1 2 4
1 2 3
1 27 2 9
1 27 2 9 10
1 2 3 9 10 11
1 27 2 3 9 10
1 2 4 9 10 11
1 27 2 4 9 10
1 2 3 9 10 11 12 13 14 15
1 27 2 3 9 10 12 13 14 15
1 2 4 9 10 11 12 13 14 15
1 27 2 4 9 10 12 13 14 15
2 5 6 7 8 20 22
28 2 5 6 16 20 22
1 28 2 4 5 6 16
1 28 2 3 5 6 16
28 2 5 6 7 16 20 22
1 28 2 4 5 6 7 16
1 28 2 3 5 6 7 16
1 2 4 5 6 7 8
1 2 3 5 6 7 8
2 6 9 13 17 20 23 24
2 6 9 13 16 20 24
2 6 10 13 17 20 23 24 26
2 6 10 13 16 20 24 26
 Minimal traps 
1 5 9 13 16 20 23 24 26
2 5 9 13 16 20 23 24
9 14 17 20 25
19 20 21
16 17 18
12 13 14 15
5 6 7 8
28 5 16
5 9 17 23
9 10 11
28 5 9 16 23
5 6 7 8 9 10 11
28 5 9 10 11 16
5 6 7 8 9 10 11 16 17 18
28 5 9 10 11 16 17 18
9 10 11 12 13 14 15
2 6 9 13 16 20 24
2 20 22
2 5 6 7 8 20 22
28 2 5 16 20 22
2 5 9 17 20 22 23
1 6 9 13 16 20 24 26
1 9 13 17 20 25 26
1 10 13 26
1 3
1 2 20 22
1 2 4
1 27 9
1 2 9 10 11 20 22
1 27 2 9 20 22
1 27 2 4 9
1 2 4 9 10 11
1 3 9 10 11
1 27 3 9
1 5 6 7 8 10 13 26
1 28 3 5 16
1 28 2 5 16 20 22
1 28 2 4 5 16
1 3 5 6 7 8
1 2 5 6 7 8 20 22
1 2 4 5 6 7 8
1 3 5 9 17 23
1 2 5 9 17 20 22 23
1 27 5 9 17 23
 Analysis time: 1.163s