 p 35 
 t 16 
 Reachable states from S0 [0, 0, 1, 2, 0, 0, 0, 1, 0, 0, 0, 1, 1, 0, 0, 0, 0, 3, 1, 1, 1, 1, 1, 2, 1, 1, 1, 1, 1, 1, 1, 1, 1, 1, 1] 
 T1 => S1 [1, 0, 0, 1, 0, 0, 0, 1, 0, 0, 0, 1, 1, 0, 0, 0, 0, 3, 1, 1, 0, 1, 1, 1, 0, 0, 0, 0, 0, 0, 0, 0, 0, 0, 0] 
 T4 => S3 [0, 0, 1, 2, 1, 0, 0, 0, 0, 0, 0, 1, 1, 0, 0, 0, 0, 3, 1, 1, 0, 0, 1, 1, 0, 0, 0, 0, 0, 0, 0, 0, 0, 0, 0] 
 T15 => S6 [0, 0, 1, 2, 0, 0, 0, 1, 0, 0, 0, 1, 1, 0, 0, 1, 0, 2, 0, 0, 1, 1, 0, 1, 0, 0, 0, 0, 0, 0, 0, 0, 0, 0, 0] 
 
 Reachable states from S1 [1, 0, 0, 1, 0, 0, 0, 1, 0, 0, 0, 1, 1, 0, 0, 0, 0, 3, 1, 1, 0, 1, 1, 1, 0, 0, 0, 0, 0, 0, 0, 0, 0, 0, 0] 
 T2 => S2 [0, 1, 1, 1, 0, 0, 0, 1, 0, 0, 0, 1, 1, 0, 0, 0, 0, 3, 0, 0, 1, 0, 0, 1, 0, 0, 0, 0, 0, 0, 0, 0, 0, 0, 0] 
 
 Reachable states from S2 [0, 1, 1, 1, 0, 0, 0, 1, 0, 0, 0, 1, 1, 0, 0, 0, 0, 3, 0, 0, 1, 0, 0, 1, 0, 0, 0, 0, 0, 0, 0, 0, 0, 0, 0] 
 T3 => S0 [0, 0, 1, 2, 0, 0, 0, 1, 0, 0, 0, 1, 1, 0, 0, 0, 0, 3, 1, 1, 1, 1, 1, 2, 1, 1, 1, 1, 1, 1, 1, 1, 1, 1, 1] 
 
 Reachable states from S3 [0, 0, 1, 2, 1, 0, 0, 0, 0, 0, 0, 1, 1, 0, 0, 0, 0, 3, 1, 1, 0, 0, 1, 1, 0, 0, 0, 0, 0, 0, 0, 0, 0, 0, 0] 
 T5 => S4 [0, 0, 1, 2, 0, 1, 0, 0, 0, 0, 0, 1, 1, 0, 0, 0, 0, 3, 1, 1, 1, 1, 0, 1, 0, 0, 0, 0, 0, 0, 0, 0, 0, 0, 0] 
 
 Reachable states from S4 [0, 0, 1, 2, 0, 1, 0, 0, 0, 0, 0, 1, 1, 0, 0, 0, 0, 3, 1, 1, 1, 1, 0, 1, 0, 0, 0, 0, 0, 0, 0, 0, 0, 0, 0] 
 T6 => S5 [0, 0, 1, 2, 0, 0, 1, 0, 0, 0, 0, 1, 1, 0, 0, 0, 0, 3, 0, 0, 1, 1, 1, 2, 0, 0, 0, 0, 0, 0, 0, 0, 0, 0, 0] 
 
 Reachable states from S5 [0, 0, 1, 2, 0, 0, 1, 0, 0, 0, 0, 1, 1, 0, 0, 0, 0, 3, 0, 0, 1, 1, 1, 2, 0, 0, 0, 0, 0, 0, 0, 0, 0, 0, 0] 
 T7 => S0 [0, 0, 1, 2, 0, 0, 0, 1, 0, 0, 0, 1, 1, 0, 0, 0, 0, 3, 1, 1, 1, 1, 1, 2, 1, 1, 1, 1, 1, 1, 1, 1, 1, 1, 1] 
 Deadlock on S6 [0, 0, 1, 2, 0, 0, 0, 1, 0, 0, 0, 1, 1, 0, 0, 1, 0, 2, 0, 0, 1, 1, 0, 1, 0, 0, 0, 0, 0, 0, 0, 0, 0, 0, 0] 
