 Minimal siphons 
2 5 14 19 27 34 35
1 5 14 19 27 34
5 13 19 27 29 30 31
4 13 29
13 15
12 19 20 30 31
11 19 30
19 21
18 20
17 22
11 16
12 17 31
11 12 13 14 17 18 19 23 24 25
4 7
36 4 12 19 30 31
36 4 18
5 12 19 27 30 31
5 18 27
5 6
4 5 7
5 6 11 16
4 5 7 11 16
1 4 14 19 34
1 13 32
1 3
1 37 12 19 30 31
1 38 17
1 37 18
1 3 4 7
1 4 13 14 29 32
1 4 7 13 14 32
1 3 4 7 13 14 15
1 3 4 13 14 29
1 37 36 4 12 13 14 18 19 31
1 37 36 4 11 12 13 14 18 19 23 24 25
1 37 36 4 12 13 14 19 30 31
1 36 4 13 14 17 18 19 22 32
1 38 36 4 13 14 17 18 19 32
1 38 4 7 13 14 17 18 19 32
1 38 4 13 14 17 18 19 29
1 37 4 13 14 17 18 19 22 29
1 38 4 13 14 17 18 19 22 29
1 3 5 6
1 3 4 5 7
1 3 5 6 11 16
1 3 4 5 7 11 16
1 37 36 4 5 12 13 18 31
1 36 4 5 13 17 18 22 32
1 38 36 4 5 13 17 18 32
1 38 4 5 7 13 17 18 32
1 38 4 5 13 17 18 29
1 37 4 5 13 17 18 22 29
1 38 4 5 13 17 18 22 29
1 38 5 6 13 17 18 32
1 38 5 6 13 17 18 29
1 37 5 6 13 17 18 22 29
1 38 5 6 13 17 18 22 29
1 37 36 4 5 12 13 18 19 31
1 37 36 4 5 12 13 19 30 31
1 36 4 5 13 17 18 19 22 32
1 38 36 4 5 13 17 18 19 32
1 38 4 5 7 13 17 18 19 32
1 38 4 5 13 17 18 19 29
1 37 4 5 13 17 18 19 22 29
1 38 4 5 13 17 18 19 22 29
1 38 5 6 13 17 18 19 32
1 38 5 6 13 17 18 19 29
1 37 5 6 13 17 18 19 22 29
1 38 5 6 13 17 18 19 22 29
1 37 36 4 5 12 13 14 18 31
1 36 4 5 13 14 17 18 22 32
1 38 36 4 5 13 14 17 18 32
1 38 4 5 7 13 14 17 18 32
1 38 4 5 13 14 17 18 29
1 37 4 5 13 14 17 18 22 29
1 38 4 5 13 14 17 18 22 29
1 38 5 6 13 14 17 18 32
1 38 5 6 13 14 17 18 29
1 37 5 6 13 14 17 18 22 29
1 38 5 6 13 14 17 18 22 29
1 37 36 4 5 12 13 14 18 19 31
1 37 36 4 5 11 12 13 14 18 19 23 24 25
1 37 36 4 5 12 13 14 19 30 31
1 36 4 5 13 14 17 18 19 22 32
1 38 36 4 5 13 14 17 18 19 32
1 38 4 5 7 13 14 17 18 19 32
1 38 4 5 13 14 17 18 19 29
1 37 4 5 13 14 17 18 19 22 29
1 38 4 5 13 14 17 18 19 22 29
1 38 5 6 13 14 17 18 19 32
1 38 5 6 13 14 17 18 19 29
1 37 5 6 13 14 17 18 19 22 29
1 38 5 6 13 14 17 18 19 22 29
2 4 14 19 34 35
2 14 19 30 31 32 35
2 13 19 20 28 30 31 32
2 17 28
37 2 18 28
37 2 12 19 28 30 31
1 2 13 32
1 38 2 13 17 32
1 38 2 13 17 18 32
37 2 13 19 28 30 31 32
1 38 2 13 17 18 19 32
2 14 18 35
1 2 13 14 32
1 38 2 13 14 17 32
1 38 2 13 14 17 18 32
1 38 2 13 14 17 18 19 32
2 14 15 19 30 31 35
2 12 14 19 30 31 35
2 4 19 33
2 4 7 17 28
1 2 3 4 7
1 38 2 4 7 17
1 38 2 3 4 7 17
2 4 7 17 18 28
1 38 2 4 7 17 18
1 37 2 4 7 17 18 22
1 38 37 2 4 7 17 18
1 38 2 3 4 7 17 18
1 2 4 13 29 32
1 2 4 7 13 32
1 2 3 4 13 29
1 38 2 4 7 13 17 32
1 38 2 4 13 17 29
1 38 2 4 13 17 22 29
1 37 36 2 4 12 13 18 31
1 36 2 4 13 17 18 22 32
1 38 36 2 4 13 17 18 32
1 38 2 4 7 13 17 18 32
1 38 2 4 13 17 18 29
1 37 2 4 13 17 18 22 29
1 38 2 4 13 17 18 22 29
36 2 4 13 19 28 30 31 32
1 37 36 2 4 12 13 18 19 31
1 37 36 2 4 12 13 19 30 31
1 36 2 4 13 17 18 19 22 32
1 38 36 2 4 13 17 18 19 32
1 38 2 4 7 13 17 18 19 32
1 38 2 4 13 17 18 19 29
1 37 2 4 13 17 18 19 22 29
1 38 2 4 13 17 18 19 22 29
1 2 4 13 14 29 32
1 2 4 7 13 14 32
1 2 3 4 13 14 29
1 38 2 4 7 13 14 17 32
1 38 2 4 13 14 17 29
1 38 2 4 13 14 17 22 29
1 38 2 4 7 13 14 17 18 32
1 38 2 4 13 14 17 18 29
1 37 2 4 13 14 17 18 22 29
1 38 2 4 13 14 17 18 22 29
2 4 14 19 29 30 31 35
1 38 2 4 7 13 14 17 18 19 32
1 38 2 4 13 14 17 18 19 29
1 37 2 4 13 14 17 18 19 22 29
1 38 2 4 13 14 17 18 19 22 29
36 2 4 13 14 19 28 29 30 31
2 4 11 12 13 14 17 19 23 24 25 33
2 4 14 19 20 28 34
36 2 4 14 19 28 34
37 2 4 14 19 28 34
1 2 4 14 19 34
1 2 4 14 17 19 23 24 25 34
1 38 2 4 14 17 19 34
2 5 19 27 33
2 5 26
2 4 5 8 9 10 17 28
2 4 5 7 17 28
1 2 3 4 5 7
1 38 2 4 5 7 17
1 38 2 3 4 5 7 17
1 2 4 5 8 9 10
1 38 2 4 5 8 9 10 17
1 2 4 5 13 29 32
1 2 4 5 8 9 10 13 32
1 2 4 5 7 13 32
1 2 4 5 8 9 10 13 29
1 2 3 4 5 13 29
1 38 2 4 5 7 13 17 32
1 38 2 4 5 8 9 10 13 17 32
1 38 2 4 5 13 17 29
1 38 2 4 5 13 17 22 29
1 2 5 6 13 32
1 2 5 6 8 9 10
1 2 3 5 6
1 2 5 6 8 9 10 13 29
1 2 3 5 6 13 29
1 38 2 5 6 17
1 38 2 3 5 6 17
1 38 2 5 6 8 9 10 17
1 38 2 5 6 13 17 32
1 38 2 5 6 13 17 29
1 38 2 5 6 13 17 22 29
2 5 17 18 26 28
36 2 5 18 26
37 2 5 18 26
37 2 5 6 18 28
37 2 4 5 8 9 10 18 28
37 2 4 5 7 18 28
1 37 2 4 5 7 18
1 37 2 4 5 8 9 10 18
1 37 2 5 6 18
36 2 5 6 18 28
36 2 4 5 18 28
1 36 2 4 5 8 9 10 18
1 36 2 3 4 5 18
1 37 36 2 4 5 18
1 38 36 2 4 5 18
1 36 2 5 6 8 9 10 18
1 36 2 3 5 6 18
1 37 36 2 5 6 18
1 38 36 2 5 6 18
2 5 6 17 18 28
2 4 5 8 9 10 17 18 28
2 4 5 7 17 18 28
36 2 4 5 17 18 28
1 36 2 3 4 5 17 18 22
1 37 36 2 4 5 17 18 22
1 38 36 2 4 5 17 18
1 38 37 36 2 4 5 17 18
1 38 36 2 3 4 5 17 18
1 37 2 4 5 7 17 18 22
1 38 2 4 5 7 17 18
1 38 37 2 4 5 7 17 18
1 38 2 3 4 5 7 17 18
1 38 2 4 5 8 9 10 17 18
1 37 2 5 6 17 18 22
1 38 2 5 6 17 18
1 38 37 2 5 6 17 18
1 38 2 3 5 6 17 18
1 38 2 5 6 8 9 10 17 18
38 2 5 17 18 26
1 37 36 2 4 5 12 18 31
1 37 36 2 4 5 12 13 18 31
1 36 2 4 5 13 17 18 22 32
1 38 36 2 4 5 13 17 18 32
1 38 2 4 5 7 13 17 18 32
1 38 2 4 5 8 9 10 13 17 18 32
1 38 2 4 5 13 17 18 29
1 37 2 4 5 13 17 18 22 29
1 38 2 4 5 13 17 18 22 29
1 38 2 5 6 13 17 18 32
1 38 2 5 6 13 17 18 29
1 37 2 5 6 13 17 18 22 29
1 38 2 5 6 13 17 18 22 29
2 5 13 17 18 26 28 32
38 2 5 13 17 18 26 32
38 2 5 13 17 18 26 29
2 5 13 17 18 26 28 29
1 37 36 2 4 5 12 13 18 19 31
1 37 36 2 4 5 12 13 19 30 31
1 36 2 4 5 13 17 18 19 22 32
1 38 36 2 4 5 13 17 18 19 32
1 38 2 4 5 7 13 17 18 19 32
1 38 2 4 5 8 9 10 13 17 18 19 32
1 38 2 4 5 13 17 18 19 29
1 37 2 4 5 13 17 18 19 22 29
1 38 2 4 5 13 17 18 19 22 29
1 38 2 5 6 13 17 18 19 32
1 38 2 5 6 13 17 18 19 29
1 37 2 5 6 13 17 18 19 22 29
1 38 2 5 6 13 17 18 19 22 29
2 5 13 17 18 19 26 28 32
38 2 5 13 17 18 19 26 32
38 2 5 13 17 18 19 26 29
2 5 13 17 18 19 26 28 29
2 5 13 19 27 28 30 31 32
1 2 4 5 13 14 29 32
1 2 4 5 8 9 10 13 14 32
1 2 4 5 7 13 14 32
1 2 4 5 8 9 10 13 14 29
1 2 3 4 5 13 14 29
1 38 2 4 5 7 13 14 17 32
1 38 2 4 5 8 9 10 13 14 17 32
1 38 2 4 5 13 14 17 29
1 38 2 4 5 13 14 17 22 29
1 2 5 6 13 14 32
1 2 5 6 8 9 10 13 14 29
1 2 3 5 6 13 14 29
1 38 2 5 6 13 14 17 32
1 38 2 5 6 13 14 17 29
1 38 2 5 6 13 14 17 22 29
1 38 2 4 5 7 13 14 17 18 32
1 38 2 4 5 8 9 10 13 14 17 18 32
1 38 2 4 5 13 14 17 18 29
1 37 2 4 5 13 14 17 18 22 29
1 38 2 4 5 13 14 17 18 22 29
1 38 2 5 6 13 14 17 18 32
1 38 2 5 6 13 14 17 18 29
1 37 2 5 6 13 14 17 18 22 29
1 38 2 5 6 13 14 17 18 22 29
2 5 13 14 17 18 26 28 32
38 2 5 13 14 17 18 26 32
38 2 5 13 14 17 18 26 29
2 5 13 14 17 18 26 28 29
1 38 2 4 5 7 13 14 17 18 19 32
1 38 2 4 5 8 9 10 13 14 17 18 19 32
1 38 2 4 5 13 14 17 18 19 29
1 37 2 4 5 13 14 17 18 19 22 29
1 38 2 4 5 13 14 17 18 19 22 29
36 2 4 5 13 14 19 28 29 30 31
2 4 5 11 12 13 14 17 19 23 24 25 33
1 2 4 5 14 19 34
1 2 4 5 14 17 19 23 24 25 34
1 38 2 4 5 14 17 19 34
1 38 2 5 6 13 14 17 18 19 32
1 38 2 5 6 13 14 17 18 19 29
1 37 2 5 6 13 14 17 18 19 22 29
1 38 2 5 6 13 14 17 18 19 22 29
2 5 6 11 12 13 14 17 19 23 24 25 33
1 2 5 6 14 19 34
1 2 5 6 14 17 19 23 24 25 34
1 38 2 5 6 14 17 19 34
38 2 5 13 14 17 18 19 26 32
38 2 5 13 14 17 18 19 26 29
2 5 11 12 13 14 17 19 23 24 25 26 33
2 5 14 19 27 29 30 31 35
2 5 14 19 27 28 34
 Minimal traps 
1 11 17 30 31 32 35
2 4 11 17 29 30 31 35
4 11 17 27 29 30 31
5 11 17 27 30 31
11 17 20 30 31
12 17 31
17 22
18 20
19 21
13 15
12 13 15
11 19 30
11 16
11 18 19 30
11 12 13 14 17 18 19 23 24 25
11 16 17 18 19 23 24 25
11 17 18 19 30
5 18 27
5 6
5 17 18 27
5 6 12 13 15
5 11 18 27 30
5 6 11 19 30
5 6 11 16
5 6 11 18 19 30
5 11 16 18 27
5 6 11 16 17 18 19 23 24 25
5 6 11 17 18 19 30
5 11 16 17 18 27
5 11 17 18 27 30
4 13 29
4 7
36 4 18
4 5 6
4 7 13 15
4 5 6 13 15
4 5 6 12 13 15
36 4 11 17 30 31
36 4 11 17 18 30
36 4 11 16 17 18 19 21
36 4 11 16 17 18 19 21 23
36 4 11 16 17 18 19 23 24 25
36 4 11 17 18 19 30
4 5 6 11 16 17 18 19 23 24 25
4 5 6 11 17 18 19 30
4 7 11 16 17 18 19 23 24 25
4 7 11 17 18 19 30
36 4 11 16 17 18 20
36 4 11 17 18 20 30
36 4 11 16 17 18 27
36 4 11 17 18 27 30
4 5 11 16 17 18 27
4 5 11 17 18 27 30
4 7 11 16 17 18 27
4 7 11 17 18 27 30
2 11 15 17 30 31 35
2 17 28
2 14 18 35
2 5 26
2 13 14 18 35
2 5 13 15 26
2 14 17 18 35
2 13 14 17 18 35
2 12 13 14 18 35
2 12 13 14 17 18 35
2 5 12 13 15 26
2 11 14 17 30 31 35
2 11 14 18 30 35
2 11 12 13 14 18 35
2 11 12 13 14 17 18 35
2 11 14 17 18 30 35
2 4 18 27 33
2 4 19 33
2 4 11 17 27 30 31 33
36 2 4 5 11 14 17 23 24 25 26 30 31
36 2 4 5 11 15 17 26 30 31
1 13 32
1 4 14 17 28 34 35
1 3
1 37 17 28
1 38 17
1 37 18
1 37 17 18
1 2 14 18 35
1 2 5 26
1 2 14 17 18 35
1 2 4 5 8 9 10
1 4 14 18 34 35
1 4 14 19 34
1 4 14 18 27 34
1 4 14 17 27 28 34
1 4 14 17 20 28 34
1 36 4 14 17 28 34
1 37 13 14 18 35
1 37 13 14 17 18 35
1 2 13 14 18 35
1 2 13 14 17 18 35
1 2 5 13 15 26
1 3 13 14 18 35
1 3 13 14 17 18 35
1 37 12 13 14 18 35
1 2 12 13 14 18 35
1 2 5 12 13 15 26
1 3 12 13 14 18 35
1 37 12 13 14 17 18 35
1 2 12 13 14 17 18 35
1 3 11 14 18 30 35
1 2 11 14 18 30 35
1 37 11 18 30
1 11 12 13 32
1 37 11 12 13 14 18 35
1 2 11 12 13 14 18 35
1 37 11 13 14 18 30 35
1 2 11 13 14 18 30 35
1 37 11 12 13 14 17 18 35
1 37 11 12 13 14 17 18 23 24 25
1 2 11 12 13 14 17 18 35
1 37 11 17 18 30
1 2 11 14 17 18 30 35
1 3 11 14 17 18 30 35
1 37 11 13 14 17 18 30 35
1 37 11 13 14 17 18 23 24 25 30
1 2 11 13 14 17 18 30 35
1 4 11 17 29 30 31 34 35
1 2 11 15 17 30 31 35
1 37 11 17 30 31
1 2 11 14 17 30 31 35
1 4 11 15 17 30 31 34 35
1 4 11 14 17 30 31 34 35
1 36 2 4 5 8 9 10 11 14 17 23 24 25 30 31
1 36 2 4 5 11 14 17 23 24 25 26 30 31
1 4 11 14 17 27 30 31 34
1 36 2 4 5 8 9 10 11 15 17 30 31
1 36 2 4 5 11 15 17 26 30 31
1 4 11 15 17 27 30 31 34
1 4 11 17 27 30 31 32 34
1 4 11 17 27 30 31 32 33
 Analysis time: 18.978s