25/07/2021 17:11:00[DEBUG] pflow_file:  ../analysis/analisis_15_25072021/gen_nets2/20210725-164152_12/net.pflow  
25/07/2021 17:11:00[DEBUG] output_folder:  ../analysis/analisis_15_25072021/gen_nets2/20210725-164152_12/  
25/07/2021 17:11:00[DEBUG] html_path:  ../analysis/analisis_15_25072021/gen_nets2/20210725-164152_12/  
25/07/2021 17:11:00[DEBUG] txt_path:  ../analysis/analisis_15_25072021/gen_nets2/20210725-164152_12/txt_info  

--------------------------------------------------------------------------   
25/07/2021 17:11:00[INFO] Ejecutando petrinator para conocer estado de la red...   
--------------------------------------------------------------------------
   
25/07/2021 17:11:04[ERROR] La red ingresada no tiene deadlock, cerrando analisis 
  
