 Minimal siphons 
4 8 20 25
3 8 20 21 23 26
2 8 13 17 20 23
16 18
15 19
8 10
6 9
6 7 8 11
12 13 14 15 16 17 20 21 22
1 39 2 6 7 12 13 14 15 16 17 20
1 38 2 6 7 12 13 14 15 16 17 20
1 37 2 6 7 12 13 14 15 16 17 20
1 36 2 6 7 12 13 14 15 16 17 20
1 35 2 6 7 12 13 14 15 16 17 20
1 34 2 6 7 12 13 14 15 16 17 20
1 33 2 6 7 12 13 14 15 16 17 20
1 32 2 6 7 12 13 14 15 16 17 20
1 31 2 6 7 12 13 14 15 16 17 20
1 30 2 6 7 12 13 14 15 16 17 20
1 29 2 6 7 12 13 14 15 16 17 20
1 28 2 6 7 12 13 14 15 16 17 20
3 7 12 21 26
1 27 2 3 6 7 12 13 14 15 16 17 20 21
4 7 21 24
1 2 3 4 5
1 2 3 4 5 6 7 9
1 2 3 4 5 6 7 8 11
1 2 3 4 5 6 7 8 9
1 2 3 4 5 8 10
4 8 20 21 23 24 26
1 39 2 4 7 8 20 21 24
1 39 2 4 7 8 12 20 21 24
1 38 2 4 7 8 20 21 24
1 38 2 4 7 8 12 20 21 24
1 37 2 4 7 8 20 21 24
1 37 2 4 7 8 12 20 21 24
1 36 2 4 7 8 20 21 24
1 36 2 4 7 8 12 20 21 24
1 35 2 4 7 8 20 21 24
1 35 2 4 7 8 12 20 21 24
1 34 2 4 7 8 20 21 24
1 34 2 4 7 8 12 20 21 24
1 33 2 4 7 8 20 21 24
1 33 2 4 7 8 12 20 21 24
1 32 2 4 7 8 20 21 24
1 32 2 4 7 8 12 20 21 24
1 31 2 4 7 8 20 21 24
1 31 2 4 7 8 12 20 21 24
1 30 2 4 7 8 20 21 24
1 30 2 4 7 8 12 20 21 24
1 29 2 4 7 8 20 21 24
1 29 2 4 7 8 12 20 21 24
1 28 2 4 7 8 20 21 24
1 28 2 4 7 8 12 20 21 24
1 39 2 4 8 10 20 21 24
1 39 2 4 8 10 12 20 21 24
1 38 2 4 8 10 20 21 24
1 38 2 4 8 10 12 20 21 24
1 37 2 4 8 10 20 21 24
1 37 2 4 8 10 12 20 21 24
1 36 2 4 8 10 20 21 24
1 36 2 4 8 10 12 20 21 24
1 35 2 4 8 10 20 21 24
1 35 2 4 8 10 12 20 21 24
1 34 2 4 8 10 20 21 24
1 34 2 4 8 10 12 20 21 24
1 33 2 4 8 10 20 21 24
1 33 2 4 8 10 12 20 21 24
1 32 2 4 8 10 20 21 24
1 32 2 4 8 10 12 20 21 24
1 31 2 4 8 10 20 21 24
1 31 2 4 8 10 12 20 21 24
1 30 2 4 8 10 20 21 24
1 30 2 4 8 10 12 20 21 24
1 29 2 4 8 10 20 21 24
1 29 2 4 8 10 12 20 21 24
1 28 2 4 8 10 20 21 24
1 28 2 4 8 10 12 20 21 24
2 4 8 20 21 23 24
 Minimal traps 
15 19
16 18
6 9
2 7 17 20 23 26
3 7 17 20 21 25 26
4 7 21 24
8 10
4 8 20 25
3 7 12 17 21 26
2 8 13 17 20 23
1 2 3 4 5
2 4 7 13 17 20 23 24
6 7 8 11
1 28 2 4 6 7 20 25
1 29 2 4 6 7 20 25
1 30 2 4 6 7 20 25
1 31 2 4 6 7 20 25
1 32 2 4 6 7 20 25
1 33 2 4 6 7 20 25
1 34 2 4 6 7 20 25
1 35 2 4 6 7 20 25
1 36 2 4 6 7 20 25
1 37 2 4 6 7 20 25
1 38 2 4 6 7 20 25
1 39 2 4 6 7 20 25
1 39 27 2 6 7 20 25
1 38 27 2 6 7 20 25
1 37 27 2 6 7 20 25
1 36 27 2 6 7 20 25
1 35 27 2 6 7 20 25
1 34 27 2 6 7 20 25
1 33 27 2 6 7 20 25
1 32 27 2 6 7 20 25
1 31 27 2 6 7 20 25
1 30 27 2 6 7 20 25
1 29 27 2 6 7 20 25
1 28 27 2 6 7 20 25
1 27 2 3 6 7 20 25
1 28 2 6 7 17 20 25 26
1 29 2 6 7 17 20 25 26
1 30 2 6 7 17 20 25 26
1 31 2 6 7 17 20 25 26
1 32 2 6 7 17 20 25 26
1 33 2 6 7 17 20 25 26
1 34 2 6 7 17 20 25 26
1 35 2 6 7 17 20 25 26
1 36 2 6 7 17 20 25 26
1 37 2 6 7 17 20 25 26
1 38 2 6 7 17 20 25 26
1 39 2 6 7 17 20 25 26
1 27 2 6 7 13 17 20 23
1 28 2 6 7 13 17 20 23
1 29 2 6 7 13 17 20 23
1 30 2 6 7 13 17 20 23
1 31 2 6 7 13 17 20 23
1 32 2 6 7 13 17 20 23
1 33 2 6 7 13 17 20 23
1 34 2 6 7 13 17 20 23
1 35 2 6 7 13 17 20 23
1 36 2 6 7 13 17 20 23
1 37 2 6 7 13 17 20 23
1 38 2 6 7 13 17 20 23
1 39 2 6 7 13 17 20 23
2 8 13 16 17 20 23
12 13 14 15 16 17 20 21 22
2 8 13 15 16 17 20 23
1 39 2 6 7 12 14 15 16 17 20 26
1 39 2 6 7 12 13 14 15 16 17 20
1 38 2 6 7 12 14 15 16 17 20 26
1 38 2 6 7 12 13 14 15 16 17 20
1 37 2 6 7 12 14 15 16 17 20 26
1 37 2 6 7 12 13 14 15 16 17 20
1 36 2 6 7 12 14 15 16 17 20 26
1 36 2 6 7 12 13 14 15 16 17 20
1 35 2 6 7 12 14 15 16 17 20 26
1 35 2 6 7 12 13 14 15 16 17 20
1 34 2 6 7 12 14 15 16 17 20 26
1 34 2 6 7 12 13 14 15 16 17 20
1 33 2 6 7 12 14 15 16 17 20 26
1 33 2 6 7 12 13 14 15 16 17 20
1 32 2 6 7 12 14 15 16 17 20 26
1 32 2 6 7 12 13 14 15 16 17 20
1 31 2 6 7 12 14 15 16 17 20 26
1 31 2 6 7 12 13 14 15 16 17 20
1 30 2 6 7 12 14 15 16 17 20 26
1 30 2 6 7 12 13 14 15 16 17 20
1 29 2 6 7 12 14 15 16 17 20 26
1 29 2 6 7 12 13 14 15 16 17 20
1 28 2 6 7 12 14 15 16 17 20 26
1 28 2 6 7 12 13 14 15 16 17 20
1 27 2 3 6 7 12 13 14 15 16 17 20 21
 Analysis time: 4.914s