 Minimal siphons 
4 11 15 19 25 27 28 29
3 11 15 19 25 27 28
2 11 15 19 25 27
19 20
15 17
11 12
1 5
10 11 13
14 15 16 18 19 21 22 23
2 10 15 19 25
2 7
1 2 5
2 11 26
2 7 11 12
1 2 5 11 12
1 2 5 10 11 13
2 7 10 11 13
2 11 14 18 27
3 10 15 28
3 6
2 3 7
1 2 3 5
1 30 2 3 10 14 18 21
3 11 14 19 24
3 6 11 26
2 3 11 26
2 3 7 11 12
1 2 3 5 11 12
1 2 3 5 10 11 13
2 3 7 10 11 13
3 6 11 12
3 6 10 11 13
3 11 15 18 27 28
3 11 15 26 28
3 11 15 19 24 28
3 11 15 19 24 25
4 10 15 19 25 28 29
4 8
3 4 6
2 3 4 7
1 2 3 4 9
1 2 3 4 5
4 10 14 18 29
4 10 15 18 28 29
4 6 10 15 19 25 29
4 11 14 19 24 29
4 6 8 11 26
2 4 8 11 26
4 8 11 12
4 8 10 11 13
2 3 4 11 26
2 3 4 7 11 12
1 2 3 4 9 11 12
1 2 3 4 5 11 12
1 2 3 4 5 10 11 13
1 2 3 4 9 10 11 13
2 3 4 7 10 11 13
2 4 7 8 11 12
1 2 4 8 9 11 12
1 2 4 5 8 11 12
1 2 4 5 8 10 11 13
1 2 4 8 9 10 11 13
2 4 7 8 10 11 13
3 4 6 11 26
3 4 6 11 12
3 4 6 10 11 13
4 6 8 11 12
4 6 8 10 11 13
4 6 11 14 18 27 29
4 6 11 14 18 26 29
4 11 15 18 27 28 29
4 11 15 18 26 28 29
4 11 15 19 24 28 29
4 11 15 19 25 26 28 29
4 11 15 19 24 25 29
3 4 11 15 19 24 25
4 6 11 15 19 25 26 29
4 6 11 15 19 25 27 29
 Minimal traps 
1 5
2 10 14 18 27 28
3 10 14 18 28 29
4 10 14 18 29
15 17
19 20
10 11 13
11 12
14 15 16 18 19 21 22 23
4 8
4 8 10 11 13
4 8 10 11 12
4 8 10 11 13 14 15 17
4 8 10 11 12 14 15 17
3 11 14 19 24
3 6
3 4 8
3 6 11 12
3 4 8 11 12
3 10 15 28
3 6 10 11 13
3 4 8 10 11 13
3 4 8 10 11 12
3 6 10 11 12
3 6 10 11 13 15 17
3 4 8 10 11 13 15 17
3 4 8 10 11 12 15 17
3 6 10 11 12 15 17
3 10 14 19 24 28
3 10 14 18 24 29
2 11 14 18 27
2 7
2 3 6
2 3 4 8
2 11 26
2 7 11 12
2 3 6 11 12
2 3 4 8 11 12
2 10 15 19 25
2 10 11 26
2 7 10 11 13
2 3 6 10 11 13
2 3 4 8 10 11 13
2 3 4 8 10 11 12
2 3 6 10 11 12
2 7 10 11 12
2 10 15 26 28
2 10 14 19 24 26 28
2 10 14 19 24 25
2 10 14 18 26 28 29
2 10 14 18 25 28 29
2 10 14 18 24 25 29
2 6 10 14 18 25 29
2 10 14 18 24 26 29
2 6 10 14 18 26 29
2 10 14 18 24 27 29
2 6 10 14 18 27 29
2 10 14 18 25 27
1 2 7
1 2 3 6
1 2 3 4 9
1 2 3 4 8
1 2 11 26
1 2 7 11 12
1 2 3 6 11 12
1 2 3 4 9 11 12
1 2 3 4 8 11 12
1 2 10 11 26
1 2 7 10 11 13
1 2 3 6 10 11 13
1 2 3 4 9 10 11 13
1 2 3 4 8 10 11 13
1 2 3 4 8 10 11 12
1 2 3 4 9 10 11 12
1 2 3 6 10 11 12
1 2 7 10 11 12
1 30 2 3 10 14 18 21
1 30 2 10 14 18 21 25
1 30 2 10 14 18 21 26
1 30 2 10 14 18 21 27
 Analysis time: 1.337s