19/07/2021 16:53:36[DEBUG] pflow_file:  ../analysis/analisis_11_18072021/gen_nets/20210719-151114_29/net.pflow  
19/07/2021 16:53:36[DEBUG] output_folder:  ../analysis/analisis_11_18072021/gen_nets/20210719-151114_29/  
19/07/2021 16:53:36[DEBUG] html_path:  ../analysis/analisis_11_18072021/gen_nets/20210719-151114_29/  
19/07/2021 16:53:36[DEBUG] txt_path:  ../analysis/analisis_11_18072021/gen_nets/20210719-151114_29/txt_info  

--------------------------------------------------------------------------   
19/07/2021 16:53:36[INFO] Ejecutando petrinator para conocer estado de la red...   
--------------------------------------------------------------------------
   
19/07/2021 16:58:36[ERROR] Se alcanzo el limite de 300 segundos para la ejecucion de petrinator, cerrando analisis 
  
