11/09/2021 16:15:19[DEBUG] pflow_file:  ../analysis/analisis_23/20210910-223944_14/net.pflow  
11/09/2021 16:15:19[DEBUG] output_folder:  ../analysis/analisis_23/20210910-223944_14/  
11/09/2021 16:15:19[DEBUG] html_path:  ../analysis/analisis_23/20210910-223944_14/  
11/09/2021 16:15:19[DEBUG] txt_path:  ../analysis/analisis_23/20210910-223944_14/txt_info  

--------------------------------------------------------------------------   
11/09/2021 16:15:19[INFO] Ejecutando petrinator para conocer estado de la red...   
--------------------------------------------------------------------------
   
11/09/2021 16:15:27[INFO] SIFONES   
+----+-----+-------------------------------------------------+
| ID | Nro |                      Plazas                     |
+----+-----+-------------------------------------------------+
| 0  |  53 |     ['P2', 'P7', 'P9', 'P12', 'P31', 'P32']     |
| 1  |  54 |     ['P2', 'P7', 'P9', 'P12', 'P28', 'P31']     |
| 2  |  55 |     ['P2', 'P7', 'P9', 'P13', 'P29', 'P31']     |
| 3  |  70 |  ['P2', 'P7', 'P9', 'P14', 'P17', 'P29', 'P31'] |
| 4  |  80 |  ['P2', 'P7', 'P9', 'P14', 'P18', 'P29', 'P31'] |
| 5  |  97 |     ['P2', 'P7', 'P14', 'P21', 'P29', 'P31']    |
| 6  | 102 | ['P2', 'P7', 'P12', 'P14', 'P21', 'P31', 'P32'] |
| 7  | 107 | ['P2', 'P7', 'P12', 'P14', 'P21', 'P28', 'P31'] |
| 8  |  1  | ['P2', 'P7', 'P14', 'P21', 'P30', 'P31', 'P32'] |
| 9  |  35 |        ['P2', 'P5', 'P13', 'P30', 'P31']        |
| 10 |  40 |        ['P2', 'P5', 'P13', 'P24', 'P31']        |
| 11 |  41 |        ['P2', 'P5', 'P13', 'P23', 'P31']        |
| 12 |  42 |        ['P2', 'P5', 'P13', 'P20', 'P31']        |
| 13 |  50 |  ['P2', 'P7', 'P9', 'P13', 'P30', 'P31', 'P32'] |
| 14 |  56 |  ['P2', 'P7', 'P9', 'P13', 'P24', 'P31', 'P32'] |
| 15 |  57 |  ['P2', 'P7', 'P9', 'P13', 'P23', 'P31', 'P32'] |
| 16 |  58 |  ['P2', 'P7', 'P9', 'P13', 'P20', 'P31', 'P32'] |
| 17 |  98 | ['P2', 'P7', 'P14', 'P21', 'P24', 'P31', 'P32'] |
| 18 |  99 | ['P2', 'P7', 'P14', 'P21', 'P23', 'P31', 'P32'] |
| 19 | 100 | ['P2', 'P7', 'P14', 'P20', 'P21', 'P31', 'P32'] |
| 20 |  2  |        ['P1', 'P7', 'P14', 'P21', 'P29']        |
| 21 |  28 |  ['P1', 'P4', 'P7', 'P14', 'P21', 'P24', 'P32'] |
| 22 |  29 |     ['P1', 'P7', 'P14', 'P15', 'P21', 'P32']    |
| 23 |  30 |  ['P1', 'P4', 'P7', 'P14', 'P21', 'P23', 'P32'] |
| 24 |  31 |  ['P1', 'P4', 'P7', 'P14', 'P20', 'P21', 'P32'] |
| 25 | 101 | ['P2', 'P7', 'P14', 'P15', 'P21', 'P31', 'P32'] |
| 26 | 117 |  ['P2', 'P4', 'P7', 'P14', 'P21', 'P30', 'P32'] |
| 27 | 118 |  ['P2', 'P4', 'P7', 'P14', 'P21', 'P29', 'P30'] |
+----+-----+-------------------------------------------------+ 

11/09/2021 16:15:27[INFO] T INVARIANTES   
+----+----+----+----+----+----+----+----+----+----+-----+-----+
| T0 | T1 | T2 | T3 | T4 | T5 | T6 | T7 | T8 | T9 | T10 | T11 |
+----+----+----+----+----+----+----+----+----+----+-----+-----+
| 1  | 1  | 1  | 0  | 0  | 0  | 0  | 0  | 0  | 0  |  0  |  0  |
| 0  | 0  | 0  | 1  | 1  | 1  | 1  | 1  | 0  | 0  |  0  |  0  |
| 0  | 0  | 0  | 0  | 0  | 0  | 0  | 0  | 1  | 1  |  1  |  1  |
+----+----+----+----+----+----+----+----+----+----+-----+-----+ 

11/09/2021 16:15:27[INFO] Supervisores para agregar   
+-----+---------+---------------------+---------------------+-------------------------------------------------+
|  ID | Marcado |     T - Entrada     |      T - Salida     |                Sifon a controlar                |
+-----+---------+---------------------+---------------------+-------------------------------------------------+
| P33 |    2    | ['T2', 'T7', 'T10'] |     ['T1', 'T5']    |     ['P2', 'P7', 'P9', 'P12', 'P31', 'P32']     |
| P33 |    2    |     ['T2', 'T7']    |     ['T1', 'T5']    |     ['P2', 'P7', 'P9', 'P12', 'P28', 'P31']     |
| P33 |    2    | ['T2', 'T7', 'T10'] |  ['T1', 'T5', 'T9'] |     ['P2', 'P7', 'P9', 'P13', 'P29', 'P31']     |
| P33 |    3    | ['T2', 'T7', 'T11'] |  ['T1', 'T5', 'T9'] |  ['P2', 'P7', 'P9', 'P14', 'P17', 'P29', 'P31'] |
| P33 |    3    | ['T2', 'T6', 'T11'] |  ['T1', 'T5', 'T9'] |  ['P2', 'P7', 'P9', 'P14', 'P18', 'P29', 'P31'] |
| P33 |    2    | ['T2', 'T7', 'T11'] |  ['T1', 'T5', 'T9'] |     ['P2', 'P7', 'P14', 'P21', 'P29', 'P31']    |
| P33 |    2    | ['T2', 'T7', 'T10'] |     ['T1', 'T5']    | ['P2', 'P7', 'P12', 'P14', 'P21', 'P31', 'P32'] |
| P33 |    2    |     ['T2', 'T7']    |     ['T1', 'T5']    | ['P2', 'P7', 'P12', 'P14', 'P21', 'P28', 'P31'] |
| P33 |    3    | ['T3', 'T7', 'T10'] |  ['T1', 'T4', 'T9'] | ['P2', 'P7', 'P14', 'P21', 'P30', 'P31', 'P32'] |
| P33 |    1    | ['T3', 'T5', 'T10'] |     ['T4', 'T9']    |        ['P2', 'P5', 'P13', 'P30', 'P31']        |
| P33 |    1    |    ['T5', 'T10']    |     ['T4', 'T9']    |        ['P2', 'P5', 'P13', 'P24', 'P31']        |
| P33 |    1    |    ['T5', 'T10']    |     ['T4', 'T9']    |        ['P2', 'P5', 'P13', 'P23', 'P31']        |
| P33 |    1    |    ['T5', 'T10']    |     ['T4', 'T9']    |        ['P2', 'P5', 'P13', 'P20', 'P31']        |
| P33 |    3    | ['T3', 'T7', 'T10'] |  ['T1', 'T4', 'T9'] |  ['P2', 'P7', 'P9', 'P13', 'P30', 'P31', 'P32'] |
| P33 |    3    | ['T2', 'T7', 'T10'] |  ['T1', 'T4', 'T9'] |  ['P2', 'P7', 'P9', 'P13', 'P24', 'P31', 'P32'] |
| P33 |    3    | ['T2', 'T7', 'T10'] |  ['T1', 'T4', 'T9'] |  ['P2', 'P7', 'P9', 'P13', 'P23', 'P31', 'P32'] |
| P33 |    3    | ['T2', 'T7', 'T10'] |  ['T1', 'T4', 'T9'] |  ['P2', 'P7', 'P9', 'P13', 'P20', 'P31', 'P32'] |
| P33 |    3    | ['T2', 'T7', 'T10'] |  ['T1', 'T4', 'T9'] | ['P2', 'P7', 'P14', 'P21', 'P24', 'P31', 'P32'] |
| P33 |    3    | ['T2', 'T7', 'T10'] |  ['T1', 'T4', 'T9'] | ['P2', 'P7', 'P14', 'P21', 'P23', 'P31', 'P32'] |
| P33 |    3    | ['T2', 'T7', 'T10'] |  ['T1', 'T4', 'T9'] | ['P2', 'P7', 'P14', 'P20', 'P21', 'P31', 'P32'] |
| P33 |    1    |    ['T7', 'T11']    |    ['T6', 'T10']    |        ['P1', 'P7', 'P14', 'P21', 'P29']        |
| P33 |    2    |    ['T7', 'T11']    |     ['T6', 'T9']    |  ['P1', 'P4', 'P7', 'P14', 'P21', 'P24', 'P32'] |
| P33 |    2    |    ['T7', 'T11']    |     ['T6', 'T9']    |     ['P1', 'P7', 'P14', 'P15', 'P21', 'P32']    |
| P33 |    2    |    ['T7', 'T11']    |     ['T6', 'T9']    |  ['P1', 'P4', 'P7', 'P14', 'P21', 'P23', 'P32'] |
| P33 |    2    |    ['T7', 'T11']    |     ['T6', 'T9']    |  ['P1', 'P4', 'P7', 'P14', 'P20', 'P21', 'P32'] |
| P33 |    3    | ['T2', 'T7', 'T10'] |  ['T1', 'T5', 'T9'] | ['P2', 'P7', 'P14', 'P15', 'P21', 'P31', 'P32'] |
| P33 |    2    | ['T2', 'T7', 'T11'] |  ['T1', 'T6', 'T9'] |  ['P2', 'P4', 'P7', 'P14', 'P21', 'P30', 'P32'] |
| P33 |    2    | ['T2', 'T7', 'T11'] | ['T1', 'T6', 'T10'] |  ['P2', 'P4', 'P7', 'P14', 'P21', 'P29', 'P30'] |
+-----+---------+---------------------+---------------------+-------------------------------------------------+ 

11/09/2021 16:15:27[INFO] Supervisores agregados   
+-----+-------+---------+-------------+------------+----------------+
| Nro | Plaza | Marcado | T - Entrada | T - Salida | MAL supervisor |
+-----+-------+---------+-------------+------------+----------------+
+-----+-------+---------+-------------+------------+----------------+ 

11/09/2021 16:15:27[INFO] Supervisores eliminados   
+-----+-------+---------+-------------+------------+----------------+
| Nro | Plaza | Marcado | T - Entrada | T - Salida | MAL supervisor |
+-----+-------+---------+-------------+------------+----------------+
+-----+-------+---------+-------------+------------+----------------+ 

11/09/2021 16:15:27[INFO] Ejecutando accion...   
11/09/2021 16:15:27[ACTION] Agrego supervisor con menor numero de arcos de salida (MNAS)   
11/09/2021 16:15:27[INFO] Supervisor con menor cantidad de arcos de salida agregado 11   

--------------------------------------------------------------------------   
11/09/2021 16:15:27[INFO] Ejecutando petrinator para conocer estado de la red...   
--------------------------------------------------------------------------
   
--------------------------------------------------------------------------
   
11/09/2021 16:15:35[INFO] Calculando recompensa..   
11/09/2021 16:15:35[REWARD] Agregue un supervisor que genero menos sifones vacios en deadlock, recompensa -1   

--------------------------------------------------------------------------
   
11/09/2021 16:15:35[STATE] Cambie al estado 2: Hay menos sifones vacios en deadlock   
+--------+---------+-------------------+----------------+---------+---------+------------------------------------+
| Plazas | Estados | Tokens trabajando | Sifones vacios | Sifones | Trampas | Cantidad de supervisores agregados |
+--------+---------+-------------------+----------------+---------+---------+------------------------------------+
|   33   |    27   |         45        |       20       |   126   |   105   |                 1                  |
+--------+---------+-------------------+----------------+---------+---------+------------------------------------+ 
+-----------------------------------------------------+------------------+-----------------------+---------------------------+------------------------------+
|                   Estados/Acciones                  | Agregar sup MNAS | Agregar sup aleatorio | Eliminar sup MAL agregado | Eliminar ultimo sup agregado |
+-----------------------------------------------------+------------------+-----------------------+---------------------------+------------------------------+
|                        Start                        |       -1.0       |          0.0          |            0.0            |             0.0              |
|        Más sifónes vacíos en estado deadlock        |       0.0        |          0.0          |            0.0            |             0.0              |
|       Menos sifónes vacíos en estado deadlock       |       0.0        |          0.0          |            0.0            |             0.0              |
| Igual cantidad de sifónes vacíos en estado deadlock |       0.0        |          0.0          |            0.0            |             0.0              |
|                         End                         |       0.0        |          0.0          |            0.0            |             0.0              |
+-----------------------------------------------------+------------------+-----------------------+---------------------------+------------------------------+ 

11/09/2021 16:15:35[INFO] SIFONES   
+----+-----+-------------------------------------------------+
| ID | Nro |                      Plazas                     |
+----+-----+-------------------------------------------------+
| 28 |  54 |     ['P2', 'P7', 'P9', 'P12', 'P31', 'P32']     |
| 29 |  55 |     ['P2', 'P7', 'P9', 'P12', 'P28', 'P31']     |
| 30 |  56 |     ['P2', 'P7', 'P9', 'P13', 'P29', 'P31']     |
| 31 |  71 |  ['P2', 'P7', 'P9', 'P14', 'P17', 'P29', 'P31'] |
| 32 |  81 |  ['P2', 'P7', 'P9', 'P14', 'P18', 'P29', 'P31'] |
| 33 |  99 |     ['P2', 'P7', 'P14', 'P21', 'P29', 'P31']    |
| 34 | 104 | ['P2', 'P7', 'P12', 'P14', 'P21', 'P31', 'P32'] |
| 35 | 110 | ['P2', 'P7', 'P12', 'P14', 'P21', 'P28', 'P31'] |
| 36 |  1  | ['P2', 'P7', 'P14', 'P21', 'P30', 'P31', 'P32'] |
| 37 |  2  |        ['P1', 'P7', 'P14', 'P21', 'P29']        |
| 38 |  29 |  ['P1', 'P4', 'P7', 'P14', 'P21', 'P24', 'P32'] |
| 39 |  30 |     ['P1', 'P7', 'P14', 'P15', 'P21', 'P32']    |
| 40 |  31 |  ['P1', 'P4', 'P7', 'P14', 'P21', 'P23', 'P32'] |
| 41 |  32 |  ['P1', 'P4', 'P7', 'P14', 'P20', 'P21', 'P32'] |
| 42 | 100 | ['P2', 'P7', 'P14', 'P21', 'P24', 'P31', 'P32'] |
| 43 | 101 | ['P2', 'P7', 'P14', 'P21', 'P23', 'P31', 'P32'] |
| 44 | 102 | ['P2', 'P7', 'P14', 'P20', 'P21', 'P31', 'P32'] |
| 45 | 103 | ['P2', 'P7', 'P14', 'P15', 'P21', 'P31', 'P32'] |
| 46 | 120 |  ['P2', 'P4', 'P7', 'P14', 'P21', 'P30', 'P32'] |
| 47 | 121 |  ['P2', 'P4', 'P7', 'P14', 'P21', 'P29', 'P30'] |
+----+-----+-------------------------------------------------+ 

11/09/2021 16:15:36[INFO] T INVARIANTES   
+----+----+----+----+----+----+----+----+----+----+-----+-----+
| T0 | T1 | T2 | T3 | T4 | T5 | T6 | T7 | T8 | T9 | T10 | T11 |
+----+----+----+----+----+----+----+----+----+----+-----+-----+
| 1  | 1  | 1  | 0  | 0  | 0  | 0  | 0  | 0  | 0  |  0  |  0  |
| 0  | 0  | 0  | 1  | 1  | 1  | 1  | 1  | 0  | 0  |  0  |  0  |
| 0  | 0  | 0  | 0  | 0  | 0  | 0  | 0  | 1  | 1  |  1  |  1  |
+----+----+----+----+----+----+----+----+----+----+-----+-----+ 

11/09/2021 16:15:36[INFO] Supervisores para agregar   
+-----+---------+---------------------+---------------------+-------------------------------------------------+
|  ID | Marcado |     T - Entrada     |      T - Salida     |                Sifon a controlar                |
+-----+---------+---------------------+---------------------+-------------------------------------------------+
| P34 |    2    | ['T2', 'T7', 'T10'] |     ['T1', 'T5']    |     ['P2', 'P7', 'P9', 'P12', 'P31', 'P32']     |
| P34 |    2    |     ['T2', 'T7']    |     ['T1', 'T5']    |     ['P2', 'P7', 'P9', 'P12', 'P28', 'P31']     |
| P34 |    2    | ['T2', 'T7', 'T10'] |  ['T1', 'T5', 'T9'] |     ['P2', 'P7', 'P9', 'P13', 'P29', 'P31']     |
| P34 |    3    | ['T2', 'T7', 'T11'] |  ['T1', 'T5', 'T9'] |  ['P2', 'P7', 'P9', 'P14', 'P17', 'P29', 'P31'] |
| P34 |    3    | ['T2', 'T6', 'T11'] |  ['T1', 'T5', 'T9'] |  ['P2', 'P7', 'P9', 'P14', 'P18', 'P29', 'P31'] |
| P34 |    2    | ['T2', 'T7', 'T11'] |  ['T1', 'T5', 'T9'] |     ['P2', 'P7', 'P14', 'P21', 'P29', 'P31']    |
| P34 |    2    | ['T2', 'T7', 'T10'] |     ['T1', 'T5']    | ['P2', 'P7', 'P12', 'P14', 'P21', 'P31', 'P32'] |
| P34 |    2    |     ['T2', 'T7']    |     ['T1', 'T5']    | ['P2', 'P7', 'P12', 'P14', 'P21', 'P28', 'P31'] |
| P34 |    3    | ['T3', 'T7', 'T10'] |  ['T1', 'T4', 'T9'] | ['P2', 'P7', 'P14', 'P21', 'P30', 'P31', 'P32'] |
| P34 |    1    |    ['T7', 'T11']    |    ['T6', 'T10']    |        ['P1', 'P7', 'P14', 'P21', 'P29']        |
| P34 |    2    |    ['T7', 'T11']    |     ['T6', 'T9']    |  ['P1', 'P4', 'P7', 'P14', 'P21', 'P24', 'P32'] |
| P34 |    2    |    ['T7', 'T11']    |     ['T6', 'T9']    |     ['P1', 'P7', 'P14', 'P15', 'P21', 'P32']    |
| P34 |    2    |    ['T7', 'T11']    |     ['T6', 'T9']    |  ['P1', 'P4', 'P7', 'P14', 'P21', 'P23', 'P32'] |
| P34 |    2    |    ['T7', 'T11']    |     ['T6', 'T9']    |  ['P1', 'P4', 'P7', 'P14', 'P20', 'P21', 'P32'] |
| P34 |    3    | ['T2', 'T7', 'T10'] |  ['T1', 'T4', 'T9'] | ['P2', 'P7', 'P14', 'P21', 'P24', 'P31', 'P32'] |
| P34 |    3    | ['T2', 'T7', 'T10'] |  ['T1', 'T4', 'T9'] | ['P2', 'P7', 'P14', 'P21', 'P23', 'P31', 'P32'] |
| P34 |    3    | ['T2', 'T7', 'T10'] |  ['T1', 'T4', 'T9'] | ['P2', 'P7', 'P14', 'P20', 'P21', 'P31', 'P32'] |
| P34 |    3    | ['T2', 'T7', 'T10'] |  ['T1', 'T5', 'T9'] | ['P2', 'P7', 'P14', 'P15', 'P21', 'P31', 'P32'] |
| P34 |    2    | ['T2', 'T7', 'T11'] |  ['T1', 'T6', 'T9'] |  ['P2', 'P4', 'P7', 'P14', 'P21', 'P30', 'P32'] |
| P34 |    2    | ['T2', 'T7', 'T11'] | ['T1', 'T6', 'T10'] |  ['P2', 'P4', 'P7', 'P14', 'P21', 'P29', 'P30'] |
+-----+---------+---------------------+---------------------+-------------------------------------------------+ 

11/09/2021 16:15:36[INFO] Supervisores agregados   
+-----+-------+---------+---------------+--------------+----------------+
| Nro | Plaza | Marcado |  T - Entrada  |  T - Salida  | MAL supervisor |
+-----+-------+---------+---------------+--------------+----------------+
|  1  |  P33  |    1    | ['T5', 'T10'] | ['T4', 'T9'] |     False      |
+-----+-------+---------+---------------+--------------+----------------+ 

11/09/2021 16:15:36[INFO] Supervisores eliminados   
+-----+-------+---------+-------------+------------+----------------+
| Nro | Plaza | Marcado | T - Entrada | T - Salida | MAL supervisor |
+-----+-------+---------+-------------+------------+----------------+
+-----+-------+---------+-------------+------------+----------------+ 

11/09/2021 16:15:36[INFO] Ejecutando accion...   
11/09/2021 16:15:36[ACTION] Agrego supervisor aleatorio Numero: 1  

--------------------------------------------------------------------------   
11/09/2021 16:15:36[INFO] Ejecutando petrinator para conocer estado de la red...   
--------------------------------------------------------------------------
   
--------------------------------------------------------------------------
   
11/09/2021 16:15:45[INFO] Calculando recompensa..   
11/09/2021 16:15:45[REWARD] Agregue un supervisor que genero menos sifones vacios en deadlock, recompensa -1   

--------------------------------------------------------------------------
   
11/09/2021 16:15:45[STATE] Cambie al estado 2: Hay menos sifones vacios en deadlock   
+--------+---------+-------------------+----------------+---------+---------+------------------------------------+
| Plazas | Estados | Tokens trabajando | Sifones vacios | Sifones | Trampas | Cantidad de supervisores agregados |
+--------+---------+-------------------+----------------+---------+---------+------------------------------------+
|   33   |    27   |         45        |       20       |   126   |   105   |                 1                  |
|   34   |    26   |         42        |       13       |   160   |   119   |                 2                  |
+--------+---------+-------------------+----------------+---------+---------+------------------------------------+ 
+-----------------------------------------------------+------------------+-----------------------+---------------------------+------------------------------+
|                   Estados/Acciones                  | Agregar sup MNAS | Agregar sup aleatorio | Eliminar sup MAL agregado | Eliminar ultimo sup agregado |
+-----------------------------------------------------+------------------+-----------------------+---------------------------+------------------------------+
|                        Start                        |       -1.0       |          0.0          |            0.0            |             0.0              |
|        Más sifónes vacíos en estado deadlock        |       0.0        |          0.0          |            0.0            |             0.0              |
|       Menos sifónes vacíos en estado deadlock       |       0.0        |          -1.0         |            0.0            |             0.0              |
| Igual cantidad de sifónes vacíos en estado deadlock |       0.0        |          0.0          |            0.0            |             0.0              |
|                         End                         |       0.0        |          0.0          |            0.0            |             0.0              |
+-----------------------------------------------------+------------------+-----------------------+---------------------------+------------------------------+ 

11/09/2021 16:15:45[INFO] SIFONES   
+----+-----+-------------------------------------------------+
| ID | Nro |                      Plazas                     |
+----+-----+-------------------------------------------------+
| 48 |  1  | ['P2', 'P7', 'P14', 'P21', 'P30', 'P31', 'P32'] |
| 49 |  2  |        ['P1', 'P7', 'P14', 'P21', 'P29']        |
| 50 |  40 |  ['P1', 'P4', 'P7', 'P14', 'P21', 'P24', 'P32'] |
| 51 |  42 |     ['P1', 'P7', 'P14', 'P15', 'P21', 'P32']    |
| 52 |  45 |  ['P1', 'P4', 'P7', 'P14', 'P21', 'P23', 'P32'] |
| 53 |  46 |  ['P1', 'P4', 'P7', 'P14', 'P20', 'P21', 'P32'] |
| 54 | 125 |     ['P2', 'P7', 'P14', 'P21', 'P29', 'P31']    |
| 55 | 126 | ['P2', 'P7', 'P14', 'P21', 'P24', 'P31', 'P32'] |
| 56 | 127 | ['P2', 'P7', 'P14', 'P21', 'P23', 'P31', 'P32'] |
| 57 | 128 | ['P2', 'P7', 'P14', 'P20', 'P21', 'P31', 'P32'] |
| 58 | 129 | ['P2', 'P7', 'P14', 'P15', 'P21', 'P31', 'P32'] |
| 59 | 150 |  ['P2', 'P4', 'P7', 'P14', 'P21', 'P30', 'P32'] |
| 60 | 155 |  ['P2', 'P4', 'P7', 'P14', 'P21', 'P29', 'P30'] |
+----+-----+-------------------------------------------------+ 

11/09/2021 16:15:45[INFO] T INVARIANTES   
+----+----+----+----+----+----+----+----+----+----+-----+-----+
| T0 | T1 | T2 | T3 | T4 | T5 | T6 | T7 | T8 | T9 | T10 | T11 |
+----+----+----+----+----+----+----+----+----+----+-----+-----+
| 1  | 1  | 1  | 0  | 0  | 0  | 0  | 0  | 0  | 0  |  0  |  0  |
| 0  | 0  | 0  | 1  | 1  | 1  | 1  | 1  | 0  | 0  |  0  |  0  |
| 0  | 0  | 0  | 0  | 0  | 0  | 0  | 0  | 1  | 1  |  1  |  1  |
+----+----+----+----+----+----+----+----+----+----+-----+-----+ 

11/09/2021 16:15:45[INFO] Supervisores para agregar   
+-----+---------+---------------------+---------------------+-------------------------------------------------+
|  ID | Marcado |     T - Entrada     |      T - Salida     |                Sifon a controlar                |
+-----+---------+---------------------+---------------------+-------------------------------------------------+
| P35 |    3    | ['T3', 'T7', 'T10'] |  ['T1', 'T4', 'T9'] | ['P2', 'P7', 'P14', 'P21', 'P30', 'P31', 'P32'] |
| P35 |    1    |    ['T7', 'T11']    |    ['T6', 'T10']    |        ['P1', 'P7', 'P14', 'P21', 'P29']        |
| P35 |    2    |    ['T7', 'T11']    |     ['T6', 'T9']    |  ['P1', 'P4', 'P7', 'P14', 'P21', 'P24', 'P32'] |
| P35 |    2    |    ['T7', 'T11']    |     ['T6', 'T9']    |     ['P1', 'P7', 'P14', 'P15', 'P21', 'P32']    |
| P35 |    2    |    ['T7', 'T11']    |     ['T6', 'T9']    |  ['P1', 'P4', 'P7', 'P14', 'P21', 'P23', 'P32'] |
| P35 |    2    |    ['T7', 'T11']    |     ['T6', 'T9']    |  ['P1', 'P4', 'P7', 'P14', 'P20', 'P21', 'P32'] |
| P35 |    2    | ['T2', 'T7', 'T11'] |  ['T1', 'T5', 'T9'] |     ['P2', 'P7', 'P14', 'P21', 'P29', 'P31']    |
| P35 |    3    | ['T2', 'T7', 'T10'] |  ['T1', 'T4', 'T9'] | ['P2', 'P7', 'P14', 'P21', 'P24', 'P31', 'P32'] |
| P35 |    3    | ['T2', 'T7', 'T10'] |  ['T1', 'T4', 'T9'] | ['P2', 'P7', 'P14', 'P21', 'P23', 'P31', 'P32'] |
| P35 |    3    | ['T2', 'T7', 'T10'] |  ['T1', 'T4', 'T9'] | ['P2', 'P7', 'P14', 'P20', 'P21', 'P31', 'P32'] |
| P35 |    3    | ['T2', 'T7', 'T10'] |  ['T1', 'T5', 'T9'] | ['P2', 'P7', 'P14', 'P15', 'P21', 'P31', 'P32'] |
| P35 |    2    | ['T2', 'T7', 'T11'] |  ['T1', 'T6', 'T9'] |  ['P2', 'P4', 'P7', 'P14', 'P21', 'P30', 'P32'] |
| P35 |    2    | ['T2', 'T7', 'T11'] | ['T1', 'T6', 'T10'] |  ['P2', 'P4', 'P7', 'P14', 'P21', 'P29', 'P30'] |
+-----+---------+---------------------+---------------------+-------------------------------------------------+ 

11/09/2021 16:15:45[INFO] Supervisores agregados   
+-----+-------+---------+---------------+--------------+----------------+
| Nro | Plaza | Marcado |  T - Entrada  |  T - Salida  | MAL supervisor |
+-----+-------+---------+---------------+--------------+----------------+
|  1  |  P33  |    1    | ['T5', 'T10'] | ['T4', 'T9'] |     False      |
|  2  |  P34  |    2    |  ['T2', 'T7'] | ['T1', 'T5'] |     False      |
+-----+-------+---------+---------------+--------------+----------------+ 

11/09/2021 16:15:45[INFO] Supervisores eliminados   
+-----+-------+---------+-------------+------------+----------------+
| Nro | Plaza | Marcado | T - Entrada | T - Salida | MAL supervisor |
+-----+-------+---------+-------------+------------+----------------+
+-----+-------+---------+-------------+------------+----------------+ 

11/09/2021 16:15:45[INFO] Ejecutando accion...   
11/09/2021 16:15:45[ACTION] Agrego supervisor con menor numero de arcos de salida (MNAS)   
11/09/2021 16:15:45[INFO] Supervisor con menor cantidad de arcos de salida agregado 4   

--------------------------------------------------------------------------   
11/09/2021 16:15:45[INFO] Ejecutando petrinator para conocer estado de la red...   
--------------------------------------------------------------------------
   
--------------------------------------------------------------------------
   
11/09/2021 16:15:57[INFO] Calculando recompensa..   
11/09/2021 16:15:57[REWARD] Agregue un supervisor que genero menos sifones vacios en deadlock, recompensa -1   

--------------------------------------------------------------------------
   
11/09/2021 16:15:57[STATE] Cambie al estado 2: Hay menos sifones vacios en deadlock   
+--------+---------+-------------------+----------------+---------+---------+------------------------------------+
| Plazas | Estados | Tokens trabajando | Sifones vacios | Sifones | Trampas | Cantidad de supervisores agregados |
+--------+---------+-------------------+----------------+---------+---------+------------------------------------+
|   33   |    27   |         45        |       20       |   126   |   105   |                 1                  |
|   34   |    26   |         42        |       13       |   160   |   119   |                 2                  |
|   35   |    25   |         39        |       2        |   247   |   151   |                 3                  |
+--------+---------+-------------------+----------------+---------+---------+------------------------------------+ 
+-----------------------------------------------------+------------------+-----------------------+---------------------------+------------------------------+
|                   Estados/Acciones                  | Agregar sup MNAS | Agregar sup aleatorio | Eliminar sup MAL agregado | Eliminar ultimo sup agregado |
+-----------------------------------------------------+------------------+-----------------------+---------------------------+------------------------------+
|                        Start                        |       -1.0       |          0.0          |            0.0            |             0.0              |
|        Más sifónes vacíos en estado deadlock        |       0.0        |          0.0          |            0.0            |             0.0              |
|       Menos sifónes vacíos en estado deadlock       |       -1.0       |          -1.0         |            0.0            |             0.0              |
| Igual cantidad de sifónes vacíos en estado deadlock |       0.0        |          0.0          |            0.0            |             0.0              |
|                         End                         |       0.0        |          0.0          |            0.0            |             0.0              |
+-----------------------------------------------------+------------------+-----------------------+---------------------------+------------------------------+ 

11/09/2021 16:15:57[INFO] SIFONES   
+----+-----+------------------------------------------------+
| ID | Nro |                     Plazas                     |
+----+-----+------------------------------------------------+
| 61 |  2  |       ['P1', 'P7', 'P14', 'P21', 'P29']        |
| 62 | 242 | ['P2', 'P4', 'P7', 'P14', 'P21', 'P29', 'P30'] |
+----+-----+------------------------------------------------+ 

11/09/2021 16:15:57[INFO] T INVARIANTES   
+----+----+----+----+----+----+----+----+----+----+-----+-----+
| T0 | T1 | T2 | T3 | T4 | T5 | T6 | T7 | T8 | T9 | T10 | T11 |
+----+----+----+----+----+----+----+----+----+----+-----+-----+
| 1  | 1  | 1  | 0  | 0  | 0  | 0  | 0  | 0  | 0  |  0  |  0  |
| 0  | 0  | 0  | 1  | 1  | 1  | 1  | 1  | 0  | 0  |  0  |  0  |
| 0  | 0  | 0  | 0  | 0  | 0  | 0  | 0  | 1  | 1  |  1  |  1  |
+----+----+----+----+----+----+----+----+----+----+-----+-----+ 

11/09/2021 16:15:57[INFO] Supervisores para agregar   
+-----+---------+---------------------+---------------------+------------------------------------------------+
|  ID | Marcado |     T - Entrada     |      T - Salida     |               Sifon a controlar                |
+-----+---------+---------------------+---------------------+------------------------------------------------+
| P36 |    1    |    ['T7', 'T11']    |    ['T6', 'T10']    |       ['P1', 'P7', 'P14', 'P21', 'P29']        |
| P36 |    2    | ['T2', 'T7', 'T11'] | ['T1', 'T6', 'T10'] | ['P2', 'P4', 'P7', 'P14', 'P21', 'P29', 'P30'] |
+-----+---------+---------------------+---------------------+------------------------------------------------+ 

11/09/2021 16:15:57[INFO] Supervisores agregados   
+-----+-------+---------+---------------+--------------+----------------+
| Nro | Plaza | Marcado |  T - Entrada  |  T - Salida  | MAL supervisor |
+-----+-------+---------+---------------+--------------+----------------+
|  1  |  P33  |    1    | ['T5', 'T10'] | ['T4', 'T9'] |     False      |
|  2  |  P34  |    2    |  ['T2', 'T7'] | ['T1', 'T5'] |     False      |
|  3  |  P35  |    2    | ['T7', 'T11'] | ['T6', 'T9'] |     False      |
+-----+-------+---------+---------------+--------------+----------------+ 

11/09/2021 16:15:57[INFO] Supervisores eliminados   
+-----+-------+---------+-------------+------------+----------------+
| Nro | Plaza | Marcado | T - Entrada | T - Salida | MAL supervisor |
+-----+-------+---------+-------------+------------+----------------+
+-----+-------+---------+-------------+------------+----------------+ 

11/09/2021 16:15:57[INFO] Ejecutando accion...   
11/09/2021 16:15:57[ACTION] Eliminar un supervisor mal agregado   

--------------------------------------------------------------------------   
11/09/2021 16:15:57[INFO] Ejecutando petrinator para conocer estado de la red...   
--------------------------------------------------------------------------
   
--------------------------------------------------------------------------
   
11/09/2021 16:16:08[INFO] Calculando recompensa..   
11/09/2021 16:16:08[REWARD] No habia ningun supervisor mal agregado, recompensa -30   

--------------------------------------------------------------------------
   
11/09/2021 16:16:08[STATE] Cambie al estado 3: Hay igual cantidad de sifones vacios en deadlock   
+--------+---------+-------------------+----------------+---------+---------+------------------------------------+
| Plazas | Estados | Tokens trabajando | Sifones vacios | Sifones | Trampas | Cantidad de supervisores agregados |
+--------+---------+-------------------+----------------+---------+---------+------------------------------------+
|   33   |    27   |         45        |       20       |   126   |   105   |                 1                  |
|   34   |    26   |         42        |       13       |   160   |   119   |                 2                  |
|   35   |    25   |         39        |       2        |   247   |   151   |                 3                  |
|   35   |    25   |         39        |       2        |   247   |   151   |                 3                  |
+--------+---------+-------------------+----------------+---------+---------+------------------------------------+ 
+-----------------------------------------------------+------------------+-----------------------+---------------------------+------------------------------+
|                   Estados/Acciones                  | Agregar sup MNAS | Agregar sup aleatorio | Eliminar sup MAL agregado | Eliminar ultimo sup agregado |
+-----------------------------------------------------+------------------+-----------------------+---------------------------+------------------------------+
|                        Start                        |       -1.0       |          0.0          |            0.0            |             0.0              |
|        Más sifónes vacíos en estado deadlock        |       0.0        |          0.0          |            0.0            |             0.0              |
|       Menos sifónes vacíos en estado deadlock       |       -1.0       |          -1.0         |           -30.0           |             0.0              |
| Igual cantidad de sifónes vacíos en estado deadlock |       0.0        |          0.0          |            0.0            |             0.0              |
|                         End                         |       0.0        |          0.0          |            0.0            |             0.0              |
+-----------------------------------------------------+------------------+-----------------------+---------------------------+------------------------------+ 

11/09/2021 16:16:08[INFO] SIFONES   
+----+-----+------------------------------------------------+
| ID | Nro |                     Plazas                     |
+----+-----+------------------------------------------------+
| 63 |  2  |       ['P1', 'P7', 'P14', 'P21', 'P29']        |
| 64 | 242 | ['P2', 'P4', 'P7', 'P14', 'P21', 'P29', 'P30'] |
+----+-----+------------------------------------------------+ 

11/09/2021 16:16:08[INFO] T INVARIANTES   
+----+----+----+----+----+----+----+----+----+----+-----+-----+
| T0 | T1 | T2 | T3 | T4 | T5 | T6 | T7 | T8 | T9 | T10 | T11 |
+----+----+----+----+----+----+----+----+----+----+-----+-----+
| 1  | 1  | 1  | 0  | 0  | 0  | 0  | 0  | 0  | 0  |  0  |  0  |
| 0  | 0  | 0  | 1  | 1  | 1  | 1  | 1  | 0  | 0  |  0  |  0  |
| 0  | 0  | 0  | 0  | 0  | 0  | 0  | 0  | 1  | 1  |  1  |  1  |
+----+----+----+----+----+----+----+----+----+----+-----+-----+ 

11/09/2021 16:16:08[INFO] Supervisores para agregar   
+-----+---------+---------------------+---------------------+------------------------------------------------+
|  ID | Marcado |     T - Entrada     |      T - Salida     |               Sifon a controlar                |
+-----+---------+---------------------+---------------------+------------------------------------------------+
| P36 |    1    |    ['T7', 'T11']    |    ['T6', 'T10']    |       ['P1', 'P7', 'P14', 'P21', 'P29']        |
| P36 |    2    | ['T2', 'T7', 'T11'] | ['T1', 'T6', 'T10'] | ['P2', 'P4', 'P7', 'P14', 'P21', 'P29', 'P30'] |
+-----+---------+---------------------+---------------------+------------------------------------------------+ 

11/09/2021 16:16:08[INFO] Supervisores agregados   
+-----+-------+---------+---------------+--------------+----------------+
| Nro | Plaza | Marcado |  T - Entrada  |  T - Salida  | MAL supervisor |
+-----+-------+---------+---------------+--------------+----------------+
|  1  |  P33  |    1    | ['T5', 'T10'] | ['T4', 'T9'] |     False      |
|  2  |  P34  |    2    |  ['T2', 'T7'] | ['T1', 'T5'] |     False      |
|  3  |  P35  |    2    | ['T7', 'T11'] | ['T6', 'T9'] |     False      |
+-----+-------+---------+---------------+--------------+----------------+ 

11/09/2021 16:16:08[INFO] Supervisores eliminados   
+-----+-------+---------+-------------+------------+----------------+
| Nro | Plaza | Marcado | T - Entrada | T - Salida | MAL supervisor |
+-----+-------+---------+-------------+------------+----------------+
+-----+-------+---------+-------------+------------+----------------+ 

11/09/2021 16:16:08[INFO] Ejecutando accion...   
11/09/2021 16:16:08[ACTION] Agrego supervisor aleatorio Numero: 1  

--------------------------------------------------------------------------   
11/09/2021 16:16:08[INFO] Ejecutando petrinator para conocer estado de la red...   
--------------------------------------------------------------------------
   
--------------------------------------------------------------------------
   
11/09/2021 16:16:21[INFO] Calculando recompensa..   
11/09/2021 16:16:21[REWARD] Sigue existiendo el sifon del diablo que se quiso controlar, recompensa -30   

--------------------------------------------------------------------------
   
11/09/2021 16:16:21[STATE] Cambie al estado 3: Hay igual cantidad de sifones vacios en deadlock   
+--------+---------+-------------------+----------------+---------+---------+------------------------------------+
| Plazas | Estados | Tokens trabajando | Sifones vacios | Sifones | Trampas | Cantidad de supervisores agregados |
+--------+---------+-------------------+----------------+---------+---------+------------------------------------+
|   33   |    27   |         45        |       20       |   126   |   105   |                 1                  |
|   34   |    26   |         42        |       13       |   160   |   119   |                 2                  |
|   35   |    25   |         39        |       2        |   247   |   151   |                 3                  |
|   35   |    25   |         39        |       2        |   247   |   151   |                 3                  |
|   36   |    25   |         39        |       2        |   323   |   165   |                 4                  |
+--------+---------+-------------------+----------------+---------+---------+------------------------------------+ 
+-----------------------------------------------------+------------------+-----------------------+---------------------------+------------------------------+
|                   Estados/Acciones                  | Agregar sup MNAS | Agregar sup aleatorio | Eliminar sup MAL agregado | Eliminar ultimo sup agregado |
+-----------------------------------------------------+------------------+-----------------------+---------------------------+------------------------------+
|                        Start                        |       -1.0       |          0.0          |            0.0            |             0.0              |
|        Más sifónes vacíos en estado deadlock        |       0.0        |          0.0          |            0.0            |             0.0              |
|       Menos sifónes vacíos en estado deadlock       |       -1.0       |          -1.0         |           -30.0           |             0.0              |
| Igual cantidad de sifónes vacíos en estado deadlock |       0.0        |         -30.0         |            0.0            |             0.0              |
|                         End                         |       0.0        |          0.0          |            0.0            |             0.0              |
+-----------------------------------------------------+------------------+-----------------------+---------------------------+------------------------------+ 

11/09/2021 16:16:21[INFO] SIFONES   
+----+-----+------------------------------------------------+
| ID | Nro |                     Plazas                     |
+----+-----+------------------------------------------------+
| 65 |  2  |       ['P1', 'P7', 'P14', 'P21', 'P29']        |
| 66 | 318 | ['P2', 'P4', 'P7', 'P14', 'P21', 'P29', 'P30'] |
+----+-----+------------------------------------------------+ 

11/09/2021 16:16:21[INFO] T INVARIANTES   
+----+----+----+----+----+----+----+----+----+----+-----+-----+
| T0 | T1 | T2 | T3 | T4 | T5 | T6 | T7 | T8 | T9 | T10 | T11 |
+----+----+----+----+----+----+----+----+----+----+-----+-----+
| 1  | 1  | 1  | 0  | 0  | 0  | 0  | 0  | 0  | 0  |  0  |  0  |
| 0  | 0  | 0  | 1  | 1  | 1  | 1  | 1  | 0  | 0  |  0  |  0  |
| 0  | 0  | 0  | 0  | 0  | 0  | 0  | 0  | 1  | 1  |  1  |  1  |
+----+----+----+----+----+----+----+----+----+----+-----+-----+ 

11/09/2021 16:16:21[INFO] Supervisores para agregar   
+-----+---------+---------------------+---------------------+------------------------------------------------+
|  ID | Marcado |     T - Entrada     |      T - Salida     |               Sifon a controlar                |
+-----+---------+---------------------+---------------------+------------------------------------------------+
| P37 |    1    |    ['T7', 'T11']    |    ['T6', 'T10']    |       ['P1', 'P7', 'P14', 'P21', 'P29']        |
| P37 |    2    | ['T2', 'T7', 'T11'] | ['T1', 'T6', 'T10'] | ['P2', 'P4', 'P7', 'P14', 'P21', 'P29', 'P30'] |
+-----+---------+---------------------+---------------------+------------------------------------------------+ 

11/09/2021 16:16:21[INFO] Supervisores agregados   
+-----+-------+---------+---------------------+---------------------+----------------+
| Nro | Plaza | Marcado |     T - Entrada     |      T - Salida     | MAL supervisor |
+-----+-------+---------+---------------------+---------------------+----------------+
|  1  |  P33  |    1    |    ['T5', 'T10']    |     ['T4', 'T9']    |     False      |
|  2  |  P34  |    2    |     ['T2', 'T7']    |     ['T1', 'T5']    |     False      |
|  3  |  P35  |    2    |    ['T7', 'T11']    |     ['T6', 'T9']    |     False      |
|  4  |  P36  |    2    | ['T2', 'T7', 'T11'] | ['T1', 'T6', 'T10'] |      True      |
+-----+-------+---------+---------------------+---------------------+----------------+ 

11/09/2021 16:16:21[INFO] Supervisores eliminados   
+-----+-------+---------+-------------+------------+----------------+
| Nro | Plaza | Marcado | T - Entrada | T - Salida | MAL supervisor |
+-----+-------+---------+-------------+------------+----------------+
+-----+-------+---------+-------------+------------+----------------+ 

11/09/2021 16:16:21[INFO] Ejecutando accion...   
11/09/2021 16:16:21[ACTION] Agrego supervisor con menor numero de arcos de salida (MNAS)   
11/09/2021 16:16:21[INFO] Supervisor con menor cantidad de arcos de salida agregado 0   

--------------------------------------------------------------------------   
11/09/2021 16:16:21[INFO] Ejecutando petrinator para conocer estado de la red...   
--------------------------------------------------------------------------
   
--------------------------------------------------------------------------
   
11/09/2021 16:16:36[INFO] Calculando recompensa..   
11/09/2021 16:16:36[REWARD] Agregue un supervisor que genero mas sifones vacios en deadlock, recompensa -10   

--------------------------------------------------------------------------
   
11/09/2021 16:16:36[STATE] Cambie al estado 1: Hay mas sifones vacios en deadlock   
+--------+---------+-------------------+----------------+---------+---------+------------------------------------+
| Plazas | Estados | Tokens trabajando | Sifones vacios | Sifones | Trampas | Cantidad de supervisores agregados |
+--------+---------+-------------------+----------------+---------+---------+------------------------------------+
|   33   |    27   |         45        |       20       |   126   |   105   |                 1                  |
|   34   |    26   |         42        |       13       |   160   |   119   |                 2                  |
|   35   |    25   |         39        |       2        |   247   |   151   |                 3                  |
|   35   |    25   |         39        |       2        |   247   |   151   |                 3                  |
|   36   |    25   |         39        |       2        |   323   |   165   |                 4                  |
|   37   |    24   |         37        |       13       |   407   |   203   |                 5                  |
+--------+---------+-------------------+----------------+---------+---------+------------------------------------+ 
+-----------------------------------------------------+------------------+-----------------------+---------------------------+------------------------------+
|                   Estados/Acciones                  | Agregar sup MNAS | Agregar sup aleatorio | Eliminar sup MAL agregado | Eliminar ultimo sup agregado |
+-----------------------------------------------------+------------------+-----------------------+---------------------------+------------------------------+
|                        Start                        |       -1.0       |          0.0          |            0.0            |             0.0              |
|        Más sifónes vacíos en estado deadlock        |       0.0        |          0.0          |            0.0            |             0.0              |
|       Menos sifónes vacíos en estado deadlock       |       -1.0       |          -1.0         |           -30.0           |             0.0              |
| Igual cantidad de sifónes vacíos en estado deadlock |      -10.0       |         -30.0         |            0.0            |             0.0              |
|                         End                         |       0.0        |          0.0          |            0.0            |             0.0              |
+-----------------------------------------------------+------------------+-----------------------+---------------------------+------------------------------+ 

11/09/2021 16:16:36[INFO] SIFONES   
+----+-----+-------------------------------------------------------------+
| ID | Nro |                            Plazas                           |
+----+-----+-------------------------------------------------------------+
| 67 |  40 |              ['P1', 'P7', 'P13', 'P32', 'P37']              |
| 68 |  48 |           ['P1', 'P7', 'P13', 'P14', 'P32', 'P37']          |
| 69 |  85 |           ['P1', 'P7', 'P14', 'P21', 'P32', 'P37']          |
| 70 | 140 |           ['P2', 'P7', 'P13', 'P31', 'P32', 'P37']          |
| 71 | 145 |           ['P1', 'P2', 'P7', 'P13', 'P32', 'P37']           |
| 72 | 150 |     ['P1', 'P2', 'P4', 'P7', 'P13', 'P32', 'P33', 'P37']    |
| 73 | 191 |        ['P1', 'P2', 'P7', 'P13', 'P32', 'P35', 'P37']       |
| 74 | 209 |        ['P1', 'P2', 'P7', 'P9', 'P13', 'P32', 'P37']        |
| 75 | 224 |        ['P1', 'P2', 'P7', 'P13', 'P14', 'P32', 'P37']       |
| 76 | 229 | ['P1', 'P2', 'P4', 'P7', 'P13', 'P14', 'P32', 'P33', 'P37'] |
| 77 | 279 |    ['P1', 'P2', 'P7', 'P13', 'P14', 'P32', 'P35', 'P37']    |
| 78 | 328 |     ['P1', 'P2', 'P7', 'P9', 'P13', 'P14', 'P32', 'P37']    |
| 79 | 368 |       ['P2', 'P7', 'P14', 'P21', 'P31', 'P32', 'P37']       |
+----+-----+-------------------------------------------------------------+ 

11/09/2021 16:16:36[INFO] T INVARIANTES   
+----+----+----+----+----+----+----+----+----+----+-----+-----+
| T0 | T1 | T2 | T3 | T4 | T5 | T6 | T7 | T8 | T9 | T10 | T11 |
+----+----+----+----+----+----+----+----+----+----+-----+-----+
| 1  | 1  | 1  | 0  | 0  | 0  | 0  | 0  | 0  | 0  |  0  |  0  |
| 0  | 0  | 0  | 1  | 1  | 1  | 1  | 1  | 0  | 0  |  0  |  0  |
| 0  | 0  | 0  | 0  | 0  | 0  | 0  | 0  | 1  | 1  |  1  |  1  |
+----+----+----+----+----+----+----+----+----+----+-----+-----+ 

11/09/2021 16:16:36[INFO] Supervisores para agregar   
+-----+---------+---------------------+--------------------+------------------------------------------------------+
|  ID | Marcado |     T - Entrada     |     T - Salida     |                  Sifon a controlar                   |
+-----+---------+---------------------+--------------------+------------------------------------------------------+
| P38 |    1    |    ['T7', 'T11']    |    ['T6', 'T9']    |       ['P1', 'P7', 'P14', 'P21', 'P32', 'P37']       |
| P38 |    1    | ['T2', 'T7', 'T10'] | ['T1', 'T5', 'T9'] |       ['P2', 'P7', 'P13', 'P31', 'P32', 'P37']       |
| P38 |    1    | ['T2', 'T7', 'T10'] | ['T3', 'T6', 'T9'] |    ['P1', 'P2', 'P7', 'P9', 'P13', 'P32', 'P37']     |
| P38 |    1    | ['T2', 'T7', 'T10'] | ['T3', 'T6', 'T9'] | ['P1', 'P2', 'P7', 'P9', 'P13', 'P14', 'P32', 'P37'] |
| P38 |    2    | ['T2', 'T7', 'T10'] | ['T1', 'T5', 'T9'] |   ['P2', 'P7', 'P14', 'P21', 'P31', 'P32', 'P37']    |
+-----+---------+---------------------+--------------------+------------------------------------------------------+ 

11/09/2021 16:16:36[INFO] Supervisores agregados   
+-----+-------+---------+---------------------+---------------------+----------------+
| Nro | Plaza | Marcado |     T - Entrada     |      T - Salida     | MAL supervisor |
+-----+-------+---------+---------------------+---------------------+----------------+
|  1  |  P33  |    1    |    ['T5', 'T10']    |     ['T4', 'T9']    |     False      |
|  2  |  P34  |    2    |     ['T2', 'T7']    |     ['T1', 'T5']    |     False      |
|  3  |  P35  |    2    |    ['T7', 'T11']    |     ['T6', 'T9']    |     False      |
|  4  |  P36  |    2    | ['T2', 'T7', 'T11'] | ['T1', 'T6', 'T10'] |      True      |
|  5  |  P37  |    1    |    ['T7', 'T11']    |    ['T6', 'T10']    |     False      |
+-----+-------+---------+---------------------+---------------------+----------------+ 

11/09/2021 16:16:36[INFO] Supervisores eliminados   
+-----+-------+---------+-------------+------------+----------------+
| Nro | Plaza | Marcado | T - Entrada | T - Salida | MAL supervisor |
+-----+-------+---------+-------------+------------+----------------+
+-----+-------+---------+-------------+------------+----------------+ 

11/09/2021 16:16:36[INFO] Ejecutando accion...   
11/09/2021 16:16:36[ACTION] Agrego supervisor con menor numero de arcos de salida (MNAS)   
11/09/2021 16:16:36[INFO] Supervisor con menor cantidad de arcos de salida agregado 0   

--------------------------------------------------------------------------   
11/09/2021 16:16:36[INFO] Ejecutando petrinator para conocer estado de la red...   
--------------------------------------------------------------------------
   
--------------------------------------------------------------------------
   
11/09/2021 16:16:53[INFO] Calculando recompensa..   
11/09/2021 16:16:53[REWARD] No hay mas deadlock, recompensa 100   

--------------------------------------------------------------------------
   
11/09/2021 16:16:53[STATE] Se llego al estado deseado, NO HAY MAS DEADLOCK   

--------------------------------------------------------------------------
   
+--------+---------+-------------------+----------------+---------+---------+------------------------------------+
| Plazas | Estados | Tokens trabajando | Sifones vacios | Sifones | Trampas | Cantidad de supervisores agregados |
+--------+---------+-------------------+----------------+---------+---------+------------------------------------+
|   33   |    27   |         45        |       20       |   126   |   105   |                 1                  |
|   34   |    26   |         42        |       13       |   160   |   119   |                 2                  |
|   35   |    25   |         39        |       2        |   247   |   151   |                 3                  |
|   35   |    25   |         39        |       2        |   247   |   151   |                 3                  |
|   36   |    25   |         39        |       2        |   323   |   165   |                 4                  |
|   37   |    24   |         37        |       13       |   407   |   203   |                 5                  |
|   38   |    22   |         33        |       0        |   499   |   235   |                 6                  |
+--------+---------+-------------------+----------------+---------+---------+------------------------------------+ 
+-----------------------------------------------------+------------------+-----------------------+---------------------------+------------------------------+
|                   Estados/Acciones                  | Agregar sup MNAS | Agregar sup aleatorio | Eliminar sup MAL agregado | Eliminar ultimo sup agregado |
+-----------------------------------------------------+------------------+-----------------------+---------------------------+------------------------------+
|                        Start                        |       -1.0       |          0.0          |            0.0            |             0.0              |
|        Más sifónes vacíos en estado deadlock        |      100.0       |          0.0          |            0.0            |             0.0              |
|       Menos sifónes vacíos en estado deadlock       |       -1.0       |          -1.0         |           -30.0           |             0.0              |
| Igual cantidad de sifónes vacíos en estado deadlock |      -10.0       |         -30.0         |            0.0            |             0.0              |
|                         End                         |       0.0        |          0.0          |            0.0            |             0.0              |
+-----------------------------------------------------+------------------+-----------------------+---------------------------+------------------------------+ 

+-----+-------+---------+---------------+--------------+----------------+
| Nro | Plaza | Marcado |  T - Entrada  |  T - Salida  | MAL supervisor |
+-----+-------+---------+---------------+--------------+----------------+
|  1  |  P33  |    1    | ['T5', 'T10'] | ['T4', 'T9'] |     False      |
+-----+-------+---------+---------------+--------------+----------------+ 

--------------------------------------------------------------------------   
11/09/2021 16:16:53[INFO] Ejecutando petrinator para conocer estado de la red...   
--------------------------------------------------------------------------
   

--------------------------------------------------------------------------   
11/09/2021 16:17:07[INFO] Ejecutando petrinator para conocer estado de la red...   
--------------------------------------------------------------------------
   
+-----+-------+---------+--------------+--------------+----------------+
| Nro | Plaza | Marcado | T - Entrada  |  T - Salida  | MAL supervisor |
+-----+-------+---------+--------------+--------------+----------------+
|  2  |  P34  |    2    | ['T2', 'T7'] | ['T1', 'T5'] |     False      |
+-----+-------+---------+--------------+--------------+----------------+ 

--------------------------------------------------------------------------   
11/09/2021 16:17:25[INFO] Ejecutando petrinator para conocer estado de la red...   
--------------------------------------------------------------------------
   

--------------------------------------------------------------------------   
11/09/2021 16:17:40[INFO] Ejecutando petrinator para conocer estado de la red...   
--------------------------------------------------------------------------
   
+-----+-------+---------+---------------+--------------+----------------+
| Nro | Plaza | Marcado |  T - Entrada  |  T - Salida  | MAL supervisor |
+-----+-------+---------+---------------+--------------+----------------+
|  3  |  P35  |    2    | ['T7', 'T11'] | ['T6', 'T9'] |     False      |
+-----+-------+---------+---------------+--------------+----------------+ 

--------------------------------------------------------------------------   
11/09/2021 16:17:59[INFO] Ejecutando petrinator para conocer estado de la red...   
--------------------------------------------------------------------------
   
+-----+-------+---------+---------------------+---------------------+----------------+
| Nro | Plaza | Marcado |     T - Entrada     |      T - Salida     | MAL supervisor |
+-----+-------+---------+---------------------+---------------------+----------------+
|  4  |  P36  |    2    | ['T2', 'T7', 'T11'] | ['T1', 'T6', 'T10'] |      True      |
+-----+-------+---------+---------------------+---------------------+----------------+ 

--------------------------------------------------------------------------   
11/09/2021 16:18:14[INFO] Ejecutando petrinator para conocer estado de la red...   
--------------------------------------------------------------------------
   
+-----+-------+---------+---------------+---------------+----------------+
| Nro | Plaza | Marcado |  T - Entrada  |   T - Salida  | MAL supervisor |
+-----+-------+---------+---------------+---------------+----------------+
|  5  |  P37  |    1    | ['T7', 'T11'] | ['T6', 'T10'] |     False      |
+-----+-------+---------+---------------+---------------+----------------+ 

--------------------------------------------------------------------------   
11/09/2021 16:18:27[INFO] Ejecutando petrinator para conocer estado de la red...   
--------------------------------------------------------------------------
   
+-----+-------+---------+---------------+--------------+----------------+
| Nro | Plaza | Marcado |  T - Entrada  |  T - Salida  | MAL supervisor |
+-----+-------+---------+---------------+--------------+----------------+
|  6  |  P38  |    1    | ['T7', 'T11'] | ['T6', 'T9'] |     False      |
+-----+-------+---------+---------------+--------------+----------------+ 

--------------------------------------------------------------------------   
11/09/2021 16:18:39[INFO] Ejecutando petrinator para conocer estado de la red...   
--------------------------------------------------------------------------
   

--------------------------------------------------------------------------   
11/09/2021 16:18:49[INFO] Ejecutando petrinator para conocer estado de la red...   
--------------------------------------------------------------------------
   
+--------+---------+-------------------+----------------+---------+---------+------------------------------------+
| Plazas | Estados | Tokens trabajando | Sifones vacios | Sifones | Trampas | Cantidad de supervisores agregados |
+--------+---------+-------------------+----------------+---------+---------+------------------------------------+
|   35   |    22   |         33        |       0        |   247   |   151   |                 6                  |
+--------+---------+-------------------+----------------+---------+---------+------------------------------------+ 
