19/07/2021 23:27:38[DEBUG] pflow_file:  ../analysis/analisis_11_19072021/gen_nets/20210719-224351_30/net.pflow  
19/07/2021 23:27:38[DEBUG] output_folder:  ../analysis/analisis_11_19072021/gen_nets/20210719-224351_30/  
19/07/2021 23:27:38[DEBUG] html_path:  ../analysis/analisis_11_19072021/gen_nets/20210719-224351_30/  
19/07/2021 23:27:38[DEBUG] txt_path:  ../analysis/analisis_11_19072021/gen_nets/20210719-224351_30/txt_info  

--------------------------------------------------------------------------   
19/07/2021 23:27:38[INFO] Ejecutando petrinator para conocer estado de la red...   
--------------------------------------------------------------------------
   
19/07/2021 23:27:43[ERROR] La red ingresada no tiene deadlock, cerrando analisis 
  
