21/07/2021 09:29:27[DEBUG] pflow_file:  ../analysis/analisis_12_20072021/gen_nets1/20210720-191422_8/net.pflow  
21/07/2021 09:29:27[DEBUG] output_folder:  ../analysis/analisis_12_20072021/gen_nets1/20210720-191422_8/  
21/07/2021 09:29:27[DEBUG] html_path:  ../analysis/analisis_12_20072021/gen_nets1/20210720-191422_8/  
21/07/2021 09:29:27[DEBUG] txt_path:  ../analysis/analisis_12_20072021/gen_nets1/20210720-191422_8/txt_info  

--------------------------------------------------------------------------   
21/07/2021 09:29:27[INFO] Ejecutando petrinator para conocer estado de la red...   
--------------------------------------------------------------------------
   
21/07/2021 09:29:31[ERROR] La red ingresada no tiene deadlock, cerrando analisis 
  
