14/07/2021 15:26:07[DEBUG] pflow_file:  ../prueba/gen_nets/20210713-184900_17/net.pflow  
14/07/2021 15:26:07[DEBUG] output_folder:  ../prueba/gen_nets/20210713-184900_17/  
14/07/2021 15:26:07[DEBUG] html_path:  ../prueba/gen_nets/20210713-184900_17/  
14/07/2021 15:26:07[DEBUG] txt_path:  ../prueba/gen_nets/20210713-184900_17/txt_info  

--------------------------------------------------------------------------   
14/07/2021 15:26:07[INFO] Ejecutando petrinator para conocer estado de la red...   
--------------------------------------------------------------------------
   
+----+-----+-------------------------------------------------+
| ID | Nro |                      Plazas                     |
+----+-----+-------------------------------------------------+
| 0  |  5  |     ['P2', 'P7', 'P15', 'P18', 'P29', 'P30']    |
| 1  |  20 |     ['P2', 'P7', 'P15', 'P18', 'P26', 'P29']    |
| 2  |  40 |     ['P3', 'P7', 'P15', 'P18', 'P23', 'P29']    |
| 3  |  43 | ['P3', 'P7', 'P15', 'P18', 'P24', 'P26', 'P29'] |
+----+-----+-------------------------------------------------+
+----+----+----+----+----+----+----+----+----+----+-----+-----+-----+-----+-----+
| T0 | T1 | T2 | T3 | T4 | T5 | T6 | T7 | T8 | T9 | T10 | T11 | T12 | T13 | T14 |
+----+----+----+----+----+----+----+----+----+----+-----+-----+-----+-----+-----+
| 1  | 1  | 1  | 1  | 0  | 0  | 0  | 0  | 0  | 0  |  0  |  0  |  0  |  0  |  0  |
| 0  | 0  | 0  | 0  | 1  | 1  | 1  | 1  | 1  | 0  |  0  |  0  |  0  |  0  |  0  |
| 0  | 0  | 0  | 0  | 0  | 0  | 0  | 0  | 0  | 1  |  1  |  1  |  0  |  0  |  0  |
| 0  | 0  | 0  | 0  | 0  | 0  | 0  | 0  | 0  | 0  |  0  |  0  |  1  |  1  |  1  |
+----+----+----+----+----+----+----+----+----+----+-----+-----+-----+-----+-----+
14/07/2021 15:26:14[INFO] Supervisores para agregar   
+-----+---------+----------------------------+----------------------------+
|  ID | Marcado |        T - Entrada         |         T - Salida         |
+-----+---------+----------------------------+----------------------------+
| P31 |    1    |    ['T2', 'T7', 'T11']     | ['T1', 'T5', 'T10', 'T13'] |
| P31 |    1    |    ['T2', 'T6', 'T11']     | ['T1', 'T5', 'T10', 'T13'] |
| P31 |    1    | ['T3', 'T6', 'T11', 'T14'] | ['T1', 'T5', 'T10', 'T13'] |
| P31 |    2    |    ['T3', 'T6', 'T11']     | ['T1', 'T5', 'T10', 'T13'] |
+-----+---------+----------------------------+----------------------------+
+-----+---------+-------------+------------+
| Nro | Marcado | T - Entrada | T - Salida |
+-----+---------+-------------+------------+
+-----+---------+-------------+------------+
14/07/2021 15:26:14[INFO] Ejecutando accion...   
14/07/2021 15:26:14[INFO] Ejecutando accion...   
14/07/2021 15:26:14[ACTION] Agrego supervisor aleatorio Numero: 1  

--------------------------------------------------------------------------   
14/07/2021 15:26:14[INFO] Ejecutando petrinator para conocer estado de la red...   
--------------------------------------------------------------------------
   

--------------------------------------------------------------------------
   
14/07/2021 15:26:22[INFO] Calculando recompensa..   
14/07/2021 15:26:22[REWARD] El sifon se controlo correctamente, recompensa -1   

--------------------------------------------------------------------------
   
14/07/2021 15:26:22[STATE] Cambie al estado 2: Hay menos sifones vacios en deadlock   
+-----------------------------------------------------+--------------------+------------------------+
|                   Estados/Acciones                  | Agregar supervisor | Agregar o quitar arcos |
+-----------------------------------------------------+--------------------+------------------------+
|                        Start                        |        -1.0        |          0.0           |
|        Más sifónes vacíos en estado deadlock        |        0.0         |          0.0           |
|       Menos sifónes vacíos en estado deadlock       |        0.0         |          0.0           |
| Igual cantidad de sifónes vacíos en estado deadlock |        0.0         |          0.0           |
|                         End                         |        0.0         |          0.0           |
+-----------------------------------------------------+--------------------+------------------------+
+----+-----+----------------------------+
| ID | Nro |           Plazas           |
+----+-----+----------------------------+
| 4  |  11 | ['P1', 'P6', 'P14', 'P31'] |
+----+-----+----------------------------+
+----+----+----+----+----+----+----+----+----+----+-----+-----+-----+-----+-----+
| T0 | T1 | T2 | T3 | T4 | T5 | T6 | T7 | T8 | T9 | T10 | T11 | T12 | T13 | T14 |
+----+----+----+----+----+----+----+----+----+----+-----+-----+-----+-----+-----+
| 1  | 1  | 1  | 1  | 0  | 0  | 0  | 0  | 0  | 0  |  0  |  0  |  0  |  0  |  0  |
| 0  | 0  | 0  | 0  | 1  | 1  | 1  | 1  | 1  | 0  |  0  |  0  |  0  |  0  |  0  |
| 0  | 0  | 0  | 0  | 0  | 0  | 0  | 0  | 0  | 1  |  1  |  1  |  0  |  0  |  0  |
+----+----+----+----+----+----+----+----+----+----+-----+-----+-----+-----+-----+
14/07/2021 15:26:22[INFO] Supervisores para agregar   
+----+---------+-------------+------------+
| ID | Marcado | T - Entrada | T - Salida |
+----+---------+-------------+------------+
+----+---------+-------------+------------+
+-----+---------+---------------------+----------------------------+
| Nro | Marcado |     T - Entrada     |         T - Salida         |
+-----+---------+---------------------+----------------------------+
|  1  |    1    | ['T2', 'T6', 'T11'] | ['T1', 'T5', 'T10', 'T13'] |
+-----+---------+---------------------+----------------------------+
14/07/2021 15:26:22[INFO] Ejecutando accion...   
14/07/2021 15:26:22[ACTION] Agregar o quitar arcos   
14/07/2021 15:26:22[ACTION] Eliminar arco desde P31 hasta T13   
14/07/2021 15:26:22[INFO] Se elimino el arco desde P31 hasta T13   

--------------------------------------------------------------------------   
14/07/2021 15:26:22[INFO] Ejecutando petrinator para conocer estado de la red...   
--------------------------------------------------------------------------
   

--------------------------------------------------------------------------
   
14/07/2021 15:26:30[INFO] Calculando recompensa..   
14/07/2021 15:26:30[REWARD] No hay mas deadlock, recompensa 100   

--------------------------------------------------------------------------
   
14/07/2021 15:26:30[STATE] Se llego al estado deseado, NO HAY MAS DEADLOCK   

--------------------------------------------------------------------------
   
14/07/2021 15:26:30[STATE] Cambie al estado 2: Hay menos sifones vacios en deadlock   
+-----------------------------------------------------+--------------------+------------------------+
|                   Estados/Acciones                  | Agregar supervisor | Agregar o quitar arcos |
+-----------------------------------------------------+--------------------+------------------------+
|                        Start                        |        -1.0        |          0.0           |
|        Más sifónes vacíos en estado deadlock        |        0.0         |          0.0           |
|       Menos sifónes vacíos en estado deadlock       |        0.0         |         100.0          |
| Igual cantidad de sifónes vacíos en estado deadlock |        0.0         |          0.0           |
|                         End                         |        0.0         |          0.0           |
+-----------------------------------------------------+--------------------+------------------------+
