 Minimal siphons 
19 20
3 9 15 28
9 12
8 11
2 7 15 18 29 30
1 7 15 30
14 15 17
7 10
14 16
1 6 15 26
1 6 25
1 31 6 14
1 7 10 25
1 6 7 25
2 6 22
2 4
1 2 6 25
2 4 6 25
2 7 14 18 29
2 7 15 22 30
2 7 15 18 26 29
7 8 10
1 7 8 10 25
1 6 7 8 25
7 8 9 10
6 7 8 9 13
1 7 8 9 10 25
1 6 7 8 9 25
3 8 27
3 7 15 18 24 29 30
3 6 15 18 23
2 3 4
1 2 3 5
3 6 24
2 3 6 22
2 3 4 6 25
1 2 3 6 25
3 7 14 18 24 29
3 7 15 22 24 30
3 4 7 15 24 30
3 7 15 18 23 29
3 7 15 18 22 23 30
3 4 7 15 18 23 30
3 7 15 18 24 26 29
3 6 9 12 24
2 3 4 9 12
1 2 3 5 9 12
2 3 6 9 12 22
2 3 4 6 9 12 25
1 2 3 6 9 12 25
1 2 3 5 6 9 12 13
2 3 4 6 9 12 13
18 19 21
 Minimal traps 
1 6 14 18 26 29
2 6 14 18 24 29
14 16
3 6 15 18 23
18 19 21
19 20
7 10
8 11
9 12
6 7 8 9 13
3 7 10 27
3 8 27
3 9 15 28
3 8 11 15 28
3 8 9 15 28
3 7 8 27
3 7 8 11 15 28
3 7 8 9 15 28
3 7 10 11 15 28
3 7 9 10 15 28
3 6 24
3 6 7 10 27
3 6 7 8 27
3 6 10 15 24 27 28
3 6 8 15 24 27 28
3 6 9 15 24 28
3 6 7 8 15 27 28
3 6 7 8 11 15 28
3 6 7 8 9 15 28
3 6 8 11 15 24 28
3 6 8 9 15 24 28
3 6 7 10 15 27 28
3 6 7 10 11 15 28
3 6 7 9 10 15 28
3 6 10 11 15 24 28
3 6 9 10 15 24 28
14 15 17
3 7 10 14 15 27 28
3 8 14 15 27 28
3 9 14 15 28
3 8 11 14 15 28
3 8 9 14 15 28
3 8 14 15 17 27
3 7 8 14 15 27 28
3 7 8 11 14 15 28
3 7 8 9 14 15 28
3 7 8 14 15 17 27
3 7 10 11 14 15 28
3 7 9 10 14 15 28
3 7 10 14 15 17 27
3 6 10 14 15 24 27 28
3 6 8 14 15 24 27 28
3 6 9 14 15 24 28
3 6 14 15 17 24
3 6 9 13 14 15 17 24
3 6 9 12 14 15 17 24
3 6 7 8 14 15 27 28
3 6 7 8 11 14 15 28
3 6 7 8 9 14 15 28
3 6 7 8 14 15 17 27
3 6 8 11 14 15 24 28
3 6 8 9 14 15 24 28
3 6 8 9 13 14 15 17 24
3 6 8 9 12 14 15 17 24
3 6 8 11 14 15 17 24
3 6 8 14 15 17 24 27
3 6 7 10 14 15 27 28
3 6 7 10 11 14 15 28
3 6 7 9 10 14 15 28
3 6 7 10 14 15 17 27
3 6 10 11 14 15 24 28
3 6 9 10 14 15 24 28
3 6 10 14 15 17 24
3 6 9 10 13 14 15 17 24
3 6 9 10 12 14 15 17 24
3 6 10 11 14 15 17 24
3 6 10 14 15 17 24 27
2 7 14 18 29
2 4
2 3 8 27
2 3 9 14 16 28
2 3 9 15 28
2 3 9 14 15 28
2 3 8 11 14 16 28
2 3 8 9 14 16 28
2 3 8 9 15 28
2 3 8 9 14 15 28
2 3 8 11 15 28
2 3 8 11 14 15 28
2 4 7 10
2 3 7 10 27
2 3 7 8 27
2 3 7 8 11 15 28
2 3 7 8 9 15 28
2 3 7 10 11 15 28
2 3 7 9 10 15 28
2 4 7 8 27
2 4 7 8 11
2 4 7 8 9 15 28
2 4 7 8 9 12
2 4 7 10 14 16
2 3 7 10 14 16 27
2 3 7 8 14 16 27
2 3 7 8 14 15 27 28
2 3 7 8 11 14 15 28
2 3 7 8 9 14 15 28
2 3 7 8 14 15 17 27
2 3 7 8 11 14 16 28
2 3 7 8 9 14 16 28
2 3 7 10 14 15 27 28
2 3 7 10 11 14 15 28
2 3 7 9 10 14 15 28
2 3 7 10 14 15 17 27
2 3 7 10 11 14 16 28
2 3 7 9 10 14 16 28
2 4 7 8 14 16 27
2 4 7 8 14 15 27 28
2 4 7 8 11 14 15 28
2 4 7 8 9 14 15 28
2 4 7 8 9 12 14 15 17
2 4 7 8 11 14 15 17
2 4 7 8 14 15 17 27
2 4 7 8 11 14 16
2 4 7 8 9 14 16 28
2 4 7 8 9 12 14 16
2 4 7 10 14 15 27 28
2 4 7 10 11 14 15 28
2 4 7 9 10 14 15 28
2 4 7 10 14 15 17
2 4 7 9 10 12 14 15 17
2 4 7 10 11 14 15 17
2 4 7 10 14 15 17 27
2 6 22
2 3 6 24
2 3 6 7 10 27
2 3 6 7 8 27
2 3 6 10 15 24 27 28
2 3 6 8 15 24 27 28
2 3 6 9 15 24 28
2 3 6 7 8 15 27 28
2 3 6 7 8 11 15 28
2 3 6 7 8 9 15 28
2 3 6 8 11 15 24 28
2 3 6 8 9 15 24 28
2 3 6 7 10 15 27 28
2 3 6 7 10 11 15 28
2 3 6 7 9 10 15 28
2 3 6 10 11 15 24 28
2 3 6 9 10 15 24 28
2 4 6 24
2 4 6 7 10
2 4 6 7 8 27
2 4 6 7 8 11
2 4 6 7 8 9 13
2 4 6 7 8 9 12
2 4 6 10 15 24 27 28
2 4 6 8 15 24 27 28
2 4 6 9 15 24 28
2 4 6 7 8 15 27 28
2 4 6 7 8 11 15 28
2 4 6 7 8 9 15 28
2 4 6 8 11 15 24 28
2 4 6 8 9 15 24 28
2 4 6 7 10 15 27 28
2 4 6 7 10 11 15 28
2 4 6 7 9 10 15 28
2 4 6 10 11 15 24 28
2 4 6 9 10 15 24 28
2 6 14 16 22
2 6 10 14 15 22 27 28
2 6 8 14 15 22 27 28
2 6 9 14 15 22 28
2 6 14 15 17 22
2 4 6 14 15 17 24
2 3 6 14 15 17 24
2 4 6 9 14 15 24 28
2 3 6 9 14 15 24 28
2 3 6 9 13 14 15 17 24
2 3 6 9 12 14 15 17 24
2 4 6 9 13 14 15 17 24
2 4 6 9 12 14 15 17 24
2 6 9 13 14 15 17 22
2 6 9 12 14 15 17 22
2 4 6 8 14 15 24 27 28
2 3 6 8 14 15 24 27 28
2 3 6 7 8 14 15 27 28
2 3 6 7 8 11 14 15 28
2 3 6 7 8 9 14 15 28
2 3 6 7 8 14 15 17 27
2 3 6 8 11 14 15 24 28
2 3 6 8 9 14 15 24 28
2 3 6 8 9 13 14 15 17 24
2 3 6 8 9 12 14 15 17 24
2 3 6 8 11 14 15 17 24
2 3 6 8 14 15 17 24 27
2 4 6 7 8 14 15 27 28
2 4 6 7 8 11 14 15 28
2 4 6 7 8 9 14 15 28
2 4 6 7 8 9 13 14 15 17
2 4 6 7 8 9 12 14 15 17
2 4 6 7 8 11 14 15 17
2 4 6 7 8 14 15 17 27
2 4 6 8 11 14 15 24 28
2 4 6 8 9 14 15 24 28
2 4 6 8 9 13 14 15 17 24
2 4 6 8 9 12 14 15 17 24
2 4 6 8 11 14 15 17 24
2 4 6 8 14 15 17 24 27
2 6 8 11 14 15 22 28
2 6 8 9 14 15 22 28
2 6 8 9 13 14 15 17 22
2 6 8 9 12 14 15 17 22
2 6 8 11 14 15 17 22
2 6 8 14 15 17 22 27
2 4 6 10 14 15 24 27 28
2 3 6 10 14 15 24 27 28
2 3 6 7 10 14 15 27 28
2 3 6 7 10 11 14 15 28
2 3 6 7 9 10 14 15 28
2 3 6 7 10 14 15 17 27
2 3 6 10 11 14 15 24 28
2 3 6 9 10 14 15 24 28
2 3 6 10 14 15 17 24
2 3 6 9 10 13 14 15 17 24
2 3 6 9 10 12 14 15 17 24
2 3 6 10 11 14 15 17 24
2 3 6 10 14 15 17 24 27
2 4 6 7 10 14 15 27 28
2 4 6 7 10 11 14 15 28
2 4 6 7 9 10 14 15 28
2 4 6 7 10 14 15 17
2 4 6 7 9 10 13 14 15 17
2 4 6 7 9 10 12 14 15 17
2 4 6 7 10 11 14 15 17
2 4 6 7 10 14 15 17 27
2 4 6 10 11 14 15 24 28
2 4 6 9 10 14 15 24 28
2 4 6 10 14 15 17 24
2 4 6 9 10 13 14 15 17 24
2 4 6 9 10 12 14 15 17 24
2 4 6 10 11 14 15 17 24
2 4 6 10 14 15 17 24 27
2 6 10 11 14 15 22 28
2 6 9 10 14 15 22 28
2 6 10 14 15 17 22
2 6 9 10 13 14 15 17 22
2 6 9 10 12 14 15 17 22
2 6 10 11 14 15 17 22
2 6 10 14 15 17 22 27
2 4 6 14 16 24
2 3 6 14 16 24
2 3 6 7 10 14 16 27
2 3 6 7 8 14 16 27
2 3 6 7 8 11 14 16 28
2 3 6 7 8 9 14 16 28
2 3 6 7 10 11 14 16 28
2 3 6 7 9 10 14 16 28
2 4 6 7 10 14 16
2 4 6 7 8 14 16 27
2 4 6 7 8 11 14 16
2 4 6 7 8 9 14 16 28
2 4 6 7 8 9 13 14 16
2 4 6 7 8 9 12 14 16
2 6 14 18 23 29
1 7 14 18 29 30
1 2 4
1 2 3 8 27
1 2 3 9 14 16 28
1 2 3 5
1 2 3 9 15 28
1 2 3 5 9 12
1 2 3 9 14 15 28
1 2 3 5 9 12 14 15 17
1 2 3 5 9 12 14 16
1 2 3 8 11 14 16 28
1 2 3 8 9 14 16 28
1 2 3 8 9 15 28
1 2 3 5 8 9 12
1 2 3 8 9 14 15 28
1 2 3 5 8 9 12 14 15 17
1 2 3 5 8 9 12 14 16
1 2 3 8 11 15 28
1 2 3 5 8 11
1 2 3 8 11 14 15 28
1 2 3 5 8 11 14 15 17
1 2 3 5 8 11 14 16
1 7 15 30
1 2 4 7 10
1 2 3 7 10 27
1 2 3 7 8 27
1 2 3 5 7 8 11
1 2 3 5 7 8 9 12
1 2 3 5 7 10
1 2 4 7 8 27
1 2 4 7 8 11
1 2 4 7 8 9 12
1 2 4 7 10 15 27 28
1 2 3 7 10 15 27 28
1 2 3 7 8 15 27 28
1 2 3 7 8 11 15 28
1 2 3 7 8 9 15 28
1 2 3 7 10 11 15 28
1 2 3 7 9 10 15 28
1 2 4 7 8 15 27 28
1 2 4 7 8 11 15 28
1 2 4 7 8 9 15 28
1 2 4 7 10 11 15 28
1 2 4 7 9 10 15 28
1 7 14 16 30
1 7 14 15 30
1 2 4 7 10 14 15 27 28
1 2 3 7 10 14 15 27 28
1 2 3 7 8 14 15 27 28
1 2 3 7 8 11 14 15 28
1 2 3 7 8 9 14 15 28
1 2 3 5 7 8 9 12 14 15 17
1 2 3 5 7 8 11 14 15 17
1 2 3 7 8 14 15 17 27
1 2 3 7 10 11 14 15 28
1 2 3 7 9 10 14 15 28
1 2 3 5 7 10 14 15 17
1 2 3 5 7 9 10 12 14 15 17
1 2 3 5 7 10 11 14 15 17
1 2 3 7 10 14 15 17 27
1 2 4 7 8 14 15 27 28
1 2 4 7 8 11 14 15 28
1 2 4 7 8 9 14 15 28
1 2 4 7 8 9 12 14 15 17
1 2 4 7 8 11 14 15 17
1 2 4 7 8 14 15 17 27
1 2 4 7 10 11 14 15 28
1 2 4 7 9 10 14 15 28
1 2 4 7 10 14 15 17
1 2 4 7 9 10 12 14 15 17
1 2 4 7 10 11 14 15 17
1 2 4 7 10 14 15 17 27
1 2 4 7 10 14 16
1 2 3 7 10 14 16 27
1 2 3 7 8 14 16 27
1 2 3 7 8 11 14 16 28
1 2 3 7 8 9 14 16 28
1 2 3 5 7 8 9 12 14 16
1 2 3 5 7 8 11 14 16
1 2 3 7 10 11 14 16 28
1 2 3 7 9 10 14 16 28
1 2 3 5 7 10 14 16
1 2 3 5 7 9 10 12 14 16
1 2 3 5 7 10 11 14 16
1 2 4 7 8 14 16 27
1 2 4 7 8 11 14 16
1 2 4 7 8 9 14 16 28
1 2 4 7 8 9 12 14 16
1 6 15 22 30
1 6 25
1 2 6 22
1 2 4 6 24
1 2 3 6 24
1 2 3 6 7 10 27
1 2 3 6 7 8 27
1 2 3 5 6 7 8 11
1 2 3 5 6 7 8 9 13
1 2 3 5 6 7 8 9 12
1 2 3 5 6 7 10
1 2 4 6 7 10
1 2 4 6 7 8 27
1 2 4 6 7 8 11
1 2 4 6 7 8 9 13
1 2 4 6 7 8 9 12
1 4 6 15 18 23 30
1 6 15 26
1 6 15 25 30
1 6 7 15 30
1 3 6 15 26 27 30
1 3 6 15 25 27 30
1 3 6 15 24 30
1 3 6 7 15 27 30
1 3 6 7 11 15 28 30
1 3 6 7 9 15 28 30
1 3 5 6 7 15 30
1 3 5 6 7 9 13 15 30
1 3 5 6 7 9 12 15 30
1 2 3 6 7 9 10 15 28
1 2 3 6 7 8 9 15 28
1 3 5 6 7 11 15 30
1 2 3 6 7 10 11 15 28
1 2 3 6 7 8 11 15 28
1 2 3 6 7 10 15 27 28
1 2 3 6 7 8 15 27 28
1 2 3 6 10 15 24 27 28
1 2 3 6 8 15 24 27 28
1 2 3 6 9 15 24 28
1 2 3 6 8 11 15 24 28
1 2 3 6 8 9 15 24 28
1 2 3 6 10 11 15 24 28
1 2 3 6 9 10 15 24 28
1 3 6 11 15 25 28 30
1 3 6 9 15 25 28
1 3 6 15 24 25 30
1 3 5 6 15 25 30
1 3 6 9 13 15 24 25 30
1 3 6 9 12 15 24 25 30
1 3 5 6 9 12 15 25 30
1 3 5 6 9 13 15 25 30
1 3 6 11 15 24 25 30
1 3 5 6 11 15 25 30
1 3 6 10 11 15 25 28
1 3 6 8 11 15 25 28
1 3 6 10 15 25 27 28
1 3 6 8 15 25 27 28
1 3 6 11 15 26 28 30
1 3 6 9 15 26 28
1 3 6 15 24 26
1 3 5 6 15 26
1 3 6 9 13 15 24 26
1 3 6 9 12 15 24 26
1 3 5 6 9 12 15 26
1 3 5 6 9 13 15 26
1 3 6 11 15 24 26 30
1 3 5 6 11 15 26 30
1 3 5 6 10 11 15 26
1 3 5 6 8 11 15 26
1 3 6 10 11 15 24 26
1 3 6 8 11 15 24 26
1 3 6 10 11 15 26 28
1 3 6 8 11 15 26 28
1 3 6 10 15 26 27
1 3 6 8 15 26 27
1 4 6 15 26
1 4 6 15 25 30
1 4 6 15 24 30
1 4 6 7 15 30
1 2 4 6 7 10 15 27 28
1 2 4 6 7 8 15 27 28
1 2 4 6 7 8 11 15 28
1 2 4 6 7 8 9 15 28
1 2 4 6 7 10 11 15 28
1 2 4 6 7 9 10 15 28
1 2 4 6 10 15 24 27 28
1 2 4 6 8 15 24 27 28
1 2 4 6 9 15 24 28
1 2 4 6 8 11 15 24 28
1 2 4 6 8 9 15 24 28
1 2 4 6 10 11 15 24 28
1 2 4 6 9 10 15 24 28
1 4 6 10 15 25 27 28
1 4 6 8 15 25 27 28
1 4 6 9 15 25 28
1 4 6 8 11 15 25 28
1 4 6 8 9 15 25 28
1 4 6 10 11 15 25 28
1 4 6 9 10 15 25 28
1 6 10 15 22 25 27 28
1 6 8 15 22 25 27 28
1 6 9 15 22 25 28
1 2 6 9 15 22 28
1 2 6 8 15 22 27 28
1 2 6 8 11 15 22 28
1 2 6 8 9 15 22 28
1 6 8 11 15 22 25 28
1 6 8 9 15 22 25 28
1 2 6 10 15 22 27 28
1 2 6 10 11 15 22 28
1 2 6 9 10 15 22 28
1 6 10 11 15 22 25 28
1 6 9 10 15 22 25 28
1 6 14 16 22 30
1 6 14 15 22 30
1 31 6 14
1 6 14 15 26
1 6 14 15 25 30
1 4 6 14 15 24 30
1 3 6 14 15 24 30
1 6 7 14 15 30
1 31 6 14 15 30
1 31 6 14 15 17
1 31 6 7 10 14 15 17
1 31 6 7 8 11 14 15 17
1 31 6 7 8 9 13 14 15 17
1 31 6 7 8 9 12 14 15 17
1 3 6 7 14 15 27 30
1 31 3 6 14 15 27 30
1 31 3 6 11 14 15 28 30
1 31 3 6 9 14 15 28
1 31 3 5 6 14 15 30
1 31 3 5 6 14 15 17
1 31 3 5 6 9 13 14 15 30
1 31 3 5 6 9 12 14 15 30
1 31 3 5 6 9 12 14 15 17
1 31 3 5 6 9 13 14 15 17
1 31 3 5 6 11 14 15 30
1 31 3 5 6 10 11 14 15 17
1 31 3 5 6 8 11 14 15 17
1 31 3 6 10 11 14 15 28
1 31 3 6 8 11 14 15 28
1 31 3 6 10 14 15 27 28
1 31 3 6 8 14 15 27 28
1 31 3 6 8 14 15 17 27
1 31 3 6 10 14 15 17 27
1 3 6 7 11 14 15 28 30
1 3 6 7 9 14 15 28 30
1 3 5 6 7 14 15 30
1 2 3 5 6 7 10 14 15 17
1 31 3 5 6 7 10 14 15 17
1 3 5 6 7 9 13 14 15 30
1 3 5 6 7 9 12 14 15 30
1 2 3 5 6 7 9 10 12 14 15 17
1 31 3 5 6 7 9 10 12 14 15 17
1 31 3 5 6 7 8 9 12 14 15 17
1 2 3 5 6 7 8 9 12 14 15 17
1 2 3 5 6 7 9 10 13 14 15 17
1 31 3 5 6 7 9 10 13 14 15 17
1 31 3 5 6 7 8 9 13 14 15 17
1 2 3 5 6 7 8 9 13 14 15 17
1 2 3 6 7 9 10 14 15 28
1 31 3 6 7 9 10 14 15 28
1 31 3 6 7 8 9 14 15 28
1 2 3 6 7 8 9 14 15 28
1 3 5 6 7 11 14 15 30
1 2 3 5 6 7 10 11 14 15 17
1 31 3 5 6 7 10 11 14 15 17
1 31 3 5 6 7 8 11 14 15 17
1 2 3 5 6 7 8 11 14 15 17
1 2 3 6 7 10 11 14 15 28
1 31 3 6 7 10 11 14 15 28
1 31 3 6 7 8 11 14 15 28
1 2 3 6 7 8 11 14 15 28
1 2 3 6 7 10 14 15 27 28
1 31 3 6 7 10 14 15 27 28
1 31 3 6 7 8 14 15 27 28
1 31 3 6 7 8 14 15 17 27
1 31 3 6 7 10 14 15 17 27
1 2 3 6 7 8 14 15 27 28
1 2 3 6 7 8 14 15 17 27
1 2 3 6 7 10 14 15 17 27
1 2 3 6 10 14 15 24 27 28
1 31 3 6 10 14 15 24 27 28
1 31 3 6 8 14 15 24 27 28
1 31 3 6 9 14 15 24 28
1 31 3 6 14 15 17 24
1 31 3 6 9 13 14 15 17 24
1 31 3 6 9 12 14 15 17 24
1 31 3 6 8 11 14 15 24 28
1 31 3 6 8 9 14 15 24 28
1 31 3 6 8 9 13 14 15 17 24
1 31 3 6 8 9 12 14 15 17 24
1 31 3 6 8 11 14 15 17 24
1 31 3 6 8 14 15 17 24 27
1 31 3 6 10 11 14 15 24 28
1 31 3 6 9 10 14 15 24 28
1 31 3 6 10 14 15 17 24
1 31 3 6 9 10 13 14 15 17 24
1 31 3 6 9 10 12 14 15 17 24
1 31 3 6 10 11 14 15 17 24
1 31 3 6 10 14 15 17 24 27
1 2 3 6 8 14 15 24 27 28
1 2 3 6 9 14 15 24 28
1 2 3 6 14 15 17 24
1 2 3 6 9 13 14 15 17 24
1 2 3 6 9 12 14 15 17 24
1 2 3 6 8 11 14 15 24 28
1 2 3 6 8 9 14 15 24 28
1 2 3 6 8 9 13 14 15 17 24
1 2 3 6 8 9 12 14 15 17 24
1 2 3 6 8 11 14 15 17 24
1 2 3 6 8 14 15 17 24 27
1 2 3 6 10 11 14 15 24 28
1 2 3 6 9 10 14 15 24 28
1 2 3 6 10 14 15 17 24
1 2 3 6 9 10 13 14 15 17 24
1 2 3 6 9 10 12 14 15 17 24
1 2 3 6 10 11 14 15 17 24
1 2 3 6 10 14 15 17 24 27
1 4 6 7 14 15 30
1 31 4 6 14 15 30
1 31 4 6 10 14 15 27 28
1 31 4 6 8 14 15 27 28
1 31 4 6 9 14 15 28
1 31 4 6 14 15 17
1 31 4 6 9 13 14 15 17
1 31 4 6 9 12 14 15 17
1 31 4 6 8 11 14 15 28
1 31 4 6 8 9 14 15 28
1 31 4 6 8 9 13 14 15 17
1 31 4 6 8 9 12 14 15 17
1 31 4 6 8 11 14 15 17
1 31 4 6 8 14 15 17 27
1 31 4 6 10 11 14 15 28
1 31 4 6 9 10 14 15 28
1 31 4 6 10 14 15 17
1 31 4 6 9 10 13 14 15 17
1 31 4 6 9 10 12 14 15 17
1 31 4 6 10 11 14 15 17
1 31 4 6 10 14 15 17 27
1 2 4 6 7 10 14 15 27 28
1 31 4 6 7 10 14 15 27 28
1 31 4 6 7 8 14 15 27 28
1 31 4 6 7 8 11 14 15 28
1 31 4 6 7 8 9 14 15 28
1 31 4 6 7 8 9 13 14 15 17
1 31 4 6 7 8 9 12 14 15 17
1 31 4 6 7 8 11 14 15 17
1 31 4 6 7 8 14 15 17 27
1 31 4 6 7 10 11 14 15 28
1 31 4 6 7 9 10 14 15 28
1 31 4 6 7 10 14 15 17
1 31 4 6 7 9 10 13 14 15 17
1 31 4 6 7 9 10 12 14 15 17
1 31 4 6 7 10 11 14 15 17
1 31 4 6 7 10 14 15 17 27
1 2 4 6 7 8 14 15 27 28
1 2 4 6 7 8 11 14 15 28
1 2 4 6 7 8 9 14 15 28
1 2 4 6 7 8 9 13 14 15 17
1 2 4 6 7 8 9 12 14 15 17
1 2 4 6 7 8 11 14 15 17
1 2 4 6 7 8 14 15 17 27
1 2 4 6 7 10 11 14 15 28
1 2 4 6 7 9 10 14 15 28
1 2 4 6 7 10 14 15 17
1 2 4 6 7 9 10 13 14 15 17
1 2 4 6 7 9 10 12 14 15 17
1 2 4 6 7 10 11 14 15 17
1 2 4 6 7 10 14 15 17 27
1 2 4 6 10 14 15 24 27 28
1 31 4 6 10 14 15 24 27 28
1 31 4 6 8 14 15 24 27 28
1 31 4 6 9 14 15 24 28
1 31 4 6 14 15 17 24
1 31 4 6 9 13 14 15 17 24
1 31 4 6 9 12 14 15 17 24
1 31 4 6 8 11 14 15 24 28
1 31 4 6 8 9 14 15 24 28
1 31 4 6 8 9 13 14 15 17 24
1 31 4 6 8 9 12 14 15 17 24
1 31 4 6 8 11 14 15 17 24
1 31 4 6 8 14 15 17 24 27
1 31 4 6 10 11 14 15 24 28
1 31 4 6 9 10 14 15 24 28
1 31 4 6 10 14 15 17 24
1 31 4 6 9 10 13 14 15 17 24
1 31 4 6 9 10 12 14 15 17 24
1 31 4 6 10 11 14 15 17 24
1 31 4 6 10 14 15 17 24 27
1 2 4 6 8 14 15 24 27 28
1 2 4 6 9 14 15 24 28
1 2 4 6 14 15 17 24
1 2 4 6 9 13 14 15 17 24
1 2 4 6 9 12 14 15 17 24
1 2 4 6 8 11 14 15 24 28
1 2 4 6 8 9 14 15 24 28
1 2 4 6 8 9 13 14 15 17 24
1 2 4 6 8 9 12 14 15 17 24
1 2 4 6 8 11 14 15 17 24
1 2 4 6 8 14 15 17 24 27
1 2 4 6 10 11 14 15 24 28
1 2 4 6 9 10 14 15 24 28
1 2 4 6 10 14 15 17 24
1 2 4 6 9 10 13 14 15 17 24
1 2 4 6 9 10 12 14 15 17 24
1 2 4 6 10 11 14 15 17 24
1 2 4 6 10 14 15 17 24 27
1 4 6 10 14 15 25 27 28
1 3 6 10 14 15 25 27 28
1 6 14 15 17 25
1 3 6 8 14 15 25 27 28
1 3 6 9 14 15 25 28
1 3 6 14 15 17 24 25
1 3 5 6 14 15 17 25
1 3 6 9 13 14 15 17 24 25
1 3 6 9 12 14 15 17 24 25
1 3 5 6 9 12 14 15 17 25
1 3 5 6 9 13 14 15 17 25
1 3 6 8 11 14 15 25 28
1 3 6 8 9 14 15 25 28
1 3 6 8 9 13 14 15 17 24 25
1 3 6 8 9 12 14 15 17 24 25
1 3 5 6 8 9 12 14 15 17 25
1 3 5 6 8 9 13 14 15 17 25
1 3 6 8 11 14 15 17 24 25
1 3 5 6 8 11 14 15 17 25
1 3 6 8 14 15 17 25 27
1 3 6 10 11 14 15 25 28
1 3 6 9 10 14 15 25 28
1 3 6 10 14 15 17 24 25
1 3 5 6 10 14 15 17 25
1 3 6 9 10 13 14 15 17 24 25
1 3 6 9 10 12 14 15 17 24 25
1 3 5 6 9 10 12 14 15 17 25
1 3 5 6 9 10 13 14 15 17 25
1 3 6 10 11 14 15 17 24 25
1 3 5 6 10 11 14 15 17 25
1 3 6 10 14 15 17 25 27
1 4 6 8 14 15 25 27 28
1 4 6 9 14 15 25 28
1 4 6 14 15 17 25
1 4 6 9 13 14 15 17 25
1 4 6 9 12 14 15 17 25
1 4 6 8 11 14 15 25 28
1 4 6 8 9 14 15 25 28
1 4 6 8 9 13 14 15 17 25
1 4 6 8 9 12 14 15 17 25
1 4 6 8 11 14 15 17 25
1 4 6 8 14 15 17 25 27
1 4 6 10 11 14 15 25 28
1 4 6 9 10 14 15 25 28
1 4 6 10 14 15 17 25
1 4 6 9 10 13 14 15 17 25
1 4 6 9 10 12 14 15 17 25
1 4 6 10 11 14 15 17 25
1 4 6 10 14 15 17 25 27
1 6 14 15 22 26
1 6 10 14 15 22 25 27 28
1 6 8 14 15 22 25 27 28
1 6 9 14 15 22 25 28
1 6 14 15 17 22 25
1 2 6 14 15 17 22
1 31 6 14 15 17 22
1 2 6 9 14 15 22 28
1 31 6 9 14 15 22 28
1 31 6 9 13 14 15 17 22
1 31 6 9 12 14 15 17 22
1 2 6 9 13 14 15 17 22
1 2 6 9 12 14 15 17 22
1 6 9 13 14 15 17 22 25
1 6 9 12 14 15 17 22 25
1 2 6 8 14 15 22 27 28
1 31 6 8 14 15 22 27 28
1 31 6 8 11 14 15 22 28
1 31 6 8 9 14 15 22 28
1 31 6 8 9 13 14 15 17 22
1 31 6 8 9 12 14 15 17 22
1 31 6 8 11 14 15 17 22
1 31 6 8 14 15 17 22 27
1 2 6 8 11 14 15 22 28
1 2 6 8 9 14 15 22 28
1 2 6 8 9 13 14 15 17 22
1 2 6 8 9 12 14 15 17 22
1 2 6 8 11 14 15 17 22
1 2 6 8 14 15 17 22 27
1 6 8 11 14 15 22 25 28
1 6 8 9 14 15 22 25 28
1 6 8 9 13 14 15 17 22 25
1 6 8 9 12 14 15 17 22 25
1 6 8 11 14 15 17 22 25
1 6 8 14 15 17 22 25 27
1 2 6 10 14 15 22 27 28
1 31 6 10 14 15 22 27 28
1 31 6 10 11 14 15 22 28
1 31 6 9 10 14 15 22 28
1 31 6 10 14 15 17 22
1 31 6 9 10 13 14 15 17 22
1 31 6 9 10 12 14 15 17 22
1 31 6 10 11 14 15 17 22
1 31 6 10 14 15 17 22 27
1 2 6 10 11 14 15 22 28
1 2 6 9 10 14 15 22 28
1 2 6 10 14 15 17 22
1 2 6 9 10 13 14 15 17 22
1 2 6 9 10 12 14 15 17 22
1 2 6 10 11 14 15 17 22
1 2 6 10 14 15 17 22 27
1 6 10 11 14 15 22 25 28
1 6 9 10 14 15 22 25 28
1 6 10 14 15 17 22 25
1 6 9 10 13 14 15 17 22 25
1 6 9 10 12 14 15 17 22 25
1 6 10 11 14 15 17 22 25
1 6 10 14 15 17 22 25 27
1 6 14 16 26
1 6 14 16 25
1 4 6 14 16 24 30
1 3 6 14 16 24 30
1 6 7 14 16 30
1 31 6 14 16
1 31 6 7 10 14 16
1 31 6 7 8 11 14 16
1 31 6 7 8 9 13 14 16
1 31 6 7 8 9 12 14 16
1 3 6 7 14 16 27 30
1 31 3 6 14 16 27 30
1 31 3 6 11 14 16 28 30
1 31 3 6 9 14 16 28
1 31 3 5 6 14 16
1 31 3 5 6 9 13 14 16
1 31 3 5 6 9 12 14 16
1 31 3 5 6 11 14 16 30
1 31 3 5 6 10 11 14 16
1 31 3 5 6 8 11 14 16
1 31 3 6 10 11 14 16 28
1 31 3 6 8 11 14 16 28
1 31 3 6 10 14 16 27
1 31 3 6 8 14 16 27
1 3 6 7 11 14 16 28 30
1 3 6 7 9 14 16 28 30
1 3 5 6 7 14 16 30
1 2 3 5 6 7 10 14 16
1 31 3 5 6 7 10 14 16
1 3 5 6 7 9 13 14 16 30
1 3 5 6 7 9 12 14 16 30
1 2 3 5 6 7 9 10 12 14 16
1 31 3 5 6 7 9 10 12 14 16
1 31 3 5 6 7 8 9 12 14 16
1 2 3 5 6 7 8 9 12 14 16
1 2 3 5 6 7 9 10 13 14 16
1 31 3 5 6 7 9 10 13 14 16
1 31 3 5 6 7 8 9 13 14 16
1 2 3 5 6 7 8 9 13 14 16
1 2 3 6 7 9 10 14 16 28
1 31 3 6 7 9 10 14 16 28
1 31 3 6 7 8 9 14 16 28
1 2 3 6 7 8 9 14 16 28
1 3 5 6 7 11 14 16 30
1 2 3 5 6 7 10 11 14 16
1 31 3 5 6 7 10 11 14 16
1 31 3 5 6 7 8 11 14 16
1 2 3 5 6 7 8 11 14 16
1 2 3 6 7 10 11 14 16 28
1 31 3 6 7 10 11 14 16 28
1 31 3 6 7 8 11 14 16 28
1 2 3 6 7 8 11 14 16 28
1 2 3 6 7 10 14 16 27
1 31 3 6 7 10 14 16 27
1 31 3 6 7 8 14 16 27
1 2 3 6 7 8 14 16 27
1 2 3 6 14 16 24
1 31 3 6 14 16 24
1 4 6 7 14 16 30
1 31 4 6 14 16
1 2 4 6 7 10 14 16
1 31 4 6 7 10 14 16
1 31 4 6 7 8 14 16 27
1 31 4 6 7 8 11 14 16
1 31 4 6 7 8 9 14 16 28
1 31 4 6 7 8 9 13 14 16
1 31 4 6 7 8 9 12 14 16
1 2 4 6 7 8 14 16 27
1 2 4 6 7 8 11 14 16
1 2 4 6 7 8 9 14 16 28
1 2 4 6 7 8 9 13 14 16
1 2 4 6 7 8 9 12 14 16
1 2 4 6 14 16 24
1 31 4 6 14 16 24
1 6 14 16 22 26
1 6 14 16 22 25
1 2 6 14 16 22
1 31 6 14 16 22
1 6 14 18 24 29 30
1 6 14 18 23 29 30
1 6 14 18 22 29 30
1 6 14 15 18 22 23 25
1 4 6 14 15 18 23 25
1 6 14 15 18 22 23 26
1 4 6 14 15 18 23 26
 Analysis time: 4.46s