18/07/2021 13:29:22[DEBUG] pflow_file:  ../analysis/analisis_8_08072021/gen_nets/20210708-094213_17/net.pflow  
18/07/2021 13:29:22[DEBUG] output_folder:  ../analysis/analisis_8_08072021/gen_nets/20210708-094213_17/  
18/07/2021 13:29:22[DEBUG] html_path:  ../analysis/analisis_8_08072021/gen_nets/20210708-094213_17/  
18/07/2021 13:29:22[DEBUG] txt_path:  ../analysis/analisis_8_08072021/gen_nets/20210708-094213_17/txt_info  

--------------------------------------------------------------------------   
18/07/2021 13:29:22[INFO] Ejecutando petrinator para conocer estado de la red...   
--------------------------------------------------------------------------
   
+----+------+----------------------------------------------------------------------------------------------------------------------------+
| ID | Nro  |                                                           Plazas                                                           |
+----+------+----------------------------------------------------------------------------------------------------------------------------+
| 0  | 1665 |                               ['P4', 'P6', 'P10', 'P13', 'P15', 'P21', 'P27', 'P35', 'P37']                                |
| 1  | 1671 |                        ['P4', 'P10', 'P13', 'P15', 'P19', 'P21', 'P25', 'P27', 'P35', 'P37', 'P38']                        |
| 2  | 248  |                                      ['P3', 'P8', 'P13', 'P19', 'P25', 'P33', 'P38']                                       |
| 3  | 265  |                                   ['P3', 'P8', 'P14', 'P19', 'P25', 'P30', 'P33', 'P38']                                   |
| 4  | 489  |                     ['P3', 'P8', 'P10', 'P15', 'P19', 'P21', 'P25', 'P27', 'P30', 'P33', 'P35', 'P38']                     |
| 5  |  19  |                                             ['P2', 'P8', 'P14', 'P30', 'P33']                                              |
| 6  |  28  |                                          ['P2', 'P8', 'P14', 'P15', 'P30', 'P33']                                          |
| 7  |  43  |                                          ['P2', 'P8', 'P9', 'P14', 'P30', 'P33']                                           |
| 8  |  52  |                                       ['P2', 'P8', 'P9', 'P14', 'P15', 'P30', 'P33']                                       |
| 9  |  90  |                                       ['P2', 'P8', 'P9', 'P10', 'P14', 'P30', 'P33']                                       |
| 10 | 127  |                                   ['P2', 'P8', 'P9', 'P10', 'P14', 'P15', 'P30', 'P33']                                    |
| 11 | 179  |                  ['P2', 'P8', 'P9', 'P10', 'P14', 'P15', 'P18', 'P19', 'P20', 'P21', 'P23', 'P30', 'P33']                  |
| 12 | 256  |                                          ['P2', 'P3', 'P8', 'P14', 'P30', 'P33']                                           |
| 13 | 273  |                                       ['P2', 'P3', 'P8', 'P14', 'P15', 'P30', 'P33']                                       |
| 14 | 315  |                                       ['P2', 'P3', 'P8', 'P9', 'P14', 'P30', 'P33']                                        |
| 15 | 331  |                                    ['P2', 'P3', 'P8', 'P9', 'P14', 'P15', 'P30', 'P33']                                    |
| 16 | 431  |                                    ['P2', 'P3', 'P8', 'P9', 'P10', 'P14', 'P30', 'P33']                                    |
| 17 | 453  |                                ['P2', 'P3', 'P8', 'P9', 'P10', 'P14', 'P15', 'P30', 'P33']                                 |
| 18 | 487  |        ['P2', 'P3', 'P8', 'P9', 'P10', 'P14', 'P15', 'P18', 'P19', 'P20', 'P21', 'P23', 'P24', 'P25', 'P30', 'P33']        |
| 19 | 488  |    ['P2', 'P3', 'P8', 'P9', 'P10', 'P14', 'P15', 'P18', 'P19', 'P20', 'P21', 'P23', 'P24', 'P25', 'P26', 'P30', 'P33']     |
| 20 | 491  | ['P2', 'P3', 'P8', 'P9', 'P10', 'P14', 'P15', 'P18', 'P19', 'P20', 'P21', 'P23', 'P24', 'P25', 'P26', 'P27', 'P30', 'P33'] |
| 21 | 580  |                                       ['P2', 'P3', 'P4', 'P8', 'P14', 'P30', 'P33']                                        |
| 22 | 596  |                                    ['P2', 'P3', 'P4', 'P8', 'P14', 'P15', 'P30', 'P33']                                    |
| 23 | 707  |                                       ['P2', 'P4', 'P9', 'P14', 'P30', 'P33', 'P37']                                       |
| 24 | 715  |                                    ['P2', 'P3', 'P4', 'P8', 'P9', 'P14', 'P30', 'P33']                                     |
| 25 | 808  |                                   ['P2', 'P4', 'P9', 'P14', 'P15', 'P30', 'P33', 'P37']                                    |
| 26 | 816  |                                 ['P2', 'P3', 'P4', 'P8', 'P9', 'P14', 'P15', 'P30', 'P33']                                 |
| 27 | 1174 |                                   ['P2', 'P4', 'P9', 'P10', 'P14', 'P30', 'P33', 'P37']                                    |
| 28 | 1182 |                                 ['P2', 'P3', 'P4', 'P8', 'P9', 'P10', 'P14', 'P30', 'P33']                                 |
| 29 | 1188 |                                   ['P2', 'P4', 'P10', 'P14', 'P30', 'P31', 'P33', 'P37']                                   |
| 30 | 1193 |                                   ['P2', 'P4', 'P8', 'P10', 'P14', 'P30', 'P31', 'P33']                                    |
| 31 | 1421 |                                ['P2', 'P4', 'P9', 'P10', 'P14', 'P15', 'P30', 'P33', 'P37']                                |
| 32 | 1429 |                             ['P2', 'P3', 'P4', 'P8', 'P9', 'P10', 'P14', 'P15', 'P30', 'P33']                              |
| 33 | 1435 |                               ['P2', 'P4', 'P10', 'P14', 'P15', 'P30', 'P31', 'P33', 'P37']                                |
| 34 | 1440 |                                ['P2', 'P4', 'P8', 'P10', 'P14', 'P15', 'P30', 'P31', 'P33']                                |
+----+------+----------------------------------------------------------------------------------------------------------------------------+
+----+----+----+----+----+----+----+----+----+----+-----+-----+-----+-----+-----+-----+-----+-----+-----+-----+-----+-----+-----+
| T0 | T1 | T2 | T3 | T4 | T5 | T6 | T7 | T8 | T9 | T10 | T11 | T12 | T13 | T14 | T15 | T16 | T17 | T18 | T19 | T20 | T21 | T22 |
+----+----+----+----+----+----+----+----+----+----+-----+-----+-----+-----+-----+-----+-----+-----+-----+-----+-----+-----+-----+
| 1  | 1  | 1  | 1  | 1  | 0  | 0  | 0  | 0  | 0  |  0  |  0  |  0  |  0  |  0  |  0  |  0  |  0  |  0  |  0  |  0  |  0  |  0  |
| 0  | 0  | 0  | 0  | 0  | 1  | 1  | 1  | 1  | 1  |  1  |  1  |  1  |  1  |  0  |  0  |  0  |  0  |  0  |  1  |  1  |  1  |  1  |
| 0  | 0  | 0  | 0  | 0  | 1  | 1  | 1  | 1  | 0  |  0  |  0  |  0  |  0  |  1  |  1  |  1  |  1  |  1  |  1  |  1  |  1  |  1  |
+----+----+----+----+----+----+----+----+----+----+-----+-----+-----+-----+-----+-----+-----+-----+-----+-----+-----+-----+-----+
18/07/2021 13:30:03[INFO] Supervisores para agregar   
+-----+---------+----------------------------------------+--------------+
|  ID | Marcado |              T - Entrada               |  T - Salida  |
+-----+---------+----------------------------------------+--------------+
| P39 |    2    |              ['T4', 'T8']              | ['T1', 'T6'] |
| P39 |    2    |          ['T4', 'T8', 'T11']           | ['T1', 'T6'] |
| P39 |    1    |          ['T3', 'T7', 'T11']           | ['T1', 'T6'] |
| P39 |    2    |          ['T3', 'T7', 'T12']           | ['T1', 'T6'] |
| P39 |    3    |          ['T3', 'T7', 'T13']           | ['T1', 'T6'] |
| P39 |    1    |          ['T2', 'T7', 'T12']           | ['T1', 'T6'] |
| P39 |    1    |       ['T2', 'T7', 'T12', 'T13']       | ['T1', 'T6'] |
| P39 |    1    |          ['T2', 'T7', 'T12']           | ['T1', 'T6'] |
| P39 |    1    |       ['T2', 'T7', 'T12', 'T13']       | ['T1', 'T6'] |
| P39 |    1    |          ['T2', 'T7', 'T12']           | ['T1', 'T6'] |
| P39 |    1    |       ['T2', 'T7', 'T12', 'T13']       | ['T1', 'T6'] |
| P39 |    1    |       ['T2', 'T7', 'T12', 'T13']       | ['T1', 'T6'] |
| P39 |    1    |       ['T2', 'T3', 'T7', 'T12']        | ['T1', 'T6'] |
| P39 |    1    |    ['T2', 'T3', 'T7', 'T12', 'T13']    | ['T1', 'T6'] |
| P39 |    1    |       ['T2', 'T3', 'T7', 'T12']        | ['T1', 'T6'] |
| P39 |    1    |    ['T2', 'T3', 'T7', 'T12', 'T13']    | ['T1', 'T6'] |
| P39 |    1    |       ['T2', 'T3', 'T7', 'T12']        | ['T1', 'T6'] |
| P39 |    1    |    ['T2', 'T3', 'T7', 'T12', 'T13']    | ['T1', 'T6'] |
| P39 |    1    |    ['T2', 'T3', 'T7', 'T12', 'T13']    | ['T1', 'T6'] |
| P39 |    1    |    ['T2', 'T3', 'T7', 'T12', 'T13']    | ['T1', 'T6'] |
| P39 |    1    |    ['T2', 'T3', 'T7', 'T12', 'T13']    | ['T1', 'T6'] |
| P39 |    1    |       ['T2', 'T3', 'T7', 'T12']        | ['T1', 'T6'] |
| P39 |    1    |    ['T2', 'T3', 'T7', 'T12', 'T13']    | ['T1', 'T6'] |
| P39 |    2    |          ['T2', 'T7', 'T12']           | ['T1', 'T6'] |
| P39 |    1    |       ['T2', 'T3', 'T7', 'T12']        | ['T1', 'T6'] |
| P39 |    2    |       ['T2', 'T7', 'T12', 'T13']       | ['T1', 'T6'] |
| P39 |    1    |    ['T2', 'T3', 'T7', 'T12', 'T13']    | ['T1', 'T6'] |
| P39 |    2    |       ['T2', 'T7', 'T8', 'T12']        | ['T1', 'T6'] |
| P39 |    1    |       ['T2', 'T3', 'T7', 'T12']        | ['T1', 'T6'] |
| P39 |    3    |    ['T2', 'T5', 'T7', 'T8', 'T12']     | ['T1', 'T6'] |
| P39 |    2    |          ['T2', 'T7', 'T12']           | ['T1', 'T6'] |
| P39 |    2    |    ['T2', 'T7', 'T8', 'T12', 'T13']    | ['T1', 'T6'] |
| P39 |    1    |    ['T2', 'T3', 'T7', 'T12', 'T13']    | ['T1', 'T6'] |
| P39 |    3    | ['T2', 'T5', 'T7', 'T8', 'T12', 'T13'] | ['T1', 'T6'] |
| P39 |    2    |       ['T2', 'T7', 'T12', 'T13']       | ['T1', 'T6'] |
+-----+---------+----------------------------------------+--------------+
18/07/2021 13:30:03[INFO] Supervisores agregados   
+-----+---------+-------------+------------+
| Nro | Marcado | T - Entrada | T - Salida |
+-----+---------+-------------+------------+
+-----+---------+-------------+------------+
18/07/2021 13:30:03[INFO] Ejecutando accion...   
18/07/2021 13:30:03[INFO] Ejecutando accion...   
18/07/2021 13:30:03[ACTION] Agrego supervisor aleatorio Numero: 32  

--------------------------------------------------------------------------   
18/07/2021 13:30:03[INFO] Ejecutando petrinator para conocer estado de la red...   
--------------------------------------------------------------------------
   

--------------------------------------------------------------------------
   
18/07/2021 13:30:52[INFO] Calculando recompensa..   
18/07/2021 13:30:52[REWARD] El sifon se controlo correctamente, recompensa -1   

--------------------------------------------------------------------------
   
18/07/2021 13:30:52[STATE] Cambie al estado 3: Hay igual cantidad de sifones vacios en deadlock   
+-----------------------------------------------------+--------------------+------------------------+
|                   Estados/Acciones                  | Agregar supervisor | Agregar o quitar arcos |
+-----------------------------------------------------+--------------------+------------------------+
|                        Start                        |        -1.0        |          0.0           |
|        Más sifónes vacíos en estado deadlock        |        0.0         |          0.0           |
|       Menos sifónes vacíos en estado deadlock       |        0.0         |          0.0           |
| Igual cantidad de sifónes vacíos en estado deadlock |        0.0         |          0.0           |
|                         End                         |        0.0         |          0.0           |
+-----------------------------------------------------+--------------------+------------------------+
+----+------+----------------------------------------------------------------------------------------------------------------------------+
| ID | Nro  |                                                           Plazas                                                           |
+----+------+----------------------------------------------------------------------------------------------------------------------------+
| 35 | 1839 |                               ['P4', 'P6', 'P10', 'P13', 'P15', 'P21', 'P27', 'P35', 'P37']                                |
| 36 | 1845 |                        ['P4', 'P10', 'P13', 'P15', 'P19', 'P21', 'P25', 'P27', 'P35', 'P37', 'P38']                        |
| 37 | 281  |                                      ['P3', 'P8', 'P13', 'P19', 'P25', 'P33', 'P38']                                       |
| 38 | 300  |                                   ['P3', 'P8', 'P14', 'P19', 'P25', 'P30', 'P33', 'P38']                                   |
| 39 | 549  |                     ['P3', 'P8', 'P10', 'P15', 'P19', 'P21', 'P25', 'P27', 'P30', 'P33', 'P35', 'P38']                     |
| 40 |  19  |                                             ['P2', 'P8', 'P14', 'P30', 'P33']                                              |
| 41 |  29  |                                          ['P2', 'P8', 'P14', 'P15', 'P30', 'P33']                                          |
| 42 |  46  |                                          ['P2', 'P8', 'P9', 'P14', 'P30', 'P33']                                           |
| 43 |  56  |                                       ['P2', 'P8', 'P9', 'P14', 'P15', 'P30', 'P33']                                       |
| 44 |  99  |                                       ['P2', 'P8', 'P9', 'P10', 'P14', 'P30', 'P33']                                       |
| 45 | 142  |                                   ['P2', 'P8', 'P9', 'P10', 'P14', 'P15', 'P30', 'P33']                                    |
| 46 | 203  |                  ['P2', 'P8', 'P9', 'P10', 'P14', 'P15', 'P18', 'P19', 'P20', 'P21', 'P23', 'P30', 'P33']                  |
| 47 | 290  |                                          ['P2', 'P3', 'P8', 'P14', 'P30', 'P33']                                           |
| 48 | 309  |                                       ['P2', 'P3', 'P8', 'P14', 'P15', 'P30', 'P33']                                       |
| 49 | 355  |                                       ['P2', 'P3', 'P8', 'P9', 'P14', 'P30', 'P33']                                        |
| 50 | 373  |                                    ['P2', 'P3', 'P8', 'P9', 'P14', 'P15', 'P30', 'P33']                                    |
| 51 | 481  |                                    ['P2', 'P3', 'P8', 'P9', 'P10', 'P14', 'P30', 'P33']                                    |
| 52 | 507  |                                ['P2', 'P3', 'P8', 'P9', 'P10', 'P14', 'P15', 'P30', 'P33']                                 |
| 53 | 547  |        ['P2', 'P3', 'P8', 'P9', 'P10', 'P14', 'P15', 'P18', 'P19', 'P20', 'P21', 'P23', 'P24', 'P25', 'P30', 'P33']        |
| 54 | 548  |    ['P2', 'P3', 'P8', 'P9', 'P10', 'P14', 'P15', 'P18', 'P19', 'P20', 'P21', 'P23', 'P24', 'P25', 'P26', 'P30', 'P33']     |
| 55 | 551  | ['P2', 'P3', 'P8', 'P9', 'P10', 'P14', 'P15', 'P18', 'P19', 'P20', 'P21', 'P23', 'P24', 'P25', 'P26', 'P27', 'P30', 'P33'] |
| 56 | 648  |                                       ['P2', 'P3', 'P4', 'P8', 'P14', 'P30', 'P33']                                        |
| 57 | 668  |                                    ['P2', 'P3', 'P4', 'P8', 'P14', 'P15', 'P30', 'P33']                                    |
| 58 | 793  |                                       ['P2', 'P4', 'P9', 'P14', 'P30', 'P33', 'P37']                                       |
| 59 | 801  |                                    ['P2', 'P3', 'P4', 'P8', 'P9', 'P14', 'P30', 'P33']                                     |
| 60 | 906  |                                   ['P2', 'P4', 'P9', 'P14', 'P15', 'P30', 'P33', 'P37']                                    |
| 61 | 914  |                                 ['P2', 'P3', 'P4', 'P8', 'P9', 'P14', 'P15', 'P30', 'P33']                                 |
| 62 | 1304 |                                   ['P2', 'P4', 'P9', 'P10', 'P14', 'P30', 'P33', 'P37']                                    |
| 63 | 1312 |                                 ['P2', 'P3', 'P4', 'P8', 'P9', 'P10', 'P14', 'P30', 'P33']                                 |
| 64 | 1318 |                                   ['P2', 'P4', 'P10', 'P14', 'P30', 'P31', 'P33', 'P37']                                   |
| 65 | 1323 |                                   ['P2', 'P4', 'P8', 'P10', 'P14', 'P30', 'P31', 'P33']                                    |
| 66 | 1571 |                                ['P2', 'P4', 'P9', 'P10', 'P14', 'P15', 'P30', 'P33', 'P37']                                |
| 67 | 1579 |                             ['P2', 'P3', 'P4', 'P8', 'P9', 'P10', 'P14', 'P15', 'P30', 'P33']                              |
| 68 | 1585 |                               ['P2', 'P4', 'P10', 'P14', 'P15', 'P30', 'P31', 'P33', 'P37']                                |
| 69 | 1590 |                                ['P2', 'P4', 'P8', 'P10', 'P14', 'P15', 'P30', 'P31', 'P33']                                |
+----+------+----------------------------------------------------------------------------------------------------------------------------+
+----+----+----+----+----+----+----+----+----+----+-----+-----+-----+-----+-----+-----+-----+-----+-----+-----+-----+-----+-----+
| T0 | T1 | T2 | T3 | T4 | T5 | T6 | T7 | T8 | T9 | T10 | T11 | T12 | T13 | T14 | T15 | T16 | T17 | T18 | T19 | T20 | T21 | T22 |
+----+----+----+----+----+----+----+----+----+----+-----+-----+-----+-----+-----+-----+-----+-----+-----+-----+-----+-----+-----+
| 0  | 0  | 0  | 0  | 0  | 1  | 1  | 1  | 1  | 0  |  0  |  0  |  0  |  0  |  1  |  1  |  1  |  1  |  1  |  1  |  1  |  1  |  1  |
+----+----+----+----+----+----+----+----+----+----+-----+-----+-----+-----+-----+-----+-----+-----+-----+-----+-----+-----+-----+
18/07/2021 13:30:52[INFO] Supervisores para agregar   
+-----+---------+----------------------------------------+--------------+
|  ID | Marcado |              T - Entrada               |  T - Salida  |
+-----+---------+----------------------------------------+--------------+
| P40 |    2    |              ['T4', 'T8']              | ['T1', 'T6'] |
| P40 |    2    |          ['T4', 'T8', 'T11']           | ['T1', 'T6'] |
| P40 |    1    |          ['T3', 'T7', 'T11']           | ['T1', 'T6'] |
| P40 |    2    |          ['T3', 'T7', 'T12']           | ['T1', 'T6'] |
| P40 |    3    |          ['T3', 'T7', 'T13']           | ['T1', 'T6'] |
| P40 |    1    |          ['T2', 'T7', 'T12']           | ['T1', 'T6'] |
| P40 |    1    |       ['T2', 'T7', 'T12', 'T13']       | ['T1', 'T6'] |
| P40 |    1    |          ['T2', 'T7', 'T12']           | ['T1', 'T6'] |
| P40 |    1    |       ['T2', 'T7', 'T12', 'T13']       | ['T1', 'T6'] |
| P40 |    1    |          ['T2', 'T7', 'T12']           | ['T1', 'T6'] |
| P40 |    1    |       ['T2', 'T7', 'T12', 'T13']       | ['T1', 'T6'] |
| P40 |    1    |       ['T2', 'T7', 'T12', 'T13']       | ['T1', 'T6'] |
| P40 |    1    |       ['T2', 'T3', 'T7', 'T12']        | ['T1', 'T6'] |
| P40 |    1    |    ['T2', 'T3', 'T7', 'T12', 'T13']    | ['T1', 'T6'] |
| P40 |    1    |       ['T2', 'T3', 'T7', 'T12']        | ['T1', 'T6'] |
| P40 |    1    |    ['T2', 'T3', 'T7', 'T12', 'T13']    | ['T1', 'T6'] |
| P40 |    1    |       ['T2', 'T3', 'T7', 'T12']        | ['T1', 'T6'] |
| P40 |    1    |    ['T2', 'T3', 'T7', 'T12', 'T13']    | ['T1', 'T6'] |
| P40 |    1    |    ['T2', 'T3', 'T7', 'T12', 'T13']    | ['T1', 'T6'] |
| P40 |    1    |    ['T2', 'T3', 'T7', 'T12', 'T13']    | ['T1', 'T6'] |
| P40 |    1    |    ['T2', 'T3', 'T7', 'T12', 'T13']    | ['T1', 'T6'] |
| P40 |    1    |       ['T2', 'T3', 'T7', 'T12']        | ['T1', 'T6'] |
| P40 |    1    |    ['T2', 'T3', 'T7', 'T12', 'T13']    | ['T1', 'T6'] |
| P40 |    2    |          ['T2', 'T7', 'T12']           | ['T1', 'T6'] |
| P40 |    1    |       ['T2', 'T3', 'T7', 'T12']        | ['T1', 'T6'] |
| P40 |    2    |       ['T2', 'T7', 'T12', 'T13']       | ['T1', 'T6'] |
| P40 |    1    |    ['T2', 'T3', 'T7', 'T12', 'T13']    | ['T1', 'T6'] |
| P40 |    2    |       ['T2', 'T7', 'T8', 'T12']        | ['T1', 'T6'] |
| P40 |    1    |       ['T2', 'T3', 'T7', 'T12']        | ['T1', 'T6'] |
| P40 |    3    |    ['T2', 'T5', 'T7', 'T8', 'T12']     | ['T1', 'T6'] |
| P40 |    2    |          ['T2', 'T7', 'T12']           | ['T1', 'T6'] |
| P40 |    2    |    ['T2', 'T7', 'T8', 'T12', 'T13']    | ['T1', 'T6'] |
| P40 |    1    |    ['T2', 'T3', 'T7', 'T12', 'T13']    | ['T1', 'T6'] |
| P40 |    3    | ['T2', 'T5', 'T7', 'T8', 'T12', 'T13'] | ['T1', 'T6'] |
| P40 |    2    |       ['T2', 'T7', 'T12', 'T13']       | ['T1', 'T6'] |
+-----+---------+----------------------------------------+--------------+
18/07/2021 13:30:52[INFO] Supervisores agregados   
+-----+---------+----------------------------------+--------------+
| Nro | Marcado |           T - Entrada            |  T - Salida  |
+-----+---------+----------------------------------+--------------+
|  1  |    1    | ['T2', 'T3', 'T7', 'T12', 'T13'] | ['T1', 'T6'] |
+-----+---------+----------------------------------+--------------+
18/07/2021 13:30:52[INFO] Ejecutando accion...   
18/07/2021 13:30:52[ACTION] Agregar o quitar arcos   
18/07/2021 13:30:52[ACTION] Eliminar arco desde T2 hasta P39   
18/07/2021 13:30:52[INFO] Se elimino el arco con metodo 2 desde T2 hasta P39   
18/07/2021 13:30:52[ACTION] Eliminar arco desde T7 hasta P39   
18/07/2021 13:30:52[INFO] Se elimino el arco con metodo 2 desde T7 hasta P39   
18/07/2021 13:30:52[ACTION] La transicion en conflicto T15 le tiene que devolver un token al supervisor P39   
18/07/2021 13:30:52[INFO] Se agrego un arco desde T15 hasta P39   

--------------------------------------------------------------------------   
18/07/2021 13:30:52[INFO] Ejecutando petrinator para conocer estado de la red...   
--------------------------------------------------------------------------
   

--------------------------------------------------------------------------
   
18/07/2021 13:31:37[INFO] Calculando recompensa..   
18/07/2021 13:31:37[REWARD] Hay menos o igual cantidad de sifones vacios que en el estado anterior, recompensa -1   

--------------------------------------------------------------------------
   
18/07/2021 13:31:37[STATE] Cambie al estado 3: Hay igual cantidad de sifones vacios en deadlock   
+-----------------------------------------------------+--------------------+------------------------+
|                   Estados/Acciones                  | Agregar supervisor | Agregar o quitar arcos |
+-----------------------------------------------------+--------------------+------------------------+
|                        Start                        |        -1.0        |          0.0           |
|        Más sifónes vacíos en estado deadlock        |        0.0         |          0.0           |
|       Menos sifónes vacíos en estado deadlock       |        0.0         |          0.0           |
| Igual cantidad de sifónes vacíos en estado deadlock |        0.0         |          -1.0          |
|                         End                         |        0.0         |          0.0           |
+-----------------------------------------------------+--------------------+------------------------+
+-----+------+----------------------------------------------------------------------------------------------------------------------------+
|  ID | Nro  |                                                           Plazas                                                           |
+-----+------+----------------------------------------------------------------------------------------------------------------------------+
|  70 | 1864 |                               ['P4', 'P6', 'P10', 'P13', 'P15', 'P21', 'P27', 'P35', 'P37']                                |
|  71 | 1870 |                        ['P4', 'P10', 'P13', 'P15', 'P19', 'P21', 'P25', 'P27', 'P35', 'P37', 'P38']                        |
|  72 | 293  |                                      ['P3', 'P8', 'P13', 'P19', 'P25', 'P33', 'P38']                                       |
|  73 | 312  |                                   ['P3', 'P8', 'P14', 'P19', 'P25', 'P30', 'P33', 'P38']                                   |
|  74 | 567  |                     ['P3', 'P8', 'P10', 'P15', 'P19', 'P21', 'P25', 'P27', 'P30', 'P33', 'P35', 'P38']                     |
|  75 |  22  |                                             ['P2', 'P8', 'P14', 'P30', 'P33']                                              |
|  76 |  32  |                                          ['P2', 'P8', 'P14', 'P15', 'P30', 'P33']                                          |
|  77 |  49  |                                          ['P2', 'P8', 'P9', 'P14', 'P30', 'P33']                                           |
|  78 |  59  |                                       ['P2', 'P8', 'P9', 'P14', 'P15', 'P30', 'P33']                                       |
|  79 | 102  |                                       ['P2', 'P8', 'P9', 'P10', 'P14', 'P30', 'P33']                                       |
|  80 | 148  |                                   ['P2', 'P8', 'P9', 'P10', 'P14', 'P15', 'P30', 'P33']                                    |
|  81 | 212  |                  ['P2', 'P8', 'P9', 'P10', 'P14', 'P15', 'P18', 'P19', 'P20', 'P21', 'P23', 'P30', 'P33']                  |
|  82 | 302  |                                          ['P2', 'P3', 'P8', 'P14', 'P30', 'P33']                                           |
|  83 | 321  |                                       ['P2', 'P3', 'P8', 'P14', 'P15', 'P30', 'P33']                                       |
|  84 | 367  |                                       ['P2', 'P3', 'P8', 'P9', 'P14', 'P30', 'P33']                                        |
|  85 | 385  |                                    ['P2', 'P3', 'P8', 'P9', 'P14', 'P15', 'P30', 'P33']                                    |
|  86 | 494  |                                    ['P2', 'P3', 'P8', 'P9', 'P10', 'P14', 'P30', 'P33']                                    |
|  87 | 522  |                                ['P2', 'P3', 'P8', 'P9', 'P10', 'P14', 'P15', 'P30', 'P33']                                 |
|  88 | 565  |        ['P2', 'P3', 'P8', 'P9', 'P10', 'P14', 'P15', 'P18', 'P19', 'P20', 'P21', 'P23', 'P24', 'P25', 'P30', 'P33']        |
|  89 | 566  |    ['P2', 'P3', 'P8', 'P9', 'P10', 'P14', 'P15', 'P18', 'P19', 'P20', 'P21', 'P23', 'P24', 'P25', 'P26', 'P30', 'P33']     |
|  90 | 570  | ['P2', 'P3', 'P8', 'P9', 'P10', 'P14', 'P15', 'P18', 'P19', 'P20', 'P21', 'P23', 'P24', 'P25', 'P26', 'P27', 'P30', 'P33'] |
|  91 | 672  |                                       ['P2', 'P3', 'P4', 'P8', 'P14', 'P30', 'P33']                                        |
|  92 | 690  |                                    ['P2', 'P3', 'P4', 'P8', 'P14', 'P15', 'P30', 'P33']                                    |
|  93 | 810  |                                       ['P2', 'P4', 'P9', 'P14', 'P30', 'P33', 'P37']                                       |
|  94 | 818  |                                    ['P2', 'P3', 'P4', 'P8', 'P9', 'P14', 'P30', 'P33']                                     |
|  95 | 919  |                                   ['P2', 'P4', 'P9', 'P14', 'P15', 'P30', 'P33', 'P37']                                    |
|  96 | 927  |                                 ['P2', 'P3', 'P4', 'P8', 'P9', 'P14', 'P15', 'P30', 'P33']                                 |
|  97 | 1315 |                                   ['P2', 'P4', 'P9', 'P10', 'P14', 'P30', 'P33', 'P37']                                    |
|  98 | 1323 |                                 ['P2', 'P3', 'P4', 'P8', 'P9', 'P10', 'P14', 'P30', 'P33']                                 |
|  99 | 1329 |                                   ['P2', 'P4', 'P10', 'P14', 'P30', 'P31', 'P33', 'P37']                                   |
| 100 | 1334 |                                   ['P2', 'P4', 'P8', 'P10', 'P14', 'P30', 'P31', 'P33']                                    |
| 101 | 1588 |                                ['P2', 'P4', 'P9', 'P10', 'P14', 'P15', 'P30', 'P33', 'P37']                                |
| 102 | 1596 |                             ['P2', 'P3', 'P4', 'P8', 'P9', 'P10', 'P14', 'P15', 'P30', 'P33']                              |
| 103 | 1602 |                               ['P2', 'P4', 'P10', 'P14', 'P15', 'P30', 'P31', 'P33', 'P37']                                |
| 104 | 1607 |                                ['P2', 'P4', 'P8', 'P10', 'P14', 'P15', 'P30', 'P31', 'P33']                                |
+-----+------+----------------------------------------------------------------------------------------------------------------------------+
+----+----+----+----+----+----+----+----+----+----+-----+-----+-----+-----+-----+-----+-----+-----+-----+-----+-----+-----+-----+
| T0 | T1 | T2 | T3 | T4 | T5 | T6 | T7 | T8 | T9 | T10 | T11 | T12 | T13 | T14 | T15 | T16 | T17 | T18 | T19 | T20 | T21 | T22 |
+----+----+----+----+----+----+----+----+----+----+-----+-----+-----+-----+-----+-----+-----+-----+-----+-----+-----+-----+-----+
| 1  | 1  | 1  | 1  | 1  | 0  | 0  | 0  | 0  | 0  |  0  |  0  |  0  |  0  |  0  |  0  |  0  |  0  |  0  |  0  |  0  |  0  |  0  |
| 0  | 0  | 0  | 0  | 0  | 1  | 1  | 1  | 1  | 0  |  0  |  0  |  0  |  0  |  1  |  1  |  1  |  1  |  1  |  1  |  1  |  1  |  1  |
+----+----+----+----+----+----+----+----+----+----+-----+-----+-----+-----+-----+-----+-----+-----+-----+-----+-----+-----+-----+
18/07/2021 13:31:37[INFO] Supervisores para agregar   
+-----+---------+----------------------------------------+--------------+
|  ID | Marcado |              T - Entrada               |  T - Salida  |
+-----+---------+----------------------------------------+--------------+
| P40 |    2    |              ['T4', 'T8']              | ['T1', 'T6'] |
| P40 |    2    |          ['T4', 'T8', 'T11']           | ['T1', 'T6'] |
| P40 |    1    |          ['T3', 'T7', 'T11']           | ['T1', 'T6'] |
| P40 |    2    |          ['T3', 'T7', 'T12']           | ['T1', 'T6'] |
| P40 |    3    |          ['T3', 'T7', 'T13']           | ['T1', 'T6'] |
| P40 |    1    |          ['T2', 'T7', 'T12']           | ['T1', 'T6'] |
| P40 |    1    |       ['T2', 'T7', 'T12', 'T13']       | ['T1', 'T6'] |
| P40 |    1    |          ['T2', 'T7', 'T12']           | ['T1', 'T6'] |
| P40 |    1    |       ['T2', 'T7', 'T12', 'T13']       | ['T1', 'T6'] |
| P40 |    1    |          ['T2', 'T7', 'T12']           | ['T1', 'T6'] |
| P40 |    1    |       ['T2', 'T7', 'T12', 'T13']       | ['T1', 'T6'] |
| P40 |    1    |       ['T2', 'T7', 'T12', 'T13']       | ['T1', 'T6'] |
| P40 |    1    |       ['T2', 'T3', 'T7', 'T12']        | ['T1', 'T6'] |
| P40 |    1    |    ['T2', 'T3', 'T7', 'T12', 'T13']    | ['T1', 'T6'] |
| P40 |    1    |       ['T2', 'T3', 'T7', 'T12']        | ['T1', 'T6'] |
| P40 |    1    |    ['T2', 'T3', 'T7', 'T12', 'T13']    | ['T1', 'T6'] |
| P40 |    1    |       ['T2', 'T3', 'T7', 'T12']        | ['T1', 'T6'] |
| P40 |    1    |    ['T2', 'T3', 'T7', 'T12', 'T13']    | ['T1', 'T6'] |
| P40 |    1    |    ['T2', 'T3', 'T7', 'T12', 'T13']    | ['T1', 'T6'] |
| P40 |    1    |    ['T2', 'T3', 'T7', 'T12', 'T13']    | ['T1', 'T6'] |
| P40 |    1    |    ['T2', 'T3', 'T7', 'T12', 'T13']    | ['T1', 'T6'] |
| P40 |    1    |       ['T2', 'T3', 'T7', 'T12']        | ['T1', 'T6'] |
| P40 |    1    |    ['T2', 'T3', 'T7', 'T12', 'T13']    | ['T1', 'T6'] |
| P40 |    2    |          ['T2', 'T7', 'T12']           | ['T1', 'T6'] |
| P40 |    1    |       ['T2', 'T3', 'T7', 'T12']        | ['T1', 'T6'] |
| P40 |    2    |       ['T2', 'T7', 'T12', 'T13']       | ['T1', 'T6'] |
| P40 |    1    |    ['T2', 'T3', 'T7', 'T12', 'T13']    | ['T1', 'T6'] |
| P40 |    2    |       ['T2', 'T7', 'T8', 'T12']        | ['T1', 'T6'] |
| P40 |    1    |       ['T2', 'T3', 'T7', 'T12']        | ['T1', 'T6'] |
| P40 |    3    |    ['T2', 'T5', 'T7', 'T8', 'T12']     | ['T1', 'T6'] |
| P40 |    2    |          ['T2', 'T7', 'T12']           | ['T1', 'T6'] |
| P40 |    2    |    ['T2', 'T7', 'T8', 'T12', 'T13']    | ['T1', 'T6'] |
| P40 |    1    |    ['T2', 'T3', 'T7', 'T12', 'T13']    | ['T1', 'T6'] |
| P40 |    3    | ['T2', 'T5', 'T7', 'T8', 'T12', 'T13'] | ['T1', 'T6'] |
| P40 |    2    |       ['T2', 'T7', 'T12', 'T13']       | ['T1', 'T6'] |
+-----+---------+----------------------------------------+--------------+
18/07/2021 13:31:37[INFO] Supervisores agregados   
+-----+---------+----------------------------------+--------------+
| Nro | Marcado |           T - Entrada            |  T - Salida  |
+-----+---------+----------------------------------+--------------+
|  1  |    1    | ['T2', 'T3', 'T7', 'T12', 'T13'] | ['T1', 'T6'] |
+-----+---------+----------------------------------+--------------+
18/07/2021 13:31:37[INFO] Ejecutando accion...   
18/07/2021 13:31:37[INFO] Ejecutando accion...   
18/07/2021 13:31:37[ACTION] Agrego supervisor aleatorio Numero: 12  

--------------------------------------------------------------------------   
18/07/2021 13:31:37[INFO] Ejecutando petrinator para conocer estado de la red...   
--------------------------------------------------------------------------
   

--------------------------------------------------------------------------
   
18/07/2021 13:32:31[INFO] Calculando recompensa..   
18/07/2021 13:32:31[REWARD] El sifon se controlo correctamente, recompensa -1   

--------------------------------------------------------------------------
   
18/07/2021 13:32:31[STATE] Cambie al estado 3: Hay igual cantidad de sifones vacios en deadlock   
+-----------------------------------------------------+--------------------+------------------------+
|                   Estados/Acciones                  | Agregar supervisor | Agregar o quitar arcos |
+-----------------------------------------------------+--------------------+------------------------+
|                        Start                        |        -1.0        |          0.0           |
|        Más sifónes vacíos en estado deadlock        |        0.0         |          0.0           |
|       Menos sifónes vacíos en estado deadlock       |        0.0         |          0.0           |
| Igual cantidad de sifónes vacíos en estado deadlock |        -1.0        |          -1.0          |
|                         End                         |        0.0         |          0.0           |
+-----------------------------------------------------+--------------------+------------------------+
+-----+------+----------------------------------------------------------------------------------------------------------------------------+
|  ID | Nro  |                                                           Plazas                                                           |
+-----+------+----------------------------------------------------------------------------------------------------------------------------+
| 105 | 2049 |                               ['P4', 'P6', 'P10', 'P13', 'P15', 'P21', 'P27', 'P35', 'P37']                                |
| 106 | 2055 |                        ['P4', 'P10', 'P13', 'P15', 'P19', 'P21', 'P25', 'P27', 'P35', 'P37', 'P38']                        |
| 107 | 328  |                                      ['P3', 'P8', 'P13', 'P19', 'P25', 'P33', 'P38']                                       |
| 108 | 349  |                                   ['P3', 'P8', 'P14', 'P19', 'P25', 'P30', 'P33', 'P38']                                   |
| 109 | 631  |                     ['P3', 'P8', 'P10', 'P15', 'P19', 'P21', 'P25', 'P27', 'P30', 'P33', 'P35', 'P38']                     |
| 110 |  22  |                                             ['P2', 'P8', 'P14', 'P30', 'P33']                                              |
| 111 |  33  |                                          ['P2', 'P8', 'P14', 'P15', 'P30', 'P33']                                          |
| 112 |  52  |                                          ['P2', 'P8', 'P9', 'P14', 'P30', 'P33']                                           |
| 113 |  63  |                                       ['P2', 'P8', 'P9', 'P14', 'P15', 'P30', 'P33']                                       |
| 114 | 111  |                                       ['P2', 'P8', 'P9', 'P10', 'P14', 'P30', 'P33']                                       |
| 115 | 165  |                                   ['P2', 'P8', 'P9', 'P10', 'P14', 'P15', 'P30', 'P33']                                    |
| 116 | 238  |                  ['P2', 'P8', 'P9', 'P10', 'P14', 'P15', 'P18', 'P19', 'P20', 'P21', 'P23', 'P30', 'P33']                  |
| 117 | 338  |                                          ['P2', 'P3', 'P8', 'P14', 'P30', 'P33']                                           |
| 118 | 359  |                                       ['P2', 'P3', 'P8', 'P14', 'P15', 'P30', 'P33']                                       |
| 119 | 409  |                                       ['P2', 'P3', 'P8', 'P9', 'P14', 'P30', 'P33']                                        |
| 120 | 429  |                                    ['P2', 'P3', 'P8', 'P9', 'P14', 'P15', 'P30', 'P33']                                    |
| 121 | 548  |                                    ['P2', 'P3', 'P8', 'P9', 'P10', 'P14', 'P30', 'P33']                                    |
| 122 | 580  |                                ['P2', 'P3', 'P8', 'P9', 'P10', 'P14', 'P15', 'P30', 'P33']                                 |
| 123 | 629  |        ['P2', 'P3', 'P8', 'P9', 'P10', 'P14', 'P15', 'P18', 'P19', 'P20', 'P21', 'P23', 'P24', 'P25', 'P30', 'P33']        |
| 124 | 630  |    ['P2', 'P3', 'P8', 'P9', 'P10', 'P14', 'P15', 'P18', 'P19', 'P20', 'P21', 'P23', 'P24', 'P25', 'P26', 'P30', 'P33']     |
| 125 | 634  | ['P2', 'P3', 'P8', 'P9', 'P10', 'P14', 'P15', 'P18', 'P19', 'P20', 'P21', 'P23', 'P24', 'P25', 'P26', 'P27', 'P30', 'P33'] |
| 126 | 745  |                                       ['P2', 'P3', 'P4', 'P8', 'P14', 'P30', 'P33']                                        |
| 127 | 767  |                                    ['P2', 'P3', 'P4', 'P8', 'P14', 'P15', 'P30', 'P33']                                    |
| 128 | 901  |                                       ['P2', 'P4', 'P9', 'P14', 'P30', 'P33', 'P37']                                       |
| 129 | 909  |                                    ['P2', 'P3', 'P4', 'P8', 'P9', 'P14', 'P30', 'P33']                                     |
| 130 | 1022 |                                   ['P2', 'P4', 'P9', 'P14', 'P15', 'P30', 'P33', 'P37']                                    |
| 131 | 1030 |                                 ['P2', 'P3', 'P4', 'P8', 'P9', 'P14', 'P15', 'P30', 'P33']                                 |
| 132 | 1456 |                                   ['P2', 'P4', 'P9', 'P10', 'P14', 'P30', 'P33', 'P37']                                    |
| 133 | 1464 |                                 ['P2', 'P3', 'P4', 'P8', 'P9', 'P10', 'P14', 'P30', 'P33']                                 |
| 134 | 1470 |                                   ['P2', 'P4', 'P10', 'P14', 'P30', 'P31', 'P33', 'P37']                                   |
| 135 | 1475 |                                   ['P2', 'P4', 'P8', 'P10', 'P14', 'P30', 'P31', 'P33']                                    |
| 136 | 1749 |                                ['P2', 'P4', 'P9', 'P10', 'P14', 'P15', 'P30', 'P33', 'P37']                                |
| 137 | 1757 |                             ['P2', 'P3', 'P4', 'P8', 'P9', 'P10', 'P14', 'P15', 'P30', 'P33']                              |
| 138 | 1763 |                               ['P2', 'P4', 'P10', 'P14', 'P15', 'P30', 'P31', 'P33', 'P37']                                |
| 139 | 1768 |                                ['P2', 'P4', 'P8', 'P10', 'P14', 'P15', 'P30', 'P31', 'P33']                                |
+-----+------+----------------------------------------------------------------------------------------------------------------------------+
+----+----+----+----+----+----+----+----+----+----+-----+-----+-----+-----+-----+-----+-----+-----+-----+-----+-----+-----+-----+
| T0 | T1 | T2 | T3 | T4 | T5 | T6 | T7 | T8 | T9 | T10 | T11 | T12 | T13 | T14 | T15 | T16 | T17 | T18 | T19 | T20 | T21 | T22 |
+----+----+----+----+----+----+----+----+----+----+-----+-----+-----+-----+-----+-----+-----+-----+-----+-----+-----+-----+-----+
| 0  | 0  | 0  | 0  | 0  | 1  | 1  | 1  | 1  | 0  |  0  |  0  |  0  |  0  |  1  |  1  |  1  |  1  |  1  |  1  |  1  |  1  |  1  |
+----+----+----+----+----+----+----+----+----+----+-----+-----+-----+-----+-----+-----+-----+-----+-----+-----+-----+-----+-----+
18/07/2021 13:32:31[INFO] Supervisores para agregar   
+-----+---------+----------------------------------------+--------------+
|  ID | Marcado |              T - Entrada               |  T - Salida  |
+-----+---------+----------------------------------------+--------------+
| P41 |    2    |              ['T4', 'T8']              | ['T1', 'T6'] |
| P41 |    2    |          ['T4', 'T8', 'T11']           | ['T1', 'T6'] |
| P41 |    1    |          ['T3', 'T7', 'T11']           | ['T1', 'T6'] |
| P41 |    2    |          ['T3', 'T7', 'T12']           | ['T1', 'T6'] |
| P41 |    3    |          ['T3', 'T7', 'T13']           | ['T1', 'T6'] |
| P41 |    1    |          ['T2', 'T7', 'T12']           | ['T1', 'T6'] |
| P41 |    1    |       ['T2', 'T7', 'T12', 'T13']       | ['T1', 'T6'] |
| P41 |    1    |          ['T2', 'T7', 'T12']           | ['T1', 'T6'] |
| P41 |    1    |       ['T2', 'T7', 'T12', 'T13']       | ['T1', 'T6'] |
| P41 |    1    |          ['T2', 'T7', 'T12']           | ['T1', 'T6'] |
| P41 |    1    |       ['T2', 'T7', 'T12', 'T13']       | ['T1', 'T6'] |
| P41 |    1    |       ['T2', 'T7', 'T12', 'T13']       | ['T1', 'T6'] |
| P41 |    1    |       ['T2', 'T3', 'T7', 'T12']        | ['T1', 'T6'] |
| P41 |    1    |    ['T2', 'T3', 'T7', 'T12', 'T13']    | ['T1', 'T6'] |
| P41 |    1    |       ['T2', 'T3', 'T7', 'T12']        | ['T1', 'T6'] |
| P41 |    1    |    ['T2', 'T3', 'T7', 'T12', 'T13']    | ['T1', 'T6'] |
| P41 |    1    |       ['T2', 'T3', 'T7', 'T12']        | ['T1', 'T6'] |
| P41 |    1    |    ['T2', 'T3', 'T7', 'T12', 'T13']    | ['T1', 'T6'] |
| P41 |    1    |    ['T2', 'T3', 'T7', 'T12', 'T13']    | ['T1', 'T6'] |
| P41 |    1    |    ['T2', 'T3', 'T7', 'T12', 'T13']    | ['T1', 'T6'] |
| P41 |    1    |    ['T2', 'T3', 'T7', 'T12', 'T13']    | ['T1', 'T6'] |
| P41 |    1    |       ['T2', 'T3', 'T7', 'T12']        | ['T1', 'T6'] |
| P41 |    1    |    ['T2', 'T3', 'T7', 'T12', 'T13']    | ['T1', 'T6'] |
| P41 |    2    |          ['T2', 'T7', 'T12']           | ['T1', 'T6'] |
| P41 |    1    |       ['T2', 'T3', 'T7', 'T12']        | ['T1', 'T6'] |
| P41 |    2    |       ['T2', 'T7', 'T12', 'T13']       | ['T1', 'T6'] |
| P41 |    1    |    ['T2', 'T3', 'T7', 'T12', 'T13']    | ['T1', 'T6'] |
| P41 |    2    |       ['T2', 'T7', 'T8', 'T12']        | ['T1', 'T6'] |
| P41 |    1    |       ['T2', 'T3', 'T7', 'T12']        | ['T1', 'T6'] |
| P41 |    3    |    ['T2', 'T5', 'T7', 'T8', 'T12']     | ['T1', 'T6'] |
| P41 |    2    |          ['T2', 'T7', 'T12']           | ['T1', 'T6'] |
| P41 |    2    |    ['T2', 'T7', 'T8', 'T12', 'T13']    | ['T1', 'T6'] |
| P41 |    1    |    ['T2', 'T3', 'T7', 'T12', 'T13']    | ['T1', 'T6'] |
| P41 |    3    | ['T2', 'T5', 'T7', 'T8', 'T12', 'T13'] | ['T1', 'T6'] |
| P41 |    2    |       ['T2', 'T7', 'T12', 'T13']       | ['T1', 'T6'] |
+-----+---------+----------------------------------------+--------------+
18/07/2021 13:32:31[INFO] Supervisores agregados   
+-----+---------+----------------------------------+--------------+
| Nro | Marcado |           T - Entrada            |  T - Salida  |
+-----+---------+----------------------------------+--------------+
|  1  |    1    | ['T2', 'T3', 'T7', 'T12', 'T13'] | ['T1', 'T6'] |
|  2  |    1    |    ['T2', 'T3', 'T7', 'T12']     | ['T1', 'T6'] |
+-----+---------+----------------------------------+--------------+
18/07/2021 13:32:31[INFO] Ejecutando accion...   
18/07/2021 13:32:31[ACTION] Agregar o quitar arcos   
18/07/2021 13:32:31[ACTION] Eliminar arco desde T2 hasta P40   
18/07/2021 13:32:31[INFO] Se elimino el arco con metodo 2 desde T2 hasta P40   
18/07/2021 13:32:31[ACTION] Eliminar arco desde T12 hasta P39   
18/07/2021 13:32:31[INFO] Se elimino el arco con metodo 2 desde T12 hasta P39   
18/07/2021 13:32:31[ACTION] Eliminar arco desde T7 hasta P40   
18/07/2021 13:32:31[INFO] Se elimino el arco con metodo 2 desde T7 hasta P40   
18/07/2021 13:32:31[ACTION] La transicion en conflicto T15 le tiene que devolver un token al supervisor P40   
18/07/2021 13:32:31[INFO] Se agrego un arco desde T15 hasta P40   

--------------------------------------------------------------------------   
18/07/2021 13:32:31[INFO] Ejecutando petrinator para conocer estado de la red...   
--------------------------------------------------------------------------
   

--------------------------------------------------------------------------
   
18/07/2021 13:33:26[INFO] Calculando recompensa..   
18/07/2021 13:33:26[REWARD] No hay mas deadlock, recompensa 100   

--------------------------------------------------------------------------
   
18/07/2021 13:33:26[STATE] Se llego al estado deseado, NO HAY MAS DEADLOCK   

--------------------------------------------------------------------------
   
18/07/2021 13:33:26[STATE] Cambie al estado 2: Hay menos sifones vacios en deadlock   
+-----------------------------------------------------+--------------------+------------------------+
|                   Estados/Acciones                  | Agregar supervisor | Agregar o quitar arcos |
+-----------------------------------------------------+--------------------+------------------------+
|                        Start                        |        -1.0        |          0.0           |
|        Más sifónes vacíos en estado deadlock        |        0.0         |          0.0           |
|       Menos sifónes vacíos en estado deadlock       |        0.0         |          0.0           |
| Igual cantidad de sifónes vacíos en estado deadlock |        -1.0        |         100.0          |
|                         End                         |        0.0         |          0.0           |
+-----------------------------------------------------+--------------------+------------------------+
