 Minimal siphons 
4 10 15 19 21 27 28 30 35 37 38
3 10 11 15 19 21 27 28 30 33 35 38
2 10 15 21 27 35
26 28
15 16
9 11
18 22
1 8 14 30
14 17
1 8 36
1 8 32
1 8 14 15 30
1 8 14 15 17 36
1 8 14 15 17 32
8 9 10 12 13 14 15 18 19 20 21 23 24 25 26 27 29
2 9 11 34
2 8 34
1 39 2 15 16 18 22
1 40 2 15 16 17 18 22
1 40 2 14 17 18 22
1 40 2 14 15 17 18 22
1 39 2 14 17 18 22
1 39 2 14 15 17 18 22
2 8 15 16 30 33
2 8 14 30 33
2 8 13 33
1 2 8 36
1 2 8 32
2 8 14 17 33
2 8 13 14 33
1 2 8 14 17 36
1 2 8 14 17 32
1 39 2 8 14 17 18 22
1 40 2 8 14 17 18 22
1 2 8 14 30
2 8 14 15 30 33
2 8 14 15 17 33
2 8 13 14 15 33
1 2 8 14 15 17 36
1 2 8 14 15 17 32
1 39 2 8 14 15 17 18 22
1 40 2 8 14 15 17 18 22
1 2 8 14 15 30
2 8 15 16 17 33
2 8 13 15 16 33
1 2 8 15 16 36
1 2 8 15 16 32
1 39 2 8 15 16 18 22
1 2 8 15 16 17 36
1 2 8 15 16 17 32
1 39 2 8 15 16 17 18 22
1 40 2 8 15 16 17 18 22
1 2 8 15 16 30
2 8 9 34
2 8 9 15 16 30 33
2 8 9 14 30 33
2 8 9 13 33
1 2 8 9 36
1 2 8 9 32
2 8 9 14 17 33
2 8 9 13 14 33
1 2 8 9 14 17 36
1 2 8 9 14 17 32
1 39 2 8 9 14 17 18 22
1 40 2 8 9 14 17 18 22
1 2 8 9 14 30
2 8 9 14 15 30 33
2 8 9 14 15 17 33
2 8 9 13 14 15 33
1 2 8 9 14 15 17 36
1 2 8 9 14 15 17 32
1 39 2 8 9 14 15 17 18 22
1 40 2 8 9 14 15 17 18 22
1 2 8 9 14 15 30
2 8 9 15 16 17 33
2 8 9 13 15 16 33
1 2 8 9 15 16 36
1 2 8 9 15 16 32
1 39 2 8 9 15 16 18 22
1 2 8 9 15 16 17 36
1 2 8 9 15 16 17 32
1 39 2 8 9 15 16 17 18 22
1 40 2 8 9 15 16 17 18 22
1 2 8 9 15 16 30
2 9 11 15 16 30 33
2 9 11 14 30 33
2 9 11 13 33
1 2 9 11 36
1 2 9 11 32
2 9 11 14 17 33
2 9 11 13 14 33
1 2 9 11 14 17 36
1 2 9 11 14 17 32
1 39 2 9 11 14 17 18 22
1 40 2 9 11 14 17 18 22
1 2 9 11 14 30
2 9 11 14 15 30 33
2 9 11 14 15 17 33
2 9 11 13 14 15 33
1 2 9 11 14 15 17 36
1 2 9 11 14 15 17 32
1 39 2 9 11 14 15 17 18 22
1 40 2 9 11 14 15 17 18 22
1 2 9 11 14 15 30
2 9 11 15 16 17 33
2 9 11 13 15 16 33
1 2 9 11 15 16 36
1 2 9 11 15 16 32
1 39 2 9 11 15 16 18 22
1 2 9 11 15 16 17 36
1 2 9 11 15 16 17 32
1 39 2 9 11 15 16 17 18 22
1 40 2 9 11 15 16 17 18 22
1 2 9 11 15 16 30
2 9 10 11 34
2 8 9 10 34
2 8 9 10 14 30 33
2 8 9 10 13 33
1 2 8 9 10 36
1 2 8 9 10 32
1 2 8 9 10 12 13 23 36
1 2 8 9 10 12 13 23 32
1 40 2 8 9 10 12 13 23
2 8 9 10 14 17 33
2 8 9 10 13 14 33
1 2 8 9 10 12 13 14 23 36
1 2 8 9 10 12 13 14 23 32
1 39 2 8 9 10 12 13 14 23
1 40 2 8 9 10 12 13 14 23
1 2 8 9 10 14 17 36
1 2 8 9 10 14 17 32
1 39 2 8 9 10 14 17 23
1 40 2 8 9 10 14 17 23
1 40 2 8 9 10 14 17 18 22
1 39 2 8 9 10 14 17 18 22
1 2 8 9 10 14 30
2 9 10 11 14 30 33
2 9 10 11 13 33
1 2 9 10 11 36
1 2 9 10 11 32
1 2 9 10 11 12 13 23 36
1 2 9 10 11 12 13 23 32
1 40 2 9 10 11 12 13 23
2 9 10 11 14 17 33
2 9 10 11 13 14 33
1 2 9 10 11 12 13 14 23 36
1 2 9 10 11 12 13 14 23 32
1 39 2 9 10 11 12 13 14 23
1 40 2 9 10 11 12 13 14 23
1 2 9 10 11 14 17 36
1 2 9 10 11 14 17 32
1 39 2 9 10 11 14 17 23
1 40 2 9 10 11 14 17 23
1 40 2 9 10 11 14 17 18 22
1 39 2 9 10 11 14 17 18 22
1 2 9 10 11 14 30
2 9 10 11 15 16 34
2 8 9 10 15 16 34
2 8 9 10 14 15 30 34
2 8 9 10 14 15 17 34
2 8 9 10 13 14 15 33
2 8 9 10 12 13 14 15 23 34
1 2 8 9 10 12 13 14 15 23 36
1 2 8 9 10 12 13 14 15 23 32
1 39 2 8 9 10 12 13 14 15 23
1 40 2 8 9 10 12 13 14 15 23
2 8 9 10 14 15 17 33
1 2 8 9 10 14 15 17 36
1 2 8 9 10 14 15 17 32
1 39 2 8 9 10 14 15 17 23
1 40 2 8 9 10 14 15 17 23
1 40 2 8 9 10 14 15 17 18 22
1 39 2 8 9 10 14 15 17 18 22
2 8 9 10 14 15 30 33
1 2 8 9 10 14 15 30
2 8 9 10 15 16 30 33
2 8 9 10 15 16 17 33
2 8 9 10 13 15 16 33
1 2 8 9 10 15 16 36
1 2 8 9 10 15 16 32
1 39 2 8 9 10 15 16 23
1 39 2 8 9 10 15 16 18 22
1 2 8 9 10 12 13 15 16 23 36
1 2 8 9 10 12 13 15 16 23 32
1 39 2 8 9 10 12 13 15 16 23
1 40 2 8 9 10 12 13 15 16 23
1 2 8 9 10 15 16 17 36
1 2 8 9 10 15 16 17 32
1 39 2 8 9 10 15 16 17 23
1 40 2 8 9 10 15 16 17 23
1 40 2 8 9 10 15 16 17 18 22
1 39 2 8 9 10 15 16 17 18 22
1 2 8 9 10 15 16 30
2 9 10 11 14 15 30 34
2 9 10 11 14 15 17 34
2 9 10 11 13 14 15 33
2 9 10 11 12 13 14 15 23 34
1 2 9 10 11 12 13 14 15 23 36
1 2 9 10 11 12 13 14 15 23 32
1 39 2 9 10 11 12 13 14 15 23
1 40 2 9 10 11 12 13 14 15 23
2 9 10 11 14 15 17 33
1 2 9 10 11 14 15 17 36
1 2 9 10 11 14 15 17 32
1 39 2 9 10 11 14 15 17 23
1 40 2 9 10 11 14 15 17 23
1 40 2 9 10 11 14 15 17 18 22
1 39 2 9 10 11 14 15 17 18 22
2 9 10 11 14 15 30 33
1 2 9 10 11 14 15 30
2 9 10 11 15 16 30 33
2 9 10 11 15 16 17 33
2 9 10 11 13 15 16 33
1 2 9 10 11 15 16 36
1 2 9 10 11 15 16 32
1 39 2 9 10 11 15 16 23
1 39 2 9 10 11 15 16 18 22
1 2 9 10 11 12 13 15 16 23 36
1 2 9 10 11 12 13 15 16 23 32
1 39 2 9 10 11 12 13 15 16 23
1 40 2 9 10 11 12 13 15 16 23
1 2 9 10 11 15 16 17 36
1 2 9 10 11 15 16 17 32
1 39 2 9 10 11 15 16 17 23
1 40 2 9 10 11 15 16 17 23
1 40 2 9 10 11 15 16 17 18 22
1 39 2 9 10 11 15 16 17 18 22
1 2 9 10 11 15 16 30
2 9 10 11 15 16 18 19 20 21 23 34
2 8 9 10 15 16 18 19 20 21 23 34
2 8 9 10 14 15 18 19 20 21 23 30 34
2 8 9 10 14 15 18 19 20 21 22 30 34
2 8 9 10 14 15 17 18 19 20 21 22 34
2 8 9 10 13 14 15 18 19 20 21 22 33
2 8 9 10 14 15 17 18 19 20 21 22 33
1 2 8 9 10 14 15 17 18 19 20 21 22 36
1 2 8 9 10 14 15 17 18 19 20 21 22 32
1 39 2 8 9 10 14 15 17 18 19 20 21 22
1 40 2 8 9 10 14 15 17 18 19 20 21 22
2 8 9 10 14 15 18 19 20 21 22 30 33
1 2 8 9 10 14 15 18 19 20 21 22 30
2 8 9 10 14 15 17 18 19 20 21 23 34
2 8 9 10 13 14 15 18 19 20 21 23 33
2 8 9 10 12 13 14 15 18 19 20 21 23 34
1 2 8 9 10 12 13 14 15 18 19 20 21 23 36
1 2 8 9 10 12 13 14 15 18 19 20 21 23 32
1 39 2 8 9 10 12 13 14 15 18 19 20 21 23
1 40 2 8 9 10 12 13 14 15 18 19 20 21 23
2 8 9 10 14 15 17 18 19 20 21 23 33
1 2 8 9 10 14 15 17 18 19 20 21 23 36
1 2 8 9 10 14 15 17 18 19 20 21 23 32
1 39 2 8 9 10 14 15 17 18 19 20 21 23
1 40 2 8 9 10 14 15 17 18 19 20 21 23
2 8 9 10 14 15 18 19 20 21 23 30 33
1 2 8 9 10 14 15 18 19 20 21 23 30
2 8 9 10 15 16 18 19 20 21 22 34
2 8 9 10 15 16 18 19 20 21 22 30 33
2 8 9 10 15 16 17 18 19 20 21 22 33
2 8 9 10 13 15 16 18 19 20 21 22 33
1 2 8 9 10 15 16 18 19 20 21 22 36
1 2 8 9 10 15 16 18 19 20 21 22 32
1 39 2 8 9 10 15 16 18 19 20 21 22
1 2 8 9 10 15 16 17 18 19 20 21 22 36
1 2 8 9 10 15 16 17 18 19 20 21 22 32
1 39 2 8 9 10 15 16 17 18 19 20 21 22
1 40 2 8 9 10 15 16 17 18 19 20 21 22
1 2 8 9 10 15 16 18 19 20 21 22 30
2 8 9 10 15 16 18 19 20 21 23 30 33
2 8 9 10 15 16 17 18 19 20 21 23 33
2 8 9 10 13 15 16 18 19 20 21 23 33
1 2 8 9 10 15 16 18 19 20 21 23 36
1 2 8 9 10 15 16 18 19 20 21 23 32
1 39 2 8 9 10 15 16 18 19 20 21 23
1 2 8 9 10 12 13 15 16 18 19 20 21 23 36
1 2 8 9 10 12 13 15 16 18 19 20 21 23 32
1 39 2 8 9 10 12 13 15 16 18 19 20 21 23
1 40 2 8 9 10 12 13 15 16 18 19 20 21 23
1 2 8 9 10 15 16 17 18 19 20 21 23 36
1 2 8 9 10 15 16 17 18 19 20 21 23 32
1 39 2 8 9 10 15 16 17 18 19 20 21 23
1 40 2 8 9 10 15 16 17 18 19 20 21 23
1 2 8 9 10 15 16 18 19 20 21 23 30
2 9 10 11 14 15 18 19 20 21 23 30 34
2 9 10 11 14 15 18 19 20 21 22 30 34
2 9 10 11 14 15 17 18 19 20 21 22 34
2 9 10 11 13 14 15 18 19 20 21 22 33
2 9 10 11 14 15 17 18 19 20 21 22 33
1 2 9 10 11 14 15 17 18 19 20 21 22 36
1 2 9 10 11 14 15 17 18 19 20 21 22 32
1 39 2 9 10 11 14 15 17 18 19 20 21 22
1 40 2 9 10 11 14 15 17 18 19 20 21 22
2 9 10 11 14 15 18 19 20 21 22 30 33
1 2 9 10 11 14 15 18 19 20 21 22 30
2 9 10 11 14 15 17 18 19 20 21 23 34
2 9 10 11 13 14 15 18 19 20 21 23 33
2 9 10 11 12 13 14 15 18 19 20 21 23 34
1 2 9 10 11 12 13 14 15 18 19 20 21 23 36
1 2 9 10 11 12 13 14 15 18 19 20 21 23 32
1 39 2 9 10 11 12 13 14 15 18 19 20 21 23
1 40 2 9 10 11 12 13 14 15 18 19 20 21 23
2 9 10 11 14 15 17 18 19 20 21 23 33
1 2 9 10 11 14 15 17 18 19 20 21 23 36
1 2 9 10 11 14 15 17 18 19 20 21 23 32
1 39 2 9 10 11 14 15 17 18 19 20 21 23
1 40 2 9 10 11 14 15 17 18 19 20 21 23
2 9 10 11 14 15 18 19 20 21 23 30 33
1 2 9 10 11 14 15 18 19 20 21 23 30
2 9 10 11 15 16 18 19 20 21 22 34
2 9 10 11 15 16 18 19 20 21 22 30 33
2 9 10 11 15 16 17 18 19 20 21 22 33
2 9 10 11 13 15 16 18 19 20 21 22 33
1 2 9 10 11 15 16 18 19 20 21 22 36
1 2 9 10 11 15 16 18 19 20 21 22 32
1 39 2 9 10 11 15 16 18 19 20 21 22
1 2 9 10 11 15 16 17 18 19 20 21 22 36
1 2 9 10 11 15 16 17 18 19 20 21 22 32
1 39 2 9 10 11 15 16 17 18 19 20 21 22
1 40 2 9 10 11 15 16 17 18 19 20 21 22
1 2 9 10 11 15 16 18 19 20 21 22 30
2 9 10 11 15 16 18 19 20 21 23 30 33
2 9 10 11 15 16 17 18 19 20 21 23 33
2 9 10 11 13 15 16 18 19 20 21 23 33
1 2 9 10 11 15 16 18 19 20 21 23 36
1 2 9 10 11 15 16 18 19 20 21 23 32
1 39 2 9 10 11 15 16 18 19 20 21 23
1 2 9 10 11 12 13 15 16 18 19 20 21 23 36
1 2 9 10 11 12 13 15 16 18 19 20 21 23 32
1 39 2 9 10 11 12 13 15 16 18 19 20 21 23
1 40 2 9 10 11 12 13 15 16 18 19 20 21 23
1 2 9 10 11 15 16 17 18 19 20 21 23 36
1 2 9 10 11 15 16 17 18 19 20 21 23 32
1 39 2 9 10 11 15 16 17 18 19 20 21 23
1 40 2 9 10 11 15 16 17 18 19 20 21 23
1 2 9 10 11 15 16 18 19 20 21 23 30
3 6
1 39 2 3 15 16 18 22
1 40 2 3 15 16 17 18 22
1 40 2 3 14 17 18 22
1 40 2 3 14 15 17 18 22
1 39 2 3 14 17 18 22
1 39 2 3 14 15 17 18 22
3 6 8 34
2 3 8 34
1 2 3 8 36
1 2 3 8 32
1 3 6 8 36
1 3 6 8 32
3 8 12 19 25 38
3 6 8 13 33
2 3 8 13 33
3 8 13 19 25 33 38
3 6 8 14 30 34
2 3 8 14 30 34
2 3 8 14 17 34
2 3 8 13 14 33
2 3 8 14 17 33
1 2 3 8 14 17 36
1 2 3 8 14 17 32
1 39 2 3 8 14 17 18 22
1 40 2 3 8 14 17 18 22
2 3 8 14 30 33
1 2 3 8 14 30
3 6 8 14 17 34
3 6 8 13 14 33
3 6 8 14 17 33
1 3 6 8 14 17 36
1 3 6 8 14 17 32
1 39 3 6 8 14 17 18 22
1 40 3 6 8 14 17 18 22
3 6 8 14 30 33
1 3 6 8 14 30
3 8 14 19 25 30 33 38
3 6 8 14 15 30 34
2 3 8 14 15 30 34
2 3 8 14 15 17 34
2 3 8 13 14 15 33
2 3 8 14 15 17 33
1 2 3 8 14 15 17 36
1 2 3 8 14 15 17 32
1 39 2 3 8 14 15 17 18 22
1 40 2 3 8 14 15 17 18 22
2 3 8 14 15 30 33
1 2 3 8 14 15 30
3 6 8 14 15 17 34
3 6 8 13 14 15 33
3 6 8 14 15 17 33
1 3 6 8 14 15 17 36
1 3 6 8 14 15 17 32
1 39 3 6 8 14 15 17 18 22
1 40 3 6 8 14 15 17 18 22
3 6 8 14 15 30 33
1 3 6 8 14 15 30
3 6 8 15 16 34
2 3 8 15 16 34
2 3 8 15 16 30 33
2 3 8 15 16 17 33
2 3 8 13 15 16 33
1 2 3 8 15 16 36
1 2 3 8 15 16 32
1 39 2 3 8 15 16 18 22
1 2 3 8 15 16 17 36
1 2 3 8 15 16 17 32
1 39 2 3 8 15 16 17 18 22
1 40 2 3 8 15 16 17 18 22
1 2 3 8 15 16 30
3 6 8 15 16 30 33
3 6 8 15 16 17 33
3 6 8 13 15 16 33
1 3 6 8 15 16 36
1 3 6 8 15 16 32
1 39 3 6 8 15 16 18 22
1 3 6 8 15 16 17 36
1 3 6 8 15 16 17 32
1 39 3 6 8 15 16 17 18 22
1 40 3 6 8 15 16 17 18 22
1 3 6 8 15 16 30
3 6 8 9 34
2 3 8 9 34
1 2 3 8 9 36
1 2 3 8 9 32
1 3 6 8 9 36
1 3 6 8 9 32
3 6 8 9 13 33
2 3 8 9 13 33
3 6 8 9 14 30 34
2 3 8 9 14 30 34
2 3 8 9 14 17 34
2 3 8 9 13 14 33
2 3 8 9 14 17 33
1 2 3 8 9 14 17 36
1 2 3 8 9 14 17 32
1 39 2 3 8 9 14 17 18 22
1 40 2 3 8 9 14 17 18 22
2 3 8 9 14 30 33
1 2 3 8 9 14 30
3 6 8 9 14 17 34
3 6 8 9 13 14 33
3 6 8 9 14 17 33
1 3 6 8 9 14 17 36
1 3 6 8 9 14 17 32
1 39 3 6 8 9 14 17 18 22
1 40 3 6 8 9 14 17 18 22
3 6 8 9 14 30 33
1 3 6 8 9 14 30
3 6 8 9 14 15 30 34
2 3 8 9 14 15 30 34
2 3 8 9 14 15 17 34
2 3 8 9 13 14 15 33
2 3 8 9 14 15 17 33
1 2 3 8 9 14 15 17 36
1 2 3 8 9 14 15 17 32
1 39 2 3 8 9 14 15 17 18 22
1 40 2 3 8 9 14 15 17 18 22
2 3 8 9 14 15 30 33
1 2 3 8 9 14 15 30
3 6 8 9 14 15 17 34
3 6 8 9 13 14 15 33
3 6 8 9 14 15 17 33
1 3 6 8 9 14 15 17 36
1 3 6 8 9 14 15 17 32
1 39 3 6 8 9 14 15 17 18 22
1 40 3 6 8 9 14 15 17 18 22
3 6 8 9 14 15 30 33
1 3 6 8 9 14 15 30
3 6 8 9 15 16 34
2 3 8 9 15 16 34
2 3 8 9 15 16 30 33
2 3 8 9 15 16 17 33
2 3 8 9 13 15 16 33
1 2 3 8 9 15 16 36
1 2 3 8 9 15 16 32
1 39 2 3 8 9 15 16 18 22
1 2 3 8 9 15 16 17 36
1 2 3 8 9 15 16 17 32
1 39 2 3 8 9 15 16 17 18 22
1 40 2 3 8 9 15 16 17 18 22
1 2 3 8 9 15 16 30
3 6 8 9 15 16 30 33
3 6 8 9 15 16 17 33
3 6 8 9 13 15 16 33
1 3 6 8 9 15 16 36
1 3 6 8 9 15 16 32
1 39 3 6 8 9 15 16 18 22
1 3 6 8 9 15 16 17 36
1 3 6 8 9 15 16 17 32
1 39 3 6 8 9 15 16 17 18 22
1 40 3 6 8 9 15 16 17 18 22
1 3 6 8 9 15 16 30
3 6 9 11
2 3 9 11 34
1 2 3 9 11 36
1 2 3 9 11 32
3 6 9 11 13 33
2 3 9 11 13 33
3 6 9 11 14 30 34
2 3 9 11 14 30 34
2 3 9 11 14 17 34
2 3 9 11 13 14 33
2 3 9 11 14 17 33
1 2 3 9 11 14 17 36
1 2 3 9 11 14 17 32
1 39 2 3 9 11 14 17 18 22
1 40 2 3 9 11 14 17 18 22
2 3 9 11 14 30 33
1 2 3 9 11 14 30
3 6 9 11 14 17
3 6 9 11 13 14 33
3 6 9 11 14 30 33
1 3 6 9 11 14 30
3 6 9 11 14 15 30 34
2 3 9 11 14 15 30 34
2 3 9 11 14 15 17 34
2 3 9 11 13 14 15 33
2 3 9 11 14 15 17 33
1 2 3 9 11 14 15 17 36
1 2 3 9 11 14 15 17 32
1 39 2 3 9 11 14 15 17 18 22
1 40 2 3 9 11 14 15 17 18 22
2 3 9 11 14 15 30 33
1 2 3 9 11 14 15 30
3 6 9 11 14 15 17
3 6 9 11 13 14 15 33
3 6 9 11 14 15 30 33
1 3 6 9 11 14 15 30
3 6 9 11 15 16
2 3 9 11 15 16 34
2 3 9 11 15 16 30 33
2 3 9 11 15 16 17 33
2 3 9 11 13 15 16 33
1 2 3 9 11 15 16 36
1 2 3 9 11 15 16 32
1 39 2 3 9 11 15 16 18 22
1 2 3 9 11 15 16 17 36
1 2 3 9 11 15 16 17 32
1 39 2 3 9 11 15 16 17 18 22
1 40 2 3 9 11 15 16 17 18 22
1 2 3 9 11 15 16 30
3 8 10 15 19 21 27 28 30 33 35 38
3 6 8 9 10 34
2 3 8 9 10 34
1 2 3 8 9 10 36
1 2 3 8 9 10 32
1 3 6 8 9 10 36
1 3 6 8 9 10 32
3 6 8 9 10 12 23 34
2 3 8 9 10 12 23 34
1 2 3 8 9 10 12 23 36
1 2 3 8 9 10 12 23 32
1 3 6 8 9 10 12 23 36
1 3 6 8 9 10 12 23 32
3 6 8 9 10 13 33
2 3 8 9 10 13 33
2 3 8 9 10 12 13 23 34
1 2 3 8 9 10 12 13 23 36
1 2 3 8 9 10 12 13 23 32
1 40 2 3 8 9 10 12 13 23
3 6 8 9 10 12 13 23 34
1 3 6 8 9 10 12 13 23 36
1 3 6 8 9 10 12 13 23 32
1 40 3 6 8 9 10 12 13 23
3 6 8 9 10 14 30 34
2 3 8 9 10 14 30 34
2 3 8 9 10 14 17 34
2 3 8 9 10 13 14 33
2 3 8 9 10 12 13 14 23 34
1 2 3 8 9 10 12 13 14 23 36
1 2 3 8 9 10 12 13 14 23 32
1 39 2 3 8 9 10 12 13 14 23
1 40 2 3 8 9 10 12 13 14 23
2 3 8 9 10 14 17 33
1 2 3 8 9 10 14 17 36
1 2 3 8 9 10 14 17 32
1 39 2 3 8 9 10 14 17 23
1 40 2 3 8 9 10 14 17 23
1 40 2 3 8 9 10 14 17 18 22
1 39 2 3 8 9 10 14 17 18 22
2 3 8 9 10 14 30 33
1 2 3 8 9 10 14 30
3 6 8 9 10 14 17 34
3 6 8 9 10 13 14 33
3 6 8 9 10 12 13 14 23 34
1 3 6 8 9 10 12 13 14 23 36
1 3 6 8 9 10 12 13 14 23 32
1 39 3 6 8 9 10 12 13 14 23
1 40 3 6 8 9 10 12 13 14 23
3 6 8 9 10 14 17 33
1 3 6 8 9 10 14 17 36
1 3 6 8 9 10 14 17 32
1 39 3 6 8 9 10 14 17 23
1 40 3 6 8 9 10 14 17 23
1 40 3 6 8 9 10 14 17 18 22
1 39 3 6 8 9 10 14 17 18 22
3 6 8 9 10 14 30 33
1 3 6 8 9 10 14 30
2 3 8 9 10 15 16 34
2 3 8 9 10 14 15 30 34
2 3 8 9 10 14 15 17 34
2 3 8 9 10 13 14 15 33
2 3 8 9 10 12 13 14 15 23 34
1 2 3 8 9 10 12 13 14 15 23 36
1 2 3 8 9 10 12 13 14 15 23 32
1 39 2 3 8 9 10 12 13 14 15 23
1 40 2 3 8 9 10 12 13 14 15 23
2 3 8 9 10 14 15 17 33
1 2 3 8 9 10 14 15 17 36
1 2 3 8 9 10 14 15 17 32
1 39 2 3 8 9 10 14 15 17 23
1 40 2 3 8 9 10 14 15 17 23
1 40 2 3 8 9 10 14 15 17 18 22
1 39 2 3 8 9 10 14 15 17 18 22
2 3 8 9 10 14 15 30 33
1 2 3 8 9 10 14 15 30
2 3 8 9 10 15 16 30 33
2 3 8 9 10 15 16 17 33
2 3 8 9 10 13 15 16 33
1 2 3 8 9 10 15 16 36
1 2 3 8 9 10 15 16 32
1 39 2 3 8 9 10 15 16 23
1 39 2 3 8 9 10 15 16 18 22
1 2 3 8 9 10 12 13 15 16 23 36
1 2 3 8 9 10 12 13 15 16 23 32
1 39 2 3 8 9 10 12 13 15 16 23
1 40 2 3 8 9 10 12 13 15 16 23
1 2 3 8 9 10 15 16 17 36
1 2 3 8 9 10 15 16 17 32
1 39 2 3 8 9 10 15 16 17 23
1 40 2 3 8 9 10 15 16 17 23
1 40 2 3 8 9 10 15 16 17 18 22
1 39 2 3 8 9 10 15 16 17 18 22
1 2 3 8 9 10 15 16 30
3 6 8 9 10 15 16 34
3 6 8 9 10 14 15 30 34
3 6 8 9 10 14 15 17 34
3 6 8 9 10 13 14 15 33
3 6 8 9 10 12 13 14 15 23 34
1 3 6 8 9 10 12 13 14 15 23 36
1 3 6 8 9 10 12 13 14 15 23 32
1 39 3 6 8 9 10 12 13 14 15 23
1 40 3 6 8 9 10 12 13 14 15 23
3 6 8 9 10 14 15 17 33
1 3 6 8 9 10 14 15 17 36
1 3 6 8 9 10 14 15 17 32
1 39 3 6 8 9 10 14 15 17 23
1 40 3 6 8 9 10 14 15 17 23
1 40 3 6 8 9 10 14 15 17 18 22
1 39 3 6 8 9 10 14 15 17 18 22
3 6 8 9 10 14 15 30 33
1 3 6 8 9 10 14 15 30
3 6 8 9 10 15 16 30 33
3 6 8 9 10 15 16 17 33
3 6 8 9 10 13 15 16 33
1 3 6 8 9 10 15 16 36
1 3 6 8 9 10 15 16 32
1 39 3 6 8 9 10 15 16 23
1 39 3 6 8 9 10 15 16 18 22
1 3 6 8 9 10 12 13 15 16 23 36
1 3 6 8 9 10 12 13 15 16 23 32
1 39 3 6 8 9 10 12 13 15 16 23
1 40 3 6 8 9 10 12 13 15 16 23
1 3 6 8 9 10 15 16 17 36
1 3 6 8 9 10 15 16 17 32
1 39 3 6 8 9 10 15 16 17 23
1 40 3 6 8 9 10 15 16 17 23
1 40 3 6 8 9 10 15 16 17 18 22
1 39 3 6 8 9 10 15 16 17 18 22
1 3 6 8 9 10 15 16 30
2 3 8 9 10 14 15 18 19 20 21 23 24 25 30 33
2 3 8 9 10 14 15 18 19 20 21 23 24 25 26 30 33
3 8 10 15 19 21 25 27 30 33 35 38
3 8 10 15 17 19 21 25 27 33 35 38
1 39 3 6 8 9 10 12 13 14 15 18 19 20 21 23 24 25 26 27
1 40 3 6 8 9 10 12 13 14 15 18 19 20 21 23 24 25 26 27
2 3 8 9 10 14 15 18 19 20 21 23 24 25 26 27 30 33
3 8 10 15 17 19 21 27 28 33 35 38
3 8 10 13 15 19 21 27 28 33 35 38
3 8 10 12 15 19 21 27 28 35 38
3 6 9 10 11
2 3 9 10 11 34
1 2 3 9 10 11 36
1 2 3 9 10 11 32
3 6 9 10 11 12 23
2 3 9 10 11 12 23 34
1 2 3 9 10 11 12 23 36
1 2 3 9 10 11 12 23 32
3 6 9 10 11 13 33
2 3 9 10 11 13 33
2 3 9 10 11 12 13 23 34
1 2 3 9 10 11 12 13 23 36
1 2 3 9 10 11 12 13 23 32
1 40 2 3 9 10 11 12 13 23
3 6 9 10 11 12 13 23
3 6 9 10 11 14 30 34
2 3 9 10 11 14 30 34
2 3 9 10 11 14 17 34
2 3 9 10 11 13 14 33
2 3 9 10 11 12 13 14 23 34
1 2 3 9 10 11 12 13 14 23 36
1 2 3 9 10 11 12 13 14 23 32
1 39 2 3 9 10 11 12 13 14 23
1 40 2 3 9 10 11 12 13 14 23
2 3 9 10 11 14 17 33
1 2 3 9 10 11 14 17 36
1 2 3 9 10 11 14 17 32
1 39 2 3 9 10 11 14 17 23
1 40 2 3 9 10 11 14 17 23
1 40 2 3 9 10 11 14 17 18 22
1 39 2 3 9 10 11 14 17 18 22
2 3 9 10 11 14 30 33
1 2 3 9 10 11 14 30
3 6 9 10 11 14 17
3 6 9 10 11 13 14 33
3 6 9 10 11 12 13 14 23
3 6 9 10 11 14 30 33
1 3 6 9 10 11 14 30
2 3 9 10 11 15 16 34
2 3 9 10 11 14 15 30 34
2 3 9 10 11 14 15 17 34
2 3 9 10 11 13 14 15 33
2 3 9 10 11 12 13 14 15 23 34
1 2 3 9 10 11 12 13 14 15 23 36
1 2 3 9 10 11 12 13 14 15 23 32
1 39 2 3 9 10 11 12 13 14 15 23
1 40 2 3 9 10 11 12 13 14 15 23
2 3 9 10 11 14 15 17 33
1 2 3 9 10 11 14 15 17 36
1 2 3 9 10 11 14 15 17 32
1 39 2 3 9 10 11 14 15 17 23
1 40 2 3 9 10 11 14 15 17 23
1 40 2 3 9 10 11 14 15 17 18 22
1 39 2 3 9 10 11 14 15 17 18 22
2 3 9 10 11 14 15 30 33
1 2 3 9 10 11 14 15 30
2 3 9 10 11 15 16 30 33
2 3 9 10 11 15 16 17 33
2 3 9 10 11 13 15 16 33
1 2 3 9 10 11 15 16 36
1 2 3 9 10 11 15 16 32
1 39 2 3 9 10 11 15 16 23
1 39 2 3 9 10 11 15 16 18 22
1 2 3 9 10 11 12 13 15 16 23 36
1 2 3 9 10 11 12 13 15 16 23 32
1 39 2 3 9 10 11 12 13 15 16 23
1 40 2 3 9 10 11 12 13 15 16 23
1 2 3 9 10 11 15 16 17 36
1 2 3 9 10 11 15 16 17 32
1 39 2 3 9 10 11 15 16 17 23
1 40 2 3 9 10 11 15 16 17 23
1 40 2 3 9 10 11 15 16 17 18 22
1 39 2 3 9 10 11 15 16 17 18 22
1 2 3 9 10 11 15 16 30
3 6 9 10 11 15 16
3 6 9 10 11 14 15 30 34
3 6 9 10 11 14 15 17
3 6 9 10 11 13 14 15 33
3 6 9 10 11 12 13 14 15 23
3 6 9 10 11 14 15 30 33
1 3 6 9 10 11 14 15 30
3 10 11 15 19 21 25 27 30 33 35 38
3 10 11 15 17 19 21 25 27 33 35 38
3 10 11 13 15 19 21 25 27 33 35 38
3 10 11 12 15 19 21 25 27 35 38
3 10 11 15 17 19 21 27 28 33 35 38
3 10 11 13 15 19 21 27 28 33 35 38
3 10 11 12 15 19 21 27 28 35 38
4 5
3 4 6
1 2 3 4 7
1 39 2 3 4 15 16 18 22
1 40 2 3 4 15 16 17 18 22
1 40 2 3 4 14 17 18 22
1 40 2 3 4 14 15 17 18 22
1 39 2 3 4 14 17 18 22
1 39 2 3 4 14 15 17 18 22
3 4 6 8 34
2 3 4 8 34
1 2 3 4 8 36
1 2 3 4 8 32
1 3 4 6 8 36
1 3 4 6 8 32
3 4 6 8 13 33
2 3 4 8 13 33
3 4 6 8 14 30 34
2 3 4 8 14 30 34
2 3 4 8 14 17 34
2 3 4 8 13 14 33
2 3 4 8 14 17 33
1 2 3 4 8 14 17 36
1 2 3 4 8 14 17 32
1 39 2 3 4 8 14 17 18 22
1 40 2 3 4 8 14 17 18 22
2 3 4 8 14 30 33
1 2 3 4 8 14 30
3 4 6 8 14 17 34
3 4 6 8 13 14 33
3 4 6 8 14 17 33
1 3 4 6 8 14 17 36
1 3 4 6 8 14 17 32
1 39 3 4 6 8 14 17 18 22
1 40 3 4 6 8 14 17 18 22
3 4 6 8 14 30 33
1 3 4 6 8 14 30
3 4 6 8 14 15 30 34
2 3 4 8 14 15 30 34
2 3 4 8 14 15 17 34
2 3 4 8 13 14 15 33
2 3 4 8 14 15 17 33
1 2 3 4 8 14 15 17 36
1 2 3 4 8 14 15 17 32
1 39 2 3 4 8 14 15 17 18 22
1 40 2 3 4 8 14 15 17 18 22
2 3 4 8 14 15 30 33
1 2 3 4 8 14 15 30
3 4 6 8 14 15 17 34
3 4 6 8 13 14 15 33
3 4 6 8 14 15 17 33
1 3 4 6 8 14 15 17 36
1 3 4 6 8 14 15 17 32
1 39 3 4 6 8 14 15 17 18 22
1 40 3 4 6 8 14 15 17 18 22
3 4 6 8 14 15 30 33
1 3 4 6 8 14 15 30
3 4 6 8 15 16 34
2 3 4 8 15 16 34
2 3 4 8 15 16 30 33
2 3 4 8 15 16 17 33
2 3 4 8 13 15 16 33
1 2 3 4 8 15 16 36
1 2 3 4 8 15 16 32
1 39 2 3 4 8 15 16 18 22
1 2 3 4 8 15 16 17 36
1 2 3 4 8 15 16 17 32
1 39 2 3 4 8 15 16 17 18 22
1 40 2 3 4 8 15 16 17 18 22
1 2 3 4 8 15 16 30
3 4 6 8 15 16 30 33
3 4 6 8 15 16 17 33
3 4 6 8 13 15 16 33
1 3 4 6 8 15 16 36
1 3 4 6 8 15 16 32
1 39 3 4 6 8 15 16 18 22
1 3 4 6 8 15 16 17 36
1 3 4 6 8 15 16 17 32
1 39 3 4 6 8 15 16 17 18 22
1 40 3 4 6 8 15 16 17 18 22
1 3 4 6 8 15 16 30
4 9 13 37
4 5 9 11
3 4 6 8 9 34
2 3 4 8 9 34
1 2 3 4 8 9 36
1 2 3 4 8 9 32
1 3 4 6 8 9 36
1 3 4 6 8 9 32
3 4 6 9 11
2 3 4 9 11 34
1 2 3 4 9 11 36
1 2 3 4 9 11 32
1 2 3 4 7 9 11
4 5 6 8 9 34
2 4 5 8 9 34
1 4 5 8 9 36
1 4 5 8 9 32
1 2 4 5 8 9 36
1 2 4 5 8 9 32
1 4 5 6 8 9 36
1 4 5 6 8 9 32
3 4 6 8 9 13 33
2 3 4 8 9 13 33
3 4 6 9 11 13 33
2 3 4 9 11 13 33
4 5 6 8 9 13 33
2 4 5 8 9 13 33
4 5 6 9 11 13 33
2 4 5 9 11 13 33
4 6 9 14 30 34 37
2 4 9 14 30 34 37
1 4 9 14 30 37
4 9 14 17 37
4 9 13 14 37
4 5 9 11 14 17
1 4 9 14 17 36 37
1 4 9 13 14 36 37
1 4 9 13 14 32 37
1 4 7 9 13 14 37
1 4 9 14 17 32 37
1 4 7 9 14 17 37
1 4 5 7 9 11 14 17
1 4 5 9 11 14 17 32
1 4 5 8 9 14 17 32
1 4 5 9 11 14 17 36
1 4 5 8 9 14 17 36
1 4 5 9 11 14 30
1 4 5 8 9 14 30
2 4 9 14 17 34 37
2 4 9 13 14 34 37
2 4 9 13 14 33 37
1 2 4 9 13 14 36 37
1 2 4 9 13 14 32 37
1 2 4 7 9 13 14 37
1 39 2 4 9 13 14 18 22 37
1 40 2 4 9 13 14 18 22 37
2 4 5 9 11 13 14 33
2 3 4 9 11 13 14 33
2 3 4 8 9 13 14 33
2 4 5 8 9 13 14 33
2 4 5 9 11 13 14 33 34
2 3 4 9 11 13 14 33 34
2 3 4 8 9 13 14 33 34
2 4 5 8 9 13 14 33 34
2 4 9 14 17 33 37
1 2 4 9 14 17 36 37
1 2 4 9 14 17 32 37
1 2 4 7 9 14 17 37
1 39 2 4 9 14 17 18 22 37
1 40 2 4 9 14 17 18 22 37
1 40 2 4 5 9 11 14 17 18 22
1 40 2 3 4 9 11 14 17 18 22
1 40 2 3 4 8 9 14 17 18 22
1 40 2 4 5 8 9 14 17 18 22
1 39 2 4 5 9 11 14 17 18 22
1 39 2 3 4 9 11 14 17 18 22
1 39 2 3 4 8 9 14 17 18 22
1 39 2 4 5 8 9 14 17 18 22
1 2 4 5 7 9 11 14 17
1 2 3 4 7 9 11 14 17
1 2 4 5 9 11 14 17 32
1 2 3 4 9 11 14 17 32
1 2 3 4 8 9 14 17 32
1 2 4 5 8 9 14 17 32
1 2 4 5 9 11 14 17 36
1 2 3 4 9 11 14 17 36
1 2 3 4 8 9 14 17 36
1 2 4 5 8 9 14 17 36
2 4 5 9 11 14 17 33
2 3 4 9 11 14 17 33
2 3 4 8 9 14 17 33
2 4 5 8 9 14 17 33
2 4 5 9 11 14 17 34
2 3 4 9 11 14 17 34
2 3 4 8 9 14 17 34
2 4 5 8 9 14 17 34
2 4 9 14 30 33 37
1 2 4 9 14 30 37
1 2 4 5 9 11 14 30
1 2 3 4 9 11 14 30
1 2 3 4 8 9 14 30
1 2 4 5 8 9 14 30
2 4 5 9 11 14 30 33
2 3 4 9 11 14 30 33
2 3 4 8 9 14 30 33
2 4 5 8 9 14 30 33
2 4 5 9 11 14 30 34
2 3 4 9 11 14 30 34
2 3 4 8 9 14 30 34
2 4 5 8 9 14 30 34
4 6 9 14 17 37
4 6 9 13 14 37
4 5 6 9 11 13 14 33
3 4 6 9 11 13 14 33
3 4 6 8 9 13 14 33
4 5 6 8 9 13 14 33
4 5 6 9 11 14 17
3 4 6 9 11 14 17
3 4 6 8 9 14 17 34
3 4 6 8 9 14 17 33
1 3 4 6 8 9 14 17 36
1 3 4 6 8 9 14 17 32
1 39 3 4 6 8 9 14 17 18 22
1 40 3 4 6 8 9 14 17 18 22
4 5 6 8 9 14 17 34
4 5 6 8 9 14 17 33
1 4 5 6 8 9 14 17 36
1 4 5 6 8 9 14 17 32
1 39 4 5 6 8 9 14 17 18 22
1 40 4 5 6 8 9 14 17 18 22
4 6 9 14 30 33 37
1 4 6 9 14 30 37
1 4 5 6 9 11 14 30
1 3 4 6 9 11 14 30
1 3 4 6 8 9 14 30
1 4 5 6 8 9 14 30
4 5 6 9 11 14 30 33
3 4 6 9 11 14 30 33
3 4 6 8 9 14 30 33
4 5 6 8 9 14 30 33
4 5 6 9 11 14 30 34
3 4 6 9 11 14 30 34
3 4 6 8 9 14 30 34
4 5 6 8 9 14 30 34
4 9 14 19 25 30 34 37 38
4 9 14 19 25 30 33 37 38
4 6 9 14 15 30 34 37
2 4 9 14 15 30 34 37
1 4 9 14 15 30 37
4 9 14 15 17 37
4 9 13 14 15 37
4 5 9 11 14 15 17
1 4 9 14 15 17 36 37
1 4 9 13 14 15 36 37
1 4 9 13 14 15 32 37
1 4 7 9 13 14 15 37
1 4 9 14 15 17 32 37
1 4 7 9 14 15 17 37
1 4 5 7 9 11 14 15 17
1 4 5 9 11 14 15 17 32
1 4 5 8 9 14 15 17 32
1 4 5 9 11 14 15 17 36
1 4 5 8 9 14 15 17 36
1 4 5 9 11 14 15 30
1 4 5 8 9 14 15 30
2 4 9 14 15 17 34 37
2 4 9 13 14 15 34 37
2 4 9 13 14 15 33 37
1 2 4 9 13 14 15 36 37
1 2 4 9 13 14 15 32 37
1 2 4 7 9 13 14 15 37
1 39 2 4 9 13 14 15 18 22 37
1 40 2 4 9 13 14 15 18 22 37
2 4 5 9 11 13 14 15 33
2 3 4 9 11 13 14 15 33
2 3 4 8 9 13 14 15 33
2 4 5 8 9 13 14 15 33
2 4 5 9 11 13 14 15 33 34
2 3 4 9 11 13 14 15 33 34
2 3 4 8 9 13 14 15 33 34
2 4 5 8 9 13 14 15 33 34
2 4 9 14 15 17 33 37
1 2 4 9 14 15 17 36 37
1 2 4 9 14 15 17 32 37
1 2 4 7 9 14 15 17 37
1 39 2 4 9 14 15 17 18 22 37
1 40 2 4 9 14 15 17 18 22 37
1 40 2 4 5 9 11 14 15 17 18 22
1 40 2 3 4 9 11 14 15 17 18 22
1 40 2 3 4 8 9 14 15 17 18 22
1 40 2 4 5 8 9 14 15 17 18 22
1 39 2 4 5 9 11 14 15 17 18 22
1 39 2 3 4 9 11 14 15 17 18 22
1 39 2 3 4 8 9 14 15 17 18 22
1 39 2 4 5 8 9 14 15 17 18 22
1 2 4 5 7 9 11 14 15 17
1 2 3 4 7 9 11 14 15 17
1 2 4 5 9 11 14 15 17 32
1 2 3 4 9 11 14 15 17 32
1 2 3 4 8 9 14 15 17 32
1 2 4 5 8 9 14 15 17 32
1 2 4 5 9 11 14 15 17 36
1 2 3 4 9 11 14 15 17 36
1 2 3 4 8 9 14 15 17 36
1 2 4 5 8 9 14 15 17 36
2 4 5 9 11 14 15 17 33
2 3 4 9 11 14 15 17 33
2 3 4 8 9 14 15 17 33
2 4 5 8 9 14 15 17 33
2 4 5 9 11 14 15 17 34
2 3 4 9 11 14 15 17 34
2 3 4 8 9 14 15 17 34
2 4 5 8 9 14 15 17 34
2 4 9 14 15 30 33 37
1 2 4 9 14 15 30 37
1 2 4 5 9 11 14 15 30
1 2 3 4 9 11 14 15 30
1 2 3 4 8 9 14 15 30
1 2 4 5 8 9 14 15 30
2 4 5 9 11 14 15 30 33
2 3 4 9 11 14 15 30 33
2 3 4 8 9 14 15 30 33
2 4 5 8 9 14 15 30 33
2 4 5 9 11 14 15 30 34
2 3 4 9 11 14 15 30 34
2 3 4 8 9 14 15 30 34
2 4 5 8 9 14 15 30 34
4 6 9 14 15 17 37
4 6 9 13 14 15 37
4 5 6 9 11 13 14 15 33
3 4 6 9 11 13 14 15 33
3 4 6 8 9 13 14 15 33
4 5 6 8 9 13 14 15 33
4 5 6 9 11 14 15 17
3 4 6 9 11 14 15 17
3 4 6 8 9 14 15 17 34
3 4 6 8 9 14 15 17 33
1 3 4 6 8 9 14 15 17 36
1 3 4 6 8 9 14 15 17 32
1 39 3 4 6 8 9 14 15 17 18 22
1 40 3 4 6 8 9 14 15 17 18 22
4 5 6 8 9 14 15 17 34
4 5 6 8 9 14 15 17 33
1 4 5 6 8 9 14 15 17 36
1 4 5 6 8 9 14 15 17 32
1 39 4 5 6 8 9 14 15 17 18 22
1 40 4 5 6 8 9 14 15 17 18 22
4 6 9 14 15 30 33 37
1 4 6 9 14 15 30 37
1 4 5 6 9 11 14 15 30
1 3 4 6 9 11 14 15 30
1 3 4 6 8 9 14 15 30
1 4 5 6 8 9 14 15 30
4 5 6 9 11 14 15 30 33
3 4 6 9 11 14 15 30 33
3 4 6 8 9 14 15 30 33
4 5 6 8 9 14 15 30 33
4 5 6 9 11 14 15 30 34
3 4 6 9 11 14 15 30 34
3 4 6 8 9 14 15 30 34
4 5 6 8 9 14 15 30 34
4 6 9 15 16 30 34 37
2 4 9 15 16 30 34 37
1 4 9 15 16 30 37
4 9 15 16 17 37
4 9 13 15 16 37
4 5 9 11 15 16
4 5 9 11 15 16 17
1 4 9 15 16 17 36 37
1 4 9 13 15 16 36 37
1 4 5 9 11 15 16 36
1 4 5 8 9 15 16 36
1 4 5 8 9 15 16 32
1 4 5 9 11 15 16 32
1 4 5 7 9 11 15 16
1 4 9 13 15 16 32 37
1 4 7 9 13 15 16 37
1 4 9 15 16 17 32 37
1 4 7 9 15 16 17 37
1 4 5 7 9 11 15 16 17
1 4 5 9 11 15 16 17 32
1 4 5 8 9 15 16 17 32
1 4 5 9 11 15 16 17 36
1 4 5 8 9 15 16 17 36
1 4 5 9 11 15 16 30
1 4 5 8 9 15 16 30
2 4 9 15 16 17 34 37
2 4 9 13 15 16 34 37
2 4 5 9 11 15 16 34
2 3 4 9 11 15 16 34
2 3 4 8 9 15 16 34
1 2 3 4 8 9 15 16 36
1 2 3 4 8 9 15 16 32
1 39 2 3 4 8 9 15 16 18 22
1 2 3 4 9 11 15 16 36
1 2 3 4 9 11 15 16 32
1 2 3 4 7 9 11 15 16
1 39 2 3 4 9 11 15 16 18 22
2 4 5 8 9 15 16 34
1 2 4 5 8 9 15 16 36
1 2 4 5 8 9 15 16 32
1 39 2 4 5 8 9 15 16 18 22
1 2 4 5 9 11 15 16 36
1 2 4 5 9 11 15 16 32
1 2 4 5 7 9 11 15 16
1 39 2 4 5 9 11 15 16 18 22
2 4 9 13 15 16 33 37
1 2 4 9 13 15 16 36 37
1 2 4 9 13 15 16 32 37
1 2 4 7 9 13 15 16 37
1 39 2 4 9 13 15 16 18 22 37
1 40 2 4 9 13 15 16 18 22 37
2 4 5 9 11 13 15 16 33
2 3 4 9 11 13 15 16 33
2 3 4 8 9 13 15 16 33
2 4 5 8 9 13 15 16 33
2 4 5 9 11 13 15 16 33 34
2 3 4 9 11 13 15 16 33 34
2 3 4 8 9 13 15 16 33 34
2 4 5 8 9 13 15 16 33 34
2 4 9 15 16 17 33 37
1 2 4 9 15 16 17 36 37
1 2 4 9 15 16 17 32 37
1 2 4 7 9 15 16 17 37
1 39 2 4 9 15 16 17 18 22 37
1 40 2 4 9 15 16 17 18 22 37
1 40 2 4 5 9 11 15 16 17 18 22
1 40 2 3 4 9 11 15 16 17 18 22
1 40 2 3 4 8 9 15 16 17 18 22
1 40 2 4 5 8 9 15 16 17 18 22
1 39 2 4 5 9 11 15 16 17 18 22
1 39 2 3 4 9 11 15 16 17 18 22
1 39 2 3 4 8 9 15 16 17 18 22
1 39 2 4 5 8 9 15 16 17 18 22
1 2 4 5 7 9 11 15 16 17
1 2 3 4 7 9 11 15 16 17
1 2 4 5 9 11 15 16 17 32
1 2 3 4 9 11 15 16 17 32
1 2 3 4 8 9 15 16 17 32
1 2 4 5 8 9 15 16 17 32
1 2 4 5 9 11 15 16 17 36
1 2 3 4 9 11 15 16 17 36
1 2 3 4 8 9 15 16 17 36
1 2 4 5 8 9 15 16 17 36
2 4 5 9 11 15 16 17 33
2 3 4 9 11 15 16 17 33
2 3 4 8 9 15 16 17 33
2 4 5 8 9 15 16 17 33
2 4 5 9 11 15 16 17 34
2 3 4 9 11 15 16 17 34
2 3 4 8 9 15 16 17 34
2 4 5 8 9 15 16 17 34
2 4 9 15 16 30 33 37
1 2 4 9 15 16 30 37
1 2 4 5 9 11 15 16 30
1 2 3 4 9 11 15 16 30
1 2 3 4 8 9 15 16 30
1 2 4 5 8 9 15 16 30
2 4 5 9 11 15 16 30 33
2 3 4 9 11 15 16 30 33
2 3 4 8 9 15 16 30 33
2 4 5 8 9 15 16 30 33
2 4 5 9 11 15 16 30 34
2 3 4 9 11 15 16 30 34
2 3 4 8 9 15 16 30 34
2 4 5 8 9 15 16 30 34
4 6 9 15 16 17 37
4 6 9 13 15 16 37
4 5 6 9 11 15 16
3 4 6 9 11 15 16
3 4 6 8 9 15 16 34
1 3 4 6 8 9 15 16 36
1 3 4 6 8 9 15 16 32
1 39 3 4 6 8 9 15 16 18 22
4 5 6 8 9 15 16 34
1 4 5 6 8 9 15 16 36
1 4 5 6 8 9 15 16 32
1 39 4 5 6 8 9 15 16 18 22
4 5 6 9 11 13 15 16 33
3 4 6 9 11 13 15 16 33
3 4 6 8 9 13 15 16 33
4 5 6 8 9 13 15 16 33
4 5 6 9 11 15 16 17
3 4 6 9 11 15 16 17
3 4 6 8 9 15 16 17 34
3 4 6 8 9 15 16 17 33
1 3 4 6 8 9 15 16 17 36
1 3 4 6 8 9 15 16 17 32
1 39 3 4 6 8 9 15 16 17 18 22
1 40 3 4 6 8 9 15 16 17 18 22
4 5 6 8 9 15 16 17 34
4 5 6 8 9 15 16 17 33
1 4 5 6 8 9 15 16 17 36
1 4 5 6 8 9 15 16 17 32
1 39 4 5 6 8 9 15 16 17 18 22
1 40 4 5 6 8 9 15 16 17 18 22
4 6 9 15 16 30 33 37
1 4 6 9 15 16 30 37
1 4 5 6 9 11 15 16 30
1 3 4 6 9 11 15 16 30
1 3 4 6 8 9 15 16 30
1 4 5 6 8 9 15 16 30
4 5 6 9 11 15 16 30 33
3 4 6 9 11 15 16 30 33
3 4 6 8 9 15 16 30 33
4 5 6 8 9 15 16 30 33
4 5 6 9 11 15 16 30 34
3 4 6 9 11 15 16 30 34
3 4 6 8 9 15 16 30 34
4 5 6 8 9 15 16 30 34
4 10 13 31
4 5 9 10 11
3 4 6 8 9 10 34
2 3 4 8 9 10 34
1 2 3 4 8 9 10 36
1 2 3 4 8 9 10 32
1 3 4 6 8 9 10 36
1 3 4 6 8 9 10 32
3 4 6 8 9 10 12 23 34
2 3 4 8 9 10 12 23 34
1 2 3 4 8 9 10 12 23 36
1 2 3 4 8 9 10 12 23 32
1 3 4 6 8 9 10 12 23 36
1 3 4 6 8 9 10 12 23 32
3 4 6 9 10 11
2 3 4 9 10 11 34
1 2 3 4 9 10 11 36
1 2 3 4 9 10 11 32
1 2 3 4 7 9 10 11
3 4 6 9 10 11 12 23
2 3 4 9 10 11 12 23 34
1 2 3 4 9 10 11 12 23 36
1 2 3 4 9 10 11 12 23 32
1 2 3 4 7 9 10 11 12 23
4 5 6 8 9 10 34
2 4 5 8 9 10 34
1 4 5 8 9 10 36
1 4 5 8 9 10 32
1 2 4 5 8 9 10 36
1 2 4 5 8 9 10 32
1 4 5 6 8 9 10 36
1 4 5 6 8 9 10 32
4 5 6 8 9 10 12 23 34
2 4 5 8 9 10 12 23 34
1 4 5 8 9 10 12 23 36
1 4 5 8 9 10 12 23 32
1 2 4 5 8 9 10 12 23 36
1 2 4 5 8 9 10 12 23 32
1 4 5 6 8 9 10 12 23 36
1 4 5 6 8 9 10 12 23 32
4 9 10 13 37
3 4 6 8 9 10 13 33
2 3 4 8 9 10 13 33
2 3 4 8 9 10 12 13 23 34
1 2 3 4 8 9 10 12 13 23 36
1 2 3 4 8 9 10 12 13 23 32
1 40 2 3 4 8 9 10 12 13 23
3 4 6 8 9 10 12 13 23 34
1 3 4 6 8 9 10 12 13 23 36
1 3 4 6 8 9 10 12 13 23 32
1 40 3 4 6 8 9 10 12 13 23
3 4 6 9 10 11 13 33
2 3 4 9 10 11 13 33
2 3 4 9 10 11 12 13 23 34
1 2 3 4 9 10 11 12 13 23 36
1 2 3 4 9 10 11 12 13 23 32
1 2 3 4 7 9 10 11 12 13 23
1 40 2 3 4 9 10 11 12 13 23
3 4 6 9 10 11 12 13 23
4 5 6 8 9 10 13 33
2 4 5 8 9 10 13 33
1 4 5 8 9 10 12 13 23 36
1 4 5 8 9 10 12 13 23 32
2 4 5 8 9 10 12 13 23 34
1 2 4 5 8 9 10 12 13 23 36
1 2 4 5 8 9 10 12 13 23 32
1 40 2 4 5 8 9 10 12 13 23
4 5 6 8 9 10 12 13 23 34
1 4 5 6 8 9 10 12 13 23 36
1 4 5 6 8 9 10 12 13 23 32
1 40 4 5 6 8 9 10 12 13 23
4 5 6 9 10 11 13 33
2 4 5 9 10 11 13 33
4 5 9 10 11 12 13 23
2 4 5 9 10 11 12 13 23 34
1 2 4 5 9 10 11 12 13 23 36
1 2 4 5 9 10 11 12 13 23 32
1 2 4 5 7 9 10 11 12 13 23
1 40 2 4 5 9 10 11 12 13 23
4 5 6 9 10 11 12 13 23
4 6 10 14 30 31 34 37
2 4 10 14 30 31 34 37
1 4 10 14 30 31 37
4 10 14 17 31
4 10 13 14 31
4 9 10 13 14 37
4 5 9 10 11 12 13 14 23
4 9 10 14 17 37
4 5 9 10 11 14 17
1 4 10 14 17 31 36 37
1 4 10 13 14 31 36 37
1 4 9 10 13 14 36 37
1 4 9 10 13 14 32 37
1 4 7 9 10 13 14 37
1 4 5 7 9 10 11 12 13 14 23
1 4 5 9 10 11 12 13 14 23 32
1 4 5 8 9 10 12 13 14 23 32
1 4 5 9 10 11 12 13 14 23 36
1 4 5 8 9 10 12 13 14 23 36
1 4 10 13 14 31 32 37
1 4 7 10 13 14 31
1 4 10 11 13 14 31 32
1 4 8 10 13 14 31 32
1 4 10 11 13 14 31 36
1 4 8 10 13 14 31 36
1 4 9 10 14 17 36 37
1 4 9 10 14 17 32 37
1 4 7 9 10 14 17 37
1 4 5 7 9 10 11 14 17
1 4 5 9 10 11 14 17 32
1 4 5 8 9 10 14 17 32
1 4 5 9 10 11 14 17 36
1 4 5 8 9 10 14 17 36
1 4 10 14 17 31 32 37
1 4 7 10 14 17 31
1 4 10 11 14 17 31 32
1 4 8 10 14 17 31 32
1 4 10 11 14 17 31 36
1 4 8 10 14 17 31 36
1 4 9 10 14 30 37
1 4 5 9 10 11 14 30
1 4 5 8 9 10 14 30
1 4 10 11 14 30 31
1 4 8 10 14 30 31
2 4 10 14 17 31 34 37
2 4 10 13 14 31 34 37
2 4 9 10 13 14 34 37
2 4 9 10 13 14 33 37
1 2 4 9 10 13 14 36 37
1 2 4 9 10 13 14 32 37
1 2 4 7 9 10 13 14 37
1 39 2 4 9 10 13 14 23 37
1 40 2 4 9 10 13 14 23 37
1 40 2 4 9 10 13 14 18 22 37
1 40 2 4 5 9 10 11 12 13 14 23
1 40 2 3 4 9 10 11 12 13 14 23
1 40 2 3 4 8 9 10 12 13 14 23
1 40 2 4 5 8 9 10 12 13 14 23
1 39 2 4 9 10 13 14 18 22 37
1 39 2 4 5 9 10 11 12 13 14 23
1 39 2 3 4 9 10 11 12 13 14 23
1 39 2 3 4 8 9 10 12 13 14 23
1 39 2 4 5 8 9 10 12 13 14 23
1 2 4 5 7 9 10 11 12 13 14 23
1 2 3 4 7 9 10 11 12 13 14 23
1 2 4 5 9 10 11 12 13 14 23 32
1 2 3 4 9 10 11 12 13 14 23 32
1 2 3 4 8 9 10 12 13 14 23 32
1 2 4 5 8 9 10 12 13 14 23 32
1 2 4 5 9 10 11 12 13 14 23 36
1 2 3 4 9 10 11 12 13 14 23 36
1 2 3 4 8 9 10 12 13 14 23 36
1 2 4 5 8 9 10 12 13 14 23 36
2 4 5 9 10 11 13 14 33
2 3 4 9 10 11 13 14 33
2 3 4 8 9 10 13 14 33
2 4 5 8 9 10 13 14 33
2 4 5 9 10 11 13 14 33 34
2 3 4 9 10 11 13 14 33 34
2 3 4 8 9 10 13 14 33 34
2 3 4 8 9 10 12 13 14 23 34
2 3 4 9 10 11 12 13 14 23 34
2 4 5 8 9 10 13 14 33 34
2 4 5 8 9 10 12 13 14 23 34
2 4 5 9 10 11 12 13 14 23 34
2 4 10 13 14 31 33 37
1 2 4 10 13 14 31 36 37
1 2 4 10 13 14 31 32 37
1 2 4 7 10 13 14 31
1 39 2 4 10 13 14 23 31
1 40 2 4 10 13 14 23 31
1 40 2 4 10 13 14 18 22 31
1 39 2 4 10 13 14 18 22 31
1 2 4 10 11 13 14 31 32
1 2 4 8 10 13 14 31 32
1 2 4 10 11 13 14 31 36
1 2 4 8 10 13 14 31 36
2 4 10 11 13 14 31 33
2 4 8 10 13 14 31 33
2 4 10 11 13 14 31 34
2 4 8 10 13 14 31 34
2 4 9 10 14 17 34 37
2 4 9 10 14 17 33 37
1 2 4 9 10 14 17 36 37
1 2 4 9 10 14 17 32 37
1 2 4 7 9 10 14 17 37
1 39 2 4 9 10 14 17 23 37
1 40 2 4 9 10 14 17 23 37
1 40 2 4 9 10 14 17 18 22 37
1 40 2 4 5 9 10 11 14 17 18 22
1 40 2 3 4 9 10 11 14 17 18 22
1 40 2 3 4 8 9 10 14 17 18 22
1 40 2 4 5 8 9 10 14 17 18 22
1 40 2 4 5 9 10 11 14 17 23
1 40 2 3 4 9 10 11 14 17 23
1 40 2 3 4 8 9 10 14 17 23
1 40 2 4 5 8 9 10 14 17 23
1 39 2 4 9 10 14 17 18 22 37
1 39 2 4 5 9 10 11 14 17 18 22
1 39 2 3 4 9 10 11 14 17 18 22
1 39 2 3 4 8 9 10 14 17 18 22
1 39 2 4 5 8 9 10 14 17 18 22
1 39 2 4 5 9 10 11 14 17 23
1 39 2 3 4 9 10 11 14 17 23
1 39 2 3 4 8 9 10 14 17 23
1 39 2 4 5 8 9 10 14 17 23
1 2 4 5 7 9 10 11 14 17
1 2 3 4 7 9 10 11 14 17
1 2 4 5 9 10 11 14 17 32
1 2 3 4 9 10 11 14 17 32
1 2 3 4 8 9 10 14 17 32
1 2 4 5 8 9 10 14 17 32
1 2 4 5 9 10 11 14 17 36
1 2 3 4 9 10 11 14 17 36
1 2 3 4 8 9 10 14 17 36
1 2 4 5 8 9 10 14 17 36
2 4 5 9 10 11 14 17 33
2 3 4 9 10 11 14 17 33
2 3 4 8 9 10 14 17 33
2 4 5 8 9 10 14 17 33
2 4 5 9 10 11 14 17 34
2 3 4 9 10 11 14 17 34
2 3 4 8 9 10 14 17 34
2 4 5 8 9 10 14 17 34
2 4 10 14 17 31 33 37
1 2 4 10 14 17 31 36 37
1 2 4 10 14 17 31 32 37
1 2 4 7 10 14 17 31
1 39 2 4 10 14 17 23 31
1 40 2 4 10 14 17 23 31
1 40 2 4 10 14 17 18 22 31
1 39 2 4 10 14 17 18 22 31
1 2 4 10 11 14 17 31 32
1 2 4 8 10 14 17 31 32
1 2 4 10 11 14 17 31 36
1 2 4 8 10 14 17 31 36
2 4 10 11 14 17 31 33
2 4 8 10 14 17 31 33
2 4 10 11 14 17 31 34
2 4 8 10 14 17 31 34
2 4 9 10 14 30 34 37
2 4 9 10 14 30 33 37
1 2 4 9 10 14 30 37
1 2 4 5 9 10 11 14 30
1 2 3 4 9 10 11 14 30
1 2 3 4 8 9 10 14 30
1 2 4 5 8 9 10 14 30
2 4 5 9 10 11 14 30 33
2 3 4 9 10 11 14 30 33
2 3 4 8 9 10 14 30 33
2 4 5 8 9 10 14 30 33
2 4 5 9 10 11 14 30 34
2 3 4 9 10 11 14 30 34
2 3 4 8 9 10 14 30 34
2 4 5 8 9 10 14 30 34
2 4 10 14 30 31 33 37
1 2 4 10 14 30 31 37
1 2 4 10 11 14 30 31
1 2 4 8 10 14 30 31
2 4 10 11 14 30 31 33
2 4 8 10 14 30 31 33
2 4 10 11 14 30 31 34
2 4 8 10 14 30 31 34
4 6 10 14 17 31
4 6 10 13 14 31
4 6 9 10 13 14 37
4 5 6 9 10 11 13 14 33
3 4 6 9 10 11 13 14 33
3 4 6 8 9 10 13 14 33
3 4 6 8 9 10 12 13 14 23 34
1 3 4 6 8 9 10 12 13 14 23 36
1 3 4 6 8 9 10 12 13 14 23 32
1 39 3 4 6 8 9 10 12 13 14 23
1 40 3 4 6 8 9 10 12 13 14 23
3 4 6 9 10 11 12 13 14 23
4 5 6 8 9 10 13 14 33
4 5 6 8 9 10 12 13 14 23 34
1 4 5 6 8 9 10 12 13 14 23 36
1 4 5 6 8 9 10 12 13 14 23 32
1 39 4 5 6 8 9 10 12 13 14 23
1 40 4 5 6 8 9 10 12 13 14 23
4 5 6 9 10 11 12 13 14 23
4 6 9 10 14 17 37
4 5 6 9 10 11 14 17
3 4 6 9 10 11 14 17
3 4 6 8 9 10 14 17 34
3 4 6 8 9 10 14 17 33
1 3 4 6 8 9 10 14 17 36
1 3 4 6 8 9 10 14 17 32
1 39 3 4 6 8 9 10 14 17 23
1 40 3 4 6 8 9 10 14 17 23
1 40 3 4 6 8 9 10 14 17 18 22
1 39 3 4 6 8 9 10 14 17 18 22
4 5 6 8 9 10 14 17 34
4 5 6 8 9 10 14 17 33
1 4 5 6 8 9 10 14 17 36
1 4 5 6 8 9 10 14 17 32
1 39 4 5 6 8 9 10 14 17 23
1 40 4 5 6 8 9 10 14 17 23
1 40 4 5 6 8 9 10 14 17 18 22
1 39 4 5 6 8 9 10 14 17 18 22
4 6 9 10 14 30 34 37
4 6 9 10 14 30 33 37
1 4 6 9 10 14 30 37
1 4 5 6 9 10 11 14 30
1 3 4 6 9 10 11 14 30
1 3 4 6 8 9 10 14 30
1 4 5 6 8 9 10 14 30
4 5 6 9 10 11 14 30 33
3 4 6 9 10 11 14 30 33
3 4 6 8 9 10 14 30 33
4 5 6 8 9 10 14 30 33
4 5 6 9 10 11 14 30 34
3 4 6 9 10 11 14 30 34
3 4 6 8 9 10 14 30 34
4 5 6 8 9 10 14 30 34
4 6 10 14 30 31 33 37
1 4 6 10 14 30 31 37
1 4 6 10 11 14 30 31
1 4 6 8 10 14 30 31
4 6 10 11 14 30 31 33
4 6 8 10 14 30 31 33
4 6 10 11 14 30 31 34
4 6 8 10 14 30 31 34
4 10 14 19 25 30 31 34 37 38
4 10 14 19 25 30 31 33 37 38
4 10 11 14 19 25 30 31 33 38
4 8 10 14 19 25 30 31 33 38
4 10 11 14 19 25 30 31 34 38
4 8 10 14 19 25 30 31 34 38
4 6 10 15 21 27 30 35 37
1 4 10 15 16 30 31 37
4 10 15 16 17 31
4 10 14 15 17 31
4 10 13 14 15 31
4 9 10 13 14 15 37
4 5 9 10 11 12 13 14 15 23
4 9 10 14 15 17 37
4 5 9 10 11 14 15 17
4 10 13 15 16 31
4 5 9 10 11 15 16
4 9 10 13 15 16 37
4 5 9 10 11 12 13 15 16 23
4 9 10 15 16 17 37
4 5 9 10 11 15 16 17
1 4 10 14 15 30 31 37
1 4 10 14 15 17 31 36 37
1 4 10 13 14 15 31 36 37
1 4 9 10 13 14 15 36 37
1 4 9 10 13 14 15 32 37
1 4 7 9 10 13 14 15 37
1 4 5 7 9 10 11 12 13 14 15 23
1 4 5 9 10 11 12 13 14 15 23 32
1 4 5 8 9 10 12 13 14 15 23 32
1 4 5 9 10 11 12 13 14 15 23 36
1 4 5 8 9 10 12 13 14 15 23 36
1 4 10 13 14 15 31 32 37
1 4 7 10 13 14 15 31
1 4 10 11 13 14 15 31 32
1 4 8 10 13 14 15 31 32
1 4 10 11 13 14 15 31 36
1 4 8 10 13 14 15 31 36
1 4 9 10 14 15 17 36 37
1 4 9 10 14 15 17 32 37
1 4 7 9 10 14 15 17 37
1 4 5 7 9 10 11 14 15 17
1 4 5 9 10 11 14 15 17 32
1 4 5 8 9 10 14 15 17 32
1 4 5 9 10 11 14 15 17 36
1 4 5 8 9 10 14 15 17 36
1 4 10 14 15 17 31 32 37
1 4 7 10 14 15 17 31
1 4 10 11 14 15 17 31 32
1 4 8 10 14 15 17 31 32
1 4 10 11 14 15 17 31 36
1 4 8 10 14 15 17 31 36
1 4 9 10 14 15 30 37
1 4 5 9 10 11 14 15 30
1 4 5 8 9 10 14 15 30
1 4 10 11 14 15 30 31
1 4 8 10 14 15 30 31
1 4 10 15 16 17 31 36 37
1 4 10 13 15 16 31 36 37
1 4 5 9 10 11 15 16 36
1 4 5 8 9 10 15 16 36
1 4 5 8 9 10 15 16 32
1 4 5 9 10 11 15 16 32
1 4 5 7 9 10 11 15 16
1 4 9 10 13 15 16 36 37
1 4 9 10 13 15 16 32 37
1 4 7 9 10 13 15 16 37
1 4 5 7 9 10 11 12 13 15 16 23
1 4 5 9 10 11 12 13 15 16 23 32
1 4 5 8 9 10 12 13 15 16 23 32
1 4 5 9 10 11 12 13 15 16 23 36
1 4 5 8 9 10 12 13 15 16 23 36
1 4 10 13 15 16 31 32 37
1 4 7 10 13 15 16 31
1 4 10 11 13 15 16 31 32
1 4 8 10 13 15 16 31 32
1 4 10 11 13 15 16 31 36
1 4 8 10 13 15 16 31 36
1 4 9 10 15 16 17 36 37
1 4 9 10 15 16 17 32 37
1 4 7 9 10 15 16 17 37
1 4 5 7 9 10 11 15 16 17
1 4 5 9 10 11 15 16 17 32
1 4 5 8 9 10 15 16 17 32
1 4 5 9 10 11 15 16 17 36
1 4 5 8 9 10 15 16 17 36
1 4 10 15 16 17 31 32 37
1 4 7 10 15 16 17 31
1 4 10 11 15 16 17 31 32
1 4 8 10 15 16 17 31 32
1 4 10 11 15 16 17 31 36
1 4 8 10 15 16 17 31 36
1 4 9 10 15 16 30 37
1 4 5 9 10 11 15 16 30
1 4 5 8 9 10 15 16 30
1 4 10 11 15 16 30 31
1 4 8 10 15 16 30 31
2 4 10 15 16 30 31 34 37
2 4 10 14 15 30 31 34 37
2 4 10 14 15 17 31 34 37
2 4 10 13 14 15 31 34 37
2 4 9 10 13 14 15 34 37
2 4 9 10 13 14 15 33 37
1 2 4 9 10 13 14 15 36 37
1 2 4 9 10 13 14 15 32 37
1 2 4 7 9 10 13 14 15 37
1 39 2 4 9 10 13 14 15 23 37
1 40 2 4 9 10 13 14 15 23 37
1 40 2 4 9 10 13 14 15 18 22 37
1 40 2 4 5 9 10 11 12 13 14 15 23
1 40 2 3 4 9 10 11 12 13 14 15 23
1 40 2 3 4 8 9 10 12 13 14 15 23
1 40 2 4 5 8 9 10 12 13 14 15 23
1 39 2 4 9 10 13 14 15 18 22 37
1 39 2 4 5 9 10 11 12 13 14 15 23
1 39 2 3 4 9 10 11 12 13 14 15 23
1 39 2 3 4 8 9 10 12 13 14 15 23
1 39 2 4 5 8 9 10 12 13 14 15 23
1 2 4 5 7 9 10 11 12 13 14 15 23
1 2 3 4 7 9 10 11 12 13 14 15 23
1 2 4 5 9 10 11 12 13 14 15 23 32
1 2 3 4 9 10 11 12 13 14 15 23 32
1 2 3 4 8 9 10 12 13 14 15 23 32
1 2 4 5 8 9 10 12 13 14 15 23 32
1 2 4 5 9 10 11 12 13 14 15 23 36
1 2 3 4 9 10 11 12 13 14 15 23 36
1 2 3 4 8 9 10 12 13 14 15 23 36
1 2 4 5 8 9 10 12 13 14 15 23 36
2 4 5 9 10 11 13 14 15 33
2 3 4 9 10 11 13 14 15 33
2 3 4 8 9 10 13 14 15 33
2 4 5 8 9 10 13 14 15 33
2 4 5 9 10 11 13 14 15 33 34
2 3 4 9 10 11 13 14 15 33 34
2 3 4 8 9 10 13 14 15 33 34
2 3 4 8 9 10 12 13 14 15 23 34
2 3 4 9 10 11 12 13 14 15 23 34
2 4 5 8 9 10 13 14 15 33 34
2 4 5 8 9 10 12 13 14 15 23 34
2 4 5 9 10 11 12 13 14 15 23 34
2 4 10 13 14 15 31 33 37
1 2 4 10 13 14 15 31 36 37
1 2 4 10 13 14 15 31 32 37
1 2 4 7 10 13 14 15 31
1 39 2 4 10 13 14 15 23 31
1 40 2 4 10 13 14 15 23 31
1 40 2 4 10 13 14 15 18 22 31
1 39 2 4 10 13 14 15 18 22 31
1 2 4 10 11 13 14 15 31 32
1 2 4 8 10 13 14 15 31 32
1 2 4 10 11 13 14 15 31 36
1 2 4 8 10 13 14 15 31 36
2 4 10 11 13 14 15 31 33
2 4 8 10 13 14 15 31 33
2 4 10 11 13 14 15 31 34
2 4 8 10 13 14 15 31 34
2 4 9 10 14 15 17 34 37
2 4 9 10 14 15 17 33 37
1 2 4 9 10 14 15 17 36 37
1 2 4 9 10 14 15 17 32 37
1 2 4 7 9 10 14 15 17 37
1 39 2 4 9 10 14 15 17 23 37
1 40 2 4 9 10 14 15 17 23 37
1 40 2 4 9 10 14 15 17 18 22 37
1 40 2 4 5 9 10 11 14 15 17 18 22
1 40 2 3 4 9 10 11 14 15 17 18 22
1 40 2 3 4 8 9 10 14 15 17 18 22
1 40 2 4 5 8 9 10 14 15 17 18 22
1 40 2 4 5 9 10 11 14 15 17 23
1 40 2 3 4 9 10 11 14 15 17 23
1 40 2 3 4 8 9 10 14 15 17 23
1 40 2 4 5 8 9 10 14 15 17 23
1 39 2 4 9 10 14 15 17 18 22 37
1 39 2 4 5 9 10 11 14 15 17 18 22
1 39 2 3 4 9 10 11 14 15 17 18 22
1 39 2 3 4 8 9 10 14 15 17 18 22
1 39 2 4 5 8 9 10 14 15 17 18 22
1 39 2 4 5 9 10 11 14 15 17 23
1 39 2 3 4 9 10 11 14 15 17 23
1 39 2 3 4 8 9 10 14 15 17 23
1 39 2 4 5 8 9 10 14 15 17 23
1 2 4 5 7 9 10 11 14 15 17
1 2 3 4 7 9 10 11 14 15 17
1 2 4 5 9 10 11 14 15 17 32
1 2 3 4 9 10 11 14 15 17 32
1 2 3 4 8 9 10 14 15 17 32
1 2 4 5 8 9 10 14 15 17 32
1 2 4 5 9 10 11 14 15 17 36
1 2 3 4 9 10 11 14 15 17 36
1 2 3 4 8 9 10 14 15 17 36
1 2 4 5 8 9 10 14 15 17 36
2 4 5 9 10 11 14 15 17 33
2 3 4 9 10 11 14 15 17 33
2 3 4 8 9 10 14 15 17 33
2 4 5 8 9 10 14 15 17 33
2 4 5 9 10 11 14 15 17 34
2 3 4 9 10 11 14 15 17 34
2 3 4 8 9 10 14 15 17 34
2 4 5 8 9 10 14 15 17 34
2 4 10 14 15 17 31 33 37
1 2 4 10 14 15 17 31 36 37
1 2 4 10 14 15 17 31 32 37
1 2 4 7 10 14 15 17 31
1 39 2 4 10 14 15 17 23 31
1 40 2 4 10 14 15 17 23 31
1 40 2 4 10 14 15 17 18 22 31
1 39 2 4 10 14 15 17 18 22 31
1 2 4 10 11 14 15 17 31 32
1 2 4 8 10 14 15 17 31 32
1 2 4 10 11 14 15 17 31 36
1 2 4 8 10 14 15 17 31 36
2 4 10 11 14 15 17 31 33
2 4 8 10 14 15 17 31 33
2 4 10 11 14 15 17 31 34
2 4 8 10 14 15 17 31 34
2 4 9 10 14 15 30 34 37
2 4 9 10 14 15 30 33 37
1 2 4 9 10 14 15 30 37
1 2 4 5 9 10 11 14 15 30
1 2 3 4 9 10 11 14 15 30
1 2 3 4 8 9 10 14 15 30
1 2 4 5 8 9 10 14 15 30
2 4 5 9 10 11 14 15 30 33
2 3 4 9 10 11 14 15 30 33
2 3 4 8 9 10 14 15 30 33
2 4 5 8 9 10 14 15 30 33
2 4 5 9 10 11 14 15 30 34
2 3 4 9 10 11 14 15 30 34
2 3 4 8 9 10 14 15 30 34
2 4 5 8 9 10 14 15 30 34
2 4 10 14 15 30 31 33 37
1 2 4 10 14 15 30 31 37
1 2 4 10 11 14 15 30 31
1 2 4 8 10 14 15 30 31
2 4 10 11 14 15 30 31 33
2 4 8 10 14 15 30 31 33
2 4 10 11 14 15 30 31 34
2 4 8 10 14 15 30 31 34
2 4 10 15 16 17 31 34 37
2 4 10 13 15 16 31 34 37
2 4 5 9 10 11 15 16 34
2 3 4 9 10 11 15 16 34
2 3 4 8 9 10 15 16 34
1 2 3 4 8 9 10 15 16 36
1 2 3 4 8 9 10 15 16 32
1 39 2 3 4 8 9 10 15 16 23
1 39 2 3 4 8 9 10 15 16 18 22
1 2 3 4 9 10 11 15 16 36
1 2 3 4 9 10 11 15 16 32
1 2 3 4 7 9 10 11 15 16
1 39 2 3 4 9 10 11 15 16 23
1 39 2 3 4 9 10 11 15 16 18 22
2 4 5 8 9 10 15 16 34
1 2 4 5 8 9 10 15 16 36
1 2 4 5 8 9 10 15 16 32
1 39 2 4 5 8 9 10 15 16 23
1 39 2 4 5 8 9 10 15 16 18 22
1 2 4 5 9 10 11 15 16 36
1 2 4 5 9 10 11 15 16 32
1 2 4 5 7 9 10 11 15 16
1 39 2 4 5 9 10 11 15 16 23
1 39 2 4 5 9 10 11 15 16 18 22
2 4 9 10 13 15 16 34 37
2 4 9 10 13 15 16 33 37
1 2 4 9 10 13 15 16 36 37
1 2 4 9 10 13 15 16 32 37
1 2 4 7 9 10 13 15 16 37
1 39 2 4 9 10 13 15 16 23 37
1 40 2 4 9 10 13 15 16 23 37
1 40 2 4 9 10 13 15 16 18 22 37
1 40 2 4 5 9 10 11 12 13 15 16 23
1 40 2 3 4 9 10 11 12 13 15 16 23
1 40 2 3 4 8 9 10 12 13 15 16 23
1 40 2 4 5 8 9 10 12 13 15 16 23
1 39 2 4 9 10 13 15 16 18 22 37
1 39 2 4 5 9 10 11 12 13 15 16 23
1 39 2 3 4 9 10 11 12 13 15 16 23
1 39 2 3 4 8 9 10 12 13 15 16 23
1 39 2 4 5 8 9 10 12 13 15 16 23
1 2 4 5 7 9 10 11 12 13 15 16 23
1 2 3 4 7 9 10 11 12 13 15 16 23
1 2 4 5 9 10 11 12 13 15 16 23 32
1 2 3 4 9 10 11 12 13 15 16 23 32
1 2 3 4 8 9 10 12 13 15 16 23 32
1 2 4 5 8 9 10 12 13 15 16 23 32
1 2 4 5 9 10 11 12 13 15 16 23 36
1 2 3 4 9 10 11 12 13 15 16 23 36
1 2 3 4 8 9 10 12 13 15 16 23 36
1 2 4 5 8 9 10 12 13 15 16 23 36
2 4 5 9 10 11 13 15 16 33
2 3 4 9 10 11 13 15 16 33
2 3 4 8 9 10 13 15 16 33
2 4 5 8 9 10 13 15 16 33
2 4 5 9 10 11 13 15 16 33 34
2 3 4 9 10 11 13 15 16 33 34
2 3 4 8 9 10 13 15 16 33 34
2 3 4 8 9 10 12 13 15 16 23 34
2 3 4 9 10 11 12 13 15 16 23 34
2 4 5 8 9 10 13 15 16 33 34
2 4 5 8 9 10 12 13 15 16 23 34
2 4 5 9 10 11 12 13 15 16 23 34
2 4 10 13 15 16 31 33 37
1 2 4 10 13 15 16 31 36 37
1 2 4 10 13 15 16 31 32 37
1 2 4 7 10 13 15 16 31
1 39 2 4 10 13 15 16 23 31
1 40 2 4 10 13 15 16 23 31
1 40 2 4 10 13 15 16 18 22 31
1 39 2 4 10 13 15 16 18 22 31
1 2 4 10 11 13 15 16 31 32
1 2 4 8 10 13 15 16 31 32
1 2 4 10 11 13 15 16 31 36
1 2 4 8 10 13 15 16 31 36
2 4 10 11 13 15 16 31 33
2 4 8 10 13 15 16 31 33
2 4 10 11 13 15 16 31 34
2 4 8 10 13 15 16 31 34
2 4 9 10 15 16 17 34 37
2 4 9 10 15 16 17 33 37
1 2 4 9 10 15 16 17 36 37
1 2 4 9 10 15 16 17 32 37
1 2 4 7 9 10 15 16 17 37
1 39 2 4 9 10 15 16 17 23 37
1 40 2 4 9 10 15 16 17 23 37
1 40 2 4 9 10 15 16 17 18 22 37
1 40 2 4 5 9 10 11 15 16 17 18 22
1 40 2 3 4 9 10 11 15 16 17 18 22
1 40 2 3 4 8 9 10 15 16 17 18 22
1 40 2 4 5 8 9 10 15 16 17 18 22
1 40 2 4 5 9 10 11 15 16 17 23
1 40 2 3 4 9 10 11 15 16 17 23
1 40 2 3 4 8 9 10 15 16 17 23
1 40 2 4 5 8 9 10 15 16 17 23
1 39 2 4 9 10 15 16 17 18 22 37
1 39 2 4 5 9 10 11 15 16 17 18 22
1 39 2 3 4 9 10 11 15 16 17 18 22
1 39 2 3 4 8 9 10 15 16 17 18 22
1 39 2 4 5 8 9 10 15 16 17 18 22
1 39 2 4 5 9 10 11 15 16 17 23
1 39 2 3 4 9 10 11 15 16 17 23
1 39 2 3 4 8 9 10 15 16 17 23
1 39 2 4 5 8 9 10 15 16 17 23
1 2 4 5 7 9 10 11 15 16 17
1 2 3 4 7 9 10 11 15 16 17
1 2 4 5 9 10 11 15 16 17 32
1 2 3 4 9 10 11 15 16 17 32
1 2 3 4 8 9 10 15 16 17 32
1 2 4 5 8 9 10 15 16 17 32
1 2 4 5 9 10 11 15 16 17 36
1 2 3 4 9 10 11 15 16 17 36
1 2 3 4 8 9 10 15 16 17 36
1 2 4 5 8 9 10 15 16 17 36
2 4 5 9 10 11 15 16 17 33
2 3 4 9 10 11 15 16 17 33
2 3 4 8 9 10 15 16 17 33
2 4 5 8 9 10 15 16 17 33
2 4 5 9 10 11 15 16 17 34
2 3 4 9 10 11 15 16 17 34
2 3 4 8 9 10 15 16 17 34
2 4 5 8 9 10 15 16 17 34
2 4 10 15 16 17 31 33 37
1 2 4 10 15 16 17 31 36 37
1 2 4 10 15 16 17 31 32 37
1 2 4 7 10 15 16 17 31
1 39 2 4 10 15 16 17 23 31
1 40 2 4 10 15 16 17 23 31
1 40 2 4 10 15 16 17 18 22 31
1 39 2 4 10 15 16 17 18 22 31
1 2 4 10 11 15 16 17 31 32
1 2 4 8 10 15 16 17 31 32
1 2 4 10 11 15 16 17 31 36
1 2 4 8 10 15 16 17 31 36
2 4 10 11 15 16 17 31 33
2 4 8 10 15 16 17 31 33
2 4 10 11 15 16 17 31 34
2 4 8 10 15 16 17 31 34
2 4 9 10 15 16 30 34 37
2 4 9 10 15 16 30 33 37
1 2 4 9 10 15 16 30 37
1 2 4 5 9 10 11 15 16 30
1 2 3 4 9 10 11 15 16 30
1 2 3 4 8 9 10 15 16 30
1 2 4 5 8 9 10 15 16 30
2 4 5 9 10 11 15 16 30 33
2 3 4 9 10 11 15 16 30 33
2 3 4 8 9 10 15 16 30 33
2 4 5 8 9 10 15 16 30 33
2 4 5 9 10 11 15 16 30 34
2 3 4 9 10 11 15 16 30 34
2 3 4 8 9 10 15 16 30 34
2 4 5 8 9 10 15 16 30 34
2 4 10 15 16 30 31 33 37
1 2 4 10 15 16 30 31 37
1 2 4 10 11 15 16 30 31
1 2 4 8 10 15 16 30 31
2 4 10 11 15 16 30 31 33
2 4 8 10 15 16 30 31 33
2 4 10 11 15 16 30 31 34
2 4 8 10 15 16 30 31 34
4 6 10 15 16 30 31 34 37
4 6 10 14 15 30 31 34 37
4 6 10 14 15 17 31
4 6 10 13 14 15 31
4 6 9 10 13 14 15 37
4 5 6 9 10 11 13 14 15 33
3 4 6 9 10 11 13 14 15 33
3 4 6 8 9 10 13 14 15 33
3 4 6 8 9 10 12 13 14 15 23 34
1 3 4 6 8 9 10 12 13 14 15 23 36
1 3 4 6 8 9 10 12 13 14 15 23 32
1 39 3 4 6 8 9 10 12 13 14 15 23
1 40 3 4 6 8 9 10 12 13 14 15 23
3 4 6 9 10 11 12 13 14 15 23
4 5 6 8 9 10 13 14 15 33
4 5 6 8 9 10 12 13 14 15 23 34
1 4 5 6 8 9 10 12 13 14 15 23 36
1 4 5 6 8 9 10 12 13 14 15 23 32
1 39 4 5 6 8 9 10 12 13 14 15 23
1 40 4 5 6 8 9 10 12 13 14 15 23
4 5 6 9 10 11 12 13 14 15 23
4 6 9 10 14 15 17 37
4 5 6 9 10 11 14 15 17
3 4 6 9 10 11 14 15 17
3 4 6 8 9 10 14 15 17 34
3 4 6 8 9 10 14 15 17 33
1 3 4 6 8 9 10 14 15 17 36
1 3 4 6 8 9 10 14 15 17 32
1 39 3 4 6 8 9 10 14 15 17 23
1 40 3 4 6 8 9 10 14 15 17 23
1 40 3 4 6 8 9 10 14 15 17 18 22
1 39 3 4 6 8 9 10 14 15 17 18 22
4 5 6 8 9 10 14 15 17 34
4 5 6 8 9 10 14 15 17 33
1 4 5 6 8 9 10 14 15 17 36
1 4 5 6 8 9 10 14 15 17 32
1 39 4 5 6 8 9 10 14 15 17 23
1 40 4 5 6 8 9 10 14 15 17 23
1 40 4 5 6 8 9 10 14 15 17 18 22
1 39 4 5 6 8 9 10 14 15 17 18 22
4 6 9 10 14 15 30 34 37
4 6 9 10 14 15 30 33 37
1 4 6 9 10 14 15 30 37
1 4 5 6 9 10 11 14 15 30
1 3 4 6 9 10 11 14 15 30
1 3 4 6 8 9 10 14 15 30
1 4 5 6 8 9 10 14 15 30
4 5 6 9 10 11 14 15 30 33
3 4 6 9 10 11 14 15 30 33
3 4 6 8 9 10 14 15 30 33
4 5 6 8 9 10 14 15 30 33
4 5 6 9 10 11 14 15 30 34
3 4 6 9 10 11 14 15 30 34
3 4 6 8 9 10 14 15 30 34
4 5 6 8 9 10 14 15 30 34
4 6 10 14 15 30 31 33 37
1 4 6 10 14 15 30 31 37
1 4 6 10 11 14 15 30 31
1 4 6 8 10 14 15 30 31
4 6 10 11 14 15 30 31 33
4 6 8 10 14 15 30 31 33
4 6 10 11 14 15 30 31 34
4 6 8 10 14 15 30 31 34
4 6 10 15 16 17 31
4 6 10 13 15 16 31
4 5 6 9 10 11 15 16
3 4 6 9 10 11 15 16
3 4 6 8 9 10 15 16 34
1 3 4 6 8 9 10 15 16 36
1 3 4 6 8 9 10 15 16 32
1 39 3 4 6 8 9 10 15 16 23
1 39 3 4 6 8 9 10 15 16 18 22
4 5 6 8 9 10 15 16 34
1 4 5 6 8 9 10 15 16 36
1 4 5 6 8 9 10 15 16 32
1 39 4 5 6 8 9 10 15 16 23
1 39 4 5 6 8 9 10 15 16 18 22
4 6 9 10 13 15 16 37
4 5 6 9 10 11 13 15 16 33
3 4 6 9 10 11 13 15 16 33
3 4 6 8 9 10 13 15 16 33
3 4 6 8 9 10 12 13 15 16 23 34
1 3 4 6 8 9 10 12 13 15 16 23 36
1 3 4 6 8 9 10 12 13 15 16 23 32
1 39 3 4 6 8 9 10 12 13 15 16 23
1 40 3 4 6 8 9 10 12 13 15 16 23
3 4 6 9 10 11 12 13 15 16 23
4 5 6 8 9 10 13 15 16 33
4 5 6 8 9 10 12 13 15 16 23 34
1 4 5 6 8 9 10 12 13 15 16 23 36
1 4 5 6 8 9 10 12 13 15 16 23 32
1 39 4 5 6 8 9 10 12 13 15 16 23
1 40 4 5 6 8 9 10 12 13 15 16 23
4 5 6 9 10 11 12 13 15 16 23
4 6 9 10 15 16 17 37
4 5 6 9 10 11 15 16 17
3 4 6 9 10 11 15 16 17
3 4 6 8 9 10 15 16 17 34
3 4 6 8 9 10 15 16 17 33
1 3 4 6 8 9 10 15 16 17 36
1 3 4 6 8 9 10 15 16 17 32
1 39 3 4 6 8 9 10 15 16 17 23
1 40 3 4 6 8 9 10 15 16 17 23
1 40 3 4 6 8 9 10 15 16 17 18 22
1 39 3 4 6 8 9 10 15 16 17 18 22
4 5 6 8 9 10 15 16 17 34
4 5 6 8 9 10 15 16 17 33
1 4 5 6 8 9 10 15 16 17 36
1 4 5 6 8 9 10 15 16 17 32
1 39 4 5 6 8 9 10 15 16 17 23
1 40 4 5 6 8 9 10 15 16 17 23
1 40 4 5 6 8 9 10 15 16 17 18 22
1 39 4 5 6 8 9 10 15 16 17 18 22
4 6 9 10 15 16 30 34 37
4 6 9 10 15 16 30 33 37
1 4 6 9 10 15 16 30 37
1 4 5 6 9 10 11 15 16 30
1 3 4 6 9 10 11 15 16 30
1 3 4 6 8 9 10 15 16 30
1 4 5 6 8 9 10 15 16 30
4 5 6 9 10 11 15 16 30 33
3 4 6 9 10 11 15 16 30 33
3 4 6 8 9 10 15 16 30 33
4 5 6 8 9 10 15 16 30 33
4 5 6 9 10 11 15 16 30 34
3 4 6 9 10 11 15 16 30 34
3 4 6 8 9 10 15 16 30 34
4 5 6 8 9 10 15 16 30 34
4 6 10 15 16 30 31 33 37
1 4 6 10 15 16 30 31 37
1 4 6 10 11 15 16 30 31
1 4 6 8 10 15 16 30 31
4 6 10 11 15 16 30 31 33
4 6 8 10 15 16 30 31 33
4 6 10 11 15 16 30 31 34
4 6 8 10 15 16 30 31 34
4 6 10 15 17 21 27 35 37
4 6 10 13 15 21 27 35 37
4 6 10 15 17 21 27 31 35
4 6 10 11 15 21 27 30 31 35
4 6 8 10 15 21 27 30 31 35
4 10 15 19 21 25 27 30 35 37 38
4 10 15 17 19 21 25 27 35 37 38
4 10 13 15 19 21 25 27 35 37 38
1 39 3 4 6 8 9 10 12 13 14 15 18 19 20 21 23 24 25 26 27
1 40 3 4 6 8 9 10 12 13 14 15 18 19 20 21 23 24 25 26 27
1 39 4 5 6 8 9 10 12 13 14 15 18 19 20 21 23 24 25 26 27
1 40 4 5 6 8 9 10 12 13 14 15 18 19 20 21 23 24 25 26 27
4 10 11 15 17 19 21 25 27 31 35 38
4 8 10 15 17 19 21 25 27 31 35 38
4 10 11 15 19 21 25 27 30 31 35 38
4 8 10 15 19 21 25 27 30 31 35 38
4 10 15 17 19 21 27 28 35 37 38
4 10 13 15 19 21 27 28 35 37 38
4 10 11 15 17 19 21 27 28 31 35 38
4 8 10 15 17 19 21 27 28 31 35 38
4 10 11 15 19 21 27 28 30 31 35 38
4 8 10 15 19 21 27 28 30 31 35 38
 Minimal traps 
18 22
1 8 36
2 8 12 17 19 21 25 28 35 37 38
3 8 12 19 25 38
26 28
4 9 13 37
14 17
15 16
9 11
4 10 13 31
4 5
4 5 9 11
8 9 11 26 27 29
4 5 8 9 11 26 27 29
3 6
3 4 9 13 37
3 4 10 13 31
3 4 5
3 4 5 9 11
3 4 9 11 13 31
3 4 9 10 13 31
3 4 5 9 11 13 14 17
3 4 5 9 11 13 14 15 16
3 6 8 9 13 37
3 4 8 9 13 37
3 4 5 8 9 11
3 4 8 9 11 13 31
3 4 8 9 10 13 31
3 4 5 8 9 11 13 14 17
3 4 5 8 9 11 13 14 15 16
3 6 8 9 11
3 6 8 9 11 13 31
3 6 8 9 10 13 31
3 6 8 9 11 13 14 17
3 6 8 9 11 13 14 15 16
3 6 8 9 12 13 37
3 4 8 9 12 13 37
3 4 8 9 11 12 13 31
3 4 8 9 10 12 13 31
3 4 5 8 9 11 12 13 14 17
3 4 5 8 9 11 12 13 14 15 16
3 6 8 9 11 12 13 31
3 6 8 9 10 12 13 31
3 6 8 9 11 12 13 14 17
3 6 8 9 11 12 13 14 15 16
2 10 15 21 27 35
2 3 4 5
2 3 4 10 13 31
2 3 4 10 13 15 16 31
2 3 4 10 13 17 31
2 3 4 5 9 11
2 3 4 5 9 11 15 16
2 3 4 5 9 11 14 15 16
2 3 4 5 9 11 14 17
2 3 4 9 13 37
2 3 4 9 11 13 31
2 3 4 9 10 13 31
2 3 4 9 13 15 16 37
2 3 4 9 11 13 15 16 31
2 3 4 9 10 13 15 16 31
2 3 4 5 9 11 13 14 15 16
2 3 4 9 13 17 37
2 3 4 9 11 13 17 31
2 3 4 9 10 13 17 31
2 3 4 5 9 11 13 14 17
2 3 6
2 3 6 10 13 31
2 3 6 10 13 15 16 31
2 3 6 10 13 17 31
2 6 10 13 17 21 27 31 35
2 3 6 9 11
2 3 6 9 11 15 16
2 3 6 9 11 14 15 16
2 3 6 9 11 14 17
2 3 6 9 13 37
2 3 6 9 11 13 31
2 3 6 9 10 13 31
2 3 6 9 13 15 16 37
2 3 6 9 11 13 15 16 31
2 3 6 9 10 13 15 16 31
2 3 6 9 11 13 14 15 16
2 6 9 13 15 21 27 35 37
2 3 6 9 13 17 37
2 3 6 9 11 13 17 31
2 3 6 9 10 13 17 31
2 3 6 9 11 13 14 17
2 6 9 13 17 21 27 35 37
2 8 34
2 8 13 33
2 3 6 8 9 11
2 3 4 5 8 9 11
2 3 4 5 8 9 11 15 16
2 3 6 8 9 11 15 16
2 3 4 5 8 9 11 14 15 16
2 3 6 8 9 11 14 15 16
2 3 6 8 9 11 14 17
2 3 4 5 8 9 11 14 17
2 3 4 8 9 13 37
2 3 4 8 9 11 13 31
2 3 4 8 9 10 13 31
2 3 4 8 9 13 15 16 37
2 3 4 8 9 11 13 15 16 31
2 3 4 8 9 10 13 15 16 31
2 3 4 5 8 9 11 13 14 15 16
2 3 4 8 9 13 17 37
2 3 4 8 9 11 13 17 31
2 3 4 8 9 10 13 17 31
2 3 4 5 8 9 11 13 14 17
2 3 6 8 9 13 37
2 3 6 8 9 11 13 31
2 3 6 8 9 10 13 31
2 3 6 8 9 13 15 16 37
2 3 6 8 9 11 13 15 16 31
2 3 6 8 9 10 13 15 16 31
2 3 6 8 9 11 13 14 15 16
2 3 6 8 9 13 17 37
2 3 6 8 9 11 13 17 31
2 3 6 8 9 10 13 17 31
2 3 6 8 9 11 13 14 17
2 8 12 15 19 21 25 28 35 37 38
2 6 8 12 13 34 37
2 4 8 12 13 34 37
2 8 12 13 33
2 4 8 12 13 33 37
2 3 4 8 9 12 13 37
2 3 4 8 9 11 12 13 31
2 3 4 8 9 10 12 13 31
2 4 8 11 12 13 31 33
2 4 8 10 12 13 31 33
2 4 5 8 12 13 33
2 4 5 8 11 12 13 33
2 4 8 11 12 13 31 34
2 4 8 10 12 13 31 34
2 4 5 8 12 13 33 34
2 4 5 8 11 12 13 33 34
2 6 8 12 13 33
2 3 6 8 9 12 13 37
2 3 6 8 9 11 12 13 31
2 3 6 8 9 10 12 13 31
2 6 8 12 13 33 34
2 6 8 11 12 13 31 34
2 6 8 10 12 13 31 34
2 8 12 19 25 33 38
2 8 12 13 15 16 33
2 8 12 13 14 15 16 34
2 8 11 12 13 15 16 33
2 8 11 12 13 14 15 16 34
2 4 8 12 13 15 16 34 37
2 4 8 12 13 15 16 33 37
2 3 4 8 9 12 13 15 16 37
2 3 4 8 9 11 12 13 15 16 31
2 3 4 8 9 10 12 13 15 16 31
2 3 4 5 8 9 11 12 13 14 15 16
2 4 8 11 12 13 15 16 31 33
2 4 8 10 12 13 15 16 31 33
2 4 5 8 12 13 15 16 33
2 4 5 8 11 12 13 15 16 33
2 4 8 11 12 13 15 16 31 34
2 4 8 10 12 13 15 16 31 34
2 4 5 8 12 13 15 16 33 34
2 4 5 8 12 13 14 15 16 34
2 4 5 8 11 12 13 15 16 33 34
2 4 5 8 11 12 13 14 15 16 34
2 6 8 12 13 15 16 34 37
2 6 8 12 13 15 16 33
2 3 6 8 9 12 13 15 16 37
2 3 6 8 9 11 12 13 15 16 31
2 3 6 8 9 10 12 13 15 16 31
2 3 6 8 9 11 12 13 14 15 16
2 6 8 12 13 15 16 33 34
2 6 8 11 12 13 15 16 31 34
2 6 8 10 12 13 15 16 31 34
2 6 8 12 13 14 15 16 34
2 6 8 11 12 13 14 15 16 34
2 8 12 15 19 21 25 27 35 37 38
2 8 11 12 15 19 21 25 27 35 38
2 8 11 12 15 19 21 25 28 35 38
2 8 10 12 15 19 21 25 28 35 38
2 6 8 12 13 17 34 37
2 4 8 12 13 17 34 37
2 8 12 13 17 33
2 8 12 13 14 17 34
2 4 8 12 13 17 33 37
2 3 4 8 9 12 13 17 37
2 3 4 8 9 11 12 13 17 31
2 3 4 8 9 10 12 13 17 31
2 3 4 5 8 9 11 12 13 14 17
2 4 8 11 12 13 17 31 33
2 4 8 10 12 13 17 31 33
2 4 5 8 12 13 17 33
2 4 5 8 11 12 13 17 33
2 4 8 11 12 13 17 31 34
2 4 8 10 12 13 17 31 34
2 4 5 8 12 13 17 33 34
2 4 5 8 12 13 14 17 34
2 4 5 8 11 12 13 17 33 34
2 4 5 8 11 12 13 14 17 34
2 6 8 12 13 17 33
2 3 6 8 9 12 13 17 37
2 3 6 8 9 11 12 13 17 31
2 3 6 8 9 10 12 13 17 31
2 3 6 8 9 11 12 13 14 17
2 6 8 12 13 17 33 34
2 6 8 11 12 13 17 31 34
2 6 8 10 12 13 17 31 34
2 6 8 12 13 14 17 34
2 6 8 11 12 13 14 17 34
2 8 12 17 19 21 25 27 35 37 38
2 8 10 12 17 19 21 25 27 31 35 38
2 8 11 12 17 19 21 25 27 31 35 38
2 8 10 12 17 19 21 25 28 31 35 38
2 8 11 12 17 19 21 25 28 31 35 38
1 2 3 4 7
1 2 3 4 5
1 2 3 4 10 13 31
1 2 3 4 10 13 15 16 31
1 2 3 4 10 13 17 31
1 2 3 4 5 9 11
1 2 3 4 5 9 11 15 16
1 2 3 4 5 9 11 14 15 16
1 2 3 4 5 9 11 14 17
1 2 3 4 7 9 11
1 2 3 4 7 9 11 15 16
1 2 3 4 7 9 11 14 15 16
1 2 3 4 7 9 11 14 17
1 2 3 4 9 13 37
1 2 3 4 9 11 13 31
1 2 3 4 9 10 13 31
1 2 3 4 9 13 15 16 37
1 2 3 4 9 11 13 15 16 31
1 2 3 4 9 10 13 15 16 31
1 2 3 4 7 9 11 13 14 15 16
1 2 3 4 5 9 11 13 14 15 16
1 2 3 4 9 13 17 37
1 2 3 4 9 11 13 17 31
1 2 3 4 9 10 13 17 31
1 2 3 4 7 9 11 13 14 17
1 2 3 4 5 9 11 13 14 17
1 2 3 6
1 2 3 6 10 13 31
1 2 3 6 10 13 15 16 31
1 2 3 6 10 13 17 31
1 2 3 6 9 11
1 2 3 6 9 11 15 16
1 2 3 6 9 11 14 15 16
1 2 3 6 9 11 14 17
1 2 3 6 9 13 37
1 2 3 6 9 11 13 31
1 2 3 6 9 10 13 31
1 2 3 6 9 13 15 16 37
1 2 3 6 9 11 13 15 16 31
1 2 3 6 9 10 13 15 16 31
1 2 3 6 9 11 13 14 15 16
1 2 3 6 9 13 17 37
1 2 3 6 9 11 13 17 31
1 2 3 6 9 10 13 17 31
1 2 3 6 9 11 13 14 17
1 8 32
1 39 8 12 22 25 30 37 38
1 40 8 30
1 8 12 19 21 25 28 30 35 37 38
1 4 8 13 30 37
1 8 13 30 33
1 8 14 30
1 2 8 34
1 2 8 14 17 34
1 2 8 14 15 16 34
1 2 8 11 14 15 16 34
1 2 8 13 33
1 2 8 13 14 17 34
1 2 8 13 14 15 16 34
1 2 8 11 13 14 15 16 34
1 8 13 14 30
1 4 7 8 14 30
1 4 5 8 14 30
1 2 4 5 8 34
1 2 3 4 5 8 9 11
1 2 3 4 5 8 9 11 15 16
1 2 4 5 8 14 17 34
1 2 4 5 8 14 15 16 34
1 2 4 5 8 11 14 15 16 34
1 2 3 4 5 8 9 11 14 15 16
1 2 3 4 5 8 9 11 14 17
1 2 4 7 8 34
1 2 3 4 7 8 9 11
1 2 3 4 7 8 9 11 15 16
1 2 4 7 8 14 17 34
1 2 4 7 8 14 15 16 34
1 2 4 7 8 11 14 15 16 34
1 2 3 4 7 8 9 11 14 15 16
1 2 3 4 7 8 9 11 14 17
1 2 4 8 13 34 37
1 2 4 8 13 33 37
1 2 3 4 8 9 13 37
1 2 3 4 8 9 11 13 31
1 2 3 4 8 9 10 13 31
1 2 3 4 8 9 13 15 16 37
1 2 3 4 8 9 11 13 15 16 31
1 2 3 4 8 9 10 13 15 16 31
1 2 3 4 7 8 9 11 13 14 15 16
1 2 3 4 5 8 9 11 13 14 15 16
1 2 3 4 8 9 13 17 37
1 2 3 4 8 9 11 13 17 31
1 2 3 4 8 9 10 13 17 31
1 2 3 4 7 8 9 11 13 14 17
1 2 3 4 5 8 9 11 13 14 17
1 2 4 8 11 13 31 33
1 2 4 8 10 13 31 33
1 2 4 7 8 13 33
1 2 4 5 8 13 33
1 2 4 7 8 11 13 33
1 2 4 5 8 11 13 33
1 2 4 8 11 13 31 34
1 2 4 8 10 13 31 34
1 2 4 7 8 13 33 34
1 2 4 5 8 13 33 34
1 2 4 5 8 13 14 17 34
1 2 4 5 8 13 14 15 16 34
1 2 4 7 8 13 14 17 34
1 2 4 7 8 13 14 15 16 34
1 2 4 7 8 11 13 33 34
1 2 4 5 8 11 13 33 34
1 2 4 5 8 11 13 14 17 34
1 2 4 5 8 11 13 14 15 16 34
1 2 4 7 8 11 13 14 17 34
1 2 4 7 8 11 13 14 15 16 34
1 4 8 11 13 30 31
1 4 8 10 13 30 31
1 4 7 8 13 30 33
1 4 5 8 13 30 33
1 4 5 8 13 14 30
1 4 7 8 13 14 30
1 4 7 8 11 13 30 33
1 4 5 8 11 13 30 33
1 4 5 8 11 13 14 30
1 4 7 8 11 13 14 30
1 6 8 14 30 34
1 2 6 8 34
1 2 6 8 14 17 34
1 2 6 8 14 15 16 34
1 3 6 8 14 30
1 2 6 8 11 34
1 2 3 6 8 9 11
1 2 3 6 8 9 11 15 16
1 6 8 11 14 30 34
1 2 6 8 11 14 17 34
1 2 6 8 11 14 15 16 34
1 2 3 6 8 9 11 14 15 16
1 2 3 6 8 9 11 14 17
1 3 6 8 11 14 30
1 6 8 13 30 34 37
1 2 6 8 13 34 37
1 2 6 8 13 33
1 2 3 6 8 9 13 37
1 2 3 6 8 9 11 13 31
1 2 3 6 8 9 10 13 31
1 2 3 6 8 9 11 13 14 17
1 2 3 6 8 9 11 13 14 15 16
1 2 6 8 13 33 34
1 2 6 8 11 13 31 34
1 2 6 8 10 13 31 34
1 2 6 8 13 14 17 34
1 2 6 8 13 14 15 16 34
1 2 6 8 11 13 14 17 34
1 2 6 8 11 13 14 15 16 34
1 6 8 13 30 33
1 3 6 8 13 30 37
1 3 6 8 11 13 30 31
1 3 6 8 10 13 30 31
1 3 6 8 13 14 30
1 3 6 8 11 13 14 30
1 6 8 13 30 33 34
1 6 8 11 13 30 31 34
1 6 8 10 13 30 31 34
1 6 8 13 14 30 34
1 6 8 11 13 14 30 34
1 6 8 13 21 27 30 35 37
1 6 8 10 13 21 27 30 31 35
1 6 8 11 13 21 27 30 31 35
1 4 8 12 13 30 37
1 8 12 13 30 33
1 2 8 12 13 33
1 2 8 12 13 14 17 34
1 2 8 12 13 14 15 16 34
1 2 8 11 12 13 14 15 16 34
1 8 12 13 14 30
1 2 4 8 12 13 34 37
1 2 4 8 12 13 33 37
1 2 3 4 8 9 12 13 37
1 2 3 4 8 9 11 12 13 31
1 2 3 4 8 9 10 12 13 31
1 2 3 4 8 9 12 13 15 16 37
1 2 3 4 8 9 11 12 13 15 16 31
1 2 3 4 8 9 10 12 13 15 16 31
1 2 3 4 7 8 9 11 12 13 14 15 16
1 2 3 4 5 8 9 11 12 13 14 15 16
1 2 3 4 8 9 12 13 17 37
1 2 3 4 8 9 11 12 13 17 31
1 2 3 4 8 9 10 12 13 17 31
1 2 3 4 7 8 9 11 12 13 14 17
1 2 3 4 5 8 9 11 12 13 14 17
1 2 4 8 11 12 13 31 33
1 2 4 8 10 12 13 31 33
1 2 4 7 8 12 13 33
1 2 4 5 8 12 13 33
1 2 4 7 8 11 12 13 33
1 2 4 5 8 11 12 13 33
1 2 4 8 11 12 13 31 34
1 2 4 8 10 12 13 31 34
1 2 4 7 8 12 13 33 34
1 2 4 5 8 12 13 33 34
1 2 4 5 8 12 13 14 17 34
1 2 4 5 8 12 13 14 15 16 34
1 2 4 7 8 12 13 14 17 34
1 2 4 7 8 12 13 14 15 16 34
1 2 4 7 8 11 12 13 33 34
1 2 4 5 8 11 12 13 33 34
1 2 4 5 8 11 12 13 14 17 34
1 2 4 5 8 11 12 13 14 15 16 34
1 2 4 7 8 11 12 13 14 17 34
1 2 4 7 8 11 12 13 14 15 16 34
1 4 8 11 12 13 30 31
1 4 8 10 12 13 30 31
1 4 7 8 12 13 30 33
1 4 5 8 12 13 30 33
1 4 5 8 12 13 14 30
1 4 7 8 12 13 14 30
1 4 7 8 11 12 13 30 33
1 4 5 8 11 12 13 30 33
1 4 5 8 11 12 13 14 30
1 4 7 8 11 12 13 14 30
1 6 8 12 13 30 34 37
1 2 6 8 12 13 34 37
1 2 6 8 12 13 33
1 2 3 6 8 9 12 13 37
1 2 3 6 8 9 11 12 13 31
1 2 3 6 8 9 10 12 13 31
1 2 3 6 8 9 11 12 13 14 17
1 2 3 6 8 9 11 12 13 14 15 16
1 2 6 8 12 13 33 34
1 2 6 8 11 12 13 31 34
1 2 6 8 10 12 13 31 34
1 2 6 8 12 13 14 17 34
1 2 6 8 12 13 14 15 16 34
1 2 6 8 11 12 13 14 17 34
1 2 6 8 11 12 13 14 15 16 34
1 6 8 12 13 30 33
1 3 6 8 12 13 30 37
1 3 6 8 11 12 13 30 31
1 3 6 8 10 12 13 30 31
1 3 6 8 12 13 14 30
1 3 6 8 11 12 13 14 30
1 6 8 12 13 30 33 34
1 6 8 11 12 13 30 31 34
1 6 8 10 12 13 30 31 34
1 6 8 12 13 14 30 34
1 6 8 11 12 13 14 30 34
1 8 12 19 25 30 34 37 38
1 8 12 19 25 30 33 38
1 8 11 12 19 25 30 31 34 38
1 8 10 12 19 25 30 31 34 38
1 8 12 19 21 25 27 30 35 37 38
1 8 10 12 19 21 25 27 30 31 35 38
1 8 11 12 19 21 25 27 30 31 35 38
1 8 10 12 19 21 25 28 30 31 35 38
1 8 11 12 19 21 25 28 30 31 35 38
1 40 2 8 12 22 25 38
1 40 2 8 34
1 40 2 8 13 33
1 40 2 8 9 11
1 40 2 8 9 10 17 21 27 35
1 40 2 6 8 9 13 37
1 40 2 4 8 9 13 37
1 40 2 8 9 11 13
1 40 2 4 8 9 11 13 31
1 40 2 4 8 9 10 13 31
1 40 2 4 7 8 9 11 13
1 40 2 4 5 8 9 11 13
1 40 2 6 8 9 11 13
1 40 2 6 8 9 10 13 31
1 40 2 6 8 9 10 13 15 16 31
1 40 2 6 8 9 10 13 17 31
1 40 2 6 8 9 10 13 17 21 27 35
1 40 2 6 8 9 10 13 17 21 26 27 35
1 40 2 8 12 19 25 38
1 40 2 8 12 13 34
1 40 2 8 12 13 33
1 40 2 6 8 9 12 13 37
1 40 2 4 8 9 12 13 37
1 40 2 8 9 11 12 13
1 40 2 8 9 10 12 13 23
1 40 2 8 9 10 12 13 15 16 23
1 40 2 8 9 10 12 13 17 23
1 40 2 4 8 9 11 12 13 31
1 40 2 4 8 9 10 12 13 31
1 40 2 4 5 8 9 10 12 13 23
1 40 2 4 5 8 9 10 12 13 15 16 23
1 40 2 4 5 8 9 10 12 13 17 23
1 40 2 4 7 8 9 10 12 13 23
1 40 2 4 7 8 9 10 12 13 15 16 23
1 40 2 4 7 8 9 10 12 13 17 23
1 40 2 4 7 8 9 11 12 13
1 40 2 4 5 8 9 11 12 13
1 40 2 6 8 9 11 12 13
1 40 2 6 8 9 10 12 13 31
1 40 2 6 8 9 10 12 13 23
1 40 2 6 8 9 10 12 13 15 16 31
1 40 2 6 8 9 10 12 13 15 16 23
1 40 2 6 8 9 10 12 13 17 31
1 40 2 6 8 9 10 12 13 17 23
1 40 2 6 8 9 10 12 13 17 21 27 35
1 40 2 6 8 9 10 12 13 17 21 26 27 35
1 40 2 8 10 12 13 17 19 20 21 27 34 35
1 40 2 8 10 12 13 17 19 20 21 26 27 34 35
1 40 2 8 11 12 13 15 19 20 21 27 34 35
1 40 2 8 11 12 13 15 19 20 21 26 27 34 35
1 40 2 8 11 12 13 17 19 20 21 27 34 35
1 40 2 8 11 12 13 17 19 20 21 26 27 34 35
1 40 2 4 7 8 11 12 13 15 19 20 21 27 34 35
1 40 2 4 7 8 11 12 13 15 19 20 21 26 27 34 35
1 40 2 4 7 8 10 12 13 17 19 20 21 27 34 35
1 40 2 4 7 8 11 12 13 17 19 20 21 27 34 35
1 40 2 4 7 8 10 12 13 17 19 20 21 26 27 34 35
1 40 2 4 7 8 11 12 13 17 19 20 21 26 27 34 35
1 40 2 6 8 11 12 13 15 19 20 21 27 34 35
1 40 2 6 8 11 12 13 15 19 20 21 26 27 34 35
1 40 2 6 8 9 10 12 13 17 19 20 21 27 35
1 40 2 6 8 11 12 13 17 19 20 21 27 34 35
1 40 2 6 8 10 12 13 17 19 20 21 27 34 35
1 40 2 6 8 9 10 12 13 17 19 20 21 26 27 35
1 40 2 6 8 11 12 13 17 19 20 21 26 27 34 35
1 40 2 6 8 10 12 13 17 19 20 21 26 27 34 35
1 40 2 8 12 13 19 20 21 24 25 26 27 29 34
1 40 2 8 10 12 13 19 20 21 23 24 25 26 27 29 34
1 40 2 8 10 12 13 15 19 20 21 23 24 25 26 27 29 34
1 40 2 8 10 12 13 17 19 20 21 25 26 27 34 35
1 40 2 8 10 12 13 17 19 20 21 23 24 25 26 27 29 34
1 40 2 8 11 12 13 19 20 21 24 25 26 27 29 34
1 40 2 8 11 12 13 15 19 20 21 25 26 27 34 35
1 40 2 8 11 12 13 15 19 20 21 24 25 26 27 29 34
1 40 2 8 11 12 13 17 19 20 21 25 26 27 34 35
1 40 2 8 11 12 13 17 19 20 21 24 25 26 27 29 34
1 40 2 4 7 8 12 13 19 20 21 24 25 26 27 29 34
1 40 2 4 7 8 10 12 13 19 20 21 23 24 25 26 27 29 34
1 40 2 4 7 8 11 12 13 19 20 21 24 25 26 27 29 34
1 40 2 4 7 8 12 13 15 19 20 21 24 25 26 27 29 34
1 40 2 4 7 8 10 12 13 15 19 20 21 23 24 25 26 27 29 34
1 40 2 4 7 8 11 12 13 15 19 20 21 24 25 26 27 29 34
1 40 2 4 7 8 11 12 13 15 19 20 21 25 26 27 34 35
1 40 2 4 7 8 12 13 17 19 20 21 24 25 26 27 29 34
1 40 2 4 7 8 10 12 13 17 19 20 21 23 24 25 26 27 29 34
1 40 2 4 7 8 11 12 13 17 19 20 21 24 25 26 27 29 34
1 40 2 4 7 8 10 12 13 17 19 20 21 25 26 27 34 35
1 40 2 4 7 8 11 12 13 17 19 20 21 25 26 27 34 35
1 40 2 6 8 11 12 13 15 19 20 21 25 26 27 34 35
1 40 2 6 8 9 10 12 13 17 19 20 21 25 26 27 35
1 40 2 6 8 11 12 13 17 19 20 21 25 26 27 34 35
1 40 2 6 8 10 12 13 17 19 20 21 25 26 27 34 35
1 40 2 8 12 13 22 34
1 40 2 8 12 13 22 33
1 40 2 6 8 9 12 13 22 37
1 40 2 4 8 9 12 13 22 37
1 40 2 8 9 11 12 13 22
1 40 2 8 9 10 12 13 22 23
1 40 2 8 9 10 12 13 15 16 22 23
1 40 2 8 9 10 12 13 17 22 23
1 40 2 4 8 9 11 12 13 22 31
1 40 2 4 8 9 10 12 13 22 31
1 40 2 4 5 8 9 10 12 13 22 23
1 40 2 4 5 8 9 10 12 13 15 16 22 23
1 40 2 4 5 8 9 10 12 13 17 22 23
1 40 2 4 7 8 9 10 12 13 22 23
1 40 2 4 7 8 9 10 12 13 15 16 22 23
1 40 2 4 7 8 9 10 12 13 17 22 23
1 40 2 4 7 8 9 11 12 13 22
1 40 2 4 5 8 9 11 12 13 22
1 40 2 6 8 9 11 12 13 22
1 40 2 6 8 9 10 12 13 22 31
1 40 2 6 8 9 10 12 13 22 23
1 40 2 6 8 9 10 12 13 15 16 22 31
1 40 2 6 8 9 10 12 13 15 16 22 23
1 40 2 6 8 9 10 12 13 17 22 31
1 40 2 6 8 9 10 12 13 17 22 23
1 40 2 6 8 9 10 12 13 17 21 22 27 35
1 40 2 6 8 9 10 12 13 17 21 22 26 27 35
1 40 2 8 11 12 13 17 21 22 25 26 27 34 35
1 40 2 8 10 12 13 17 21 22 25 26 27 34 35
1 40 2 8 12 13 22 25 26 27 29 34
1 40 2 8 10 12 13 22 23 25 26 27 29 34
1 40 2 8 10 12 13 15 22 23 24 25 26 27 29 34
1 40 2 8 10 12 13 15 21 22 23 24 25 26 27 29 34
1 40 2 8 10 12 13 17 22 23 25 26 27 29 34
1 40 2 8 10 12 13 17 21 22 23 24 25 26 27 29 34
1 40 2 8 11 12 13 15 21 22 25 26 27 34 35
1 40 2 8 11 12 13 22 25 26 27 29 34
1 40 2 8 11 12 13 15 22 24 25 26 27 29 34
1 40 2 8 11 12 13 15 21 22 24 25 26 27 29 34
1 40 2 8 11 12 13 17 22 25 26 27 29 34
1 40 2 8 11 12 13 17 21 22 24 25 26 27 29 34
1 40 2 4 7 8 12 13 22 25 26 27 29 34
1 40 2 4 7 8 10 12 13 22 23 25 26 27 29 34
1 40 2 4 7 8 11 12 13 22 25 26 27 29 34
1 40 2 4 7 8 12 13 15 22 24 25 26 27 29 34
1 40 2 4 7 8 10 12 13 15 22 23 24 25 26 27 29 34
1 40 2 4 7 8 11 12 13 15 22 24 25 26 27 29 34
1 40 2 4 7 8 12 13 15 21 22 24 25 26 27 29 34
1 40 2 4 7 8 10 12 13 15 21 22 23 24 25 26 27 29 34
1 40 2 4 7 8 11 12 13 15 21 22 24 25 26 27 29 34
1 40 2 4 7 8 11 12 13 15 21 22 25 26 27 34 35
1 40 2 4 7 8 12 13 17 22 25 26 27 29 34
1 40 2 4 7 8 10 12 13 17 22 23 25 26 27 29 34
1 40 2 4 7 8 11 12 13 17 22 25 26 27 29 34
1 40 2 4 7 8 12 13 17 21 22 24 25 26 27 29 34
1 40 2 4 7 8 10 12 13 17 21 22 23 24 25 26 27 29 34
1 40 2 4 7 8 11 12 13 17 21 22 24 25 26 27 29 34
1 40 2 4 7 8 10 12 13 17 21 22 25 26 27 34 35
1 40 2 4 7 8 11 12 13 17 21 22 25 26 27 34 35
1 40 2 6 8 11 12 13 15 21 22 25 26 27 34 35
1 40 2 6 8 9 10 12 13 17 21 22 25 26 27 35
1 40 2 6 8 11 12 13 17 21 22 25 26 27 34 35
1 40 2 6 8 10 12 13 17 21 22 25 26 27 34 35
1 39 6 8 13 30 37
1 39 4 8 13 30 37
1 39 8 13 30 33
1 39 8 14 30
1 40 39 8 30
1 39 2 8 34
1 39 2 8 9 11
1 39 2 8 9 10 21 27 35
1 40 39 2 8 34
1 40 39 2 8 9 11
1 40 39 2 8 9 10 21 27 35
1 40 39 2 8 9 10 21 26 27 35
1 39 2 8 14 34
1 39 2 8 9 11 14
1 39 2 8 13 33
1 39 2 8 13 14 34
1 40 39 2 8 13 34
1 40 39 2 8 9 11 13
1 40 39 2 8 9 10 13 21 27 35
1 40 39 2 8 9 10 13 21 26 27 35
1 39 2 8 9 11 13 14
1 39 8 13 14 30
1 40 39 8 13 30
1 39 4 7 8 14 30
1 39 4 5 8 14 30
1 40 39 4 5 8 30
1 39 2 4 5 8 34
1 39 2 4 5 8 9 11
1 40 39 2 4 5 8 34
1 40 39 2 4 5 8 9 11
1 39 2 4 5 8 14 34
1 39 2 4 5 8 9 11 14
1 40 39 4 7 8 30
1 39 2 4 7 8 34
1 39 2 4 7 8 9 11
1 40 39 2 4 7 8 34
1 40 39 2 4 7 8 9 11
1 40 39 2 4 7 8 9 10 21 27 35
1 40 39 2 4 7 8 9 10 21 26 27 35
1 39 2 4 7 8 14 34
1 39 2 4 7 8 9 11 14
1 39 2 4 8 13 34 37
1 39 2 4 8 13 33 37
1 39 2 4 8 9 13 37
1 39 2 4 8 9 11 13 31
1 39 2 4 8 9 10 13 31
1 40 39 2 4 7 8 9 10 13 21 27 35
1 40 39 2 4 7 8 9 10 13 21 26 27 35
1 39 2 4 7 8 9 11 13 14
1 39 2 4 5 8 9 11 13 14
1 40 39 2 4 5 8 9 11 13
1 40 39 2 4 7 8 9 11 13
1 39 2 4 8 11 13 31 33
1 39 2 4 8 10 13 31 33
1 39 2 4 7 8 13 33
1 39 2 4 5 8 13 33
1 39 2 4 7 8 11 13 33
1 39 2 4 5 8 11 13 33
1 39 2 4 8 11 13 31 34
1 39 2 4 8 10 13 31 34
1 39 2 4 7 8 13 33 34
1 39 2 4 5 8 13 33 34
1 39 2 4 5 8 13 14 34
1 40 39 2 4 5 8 13 34
1 39 2 4 7 8 13 14 34
1 40 39 2 4 7 8 13 34
1 39 2 4 7 8 11 13 33 34
1 39 2 4 5 8 11 13 33 34
1 39 2 4 5 8 11 13 14 34
1 40 39 2 4 5 8 11 13 34
1 39 2 4 7 8 11 13 14 34
1 40 39 2 4 7 8 11 13 34
1 39 4 8 11 13 30 31
1 39 4 8 10 13 30 31
1 39 4 7 8 13 30 33
1 39 4 5 8 13 30 33
1 39 4 5 8 13 14 30
1 40 39 4 5 8 13 30
1 39 4 7 8 13 14 30
1 40 39 4 7 8 13 30
1 39 4 7 8 11 13 30 33
1 39 4 5 8 11 13 30 33
1 39 4 5 8 11 13 14 30
1 40 39 4 5 8 11 13 30
1 39 4 7 8 11 13 14 30
1 40 39 4 7 8 11 13 30
1 39 6 8 14 30
1 40 39 6 8 30
1 39 2 6 8 34
1 39 2 6 8 9 11
1 40 39 2 6 8 34
1 40 39 2 6 8 9 11
1 40 39 2 6 8 9 10 21 27 35
1 40 39 2 6 8 9 10 21 26 27 35
1 39 2 6 8 14 34
1 39 2 6 8 9 11 14
1 39 2 6 8 13 34 37
1 39 2 6 8 13 33
1 39 2 6 8 9 13 37
1 39 2 6 8 9 11 13 31
1 39 2 6 8 9 10 13 31
1 40 39 2 6 8 9 10 13 21 27 35
1 40 39 2 6 8 9 10 13 21 26 27 35
1 39 2 6 8 9 11 13 14
1 40 39 2 6 8 9 11 13
1 39 2 6 8 13 33 34
1 39 2 6 8 11 13 31 34
1 39 2 6 8 10 13 31 34
1 39 2 6 8 13 14 34
1 40 39 2 6 8 13 34
1 39 2 6 8 11 13 14 34
1 40 39 2 6 8 11 13 34
1 39 6 8 13 30 33
1 39 6 8 11 13 30 31
1 39 6 8 10 13 30 31
1 39 6 8 13 14 30
1 40 39 6 8 13 30
1 39 6 8 11 13 14 30
1 40 39 6 8 11 13 30
1 39 8 12 19 25 30 37 38
1 39 6 8 12 13 30 37
1 39 4 8 12 13 30 37
1 39 8 12 13 30 33
1 39 2 8 12 13 33
1 39 2 8 12 13 14 34
1 40 39 2 8 12 13 34
1 40 39 2 8 9 11 12 13
1 40 39 2 8 9 10 12 13 23
1 40 39 2 8 9 10 12 13 21 27 35
1 40 39 2 8 9 10 12 13 21 26 27 35
1 39 2 8 9 11 12 13 14
1 39 2 8 9 10 12 13 14 23
1 39 8 12 13 14 30
1 40 39 8 12 13 30
1 39 2 4 8 12 13 34 37
1 39 2 4 8 12 13 33 37
1 39 2 4 8 9 12 13 37
1 39 2 4 8 9 11 12 13 31
1 39 2 4 8 9 10 12 13 31
1 40 39 2 4 5 8 9 10 12 13 23
1 39 2 4 5 8 9 10 12 13 14 23
1 40 39 2 4 7 8 9 10 12 13 23
1 40 39 2 4 7 8 9 10 12 13 21 27 35
1 40 39 2 4 7 8 9 10 12 13 21 26 27 35
1 39 2 4 7 8 9 10 12 13 14 23
1 39 2 4 7 8 9 11 12 13 14
1 39 2 4 5 8 9 11 12 13 14
1 40 39 2 4 5 8 9 11 12 13
1 40 39 2 4 7 8 9 11 12 13
1 39 2 4 8 11 12 13 31 33
1 39 2 4 8 10 12 13 31 33
1 39 2 4 7 8 12 13 33
1 39 2 4 5 8 12 13 33
1 39 2 4 5 8 10 12 13 23 33
1 39 2 4 7 8 10 12 13 23 33
1 39 2 4 7 8 11 12 13 33
1 39 2 4 5 8 11 12 13 33
1 39 2 4 8 11 12 13 31 34
1 39 2 4 8 10 12 13 31 34
1 39 2 4 7 8 12 13 33 34
1 39 2 4 5 8 12 13 33 34
1 39 2 4 5 8 12 13 14 34
1 40 39 2 4 5 8 12 13 34
1 39 2 4 7 8 12 13 14 34
1 40 39 2 4 7 8 12 13 34
1 39 2 4 5 8 10 12 13 23 33 34
1 39 2 4 5 8 10 12 13 14 23 34
1 40 39 2 4 5 8 10 12 13 23 34
1 39 2 4 7 8 10 12 13 23 33 34
1 39 2 4 7 8 10 12 13 14 23 34
1 40 39 2 4 7 8 10 12 13 23 34
1 39 2 4 7 8 11 12 13 33 34
1 39 2 4 5 8 11 12 13 33 34
1 39 2 4 5 8 11 12 13 14 34
1 40 39 2 4 5 8 11 12 13 34
1 39 2 4 7 8 11 12 13 14 34
1 40 39 2 4 7 8 11 12 13 34
1 39 4 8 11 12 13 30 31
1 39 4 8 10 12 13 30 31
1 39 4 7 8 12 13 30 33
1 39 4 5 8 12 13 30 33
1 39 4 5 8 12 13 14 30
1 40 39 4 5 8 12 13 30
1 39 4 7 8 12 13 14 30
1 40 39 4 7 8 12 13 30
1 39 4 5 8 10 12 13 23 30 33
1 39 4 5 8 10 12 13 14 23 30
1 40 39 4 5 8 10 12 13 23 30
1 39 4 7 8 10 12 13 23 30 33
1 39 4 7 8 10 12 13 14 23 30
1 40 39 4 7 8 10 12 13 23 30
1 39 4 7 8 11 12 13 30 33
1 39 4 5 8 11 12 13 30 33
1 39 4 5 8 11 12 13 14 30
1 40 39 4 5 8 11 12 13 30
1 39 4 7 8 11 12 13 14 30
1 40 39 4 7 8 11 12 13 30
1 39 2 6 8 12 13 34 37
1 39 2 6 8 12 13 33
1 39 2 6 8 9 12 13 37
1 39 2 6 8 9 11 12 13 31
1 39 2 6 8 9 10 12 13 31
1 40 39 2 6 8 9 10 12 13 23
1 40 39 2 6 8 9 10 12 13 21 27 35
1 40 39 2 6 8 9 10 12 13 21 26 27 35
1 39 2 6 8 9 10 12 13 14 23
1 39 2 6 8 9 11 12 13 14
1 40 39 2 6 8 9 11 12 13
1 39 2 6 8 12 13 33 34
1 39 2 6 8 11 12 13 31 34
1 39 2 6 8 10 12 13 31 34
1 39 2 6 8 12 13 14 34
1 40 39 2 6 8 12 13 34
1 40 39 2 6 8 10 12 13 23 34
1 39 2 6 8 10 12 13 14 23 34
1 39 2 6 8 11 12 13 14 34
1 40 39 2 6 8 11 12 13 34
1 39 6 8 12 13 30 33
1 39 6 8 11 12 13 30 31
1 39 6 8 10 12 13 30 31
1 39 6 8 12 13 14 30
1 40 39 6 8 12 13 30
1 40 39 6 8 10 12 13 23 30
1 39 6 8 10 12 13 14 23 30
1 39 6 8 11 12 13 14 30
1 40 39 6 8 11 12 13 30
1 40 39 2 8 9 10 12 13 19 20 21 27 35
1 40 39 2 8 9 10 12 13 19 20 21 26 27 35
1 40 39 2 4 7 8 9 10 12 13 19 20 21 27 35
1 40 39 2 4 7 8 9 10 12 13 19 20 21 26 27 35
1 40 39 2 6 8 9 10 12 13 19 20 21 27 35
1 40 39 2 6 8 9 10 12 13 19 20 21 26 27 35
1 39 2 8 12 19 25 38
1 40 39 2 8 9 10 12 13 19 20 21 25 26 27 35
1 40 39 2 4 7 8 9 10 12 13 19 20 21 25 26 27 35
1 40 39 2 6 8 9 10 12 13 19 20 21 25 26 27 35
1 39 8 11 12 19 25 30 31 38
1 39 8 10 12 19 25 30 31 38
1 39 6 8 10 12 13 19 20 21 24 25 26 27 29 30 31
1 39 6 8 11 12 13 19 20 21 24 25 26 27 29 30 31
1 39 6 8 10 12 13 19 20 21 24 25 26 27 29 30 31 33
1 39 6 8 12 13 19 20 21 24 25 26 27 29 30 37
1 39 6 8 12 13 22 30 37
1 39 4 8 12 13 22 30 37
1 39 8 12 13 22 30 33
1 39 2 8 12 13 22 33
1 39 2 8 12 13 14 22 34
1 40 39 2 8 12 13 22 34
1 40 39 2 8 9 11 12 13 22
1 40 39 2 8 9 10 12 13 22 23
1 40 39 2 8 9 10 12 13 21 22 27 35
1 40 39 2 8 9 10 12 13 21 22 26 27 35
1 39 2 8 9 11 12 13 14 22
1 39 2 8 9 10 12 13 14 22 23
1 39 8 12 13 14 22 30
1 40 39 8 12 13 22 30
1 39 2 4 8 12 13 22 34 37
1 39 2 4 8 12 13 22 33 37
1 39 2 4 8 9 12 13 22 37
1 39 2 4 8 9 11 12 13 22 31
1 39 2 4 8 9 10 12 13 22 31
1 40 39 2 4 5 8 9 10 12 13 22 23
1 39 2 4 5 8 9 10 12 13 14 22 23
1 40 39 2 4 7 8 9 10 12 13 22 23
1 40 39 2 4 7 8 9 10 12 13 21 22 27 35
1 40 39 2 4 7 8 9 10 12 13 21 22 26 27 35
1 39 2 4 7 8 9 10 12 13 14 22 23
1 39 2 4 7 8 9 11 12 13 14 22
1 39 2 4 5 8 9 11 12 13 14 22
1 40 39 2 4 5 8 9 11 12 13 22
1 40 39 2 4 7 8 9 11 12 13 22
1 39 2 4 8 11 12 13 22 31 33
1 39 2 4 8 10 12 13 22 31 33
1 39 2 4 7 8 12 13 22 33
1 39 2 4 5 8 12 13 22 33
1 39 2 4 5 8 10 12 13 22 23 33
1 39 2 4 7 8 10 12 13 22 23 33
1 39 2 4 7 8 11 12 13 22 33
1 39 2 4 5 8 11 12 13 22 33
1 39 2 4 8 11 12 13 22 31 34
1 39 2 4 8 10 12 13 22 31 34
1 39 2 4 7 8 12 13 22 33 34
1 39 2 4 5 8 12 13 22 33 34
1 39 2 4 5 8 12 13 14 22 34
1 40 39 2 4 5 8 12 13 22 34
1 39 2 4 7 8 12 13 14 22 34
1 40 39 2 4 7 8 12 13 22 34
1 39 2 4 5 8 10 12 13 22 23 33 34
1 39 2 4 5 8 10 12 13 14 22 23 34
1 40 39 2 4 5 8 10 12 13 22 23 34
1 39 2 4 7 8 10 12 13 22 23 33 34
1 39 2 4 7 8 10 12 13 14 22 23 34
1 40 39 2 4 7 8 10 12 13 22 23 34
1 39 2 4 7 8 11 12 13 22 33 34
1 39 2 4 5 8 11 12 13 22 33 34
1 39 2 4 5 8 11 12 13 14 22 34
1 40 39 2 4 5 8 11 12 13 22 34
1 39 2 4 7 8 11 12 13 14 22 34
1 40 39 2 4 7 8 11 12 13 22 34
1 39 4 8 11 12 13 22 30 31
1 39 4 8 10 12 13 22 30 31
1 39 4 7 8 12 13 22 30 33
1 39 4 5 8 12 13 22 30 33
1 39 4 5 8 12 13 14 22 30
1 40 39 4 5 8 12 13 22 30
1 39 4 7 8 12 13 14 22 30
1 40 39 4 7 8 12 13 22 30
1 39 4 5 8 10 12 13 22 23 30 33
1 39 4 5 8 10 12 13 14 22 23 30
1 40 39 4 5 8 10 12 13 22 23 30
1 39 4 7 8 10 12 13 22 23 30 33
1 39 4 7 8 10 12 13 14 22 23 30
1 40 39 4 7 8 10 12 13 22 23 30
1 39 4 7 8 11 12 13 22 30 33
1 39 4 5 8 11 12 13 22 30 33
1 39 4 5 8 11 12 13 14 22 30
1 40 39 4 5 8 11 12 13 22 30
1 39 4 7 8 11 12 13 14 22 30
1 40 39 4 7 8 11 12 13 22 30
1 39 2 6 8 12 13 22 34 37
1 39 2 6 8 12 13 22 33
1 39 2 6 8 9 12 13 22 37
1 39 2 6 8 9 11 12 13 22 31
1 39 2 6 8 9 10 12 13 22 31
1 40 39 2 6 8 9 10 12 13 22 23
1 40 39 2 6 8 9 10 12 13 21 22 27 35
1 40 39 2 6 8 9 10 12 13 21 22 26 27 35
1 39 2 6 8 9 10 12 13 14 22 23
1 39 2 6 8 9 11 12 13 14 22
1 40 39 2 6 8 9 11 12 13 22
1 39 2 6 8 12 13 22 33 34
1 39 2 6 8 11 12 13 22 31 34
1 39 2 6 8 10 12 13 22 31 34
1 39 2 6 8 12 13 14 22 34
1 40 39 2 6 8 12 13 22 34
1 40 39 2 6 8 10 12 13 22 23 34
1 39 2 6 8 10 12 13 14 22 23 34
1 39 2 6 8 11 12 13 14 22 34
1 40 39 2 6 8 11 12 13 22 34
1 39 6 8 12 13 22 30 33
1 39 6 8 11 12 13 22 30 31
1 39 6 8 10 12 13 22 30 31
1 39 6 8 12 13 14 22 30
1 40 39 6 8 12 13 22 30
1 40 39 6 8 10 12 13 22 23 30
1 39 6 8 10 12 13 14 22 23 30
1 39 6 8 11 12 13 14 22 30
1 40 39 6 8 11 12 13 22 30
1 39 2 8 12 22 25 38
1 40 39 2 8 9 10 12 13 21 22 25 26 27 35
1 40 39 2 4 7 8 9 10 12 13 21 22 25 26 27 35
1 40 39 2 6 8 9 10 12 13 21 22 25 26 27 35
1 39 8 12 22 25 30 33 38
1 39 8 11 12 22 25 30 31 38
1 39 8 10 12 22 25 30 31 38
1 39 6 8 10 12 13 22 25 26 27 29 30 31
1 39 6 8 10 12 13 21 22 24 25 26 27 29 30 31
1 39 6 8 11 12 13 22 25 26 27 29 30 31
1 39 6 8 11 12 13 21 22 24 25 26 27 29 30 31
1 39 6 8 10 12 13 22 25 26 27 29 30 31 33
1 39 6 8 10 12 13 21 22 24 25 26 27 29 30 31 33
1 39 6 8 12 13 22 25 26 27 29 30 37
1 39 6 8 12 13 21 22 24 25 26 27 29 30 37
8 9 11 18 19 20 21 24 25 26 27 29
8 9 10 12 13 14 15 18 19 20 21 23 24 25 26 27 29
4 5 8 9 11 18 19 20 21 24 25 26 27 29
3 4 5 8 9 11 18 19 20 21 24 25 26 27 29
3 6 8 9 11 18 19 20 21 24 25 26 27 29
2 8 18 19 20 21 24 25 26 27 29 34
2 4 5 8 18 19 20 21 24 25 26 27 29 34
2 6 8 18 19 20 21 24 25 26 27 29 34
1 40 8 11 18 19 20 21 24 25 26 27 29 30
1 40 8 11 13 18 19 20 21 24 25 26 27 29 30
1 8 11 13 18 19 20 21 24 25 26 27 29 30 33
1 40 4 7 8 11 18 19 20 21 24 25 26 27 29 30
1 4 8 13 18 19 20 21 24 25 26 27 29 30 37
1 4 8 11 13 18 19 20 21 24 25 26 27 29 30 31
1 4 7 8 13 18 19 20 21 24 25 26 27 29 30 33
1 40 4 7 8 13 18 19 20 21 24 25 26 27 29 30
1 4 7 8 11 13 18 19 20 21 24 25 26 27 29 30 33
1 40 4 7 8 11 13 18 19 20 21 24 25 26 27 29 30
1 40 6 8 11 18 19 20 21 24 25 26 27 29 30
1 6 8 13 18 19 20 21 24 25 26 27 29 30 34 37
1 6 8 13 18 19 20 21 24 25 26 27 29 30 33
1 39 6 8 13 18 19 20 21 24 25 26 27 29 30 37
1 40 6 8 13 18 19 20 21 24 25 26 27 29 30
1 39 6 8 11 13 18 19 20 21 24 25 26 27 29 30 31
1 39 6 8 10 13 18 19 20 21 24 25 26 27 29 30 31
1 40 39 6 8 13 18 19 20 21 24 25 26 27 29 30
1 40 39 6 8 11 13 18 19 20 21 24 25 26 27 29 30
1 40 3 6 8 13 18 19 20 21 24 25 26 27 29 30
1 40 3 6 8 11 13 18 19 20 21 24 25 26 27 29 30
1 6 8 13 18 19 20 21 24 25 26 27 29 30 33 34
1 6 8 11 13 18 19 20 21 24 25 26 27 29 30 31 34
1 6 8 10 13 18 19 20 21 24 25 26 27 29 30 31 34
1 40 6 8 13 18 19 20 21 24 25 26 27 29 30 34
1 40 6 8 11 13 18 19 20 21 24 25 26 27 29 30 34
1 39 2 8 12 18 19 21 24 25 27 29 38
1 8 12 18 19 21 24 25 27 29 30 34 37 38
1 8 12 18 19 21 24 25 27 29 30 33 38
1 39 8 12 18 19 21 24 25 27 29 30 37 38
1 40 8 12 18 19 21 24 25 27 29 30 38
1 4 8 12 13 18 19 20 21 24 25 26 27 29 30 37
1 4 8 11 12 13 18 19 20 21 24 25 26 27 29 30 31
1 40 8 12 13 18 19 20 21 24 25 26 27 29 30
1 39 8 11 12 18 19 21 24 25 27 29 30 31 38
1 39 8 10 12 18 19 21 24 25 27 29 30 31 38
1 39 8 12 14 18 19 21 24 25 27 29 30 38
1 40 39 8 12 18 19 21 24 25 27 29 30 38
1 40 39 8 12 13 18 19 20 21 24 25 26 27 29 30
1 39 8 10 12 14 18 19 21 23 24 25 27 29 30 38
1 40 39 8 10 12 18 19 21 23 24 25 27 29 30 38
1 40 39 8 10 12 13 18 19 20 21 23 24 25 26 27 29 30
1 39 6 8 10 12 13 18 19 20 21 24 25 26 27 29 30 31
1 39 8 11 12 14 18 19 21 24 25 27 29 30 38
1 40 39 8 11 12 18 19 21 24 25 27 29 30 38
1 40 39 8 11 12 13 18 19 20 21 24 25 26 27 29 30
1 39 6 8 11 12 13 18 19 20 21 24 25 26 27 29 30 31
1 39 4 8 11 12 13 18 19 20 21 24 25 26 27 29 30 31
1 39 6 8 12 13 18 19 20 21 24 25 26 27 29 30 37
1 39 4 8 12 13 18 19 20 21 24 25 26 27 29 30 37
1 40 3 8 12 18 19 21 24 25 27 29 30 38
1 40 3 6 8 12 13 18 19 20 21 24 25 26 27 29 30
1 40 3 4 7 8 12 13 18 19 20 21 24 25 26 27 29 30
1 40 3 8 10 12 18 19 21 23 24 25 27 29 30 38
1 40 3 6 8 10 12 13 18 19 20 21 23 24 25 26 27 29 30
1 40 3 4 7 8 10 12 13 18 19 20 21 23 24 25 26 27 29 30
1 40 3 8 11 12 18 19 21 24 25 27 29 30 38
1 40 3 6 8 11 12 13 18 19 20 21 24 25 26 27 29 30
1 40 3 4 7 8 11 12 13 18 19 20 21 24 25 26 27 29 30
1 3 4 8 11 12 13 18 19 20 21 24 25 26 27 29 30 31
1 3 4 8 12 13 18 19 20 21 24 25 26 27 29 30 37
1 8 12 13 18 19 20 21 24 25 26 27 29 30 33
1 8 12 18 19 21 24 25 27 29 30 33 34 38
1 8 11 12 18 19 21 24 25 27 29 30 31 34 38
1 8 10 12 18 19 21 24 25 27 29 30 31 34 38
1 40 8 12 18 19 21 24 25 27 29 30 34 38
1 40 8 12 13 18 19 20 21 24 25 26 27 29 30 34
1 40 8 10 12 18 19 21 23 24 25 27 29 30 34 38
1 40 8 10 12 13 18 19 20 21 23 24 25 26 27 29 30 34
1 6 8 10 12 13 18 19 20 21 24 25 26 27 29 30 31 34
1 40 8 11 12 18 19 21 24 25 27 29 30 34 38
1 40 8 11 12 13 18 19 20 21 24 25 26 27 29 30 34
1 6 8 11 12 13 18 19 20 21 24 25 26 27 29 30 31 34
1 4 8 11 12 13 18 19 20 21 24 25 26 27 29 30 31 34
1 8 12 13 18 19 20 21 24 25 26 27 29 30 33 34
1 6 8 12 13 18 19 20 21 24 25 26 27 29 30 34 37
1 4 8 12 13 18 19 20 21 24 25 26 27 29 30 34 37
1 39 2 8 12 18 19 21 24 25 28 38
1 8 12 18 19 21 24 25 28 30 34 37 38
1 8 12 18 19 21 24 25 28 30 33 38
1 39 8 12 18 19 21 24 25 28 30 37 38
1 40 8 12 18 19 21 24 25 28 30 38
1 39 8 11 12 18 19 21 24 25 28 30 31 38
1 39 8 10 12 18 19 21 24 25 28 30 31 38
1 39 8 12 14 18 19 21 24 25 28 30 38
1 40 39 8 12 18 19 21 24 25 28 30 38
1 39 8 10 12 14 18 19 21 23 24 25 28 30 38
1 40 39 8 10 12 18 19 21 23 24 25 28 30 38
1 39 8 11 12 14 18 19 21 24 25 28 30 38
1 40 39 8 11 12 18 19 21 24 25 28 30 38
1 40 3 8 12 18 19 21 24 25 28 30 38
1 40 3 8 10 12 18 19 21 23 24 25 28 30 38
1 40 3 8 11 12 18 19 21 24 25 28 30 38
1 8 12 18 19 21 24 25 28 30 33 34 38
1 8 11 12 18 19 21 24 25 28 30 31 34 38
1 8 10 12 18 19 21 24 25 28 30 31 34 38
1 40 8 12 18 19 21 24 25 28 30 34 38
1 40 8 10 12 18 19 21 23 24 25 28 30 34 38
1 40 8 11 12 18 19 21 24 25 28 30 34 38
 Analysis time: 47.585s