 Minimal siphons 
3 9 19 23
2 4
1 9 19 20 22 24
12 13 14 15 16 17 18 19 20 21
9 10
8 9 11
1 8 20 24
1 6
1 27 8 12 13 14 15 16 17 18 19
1 28 8 12 13 14 15 16 17 18 19
1 29 8 12 13 14 15 16 17 18 19
1 30 8 12 13 14 15 16 17 18 19
1 31 8 12 13 14 15 16 17 18 19
1 32 8 12 13 14 15 16 17 18 19
1 33 8 12 13 14 15 16 17 18 19
1 34 8 12 13 14 15 16 17 18 19
1 35 8 12 13 14 15 16 17 18 19
1 36 8 12 13 14 15 16 17 18 19
1 9 14 19 22
1 2 6
1 26 2 8 12 13 14 19
3 4 8 20 24 25
3 8 13 20 25
3 5
1 3 5 7
1 2 3 7
1 2 3 6
1 3 5 6
3 4 5
2 3 4
3 4 9 19 20 22 25
1 3 9 19 20 22 25
 Minimal traps 
1 4 8 13 18 24 25
2 4
3 8 13 20 25
12 13 14 15 16 17 18 19 20 21
8 9 11
9 10
3 9 19 23
3 5
2 3 5
1 3 8 13 18 24 25
1 26 8 13 18 19 23 24 25
1 8 14 18 24
1 9 14 19 22
1 6
1 27 8 14 19 22
1 28 8 14 19 22
1 29 8 14 19 22
1 30 8 14 19 22
1 31 8 14 19 22
1 32 8 14 19 22
1 33 8 14 19 22
1 34 8 14 19 22
1 35 8 14 19 22
1 36 8 14 19 22
1 36 8 12 13 14 15 16 17 18 19
1 35 8 12 13 14 15 16 17 18 19
1 34 8 12 13 14 15 16 17 18 19
1 33 8 12 13 14 15 16 17 18 19
1 32 8 12 13 14 15 16 17 18 19
1 31 8 12 13 14 15 16 17 18 19
1 30 8 12 13 14 15 16 17 18 19
1 29 8 12 13 14 15 16 17 18 19
1 28 8 12 13 14 15 16 17 18 19
1 27 8 12 13 14 15 16 17 18 19
1 26 2 8 19 23
1 27 26 8 19 23
1 28 26 8 19 23
1 29 26 8 19 23
1 30 26 8 19 23
1 31 26 8 19 23
1 32 26 8 19 23
1 33 26 8 19 23
1 34 26 8 19 23
1 35 26 8 19 23
1 36 26 8 19 23
1 26 8 14 19 22
1 26 8 14 18 19 20 21 22
1 27 26 8 14 18 19 23
1 28 26 8 14 18 19 23
1 29 26 8 14 18 19 23
1 30 26 8 14 18 19 23
1 31 26 8 14 18 19 23
1 32 26 8 14 18 19 23
1 33 26 8 14 18 19 23
1 34 26 8 14 18 19 23
1 35 26 8 14 18 19 23
1 36 26 8 14 18 19 23
1 26 8 13 19 20 22 25
1 26 2 8 12 13 14 19
1 36 26 8 13 19 22 25
1 36 26 8 12 13 19 25
1 36 26 8 12 13 14 19
1 36 26 8 13 14 19 22
1 36 26 8 13 14 19 23
1 35 26 8 13 19 22 25
1 35 26 8 12 13 19 25
1 35 26 8 12 13 14 19
1 35 26 8 13 14 19 22
1 35 26 8 13 14 19 23
1 34 26 8 13 19 22 25
1 34 26 8 12 13 19 25
1 34 26 8 12 13 14 19
1 34 26 8 13 14 19 22
1 34 26 8 13 14 19 23
1 33 26 8 13 19 22 25
1 33 26 8 12 13 19 25
1 33 26 8 12 13 14 19
1 33 26 8 13 14 19 22
1 33 26 8 13 14 19 23
1 32 26 8 13 19 22 25
1 32 26 8 12 13 19 25
1 32 26 8 12 13 14 19
1 32 26 8 13 14 19 22
1 32 26 8 13 14 19 23
1 31 26 8 13 19 22 25
1 31 26 8 12 13 19 25
1 31 26 8 12 13 14 19
1 31 26 8 13 14 19 22
1 31 26 8 13 14 19 23
1 30 26 8 13 19 22 25
1 30 26 8 12 13 19 25
1 30 26 8 12 13 14 19
1 30 26 8 13 14 19 22
1 30 26 8 13 14 19 23
1 29 26 8 13 19 22 25
1 29 26 8 12 13 19 25
1 29 26 8 12 13 14 19
1 29 26 8 13 14 19 22
1 29 26 8 13 14 19 23
1 28 26 8 13 19 22 25
1 28 26 8 12 13 19 25
1 28 26 8 12 13 14 19
1 28 26 8 13 14 19 22
1 28 26 8 13 14 19 23
1 27 26 8 13 19 22 25
1 27 26 8 12 13 19 25
1 27 26 8 12 13 14 19
1 27 26 8 13 14 19 22
1 27 26 8 13 14 19 23
1 26 2 8 12 13 19 20 25
1 26 8 13 18 19 22 24 25
1 26 8 12 13 18 19 24 25
1 36 26 8 12 13 14 18 19
1 35 26 8 12 13 14 18 19
1 34 26 8 12 13 14 18 19
1 33 26 8 12 13 14 18 19
1 32 26 8 12 13 14 18 19
1 31 26 8 12 13 14 18 19
1 30 26 8 12 13 14 18 19
1 29 26 8 12 13 14 18 19
1 28 26 8 12 13 14 18 19
1 27 26 8 12 13 14 18 19
1 36 26 2 8 12 13 14 18 19
1 35 26 2 8 12 13 14 18 19
1 34 26 2 8 12 13 14 18 19
1 33 26 2 8 12 13 14 18 19
1 32 26 2 8 12 13 14 18 19
1 31 26 2 8 12 13 14 18 19
1 30 26 2 8 12 13 14 18 19
1 29 26 2 8 12 13 14 18 19
1 28 26 2 8 12 13 14 18 19
1 27 26 2 8 12 13 14 18 19
1 36 26 6 8 12 13 14 18 19
1 35 26 6 8 12 13 14 18 19
1 34 26 6 8 12 13 14 18 19
1 33 26 6 8 12 13 14 18 19
1 32 26 6 8 12 13 14 18 19
1 31 26 6 8 12 13 14 18 19
1 30 26 6 8 12 13 14 18 19
1 29 26 6 8 12 13 14 18 19
1 28 26 6 8 12 13 14 18 19
1 27 26 6 8 12 13 14 18 19
1 26 6 8 12 13 14 18 19 20 21
1 26 8 13 14 18 19 20 21 22
1 36 26 8 13 14 18 19 23
1 35 26 8 13 14 18 19 23
1 34 26 8 13 14 18 19 23
1 33 26 8 13 14 18 19 23
1 32 26 8 13 14 18 19 23
1 31 26 8 13 14 18 19 23
1 30 26 8 13 14 18 19 23
1 29 26 8 13 14 18 19 23
1 28 26 8 13 14 18 19 23
1 27 26 8 13 14 18 19 23
1 3 6 7
1 2 3 7
1 2 3 5
1 3 5 6
1 27 3 8 19 23
1 28 3 8 19 23
1 29 3 8 19 23
1 30 3 8 19 23
1 31 3 8 19 23
1 32 3 8 19 23
1 33 3 8 19 23
1 34 3 8 19 23
1 35 3 8 19 23
1 36 3 8 19 23
1 36 3 8 13 19 22 25
1 36 26 3 7 8 12 13 14 19
1 36 26 3 5 8 12 13 14 19
1 36 3 7 8 13 14 19 22
1 36 3 8 13 14 19 23
1 35 3 8 13 19 22 25
1 35 26 3 7 8 12 13 14 19
1 35 26 3 5 8 12 13 14 19
1 35 3 7 8 13 14 19 22
1 35 3 8 13 14 19 23
1 34 3 8 13 19 22 25
1 34 26 3 7 8 12 13 14 19
1 34 26 3 5 8 12 13 14 19
1 34 3 7 8 13 14 19 22
1 34 3 8 13 14 19 23
1 33 3 8 13 19 22 25
1 33 26 3 7 8 12 13 14 19
1 33 26 3 5 8 12 13 14 19
1 33 3 7 8 13 14 19 22
1 33 3 8 13 14 19 23
1 32 3 8 13 19 22 25
1 32 26 3 7 8 12 13 14 19
1 32 26 3 5 8 12 13 14 19
1 32 3 7 8 13 14 19 22
1 32 3 8 13 14 19 23
1 31 3 8 13 19 22 25
1 31 26 3 7 8 12 13 14 19
1 31 26 3 5 8 12 13 14 19
1 31 3 7 8 13 14 19 22
1 31 3 8 13 14 19 23
1 30 3 8 13 19 22 25
1 30 26 3 7 8 12 13 14 19
1 30 26 3 5 8 12 13 14 19
1 30 3 7 8 13 14 19 22
1 30 3 8 13 14 19 23
1 29 3 8 13 19 22 25
1 29 26 3 7 8 12 13 14 19
1 29 26 3 5 8 12 13 14 19
1 29 3 7 8 13 14 19 22
1 29 3 8 13 14 19 23
1 28 3 8 13 19 22 25
1 28 26 3 7 8 12 13 14 19
1 28 26 3 5 8 12 13 14 19
1 28 3 7 8 13 14 19 22
1 28 3 8 13 14 19 23
1 27 3 8 13 19 22 25
1 27 26 3 7 8 12 13 14 19
1 27 26 3 5 8 12 13 14 19
1 27 3 7 8 13 14 19 22
1 27 3 8 13 14 19 23
1 36 3 8 12 13 15 16 17 18 19 25
1 35 3 8 12 13 15 16 17 18 19 25
1 34 3 8 12 13 15 16 17 18 19 25
1 33 3 8 12 13 15 16 17 18 19 25
1 32 3 8 12 13 15 16 17 18 19 25
1 31 3 8 12 13 15 16 17 18 19 25
1 30 3 8 12 13 15 16 17 18 19 25
1 29 3 8 12 13 15 16 17 18 19 25
1 28 3 8 12 13 15 16 17 18 19 25
1 27 3 8 12 13 15 16 17 18 19 25
1 4 6
1 2 4
1 27 4 8 19 23
1 28 4 8 19 23
1 29 4 8 19 23
1 30 4 8 19 23
1 31 4 8 19 23
1 32 4 8 19 23
1 33 4 8 19 23
1 34 4 8 19 23
1 35 4 8 19 23
1 36 4 8 19 23
1 4 8 13 19 20 22 25
1 36 4 8 13 19 22 25
1 36 26 4 8 12 13 14 19
1 36 4 8 13 14 19 22
1 36 4 8 13 14 19 23
1 35 4 8 13 19 22 25
1 35 26 4 8 12 13 14 19
1 35 4 8 13 14 19 22
1 35 4 8 13 14 19 23
1 34 4 8 13 19 22 25
1 34 26 4 8 12 13 14 19
1 34 4 8 13 14 19 22
1 34 4 8 13 14 19 23
1 33 4 8 13 19 22 25
1 33 26 4 8 12 13 14 19
1 33 4 8 13 14 19 22
1 33 4 8 13 14 19 23
1 32 4 8 13 19 22 25
1 32 26 4 8 12 13 14 19
1 32 4 8 13 14 19 22
1 32 4 8 13 14 19 23
1 31 4 8 13 19 22 25
1 31 26 4 8 12 13 14 19
1 31 4 8 13 14 19 22
1 31 4 8 13 14 19 23
1 30 4 8 13 19 22 25
1 30 26 4 8 12 13 14 19
1 30 4 8 13 14 19 22
1 30 4 8 13 14 19 23
1 29 4 8 13 19 22 25
1 29 26 4 8 12 13 14 19
1 29 4 8 13 14 19 22
1 29 4 8 13 14 19 23
1 28 4 8 13 19 22 25
1 28 26 4 8 12 13 14 19
1 28 4 8 13 14 19 22
1 28 4 8 13 14 19 23
1 27 4 8 13 19 22 25
1 27 26 4 8 12 13 14 19
1 27 4 8 13 14 19 22
1 27 4 8 13 14 19 23
1 27 4 8 13 14 19 20 21 22
1 28 4 8 13 14 19 20 21 22
1 29 4 8 13 14 19 20 21 22
1 30 4 8 13 14 19 20 21 22
1 31 4 8 13 14 19 20 21 22
1 32 4 8 13 14 19 20 21 22
1 33 4 8 13 14 19 20 21 22
1 34 4 8 13 14 19 20 21 22
1 35 4 8 13 14 19 20 21 22
1 36 4 8 13 14 19 20 21 22
1 36 4 8 12 13 15 16 17 18 19 25
1 35 4 8 12 13 15 16 17 18 19 25
1 34 4 8 12 13 15 16 17 18 19 25
1 33 4 8 12 13 15 16 17 18 19 25
1 32 4 8 12 13 15 16 17 18 19 25
1 31 4 8 12 13 15 16 17 18 19 25
1 30 4 8 12 13 15 16 17 18 19 25
1 29 4 8 12 13 15 16 17 18 19 25
1 28 4 8 12 13 15 16 17 18 19 25
1 27 4 8 12 13 15 16 17 18 19 25
1 27 4 8 13 14 18 19 20 21 22
1 28 4 8 13 14 18 19 20 21 22
1 29 4 8 13 14 18 19 20 21 22
1 30 4 8 13 14 18 19 20 21 22
1 31 4 8 13 14 18 19 20 21 22
1 32 4 8 13 14 18 19 20 21 22
1 33 4 8 13 14 18 19 20 21 22
1 34 4 8 13 14 18 19 20 21 22
1 35 4 8 13 14 18 19 20 21 22
1 36 4 8 13 14 18 19 20 21 22
 Analysis time: 5.253s