18/09/2021 20:29:29[DEBUG] pflow_file:  ../test_networks/20210918-201424_23/net.pflow  
18/09/2021 20:29:29[DEBUG] output_folder:  ../test_networks/20210918-201424_23/  
18/09/2021 20:29:29[DEBUG] html_path:  ../test_networks/20210918-201424_23/  
18/09/2021 20:29:29[DEBUG] txt_path:  ../test_networks/20210918-201424_23/txt_info  

--------------------------------------------------------------------------   
18/09/2021 20:29:29[INFO] Ejecutando petrinator para conocer estado de la red...   
--------------------------------------------------------------------------
   
18/09/2021 20:29:32[INFO] SIFONES   
+----+-----+-----------------------------------+
| ID | Nro |               Plazas              |
+----+-----+-----------------------------------+
| 0  |  7  | ['P2', 'P5', 'P11', 'P18', 'P19'] |
+----+-----+-----------------------------------+ 

18/09/2021 20:29:32[INFO] T INVARIANTES   
+----+----+----+----+----+----+----+----+----+----+-----+-----+-----+-----+
| T0 | T1 | T2 | T3 | T4 | T5 | T6 | T7 | T8 | T9 | T10 | T11 | T12 | T13 |
+----+----+----+----+----+----+----+----+----+----+-----+-----+-----+-----+
| 1  | 1  | 1  | 1  | 0  | 0  | 0  | 0  | 0  | 0  |  0  |  0  |  0  |  0  |
| 0  | 0  | 0  | 0  | 1  | 1  | 1  | 1  | 0  | 0  |  0  |  0  |  1  |  1  |
| 0  | 0  | 0  | 0  | 0  | 0  | 0  | 0  | 1  | 1  |  1  |  1  |  1  |  1  |
+----+----+----+----+----+----+----+----+----+----+-----+-----+-----+-----+ 

18/09/2021 20:29:32[INFO] Supervisores para agregar   
+-----+---------+---------------+---------------+-----------------------------------+
|  ID | Marcado |  T - Entrada  |   T - Salida  |         Sifon a controlar         |
+-----+---------+---------------+---------------+-----------------------------------+
| P21 |    1    | ['T2', 'T11'] | ['T1', 'T10'] | ['P2', 'P5', 'P11', 'P18', 'P19'] |
+-----+---------+---------------+---------------+-----------------------------------+ 

18/09/2021 20:29:32[INFO] Supervisores agregados   
+-----+-------+---------+-------------+------------+----------------+
| Nro | Plaza | Marcado | T - Entrada | T - Salida | MAL supervisor |
+-----+-------+---------+-------------+------------+----------------+
+-----+-------+---------+-------------+------------+----------------+ 

18/09/2021 20:29:32[INFO] Supervisores eliminados   
+-----+-------+---------+-------------+------------+----------------+
| Nro | Plaza | Marcado | T - Entrada | T - Salida | MAL supervisor |
+-----+-------+---------+-------------+------------+----------------+
+-----+-------+---------+-------------+------------+----------------+ 

18/09/2021 20:29:32[INFO] Ejecutando accion...   
18/09/2021 20:29:32[ACTION] Agrego supervisor con menor numero de arcos de salida (MNAS)   
18/09/2021 20:29:32[INFO] Supervisor con menor cantidad de arcos de salida agregado 0   

--------------------------------------------------------------------------   
18/09/2021 20:29:32[INFO] Ejecutando petrinator para conocer estado de la red...   
--------------------------------------------------------------------------
   
--------------------------------------------------------------------------
   
18/09/2021 20:29:35[INFO] Calculando recompensa..   
18/09/2021 20:29:35[REWARD] No hay mas deadlock, recompensa 100   

--------------------------------------------------------------------------
   
18/09/2021 20:29:35[STATE] Se llego al estado deseado, NO HAY MAS DEADLOCK   

--------------------------------------------------------------------------
   
+--------+---------+-------------------+----------------+---------+---------+------------------------+
| Plazas | Estados | Tokens trabajando | Sifones vacios | Sifones | Trampas | Supervisores agregados |
+--------+---------+-------------------+----------------+---------+---------+------------------------+
|   21   |    28   |         43        |       0        |    11   |    14   |           1            |
+--------+---------+-------------------+----------------+---------+---------+------------------------+ 
+------------------------------+------------+-----------------+--------------------+-----------------------+
|       Estados/Acciones       | + sup MNAS | + sup aleatorio | - sup MAL agregado | - ultimo sup agregado |
+------------------------------+------------+-----------------+--------------------+-----------------------+
|            Start             |   100.0    |       0.0       |        0.0         |          0.0          |
| + sifónes vacíos en deadlock |    0.0     |       0.0       |        0.0         |          0.0          |
| - sifónes vacíos en deadlock |    0.0     |       0.0       |        0.0         |          0.0          |
| = sifónes vacíos en deadlock |    0.0     |       0.0       |        0.0         |          0.0          |
|             End              |    0.0     |       0.0       |        0.0         |          0.0          |
+------------------------------+------------+-----------------+--------------------+-----------------------+ 

18/09/2021 20:29:35[INFO] Comienza proceso de eliminacion de supervisores redundantes   
18/09/2021 20:29:35[INFO] Supervisor a eliminar   
+-----+-------+---------+---------------+---------------+----------------+
| Nro | Plaza | Marcado |  T - Entrada  |   T - Salida  | MAL supervisor |
+-----+-------+---------+---------------+---------------+----------------+
|  1  |  P21  |    1    | ['T2', 'T11'] | ['T1', 'T10'] |     False      |
+-----+-------+---------+---------------+---------------+----------------+ 
18/09/2021 20:29:35[INFO] Eliminando supervisor ...   

--------------------------------------------------------------------------   
18/09/2021 20:29:35[INFO] Ejecutando petrinator para conocer estado de la red...   
--------------------------------------------------------------------------
   
18/09/2021 20:29:38[INFO] El supervisor eliminado no era redundante, volviendo a agregar supervisor   
18/09/2021 20:29:38[INFO] Se volvio a agregar correctamente el supervisor eliminado   

--------------------------------------------------------------------------   
18/09/2021 20:29:38[INFO] Ejecutando petrinator para conocer estado de la red...   
--------------------------------------------------------------------------
   
18/09/2021 20:29:42[INFO] Se eliminaron todos los supervisores redundantes   
+--------+---------+-------------------+----------------+---------+---------+------------------------+-------------------------+
| Plazas | Estados | Tokens trabajando | Sifones vacios | Sifones | Trampas | Supervisores agregados | Supervisores eliminados |
+--------+---------+-------------------+----------------+---------+---------+------------------------+-------------------------+
|   21   |    28   |         43        |       0        |    11   |    14   |           1            |            0            |
+--------+---------+-------------------+----------------+---------+---------+------------------------+-------------------------+ 
