 Minimal siphons 
28 30
15 34 43
8 11
7 9
3 6 13 21 27 34 38 46
6 27 38 44
5 27 38
20 24 27 37 45
19 24
18 27 37
26 29
2 34 41
1 34 40
34 35
32 33 34 36
18 26 39
18 34 42
18 22
20 26 45
20 23
18 19 20 21 25
6 26 44
6 10
2 3 34 41
1 2 3 4
1 2 3 34 40
2 3 6 26 34 41 44
2 3 6 10 34 41
1 2 3 4 6 10
1 2 3 6 10 34 40
1 2 3 4 6 26 44
1 2 3 6 26 34 40 44
3 6 13 21 26 34 46
3 6 13 21 24 27 34 37 45 46
3 6 13 21 23 24 27 34 37 46
6 7 26 44
6 7 10
2 3 6 7 26 34 41 44
2 3 6 7 10 34 41
1 2 3 4 6 7 10
1 2 3 6 7 10 34 40
1 2 3 4 6 7 26 44
1 2 3 6 7 26 34 40 44
6 7 8 26 44
6 7 8 10
5 6 7 8 12
2 3 6 7 8 26 34 41 44
2 3 6 7 8 10 34 41
2 3 5 6 7 8 12 34 41
1 2 3 4 5 6 7 8 12
1 2 3 5 6 7 8 12 34 40
1 2 3 4 6 7 8 10
1 2 3 6 7 8 10 34 40
1 2 3 4 6 7 8 26 44
1 2 3 6 7 8 26 34 40 44
13 14 15 16 17
2 3 6 13 14 15 16 17 26 34 41 44
2 3 6 10 13 14 15 16 17 34 41
1 2 3 6 10 13 14 15 16 17 34 40
1 2 3 6 13 14 15 16 17 26 34 40 44
2 3 6 7 13 14 15 16 17 26 34 41 44
2 3 6 7 10 13 14 15 16 17 34 41
1 2 3 6 7 10 13 14 15 16 17 34 40
1 2 3 6 7 13 14 15 16 17 26 34 40 44
2 3 6 7 8 13 14 15 16 17 26 34 41 44
2 3 6 7 8 10 13 14 15 16 17 34 41
2 3 5 6 7 8 12 13 14 15 16 17 34 41
1 2 3 5 6 7 8 12 13 14 15 16 17 34 40
1 2 3 6 7 8 10 13 14 15 16 17 34 40
1 2 3 6 7 8 13 14 15 16 17 26 34 40 44
2 3 6 8 11 13 14 15 16 17 26 34 41 44
2 3 6 8 10 11 13 14 15 16 17 34 41
2 3 5 6 8 11 12 13 14 15 16 17 34 41
1 2 3 5 6 8 11 12 13 14 15 16 17 34 40
1 2 3 6 8 10 11 13 14 15 16 17 34 40
1 2 3 6 8 11 13 14 15 16 17 26 34 40 44
3 8 9 11 13 21 27 28 34 38 46
8 9 11 27 28 38 44
7 9 27 28 38 44
6 27 28 38 44
5 27 28 38
26 27 28 31
6 26 27 28 44
6 10 27 28 38
5 6 27 28 38
6 7 27 28 38 44
6 7 26 27 28 44
6 7 10 27 28 38
5 6 7 27 28 38
7 9 26 27 28 44
7 9 10 27 28 38
5 7 9 27 28 38
6 8 11 27 28 38 44
5 8 11 27 28 38
6 7 8 27 28 38 44
6 7 8 26 27 28 44
6 7 8 10 27 28 38
5 6 7 8 27 28 38
6 8 11 26 27 28 44
6 8 10 11 27 28 38
5 6 8 11 27 28 38
7 8 9 27 28 38 44
7 8 9 26 27 28 44
7 8 9 10 27 28 38
5 7 8 9 27 28 38
8 9 11 26 27 28 44
8 9 10 11 27 28 38
5 8 9 11 27 28 38
3 7 9 13 21 27 28 34 38 46
3 6 13 21 27 28 34 38 46
2 3 5 27 28 34 38 41
1 2 3 4 5 27 28 38
1 2 3 5 27 28 34 38 40
2 3 6 27 28 34 38 41 44
2 3 6 26 27 28 34 41 44
1 2 3 6 26 27 28 34 40 44
1 2 3 6 27 28 34 38 40 44
1 2 3 6 10 27 28 34 38 40
1 2 3 5 6 27 28 34 38 40
2 3 6 10 27 28 34 38 41
2 3 5 6 27 28 34 38 41
3 6 13 21 24 27 28 34 37 45 46
3 6 13 21 26 27 28 34 46
3 6 13 18 21 25 26 27 28 34 46
3 6 13 21 24 26 27 28 34 45 46
3 6 13 21 23 24 26 27 28 34 46
3 6 13 21 23 24 27 28 34 37 46
3 6 7 13 21 27 28 34 38 46
2 3 6 7 27 28 34 38 41 44
2 3 6 7 26 27 28 34 41 44
1 2 3 6 7 26 27 28 34 40 44
1 2 3 6 7 27 28 34 38 40 44
1 2 3 6 7 10 27 28 34 38 40
1 2 3 5 6 7 27 28 34 38 40
2 3 6 7 10 27 28 34 38 41
2 3 5 6 7 27 28 34 38 41
3 6 7 13 21 24 27 28 34 37 45 46
3 6 7 13 21 26 27 28 34 46
3 6 7 13 18 21 25 26 27 28 34 46
3 6 7 13 21 24 26 27 28 34 45 46
3 6 7 13 21 23 24 26 27 28 34 46
3 6 7 13 21 23 24 27 28 34 37 46
2 3 7 9 27 28 34 38 41 44
2 3 7 9 26 27 28 34 41 44
1 2 3 7 9 26 27 28 34 40 44
1 2 3 7 9 27 28 34 38 40 44
1 2 3 7 9 10 27 28 34 38 40
1 2 3 5 7 9 27 28 34 38 40
2 3 7 9 10 27 28 34 38 41
2 3 5 7 9 27 28 34 38 41
3 7 9 13 21 24 27 28 34 37 45 46
3 7 9 13 21 26 27 28 34 46
3 7 9 13 18 21 25 26 27 28 34 46
3 7 9 13 21 24 26 27 28 34 45 46
3 7 9 13 21 23 24 26 27 28 34 46
3 7 9 13 21 23 24 27 28 34 37 46
3 6 8 11 13 21 27 28 34 38 46
2 3 5 8 11 27 28 34 38 41
1 2 3 4 5 8 11 27 28 38
1 2 3 5 8 11 27 28 34 38 40
3 6 7 8 13 21 27 28 34 38 46
2 3 6 7 8 27 28 34 38 41 44
2 3 6 7 8 26 27 28 34 41 44
1 2 3 6 7 8 26 27 28 34 40 44
1 2 3 6 7 8 27 28 34 38 40 44
1 2 3 6 7 8 10 27 28 34 38 40
1 2 3 5 6 7 8 27 28 34 38 40
2 3 6 7 8 10 27 28 34 38 41
2 3 5 6 7 8 27 28 34 38 41
3 6 7 8 13 21 24 27 28 34 37 45 46
3 6 7 8 13 21 26 27 28 34 46
3 6 7 8 13 18 21 25 26 27 28 34 46
3 6 7 8 13 21 24 26 27 28 34 45 46
3 6 7 8 13 21 23 24 26 27 28 34 46
3 6 7 8 13 21 23 24 27 28 34 37 46
2 3 6 8 11 27 28 34 38 41 44
2 3 6 8 11 26 27 28 34 41 44
1 2 3 6 8 11 26 27 28 34 40 44
1 2 3 6 8 11 27 28 34 38 40 44
1 2 3 6 8 10 11 27 28 34 38 40
1 2 3 5 6 8 11 27 28 34 38 40
2 3 6 8 10 11 27 28 34 38 41
2 3 5 6 8 11 27 28 34 38 41
3 6 8 11 13 21 24 27 28 34 37 45 46
3 6 8 11 13 21 26 27 28 34 46
3 6 8 11 13 18 21 25 26 27 28 34 46
3 6 8 11 13 21 24 26 27 28 34 45 46
3 6 8 11 13 21 23 24 26 27 28 34 46
3 6 8 11 13 21 23 24 27 28 34 37 46
3 7 8 9 13 21 27 28 34 38 46
2 3 7 8 9 27 28 34 38 41 44
2 3 7 8 9 26 27 28 34 41 44
1 2 3 7 8 9 26 27 28 34 40 44
1 2 3 7 8 9 27 28 34 38 40 44
1 2 3 7 8 9 10 27 28 34 38 40
1 2 3 5 7 8 9 27 28 34 38 40
2 3 7 8 9 10 27 28 34 38 41
2 3 5 7 8 9 27 28 34 38 41
3 7 8 9 13 21 24 27 28 34 37 45 46
3 7 8 9 13 21 26 27 28 34 46
3 7 8 9 13 18 21 25 26 27 28 34 46
3 7 8 9 13 21 24 26 27 28 34 45 46
3 7 8 9 13 21 23 24 26 27 28 34 46
3 7 8 9 13 21 23 24 27 28 34 37 46
2 3 8 9 11 27 28 34 38 41 44
2 3 8 9 11 26 27 28 34 41 44
1 2 3 8 9 11 26 27 28 34 40 44
1 2 3 8 9 11 27 28 34 38 40 44
1 2 3 8 9 10 11 27 28 34 38 40
1 2 3 5 8 9 11 27 28 34 38 40
2 3 8 9 10 11 27 28 34 38 41
2 3 5 8 9 11 27 28 34 38 41
3 8 9 11 13 21 24 27 28 34 37 45 46
3 8 9 11 13 21 26 27 28 34 46
3 8 9 11 13 18 21 25 26 27 28 34 46
3 8 9 11 13 21 24 26 27 28 34 45 46
3 8 9 11 13 21 23 24 26 27 28 34 46
3 8 9 11 13 21 23 24 27 28 34 37 46
 Minimal traps 
18 34 42
19 24
20 26 45
15 34 43
1 34 40
2 34 41
3 5 13 21 26 34 38 46
32 33 34 36
34 35
5 26 38 44
6 26 44
26 29
28 30
7 9
8 11
26 27 28 31
6 10
6 7 9
6 7 8 11
5 27 38
5 6 10
5 6 7 9
5 6 7 8 12
5 6 7 8 11
3 6 13 21 26 34 46
1 2 3 4
13 14 15 16 17
2 13 14 15 16 17 34 41
2 6 10 13 14 15 16 17 34 41
2 6 7 9 13 14 15 16 17 34 41
2 6 7 8 11 13 14 15 16 17 34 41
2 5 6 10 13 14 15 16 17 34 41
2 5 6 7 9 13 14 15 16 17 34 41
2 5 6 7 8 12 13 14 15 16 17 34 41
2 5 6 7 8 11 13 14 15 16 17 34 41
1 13 14 15 16 17 34 40
1 2 13 14 15 16 17 34 41
1 6 10 13 14 15 16 17 34 40
1 6 7 9 13 14 15 16 17 34 40
1 6 7 8 11 13 14 15 16 17 34 40
1 2 6 7 8 11 13 14 15 16 17 34 41
1 2 6 7 9 13 14 15 16 17 34 41
1 2 6 10 13 14 15 16 17 34 41
1 5 6 10 13 14 15 16 17 34 40
1 5 6 7 9 13 14 15 16 17 34 40
1 5 6 7 8 12 13 14 15 16 17 34 40
1 5 6 7 8 11 13 14 15 16 17 34 40
1 2 5 6 7 8 11 13 14 15 16 17 34 41
1 2 5 6 7 8 12 13 14 15 16 17 34 41
1 2 5 6 7 9 13 14 15 16 17 34 41
1 2 5 6 10 13 14 15 16 17 34 41
20 23
3 6 13 20 21 26 34 46
3 5 13 20 21 26 34 38 46
3 5 6 13 20 21 26 34 46
2 6 13 20 21 26 34 41 46
2 3 6 13 20 21 26 34 46
2 5 13 20 21 26 34 38 41 46
2 5 6 13 20 21 26 34 41 46
2 3 5 6 13 20 21 26 34 46
2 3 5 13 20 21 26 34 38 46
1 6 13 20 21 26 34 40 41 46
1 2 6 13 20 21 26 34 41 46
1 2 3 6 13 20 21 26 34 46
1 3 6 13 20 21 26 34 40 46
1 5 13 20 21 26 34 38 40 41 46
1 5 6 13 20 21 26 34 40 41 46
1 2 5 6 13 20 21 26 34 41 46
1 2 3 5 6 13 20 21 26 34 46
1 3 5 6 13 20 21 26 34 40 46
1 2 5 13 20 21 26 34 38 41 46
1 2 3 5 13 20 21 26 34 38 46
1 3 5 13 20 21 26 34 38 40 46
3 6 13 19 20 21 26 34 46
3 5 13 19 20 21 26 34 38 46
3 5 6 13 19 20 21 26 34 46
2 6 13 19 20 21 26 34 41 46
2 3 6 13 19 20 21 26 34 46
2 5 13 19 20 21 26 34 38 41 46
2 5 6 13 19 20 21 26 34 41 46
2 3 5 6 13 19 20 21 26 34 46
2 3 5 13 19 20 21 26 34 38 46
1 6 13 19 20 21 26 34 40 41 46
1 2 6 13 19 20 21 26 34 41 46
1 2 3 6 13 19 20 21 26 34 46
1 3 6 13 19 20 21 26 34 40 46
1 5 13 19 20 21 26 34 38 40 41 46
1 5 6 13 19 20 21 26 34 40 41 46
1 2 5 6 13 19 20 21 26 34 41 46
1 2 3 5 6 13 19 20 21 26 34 46
1 3 5 6 13 19 20 21 26 34 40 46
1 2 5 13 19 20 21 26 34 38 41 46
1 2 3 5 13 19 20 21 26 34 38 46
1 3 5 13 19 20 21 26 34 38 40 46
18 26 39
18 27 37
18 22
18 19 24
18 19 20 23
18 19 20 21 25
18 24 26 37 45
5 18 26 37 38 44
6 18 26 37 44
5 6 18 26 37 44
6 18 20 21 25 26 37 44
5 18 20 21 25 26 37 38 44
5 6 18 20 21 25 26 37 44
5 18 24 26 37 38 44
6 18 24 26 37 44
5 6 18 24 26 37 44
3 6 13 18 23 24 26 34 37 46
3 5 13 18 23 24 26 34 37 38 46
2 18 22 34 41
2 18 19 24 34 41
2 18 19 20 23 34 41
2 18 19 20 21 25 34 41
1 18 22 34 40
1 18 19 24 34 40
1 18 19 20 23 34 40
1 18 19 20 21 25 34 40
1 2 18 19 20 21 25 34 41
1 2 18 19 20 23 34 41
1 2 18 19 24 34 41
1 2 18 22 34 41
15 18 22 34 43
15 18 19 24 34 43
15 18 19 20 23 34 43
15 18 19 20 21 25 34 43
1 13 14 15 16 17 18 19 20 21 25 34 40
2 13 14 15 16 17 18 19 20 21 25 34 41
1 2 13 14 15 16 17 18 19 20 21 25 34 41
1 13 14 15 16 17 18 19 20 23 34 40
2 13 14 15 16 17 18 19 20 23 34 41
1 2 13 14 15 16 17 18 19 20 23 34 41
1 13 14 15 16 17 18 19 24 34 40
2 13 14 15 16 17 18 19 24 34 41
1 2 13 14 15 16 17 18 19 24 34 41
1 13 14 15 16 17 18 22 34 40
2 13 14 15 16 17 18 22 34 41
1 2 13 14 15 16 17 18 22 34 41
 Analysis time: 105.615s