07/07/2021 19:45:05[DEBUG] pflow_file:  ../analysis/analisis_lucas/20210707-190718_19/net.pflow  
07/07/2021 19:45:05[DEBUG] output_folder:  ../analysis/analisis_lucas/20210707-190718_19/  
07/07/2021 19:45:05[DEBUG] html_path:  ../analysis/analisis_lucas/20210707-190718_19/  
07/07/2021 19:45:05[DEBUG] txt_path:  ../analysis/analisis_lucas/20210707-190718_19/txt_info  

--------------------------------------------------------------------------   
07/07/2021 19:45:05[INFO] Ejecutando petrinator para conocer estado de la red...   
--------------------------------------------------------------------------
   
+----+-----+----------------------------------------------------------------------+
| ID | Nro |                                Plazas                                |
+----+-----+----------------------------------------------------------------------+
| 0  |  1  |        ['P3', 'P6', 'P11', 'P14', 'P18', 'P25', 'P27', 'P28']        |
| 1  |  2  |    ['P2', 'P6', 'P11', 'P12', 'P14', 'P18', 'P25', 'P26', 'P28']     |
| 2  |  25 |        ['P2', 'P5', 'P11', 'P12', 'P14', 'P18', 'P25', 'P28']        |
| 3  |  58 |    ['P3', 'P5', 'P11', 'P12', 'P14', 'P18', 'P24', 'P25', 'P28']     |
| 4  | 102 | ['P3', 'P6', 'P11', 'P12', 'P14', 'P18', 'P24', 'P25', 'P26', 'P28'] |
| 5  |  86 |        ['P1', 'P3', 'P6', 'P11', 'P13', 'P18', 'P25', 'P27']         |
| 6  | 103 |     ['P1', 'P3', 'P6', 'P11', 'P14', 'P18', 'P24', 'P25', 'P27']     |
| 7  |  67 |           ['P3', 'P6', 'P10', 'P14', 'P17', 'P27', 'P28']            |
| 8  |  85 |           ['P3', 'P6', 'P10', 'P14', 'P17', 'P24', 'P27']            |
+----+-----+----------------------------------------------------------------------+
+----+----+----+----+----+----+----+----+----+----+-----+-----+-----+-----+-----+-----+-----+-----+-----+-----+
| T0 | T1 | T2 | T3 | T4 | T5 | T6 | T7 | T8 | T9 | T10 | T11 | T12 | T13 | T14 | T15 | T16 | T17 | T18 | T19 |
+----+----+----+----+----+----+----+----+----+----+-----+-----+-----+-----+-----+-----+-----+-----+-----+-----+
| 1  | 1  | 1  | 1  | 0  | 0  | 0  | 0  | 0  | 0  |  0  |  0  |  0  |  0  |  0  |  0  |  0  |  0  |  0  |  0  |
| 0  | 0  | 0  | 0  | 1  | 1  | 1  | 1  | 1  | 1  |  1  |  0  |  0  |  0  |  0  |  1  |  1  |  1  |  1  |  1  |
| 0  | 0  | 0  | 0  | 1  | 1  | 1  | 0  | 0  | 0  |  0  |  1  |  1  |  1  |  1  |  1  |  1  |  1  |  1  |  1  |
+----+----+----+----+----+----+----+----+----+----+-----+-----+-----+-----+-----+-----+-----+-----+-----+-----+
+-----+---------+-----------------------------------------+--------------+
|  ID | Marcado |               T - Entrada               |  T - Salida  |
+-----+---------+-----------------------------------------+--------------+
| P30 |    2    |    ['T3', 'T6', 'T10', 'T14', 'T17']    | ['T1', 'T5'] |
| P30 |    2    |        ['T2', 'T6', 'T10', 'T17']       | ['T1', 'T5'] |
| P30 |    1    |        ['T2', 'T6', 'T10', 'T17']       | ['T1', 'T5'] |
| P30 |    2    |    ['T3', 'T6', 'T10', 'T15', 'T17']    | ['T1', 'T5'] |
| P30 |    3    | ['T2', 'T3', 'T6', 'T10', 'T15', 'T17'] | ['T1', 'T5'] |
| P30 |    1    |       ['T6', 'T10', 'T13', 'T17']       | ['T1', 'T5'] |
| P30 |    2    |    ['T4', 'T6', 'T10', 'T14', 'T17']    | ['T1', 'T5'] |
| P30 |    1    |    ['T3', 'T6', 'T10', 'T14', 'T17']    | ['T1', 'T5'] |
| P30 |    1    |    ['T4', 'T6', 'T10', 'T14', 'T17']    | ['T1', 'T5'] |
+-----+---------+-----------------------------------------+--------------+
07/07/2021 19:45:15[INFO] Ejecutando accion...   
07/07/2021 19:45:15[INFO] Ejecutando accion...   
07/07/2021 19:45:15[ACTION] Agrego supervisor aleatorio Numero: 7  

--------------------------------------------------------------------------   
07/07/2021 19:45:15[INFO] Ejecutando petrinator para conocer estado de la red...   
--------------------------------------------------------------------------
   

--------------------------------------------------------------------------
   
07/07/2021 19:45:40[INFO] Calculando recompensa..   
07/07/2021 19:45:40[REWARD] El sifon se controlo correctamente, recompensa -1   

--------------------------------------------------------------------------
   
07/07/2021 19:45:40[STATE] Cambie al estado 3: Hay igual cantidad de sifones vacios en deadlock   
+----+-----+----------------------------------------------------------------------+
| ID | Nro |                                Plazas                                |
+----+-----+----------------------------------------------------------------------+
| 9  |  1  |        ['P3', 'P6', 'P11', 'P14', 'P18', 'P25', 'P27', 'P28']        |
| 10 |  2  |    ['P2', 'P6', 'P11', 'P12', 'P14', 'P18', 'P25', 'P26', 'P28']     |
| 11 |  25 |        ['P2', 'P5', 'P11', 'P12', 'P14', 'P18', 'P25', 'P28']        |
| 12 |  59 |    ['P3', 'P5', 'P11', 'P12', 'P14', 'P18', 'P24', 'P25', 'P28']     |
| 13 | 103 | ['P3', 'P6', 'P11', 'P12', 'P14', 'P18', 'P24', 'P25', 'P26', 'P28'] |
| 14 |  87 |        ['P1', 'P3', 'P6', 'P11', 'P13', 'P18', 'P25', 'P27']         |
| 15 | 104 |     ['P1', 'P3', 'P6', 'P11', 'P14', 'P18', 'P24', 'P25', 'P27']     |
| 16 |  68 |           ['P3', 'P6', 'P10', 'P14', 'P17', 'P27', 'P28']            |
| 17 |  86 |           ['P3', 'P6', 'P10', 'P14', 'P17', 'P24', 'P27']            |
+----+-----+----------------------------------------------------------------------+
+----+----+----+----+----+----+----+----+----+----+-----+-----+-----+-----+-----+-----+-----+-----+-----+-----+
| T0 | T1 | T2 | T3 | T4 | T5 | T6 | T7 | T8 | T9 | T10 | T11 | T12 | T13 | T14 | T15 | T16 | T17 | T18 | T19 |
+----+----+----+----+----+----+----+----+----+----+-----+-----+-----+-----+-----+-----+-----+-----+-----+-----+
| 1  | 1  | 1  | 1  | 0  | 0  | 0  | 0  | 0  | 0  |  0  |  0  |  0  |  0  |  0  |  0  |  0  |  0  |  0  |  0  |
+----+----+----+----+----+----+----+----+----+----+-----+-----+-----+-----+-----+-----+-----+-----+-----+-----+
+-----+---------+-----------------------------------------+--------------+
|  ID | Marcado |               T - Entrada               |  T - Salida  |
+-----+---------+-----------------------------------------+--------------+
| P31 |    2    |    ['T3', 'T6', 'T10', 'T14', 'T17']    | ['T1', 'T5'] |
| P31 |    2    |        ['T2', 'T6', 'T10', 'T17']       | ['T1', 'T5'] |
| P31 |    1    |        ['T2', 'T6', 'T10', 'T17']       | ['T1', 'T5'] |
| P31 |    2    |    ['T3', 'T6', 'T10', 'T15', 'T17']    | ['T1', 'T5'] |
| P31 |    3    | ['T2', 'T3', 'T6', 'T10', 'T15', 'T17'] | ['T1', 'T5'] |
| P31 |    1    |       ['T6', 'T10', 'T13', 'T17']       | ['T1', 'T5'] |
| P31 |    2    |    ['T4', 'T6', 'T10', 'T14', 'T17']    | ['T1', 'T5'] |
| P31 |    1    |    ['T3', 'T6', 'T10', 'T14', 'T17']    | ['T1', 'T5'] |
| P31 |    1    |    ['T4', 'T6', 'T10', 'T14', 'T17']    | ['T1', 'T5'] |
+-----+---------+-----------------------------------------+--------------+
07/07/2021 19:45:40[INFO] Ejecutando accion...   
07/07/2021 19:45:40[ACTION] Agregar o quitar arcos   
07/07/2021 19:45:40[ACTION] Eliminar arco desde T6 hasta P30   
07/07/2021 19:45:40[INFO] Se elimino el arco con metodo 2 desde T6 hasta P30   
07/07/2021 19:45:40[ACTION] Eliminar arco desde T14 hasta P30   
07/07/2021 19:45:40[INFO] Se elimino el arco con metodo 2 desde T14 hasta P30   

--------------------------------------------------------------------------   
07/07/2021 19:45:40[INFO] Ejecutando petrinator para conocer estado de la red...   
--------------------------------------------------------------------------
   

--------------------------------------------------------------------------
   
07/07/2021 19:46:06[INFO] Calculando recompensa..   
07/07/2021 19:46:06[REWARD] Hay menos o igual cantidad de sifones vacios que en el estado anterior, recompensa -1   

--------------------------------------------------------------------------
   
07/07/2021 19:46:06[STATE] Cambie al estado 3: Hay igual cantidad de sifones vacios en deadlock   
+----+-----+----------------------------------------------------------------------+
| ID | Nro |                                Plazas                                |
+----+-----+----------------------------------------------------------------------+
| 18 |  1  |        ['P3', 'P6', 'P11', 'P14', 'P18', 'P25', 'P27', 'P28']        |
| 19 |  2  |    ['P2', 'P6', 'P11', 'P12', 'P14', 'P18', 'P25', 'P26', 'P28']     |
| 20 |  25 |        ['P2', 'P5', 'P11', 'P12', 'P14', 'P18', 'P25', 'P28']        |
| 21 |  59 |    ['P3', 'P5', 'P11', 'P12', 'P14', 'P18', 'P24', 'P25', 'P28']     |
| 22 | 103 | ['P3', 'P6', 'P11', 'P12', 'P14', 'P18', 'P24', 'P25', 'P26', 'P28'] |
| 23 |  87 |        ['P1', 'P3', 'P6', 'P11', 'P13', 'P18', 'P25', 'P27']         |
| 24 | 104 |     ['P1', 'P3', 'P6', 'P11', 'P14', 'P18', 'P24', 'P25', 'P27']     |
| 25 |  68 |           ['P3', 'P6', 'P10', 'P14', 'P17', 'P27', 'P28']            |
| 26 |  86 |           ['P3', 'P6', 'P10', 'P14', 'P17', 'P24', 'P27']            |
+----+-----+----------------------------------------------------------------------+
+----+----+----+----+----+----+----+----+----+----+-----+-----+-----+-----+-----+-----+-----+-----+-----+-----+
| T0 | T1 | T2 | T3 | T4 | T5 | T6 | T7 | T8 | T9 | T10 | T11 | T12 | T13 | T14 | T15 | T16 | T17 | T18 | T19 |
+----+----+----+----+----+----+----+----+----+----+-----+-----+-----+-----+-----+-----+-----+-----+-----+-----+
| 1  | 1  | 1  | 1  | 0  | 0  | 0  | 0  | 0  | 0  |  0  |  0  |  0  |  0  |  0  |  0  |  0  |  0  |  0  |  0  |
| 0  | 0  | 0  | 0  | 1  | 1  | 1  | 0  | 0  | 0  |  0  |  1  |  1  |  1  |  1  |  1  |  1  |  1  |  1  |  1  |
+----+----+----+----+----+----+----+----+----+----+-----+-----+-----+-----+-----+-----+-----+-----+-----+-----+
+-----+---------+-----------------------------------------+--------------+
|  ID | Marcado |               T - Entrada               |  T - Salida  |
+-----+---------+-----------------------------------------+--------------+
| P31 |    2    |    ['T3', 'T6', 'T10', 'T14', 'T17']    | ['T1', 'T5'] |
| P31 |    2    |        ['T2', 'T6', 'T10', 'T17']       | ['T1', 'T5'] |
| P31 |    1    |        ['T2', 'T6', 'T10', 'T17']       | ['T1', 'T5'] |
| P31 |    2    |    ['T3', 'T6', 'T10', 'T15', 'T17']    | ['T1', 'T5'] |
| P31 |    3    | ['T2', 'T3', 'T6', 'T10', 'T15', 'T17'] | ['T1', 'T5'] |
| P31 |    1    |       ['T6', 'T10', 'T13', 'T17']       | ['T1', 'T5'] |
| P31 |    2    |    ['T4', 'T6', 'T10', 'T14', 'T17']    | ['T1', 'T5'] |
| P31 |    1    |    ['T3', 'T6', 'T10', 'T14', 'T17']    | ['T1', 'T5'] |
| P31 |    1    |    ['T4', 'T6', 'T10', 'T14', 'T17']    | ['T1', 'T5'] |
+-----+---------+-----------------------------------------+--------------+
07/07/2021 19:46:06[INFO] Ejecutando accion...   
07/07/2021 19:46:06[ACTION] Agregar o quitar arcos   
07/07/2021 19:46:06[ACTION] Eliminar arco desde T10 hasta P30   
07/07/2021 19:46:06[INFO] Se elimino el arco con metodo 2 desde T10 hasta P30   

--------------------------------------------------------------------------   
07/07/2021 19:46:06[INFO] Ejecutando petrinator para conocer estado de la red...   
--------------------------------------------------------------------------
   

--------------------------------------------------------------------------
   
07/07/2021 19:46:20[INFO] Calculando recompensa..   
07/07/2021 19:46:20[REWARD] No hay mas deadlock, recompensa 100   

--------------------------------------------------------------------------
   
07/07/2021 19:46:20[STATE] Se llego al estado deseado, NO HAY MAS DEADLOCK   

--------------------------------------------------------------------------
   
07/07/2021 19:46:20[STATE] Cambie al estado 2: Hay menos sifones vacios en deadlock   
