 Minimal siphons 
2 7 11 16 23 26 30
16 18
1 7 11 15 23 26
13 17
10 12
1 31 6
1 3
1 7 10 14 28
1 7 9 14 22 27
1 32 6 7 8 9 10 19
1 33 6 7 8 9 10 13 14 15 19
6 7 8 9 10 11 13 14 15 16 19 20 21 22 23 24 25
2 6 11 29
2 4
1 2 5
1 2 3
1 32 2 10 12 13 17
31 2 4 6
32 2 4 6 10 12 13 17
1 32 2 6 10 12 13 17
1 31 2 6
1 31 2 6 10 11 12
1 32 2 6 10 11 12 13 17
1 31 2 3 6 10 11 12
1 31 2 5 6 10 11 12
31 2 4 6 10 11 12
2 7 10 16 30
2 4 7 9 14 22 27
1 2 7 9 14 22 27
1 31 2 6 7
1 31 2 6 7 8 9 19
1 31 2 6 7 8 9 13 14 19
31 2 4 6 7
31 2 4 6 7 8 9 19
31 2 4 6 7 8 9 13 14 19
2 7 11 15 23 26 29
2 7 11 14 28 29
2 7 11 12 14 22 27 29
2 7 9 11 14 22 27 29
2 7 11 16 29 30
 Minimal traps 
13 17
1 32 6 29
2 6 10 16 29 30
16 18
10 12
2 7 10 16 30
2 4
2 6 11 29
1 6 9 14 22 26 27 29 30
1 7 9 14 22 27
1 3
1 2 5
1 2 4
1 7 10 14 28
1 7 11 15 23 26
1 7 10 15 23 26 30
1 6 10 14 28 29
1 6 11 15 23 26 29
1 33 6 29
1 31 6
1 33 6 7 15 23 26
1 6 10 15 23 26 29 30
1 33 6 7 10 30
1 33 31 6 10
1 33 31 6 10 16 20 21 22 23 24 25
1 33 31 6 10 16 18
1 33 31 6 10 15
1 33 31 6 10 15 16 18
1 33 31 6 10 15 23 24 25
1 33 31 6 10 15 16 20 21 22 23 24 25
1 33 31 6 10 15 16 18 23 24 25
1 33 31 6 10 14 15
1 33 31 6 10 14 15 16 18
1 33 31 6 10 14 15 23 24 25
1 33 31 6 10 14 15 16 20 21 22 23 24 25
1 33 31 6 10 14 15 16 18 23 24 25
1 33 31 6 9 10
1 33 31 6 9 10 16 20 21 22 23 24 25
1 33 31 6 9 10 16 18
1 33 31 6 9 10 15
1 33 31 6 9 10 15 16 18
1 33 31 6 9 10 15 23 24 25
1 33 31 6 9 10 15 16 20 21 22 23 24 25
1 33 31 6 9 10 15 16 18 23 24 25
1 33 31 6 9 10 14 15
1 33 31 6 9 10 14 15 16 18
1 33 31 6 9 10 14 15 23 24 25
1 33 31 6 9 10 14 15 16 18 23 24 25
1 6 9 14 16 22 27 29 30
1 6 9 14 22 27 28 29
1 6 9 12 14 22 27 29
1 6 9 11 14 22 27 29
1 33 31 6 9 10 14 15 16 20 21 22 23 24 25
1 33 31 6 9 10 14 15 16 18 22 23 24 25
1 32 6 7 9 17 22 27
1 32 6 7 10 17 28
1 32 6 7 15 23 26
1 32 6 7 10 15 23 26
1 32 6 7 10 16 30
1 32 6 7 10 15 16 30
1 32 6 7 10 15 16 23 24 25 30
1 32 6 7 10 14 15 23 26
1 32 6 7 10 14 15 16 30
1 32 6 7 10 14 15 16 23 24 25 30
1 32 6 7 10 15 17 23 26
1 32 6 7 9 10 15 23 26
1 32 6 7 8 9 10 19
1 32 6 7 9 10 14 15 23 26
1 32 6 7 9 10 14 15 22 23 26
1 32 6 7 9 10 15 17 23 26
1 32 6 7 9 10 15 17 22 23 26
6 7 8 9 10 11 13 14 15 16 19 20 21 22 23 24 25
1 33 31 6 10 13 14 15
1 33 31 6 10 13 14 15 16 18
1 33 31 6 10 13 14 15 23 24 25
1 32 31 6 10 13 14 15 16 20 21 22 23 24 25
1 33 31 6 10 13 14 15 16 20 21 22 23 24 25
1 33 31 6 10 13 14 15 16 18 23 24 25
1 33 6 7 8 9 10 13 14 15 19
1 33 31 6 9 10 13 14 15
1 33 31 6 9 10 13 14 15 16 18
1 33 31 6 9 10 13 14 15 23 24 25
1 33 31 6 9 10 13 14 15 16 18 23 24 25
1 32 31 6 9 10 13 14 15 16 20 21 22 23 24 25
1 33 31 6 9 10 13 14 15 16 20 21 22 23 24 25
1 33 31 6 9 10 13 14 15 16 18 22 23 24 25
 Analysis time: 3.92s