19/07/2021 23:47:59[DEBUG] pflow_file:  ../analysis/analisis_11_19072021/gen_nets/20210719-224351_40/net.pflow  
19/07/2021 23:47:59[DEBUG] output_folder:  ../analysis/analisis_11_19072021/gen_nets/20210719-224351_40/  
19/07/2021 23:47:59[DEBUG] html_path:  ../analysis/analisis_11_19072021/gen_nets/20210719-224351_40/  
19/07/2021 23:47:59[DEBUG] txt_path:  ../analysis/analisis_11_19072021/gen_nets/20210719-224351_40/txt_info  

--------------------------------------------------------------------------   
19/07/2021 23:47:59[INFO] Ejecutando petrinator para conocer estado de la red...   
--------------------------------------------------------------------------
   
19/07/2021 23:48:04[INFO] Leyendo archivos...   
19/07/2021 23:48:04[ERROR] Se produjo un error inesperado en la ejecucion del petrinator, abandonando analisis 
  
