 p 19 
 t 15 
 Reachable states from S0 [0, 0, 1, 1, 0, 0, 2, 0, 0, 0, 0, 0, 1, 0, 0, 1, 1, 1, 1] 
 T1 => S1 [1, 0, 0, 0, 0, 0, 2, 0, 0, 0, 0, 0, 1, 0, 0, 1, 0, 0, 1] 
 T14 => S4 [0, 0, 1, 1, 0, 0, 2, 0, 0, 0, 0, 0, 1, 1, 0, 0, 1, 0, 1] 
 T4 => S22 [0, 0, 1, 1, 1, 0, 1, 0, 0, 0, 0, 0, 1, 0, 0, 1, 0, 0, 0] 
 
 Reachable states from S1 [1, 0, 0, 0, 0, 0, 2, 0, 0, 0, 0, 0, 1, 0, 0, 1, 0, 0, 1] 
 T2 => S2 [0, 1, 1, 0, 0, 0, 2, 0, 0, 0, 0, 0, 1, 0, 0, 1, 1, 1, 0] 
 
 Reachable states from S2 [0, 1, 1, 0, 0, 0, 2, 0, 0, 0, 0, 0, 1, 0, 0, 1, 1, 1, 0] 
 T3 => S0 [0, 0, 1, 1, 0, 0, 2, 0, 0, 0, 0, 0, 1, 0, 0, 1, 1, 1, 1] 
 T14 => S3 [0, 1, 1, 0, 0, 0, 2, 0, 0, 0, 0, 0, 1, 1, 0, 0, 1, 0, 0] 
 
 Reachable states from S3 [0, 1, 1, 0, 0, 0, 2, 0, 0, 0, 0, 0, 1, 1, 0, 0, 1, 0, 0] 
 T3 => S4 [0, 0, 1, 1, 0, 0, 2, 0, 0, 0, 0, 0, 1, 1, 0, 0, 1, 0, 1] 
 T7 => S7 [0, 1, 1, 0, 0, 0, 2, 1, 0, 0, 0, 0, 1, 0, 0, 0, 1, 1, 0] 
 
 Reachable states from S4 [0, 0, 1, 1, 0, 0, 2, 0, 0, 0, 0, 0, 1, 1, 0, 0, 1, 0, 1] 
 T7 => S5 [0, 0, 1, 1, 0, 0, 2, 1, 0, 0, 0, 0, 1, 0, 0, 0, 1, 1, 1] 
 
 Reachable states from S5 [0, 0, 1, 1, 0, 0, 2, 1, 0, 0, 0, 0, 1, 0, 0, 0, 1, 1, 1] 
 T1 => S6 [1, 0, 0, 0, 0, 0, 2, 1, 0, 0, 0, 0, 1, 0, 0, 0, 0, 0, 1] 
 T8 => S9 [0, 0, 1, 1, 0, 0, 2, 0, 1, 0, 0, 0, 1, 0, 0, 0, 0, 0, 1] 
 T4 => S10 [0, 0, 1, 1, 1, 0, 1, 1, 0, 0, 0, 0, 1, 0, 0, 0, 0, 0, 0] 
 
 Reachable states from S6 [1, 0, 0, 0, 0, 0, 2, 1, 0, 0, 0, 0, 1, 0, 0, 0, 0, 0, 1] 
 T2 => S7 [0, 1, 1, 0, 0, 0, 2, 1, 0, 0, 0, 0, 1, 0, 0, 0, 1, 1, 0] 
 
 Reachable states from S7 [0, 1, 1, 0, 0, 0, 2, 1, 0, 0, 0, 0, 1, 0, 0, 0, 1, 1, 0] 
 T3 => S5 [0, 0, 1, 1, 0, 0, 2, 1, 0, 0, 0, 0, 1, 0, 0, 0, 1, 1, 1] 
 T8 => S8 [0, 1, 1, 0, 0, 0, 2, 0, 1, 0, 0, 0, 1, 0, 0, 0, 0, 0, 0] 
 
 Reachable states from S8 [0, 1, 1, 0, 0, 0, 2, 0, 1, 0, 0, 0, 1, 0, 0, 0, 0, 0, 0] 
 T3 => S9 [0, 0, 1, 1, 0, 0, 2, 0, 1, 0, 0, 0, 1, 0, 0, 0, 0, 0, 1] 
 Deadlock on S9 [0, 0, 1, 1, 0, 0, 2, 0, 1, 0, 0, 0, 1, 0, 0, 0, 0, 0, 1] 
 
 Reachable states from S10 [0, 0, 1, 1, 1, 0, 1, 1, 0, 0, 0, 0, 1, 0, 0, 0, 0, 0, 0] 
 T5 => S11 [0, 0, 1, 1, 0, 1, 1, 1, 0, 0, 0, 0, 1, 0, 0, 0, 1, 1, 1] 
 
 Reachable states from S11 [0, 0, 1, 1, 0, 1, 1, 1, 0, 0, 0, 0, 1, 0, 0, 0, 1, 1, 1] 
 T6 => S5 [0, 0, 1, 1, 0, 0, 2, 1, 0, 0, 0, 0, 1, 0, 0, 0, 1, 1, 1] 
 T1 => S12 [1, 0, 0, 0, 0, 1, 1, 1, 0, 0, 0, 0, 1, 0, 0, 0, 0, 0, 1] 
 T8 => S15 [0, 0, 1, 1, 0, 1, 1, 0, 1, 0, 0, 0, 1, 0, 0, 0, 0, 0, 1] 
 T4 => S16 [0, 0, 1, 1, 1, 1, 0, 1, 0, 0, 0, 0, 1, 0, 0, 0, 0, 0, 0] 
 
 Reachable states from S12 [1, 0, 0, 0, 0, 1, 1, 1, 0, 0, 0, 0, 1, 0, 0, 0, 0, 0, 1] 
 T6 => S6 [1, 0, 0, 0, 0, 0, 2, 1, 0, 0, 0, 0, 1, 0, 0, 0, 0, 0, 1] 
 T2 => S13 [0, 1, 1, 0, 0, 1, 1, 1, 0, 0, 0, 0, 1, 0, 0, 0, 1, 1, 0] 
 
 Reachable states from S13 [0, 1, 1, 0, 0, 1, 1, 1, 0, 0, 0, 0, 1, 0, 0, 0, 1, 1, 0] 
 T6 => S7 [0, 1, 1, 0, 0, 0, 2, 1, 0, 0, 0, 0, 1, 0, 0, 0, 1, 1, 0] 
 T3 => S11 [0, 0, 1, 1, 0, 1, 1, 1, 0, 0, 0, 0, 1, 0, 0, 0, 1, 1, 1] 
 T8 => S14 [0, 1, 1, 0, 0, 1, 1, 0, 1, 0, 0, 0, 1, 0, 0, 0, 0, 0, 0] 
 
 Reachable states from S14 [0, 1, 1, 0, 0, 1, 1, 0, 1, 0, 0, 0, 1, 0, 0, 0, 0, 0, 0] 
 T6 => S8 [0, 1, 1, 0, 0, 0, 2, 0, 1, 0, 0, 0, 1, 0, 0, 0, 0, 0, 0] 
 T3 => S15 [0, 0, 1, 1, 0, 1, 1, 0, 1, 0, 0, 0, 1, 0, 0, 0, 0, 0, 1] 
 
 Reachable states from S15 [0, 0, 1, 1, 0, 1, 1, 0, 1, 0, 0, 0, 1, 0, 0, 0, 0, 0, 1] 
 T6 => S9 [0, 0, 1, 1, 0, 0, 2, 0, 1, 0, 0, 0, 1, 0, 0, 0, 0, 0, 1] 
 
 Reachable states from S16 [0, 0, 1, 1, 1, 1, 0, 1, 0, 0, 0, 0, 1, 0, 0, 0, 0, 0, 0] 
 T6 => S10 [0, 0, 1, 1, 1, 0, 1, 1, 0, 0, 0, 0, 1, 0, 0, 0, 0, 0, 0] 
 T5 => S17 [0, 0, 1, 1, 0, 2, 0, 1, 0, 0, 0, 0, 1, 0, 0, 0, 1, 1, 1] 
 
 Reachable states from S17 [0, 0, 1, 1, 0, 2, 0, 1, 0, 0, 0, 0, 1, 0, 0, 0, 1, 1, 1] 
 T6 => S11 [0, 0, 1, 1, 0, 1, 1, 1, 0, 0, 0, 0, 1, 0, 0, 0, 1, 1, 1] 
 T1 => S18 [1, 0, 0, 0, 0, 2, 0, 1, 0, 0, 0, 0, 1, 0, 0, 0, 0, 0, 1] 
 T8 => S21 [0, 0, 1, 1, 0, 2, 0, 0, 1, 0, 0, 0, 1, 0, 0, 0, 0, 0, 1] 
 
 Reachable states from S18 [1, 0, 0, 0, 0, 2, 0, 1, 0, 0, 0, 0, 1, 0, 0, 0, 0, 0, 1] 
 T6 => S12 [1, 0, 0, 0, 0, 1, 1, 1, 0, 0, 0, 0, 1, 0, 0, 0, 0, 0, 1] 
 T2 => S19 [0, 1, 1, 0, 0, 2, 0, 1, 0, 0, 0, 0, 1, 0, 0, 0, 1, 1, 0] 
 
 Reachable states from S19 [0, 1, 1, 0, 0, 2, 0, 1, 0, 0, 0, 0, 1, 0, 0, 0, 1, 1, 0] 
 T6 => S13 [0, 1, 1, 0, 0, 1, 1, 1, 0, 0, 0, 0, 1, 0, 0, 0, 1, 1, 0] 
 T3 => S17 [0, 0, 1, 1, 0, 2, 0, 1, 0, 0, 0, 0, 1, 0, 0, 0, 1, 1, 1] 
 T8 => S20 [0, 1, 1, 0, 0, 2, 0, 0, 1, 0, 0, 0, 1, 0, 0, 0, 0, 0, 0] 
 
 Reachable states from S20 [0, 1, 1, 0, 0, 2, 0, 0, 1, 0, 0, 0, 1, 0, 0, 0, 0, 0, 0] 
 T6 => S14 [0, 1, 1, 0, 0, 1, 1, 0, 1, 0, 0, 0, 1, 0, 0, 0, 0, 0, 0] 
 T3 => S21 [0, 0, 1, 1, 0, 2, 0, 0, 1, 0, 0, 0, 1, 0, 0, 0, 0, 0, 1] 
 
 Reachable states from S21 [0, 0, 1, 1, 0, 2, 0, 0, 1, 0, 0, 0, 1, 0, 0, 0, 0, 0, 1] 
 T6 => S15 [0, 0, 1, 1, 0, 1, 1, 0, 1, 0, 0, 0, 1, 0, 0, 0, 0, 0, 1] 
 
 Reachable states from S22 [0, 0, 1, 1, 1, 0, 1, 0, 0, 0, 0, 0, 1, 0, 0, 1, 0, 0, 0] 
 T5 => S23 [0, 0, 1, 1, 0, 1, 1, 0, 0, 0, 0, 0, 1, 0, 0, 1, 1, 1, 1] 
 
 Reachable states from S23 [0, 0, 1, 1, 0, 1, 1, 0, 0, 0, 0, 0, 1, 0, 0, 1, 1, 1, 1] 
 T6 => S0 [0, 0, 1, 1, 0, 0, 2, 0, 0, 0, 0, 0, 1, 0, 0, 1, 1, 1, 1] 
 T1 => S24 [1, 0, 0, 0, 0, 1, 1, 0, 0, 0, 0, 0, 1, 0, 0, 1, 0, 0, 1] 
 T14 => S27 [0, 0, 1, 1, 0, 1, 1, 0, 0, 0, 0, 0, 1, 1, 0, 0, 1, 0, 1] 
 T4 => S28 [0, 0, 1, 1, 1, 1, 0, 0, 0, 0, 0, 0, 1, 0, 0, 1, 0, 0, 0] 
 
 Reachable states from S24 [1, 0, 0, 0, 0, 1, 1, 0, 0, 0, 0, 0, 1, 0, 0, 1, 0, 0, 1] 
 T6 => S1 [1, 0, 0, 0, 0, 0, 2, 0, 0, 0, 0, 0, 1, 0, 0, 1, 0, 0, 1] 
 T2 => S25 [0, 1, 1, 0, 0, 1, 1, 0, 0, 0, 0, 0, 1, 0, 0, 1, 1, 1, 0] 
 
 Reachable states from S25 [0, 1, 1, 0, 0, 1, 1, 0, 0, 0, 0, 0, 1, 0, 0, 1, 1, 1, 0] 
 T6 => S2 [0, 1, 1, 0, 0, 0, 2, 0, 0, 0, 0, 0, 1, 0, 0, 1, 1, 1, 0] 
 T3 => S23 [0, 0, 1, 1, 0, 1, 1, 0, 0, 0, 0, 0, 1, 0, 0, 1, 1, 1, 1] 
 T14 => S26 [0, 1, 1, 0, 0, 1, 1, 0, 0, 0, 0, 0, 1, 1, 0, 0, 1, 0, 0] 
 
 Reachable states from S26 [0, 1, 1, 0, 0, 1, 1, 0, 0, 0, 0, 0, 1, 1, 0, 0, 1, 0, 0] 
 T6 => S3 [0, 1, 1, 0, 0, 0, 2, 0, 0, 0, 0, 0, 1, 1, 0, 0, 1, 0, 0] 
 T7 => S13 [0, 1, 1, 0, 0, 1, 1, 1, 0, 0, 0, 0, 1, 0, 0, 0, 1, 1, 0] 
 T3 => S27 [0, 0, 1, 1, 0, 1, 1, 0, 0, 0, 0, 0, 1, 1, 0, 0, 1, 0, 1] 
 
 Reachable states from S27 [0, 0, 1, 1, 0, 1, 1, 0, 0, 0, 0, 0, 1, 1, 0, 0, 1, 0, 1] 
 T6 => S4 [0, 0, 1, 1, 0, 0, 2, 0, 0, 0, 0, 0, 1, 1, 0, 0, 1, 0, 1] 
 T7 => S11 [0, 0, 1, 1, 0, 1, 1, 1, 0, 0, 0, 0, 1, 0, 0, 0, 1, 1, 1] 
 
 Reachable states from S28 [0, 0, 1, 1, 1, 1, 0, 0, 0, 0, 0, 0, 1, 0, 0, 1, 0, 0, 0] 
 T6 => S22 [0, 0, 1, 1, 1, 0, 1, 0, 0, 0, 0, 0, 1, 0, 0, 1, 0, 0, 0] 
 T5 => S29 [0, 0, 1, 1, 0, 2, 0, 0, 0, 0, 0, 0, 1, 0, 0, 1, 1, 1, 1] 
 
 Reachable states from S29 [0, 0, 1, 1, 0, 2, 0, 0, 0, 0, 0, 0, 1, 0, 0, 1, 1, 1, 1] 
 T6 => S23 [0, 0, 1, 1, 0, 1, 1, 0, 0, 0, 0, 0, 1, 0, 0, 1, 1, 1, 1] 
 T1 => S30 [1, 0, 0, 0, 0, 2, 0, 0, 0, 0, 0, 0, 1, 0, 0, 1, 0, 0, 1] 
 T14 => S33 [0, 0, 1, 1, 0, 2, 0, 0, 0, 0, 0, 0, 1, 1, 0, 0, 1, 0, 1] 
 
 Reachable states from S30 [1, 0, 0, 0, 0, 2, 0, 0, 0, 0, 0, 0, 1, 0, 0, 1, 0, 0, 1] 
 T6 => S24 [1, 0, 0, 0, 0, 1, 1, 0, 0, 0, 0, 0, 1, 0, 0, 1, 0, 0, 1] 
 T2 => S31 [0, 1, 1, 0, 0, 2, 0, 0, 0, 0, 0, 0, 1, 0, 0, 1, 1, 1, 0] 
 
 Reachable states from S31 [0, 1, 1, 0, 0, 2, 0, 0, 0, 0, 0, 0, 1, 0, 0, 1, 1, 1, 0] 
 T6 => S25 [0, 1, 1, 0, 0, 1, 1, 0, 0, 0, 0, 0, 1, 0, 0, 1, 1, 1, 0] 
 T3 => S29 [0, 0, 1, 1, 0, 2, 0, 0, 0, 0, 0, 0, 1, 0, 0, 1, 1, 1, 1] 
 T14 => S32 [0, 1, 1, 0, 0, 2, 0, 0, 0, 0, 0, 0, 1, 1, 0, 0, 1, 0, 0] 
 
 Reachable states from S32 [0, 1, 1, 0, 0, 2, 0, 0, 0, 0, 0, 0, 1, 1, 0, 0, 1, 0, 0] 
 T7 => S19 [0, 1, 1, 0, 0, 2, 0, 1, 0, 0, 0, 0, 1, 0, 0, 0, 1, 1, 0] 
 T6 => S26 [0, 1, 1, 0, 0, 1, 1, 0, 0, 0, 0, 0, 1, 1, 0, 0, 1, 0, 0] 
 T3 => S33 [0, 0, 1, 1, 0, 2, 0, 0, 0, 0, 0, 0, 1, 1, 0, 0, 1, 0, 1] 
 
 Reachable states from S33 [0, 0, 1, 1, 0, 2, 0, 0, 0, 0, 0, 0, 1, 1, 0, 0, 1, 0, 1] 
 T7 => S17 [0, 0, 1, 1, 0, 2, 0, 1, 0, 0, 0, 0, 1, 0, 0, 0, 1, 1, 1] 
 T6 => S27 [0, 0, 1, 1, 0, 1, 1, 0, 0, 0, 0, 0, 1, 1, 0, 0, 1, 0, 1] 
