21/06/2021 17:55:38[DEBUG] pflow_file:  ../analisis_5_21062021/gen_nets/20210621-175514_1/net.pflow  
21/06/2021 17:55:38[DEBUG] output_folder:  ../analisis_5_21062021/gen_nets/20210621-175514_1/  
21/06/2021 17:55:38[DEBUG] html_path:  ../analisis_5_21062021/gen_nets/20210621-175514_1/  
21/06/2021 17:55:38[DEBUG] txt_path:  ../analisis_5_21062021/gen_nets/20210621-175514_1/txt_info  

--------------------------------------------------------------------------   
21/06/2021 17:55:38[INFO] Ejecutando petrinator para conocer estado de la red...   
--------------------------------------------------------------------------
   
21/06/2021 17:55:51[INFO] Leyendo archivos...   
21/06/2021 17:55:52[INFO] Cantidad de estados: 1816  
21/06/2021 17:55:52[INFO] Cantidad de transiciones: 17  
21/06/2021 17:55:52[INFO] Cantidad de plazas: 24  
21/06/2021 17:55:52[INFO] Cantidad de sifones: 15  
21/06/2021 17:55:52[INFO] Cantidad de trampas: 26  

--------------------------------------------------------------------------
   
21/06/2021 17:55:52[INFO] Cantidad de entrenamientos a realizar:  1  
21/06/2021 17:55:52[INFO] Entrenamiento numero: 0 
 
21/06/2021 17:55:52[INFO] Q-TABLE   
+-----------------------------------------------------+--------------------+------------------------+
|                   Estados/Acciones                  | Agregar supervisor | Agregar o quitar arcos |
+-----------------------------------------------------+--------------------+------------------------+
|                        Start                        |        0.0         |          0.0           |
|        Más sifónes vacíos en estado deadlock        |        0.0         |          0.0           |
|       Menos sifónes vacíos en estado deadlock       |        0.0         |          0.0           |
| Igual cantidad de sifónes vacíos en estado deadlock |        0.0         |          0.0           |
|                         End                         |        0.0         |          0.0           |
+-----------------------------------------------------+--------------------+------------------------+

--------------------------------------------------------------------------   
21/06/2021 17:55:52[INFO] Ejecutando petrinator para conocer estado de la red...   
--------------------------------------------------------------------------
   
21/06/2021 17:56:04[INFO] Importando datos desde html...   
21/06/2021 17:56:05[INFO] Analizando cantidad de supervisores que se pueden agregar...   
21/06/2021 17:56:05[INFO] Cantidad de transiciones: 17  
21/06/2021 17:56:05[INFO] Estados de deadlock: [350]  
21/06/2021 17:56:05[INFO] Cantidad de sifones: 15  
21/06/2021 17:56:05[INFO] Cantidad de sifones vacios en estado de deadlock: 1 
 
21/06/2021 17:56:05[INFO] SIFONES   
+----+-----+------------------------------------------+
| ID | Nro |                  Plazas                  |
+----+-----+------------------------------------------+
| 0  |  6  | ['P2', 'P6', 'P11', 'P14', 'P22', 'P24'] |
+----+-----+------------------------------------------+
21/06/2021 17:56:05[INFO] T INVARIANTES   
+----+----+----+----+----+----+----+----+----+----+-----+-----+-----+-----+-----+-----+-----+
| T0 | T1 | T2 | T3 | T4 | T5 | T6 | T7 | T8 | T9 | T10 | T11 | T12 | T13 | T14 | T15 | T16 |
+----+----+----+----+----+----+----+----+----+----+-----+-----+-----+-----+-----+-----+-----+
| 1  | 1  | 1  | 1  | 0  | 0  | 0  | 0  | 0  | 0  |  0  |  0  |  0  |  0  |  0  |  0  |  0  |
| 0  | 0  | 0  | 0  | 1  | 1  | 1  | 1  | 0  | 0  |  0  |  0  |  0  |  0  |  0  |  0  |  0  |
| 0  | 0  | 0  | 0  | 0  | 0  | 0  | 0  | 1  | 1  |  1  |  0  |  0  |  0  |  0  |  1  |  1  |
| 0  | 0  | 0  | 0  | 0  | 0  | 0  | 0  | 0  | 0  |  0  |  1  |  1  |  1  |  1  |  1  |  1  |
+----+----+----+----+----+----+----+----+----+----+-----+-----+-----+-----+-----+-----+-----+
21/06/2021 17:56:05[INFO] POSIBLES SUPERVISORES A AGREGAR   
+-----+---------+----------------------------+---------------------+
|  ID | Marcado |        T - Entrada         |      T - Salida     |
+-----+---------+----------------------------+---------------------+
| P25 |    1    | ['T2', 'T6', 'T10', 'T13'] | ['T1', 'T5', 'T16'] |
+-----+---------+----------------------------+---------------------+

--------------------------------------------------------------------------
   
21/06/2021 17:56:05[INFO] Ejecutando accion...   
21/06/2021 17:56:05[ACTION] Agregar supervisor    
21/06/2021 17:56:05[ACTION] Agrego supervisor Numero: 0   

--------------------------------------------------------------------------   
21/06/2021 17:56:05[INFO] Ejecutando petrinator para conocer estado de la red...   
--------------------------------------------------------------------------
   
21/06/2021 17:56:16[INFO] Importando datos desde html...   
21/06/2021 17:56:17[INFO] Analizando cantidad de supervisores que se pueden agregar...   
21/06/2021 17:56:17[INFO] Cantidad de sifones vacios en estado de deadlock ANTES: 1  
21/06/2021 17:56:17[INFO] Cantidad de sifones vacioes en estado de deadlock AHORA: 0  
21/06/2021 17:56:17[INFO] Cantidad de transiciones: 17  
21/06/2021 17:56:17[INFO] Estados de deadlock: []  
21/06/2021 17:56:17[INFO] Cantidad de sifones: 17  
21/06/2021 17:56:17[INFO] Cantidad de sifones vacios en estado de deadlock: 0 
 
21/06/2021 17:56:17[INFO] SIFONES   
+----+-----+--------+
| ID | Nro | Plazas |
+----+-----+--------+
+----+-----+--------+
21/06/2021 17:56:17[INFO] T INVARIANTES   
+----+----+----+----+----+----+----+----+----+----+-----+-----+-----+-----+-----+-----+-----+
| T0 | T1 | T2 | T3 | T4 | T5 | T6 | T7 | T8 | T9 | T10 | T11 | T12 | T13 | T14 | T15 | T16 |
+----+----+----+----+----+----+----+----+----+----+-----+-----+-----+-----+-----+-----+-----+
| 1  | 1  | 1  | 1  | 0  | 0  | 0  | 0  | 0  | 0  |  0  |  0  |  0  |  0  |  0  |  0  |  0  |
| 0  | 0  | 0  | 0  | 1  | 1  | 1  | 1  | 0  | 0  |  0  |  0  |  0  |  0  |  0  |  0  |  0  |
| 0  | 0  | 0  | 0  | 0  | 0  | 0  | 0  | 1  | 1  |  1  |  0  |  0  |  0  |  0  |  1  |  1  |
| 0  | 0  | 0  | 0  | 0  | 0  | 0  | 0  | 0  | 0  |  0  |  1  |  1  |  1  |  1  |  1  |  1  |
+----+----+----+----+----+----+----+----+----+----+-----+-----+-----+-----+-----+-----+-----+
21/06/2021 17:56:17[INFO] POSIBLES SUPERVISORES A AGREGAR   
+----+---------+-------------+------------+
| ID | Marcado | T - Entrada | T - Salida |
+----+---------+-------------+------------+
+----+---------+-------------+------------+
21/06/2021 17:56:17[INFO] Actualizando estado de la red..   
21/06/2021 17:56:17[STATE] Cambie al estado 2: Hay menos sifones vacios en deadlock   

--------------------------------------------------------------------------
   
21/06/2021 17:56:17[INFO] Calculando recompensa..   
21/06/2021 17:56:17[REWARD] No hay mas deadlock, recompensa 100   

--------------------------------------------------------------------------
   
21/06/2021 17:56:17[INFO] NEW Q-TABLE   
+-----------------------------------------------------+--------------------+------------------------+
|                   Estados/Acciones                  | Agregar supervisor | Agregar o quitar arcos |
+-----------------------------------------------------+--------------------+------------------------+
|                        Start                        |        90.0        |          0.0           |
|        Más sifónes vacíos en estado deadlock        |        0.0         |          0.0           |
|       Menos sifónes vacíos en estado deadlock       |        0.0         |          0.0           |
| Igual cantidad de sifónes vacíos en estado deadlock |        0.0         |          0.0           |
|                         End                         |        0.0         |          0.0           |
+-----------------------------------------------------+--------------------+------------------------+

--------------------------------------------------------------------------
   
21/06/2021 17:56:17[STATE] Se llego al estado deseado, NO HAY MAS DEADLOCK   

--------------------------------------------------------------------------
   
21/06/2021 17:56:17[INFO] Training complete! 
  
