25/07/2021 16:43:05[DEBUG] pflow_file:  ../analysis/analisis_15_25072021/gen_nets/20210725-164143_2/net.pflow  
25/07/2021 16:43:05[DEBUG] output_folder:  ../analysis/analisis_15_25072021/gen_nets/20210725-164143_2/  
25/07/2021 16:43:05[DEBUG] html_path:  ../analysis/analisis_15_25072021/gen_nets/20210725-164143_2/  
25/07/2021 16:43:05[DEBUG] txt_path:  ../analysis/analisis_15_25072021/gen_nets/20210725-164143_2/txt_info  

--------------------------------------------------------------------------   
25/07/2021 16:43:05[INFO] Ejecutando petrinator para conocer estado de la red...   
--------------------------------------------------------------------------
   
25/07/2021 16:43:08[ERROR] La red ingresada no tiene deadlock, cerrando analisis 
  
