21/06/2021 12:40:41[DEBUG] pflow_file:  ../analisis_3_20062021/gen_nets/20210621-121849_14/net.pflow  
21/06/2021 12:40:41[DEBUG] output_folder:  ../analisis_3_20062021/gen_nets/20210621-121849_14/  
21/06/2021 12:40:41[DEBUG] html_path:  ../analisis_3_20062021/gen_nets/20210621-121849_14/  
21/06/2021 12:40:41[DEBUG] txt_path:  ../analisis_3_20062021/gen_nets/20210621-121849_14/txt_info  

--------------------------------------------------------------------------   
21/06/2021 12:40:41[INFO] Ejecutando petrinator para conocer estado de la red...   
--------------------------------------------------------------------------
   
21/06/2021 12:40:59[INFO] Leyendo archivos...   
21/06/2021 12:41:01[INFO] Cantidad de estados: 4973  
21/06/2021 12:41:01[INFO] Cantidad de transiciones: 20  
21/06/2021 12:41:01[INFO] Cantidad de plazas: 26  
21/06/2021 12:41:01[INFO] Cantidad de sifones: 17  
21/06/2021 12:41:01[INFO] Cantidad de trampas: 20  

--------------------------------------------------------------------------
   
21/06/2021 12:41:01[INFO] Cantidad de entrenamientos a realizar:  1  
21/06/2021 12:41:01[INFO] Entrenamiento numero: 0 
 
21/06/2021 12:41:01[INFO] Q-TABLE   
+-----------------------------------------------------+--------------------+------------------------+
|                   Estados/Acciones                  | Agregar supervisor | Agregar o quitar arcos |
+-----------------------------------------------------+--------------------+------------------------+
|                        Start                        |        0.0         |          0.0           |
|        Más sifónes vacíos en estado deadlock        |        0.0         |          0.0           |
|       Menos sifónes vacíos en estado deadlock       |        0.0         |          0.0           |
| Igual cantidad de sifónes vacíos en estado deadlock |        0.0         |          0.0           |
|                         End                         |        0.0         |          0.0           |
+-----------------------------------------------------+--------------------+------------------------+

--------------------------------------------------------------------------   
21/06/2021 12:41:01[INFO] Ejecutando petrinator para conocer estado de la red...   
--------------------------------------------------------------------------
   
21/06/2021 12:41:20[INFO] Importando datos desde html...   
21/06/2021 12:41:21[INFO] Analizando cantidad de supervisores que se pueden agregar...   
21/06/2021 12:41:21[INFO] Cantidad de transiciones: 20  
21/06/2021 12:41:21[INFO] Estados de deadlock: [149, 151, 269]  
21/06/2021 12:41:21[INFO] Cantidad de sifones: 17  
21/06/2021 12:41:21[INFO] Cantidad de sifones vacios en estado de deadlock: 5 
 
21/06/2021 12:41:21[INFO] SIFONES   
+----+-----+--------------------------------------------------------+
| ID | Nro |                         Plazas                         |
+----+-----+--------------------------------------------------------+
| 0  |  5  |        ['P1', 'P6', 'P12', 'P17', 'P24', 'P25']        |
| 1  |  11 |    ['P2', 'P6', 'P12', 'P17', 'P22', 'P24', 'P25']     |
| 2  |  12 |        ['P2', 'P6', 'P11', 'P17', 'P22', 'P25']        |
| 3  |  15 | ['P2', 'P7', 'P12', 'P17', 'P22', 'P23', 'P24', 'P25'] |
| 4  |  16 |    ['P2', 'P7', 'P11', 'P17', 'P22', 'P23', 'P25']     |
+----+-----+--------------------------------------------------------+
21/06/2021 12:41:21[INFO] T INVARIANTES   
+----+----+----+----+----+----+----+----+----+----+-----+-----+-----+-----+-----+-----+-----+-----+-----+-----+
| T0 | T1 | T2 | T3 | T4 | T5 | T6 | T7 | T8 | T9 | T10 | T11 | T12 | T13 | T14 | T15 | T16 | T17 | T18 | T19 |
+----+----+----+----+----+----+----+----+----+----+-----+-----+-----+-----+-----+-----+-----+-----+-----+-----+
| 1  | 1  | 1  | 1  | 0  | 0  | 0  | 0  | 0  | 0  |  0  |  0  |  0  |  0  |  0  |  0  |  0  |  0  |  0  |  0  |
| 0  | 0  | 0  | 0  | 1  | 1  | 1  | 1  | 1  | 0  |  0  |  0  |  0  |  0  |  0  |  0  |  0  |  0  |  0  |  0  |
| 0  | 0  | 0  | 0  | 0  | 0  | 0  | 0  | 0  | 1  |  1  |  1  |  1  |  1  |  0  |  0  |  0  |  0  |  1  |  1  |
| 0  | 0  | 0  | 0  | 0  | 0  | 0  | 0  | 0  | 0  |  0  |  0  |  0  |  0  |  1  |  1  |  1  |  1  |  1  |  1  |
+----+----+----+----+----+----+----+----+----+----+-----+-----+-----+-----+-----+-----+-----+-----+-----+-----+
21/06/2021 12:41:21[INFO] POSIBLES SUPERVISORES A AGREGAR   
+-----+---------+---------------------+---------------------+
|  ID | Marcado |     T - Entrada     |      T - Salida     |
+-----+---------+---------------------+---------------------+
| P27 |    1    | ['T2', 'T6', 'T12'] | ['T1', 'T5', 'T19'] |
| P27 |    2    | ['T2', 'T7', 'T12'] | ['T1', 'T5', 'T19'] |
| P27 |    1    | ['T2', 'T7', 'T11'] | ['T1', 'T5', 'T19'] |
| P27 |    3    | ['T2', 'T7', 'T12'] | ['T1', 'T5', 'T19'] |
| P27 |    2    | ['T2', 'T7', 'T11'] | ['T1', 'T5', 'T19'] |
+-----+---------+---------------------+---------------------+

--------------------------------------------------------------------------
   
21/06/2021 12:41:21[INFO] Ejecutando accion...   
21/06/2021 12:41:21[ACTION] Agregar supervisor    
21/06/2021 12:41:21[ACTION] Agrego supervisor Numero: 3  

--------------------------------------------------------------------------   
21/06/2021 12:41:21[INFO] Ejecutando petrinator para conocer estado de la red...   
--------------------------------------------------------------------------
   
21/06/2021 12:42:03[INFO] Importando datos desde html...   
21/06/2021 12:42:07[INFO] Analizando cantidad de supervisores que se pueden agregar...   
21/06/2021 12:42:07[INFO] Cantidad de sifones vacios en estado de deadlock ANTES: 5  
21/06/2021 12:42:07[INFO] Cantidad de sifones vacioes en estado de deadlock AHORA: 6  
21/06/2021 12:42:07[INFO] Cantidad de transiciones: 20  
21/06/2021 12:42:07[INFO] Estados de deadlock: [477, 3157, 3185, 5224, 5234, 7112]  
21/06/2021 12:42:07[INFO] Cantidad de sifones: 18  
21/06/2021 12:42:07[INFO] Cantidad de sifones vacios en estado de deadlock: 6 
 
21/06/2021 12:42:07[INFO] SIFONES   
+----+-----+--------------------------------------------------------+
| ID | Nro |                         Plazas                         |
+----+-----+--------------------------------------------------------+
| 5  |  8  |     ['P1', 'P5', 'P6', 'P10', 'P11', 'P18', 'P27']     |
| 6  |  5  |        ['P1', 'P6', 'P12', 'P17', 'P24', 'P25']        |
| 7  |  12 |    ['P2', 'P6', 'P12', 'P17', 'P22', 'P24', 'P25']     |
| 8  |  13 |        ['P2', 'P6', 'P11', 'P17', 'P22', 'P25']        |
| 9  |  16 | ['P2', 'P7', 'P12', 'P17', 'P22', 'P23', 'P24', 'P25'] |
| 10 |  17 |    ['P2', 'P7', 'P11', 'P17', 'P22', 'P23', 'P25']     |
+----+-----+--------------------------------------------------------+
21/06/2021 12:42:07[INFO] T INVARIANTES   
+----+----+----+----+----+----+----+----+----+----+-----+-----+-----+-----+-----+-----+-----+-----+-----+-----+
| T0 | T1 | T2 | T3 | T4 | T5 | T6 | T7 | T8 | T9 | T10 | T11 | T12 | T13 | T14 | T15 | T16 | T17 | T18 | T19 |
+----+----+----+----+----+----+----+----+----+----+-----+-----+-----+-----+-----+-----+-----+-----+-----+-----+
| 1  | 1  | 1  | 1  | 0  | 0  | 0  | 0  | 0  | 0  |  0  |  0  |  0  |  0  |  0  |  0  |  0  |  0  |  0  |  0  |
| 0  | 0  | 0  | 0  | 1  | 1  | 1  | 1  | 1  | 0  |  0  |  0  |  0  |  0  |  0  |  0  |  0  |  0  |  0  |  0  |
| 0  | 0  | 0  | 0  | 0  | 0  | 0  | 0  | 0  | 1  |  1  |  1  |  1  |  1  |  0  |  0  |  0  |  0  |  1  |  1  |
+----+----+----+----+----+----+----+----+----+----+-----+-----+-----+-----+-----+-----+-----+-----+-----+-----+
21/06/2021 12:42:07[INFO] POSIBLES SUPERVISORES A AGREGAR   
+-----+---------+---------------------+---------------------+
|  ID | Marcado |     T - Entrada     |      T - Salida     |
+-----+---------+---------------------+---------------------+
| P28 |    2    |          []         | ['T1', 'T5', 'T19'] |
| P28 |    1    | ['T2', 'T6', 'T12'] | ['T1', 'T5', 'T19'] |
| P28 |    2    | ['T2', 'T7', 'T12'] | ['T1', 'T5', 'T19'] |
| P28 |    1    | ['T2', 'T7', 'T11'] | ['T1', 'T5', 'T19'] |
| P28 |    3    | ['T2', 'T7', 'T12'] | ['T1', 'T5', 'T19'] |
| P28 |    2    | ['T2', 'T7', 'T11'] | ['T1', 'T5', 'T19'] |
+-----+---------+---------------------+---------------------+
21/06/2021 12:42:07[INFO] Actualizando estado de la red..   
21/06/2021 12:42:07[STATE] Cambie al estado 1: Hay mas sifones vacios en deadlock   

--------------------------------------------------------------------------
   
21/06/2021 12:42:07[INFO] Calculando recompensa..   
21/06/2021 12:42:07[REWARD] El sifon se controlo correctamente, recompensa -1   

--------------------------------------------------------------------------
   
21/06/2021 12:42:07[INFO] NEW Q-TABLE   
+-----------------------------------------------------+--------------------+------------------------+
|                   Estados/Acciones                  | Agregar supervisor | Agregar o quitar arcos |
+-----------------------------------------------------+--------------------+------------------------+
|                        Start                        |        -0.9        |          0.0           |
|        Más sifónes vacíos en estado deadlock        |        0.0         |          0.0           |
|       Menos sifónes vacíos en estado deadlock       |        0.0         |          0.0           |
| Igual cantidad de sifónes vacíos en estado deadlock |        0.0         |          0.0           |
|                         End                         |        0.0         |          0.0           |
+-----------------------------------------------------+--------------------+------------------------+

--------------------------------------------------------------------------
   
21/06/2021 12:42:07[INFO] Ejecutando accion...   
21/06/2021 12:42:07[ACTION] Agregar o quitar arcos   
21/06/2021 12:42:07[ACTION] La transicion en conflicto T15 le tiene que devolver un token al supervisor P27   
21/06/2021 12:42:07[INFO] Se agrego un arco desde T15 hasta P27   

--------------------------------------------------------------------------   
21/06/2021 12:42:07[INFO] Ejecutando petrinator para conocer estado de la red...   
--------------------------------------------------------------------------
   
21/06/2021 12:42:26[INFO] Importando datos desde html...   
21/06/2021 12:42:28[INFO] Analizando cantidad de supervisores que se pueden agregar...   
21/06/2021 12:42:28[INFO] Cantidad de sifones vacios en estado de deadlock ANTES: 6  
21/06/2021 12:42:28[INFO] Cantidad de sifones vacioes en estado de deadlock AHORA: 5  
21/06/2021 12:42:28[INFO] Cantidad de transiciones: 20  
21/06/2021 12:42:28[INFO] Estados de deadlock: [149, 151, 157, 260]  
21/06/2021 12:42:28[INFO] Cantidad de sifones: 18  
21/06/2021 12:42:28[INFO] Cantidad de sifones vacios en estado de deadlock: 5 
 
21/06/2021 12:42:28[INFO] SIFONES   
+----+-----+--------------------------------------------------------+
| ID | Nro |                         Plazas                         |
+----+-----+--------------------------------------------------------+
| 11 |  5  |        ['P1', 'P6', 'P12', 'P17', 'P24', 'P25']        |
| 12 |  12 |    ['P2', 'P6', 'P12', 'P17', 'P22', 'P24', 'P25']     |
| 13 |  13 |        ['P2', 'P6', 'P11', 'P17', 'P22', 'P25']        |
| 14 |  16 | ['P2', 'P7', 'P12', 'P17', 'P22', 'P23', 'P24', 'P25'] |
| 15 |  17 |    ['P2', 'P7', 'P11', 'P17', 'P22', 'P23', 'P25']     |
+----+-----+--------------------------------------------------------+
21/06/2021 12:42:28[INFO] T INVARIANTES   
+----+----+----+----+----+----+----+----+----+----+-----+-----+-----+-----+-----+-----+-----+-----+-----+-----+
| T0 | T1 | T2 | T3 | T4 | T5 | T6 | T7 | T8 | T9 | T10 | T11 | T12 | T13 | T14 | T15 | T16 | T17 | T18 | T19 |
+----+----+----+----+----+----+----+----+----+----+-----+-----+-----+-----+-----+-----+-----+-----+-----+-----+
| 1  | 1  | 1  | 1  | 0  | 0  | 0  | 0  | 0  | 0  |  0  |  0  |  0  |  0  |  0  |  0  |  0  |  0  |  0  |  0  |
| 0  | 0  | 0  | 0  | 1  | 1  | 1  | 1  | 1  | 0  |  0  |  0  |  0  |  0  |  0  |  0  |  0  |  0  |  0  |  0  |
| 0  | 0  | 0  | 0  | 0  | 0  | 0  | 0  | 0  | 1  |  1  |  1  |  1  |  1  |  0  |  0  |  0  |  0  |  1  |  1  |
| 0  | 0  | 0  | 0  | 0  | 0  | 0  | 0  | 0  | 0  |  0  |  0  |  0  |  0  |  1  |  1  |  1  |  1  |  1  |  1  |
+----+----+----+----+----+----+----+----+----+----+-----+-----+-----+-----+-----+-----+-----+-----+-----+-----+
21/06/2021 12:42:28[INFO] POSIBLES SUPERVISORES A AGREGAR   
+-----+---------+---------------------+---------------------+
|  ID | Marcado |     T - Entrada     |      T - Salida     |
+-----+---------+---------------------+---------------------+
| P28 |    1    | ['T2', 'T6', 'T12'] | ['T1', 'T5', 'T19'] |
| P28 |    2    | ['T2', 'T7', 'T12'] | ['T1', 'T5', 'T19'] |
| P28 |    1    | ['T2', 'T7', 'T11'] | ['T1', 'T5', 'T19'] |
| P28 |    3    | ['T2', 'T7', 'T12'] | ['T1', 'T5', 'T19'] |
| P28 |    2    | ['T2', 'T7', 'T11'] | ['T1', 'T5', 'T19'] |
+-----+---------+---------------------+---------------------+
21/06/2021 12:42:28[INFO] Actualizando estado de la red..   
21/06/2021 12:42:28[STATE] Cambie al estado 2: Hay menos sifones vacios en deadlock   

--------------------------------------------------------------------------
   
21/06/2021 12:42:28[INFO] Calculando recompensa..   
21/06/2021 12:42:28[REWARD] Hay menos o igual cantidad de sifones vacios que en el estado anterior, recompensa -1   

--------------------------------------------------------------------------
   
21/06/2021 12:42:28[INFO] NEW Q-TABLE   
+-----------------------------------------------------+--------------------+------------------------+
|                   Estados/Acciones                  | Agregar supervisor | Agregar o quitar arcos |
+-----------------------------------------------------+--------------------+------------------------+
|                        Start                        |        -0.9        |          0.0           |
|        Más sifónes vacíos en estado deadlock        |        0.0         |          -0.9          |
|       Menos sifónes vacíos en estado deadlock       |        0.0         |          0.0           |
| Igual cantidad de sifónes vacíos en estado deadlock |        0.0         |          0.0           |
|                         End                         |        0.0         |          0.0           |
+-----------------------------------------------------+--------------------+------------------------+

--------------------------------------------------------------------------
   
21/06/2021 12:42:28[INFO] Ejecutando accion...   
21/06/2021 12:42:28[ACTION] Agregar o quitar arcos   

--------------------------------------------------------------------------   
21/06/2021 12:42:28[INFO] Ejecutando petrinator para conocer estado de la red...   
--------------------------------------------------------------------------
   
21/06/2021 12:42:49[INFO] Importando datos desde html...   
21/06/2021 12:42:51[INFO] Analizando cantidad de supervisores que se pueden agregar...   
21/06/2021 12:42:51[INFO] Cantidad de sifones vacios en estado de deadlock ANTES: 5  
21/06/2021 12:42:51[INFO] Cantidad de sifones vacioes en estado de deadlock AHORA: 5  
21/06/2021 12:42:51[INFO] Cantidad de transiciones: 20  
21/06/2021 12:42:51[INFO] Estados de deadlock: [149, 151, 157, 260]  
21/06/2021 12:42:51[INFO] Cantidad de sifones: 18  
21/06/2021 12:42:51[INFO] Cantidad de sifones vacios en estado de deadlock: 5 
 
21/06/2021 12:42:51[INFO] SIFONES   
+----+-----+--------------------------------------------------------+
| ID | Nro |                         Plazas                         |
+----+-----+--------------------------------------------------------+
| 16 |  5  |        ['P1', 'P6', 'P12', 'P17', 'P24', 'P25']        |
| 17 |  12 |    ['P2', 'P6', 'P12', 'P17', 'P22', 'P24', 'P25']     |
| 18 |  13 |        ['P2', 'P6', 'P11', 'P17', 'P22', 'P25']        |
| 19 |  16 | ['P2', 'P7', 'P12', 'P17', 'P22', 'P23', 'P24', 'P25'] |
| 20 |  17 |    ['P2', 'P7', 'P11', 'P17', 'P22', 'P23', 'P25']     |
+----+-----+--------------------------------------------------------+
21/06/2021 12:42:51[INFO] T INVARIANTES   
+----+----+----+----+----+----+----+----+----+----+-----+-----+-----+-----+-----+-----+-----+-----+-----+-----+
| T0 | T1 | T2 | T3 | T4 | T5 | T6 | T7 | T8 | T9 | T10 | T11 | T12 | T13 | T14 | T15 | T16 | T17 | T18 | T19 |
+----+----+----+----+----+----+----+----+----+----+-----+-----+-----+-----+-----+-----+-----+-----+-----+-----+
| 1  | 1  | 1  | 1  | 0  | 0  | 0  | 0  | 0  | 0  |  0  |  0  |  0  |  0  |  0  |  0  |  0  |  0  |  0  |  0  |
| 0  | 0  | 0  | 0  | 1  | 1  | 1  | 1  | 1  | 0  |  0  |  0  |  0  |  0  |  0  |  0  |  0  |  0  |  0  |  0  |
| 0  | 0  | 0  | 0  | 0  | 0  | 0  | 0  | 0  | 1  |  1  |  1  |  1  |  1  |  0  |  0  |  0  |  0  |  1  |  1  |
| 0  | 0  | 0  | 0  | 0  | 0  | 0  | 0  | 0  | 0  |  0  |  0  |  0  |  0  |  1  |  1  |  1  |  1  |  1  |  1  |
+----+----+----+----+----+----+----+----+----+----+-----+-----+-----+-----+-----+-----+-----+-----+-----+-----+
21/06/2021 12:42:51[INFO] POSIBLES SUPERVISORES A AGREGAR   
+-----+---------+---------------------+---------------------+
|  ID | Marcado |     T - Entrada     |      T - Salida     |
+-----+---------+---------------------+---------------------+
| P28 |    1    | ['T2', 'T6', 'T12'] | ['T1', 'T5', 'T19'] |
| P28 |    2    | ['T2', 'T7', 'T12'] | ['T1', 'T5', 'T19'] |
| P28 |    1    | ['T2', 'T7', 'T11'] | ['T1', 'T5', 'T19'] |
| P28 |    3    | ['T2', 'T7', 'T12'] | ['T1', 'T5', 'T19'] |
| P28 |    2    | ['T2', 'T7', 'T11'] | ['T1', 'T5', 'T19'] |
+-----+---------+---------------------+---------------------+
21/06/2021 12:42:51[INFO] Actualizando estado de la red..   
21/06/2021 12:42:51[STATE] Cambie al estado 3: Hay igual cantidad de sifones vacios en deadlock   

--------------------------------------------------------------------------
   
21/06/2021 12:42:51[INFO] Calculando recompensa..   
21/06/2021 12:42:51[REWARD] Hay menos o igual cantidad de sifones vacios que en el estado anterior, recompensa -1   

--------------------------------------------------------------------------
   
21/06/2021 12:42:51[INFO] NEW Q-TABLE   
+-----------------------------------------------------+--------------------+------------------------+
|                   Estados/Acciones                  | Agregar supervisor | Agregar o quitar arcos |
+-----------------------------------------------------+--------------------+------------------------+
|                        Start                        |        -0.9        |          0.0           |
|        Más sifónes vacíos en estado deadlock        |        0.0         |          -0.9          |
|       Menos sifónes vacíos en estado deadlock       |        0.0         |          -0.9          |
| Igual cantidad de sifónes vacíos en estado deadlock |        0.0         |          0.0           |
|                         End                         |        0.0         |          0.0           |
+-----------------------------------------------------+--------------------+------------------------+

--------------------------------------------------------------------------
   
21/06/2021 12:42:51[INFO] Ejecutando accion...   
21/06/2021 12:42:51[ACTION] Agregar o quitar arcos   

--------------------------------------------------------------------------   
21/06/2021 12:42:51[INFO] Ejecutando petrinator para conocer estado de la red...   
--------------------------------------------------------------------------
   
21/06/2021 12:43:13[INFO] Importando datos desde html...   
21/06/2021 12:43:16[INFO] Analizando cantidad de supervisores que se pueden agregar...   
21/06/2021 12:43:16[INFO] Cantidad de sifones vacios en estado de deadlock ANTES: 5  
21/06/2021 12:43:16[INFO] Cantidad de sifones vacioes en estado de deadlock AHORA: 5  
21/06/2021 12:43:16[INFO] Cantidad de transiciones: 20  
21/06/2021 12:43:16[INFO] Estados de deadlock: [149, 151, 157, 260]  
21/06/2021 12:43:16[INFO] Cantidad de sifones: 18  
21/06/2021 12:43:16[INFO] Cantidad de sifones vacios en estado de deadlock: 5 
 
21/06/2021 12:43:16[INFO] SIFONES   
+----+-----+--------------------------------------------------------+
| ID | Nro |                         Plazas                         |
+----+-----+--------------------------------------------------------+
| 21 |  5  |        ['P1', 'P6', 'P12', 'P17', 'P24', 'P25']        |
| 22 |  12 |    ['P2', 'P6', 'P12', 'P17', 'P22', 'P24', 'P25']     |
| 23 |  13 |        ['P2', 'P6', 'P11', 'P17', 'P22', 'P25']        |
| 24 |  16 | ['P2', 'P7', 'P12', 'P17', 'P22', 'P23', 'P24', 'P25'] |
| 25 |  17 |    ['P2', 'P7', 'P11', 'P17', 'P22', 'P23', 'P25']     |
+----+-----+--------------------------------------------------------+
21/06/2021 12:43:16[INFO] T INVARIANTES   
+----+----+----+----+----+----+----+----+----+----+-----+-----+-----+-----+-----+-----+-----+-----+-----+-----+
| T0 | T1 | T2 | T3 | T4 | T5 | T6 | T7 | T8 | T9 | T10 | T11 | T12 | T13 | T14 | T15 | T16 | T17 | T18 | T19 |
+----+----+----+----+----+----+----+----+----+----+-----+-----+-----+-----+-----+-----+-----+-----+-----+-----+
| 1  | 1  | 1  | 1  | 0  | 0  | 0  | 0  | 0  | 0  |  0  |  0  |  0  |  0  |  0  |  0  |  0  |  0  |  0  |  0  |
| 0  | 0  | 0  | 0  | 1  | 1  | 1  | 1  | 1  | 0  |  0  |  0  |  0  |  0  |  0  |  0  |  0  |  0  |  0  |  0  |
| 0  | 0  | 0  | 0  | 0  | 0  | 0  | 0  | 0  | 1  |  1  |  1  |  1  |  1  |  0  |  0  |  0  |  0  |  1  |  1  |
| 0  | 0  | 0  | 0  | 0  | 0  | 0  | 0  | 0  | 0  |  0  |  0  |  0  |  0  |  1  |  1  |  1  |  1  |  1  |  1  |
+----+----+----+----+----+----+----+----+----+----+-----+-----+-----+-----+-----+-----+-----+-----+-----+-----+
21/06/2021 12:43:16[INFO] POSIBLES SUPERVISORES A AGREGAR   
+-----+---------+---------------------+---------------------+
|  ID | Marcado |     T - Entrada     |      T - Salida     |
+-----+---------+---------------------+---------------------+
| P28 |    1    | ['T2', 'T6', 'T12'] | ['T1', 'T5', 'T19'] |
| P28 |    2    | ['T2', 'T7', 'T12'] | ['T1', 'T5', 'T19'] |
| P28 |    1    | ['T2', 'T7', 'T11'] | ['T1', 'T5', 'T19'] |
| P28 |    3    | ['T2', 'T7', 'T12'] | ['T1', 'T5', 'T19'] |
| P28 |    2    | ['T2', 'T7', 'T11'] | ['T1', 'T5', 'T19'] |
+-----+---------+---------------------+---------------------+
21/06/2021 12:43:16[INFO] Actualizando estado de la red..   
21/06/2021 12:43:16[STATE] Cambie al estado 3: Hay igual cantidad de sifones vacios en deadlock   

--------------------------------------------------------------------------
   
21/06/2021 12:43:16[INFO] Calculando recompensa..   
21/06/2021 12:43:16[REWARD] Hay menos o igual cantidad de sifones vacios que en el estado anterior, recompensa -1   

--------------------------------------------------------------------------
   
21/06/2021 12:43:16[INFO] NEW Q-TABLE   
+-----------------------------------------------------+--------------------+------------------------+
|                   Estados/Acciones                  | Agregar supervisor | Agregar o quitar arcos |
+-----------------------------------------------------+--------------------+------------------------+
|                        Start                        |        -0.9        |          0.0           |
|        Más sifónes vacíos en estado deadlock        |        0.0         |          -0.9          |
|       Menos sifónes vacíos en estado deadlock       |        0.0         |          -0.9          |
| Igual cantidad de sifónes vacíos en estado deadlock |        0.0         |          -0.9          |
|                         End                         |        0.0         |          0.0           |
+-----------------------------------------------------+--------------------+------------------------+

--------------------------------------------------------------------------
   
21/06/2021 12:43:16[INFO] Ejecutando accion...   
21/06/2021 12:43:16[ACTION] Agregar supervisor    
21/06/2021 12:43:16[ACTION] Agrego supervisor Numero: 2  

--------------------------------------------------------------------------   
21/06/2021 12:43:16[INFO] Ejecutando petrinator para conocer estado de la red...   
--------------------------------------------------------------------------
   
21/06/2021 12:43:22[INFO] Importando datos desde html...   
21/06/2021 12:43:23[INFO] Analizando cantidad de supervisores que se pueden agregar...   
21/06/2021 12:43:23[INFO] Cantidad de sifones vacios en estado de deadlock ANTES: 5  
21/06/2021 12:43:23[INFO] Cantidad de sifones vacioes en estado de deadlock AHORA: 2  
21/06/2021 12:43:23[INFO] Cantidad de transiciones: 20  
21/06/2021 12:43:23[INFO] Estados de deadlock: [42, 240]  
21/06/2021 12:43:23[INFO] Cantidad de sifones: 19  
21/06/2021 12:43:23[INFO] Cantidad de sifones vacios en estado de deadlock: 2 
 
21/06/2021 12:43:23[INFO] SIFONES   
+----+-----+------------------------------------------+
| ID | Nro |                  Plazas                  |
+----+-----+------------------------------------------+
| 26 |  5  | ['P1', 'P6', 'P12', 'P17', 'P24', 'P25'] |
| 27 |  8  | ['P1', 'P5', 'P6', 'P10', 'P18', 'P28']  |
+----+-----+------------------------------------------+
21/06/2021 12:43:23[INFO] T INVARIANTES   
+----+----+----+----+----+----+----+----+----+----+-----+-----+-----+-----+-----+-----+-----+-----+-----+-----+
| T0 | T1 | T2 | T3 | T4 | T5 | T6 | T7 | T8 | T9 | T10 | T11 | T12 | T13 | T14 | T15 | T16 | T17 | T18 | T19 |
+----+----+----+----+----+----+----+----+----+----+-----+-----+-----+-----+-----+-----+-----+-----+-----+-----+
| 1  | 1  | 1  | 1  | 0  | 0  | 0  | 0  | 0  | 0  |  0  |  0  |  0  |  0  |  0  |  0  |  0  |  0  |  0  |  0  |
| 0  | 0  | 0  | 0  | 1  | 1  | 1  | 1  | 1  | 0  |  0  |  0  |  0  |  0  |  0  |  0  |  0  |  0  |  0  |  0  |
| 0  | 0  | 0  | 0  | 0  | 0  | 0  | 0  | 0  | 1  |  1  |  1  |  1  |  1  |  0  |  0  |  0  |  0  |  1  |  1  |
+----+----+----+----+----+----+----+----+----+----+-----+-----+-----+-----+-----+-----+-----+-----+-----+-----+
21/06/2021 12:43:23[INFO] POSIBLES SUPERVISORES A AGREGAR   
+-----+---------+---------------------+---------------------+
|  ID | Marcado |     T - Entrada     |      T - Salida     |
+-----+---------+---------------------+---------------------+
| P29 |    1    | ['T2', 'T6', 'T12'] | ['T1', 'T5', 'T19'] |
| P29 |    0    |          []         | ['T1', 'T5', 'T19'] |
+-----+---------+---------------------+---------------------+
21/06/2021 12:43:23[INFO] Actualizando estado de la red..   
21/06/2021 12:43:23[STATE] Cambie al estado 2: Hay menos sifones vacios en deadlock   

--------------------------------------------------------------------------
   
21/06/2021 12:43:23[INFO] Calculando recompensa..   
21/06/2021 12:43:23[REWARD] El sifon se controlo correctamente, recompensa -1   

--------------------------------------------------------------------------
   
21/06/2021 12:43:23[INFO] NEW Q-TABLE   
+-----------------------------------------------------+--------------------+------------------------+
|                   Estados/Acciones                  | Agregar supervisor | Agregar o quitar arcos |
+-----------------------------------------------------+--------------------+------------------------+
|                        Start                        |        -0.9        |          0.0           |
|        Más sifónes vacíos en estado deadlock        |        0.0         |          -0.9          |
|       Menos sifónes vacíos en estado deadlock       |        0.0         |          -0.9          |
| Igual cantidad de sifónes vacíos en estado deadlock |        -0.9        |          -0.9          |
|                         End                         |        0.0         |          0.0           |
+-----------------------------------------------------+--------------------+------------------------+

--------------------------------------------------------------------------
   
21/06/2021 12:43:23[INFO] Ejecutando accion...   
21/06/2021 12:43:23[ACTION] Agregar supervisor    
21/06/2021 12:43:23[ACTION] Agrego supervisor Numero: 0  

--------------------------------------------------------------------------   
21/06/2021 12:43:23[INFO] Ejecutando petrinator para conocer estado de la red...   
--------------------------------------------------------------------------
   
21/06/2021 12:43:29[INFO] Importando datos desde html...   
21/06/2021 12:43:29[INFO] Analizando cantidad de supervisores que se pueden agregar...   
21/06/2021 12:43:29[INFO] Cantidad de sifones vacios en estado de deadlock ANTES: 2  
21/06/2021 12:43:29[INFO] Cantidad de sifones vacioes en estado de deadlock AHORA: 2  
21/06/2021 12:43:29[INFO] Cantidad de transiciones: 20  
21/06/2021 12:43:29[INFO] Estados de deadlock: [228]  
21/06/2021 12:43:29[INFO] Cantidad de sifones: 20  
21/06/2021 12:43:29[INFO] Cantidad de sifones vacios en estado de deadlock: 2 
 
21/06/2021 12:43:29[INFO] SIFONES   
+----+-----+------------------------------------------+
| ID | Nro |                  Plazas                  |
+----+-----+------------------------------------------+
| 28 |  7  | ['P1', 'P5', 'P10', 'P11', 'P18', 'P29'] |
| 29 |  9  | ['P1', 'P5', 'P6', 'P10', 'P18', 'P28']  |
+----+-----+------------------------------------------+
21/06/2021 12:43:29[INFO] T INVARIANTES   
+----+----+----+----+----+----+----+----+----+----+-----+-----+-----+-----+-----+-----+-----+-----+-----+-----+
| T0 | T1 | T2 | T3 | T4 | T5 | T6 | T7 | T8 | T9 | T10 | T11 | T12 | T13 | T14 | T15 | T16 | T17 | T18 | T19 |
+----+----+----+----+----+----+----+----+----+----+-----+-----+-----+-----+-----+-----+-----+-----+-----+-----+
| 1  | 1  | 1  | 1  | 0  | 0  | 0  | 0  | 0  | 0  |  0  |  0  |  0  |  0  |  0  |  0  |  0  |  0  |  0  |  0  |
| 0  | 0  | 0  | 0  | 1  | 1  | 1  | 1  | 1  | 0  |  0  |  0  |  0  |  0  |  0  |  0  |  0  |  0  |  0  |  0  |
| 0  | 0  | 0  | 0  | 0  | 0  | 0  | 0  | 0  | 1  |  1  |  1  |  1  |  1  |  0  |  0  |  0  |  0  |  1  |  1  |
+----+----+----+----+----+----+----+----+----+----+-----+-----+-----+-----+-----+-----+-----+-----+-----+-----+
21/06/2021 12:43:29[INFO] POSIBLES SUPERVISORES A AGREGAR   
+-----+---------+-------------+---------------------+
|  ID | Marcado | T - Entrada |      T - Salida     |
+-----+---------+-------------+---------------------+
| P30 |    0    |      []     | ['T1', 'T5', 'T19'] |
| P30 |    0    |      []     | ['T1', 'T5', 'T19'] |
+-----+---------+-------------+---------------------+
21/06/2021 12:43:29[INFO] Actualizando estado de la red..   
21/06/2021 12:43:29[STATE] Cambie al estado 3: Hay igual cantidad de sifones vacios en deadlock   

--------------------------------------------------------------------------
   
21/06/2021 12:43:29[INFO] Calculando recompensa..   
21/06/2021 12:43:29[REWARD] El sifon se controlo correctamente, recompensa -1   

--------------------------------------------------------------------------
   
21/06/2021 12:43:29[INFO] NEW Q-TABLE   
+-----------------------------------------------------+--------------------+------------------------+
|                   Estados/Acciones                  | Agregar supervisor | Agregar o quitar arcos |
+-----------------------------------------------------+--------------------+------------------------+
|                        Start                        |        -0.9        |          0.0           |
|        Más sifónes vacíos en estado deadlock        |        0.0         |          -0.9          |
|       Menos sifónes vacíos en estado deadlock       |       -1.629       |          -0.9          |
| Igual cantidad de sifónes vacíos en estado deadlock |        -0.9        |          -0.9          |
|                         End                         |        0.0         |          0.0           |
+-----------------------------------------------------+--------------------+------------------------+

--------------------------------------------------------------------------
   
21/06/2021 12:43:29[INFO] Ejecutando accion...   
21/06/2021 12:43:29[ACTION] Agregar o quitar arcos   
21/06/2021 12:43:29[ACTION] La transicion en conflicto T15 le tiene que devolver un token al supervisor P28   
21/06/2021 12:43:29[INFO] Se agrego un arco desde T15 hasta P28   
21/06/2021 12:43:29[ACTION] La transicion en conflicto T15 le tiene que devolver un token al supervisor P29   
21/06/2021 12:43:29[INFO] Se agrego un arco desde T15 hasta P29   

--------------------------------------------------------------------------   
21/06/2021 12:43:29[INFO] Ejecutando petrinator para conocer estado de la red...   
--------------------------------------------------------------------------
   
21/06/2021 12:43:39[INFO] Importando datos desde html...   
21/06/2021 12:43:41[INFO] Analizando cantidad de supervisores que se pueden agregar...   
21/06/2021 12:43:41[INFO] Cantidad de sifones vacios en estado de deadlock ANTES: 2  
21/06/2021 12:43:41[INFO] Cantidad de sifones vacioes en estado de deadlock AHORA: 0  
21/06/2021 12:43:41[INFO] Cantidad de transiciones: 20  
21/06/2021 12:43:41[INFO] Estados de deadlock: []  
21/06/2021 12:43:41[INFO] Cantidad de sifones: 20  
21/06/2021 12:43:41[INFO] Cantidad de sifones vacios en estado de deadlock: 0 
 
21/06/2021 12:43:41[INFO] SIFONES   
+----+-----+--------+
| ID | Nro | Plazas |
+----+-----+--------+
+----+-----+--------+
21/06/2021 12:43:41[INFO] T INVARIANTES   
+----+----+----+----+----+----+----+----+----+----+-----+-----+-----+-----+-----+-----+-----+-----+-----+-----+
| T0 | T1 | T2 | T3 | T4 | T5 | T6 | T7 | T8 | T9 | T10 | T11 | T12 | T13 | T14 | T15 | T16 | T17 | T18 | T19 |
+----+----+----+----+----+----+----+----+----+----+-----+-----+-----+-----+-----+-----+-----+-----+-----+-----+
| 1  | 1  | 1  | 1  | 0  | 0  | 0  | 0  | 0  | 0  |  0  |  0  |  0  |  0  |  0  |  0  |  0  |  0  |  0  |  0  |
| 0  | 0  | 0  | 0  | 1  | 1  | 1  | 1  | 1  | 0  |  0  |  0  |  0  |  0  |  0  |  0  |  0  |  0  |  0  |  0  |
| 0  | 0  | 0  | 0  | 0  | 0  | 0  | 0  | 0  | 1  |  1  |  1  |  1  |  1  |  0  |  0  |  0  |  0  |  1  |  1  |
| 0  | 0  | 0  | 0  | 0  | 0  | 0  | 0  | 0  | 0  |  0  |  0  |  0  |  0  |  1  |  1  |  1  |  1  |  1  |  1  |
+----+----+----+----+----+----+----+----+----+----+-----+-----+-----+-----+-----+-----+-----+-----+-----+-----+
21/06/2021 12:43:41[INFO] POSIBLES SUPERVISORES A AGREGAR   
+----+---------+-------------+------------+
| ID | Marcado | T - Entrada | T - Salida |
+----+---------+-------------+------------+
+----+---------+-------------+------------+
21/06/2021 12:43:41[INFO] Actualizando estado de la red..   
21/06/2021 12:43:41[STATE] Cambie al estado 2: Hay menos sifones vacios en deadlock   

--------------------------------------------------------------------------
   
21/06/2021 12:43:41[INFO] Calculando recompensa..   
21/06/2021 12:43:41[REWARD] No hay mas deadlock, recompensa 100   

--------------------------------------------------------------------------
   
21/06/2021 12:43:41[INFO] NEW Q-TABLE   
+-----------------------------------------------------+--------------------+------------------------+
|                   Estados/Acciones                  | Agregar supervisor | Agregar o quitar arcos |
+-----------------------------------------------------+--------------------+------------------------+
|                        Start                        |        -0.9        |          0.0           |
|        Más sifónes vacíos en estado deadlock        |        0.0         |          -0.9          |
|       Menos sifónes vacíos en estado deadlock       |       -1.629       |          -0.9          |
| Igual cantidad de sifónes vacíos en estado deadlock |        -0.9        |         89.181         |
|                         End                         |        0.0         |          0.0           |
+-----------------------------------------------------+--------------------+------------------------+

--------------------------------------------------------------------------
   
21/06/2021 12:43:41[STATE] Se llego al estado deseado, NO HAY MAS DEADLOCK   

--------------------------------------------------------------------------
   
21/06/2021 12:43:41[INFO] Training complete! 
  
