19/07/2021 17:23:53[DEBUG] pflow_file:  ../analysis/analisis_11_18072021/gen_nets/20210719-151114_42/net.pflow  
19/07/2021 17:23:53[DEBUG] output_folder:  ../analysis/analisis_11_18072021/gen_nets/20210719-151114_42/  
19/07/2021 17:23:53[DEBUG] html_path:  ../analysis/analisis_11_18072021/gen_nets/20210719-151114_42/  
19/07/2021 17:23:53[DEBUG] txt_path:  ../analysis/analisis_11_18072021/gen_nets/20210719-151114_42/txt_info  

--------------------------------------------------------------------------   
19/07/2021 17:23:53[INFO] Ejecutando petrinator para conocer estado de la red...   
--------------------------------------------------------------------------
   
19/07/2021 17:28:53[ERROR] Se alcanzo el limite de 300 segundos para la ejecucion de petrinator, cerrando analisis 
  
