19/07/2021 16:07:05[DEBUG] pflow_file:  ../analysis/analisis_11_18072021/gen_nets/20210719-151114_22/net.pflow  
19/07/2021 16:07:05[DEBUG] output_folder:  ../analysis/analisis_11_18072021/gen_nets/20210719-151114_22/  
19/07/2021 16:07:05[DEBUG] html_path:  ../analysis/analisis_11_18072021/gen_nets/20210719-151114_22/  
19/07/2021 16:07:05[DEBUG] txt_path:  ../analysis/analisis_11_18072021/gen_nets/20210719-151114_22/txt_info  

--------------------------------------------------------------------------   
19/07/2021 16:07:05[INFO] Ejecutando petrinator para conocer estado de la red...   
--------------------------------------------------------------------------
   
+----+-----+-----------------------------------------------------------------------------------+
| ID | Nro |                                       Plazas                                      |
+----+-----+-----------------------------------------------------------------------------------+
| 0  |  12 |                     ['P5', 'P11', 'P15', 'P22', 'P26', 'P28']                     |
| 1  |  23 |               ['P2', 'P5', 'P11', 'P15', 'P21', 'P22', 'P23', 'P26']              |
| 2  |  25 |                      ['P2', 'P5', 'P8', 'P11', 'P20', 'P30']                      |
| 3  |  62 |        ['P5', 'P8', 'P11', 'P15', 'P18', 'P20', 'P25', 'P26', 'P28', 'P29']       |
| 4  |  63 | ['P2', 'P5', 'P8', 'P11', 'P15', 'P18', 'P20', 'P21', 'P23', 'P25', 'P26', 'P29'] |
+----+-----+-----------------------------------------------------------------------------------+
+----+----+----+----+----+----+----+----+----+----+-----+-----+-----+-----+-----+-----+-----+-----+
| T0 | T1 | T2 | T3 | T4 | T5 | T6 | T7 | T8 | T9 | T10 | T11 | T12 | T13 | T14 | T15 | T16 | T17 |
+----+----+----+----+----+----+----+----+----+----+-----+-----+-----+-----+-----+-----+-----+-----+
| 1  | 1  | 1  | 0  | 0  | 0  | 0  | 0  | 0  | 0  |  0  |  0  |  0  |  0  |  0  |  0  |  0  |  0  |
| 0  | 0  | 0  | 1  | 1  | 1  | 0  | 0  | 0  | 0  |  0  |  0  |  0  |  0  |  0  |  0  |  0  |  0  |
| 0  | 0  | 0  | 0  | 0  | 0  | 1  | 1  | 1  | 0  |  0  |  0  |  0  |  0  |  0  |  0  |  0  |  0  |
| 0  | 0  | 0  | 0  | 0  | 0  | 0  | 0  | 0  | 1  |  1  |  1  |  0  |  0  |  0  |  0  |  0  |  0  |
| 0  | 0  | 0  | 0  | 0  | 0  | 0  | 0  | 0  | 0  |  0  |  0  |  1  |  1  |  1  |  0  |  0  |  0  |
| 0  | 0  | 0  | 0  | 0  | 0  | 0  | 0  | 0  | 0  |  0  |  0  |  0  |  0  |  0  |  1  |  1  |  1  |
+----+----+----+----+----+----+----+----+----+----+-----+-----+-----+-----+-----+-----+-----+-----+
19/07/2021 16:07:19[INFO] Supervisores para agregar   
+-----+---------+-----------------------------------------+-----------------------------------------+
|  ID | Marcado |               T - Entrada               |                T - Salida               |
+-----+---------+-----------------------------------------+-----------------------------------------+
| P31 |    2    |           ['T5', 'T11', 'T14']          | ['T1', 'T4', 'T7', 'T10', 'T13', 'T16'] |
| P31 |    3    |        ['T2', 'T5', 'T11', 'T14']       | ['T1', 'T4', 'T7', 'T10', 'T13', 'T16'] |
| P31 |    1    |              ['T8', 'T11']              | ['T1', 'T4', 'T7', 'T10', 'T13', 'T16'] |
| P31 |    4    |    ['T5', 'T8', 'T11', 'T14', 'T17']    | ['T1', 'T4', 'T7', 'T10', 'T13', 'T16'] |
| P31 |    5    | ['T2', 'T5', 'T8', 'T11', 'T14', 'T17'] | ['T1', 'T4', 'T7', 'T10', 'T13', 'T16'] |
+-----+---------+-----------------------------------------+-----------------------------------------+
19/07/2021 16:07:19[INFO] Supervisores agregados   
+-----+---------+-------------+------------+
| Nro | Marcado | T - Entrada | T - Salida |
+-----+---------+-------------+------------+
+-----+---------+-------------+------------+
19/07/2021 16:07:19[INFO] Ejecutando accion...   
19/07/2021 16:07:19[INFO] Ejecutando accion...   
19/07/2021 16:07:19[ACTION] Agrego supervisor aleatorio Numero: 0  

--------------------------------------------------------------------------   
19/07/2021 16:07:19[INFO] Ejecutando petrinator para conocer estado de la red...   
--------------------------------------------------------------------------
   

--------------------------------------------------------------------------
   
19/07/2021 16:07:32[INFO] Calculando recompensa..   
19/07/2021 16:07:32[REWARD] El sifon se controlo correctamente, recompensa -1   

--------------------------------------------------------------------------
   
19/07/2021 16:07:32[STATE] Cambie al estado 1: Hay mas sifones vacios en deadlock   
+-----------------------------------------------------+--------------------+------------------------+
|                   Estados/Acciones                  | Agregar supervisor | Agregar o quitar arcos |
+-----------------------------------------------------+--------------------+------------------------+
|                        Start                        |        -1.0        |          0.0           |
|        Más sifónes vacíos en estado deadlock        |        0.0         |          0.0           |
|       Menos sifónes vacíos en estado deadlock       |        0.0         |          0.0           |
| Igual cantidad de sifónes vacíos en estado deadlock |        0.0         |          0.0           |
|                         End                         |        0.0         |          0.0           |
+-----------------------------------------------------+--------------------+------------------------+
+----+-----+---------------------------------------------------------------------------------+
| ID | Nro |                                      Plazas                                     |
+----+-----+---------------------------------------------------------------------------------+
| 5  |  11 |                           ['P4', 'P10', 'P14', 'P31']                           |
| 6  |  18 |              ['P1', 'P4', 'P5', 'P10', 'P11', 'P14', 'P15', 'P31']              |
| 7  |  38 |           ['P1', 'P2', 'P4', 'P5', 'P10', 'P11', 'P14', 'P15', 'P31']           |
| 8  |  48 |    ['P1', 'P2', 'P4', 'P5', 'P10', 'P11', 'P14', 'P15', 'P17', 'P18', 'P31']    |
| 9  | 256 | ['P1', 'P4', 'P5', 'P7', 'P8', 'P10', 'P11', 'P14', 'P15', 'P17', 'P18', 'P31'] |
| 10 | 136 |                     ['P2', 'P5', 'P8', 'P11', 'P20', 'P30']                     |
| 11 | 380 |       ['P2', 'P5', 'P8', 'P11', 'P14', 'P17', 'P18', 'P20', 'P30', 'P31']       |
| 12 | 382 |    ['P2', 'P5', 'P8', 'P11', 'P14', 'P15', 'P17', 'P18', 'P20', 'P30', 'P31']   |
+----+-----+---------------------------------------------------------------------------------+
+----+----+----+----+----+----+----+----+----+----+-----+-----+-----+-----+-----+-----+-----+-----+
| T0 | T1 | T2 | T3 | T4 | T5 | T6 | T7 | T8 | T9 | T10 | T11 | T12 | T13 | T14 | T15 | T16 | T17 |
+----+----+----+----+----+----+----+----+----+----+-----+-----+-----+-----+-----+-----+-----+-----+
| 0  | 0  | 0  | 1  | 1  | 1  | 0  | 0  | 0  | 0  |  0  |  0  |  0  |  0  |  0  |  0  |  0  |  0  |
| 0  | 0  | 0  | 0  | 0  | 0  | 0  | 0  | 0  | 1  |  1  |  1  |  0  |  0  |  0  |  0  |  0  |  0  |
| 0  | 0  | 0  | 0  | 0  | 0  | 0  | 0  | 0  | 0  |  0  |  0  |  1  |  1  |  1  |  0  |  0  |  0  |
+----+----+----+----+----+----+----+----+----+----+-----+-----+-----+-----+-----+-----+-----+-----+
19/07/2021 16:07:32[INFO] Supervisores para agregar   
+-----+---------+----------------------------+-----------------------------------------+
|  ID | Marcado |        T - Entrada         |                T - Salida               |
+-----+---------+----------------------------+-----------------------------------------+
| P32 |    1    |    ['T5', 'T11', 'T14']    | ['T1', 'T4', 'T7', 'T10', 'T13', 'T16'] |
| P32 |    1    |    ['T5', 'T11', 'T14']    | ['T1', 'T4', 'T7', 'T10', 'T13', 'T16'] |
| P32 |    1    |    ['T5', 'T11', 'T14']    | ['T1', 'T4', 'T7', 'T10', 'T13', 'T16'] |
| P32 |    1    |    ['T5', 'T11', 'T14']    | ['T1', 'T4', 'T7', 'T10', 'T13', 'T16'] |
| P32 |    1    |       ['T8', 'T11']        | ['T1', 'T4', 'T7', 'T10', 'T13', 'T16'] |
| P32 |    3    |    ['T5', 'T8', 'T11']     | ['T1', 'T4', 'T7', 'T10', 'T13', 'T16'] |
| P32 |    3    | ['T5', 'T8', 'T11', 'T14'] | ['T1', 'T4', 'T7', 'T10', 'T13', 'T16'] |
+-----+---------+----------------------------+-----------------------------------------+
19/07/2021 16:07:32[INFO] Supervisores agregados   
+-----+---------+----------------------+-----------------------------------------+
| Nro | Marcado |     T - Entrada      |                T - Salida               |
+-----+---------+----------------------+-----------------------------------------+
|  1  |    2    | ['T5', 'T11', 'T14'] | ['T1', 'T4', 'T7', 'T10', 'T13', 'T16'] |
+-----+---------+----------------------+-----------------------------------------+
19/07/2021 16:07:32[INFO] Ejecutando accion...   
19/07/2021 16:07:32[ACTION] Agregar o quitar arcos   
19/07/2021 16:07:32[ACTION] Eliminar arco desde P31 hasta T1   
19/07/2021 16:07:32[INFO] Se elimino el arco desde P31 hasta T1   
19/07/2021 16:07:32[ACTION] Eliminar arco desde P31 hasta T7   
19/07/2021 16:07:32[INFO] Se elimino el arco desde P31 hasta T7   
19/07/2021 16:07:32[ACTION] Eliminar arco desde P31 hasta T16   
19/07/2021 16:07:32[INFO] Se elimino el arco desde P31 hasta T16   

--------------------------------------------------------------------------   
19/07/2021 16:07:32[INFO] Ejecutando petrinator para conocer estado de la red...   
--------------------------------------------------------------------------
   

--------------------------------------------------------------------------
   
19/07/2021 16:07:48[INFO] Calculando recompensa..   
19/07/2021 16:07:48[REWARD] Hay menos o igual cantidad de sifones vacios que en el estado anterior, recompensa -1   

--------------------------------------------------------------------------
   
19/07/2021 16:07:48[STATE] Cambie al estado 2: Hay menos sifones vacios en deadlock   
+-----------------------------------------------------+--------------------+------------------------+
|                   Estados/Acciones                  | Agregar supervisor | Agregar o quitar arcos |
+-----------------------------------------------------+--------------------+------------------------+
|                        Start                        |        -1.0        |          0.0           |
|        Más sifónes vacíos en estado deadlock        |        0.0         |          -1.0          |
|       Menos sifónes vacíos en estado deadlock       |        0.0         |          0.0           |
| Igual cantidad de sifónes vacíos en estado deadlock |        0.0         |          0.0           |
|                         End                         |        0.0         |          0.0           |
+-----------------------------------------------------+--------------------+------------------------+
+----+-----+-----------------------------------------+
| ID | Nro |                  Plazas                 |
+----+-----+-----------------------------------------+
| 13 |  26 | ['P2', 'P5', 'P8', 'P11', 'P20', 'P30'] |
+----+-----+-----------------------------------------+
+----+----+----+----+----+----+----+----+----+----+-----+-----+-----+-----+-----+-----+-----+-----+
| T0 | T1 | T2 | T3 | T4 | T5 | T6 | T7 | T8 | T9 | T10 | T11 | T12 | T13 | T14 | T15 | T16 | T17 |
+----+----+----+----+----+----+----+----+----+----+-----+-----+-----+-----+-----+-----+-----+-----+
| 1  | 1  | 1  | 0  | 0  | 0  | 0  | 0  | 0  | 0  |  0  |  0  |  0  |  0  |  0  |  0  |  0  |  0  |
| 0  | 0  | 0  | 1  | 1  | 1  | 0  | 0  | 0  | 0  |  0  |  0  |  0  |  0  |  0  |  0  |  0  |  0  |
| 0  | 0  | 0  | 0  | 0  | 0  | 1  | 1  | 1  | 0  |  0  |  0  |  0  |  0  |  0  |  0  |  0  |  0  |
| 0  | 0  | 0  | 0  | 0  | 0  | 0  | 0  | 0  | 1  |  1  |  1  |  0  |  0  |  0  |  0  |  0  |  0  |
| 0  | 0  | 0  | 0  | 0  | 0  | 0  | 0  | 0  | 0  |  0  |  0  |  1  |  1  |  1  |  0  |  0  |  0  |
| 0  | 0  | 0  | 0  | 0  | 0  | 0  | 0  | 0  | 0  |  0  |  0  |  0  |  0  |  0  |  1  |  1  |  1  |
+----+----+----+----+----+----+----+----+----+----+-----+-----+-----+-----+-----+-----+-----+-----+
19/07/2021 16:07:48[INFO] Supervisores para agregar   
+-----+---------+---------------+-----------------------------------------+
|  ID | Marcado |  T - Entrada  |                T - Salida               |
+-----+---------+---------------+-----------------------------------------+
| P32 |    1    | ['T8', 'T11'] | ['T1', 'T4', 'T7', 'T10', 'T13', 'T16'] |
+-----+---------+---------------+-----------------------------------------+
19/07/2021 16:07:48[INFO] Supervisores agregados   
+-----+---------+----------------------+-----------------------------------------+
| Nro | Marcado |     T - Entrada      |                T - Salida               |
+-----+---------+----------------------+-----------------------------------------+
|  1  |    2    | ['T5', 'T11', 'T14'] | ['T1', 'T4', 'T7', 'T10', 'T13', 'T16'] |
+-----+---------+----------------------+-----------------------------------------+
19/07/2021 16:07:48[INFO] Ejecutando accion...   
19/07/2021 16:07:48[ACTION] Agregar o quitar arcos   

--------------------------------------------------------------------------   
19/07/2021 16:07:48[INFO] Ejecutando petrinator para conocer estado de la red...   
--------------------------------------------------------------------------
   

--------------------------------------------------------------------------
   
19/07/2021 16:08:00[INFO] Calculando recompensa..   
19/07/2021 16:08:00[REWARD] Hay menos o igual cantidad de sifones vacios que en el estado anterior, recompensa -1   

--------------------------------------------------------------------------
   
19/07/2021 16:08:00[STATE] Cambie al estado 3: Hay igual cantidad de sifones vacios en deadlock   
+-----------------------------------------------------+--------------------+------------------------+
|                   Estados/Acciones                  | Agregar supervisor | Agregar o quitar arcos |
+-----------------------------------------------------+--------------------+------------------------+
|                        Start                        |        -1.0        |          0.0           |
|        Más sifónes vacíos en estado deadlock        |        0.0         |          -1.0          |
|       Menos sifónes vacíos en estado deadlock       |        0.0         |          -1.0          |
| Igual cantidad de sifónes vacíos en estado deadlock |        0.0         |          0.0           |
|                         End                         |        0.0         |          0.0           |
+-----------------------------------------------------+--------------------+------------------------+
+----+-----+-----------------------------------------+
| ID | Nro |                  Plazas                 |
+----+-----+-----------------------------------------+
| 14 |  26 | ['P2', 'P5', 'P8', 'P11', 'P20', 'P30'] |
+----+-----+-----------------------------------------+
+----+----+----+----+----+----+----+----+----+----+-----+-----+-----+-----+-----+-----+-----+-----+
| T0 | T1 | T2 | T3 | T4 | T5 | T6 | T7 | T8 | T9 | T10 | T11 | T12 | T13 | T14 | T15 | T16 | T17 |
+----+----+----+----+----+----+----+----+----+----+-----+-----+-----+-----+-----+-----+-----+-----+
| 1  | 1  | 1  | 0  | 0  | 0  | 0  | 0  | 0  | 0  |  0  |  0  |  0  |  0  |  0  |  0  |  0  |  0  |
| 0  | 0  | 0  | 1  | 1  | 1  | 0  | 0  | 0  | 0  |  0  |  0  |  0  |  0  |  0  |  0  |  0  |  0  |
| 0  | 0  | 0  | 0  | 0  | 0  | 1  | 1  | 1  | 0  |  0  |  0  |  0  |  0  |  0  |  0  |  0  |  0  |
| 0  | 0  | 0  | 0  | 0  | 0  | 0  | 0  | 0  | 1  |  1  |  1  |  0  |  0  |  0  |  0  |  0  |  0  |
| 0  | 0  | 0  | 0  | 0  | 0  | 0  | 0  | 0  | 0  |  0  |  0  |  1  |  1  |  1  |  0  |  0  |  0  |
| 0  | 0  | 0  | 0  | 0  | 0  | 0  | 0  | 0  | 0  |  0  |  0  |  0  |  0  |  0  |  1  |  1  |  1  |
+----+----+----+----+----+----+----+----+----+----+-----+-----+-----+-----+-----+-----+-----+-----+
19/07/2021 16:08:00[INFO] Supervisores para agregar   
+-----+---------+---------------+-----------------------------------------+
|  ID | Marcado |  T - Entrada  |                T - Salida               |
+-----+---------+---------------+-----------------------------------------+
| P32 |    1    | ['T8', 'T11'] | ['T1', 'T4', 'T7', 'T10', 'T13', 'T16'] |
+-----+---------+---------------+-----------------------------------------+
19/07/2021 16:08:00[INFO] Supervisores agregados   
+-----+---------+----------------------+-----------------------------------------+
| Nro | Marcado |     T - Entrada      |                T - Salida               |
+-----+---------+----------------------+-----------------------------------------+
|  1  |    2    | ['T5', 'T11', 'T14'] | ['T1', 'T4', 'T7', 'T10', 'T13', 'T16'] |
+-----+---------+----------------------+-----------------------------------------+
19/07/2021 16:08:00[INFO] Ejecutando accion...   
19/07/2021 16:08:00[ACTION] Agregar o quitar arcos   

--------------------------------------------------------------------------   
19/07/2021 16:08:00[INFO] Ejecutando petrinator para conocer estado de la red...   
--------------------------------------------------------------------------
   

--------------------------------------------------------------------------
   
19/07/2021 16:08:09[INFO] Calculando recompensa..   
19/07/2021 16:08:09[REWARD] Hay menos o igual cantidad de sifones vacios que en el estado anterior, recompensa -1   

--------------------------------------------------------------------------
   
19/07/2021 16:08:09[STATE] Cambie al estado 3: Hay igual cantidad de sifones vacios en deadlock   
+-----------------------------------------------------+--------------------+------------------------+
|                   Estados/Acciones                  | Agregar supervisor | Agregar o quitar arcos |
+-----------------------------------------------------+--------------------+------------------------+
|                        Start                        |        -1.0        |          0.0           |
|        Más sifónes vacíos en estado deadlock        |        0.0         |          -1.0          |
|       Menos sifónes vacíos en estado deadlock       |        0.0         |          -1.0          |
| Igual cantidad de sifónes vacíos en estado deadlock |        0.0         |          -1.0          |
|                         End                         |        0.0         |          0.0           |
+-----------------------------------------------------+--------------------+------------------------+
+----+-----+-----------------------------------------+
| ID | Nro |                  Plazas                 |
+----+-----+-----------------------------------------+
| 15 |  26 | ['P2', 'P5', 'P8', 'P11', 'P20', 'P30'] |
+----+-----+-----------------------------------------+
+----+----+----+----+----+----+----+----+----+----+-----+-----+-----+-----+-----+-----+-----+-----+
| T0 | T1 | T2 | T3 | T4 | T5 | T6 | T7 | T8 | T9 | T10 | T11 | T12 | T13 | T14 | T15 | T16 | T17 |
+----+----+----+----+----+----+----+----+----+----+-----+-----+-----+-----+-----+-----+-----+-----+
| 1  | 1  | 1  | 0  | 0  | 0  | 0  | 0  | 0  | 0  |  0  |  0  |  0  |  0  |  0  |  0  |  0  |  0  |
| 0  | 0  | 0  | 1  | 1  | 1  | 0  | 0  | 0  | 0  |  0  |  0  |  0  |  0  |  0  |  0  |  0  |  0  |
| 0  | 0  | 0  | 0  | 0  | 0  | 1  | 1  | 1  | 0  |  0  |  0  |  0  |  0  |  0  |  0  |  0  |  0  |
| 0  | 0  | 0  | 0  | 0  | 0  | 0  | 0  | 0  | 1  |  1  |  1  |  0  |  0  |  0  |  0  |  0  |  0  |
| 0  | 0  | 0  | 0  | 0  | 0  | 0  | 0  | 0  | 0  |  0  |  0  |  1  |  1  |  1  |  0  |  0  |  0  |
| 0  | 0  | 0  | 0  | 0  | 0  | 0  | 0  | 0  | 0  |  0  |  0  |  0  |  0  |  0  |  1  |  1  |  1  |
+----+----+----+----+----+----+----+----+----+----+-----+-----+-----+-----+-----+-----+-----+-----+
19/07/2021 16:08:09[INFO] Supervisores para agregar   
+-----+---------+---------------+-----------------------------------------+
|  ID | Marcado |  T - Entrada  |                T - Salida               |
+-----+---------+---------------+-----------------------------------------+
| P32 |    1    | ['T8', 'T11'] | ['T1', 'T4', 'T7', 'T10', 'T13', 'T16'] |
+-----+---------+---------------+-----------------------------------------+
19/07/2021 16:08:09[INFO] Supervisores agregados   
+-----+---------+----------------------+-----------------------------------------+
| Nro | Marcado |     T - Entrada      |                T - Salida               |
+-----+---------+----------------------+-----------------------------------------+
|  1  |    2    | ['T5', 'T11', 'T14'] | ['T1', 'T4', 'T7', 'T10', 'T13', 'T16'] |
+-----+---------+----------------------+-----------------------------------------+
19/07/2021 16:08:09[INFO] Ejecutando accion...   
19/07/2021 16:08:09[INFO] Ejecutando accion...   
19/07/2021 16:08:09[ACTION] Agrego supervisor Numero: 0   

--------------------------------------------------------------------------   
19/07/2021 16:08:09[INFO] Ejecutando petrinator para conocer estado de la red...   
--------------------------------------------------------------------------
   

--------------------------------------------------------------------------
   
19/07/2021 16:08:21[INFO] Calculando recompensa..   
19/07/2021 16:08:21[REWARD] El sifon se controlo correctamente, recompensa -1   

--------------------------------------------------------------------------
   
19/07/2021 16:08:21[STATE] Cambie al estado 1: Hay mas sifones vacios en deadlock   
+-----------------------------------------------------+--------------------+------------------------+
|                   Estados/Acciones                  | Agregar supervisor | Agregar o quitar arcos |
+-----------------------------------------------------+--------------------+------------------------+
|                        Start                        |        -1.0        |          0.0           |
|        Más sifónes vacíos en estado deadlock        |        0.0         |          -1.0          |
|       Menos sifónes vacíos en estado deadlock       |        0.0         |          -1.0          |
| Igual cantidad de sifónes vacíos en estado deadlock |        -1.0        |          -1.0          |
|                         End                         |        0.0         |          0.0           |
+-----------------------------------------------------+--------------------+------------------------+
+----+-----+---------------------------------------------------------------------------------+
| ID | Nro |                                      Plazas                                     |
+----+-----+---------------------------------------------------------------------------------+
| 16 |  29 |                               ['P7', 'P10', 'P32']                              |
| 17 |  30 |                           ['P7', 'P10', 'P11', 'P32']                           |
| 18 |  31 |                            ['P1', 'P7', 'P10', 'P32']                           |
| 19 |  33 |                        ['P1', 'P7', 'P10', 'P11', 'P32']                        |
| 20 |  34 |                            ['P4', 'P7', 'P10', 'P32']                           |
| 21 |  37 |                        ['P4', 'P7', 'P10', 'P11', 'P32']                        |
| 22 |  39 |                     ['P1', 'P4', 'P7', 'P10', 'P11', 'P32']                     |
| 23 |  42 |                         ['P1', 'P2', 'P7', 'P10', 'P32']                        |
| 24 |  44 |                     ['P1', 'P2', 'P7', 'P10', 'P11', 'P32']                     |
| 25 |  46 |                      ['P1', 'P2', 'P4', 'P7', 'P10', 'P32']                     |
| 26 |  50 |                  ['P1', 'P2', 'P4', 'P7', 'P10', 'P11', 'P32']                  |
| 27 |  57 |                        ['P7', 'P10', 'P17', 'P18', 'P32']                       |
| 28 |  58 |                    ['P7', 'P10', 'P11', 'P17', 'P18', 'P32']                    |
| 29 |  59 |                     ['P1', 'P7', 'P10', 'P17', 'P18', 'P32']                    |
| 30 |  61 |                 ['P1', 'P7', 'P10', 'P11', 'P17', 'P18', 'P32']                 |
| 31 |  62 |                     ['P4', 'P7', 'P10', 'P17', 'P18', 'P32']                    |
| 32 |  65 |                 ['P4', 'P7', 'P10', 'P11', 'P17', 'P18', 'P32']                 |
| 33 |  67 |              ['P1', 'P4', 'P7', 'P10', 'P11', 'P17', 'P18', 'P32']              |
| 34 |  68 |                  ['P1', 'P2', 'P7', 'P10', 'P17', 'P18', 'P32']                 |
| 35 |  69 |              ['P1', 'P2', 'P7', 'P10', 'P11', 'P17', 'P18', 'P32']              |
| 36 |  73 |               ['P1', 'P2', 'P4', 'P7', 'P10', 'P17', 'P18', 'P32']              |
| 37 |  78 |           ['P1', 'P2', 'P4', 'P7', 'P10', 'P11', 'P17', 'P18', 'P32']           |
| 38 |  91 |                            ['P7', 'P8', 'P10', 'P32']                           |
| 39 |  94 |                        ['P7', 'P8', 'P10', 'P11', 'P32']                        |
| 40 |  98 |                         ['P4', 'P7', 'P8', 'P10', 'P32']                        |
| 41 | 102 |                     ['P4', 'P7', 'P8', 'P10', 'P11', 'P32']                     |
| 42 | 111 |                         ['P1', 'P7', 'P8', 'P10', 'P32']                        |
| 43 | 116 |                     ['P1', 'P7', 'P8', 'P10', 'P11', 'P32']                     |
| 44 | 119 |                  ['P1', 'P4', 'P7', 'P8', 'P10', 'P11', 'P32']                  |
| 45 | 141 |                      ['P1', 'P2', 'P7', 'P8', 'P10', 'P32']                     |
| 46 | 148 |                  ['P1', 'P2', 'P7', 'P8', 'P10', 'P11', 'P32']                  |
| 47 | 161 |                   ['P1', 'P2', 'P4', 'P7', 'P8', 'P10', 'P32']                  |
| 48 | 169 |               ['P1', 'P2', 'P4', 'P7', 'P8', 'P10', 'P11', 'P32']               |
| 49 | 217 |                  ['P4', 'P7', 'P8', 'P10', 'P17', 'P18', 'P32']                 |
| 50 | 221 |              ['P4', 'P7', 'P8', 'P10', 'P11', 'P17', 'P18', 'P32']              |
| 51 | 253 |                  ['P1', 'P7', 'P8', 'P10', 'P17', 'P18', 'P32']                 |
| 52 | 256 |              ['P1', 'P7', 'P8', 'P10', 'P11', 'P17', 'P18', 'P32']              |
| 53 | 260 |           ['P1', 'P4', 'P7', 'P8', 'P10', 'P11', 'P17', 'P18', 'P32']           |
| 54 | 263 |        ['P1', 'P4', 'P5', 'P7', 'P8', 'P10', 'P11', 'P17', 'P18', 'P32']        |
| 55 | 268 |     ['P1', 'P4', 'P5', 'P7', 'P8', 'P10', 'P11', 'P14', 'P17', 'P18', 'P32']    |
| 56 | 273 | ['P1', 'P4', 'P5', 'P7', 'P8', 'P10', 'P11', 'P14', 'P15', 'P17', 'P18', 'P32'] |
| 57 | 354 |        ['P1', 'P2', 'P4', 'P7', 'P8', 'P10', 'P11', 'P17', 'P18', 'P32']        |
+----+-----+---------------------------------------------------------------------------------+
+----+----+----+----+----+----+----+----+----+----+-----+-----+-----+-----+-----+-----+-----+-----+
| T0 | T1 | T2 | T3 | T4 | T5 | T6 | T7 | T8 | T9 | T10 | T11 | T12 | T13 | T14 | T15 | T16 | T17 |
+----+----+----+----+----+----+----+----+----+----+-----+-----+-----+-----+-----+-----+-----+-----+
| 0  | 0  | 0  | 0  | 0  | 0  | 1  | 1  | 1  | 0  |  0  |  0  |  0  |  0  |  0  |  0  |  0  |  0  |
| 0  | 0  | 0  | 0  | 0  | 0  | 0  | 0  | 0  | 1  |  1  |  1  |  0  |  0  |  0  |  0  |  0  |  0  |
+----+----+----+----+----+----+----+----+----+----+-----+-----+-----+-----+-----+-----+-----+-----+
19/07/2021 16:08:21[INFO] Supervisores para agregar   
+----+---------+-------------+------------+
| ID | Marcado | T - Entrada | T - Salida |
+----+---------+-------------+------------+
+----+---------+-------------+------------+
19/07/2021 16:08:21[INFO] Supervisores agregados   
+-----+---------+----------------------+-----------------------------------------+
| Nro | Marcado |     T - Entrada      |                T - Salida               |
+-----+---------+----------------------+-----------------------------------------+
|  1  |    2    | ['T5', 'T11', 'T14'] | ['T1', 'T4', 'T7', 'T10', 'T13', 'T16'] |
|  2  |    1    |    ['T8', 'T11']     | ['T1', 'T4', 'T7', 'T10', 'T13', 'T16'] |
+-----+---------+----------------------+-----------------------------------------+
19/07/2021 16:08:21[INFO] Ejecutando accion...   
19/07/2021 16:08:21[ACTION] Agregar o quitar arcos   
19/07/2021 16:08:21[ACTION] Eliminar arco desde P32 hasta T1   
19/07/2021 16:08:21[INFO] Se elimino el arco desde P32 hasta T1   
19/07/2021 16:08:21[ACTION] Eliminar arco desde P32 hasta T4   
19/07/2021 16:08:21[INFO] Se elimino el arco desde P32 hasta T4   
19/07/2021 16:08:21[ACTION] Eliminar arco desde P32 hasta T13   
19/07/2021 16:08:21[INFO] Se elimino el arco desde P32 hasta T13   
19/07/2021 16:08:21[ACTION] Eliminar arco desde P32 hasta T16   
19/07/2021 16:08:21[INFO] Se elimino el arco desde P32 hasta T16   

--------------------------------------------------------------------------   
19/07/2021 16:08:21[INFO] Ejecutando petrinator para conocer estado de la red...   
--------------------------------------------------------------------------
   

--------------------------------------------------------------------------
   
19/07/2021 16:08:32[INFO] Calculando recompensa..   
19/07/2021 16:08:32[REWARD] No hay mas deadlock, recompensa 100   

--------------------------------------------------------------------------
   
19/07/2021 16:08:32[STATE] Se llego al estado deseado, NO HAY MAS DEADLOCK   

--------------------------------------------------------------------------
   
19/07/2021 16:08:32[STATE] Cambie al estado 2: Hay menos sifones vacios en deadlock   
+-----------------------------------------------------+--------------------+------------------------+
|                   Estados/Acciones                  | Agregar supervisor | Agregar o quitar arcos |
+-----------------------------------------------------+--------------------+------------------------+
|                        Start                        |        -1.0        |          0.0           |
|        Más sifónes vacíos en estado deadlock        |        0.0         |         100.0          |
|       Menos sifónes vacíos en estado deadlock       |        0.0         |          -1.0          |
| Igual cantidad de sifónes vacíos en estado deadlock |        -1.0        |          -1.0          |
|                         End                         |        0.0         |          0.0           |
+-----------------------------------------------------+--------------------+------------------------+
