19/07/2021 23:32:49[DEBUG] pflow_file:  ../analysis/analisis_11_19072021/gen_nets/20210719-224351_33/net.pflow  
19/07/2021 23:32:49[DEBUG] output_folder:  ../analysis/analisis_11_19072021/gen_nets/20210719-224351_33/  
19/07/2021 23:32:49[DEBUG] html_path:  ../analysis/analisis_11_19072021/gen_nets/20210719-224351_33/  
19/07/2021 23:32:49[DEBUG] txt_path:  ../analysis/analisis_11_19072021/gen_nets/20210719-224351_33/txt_info  

--------------------------------------------------------------------------   
19/07/2021 23:32:49[INFO] Ejecutando petrinator para conocer estado de la red...   
--------------------------------------------------------------------------
   
19/07/2021 23:32:55[ERROR] La red ingresada no tiene deadlock, cerrando analisis 
  
