 Minimal siphons 
4 12 16 21 37 41 43 44
3 21 37
21 22
2 16 44
1 8 38
8 12 16 20 32 39 40 43
7 18 34
12 16 31 43
11 25 42
25 26 27 29
20 23
15 16 17
25 28
11 20 40
11 16 31
11 13
12 15 43
11 12 14
11 12 16 31
7 16 32
7 12 36
8 11 20 39 40
8 20 23 39
8 19 39
8 9
7 8 18 34
7 8 16 32
7 8 10
7 8 10 15 16 17
8 9 18 19 34
7 8 18 19 34
8 19 20 39
8 9 18 19 20 34
7 8 18 19 20 34
8 9 20 23
7 8 18 20 23 34
7 8 16 20 23 32
7 8 10 20 23
7 8 10 15 16 17 20 23
8 9 11 20 40
7 8 11 18 20 34 40
7 8 11 16 20 32 40
7 8 10 11 20 40
7 8 10 11 16 20 31 40
8 12 20 36 39 40
8 12 35
7 8 12 36
8 11 12 20 39 40
8 9 11 12 20 40
7 8 11 12 18 20 34 40
7 8 10 11 12 20 40
7 8 12 20 36 40
7 8 10 11 12 16 31
7 8 11 12 16 18 31 34
8 9 11 12 16 31
7 8 12 16 32 43
7 8 12 16 32 36
7 8 11 12 16 18 19 31 34
8 9 11 12 16 18 19 31 34
8 11 12 16 19 31 39
7 8 10 11 12 16 20 31 40
7 8 11 12 16 18 19 20 31 34
7 8 11 12 16 18 20 31 34 40
8 9 11 12 16 18 19 20 31 34
8 9 11 12 16 20 31 40
8 11 12 16 19 20 31 39
8 11 12 16 20 31 39 40
7 8 12 16 20 32 40 43
7 8 12 16 20 32 36 40
7 8 11 12 16 20 32 40
8 9 11 12 16 20 32 40
8 11 12 16 20 32 39 40
1 5
1 5 8 11 20 39 40
1 5 8 20 23 39
1 5 8 19 39
1 5 8 9
1 5 7 8 18 34
1 5 7 8 16 32
1 5 7 8 10
1 5 7 8 10 15 16 17
1 5 8 9 18 19 34
1 5 7 8 18 19 34
1 5 8 19 20 39
1 5 8 9 18 19 20 34
1 5 7 8 18 19 20 34
1 5 8 9 20 23
1 5 7 8 18 20 23 34
1 5 7 8 16 20 23 32
1 5 7 8 10 20 23
1 5 7 8 10 15 16 17 20 23
1 5 8 9 11 20 40
1 5 7 8 11 18 20 34 40
1 5 7 8 11 16 20 32 40
1 5 7 8 10 11 20 40
1 5 7 8 10 11 16 20 31 40
1 5 7 8 12 36
1 5 8 11 12 20 39 40
1 5 8 9 11 12 20 40
1 5 7 8 11 12 18 20 34 40
1 5 7 8 10 11 12 20 40
1 5 7 8 12 20 36 40
1 5 7 8 10 11 12 16 31
1 5 7 8 11 12 16 18 31 34
1 5 8 9 11 12 16 31
1 5 7 8 12 16 32 43
1 5 7 8 12 16 32 36
1 5 7 8 11 12 16 18 19 31 34
1 5 8 9 11 12 16 18 19 31 34
1 5 8 11 12 16 19 31 39
1 5 7 8 10 11 12 16 20 31 40
1 5 7 8 11 12 16 18 19 20 31 34
1 5 7 8 11 12 16 18 20 31 34 40
1 5 8 9 11 12 16 18 19 20 31 34
1 5 8 9 11 12 16 20 31 40
1 5 8 11 12 16 19 20 31 39
1 5 8 11 12 16 20 31 39 40
1 5 7 8 12 16 20 32 40 43
1 5 7 8 12 16 20 32 36 40
1 5 7 8 11 12 16 20 32 40
1 5 8 9 11 12 16 20 32 40
1 5 8 11 12 16 20 32 39 40
1 2 8 38
1 2 5
1 2 5 8 11 20 39 40
1 2 5 8 20 23 39
1 2 5 8 19 39
1 2 5 8 9
1 2 5 7 8 18 34
1 2 5 7 8 10
1 2 5 8 9 18 19 34
1 2 5 7 8 18 19 34
1 2 5 8 19 20 39
1 2 5 8 9 18 19 20 34
1 2 5 7 8 18 19 20 34
1 2 5 8 9 20 23
1 2 5 7 8 18 20 23 34
1 2 5 7 8 10 20 23
1 2 5 8 9 11 20 40
1 2 5 7 8 11 18 20 34 40
1 2 5 7 8 10 11 20 40
1 2 5 7 8 12 36
1 2 5 8 11 12 20 39 40
1 2 5 8 9 11 12 20 40
1 2 5 7 8 11 12 18 20 34 40
1 2 5 7 8 10 11 12 20 40
1 2 5 7 8 12 20 36 40
1 2 5 7 16 32
1 2 5 11 16 31
1 2 5 15 16 17
1 2 5 11 12 16 31
1 2 5 7 11 16 18 31 34
1 2 5 7 15 16 17 18 34
1 2 5 7 11 12 16 18 31 34
1 2 8 11 16 31 38
1 2 8 15 16 17 38
1 2 5 8 15 16 17 20 23 39
1 2 5 8 15 16 17 19 39
1 2 5 8 9 15 16 17
1 2 5 7 8 15 16 17 18 34
1 2 5 7 8 10 15 16 17
1 2 5 8 9 15 16 17 18 19 34
1 2 5 7 8 15 16 17 18 19 34
1 2 5 8 15 16 17 19 20 39
1 2 5 8 9 15 16 17 18 19 20 34
1 2 5 7 8 15 16 17 18 19 20 34
1 2 5 8 9 15 16 17 20 23
1 2 5 7 8 15 16 17 18 20 23 34
1 2 5 7 8 10 15 16 17 20 23
1 2 5 8 11 16 20 31 39 40
1 2 5 8 11 16 19 31 39
1 2 5 8 9 11 16 31
1 2 5 7 8 11 16 18 31 34
1 2 5 7 8 10 11 16 31
1 2 5 8 9 11 16 18 19 31 34
1 2 5 7 8 11 16 18 19 31 34
1 2 5 8 9 11 16 20 31 40
1 2 5 7 8 11 16 18 20 31 34 40
1 2 5 7 8 10 11 16 20 31 40
1 2 5 7 8 11 16 18 19 20 31 34
1 2 5 8 9 11 16 18 19 20 31 34
1 2 5 8 11 16 19 20 31 39
1 2 5 7 8 10 11 12 16 31
1 2 5 7 8 11 12 16 18 31 34
1 2 5 8 9 11 12 16 31
1 2 5 7 8 11 12 16 18 19 31 34
1 2 5 8 9 11 12 16 18 19 31 34
1 2 5 8 11 12 16 19 31 39
1 2 5 7 8 10 11 12 16 20 31 40
1 2 5 7 8 11 12 16 18 19 20 31 34
1 2 5 7 8 11 12 16 18 20 31 34 40
1 2 5 8 9 11 12 16 18 19 20 31 34
1 2 5 8 9 11 12 16 20 31 40
1 2 5 8 11 12 16 19 20 31 39
1 2 5 8 11 12 16 20 31 39 40
1 2 8 11 12 16 31 38
1 2 5 8 11 16 20 32 39 40
1 2 5 8 16 20 23 32 39
1 2 5 8 16 19 32 39
1 2 5 8 9 16 32
1 2 5 7 8 16 32
1 2 5 8 9 16 18 19 32 34
1 2 5 7 8 16 18 19 32 34
1 2 5 8 16 19 20 32 39
1 2 5 8 9 16 18 19 20 32 34
1 2 5 7 8 16 18 19 20 32 34
1 2 5 8 9 16 20 23 32
1 2 5 7 8 16 20 23 32
1 2 5 8 9 11 16 20 32 40
1 2 5 7 8 11 16 20 32 40
1 2 5 7 8 12 16 32 43
1 2 5 7 8 12 16 32 36
1 2 5 7 8 12 16 20 32 40 43
1 2 5 7 8 12 16 20 32 36 40
1 2 5 7 8 11 12 16 20 32 40
1 2 5 8 9 11 12 16 20 32 40
1 2 5 8 11 12 16 20 32 39 40
7 12 16 20 21 32 40 43
11 20 21 40
20 21 23
18 19 20 21 24
11 12 20 21 40
11 12 16 20 21 31 40
7 11 18 20 21 34 40
7 18 20 21 23 34
7 16 20 21 23 32
7 18 19 20 21 34
7 16 18 19 20 21 24 32
7 16 18 20 21 23 24 32
7 11 16 20 21 32 40
7 11 16 18 20 21 24 32 40
7 12 20 21 36 40
7 11 12 18 20 21 34 40
7 11 12 16 18 19 20 21 31 34
7 11 12 16 18 20 21 31 34 40
7 12 16 20 21 32 36 40
7 11 12 16 20 21 32 40
8 11 20 21 39 40
8 20 21 23 39
8 19 20 21 39
8 9 18 19 20 21 34
7 8 18 19 20 21 34
7 8 16 18 19 20 21 24 32
7 8 10 18 19 20 21 24
7 8 10 15 16 17 18 19 20 21 24
8 9 18 19 20 21 24
8 9 20 21 23
7 8 18 20 21 23 34
7 8 16 20 21 23 32
7 8 10 20 21 23
7 8 10 15 16 17 20 21 23
7 8 16 18 20 21 23 24 32
7 8 10 18 20 21 23 24
7 8 10 15 16 17 18 20 21 23 24
8 9 11 20 21 40
7 8 11 18 20 21 34 40
7 8 11 16 20 21 32 40
7 8 10 11 20 21 40
7 8 10 11 16 20 21 31 40
7 8 11 16 18 20 21 24 32 40
7 8 10 11 18 20 21 24 40
7 8 10 11 16 18 20 21 24 31 40
8 11 12 20 21 39 40
8 9 11 12 20 21 40
7 8 11 12 18 20 21 34 40
7 8 10 11 12 20 21 40
7 8 10 11 12 18 20 21 24 40
7 8 12 20 21 36 40
7 8 10 11 12 16 20 21 31 40
7 8 10 11 12 16 18 20 21 24 31 40
7 8 11 12 16 18 19 20 21 31 34
7 8 11 12 16 18 20 21 31 34 40
8 9 11 12 16 18 19 20 21 31 34
8 9 11 12 16 20 21 31 40
8 11 12 16 19 20 21 31 39
8 11 12 16 20 21 31 39 40
7 8 12 16 20 21 32 40 43
7 8 12 16 20 21 32 36 40
7 8 11 12 16 20 21 32 40
8 9 11 12 16 20 21 32 40
8 11 12 16 20 21 32 39 40
1 5 7 12 16 20 21 32 40 43
1 5 11 20 21 40
1 5 20 21 23
1 5 18 19 20 21 24
1 5 11 12 20 21 40
1 5 11 12 16 20 21 31 40
1 5 7 11 18 20 21 34 40
1 5 7 18 20 21 23 34
1 5 7 16 20 21 23 32
1 5 7 18 19 20 21 34
1 5 7 16 18 19 20 21 24 32
1 5 7 16 18 20 21 23 24 32
1 5 7 11 16 20 21 32 40
1 5 7 11 16 18 20 21 24 32 40
1 5 7 12 20 21 36 40
1 5 7 11 12 18 20 21 34 40
1 5 7 11 12 16 18 19 20 21 31 34
1 5 7 11 12 16 18 20 21 31 34 40
1 5 7 12 16 20 21 32 36 40
1 5 7 11 12 16 20 21 32 40
1 8 11 20 21 38 40
1 8 20 21 23 38
1 8 19 20 21 38 39
1 5 8 19 20 21 39
1 5 8 9 18 19 20 21 34
1 5 7 8 18 19 20 21 34
1 5 7 8 16 18 19 20 21 24 32
1 5 7 8 10 18 19 20 21 24
1 5 7 8 10 15 16 17 18 19 20 21 24
1 5 8 9 18 19 20 21 24
1 8 18 19 20 21 34 38
1 8 18 19 20 21 24 38
1 5 8 20 21 23 39
1 5 8 9 20 21 23
1 5 7 8 18 20 21 23 34
1 5 7 8 16 20 21 23 32
1 5 7 8 10 20 21 23
1 5 7 8 10 15 16 17 20 21 23
1 5 7 8 16 18 20 21 23 24 32
1 5 7 8 10 18 20 21 23 24
1 5 7 8 10 15 16 17 18 20 21 23 24
1 5 8 11 20 21 39 40
1 5 8 9 11 20 21 40
1 5 7 8 11 18 20 21 34 40
1 5 7 8 11 16 20 21 32 40
1 5 7 8 10 11 20 21 40
1 5 7 8 10 11 16 20 21 31 40
1 5 7 8 11 16 18 20 21 24 32 40
1 5 7 8 10 11 18 20 21 24 40
1 5 7 8 10 11 16 18 20 21 24 31 40
1 8 11 12 20 21 38 40
1 5 8 11 12 20 21 39 40
1 5 8 9 11 12 20 21 40
1 5 7 8 11 12 18 20 21 34 40
1 5 7 8 10 11 12 20 21 40
1 5 7 8 10 11 12 18 20 21 24 40
1 5 7 8 12 20 21 36 40
1 5 7 8 10 11 12 16 20 21 31 40
1 5 7 8 10 11 12 16 18 20 21 24 31 40
1 5 7 8 11 12 16 18 19 20 21 31 34
1 5 7 8 11 12 16 18 20 21 31 34 40
1 5 8 9 11 12 16 18 19 20 21 31 34
1 5 8 9 11 12 16 20 21 31 40
1 5 8 11 12 16 19 20 21 31 39
1 5 8 11 12 16 20 21 31 39 40
1 8 11 12 16 18 19 20 21 31 34 38
1 8 11 12 16 19 20 21 31 38 39
1 8 11 12 16 20 21 31 38 40
1 5 7 8 12 16 20 21 32 40 43
1 5 7 8 12 16 20 21 32 36 40
1 5 7 8 11 12 16 20 21 32 40
1 5 8 9 11 12 16 20 21 32 40
1 5 8 11 12 16 20 21 32 39 40
1 8 11 12 16 20 21 32 38 40
2 11 16 20 21 40 44
2 16 20 21 23 44
1 2 8 20 21 23 38
1 2 5 20 21 23
1 2 5 7 18 19 20 21 34
1 2 5 18 19 20 21 24
1 2 8 19 20 21 38 39
1 2 5 8 19 20 21 39
1 2 5 8 9 18 19 20 21 34
1 2 5 7 8 18 19 20 21 34
1 2 5 7 8 10 18 19 20 21 24
1 2 5 8 9 18 19 20 21 24
1 2 8 18 19 20 21 34 38
1 2 8 18 19 20 21 24 38
1 2 5 8 20 21 23 39
1 2 5 8 9 20 21 23
1 2 5 7 8 18 20 21 23 34
1 2 5 7 8 10 20 21 23
1 2 5 7 8 10 18 20 21 23 24
2 8 16 19 20 21 39 44
2 7 16 18 19 20 21 34 44
2 16 18 19 20 21 24 44
1 2 5 15 16 17 18 19 20 21 24
2 7 16 18 19 20 21 24 32 44
1 2 5 7 16 18 19 20 21 24 32
1 2 5 7 16 18 19 20 21 32 34
1 2 5 7 15 16 17 18 19 20 21 34
2 8 16 18 19 20 21 34 38 44
2 8 16 18 19 20 21 24 38 44
2 8 9 16 18 19 20 21 24 44
2 7 8 16 18 19 20 21 24 32 44
2 7 8 10 16 18 19 20 21 24 44
1 2 5 7 8 10 15 16 17 18 19 20 21 24
1 2 5 7 8 16 18 19 20 21 24 32
1 2 5 8 9 16 18 19 20 21 24 32
1 2 5 8 9 15 16 17 18 19 20 21 24
1 2 8 16 18 19 20 21 24 32 38
1 2 8 15 16 17 18 19 20 21 24 38
2 8 9 16 18 19 20 21 34 44
2 7 8 16 18 19 20 21 34 44
1 2 5 7 8 16 18 19 20 21 32 34
1 2 5 7 8 15 16 17 18 19 20 21 34
1 2 5 8 9 16 18 19 20 21 32 34
1 2 5 8 9 15 16 17 18 19 20 21 34
1 2 8 16 18 19 20 21 32 34 38
1 2 8 15 16 17 18 19 20 21 34 38
1 2 8 16 19 20 21 32 38 39
1 2 8 15 16 17 19 20 21 38 39
1 2 5 8 15 16 17 19 20 21 39
1 2 5 8 16 19 20 21 32 39
1 2 8 16 20 21 23 32 38
1 2 5 7 16 20 21 23 32
1 2 5 15 16 17 20 21 23
1 2 5 7 15 16 17 18 20 21 23 34
1 2 8 15 16 17 20 21 23 38
1 2 5 8 15 16 17 20 21 23 39
1 2 5 8 9 15 16 17 20 21 23
1 2 5 7 8 15 16 17 18 20 21 23 34
1 2 5 7 8 10 15 16 17 20 21 23
1 2 5 7 8 10 15 16 17 18 20 21 23 24
1 2 5 8 16 20 21 23 32 39
1 2 5 8 9 16 20 21 23 32
1 2 5 7 8 16 20 21 23 32
1 2 8 11 20 21 38 40
1 2 5 11 20 21 40
1 2 5 8 11 20 21 39 40
1 2 5 8 9 11 20 21 40
1 2 5 7 8 11 18 20 21 34 40
1 2 5 7 8 10 11 20 21 40
1 2 5 7 8 10 11 18 20 21 24 40
1 2 8 11 16 20 21 32 38 40
1 2 5 7 11 16 20 21 32 40
1 2 5 11 16 20 21 31 40
1 2 5 7 11 16 18 20 21 31 34 40
1 2 8 11 16 20 21 31 38 40
1 2 5 8 11 16 20 21 31 39 40
1 2 5 8 9 11 16 20 21 31 40
1 2 5 7 8 11 16 18 20 21 31 34 40
1 2 5 7 8 10 11 16 20 21 31 40
1 2 5 7 8 10 11 16 18 20 21 24 31 40
1 2 5 8 11 16 20 21 32 39 40
1 2 5 8 9 11 16 20 21 32 40
1 2 5 7 8 11 16 20 21 32 40
1 2 5 7 12 20 21 36 40
1 2 5 11 12 20 21 40
1 2 5 7 11 12 18 20 21 34 40
1 2 8 11 12 20 21 38 40
1 2 5 8 11 12 20 21 39 40
1 2 5 8 9 11 12 20 21 40
1 2 5 7 8 11 12 18 20 21 34 40
1 2 5 7 8 10 11 12 20 21 40
1 2 5 7 8 10 11 12 18 20 21 24 40
1 2 5 7 8 12 20 21 36 40
2 7 12 16 20 21 36 40 44
2 11 12 16 20 21 40 44
1 2 5 11 12 16 20 21 31 40
2 7 11 12 16 18 20 21 34 40 44
2 7 11 12 16 20 21 32 40 44
1 2 5 7 11 12 16 20 21 32 40
2 7 11 12 16 18 20 21 24 32 40 44
1 2 5 7 11 12 16 18 20 21 24 32 40
1 2 5 7 11 12 16 18 20 21 32 34 40
1 2 5 7 11 12 16 18 20 21 31 34 40
1 2 5 7 12 16 20 21 32 36 40
1 2 5 7 12 16 20 21 31 36 40
2 8 11 12 16 20 21 39 40 44
2 8 11 12 16 20 21 38 40 44
2 8 9 11 12 16 20 21 40 44
2 7 8 11 12 16 18 20 21 34 40 44
2 7 8 11 12 16 20 21 32 40 44
2 7 8 10 11 12 16 20 21 40 44
1 2 5 7 8 10 11 12 16 20 21 31 40
1 2 5 7 8 11 12 16 20 21 32 40
2 7 8 11 12 16 18 20 21 24 32 40 44
2 7 8 10 11 12 16 18 20 21 24 40 44
1 2 5 7 8 10 11 12 16 18 20 21 24 31 40
1 2 5 7 8 11 12 16 18 20 21 24 32 40
1 2 5 7 8 11 12 16 18 20 21 32 34 40
1 2 5 7 8 11 12 16 18 20 21 31 34 40
1 2 5 8 9 11 12 16 20 21 32 40
1 2 5 8 9 11 12 16 20 21 31 40
1 2 8 11 12 16 20 21 32 38 40
1 2 8 11 12 16 20 21 31 38 40
1 2 8 11 12 16 20 21 32 38 39 40
1 2 8 11 12 16 20 21 31 38 39 40
1 2 5 8 11 12 16 20 21 31 39 40
1 2 5 8 11 12 16 20 21 32 39 40
2 7 8 12 16 20 21 36 40 44
1 2 5 7 8 12 16 20 21 32 36 40
1 2 5 7 8 12 16 20 21 31 36 40
1 2 5 7 12 16 20 21 32 40 43
1 2 5 7 8 12 16 20 21 32 40 43
3 12 16 30 43 44
3 11 30
2 3 16 44
1 2 3 8 38
1 2 3 5
1 2 3 5 8 20 23 39
1 2 3 5 8 19 39
1 2 3 5 8 9
1 2 3 5 7 8 18 34
1 2 3 5 7 8 10
1 2 3 5 8 9 18 19 34
1 2 3 5 7 8 18 19 34
1 2 3 5 8 19 20 39
1 2 3 5 8 9 18 19 20 34
1 2 3 5 7 8 18 19 20 34
1 2 3 5 8 9 20 23
1 2 3 5 7 8 18 20 23 34
1 2 3 5 7 8 10 20 23
1 2 3 8 16 32 38
1 2 3 5 7 16 32
1 2 3 5 15 16 17
1 2 3 5 7 15 16 17 18 34
1 2 3 8 15 16 17 38
1 2 3 5 8 15 16 17 20 23 39
1 2 3 5 8 15 16 17 19 39
1 2 3 5 8 9 15 16 17
1 2 3 5 7 8 15 16 17 18 34
1 2 3 5 7 8 10 15 16 17
1 2 3 5 8 9 15 16 17 18 19 34
1 2 3 5 7 8 15 16 17 18 19 34
1 2 3 5 8 15 16 17 19 20 39
1 2 3 5 8 9 15 16 17 18 19 20 34
1 2 3 5 7 8 15 16 17 18 19 20 34
1 2 3 5 8 9 15 16 17 20 23
1 2 3 5 7 8 15 16 17 18 20 23 34
1 2 3 5 7 8 10 15 16 17 20 23
1 2 3 5 8 16 20 23 32 39
1 2 3 5 8 16 19 32 39
1 2 3 5 8 9 16 32
1 2 3 5 7 8 16 32
1 2 3 5 8 9 16 18 19 32 34
1 2 3 5 7 8 16 18 19 32 34
1 2 3 5 8 16 19 20 32 39
1 2 3 5 8 9 16 18 19 20 32 34
1 2 3 5 7 8 16 18 19 20 32 34
1 2 3 5 8 9 16 20 23 32
1 2 3 5 7 8 16 20 23 32
3 7 12 30 36
3 11 12 30
3 7 11 12 18 30 34
3 7 8 12 30 36
3 7 8 11 12 18 30 34
3 7 8 10 11 12 30
3 8 9 11 12 30
3 8 11 12 19 30 39
3 8 9 11 12 18 19 30 34
3 7 8 11 12 18 19 30 34
3 8 11 12 20 30 39 40
3 8 9 11 12 20 30 40
3 7 8 11 12 18 20 30 34 40
3 7 8 10 11 12 20 30 40
3 7 8 11 12 18 19 20 30 34
3 8 9 11 12 18 19 20 30 34
3 8 11 12 19 20 30 39
3 7 8 12 20 30 36 40
1 3 5 7 12 30 36
1 3 5 11 12 30
1 2 3 5 7 12 36
1 3 5 7 11 12 18 30 34
1 2 3 5 7 8 12 36
1 2 3 5 7 8 12 20 36 40
1 3 8 11 12 30 38
1 3 5 8 11 12 20 30 39 40
1 3 5 8 11 12 19 30 39
1 3 5 8 9 11 12 30
1 3 5 7 8 11 12 18 30 34
1 3 5 7 8 10 11 12 30
1 3 5 8 9 11 12 18 19 30 34
1 3 5 7 8 11 12 18 19 30 34
1 3 5 8 9 11 12 20 30 40
1 3 5 7 8 11 12 18 20 30 34 40
1 3 5 7 8 10 11 12 20 30 40
1 3 5 7 8 11 12 18 19 20 30 34
1 3 5 8 9 11 12 18 19 20 30 34
1 3 5 8 11 12 19 20 30 39
1 3 5 7 8 12 30 36
1 3 5 7 8 12 20 30 36 40
2 3 7 12 16 36 44
1 2 3 5 7 12 16 32 36
1 2 3 5 7 12 16 31 36
2 3 7 8 12 16 36 44
1 2 3 5 7 8 12 16 32 36
1 2 3 5 7 8 12 16 31 36
2 3 8 11 12 16 20 39 40 44
2 3 8 11 12 16 20 38 40 44
2 3 8 9 11 12 16 20 40 44
2 3 7 8 11 12 16 18 20 34 40 44
2 3 7 8 11 12 16 20 32 40 44
2 3 7 8 10 11 12 16 20 40 44
1 2 3 5 7 8 10 11 12 16 20 31 40
1 2 3 5 7 8 11 12 16 20 32 40
1 2 3 5 7 8 11 12 16 18 20 32 34 40
1 2 3 5 7 8 11 12 16 18 20 31 34 40
1 2 3 5 8 9 11 12 16 20 32 40
1 2 3 5 8 9 11 12 16 20 31 40
1 2 3 8 11 12 16 20 32 38 40
1 2 3 8 11 12 16 20 31 38 40
1 2 3 8 11 12 16 20 32 38 39 40
1 2 3 8 11 12 16 20 31 38 39 40
1 2 3 5 8 11 12 16 20 31 39 40
1 2 3 5 8 11 12 16 20 32 39 40
2 3 7 8 12 16 20 36 40 44
1 2 3 5 7 8 12 16 20 32 36 40
1 2 3 5 7 8 12 16 20 31 36 40
1 2 3 5 7 12 16 32 43
1 2 3 5 7 8 12 16 32 43
1 2 3 5 7 8 12 16 20 32 40 43
3 7 12 16 30 36 44
3 11 12 16 30 44
3 11 12 16 30 31
3 7 11 12 16 18 30 34 44
3 7 11 12 16 30 32
3 7 11 12 16 18 30 32 34
3 7 11 12 16 18 30 31 34
3 7 12 16 30 32 36
3 7 12 16 30 31 36
3 8 12 16 30 36 38 44
3 8 11 12 16 30 38 44
3 8 9 11 12 16 30 44
3 7 8 11 12 16 18 30 34 44
3 7 8 11 12 16 30 32
3 7 8 10 11 12 16 30 44
3 7 8 10 11 12 16 30 31
3 7 8 11 12 16 18 30 32 34
3 7 8 11 12 16 18 30 31 34
3 8 9 11 12 16 30 32
3 8 9 11 12 16 30 31
1 3 8 11 12 16 30 32 38
1 3 8 11 12 16 30 31 38
3 7 8 12 16 30 36 44
3 7 8 12 16 30 32 36
3 7 8 12 16 30 31 36
3 8 11 12 16 19 30 39 44
3 8 11 12 16 18 19 30 34 38 44
3 8 9 11 12 16 18 19 30 34 44
3 7 8 11 12 16 18 19 30 34 44
3 7 8 11 12 16 18 19 30 32 34
3 7 8 11 12 16 18 19 30 31 34
3 8 9 11 12 16 18 19 30 32 34
3 8 9 11 12 16 18 19 30 31 34
1 3 8 11 12 16 18 19 30 32 34 38
1 3 8 11 12 16 18 19 30 31 34 38
3 8 11 12 16 19 30 32 39
3 8 11 12 16 19 30 31 39
3 8 11 12 16 20 30 39 40 44
3 8 11 12 16 20 30 38 40 44
3 8 9 11 12 16 20 30 40 44
3 7 8 11 12 16 18 20 30 34 40 44
3 7 8 11 12 16 20 30 32 40
3 7 8 10 11 12 16 20 30 40 44
3 7 8 10 11 12 16 20 30 31 40
3 7 8 11 12 16 18 19 20 30 34 44
3 7 8 11 12 16 18 19 20 30 32 34
3 7 8 11 12 16 18 19 20 30 31 34
3 7 8 11 12 16 18 20 30 32 34 40
3 7 8 11 12 16 18 20 30 31 34 40
3 8 9 11 12 16 18 19 20 30 34 44
3 8 9 11 12 16 18 19 20 30 32 34
3 8 9 11 12 16 18 19 20 30 31 34
3 8 9 11 12 16 20 30 32 40
3 8 9 11 12 16 20 30 31 40
3 8 11 12 16 18 19 20 30 34 38 44
1 3 8 11 12 16 18 19 20 30 32 34 38
1 3 8 11 12 16 18 19 20 30 31 34 38
1 3 8 11 12 16 20 30 32 38 40
1 3 8 11 12 16 20 30 31 38 40
3 8 11 12 16 19 20 30 39 44
3 8 11 12 16 19 20 30 32 39
3 8 11 12 16 19 20 30 31 39
3 8 11 12 16 20 30 32 39 40
3 8 11 12 16 20 30 31 39 40
3 7 8 12 16 20 30 36 40 44
3 7 8 12 16 20 30 32 36 40
3 7 8 12 16 20 30 31 36 40
3 8 12 16 20 30 32 36 39 40
3 8 12 16 20 30 31 36 39 40
3 7 12 16 30 32 43
3 7 8 12 16 30 32 43
3 7 8 12 16 20 30 32 40 43
1 3 5 7 12 16 30 32 43
1 3 5 7 8 12 16 30 32 43
1 3 5 7 8 12 16 20 30 32 40 43
3 21 33
2 3 16 21 22 44
1 2 3 8 21 22 38
1 2 3 5 21 22
1 2 3 5 20 21 23
1 2 3 5 7 18 19 20 21 34
1 2 3 5 18 19 20 21 24
1 2 3 8 20 21 23 38
1 2 3 8 19 20 21 38 39
1 2 3 5 8 19 20 21 39
1 2 3 5 8 9 18 19 20 21 34
1 2 3 5 7 8 18 19 20 21 34
1 2 3 5 7 8 10 18 19 20 21 24
1 2 3 5 8 9 18 19 20 21 24
1 2 3 8 18 19 20 21 34 38
1 2 3 8 18 19 20 21 24 38
1 2 3 5 8 20 21 23 39
1 2 3 5 8 9 20 21 23
1 2 3 5 7 8 18 20 21 23 34
1 2 3 5 7 8 10 20 21 23
1 2 3 5 7 8 10 18 20 21 23 24
1 2 3 5 8 21 22 23 39
1 2 3 5 8 19 21 22 39
1 2 3 5 8 9 21 22
1 2 3 5 7 8 18 21 22 34
1 2 3 5 7 8 10 21 22
1 2 3 5 7 8 10 18 21 22 24
1 2 3 5 8 9 18 19 21 22 34
1 2 3 5 7 8 18 19 21 22 34
1 2 3 5 7 8 10 18 19 21 22 24
1 2 3 5 8 9 18 19 21 22 24
1 2 3 5 8 9 21 22 23
1 2 3 5 7 8 18 21 22 23 34
1 2 3 5 7 8 10 21 22 23
1 2 3 5 7 8 10 18 21 22 23 24
2 3 16 20 21 23 44
2 3 8 16 19 20 21 39 44
2 3 7 16 18 19 20 21 34 44
2 3 16 18 19 20 21 24 44
1 2 3 5 15 16 17 18 19 20 21 24
2 3 7 16 18 19 20 21 24 32 44
1 2 3 5 7 16 18 19 20 21 24 32
1 2 3 5 7 16 18 19 20 21 32 34
1 2 3 5 7 15 16 17 18 19 20 21 34
2 3 8 16 18 19 20 21 34 38 44
2 3 8 16 18 19 20 21 24 38 44
2 3 8 9 16 18 19 20 21 24 44
2 3 7 8 16 18 19 20 21 24 32 44
2 3 7 8 10 16 18 19 20 21 24 44
1 2 3 5 7 8 10 15 16 17 18 19 20 21 24
1 2 3 5 7 8 16 18 19 20 21 24 32
1 2 3 5 8 9 16 18 19 20 21 24 32
1 2 3 5 8 9 15 16 17 18 19 20 21 24
1 2 3 8 16 18 19 20 21 24 32 38
1 2 3 8 15 16 17 18 19 20 21 24 38
2 3 8 9 16 18 19 20 21 34 44
2 3 7 8 16 18 19 20 21 34 44
1 2 3 5 7 8 16 18 19 20 21 32 34
1 2 3 5 7 8 15 16 17 18 19 20 21 34
1 2 3 5 8 9 16 18 19 20 21 32 34
1 2 3 5 8 9 15 16 17 18 19 20 21 34
1 2 3 8 16 18 19 20 21 32 34 38
1 2 3 8 15 16 17 18 19 20 21 34 38
1 2 3 8 16 19 20 21 32 38 39
1 2 3 8 15 16 17 19 20 21 38 39
1 2 3 5 8 15 16 17 19 20 21 39
1 2 3 5 8 16 19 20 21 32 39
1 2 3 8 16 20 21 23 32 38
1 2 3 5 7 16 20 21 23 32
1 2 3 5 15 16 17 20 21 23
1 2 3 5 7 15 16 17 18 20 21 23 34
1 2 3 8 15 16 17 20 21 23 38
1 2 3 5 8 15 16 17 20 21 23 39
1 2 3 5 8 9 15 16 17 20 21 23
1 2 3 5 7 8 15 16 17 18 20 21 23 34
1 2 3 5 7 8 10 15 16 17 20 21 23
1 2 3 5 7 8 10 15 16 17 18 20 21 23 24
1 2 3 5 8 16 20 21 23 32 39
1 2 3 5 8 9 16 20 21 23 32
1 2 3 5 7 8 16 20 21 23 32
1 2 3 8 16 21 22 32 38
1 2 3 5 7 16 21 22 32
1 2 3 5 15 16 17 21 22
1 2 3 5 7 15 16 17 18 21 22 34
1 2 3 8 15 16 17 21 22 38
1 2 3 5 8 15 16 17 21 22 23 39
1 2 3 5 8 15 16 17 19 21 22 39
1 2 3 5 8 9 15 16 17 21 22
1 2 3 5 7 8 15 16 17 18 21 22 34
1 2 3 5 7 8 10 15 16 17 21 22
1 2 3 5 7 8 10 15 16 17 18 21 22 24
1 2 3 5 8 9 15 16 17 18 19 21 22 34
1 2 3 5 7 8 15 16 17 18 19 21 22 34
1 2 3 5 7 8 10 15 16 17 18 19 21 22 24
1 2 3 5 8 9 15 16 17 18 19 21 22 24
1 2 3 5 8 9 15 16 17 21 22 23
1 2 3 5 7 8 15 16 17 18 21 22 23 34
1 2 3 5 7 8 10 15 16 17 21 22 23
1 2 3 5 7 8 10 15 16 17 18 21 22 23 24
1 2 3 5 8 16 21 22 23 32 39
1 2 3 5 8 16 19 21 22 32 39
1 2 3 5 8 9 16 21 22 32
1 2 3 5 7 8 16 21 22 32
1 2 3 5 8 9 16 18 19 21 22 32 34
1 2 3 5 7 8 16 18 19 21 22 32 34
1 2 3 5 7 8 16 18 19 21 22 24 32
1 2 3 5 8 9 16 18 19 21 22 24 32
1 2 3 5 8 9 16 21 22 23 32
1 2 3 5 7 8 16 21 22 23 32
3 11 20 21 30 40
2 3 11 16 20 21 40 44
1 2 3 8 11 20 21 38 40
1 2 3 5 11 20 21 40
1 2 3 5 8 11 20 21 39 40
1 2 3 5 8 9 11 20 21 40
1 2 3 5 7 8 11 18 20 21 34 40
1 2 3 5 7 8 10 11 20 21 40
1 2 3 5 7 8 10 11 18 20 21 24 40
1 2 3 8 11 16 20 21 32 38 40
1 2 3 5 7 11 16 20 21 32 40
1 2 3 5 11 16 20 21 31 40
1 2 3 5 7 11 16 18 20 21 31 34 40
1 2 3 8 11 16 20 21 31 38 40
1 2 3 5 8 11 16 20 21 31 39 40
1 2 3 5 8 9 11 16 20 21 31 40
1 2 3 5 7 8 11 16 18 20 21 31 34 40
1 2 3 5 7 8 10 11 16 20 21 31 40
1 2 3 5 7 8 10 11 16 18 20 21 24 31 40
1 2 3 5 8 11 16 20 21 32 39 40
1 2 3 5 8 9 11 16 20 21 32 40
1 2 3 5 7 8 11 16 20 21 32 40
3 8 11 19 20 21 30 39
3 7 11 18 19 20 21 30 34
3 8 11 16 18 19 20 21 30 34 38 44
1 3 8 11 18 19 20 21 30 34 38
3 8 9 11 18 19 20 21 30 34
3 7 8 11 18 19 20 21 30 34
1 3 5 8 9 11 18 19 20 21 30 34
1 3 5 7 8 11 18 19 20 21 30 34
3 8 9 11 16 18 19 20 21 30 34 44
3 7 8 11 16 18 19 20 21 30 34 44
3 7 8 11 16 18 19 20 21 30 32 34
3 7 8 11 16 18 19 20 21 30 31 34
3 8 9 11 16 18 19 20 21 30 32 34
3 8 9 11 16 18 19 20 21 30 31 34
1 3 8 11 16 18 19 20 21 30 32 34 38
1 3 8 11 16 18 19 20 21 30 31 34 38
3 11 12 20 21 30 40
3 7 12 20 21 30 36 40
3 7 11 12 18 20 21 30 34 40
3 7 11 12 18 19 20 21 30 34
3 8 11 12 20 21 30 39 40
3 8 9 11 12 20 21 30 40
3 7 8 11 12 18 20 21 30 34 40
3 7 8 10 11 12 20 21 30 40
3 7 8 10 11 12 18 20 21 24 30 40
3 7 8 11 12 18 19 20 21 30 34
3 8 9 11 12 18 19 20 21 30 34
3 8 11 12 19 20 21 30 39
3 7 8 12 20 21 30 36 40
1 3 5 11 12 20 21 30 40
1 2 3 5 11 12 20 21 40
1 3 5 7 12 20 21 30 36 40
1 2 3 5 7 12 20 21 36 40
1 2 3 5 7 11 12 18 20 21 34 40
1 3 5 7 11 12 18 20 21 30 34 40
1 3 5 7 11 12 18 19 20 21 30 34
1 2 3 8 11 12 20 21 38 40
1 2 3 5 8 11 12 20 21 39 40
1 2 3 5 8 9 11 12 20 21 40
1 2 3 5 7 8 11 12 18 20 21 34 40
1 2 3 5 7 8 10 11 12 20 21 40
1 2 3 5 7 8 10 11 12 18 20 21 24 40
1 2 3 5 7 8 12 20 21 36 40
1 3 8 11 12 20 21 30 38 40
1 3 5 8 11 12 20 21 30 39 40
1 3 5 8 9 11 12 20 21 30 40
1 3 5 7 8 11 12 18 20 21 30 34 40
1 3 5 7 8 10 11 12 20 21 30 40
1 3 5 7 8 10 11 12 18 20 21 24 30 40
1 3 5 7 8 11 12 18 19 20 21 30 34
1 3 5 8 9 11 12 18 19 20 21 30 34
1 3 5 8 11 12 19 20 21 30 39
1 3 8 11 12 19 20 21 30 38 39
1 3 8 11 12 18 19 20 21 30 34 38
1 3 5 7 8 12 20 21 30 36 40
2 3 7 12 16 20 21 36 40 44
2 3 11 12 16 20 21 40 44
1 2 3 5 11 12 16 20 21 31 40
2 3 7 11 12 16 18 20 21 34 40 44
2 3 7 11 12 16 20 21 32 40 44
1 2 3 5 7 11 12 16 20 21 32 40
2 3 7 11 12 16 18 20 21 24 32 40 44
1 2 3 5 7 11 12 16 18 20 21 24 32 40
1 2 3 5 7 11 12 16 18 20 21 32 34 40
1 2 3 5 7 11 12 16 18 20 21 31 34 40
1 2 3 5 7 12 16 20 21 32 36 40
1 2 3 5 7 12 16 20 21 31 36 40
2 3 8 11 12 16 20 21 39 40 44
2 3 8 11 12 16 20 21 38 40 44
2 3 8 9 11 12 16 20 21 40 44
2 3 7 8 11 12 16 18 20 21 34 40 44
2 3 7 8 11 12 16 20 21 32 40 44
2 3 7 8 10 11 12 16 20 21 40 44
1 2 3 5 7 8 10 11 12 16 20 21 31 40
1 2 3 5 7 8 11 12 16 20 21 32 40
2 3 7 8 11 12 16 18 20 21 24 32 40 44
2 3 7 8 10 11 12 16 18 20 21 24 40 44
1 2 3 5 7 8 10 11 12 16 18 20 21 24 31 40
1 2 3 5 7 8 11 12 16 18 20 21 24 32 40
1 2 3 5 7 8 11 12 16 18 20 21 32 34 40
1 2 3 5 7 8 11 12 16 18 20 21 31 34 40
1 2 3 5 8 9 11 12 16 20 21 32 40
1 2 3 5 8 9 11 12 16 20 21 31 40
1 2 3 8 11 12 16 20 21 32 38 40
1 2 3 8 11 12 16 20 21 31 38 40
1 2 3 8 11 12 16 20 21 32 38 39 40
1 2 3 8 11 12 16 20 21 31 38 39 40
1 2 3 5 8 11 12 16 20 21 31 39 40
1 2 3 5 8 11 12 16 20 21 32 39 40
2 3 7 8 12 16 20 21 36 40 44
1 2 3 5 7 8 12 16 20 21 32 36 40
1 2 3 5 7 8 12 16 20 21 31 36 40
1 2 3 5 7 12 16 20 21 32 40 43
1 2 3 5 7 8 12 16 20 21 32 40 43
3 7 11 12 16 18 19 20 21 30 34 44
3 7 11 12 16 18 19 20 21 30 32 34
3 7 11 12 16 18 19 20 21 30 31 34
3 7 8 11 12 16 18 19 20 21 30 34 44
3 7 8 11 12 16 18 19 20 21 30 32 34
3 7 8 11 12 16 18 19 20 21 30 31 34
3 8 9 11 12 16 18 19 20 21 30 34 44
3 8 9 11 12 16 18 19 20 21 30 32 34
3 8 9 11 12 16 18 19 20 21 30 31 34
3 8 11 12 16 18 19 20 21 30 34 38 44
1 3 8 11 12 16 18 19 20 21 30 32 34 38
1 3 8 11 12 16 18 19 20 21 30 31 34 38
3 8 11 12 16 19 20 21 30 39 44
3 8 11 12 16 19 20 21 30 32 39
3 8 11 12 16 19 20 21 30 31 39
3 7 12 16 20 21 30 36 40 44
3 11 12 16 20 21 30 40 44
3 11 12 16 20 21 30 31 40
3 7 11 12 16 18 20 21 30 34 40 44
3 7 11 12 16 20 21 30 32 40
3 7 11 12 16 18 20 21 24 30 32 40
3 7 11 12 16 18 20 21 30 32 34 40
3 7 11 12 16 18 20 21 30 31 34 40
3 7 12 16 20 21 30 32 36 40
3 7 12 16 20 21 30 31 36 40
3 8 11 12 16 20 21 30 39 40 44
3 8 11 12 16 20 21 30 38 40 44
3 8 9 11 12 16 20 21 30 40 44
3 7 8 11 12 16 18 20 21 30 34 40 44
3 7 8 11 12 16 20 21 30 32 40
3 7 8 10 11 12 16 20 21 30 40 44
3 7 8 10 11 12 16 20 21 30 31 40
3 7 8 11 12 16 18 20 21 24 30 32 40
3 7 8 10 11 12 16 18 20 21 24 30 40 44
3 7 8 10 11 12 16 18 20 21 24 30 31 40
3 7 8 11 12 16 18 20 21 30 32 34 40
3 7 8 11 12 16 18 20 21 30 31 34 40
3 8 9 11 12 16 20 21 30 32 40
3 8 9 11 12 16 20 21 30 31 40
1 3 8 11 12 16 20 21 30 32 38 40
1 3 8 11 12 16 20 21 30 31 38 40
3 8 11 12 16 20 21 30 32 39 40
3 8 11 12 16 20 21 30 31 39 40
3 7 8 12 16 20 21 30 36 40 44
3 7 8 12 16 20 21 30 32 36 40
3 7 8 12 16 20 21 30 31 36 40
3 8 12 16 20 21 30 32 36 39 40
3 8 12 16 20 21 30 31 36 39 40
3 7 12 16 20 21 30 32 40 43
3 7 8 12 16 20 21 30 32 40 43
1 3 5 7 12 16 20 21 30 32 40 43
1 3 5 7 8 12 16 20 21 30 32 40 43
4 11 41
3 4 21 37
2 3 4 16 44
1 2 3 4 8 38
1 2 3 4 6
1 2 3 4 5
1 2 3 4 6 8 20 23 39
1 2 3 4 5 8 20 23 39
1 2 3 4 5 8 19 39
1 2 3 4 5 8 9
1 2 3 4 5 7 8 18 34
1 2 3 4 5 7 8 10
1 2 3 4 5 8 9 18 19 34
1 2 3 4 5 7 8 18 19 34
1 2 3 4 5 8 19 20 39
1 2 3 4 5 8 9 18 19 20 34
1 2 3 4 5 7 8 18 19 20 34
1 2 3 4 5 8 9 20 23
1 2 3 4 5 7 8 18 20 23 34
1 2 3 4 5 7 8 10 20 23
1 2 3 4 6 8 19 39
1 2 3 4 6 8 9
1 2 3 4 6 7 8 18 34
1 2 3 4 6 7 8 10
1 2 3 4 6 8 9 18 19 34
1 2 3 4 6 7 8 18 19 34
1 2 3 4 6 8 19 20 39
1 2 3 4 6 8 9 18 19 20 34
1 2 3 4 6 7 8 18 19 20 34
1 2 3 4 6 8 9 20 23
1 2 3 4 6 7 8 18 20 23 34
1 2 3 4 6 7 8 10 20 23
1 2 3 4 8 16 32 38
1 2 3 4 6 7 16 32
1 2 3 4 5 7 16 32
1 2 3 4 5 15 16 17
1 2 3 4 5 7 15 16 17 18 34
1 2 3 4 6 15 16 17
1 2 3 4 6 7 15 16 17 18 34
1 2 3 4 8 15 16 17 38
1 2 3 4 6 8 15 16 17 20 23 39
1 2 3 4 5 8 15 16 17 20 23 39
1 2 3 4 5 8 15 16 17 19 39
1 2 3 4 5 8 9 15 16 17
1 2 3 4 5 7 8 15 16 17 18 34
1 2 3 4 5 7 8 10 15 16 17
1 2 3 4 5 8 9 15 16 17 18 19 34
1 2 3 4 5 7 8 15 16 17 18 19 34
1 2 3 4 5 8 15 16 17 19 20 39
1 2 3 4 5 8 9 15 16 17 18 19 20 34
1 2 3 4 5 7 8 15 16 17 18 19 20 34
1 2 3 4 5 8 9 15 16 17 20 23
1 2 3 4 5 7 8 15 16 17 18 20 23 34
1 2 3 4 5 7 8 10 15 16 17 20 23
1 2 3 4 6 8 15 16 17 19 39
1 2 3 4 6 8 9 15 16 17
1 2 3 4 6 7 8 15 16 17 18 34
1 2 3 4 6 7 8 10 15 16 17
1 2 3 4 6 8 9 15 16 17 18 19 34
1 2 3 4 6 7 8 15 16 17 18 19 34
1 2 3 4 6 8 15 16 17 19 20 39
1 2 3 4 6 8 9 15 16 17 18 19 20 34
1 2 3 4 6 7 8 15 16 17 18 19 20 34
1 2 3 4 6 8 9 15 16 17 20 23
1 2 3 4 6 7 8 15 16 17 18 20 23 34
1 2 3 4 6 7 8 10 15 16 17 20 23
1 2 3 4 6 8 16 20 23 32 39
1 2 3 4 5 8 16 20 23 32 39
1 2 3 4 5 8 16 19 32 39
1 2 3 4 5 8 9 16 32
1 2 3 4 5 7 8 16 32
1 2 3 4 5 8 9 16 18 19 32 34
1 2 3 4 5 7 8 16 18 19 32 34
1 2 3 4 5 8 16 19 20 32 39
1 2 3 4 5 8 9 16 18 19 20 32 34
1 2 3 4 5 7 8 16 18 19 20 32 34
1 2 3 4 5 8 9 16 20 23 32
1 2 3 4 5 7 8 16 20 23 32
1 2 3 4 6 8 16 19 32 39
1 2 3 4 6 8 9 16 32
1 2 3 4 6 7 8 16 32
1 2 3 4 6 8 9 16 18 19 32 34
1 2 3 4 6 7 8 16 18 19 32 34
1 2 3 4 6 8 16 19 20 32 39
1 2 3 4 6 8 9 16 18 19 20 32 34
1 2 3 4 6 7 8 16 18 19 20 32 34
1 2 3 4 6 8 9 16 20 23 32
1 2 3 4 6 7 8 16 20 23 32
3 4 21 33
2 3 4 16 21 22 44
1 2 3 4 8 21 22 38
1 2 3 4 6 21 22
1 2 3 4 5 21 22
1 2 3 4 5 20 21 23
1 2 3 4 5 7 18 19 20 21 34
1 2 3 4 5 18 19 20 21 24
1 2 3 4 6 20 21 23
1 2 3 4 6 7 18 19 20 21 34
1 2 3 4 6 18 19 20 21 24
1 2 3 4 8 20 21 23 38
1 2 3 4 8 19 20 21 38 39
1 2 3 4 6 8 19 20 21 39
1 2 3 4 5 8 19 20 21 39
1 2 3 4 5 8 9 18 19 20 21 34
1 2 3 4 5 7 8 18 19 20 21 34
1 2 3 4 5 7 8 10 18 19 20 21 24
1 2 3 4 5 8 9 18 19 20 21 24
1 2 3 4 6 8 9 18 19 20 21 34
1 2 3 4 6 7 8 18 19 20 21 34
1 2 3 4 6 7 8 10 18 19 20 21 24
1 2 3 4 6 8 9 18 19 20 21 24
1 2 3 4 8 18 19 20 21 34 38
1 2 3 4 8 18 19 20 21 24 38
1 2 3 4 6 8 20 21 23 39
1 2 3 4 5 8 20 21 23 39
1 2 3 4 5 8 9 20 21 23
1 2 3 4 5 7 8 18 20 21 23 34
1 2 3 4 5 7 8 10 20 21 23
1 2 3 4 5 7 8 10 18 20 21 23 24
1 2 3 4 6 8 9 20 21 23
1 2 3 4 6 7 8 18 20 21 23 34
1 2 3 4 6 7 8 10 20 21 23
1 2 3 4 6 7 8 10 18 20 21 23 24
1 2 3 4 6 8 21 22 23 39
1 2 3 4 5 8 21 22 23 39
1 2 3 4 5 8 19 21 22 39
1 2 3 4 5 8 9 21 22
1 2 3 4 5 7 8 18 21 22 34
1 2 3 4 5 7 8 10 21 22
1 2 3 4 5 7 8 10 18 21 22 24
1 2 3 4 5 8 9 18 19 21 22 34
1 2 3 4 5 7 8 18 19 21 22 34
1 2 3 4 5 7 8 10 18 19 21 22 24
1 2 3 4 5 8 9 18 19 21 22 24
1 2 3 4 5 8 9 21 22 23
1 2 3 4 5 7 8 18 21 22 23 34
1 2 3 4 5 7 8 10 21 22 23
1 2 3 4 5 7 8 10 18 21 22 23 24
1 2 3 4 6 8 19 21 22 39
1 2 3 4 6 8 9 21 22
1 2 3 4 6 7 8 18 21 22 34
1 2 3 4 6 7 8 10 21 22
1 2 3 4 6 7 8 10 18 21 22 24
1 2 3 4 6 8 9 18 19 21 22 34
1 2 3 4 6 7 8 18 19 21 22 34
1 2 3 4 6 7 8 10 18 19 21 22 24
1 2 3 4 6 8 9 18 19 21 22 24
1 2 3 4 6 8 9 21 22 23
1 2 3 4 6 7 8 18 21 22 23 34
1 2 3 4 6 7 8 10 21 22 23
1 2 3 4 6 7 8 10 18 21 22 23 24
2 3 4 16 20 21 23 44
2 3 4 8 16 19 20 21 39 44
2 3 4 7 16 18 19 20 21 34 44
2 3 4 16 18 19 20 21 24 44
1 2 3 4 6 15 16 17 18 19 20 21 24
1 2 3 4 5 15 16 17 18 19 20 21 24
2 3 4 7 16 18 19 20 21 24 32 44
1 2 3 4 6 7 16 18 19 20 21 24 32
1 2 3 4 5 7 16 18 19 20 21 24 32
1 2 3 4 6 7 16 18 19 20 21 32 34
1 2 3 4 5 7 16 18 19 20 21 32 34
1 2 3 4 5 7 15 16 17 18 19 20 21 34
1 2 3 4 6 7 15 16 17 18 19 20 21 34
2 3 4 8 16 18 19 20 21 34 38 44
2 3 4 8 16 18 19 20 21 24 38 44
2 3 4 8 9 16 18 19 20 21 24 44
2 3 4 7 8 16 18 19 20 21 24 32 44
2 3 4 7 8 10 16 18 19 20 21 24 44
1 2 3 4 6 7 8 10 15 16 17 18 19 20 21 24
1 2 3 4 5 7 8 10 15 16 17 18 19 20 21 24
1 2 3 4 6 7 8 16 18 19 20 21 24 32
1 2 3 4 5 7 8 16 18 19 20 21 24 32
1 2 3 4 6 8 9 16 18 19 20 21 24 32
1 2 3 4 5 8 9 16 18 19 20 21 24 32
1 2 3 4 5 8 9 15 16 17 18 19 20 21 24
1 2 3 4 6 8 9 15 16 17 18 19 20 21 24
1 2 3 4 8 16 18 19 20 21 24 32 38
1 2 3 4 8 15 16 17 18 19 20 21 24 38
2 3 4 8 9 16 18 19 20 21 34 44
2 3 4 7 8 16 18 19 20 21 34 44
1 2 3 4 6 7 8 16 18 19 20 21 32 34
1 2 3 4 5 7 8 16 18 19 20 21 32 34
1 2 3 4 5 7 8 15 16 17 18 19 20 21 34
1 2 3 4 6 7 8 15 16 17 18 19 20 21 34
1 2 3 4 6 8 9 16 18 19 20 21 32 34
1 2 3 4 5 8 9 16 18 19 20 21 32 34
1 2 3 4 5 8 9 15 16 17 18 19 20 21 34
1 2 3 4 6 8 9 15 16 17 18 19 20 21 34
1 2 3 4 8 16 18 19 20 21 32 34 38
1 2 3 4 8 15 16 17 18 19 20 21 34 38
1 2 3 4 8 16 19 20 21 32 38 39
1 2 3 4 8 15 16 17 19 20 21 38 39
1 2 3 4 6 8 15 16 17 19 20 21 39
1 2 3 4 5 8 15 16 17 19 20 21 39
1 2 3 4 6 8 16 19 20 21 32 39
1 2 3 4 5 8 16 19 20 21 32 39
1 2 3 4 8 16 20 21 23 32 38
1 2 3 4 6 7 16 20 21 23 32
1 2 3 4 5 7 16 20 21 23 32
1 2 3 4 5 15 16 17 20 21 23
1 2 3 4 5 7 15 16 17 18 20 21 23 34
1 2 3 4 6 15 16 17 20 21 23
1 2 3 4 6 7 15 16 17 18 20 21 23 34
1 2 3 4 8 15 16 17 20 21 23 38
1 2 3 4 6 8 15 16 17 20 21 23 39
1 2 3 4 5 8 15 16 17 20 21 23 39
1 2 3 4 5 8 9 15 16 17 20 21 23
1 2 3 4 5 7 8 15 16 17 18 20 21 23 34
1 2 3 4 5 7 8 10 15 16 17 20 21 23
1 2 3 4 5 7 8 10 15 16 17 18 20 21 23 24
1 2 3 4 6 8 9 15 16 17 20 21 23
1 2 3 4 6 7 8 15 16 17 18 20 21 23 34
1 2 3 4 6 7 8 10 15 16 17 20 21 23
1 2 3 4 6 7 8 10 15 16 17 18 20 21 23 24
1 2 3 4 6 8 16 20 21 23 32 39
1 2 3 4 5 8 16 20 21 23 32 39
1 2 3 4 5 8 9 16 20 21 23 32
1 2 3 4 5 7 8 16 20 21 23 32
1 2 3 4 6 8 9 16 20 21 23 32
1 2 3 4 6 7 8 16 20 21 23 32
1 2 3 4 8 16 21 22 32 38
1 2 3 4 6 7 16 21 22 32
1 2 3 4 5 7 16 21 22 32
1 2 3 4 5 15 16 17 21 22
1 2 3 4 5 7 15 16 17 18 21 22 34
1 2 3 4 6 15 16 17 21 22
1 2 3 4 6 7 15 16 17 18 21 22 34
1 2 3 4 8 15 16 17 21 22 38
1 2 3 4 6 8 15 16 17 21 22 23 39
1 2 3 4 5 8 15 16 17 21 22 23 39
1 2 3 4 5 8 15 16 17 19 21 22 39
1 2 3 4 5 8 9 15 16 17 21 22
1 2 3 4 5 7 8 15 16 17 18 21 22 34
1 2 3 4 5 7 8 10 15 16 17 21 22
1 2 3 4 5 7 8 10 15 16 17 18 21 22 24
1 2 3 4 5 8 9 15 16 17 18 19 21 22 34
1 2 3 4 5 7 8 15 16 17 18 19 21 22 34
1 2 3 4 5 7 8 10 15 16 17 18 19 21 22 24
1 2 3 4 5 8 9 15 16 17 18 19 21 22 24
1 2 3 4 5 8 9 15 16 17 21 22 23
1 2 3 4 5 7 8 15 16 17 18 21 22 23 34
1 2 3 4 5 7 8 10 15 16 17 21 22 23
1 2 3 4 5 7 8 10 15 16 17 18 21 22 23 24
1 2 3 4 6 8 15 16 17 19 21 22 39
1 2 3 4 6 8 9 15 16 17 21 22
1 2 3 4 6 7 8 15 16 17 18 21 22 34
1 2 3 4 6 7 8 10 15 16 17 21 22
1 2 3 4 6 7 8 10 15 16 17 18 21 22 24
1 2 3 4 6 8 9 15 16 17 18 19 21 22 34
1 2 3 4 6 7 8 15 16 17 18 19 21 22 34
1 2 3 4 6 7 8 10 15 16 17 18 19 21 22 24
1 2 3 4 6 8 9 15 16 17 18 19 21 22 24
1 2 3 4 6 8 9 15 16 17 21 22 23
1 2 3 4 6 7 8 15 16 17 18 21 22 23 34
1 2 3 4 6 7 8 10 15 16 17 21 22 23
1 2 3 4 6 7 8 10 15 16 17 18 21 22 23 24
1 2 3 4 6 8 16 21 22 23 32 39
1 2 3 4 5 8 16 21 22 23 32 39
1 2 3 4 5 8 16 19 21 22 32 39
1 2 3 4 5 8 9 16 21 22 32
1 2 3 4 5 7 8 16 21 22 32
1 2 3 4 5 8 9 16 18 19 21 22 32 34
1 2 3 4 5 7 8 16 18 19 21 22 32 34
1 2 3 4 5 7 8 16 18 19 21 22 24 32
1 2 3 4 5 8 9 16 18 19 21 22 24 32
1 2 3 4 5 8 9 16 21 22 23 32
1 2 3 4 5 7 8 16 21 22 23 32
1 2 3 4 6 8 16 19 21 22 32 39
1 2 3 4 6 8 9 16 21 22 32
1 2 3 4 6 7 8 16 21 22 32
1 2 3 4 6 8 9 16 18 19 21 22 32 34
1 2 3 4 6 7 8 16 18 19 21 22 32 34
1 2 3 4 6 7 8 16 18 19 21 22 24 32
1 2 3 4 6 8 9 16 18 19 21 22 24 32
1 2 3 4 6 8 9 16 21 22 23 32
1 2 3 4 6 7 8 16 21 22 23 32
3 4 11 21 37 40
3 4 11 30
3 4 11 21 33 40
3 4 11 20 21 30 40
2 3 4 11 16 20 21 40 44
1 2 3 4 8 11 20 21 38 40
1 2 3 4 6 11 20 21 40
1 2 3 4 5 11 20 21 40
1 2 3 4 6 8 11 20 21 39 40
1 2 3 4 5 8 11 20 21 39 40
1 2 3 4 5 8 9 11 20 21 40
1 2 3 4 5 7 8 11 18 20 21 34 40
1 2 3 4 5 7 8 10 11 20 21 40
1 2 3 4 5 7 8 10 11 18 20 21 24 40
1 2 3 4 6 8 9 11 20 21 40
1 2 3 4 6 7 8 11 18 20 21 34 40
1 2 3 4 6 7 8 10 11 20 21 40
1 2 3 4 6 7 8 10 11 18 20 21 24 40
1 2 3 4 8 11 16 20 21 32 38 40
1 2 3 4 6 7 11 16 20 21 32 40
1 2 3 4 5 7 11 16 20 21 32 40
1 2 3 4 5 11 16 20 21 31 40
1 2 3 4 5 7 11 16 18 20 21 31 34 40
1 2 3 4 6 11 16 20 21 31 40
1 2 3 4 6 7 11 16 18 20 21 31 34 40
1 2 3 4 8 11 16 20 21 31 38 40
1 2 3 4 6 8 11 16 20 21 31 39 40
1 2 3 4 5 8 11 16 20 21 31 39 40
1 2 3 4 5 8 9 11 16 20 21 31 40
1 2 3 4 5 7 8 11 16 18 20 21 31 34 40
1 2 3 4 5 7 8 10 11 16 20 21 31 40
1 2 3 4 5 7 8 10 11 16 18 20 21 24 31 40
1 2 3 4 6 8 9 11 16 20 21 31 40
1 2 3 4 6 7 8 11 16 18 20 21 31 34 40
1 2 3 4 6 7 8 10 11 16 20 21 31 40
1 2 3 4 6 7 8 10 11 16 18 20 21 24 31 40
1 2 3 4 6 8 11 16 20 21 32 39 40
1 2 3 4 5 8 11 16 20 21 32 39 40
1 2 3 4 5 8 9 11 16 20 21 32 40
1 2 3 4 5 7 8 11 16 20 21 32 40
1 2 3 4 6 8 9 11 16 20 21 32 40
1 2 3 4 6 7 8 11 16 20 21 32 40
3 4 8 11 19 20 21 30 39
3 4 7 11 18 19 20 21 30 34
3 4 8 11 16 18 19 20 21 30 34 38 44
1 3 4 8 11 18 19 20 21 30 34 38
3 4 8 9 11 18 19 20 21 30 34
3 4 7 8 11 18 19 20 21 30 34
1 3 4 6 8 9 11 18 19 20 21 30 34
1 3 4 5 8 9 11 18 19 20 21 30 34
1 3 4 5 7 8 11 18 19 20 21 30 34
1 3 4 6 7 8 11 18 19 20 21 30 34
3 4 8 9 11 16 18 19 20 21 30 34 44
3 4 7 8 11 16 18 19 20 21 30 34 44
3 4 7 8 11 16 18 19 20 21 30 32 34
3 4 7 8 11 16 18 19 20 21 30 31 34
3 4 8 9 11 16 18 19 20 21 30 32 34
3 4 8 9 11 16 18 19 20 21 30 31 34
1 3 4 8 11 16 18 19 20 21 30 32 34 38
1 3 4 8 11 16 18 19 20 21 30 31 34 38
3 4 7 11 16 21 30 32 33
3 4 7 8 11 16 21 30 32 33
3 4 7 8 11 16 21 23 30 32 33
1 3 4 6 7 11 16 21 30 32 33
1 3 4 5 7 11 16 21 30 32 33
1 3 4 5 7 8 11 16 21 30 32 33
1 3 4 5 7 8 11 16 21 23 30 32 33
1 3 4 6 7 8 11 16 21 30 32 33
1 3 4 6 7 8 11 16 21 23 30 32 33
3 4 7 11 16 21 30 32 37
3 4 7 8 11 16 21 30 32 37
3 4 7 8 11 16 21 23 30 32 37
1 3 4 6 7 11 16 21 30 32 37
1 3 4 5 7 11 16 21 30 32 37
1 3 4 5 7 8 11 16 21 30 32 37
1 3 4 5 7 8 11 16 21 23 30 32 37
1 3 4 6 7 8 11 16 21 30 32 37
1 3 4 6 7 8 11 16 21 23 30 32 37
4 8 12 21 36 37 39 40 41
4 7 12 36 41
4 11 12 41
3 4 11 12 30
4 7 11 12 18 34 41
3 4 7 11 12 18 30 34
3 4 7 12 21 36 37
3 4 7 12 30 36
3 4 7 12 21 33 36
3 4 7 12 20 21 30 36 40
4 7 8 12 36 41
4 7 8 11 12 18 34 41
4 7 8 10 11 12 41
3 4 7 8 10 11 12 30
3 4 7 8 11 12 18 30 34
3 4 7 8 12 30 36
4 8 9 11 12 41
3 4 8 9 11 12 30
4 8 11 12 19 39 41
4 8 9 11 12 18 19 34 41
4 7 8 11 12 18 19 34 41
3 4 7 8 11 12 18 19 30 34
3 4 8 9 11 12 18 19 30 34
3 4 8 11 12 19 30 39
4 8 11 12 20 39 40 41
4 8 9 11 12 20 40 41
4 7 8 11 12 18 20 34 40 41
4 7 8 10 11 12 20 40 41
3 4 7 8 10 11 12 20 30 40
4 7 8 11 12 18 19 20 34 41
3 4 7 8 11 12 18 19 20 30 34
3 4 7 8 11 12 18 20 30 34 40
4 8 9 11 12 18 19 20 34 41
3 4 8 9 11 12 18 19 20 30 34
3 4 8 9 11 12 20 30 40
4 8 11 12 19 20 39 41
3 4 8 11 12 19 20 30 39
3 4 8 11 12 20 30 39 40
4 7 8 12 20 36 40 41
3 4 7 8 12 20 30 36 40
4 8 11 12 21 37 39 40 41
4 8 11 12 21 33 39 40 41
4 8 11 12 20 21 39 40 41
4 8 9 11 12 20 21 40 41
4 7 8 11 12 18 20 21 34 40 41
4 7 8 10 11 12 20 21 40 41
3 4 7 8 10 11 12 20 21 30 40
4 7 8 10 11 12 18 20 21 24 40 41
3 4 7 8 10 11 12 18 20 21 24 30 40
4 7 8 11 12 18 19 20 21 34 41
3 4 7 8 11 12 18 19 20 21 30 34
3 4 7 8 11 12 18 20 21 30 34 40
4 8 9 11 12 18 19 20 21 34 41
3 4 8 9 11 12 18 19 20 21 30 34
3 4 8 9 11 12 20 21 30 40
4 8 11 12 19 20 21 39 41
3 4 8 11 12 19 20 21 30 39
3 4 8 11 12 20 21 30 39 40
4 8 9 11 12 21 33 41
4 7 8 11 12 18 21 33 34 41
4 7 8 10 11 12 21 33 41
4 7 8 10 11 12 18 21 24 33 41
4 8 11 12 21 23 33 39 41
4 8 11 12 19 21 33 39 41
3 4 8 11 12 21 33 39 40
4 8 9 11 12 21 37 41
4 7 8 11 12 18 21 34 37 41
4 7 8 10 11 12 21 37 41
4 7 8 10 11 12 18 21 24 37 41
4 8 11 12 21 23 37 39 41
4 8 11 12 19 21 37 39 41
3 4 8 11 12 21 37 39 40
4 8 12 21 33 36 39 40 41
4 7 8 12 20 21 36 40 41
3 4 7 8 12 20 21 30 36 40
4 7 8 12 21 33 36 41
3 4 7 8 12 21 33 36
4 8 12 21 23 33 36 39 41
4 7 8 12 21 36 37 41
3 4 7 8 12 21 36 37
4 8 12 21 23 36 37 39 41
1 4 6 7 12 36 41
1 4 5 7 12 36 41
1 4 5 11 12 41
1 3 4 5 11 12 30
1 4 5 7 11 12 18 34 41
1 3 4 5 7 11 12 18 30 34
1 3 4 5 7 12 21 36 37
1 3 4 5 7 12 30 36
1 2 3 4 5 7 12 36
1 3 4 5 7 12 21 33 36
1 3 4 5 7 12 20 21 30 36 40
1 2 3 4 5 7 12 20 21 36 40
1 4 6 11 12 41
1 3 4 6 11 12 30
1 4 6 7 11 12 18 34 41
1 3 4 6 7 11 12 18 30 34
1 3 4 6 7 12 21 36 37
1 3 4 6 7 12 30 36
1 2 3 4 6 7 12 36
1 3 4 6 7 12 21 33 36
1 3 4 6 7 12 20 21 30 36 40
1 2 3 4 6 7 12 20 21 36 40
1 4 8 11 12 38 41
1 4 6 8 11 12 21 37 39 40 41
1 4 5 8 11 12 21 37 39 40 41
1 4 5 8 11 12 20 39 40 41
1 4 5 8 11 12 19 39 41
1 4 5 8 9 11 12 41
1 4 5 7 8 11 12 18 34 41
1 4 5 7 8 10 11 12 41
1 3 4 5 7 8 10 11 12 30
1 3 4 5 7 8 11 12 18 30 34
1 3 4 5 8 9 11 12 30
1 4 5 8 9 11 12 18 19 34 41
1 4 5 7 8 11 12 18 19 34 41
1 3 4 5 7 8 11 12 18 19 30 34
1 3 4 5 8 9 11 12 18 19 30 34
1 3 4 5 8 11 12 19 30 39
1 4 5 8 9 11 12 20 40 41
1 4 5 7 8 11 12 18 20 34 40 41
1 4 5 7 8 10 11 12 20 40 41
1 3 4 5 7 8 10 11 12 20 30 40
1 2 3 4 5 7 8 10 11 12 20 40
1 4 5 7 8 11 12 18 19 20 34 41
1 3 4 5 7 8 11 12 18 19 20 30 34
1 3 4 5 7 8 11 12 18 20 30 34 40
1 2 3 4 5 7 8 11 12 18 20 34 40
1 4 5 8 9 11 12 18 19 20 34 41
1 3 4 5 8 9 11 12 18 19 20 30 34
1 3 4 5 8 9 11 12 20 30 40
1 2 3 4 5 8 9 11 12 20 40
1 4 5 8 11 12 19 20 39 41
1 3 4 5 8 11 12 19 20 30 39
1 3 4 5 8 11 12 20 30 39 40
1 2 3 4 5 8 11 12 20 39 40
1 4 5 8 11 12 21 33 39 40 41
1 4 5 8 11 12 20 21 39 40 41
1 4 5 8 9 11 12 20 21 40 41
1 4 5 7 8 11 12 18 20 21 34 40 41
1 4 5 7 8 10 11 12 20 21 40 41
1 3 4 5 7 8 10 11 12 20 21 30 40
1 2 3 4 5 7 8 10 11 12 20 21 40
1 4 5 7 8 10 11 12 18 20 21 24 40 41
1 3 4 5 7 8 10 11 12 18 20 21 24 30 40
1 2 3 4 5 7 8 10 11 12 18 20 21 24 40
1 4 5 7 8 11 12 18 19 20 21 34 41
1 3 4 5 7 8 11 12 18 19 20 21 30 34
1 3 4 5 7 8 11 12 18 20 21 30 34 40
1 2 3 4 5 7 8 11 12 18 20 21 34 40
1 4 5 8 9 11 12 18 19 20 21 34 41
1 3 4 5 8 9 11 12 18 19 20 21 30 34
1 3 4 5 8 9 11 12 20 21 30 40
1 2 3 4 5 8 9 11 12 20 21 40
1 4 5 8 11 12 19 20 21 39 41
1 3 4 5 8 11 12 19 20 21 30 39
1 3 4 5 8 11 12 20 21 30 39 40
1 2 3 4 5 8 11 12 20 21 39 40
1 4 5 8 9 11 12 21 33 41
1 4 5 7 8 11 12 18 21 33 34 41
1 4 5 7 8 10 11 12 21 33 41
1 4 5 7 8 10 11 12 18 21 24 33 41
1 4 5 8 11 12 21 23 33 39 41
1 4 5 8 11 12 19 21 33 39 41
1 3 4 5 8 11 12 21 33 39 40
1 4 5 8 9 11 12 21 37 41
1 4 5 7 8 11 12 18 21 34 37 41
1 4 5 7 8 10 11 12 21 37 41
1 4 5 7 8 10 11 12 18 21 24 37 41
1 4 5 8 11 12 21 23 37 39 41
1 4 5 8 11 12 19 21 37 39 41
1 3 4 5 8 11 12 21 37 39 40
1 4 6 8 11 12 20 39 40 41
1 4 6 8 11 12 19 39 41
1 4 6 8 9 11 12 41
1 4 6 7 8 11 12 18 34 41
1 4 6 7 8 10 11 12 41
1 3 4 6 7 8 10 11 12 30
1 3 4 6 7 8 11 12 18 30 34
1 3 4 6 8 9 11 12 30
1 4 6 8 9 11 12 18 19 34 41
1 4 6 7 8 11 12 18 19 34 41
1 3 4 6 7 8 11 12 18 19 30 34
1 3 4 6 8 9 11 12 18 19 30 34
1 3 4 6 8 11 12 19 30 39
1 4 6 8 9 11 12 20 40 41
1 4 6 7 8 11 12 18 20 34 40 41
1 4 6 7 8 10 11 12 20 40 41
1 3 4 6 7 8 10 11 12 20 30 40
1 2 3 4 6 7 8 10 11 12 20 40
1 4 6 7 8 11 12 18 19 20 34 41
1 3 4 6 7 8 11 12 18 19 20 30 34
1 3 4 6 7 8 11 12 18 20 30 34 40
1 2 3 4 6 7 8 11 12 18 20 34 40
1 4 6 8 9 11 12 18 19 20 34 41
1 3 4 6 8 9 11 12 18 19 20 30 34
1 3 4 6 8 9 11 12 20 30 40
1 2 3 4 6 8 9 11 12 20 40
1 4 6 8 11 12 19 20 39 41
1 3 4 6 8 11 12 19 20 30 39
1 3 4 6 8 11 12 20 30 39 40
1 2 3 4 6 8 11 12 20 39 40
1 4 6 8 11 12 21 33 39 40 41
1 4 6 8 11 12 20 21 39 40 41
1 4 6 8 9 11 12 20 21 40 41
1 4 6 7 8 11 12 18 20 21 34 40 41
1 4 6 7 8 10 11 12 20 21 40 41
1 3 4 6 7 8 10 11 12 20 21 30 40
1 2 3 4 6 7 8 10 11 12 20 21 40
1 4 6 7 8 10 11 12 18 20 21 24 40 41
1 3 4 6 7 8 10 11 12 18 20 21 24 30 40
1 2 3 4 6 7 8 10 11 12 18 20 21 24 40
1 4 6 7 8 11 12 18 19 20 21 34 41
1 3 4 6 7 8 11 12 18 19 20 21 30 34
1 3 4 6 7 8 11 12 18 20 21 30 34 40
1 2 3 4 6 7 8 11 12 18 20 21 34 40
1 4 6 8 9 11 12 18 19 20 21 34 41
1 3 4 6 8 9 11 12 18 19 20 21 30 34
1 3 4 6 8 9 11 12 20 21 30 40
1 2 3 4 6 8 9 11 12 20 21 40
1 4 6 8 11 12 19 20 21 39 41
1 3 4 6 8 11 12 19 20 21 30 39
1 3 4 6 8 11 12 20 21 30 39 40
1 2 3 4 6 8 11 12 20 21 39 40
1 4 6 8 9 11 12 21 33 41
1 4 6 7 8 11 12 18 21 33 34 41
1 4 6 7 8 10 11 12 21 33 41
1 4 6 7 8 10 11 12 18 21 24 33 41
1 4 6 8 11 12 21 23 33 39 41
1 4 6 8 11 12 19 21 33 39 41
1 3 4 6 8 11 12 21 33 39 40
1 4 6 8 9 11 12 21 37 41
1 4 6 7 8 11 12 18 21 34 37 41
1 4 6 7 8 10 11 12 21 37 41
1 4 6 7 8 10 11 12 18 21 24 37 41
1 4 6 8 11 12 21 23 37 39 41
1 4 6 8 11 12 19 21 37 39 41
1 3 4 6 8 11 12 21 37 39 40
1 3 4 8 11 12 30 38
1 4 5 7 8 12 36 41
1 3 4 5 7 8 12 30 36
1 2 3 4 5 7 8 12 36
1 4 5 7 8 12 20 36 40 41
1 3 4 5 7 8 12 20 30 36 40
1 2 3 4 5 7 8 12 20 36 40
1 4 5 7 8 12 20 21 36 40 41
1 3 4 5 7 8 12 20 21 30 36 40
1 2 3 4 5 7 8 12 20 21 36 40
1 4 5 7 8 12 21 33 36 41
1 3 4 5 7 8 12 21 33 36
1 4 5 7 8 12 21 36 37 41
1 3 4 5 7 8 12 21 36 37
1 4 6 7 8 12 36 41
1 3 4 6 7 8 12 30 36
1 2 3 4 6 7 8 12 36
1 4 6 7 8 12 20 36 40 41
1 3 4 6 7 8 12 20 30 36 40
1 2 3 4 6 7 8 12 20 36 40
1 4 6 7 8 12 20 21 36 40 41
1 3 4 6 7 8 12 20 21 30 36 40
1 2 3 4 6 7 8 12 20 21 36 40
1 4 6 7 8 12 21 33 36 41
1 3 4 6 7 8 12 21 33 36
1 4 6 7 8 12 21 36 37 41
1 3 4 6 7 8 12 21 36 37
4 12 16 30 41 43 44
4 7 12 16 32 41 43
4 11 12 16 31 41
4 7 11 12 16 18 31 34 41
4 7 12 16 32 36 41
4 7 11 12 16 32 41
4 7 8 10 11 12 16 31 41
4 7 8 11 12 16 18 31 34 41
4 8 9 11 12 16 31 41
4 7 8 12 16 32 41 43
4 7 8 12 16 32 36 41
4 7 8 11 12 16 32 41
4 8 9 11 12 16 32 41
4 7 8 11 12 16 18 19 31 34 41
4 8 9 11 12 16 18 19 31 34 41
4 8 11 12 16 19 31 39 41
4 7 8 11 12 16 18 19 32 34 41
4 8 9 11 12 16 18 19 32 34 41
4 8 11 12 16 19 32 39 41
4 7 8 10 11 12 16 20 31 40 41
4 7 8 11 12 16 18 19 20 31 34 41
4 7 8 11 12 16 18 20 31 34 40 41
4 8 9 11 12 16 18 19 20 31 34 41
4 8 9 11 12 16 20 31 40 41
4 8 11 12 16 19 20 31 39 41
4 8 11 12 16 20 31 39 40 41
4 7 8 12 16 20 32 40 41 43
4 7 8 11 12 16 18 19 20 32 34 41
4 7 8 12 16 20 32 36 40 41
4 7 8 11 12 16 20 32 40 41
4 8 9 11 12 16 18 19 20 32 34 41
4 8 9 11 12 16 20 32 40 41
4 8 11 12 16 19 20 32 39 41
4 8 11 12 16 20 32 39 40 41
1 4 6 7 12 16 32 41 43
1 4 5 7 12 16 32 41 43
1 4 5 11 12 16 31 41
1 4 5 7 11 12 16 18 31 34 41
1 4 5 7 12 16 32 36 41
1 4 5 7 11 12 16 32 41
1 4 6 11 12 16 31 41
1 4 6 7 11 12 16 18 31 34 41
1 4 6 7 12 16 32 36 41
1 4 6 7 11 12 16 32 41
1 4 5 7 8 10 11 12 16 31 41
1 4 5 7 8 11 12 16 18 31 34 41
1 4 5 8 9 11 12 16 31 41
1 4 5 7 8 11 12 16 18 19 31 34 41
1 4 5 8 9 11 12 16 18 19 31 34 41
1 4 5 8 11 12 16 19 31 39 41
1 4 5 7 8 10 11 12 16 20 31 40 41
1 4 5 7 8 11 12 16 18 19 20 31 34 41
1 4 5 7 8 11 12 16 18 20 31 34 40 41
1 4 5 8 9 11 12 16 18 19 20 31 34 41
1 4 5 8 9 11 12 16 20 31 40 41
1 4 5 8 11 12 16 19 20 31 39 41
1 4 5 8 11 12 16 20 31 39 40 41
1 4 6 7 8 10 11 12 16 31 41
1 4 6 7 8 11 12 16 18 31 34 41
1 4 6 8 9 11 12 16 31 41
1 4 6 7 8 11 12 16 18 19 31 34 41
1 4 6 8 9 11 12 16 18 19 31 34 41
1 4 6 8 11 12 16 19 31 39 41
1 4 6 7 8 10 11 12 16 20 31 40 41
1 4 6 7 8 11 12 16 18 19 20 31 34 41
1 4 6 7 8 11 12 16 18 20 31 34 40 41
1 4 6 8 9 11 12 16 18 19 20 31 34 41
1 4 6 8 9 11 12 16 20 31 40 41
1 4 6 8 11 12 16 19 20 31 39 41
1 4 6 8 11 12 16 20 31 39 40 41
1 4 8 11 12 16 31 38 41
1 4 5 7 8 12 16 32 41 43
1 4 5 7 8 12 16 32 36 41
1 4 5 7 8 11 12 16 32 41
1 4 5 8 9 11 12 16 32 41
1 4 5 7 8 11 12 16 18 19 32 34 41
1 4 5 8 9 11 12 16 18 19 32 34 41
1 4 5 8 11 12 16 19 32 39 41
1 4 5 7 8 12 16 20 32 40 41 43
1 4 5 7 8 11 12 16 18 19 20 32 34 41
1 4 5 7 8 12 16 20 32 36 40 41
1 4 5 7 8 11 12 16 20 32 40 41
1 4 5 8 9 11 12 16 18 19 20 32 34 41
1 4 5 8 9 11 12 16 20 32 40 41
1 4 5 8 11 12 16 19 20 32 39 41
1 4 5 8 11 12 16 20 32 39 40 41
1 4 6 7 8 12 16 32 41 43
1 4 6 7 8 12 16 32 36 41
1 4 6 7 8 11 12 16 32 41
1 4 6 8 9 11 12 16 32 41
1 4 6 7 8 11 12 16 18 19 32 34 41
1 4 6 8 9 11 12 16 18 19 32 34 41
1 4 6 8 11 12 16 19 32 39 41
1 4 6 7 8 12 16 20 32 40 41 43
1 4 6 7 8 11 12 16 18 19 20 32 34 41
1 4 6 7 8 12 16 20 32 36 40 41
1 4 6 7 8 11 12 16 20 32 40 41
1 4 6 8 9 11 12 16 18 19 20 32 34 41
1 4 6 8 9 11 12 16 20 32 40 41
1 4 6 8 11 12 16 19 20 32 39 41
1 4 6 8 11 12 16 20 32 39 40 41
1 4 8 11 12 16 32 38 41
2 3 4 7 12 16 36 44
1 2 3 4 6 7 12 16 32 36
1 2 3 4 5 7 12 16 32 36
1 2 3 4 5 7 12 16 31 36
1 2 3 4 6 7 12 16 31 36
2 3 4 7 8 12 16 36 44
1 2 3 4 6 7 8 12 16 32 36
1 2 3 4 5 7 8 12 16 32 36
1 2 3 4 5 7 8 12 16 31 36
1 2 3 4 6 7 8 12 16 31 36
2 3 4 8 11 12 16 20 39 40 44
2 3 4 8 11 12 16 20 38 40 44
2 3 4 8 9 11 12 16 20 40 44
2 3 4 7 8 11 12 16 18 20 34 40 44
2 3 4 7 8 11 12 16 20 32 40 44
2 3 4 7 8 10 11 12 16 20 40 44
1 2 3 4 6 7 8 10 11 12 16 20 31 40
1 2 3 4 5 7 8 10 11 12 16 20 31 40
1 2 3 4 6 7 8 11 12 16 20 32 40
1 2 3 4 5 7 8 11 12 16 20 32 40
1 2 3 4 6 7 8 11 12 16 18 20 32 34 40
1 2 3 4 5 7 8 11 12 16 18 20 32 34 40
1 2 3 4 5 7 8 11 12 16 18 20 31 34 40
1 2 3 4 6 7 8 11 12 16 18 20 31 34 40
1 2 3 4 6 8 9 11 12 16 20 32 40
1 2 3 4 5 8 9 11 12 16 20 32 40
1 2 3 4 5 8 9 11 12 16 20 31 40
1 2 3 4 6 8 9 11 12 16 20 31 40
1 2 3 4 8 11 12 16 20 32 38 40
1 2 3 4 8 11 12 16 20 31 38 40
1 2 3 4 8 11 12 16 20 32 38 39 40
1 2 3 4 8 11 12 16 20 31 38 39 40
1 2 3 4 6 8 11 12 16 20 31 39 40
1 2 3 4 5 8 11 12 16 20 31 39 40
1 2 3 4 6 8 11 12 16 20 32 39 40
1 2 3 4 5 8 11 12 16 20 32 39 40
2 3 4 7 8 12 16 20 36 40 44
1 2 3 4 6 7 8 12 16 20 32 36 40
1 2 3 4 5 7 8 12 16 20 32 36 40
1 2 3 4 5 7 8 12 16 20 31 36 40
1 2 3 4 6 7 8 12 16 20 31 36 40
1 2 3 4 6 7 12 16 32 43
1 2 3 4 5 7 12 16 32 43
1 2 3 4 5 7 8 12 16 32 43
1 2 3 4 5 7 8 12 16 20 32 40 43
1 2 3 4 6 7 8 12 16 32 43
1 2 3 4 6 7 8 12 16 20 32 40 43
2 4 7 12 16 36 41 44
2 4 11 12 16 41 44
1 2 4 6 11 12 16 31 41
1 2 4 5 11 12 16 31 41
2 4 7 11 12 16 18 34 41 44
2 4 7 11 12 16 32 41 44
1 2 4 6 7 11 12 16 32 41
1 2 4 5 7 11 12 16 32 41
1 2 4 6 7 11 12 16 18 32 34 41
1 2 4 5 7 11 12 16 18 32 34 41
1 2 4 5 7 11 12 16 18 31 34 41
1 2 4 6 7 11 12 16 18 31 34 41
1 2 4 6 7 12 16 32 36 41
1 2 4 5 7 12 16 32 36 41
1 2 4 5 7 12 16 31 36 41
1 2 4 6 7 12 16 31 36 41
2 4 8 11 12 16 38 41 44
2 4 8 9 11 12 16 41 44
2 4 7 8 11 12 16 18 34 41 44
2 4 7 8 11 12 16 32 41 44
2 4 7 8 10 11 12 16 41 44
1 2 4 6 7 8 10 11 12 16 31 41
1 2 4 5 7 8 10 11 12 16 31 41
1 2 4 6 7 8 11 12 16 32 41
1 2 4 5 7 8 11 12 16 32 41
1 2 4 6 7 8 11 12 16 18 32 34 41
1 2 4 5 7 8 11 12 16 18 32 34 41
1 2 4 5 7 8 11 12 16 18 31 34 41
1 2 4 6 7 8 11 12 16 18 31 34 41
1 2 4 6 8 9 11 12 16 32 41
1 2 4 5 8 9 11 12 16 32 41
1 2 4 5 8 9 11 12 16 31 41
1 2 4 6 8 9 11 12 16 31 41
1 2 4 8 11 12 16 32 38 41
1 2 4 8 11 12 16 31 38 41
2 4 7 8 12 16 36 41 44
1 2 4 6 7 8 12 16 32 36 41
1 2 4 5 7 8 12 16 32 36 41
1 2 4 5 7 8 12 16 31 36 41
1 2 4 6 7 8 12 16 31 36 41
2 4 8 11 12 16 19 39 41 44
2 4 8 11 12 16 18 19 34 38 41 44
2 4 8 9 11 12 16 18 19 34 41 44
2 4 7 8 11 12 16 18 19 34 41 44
1 2 4 6 7 8 11 12 16 18 19 32 34 41
1 2 4 5 7 8 11 12 16 18 19 32 34 41
1 2 4 5 7 8 11 12 16 18 19 31 34 41
1 2 4 6 7 8 11 12 16 18 19 31 34 41
1 2 4 6 8 9 11 12 16 18 19 32 34 41
1 2 4 5 8 9 11 12 16 18 19 32 34 41
1 2 4 5 8 9 11 12 16 18 19 31 34 41
1 2 4 6 8 9 11 12 16 18 19 31 34 41
1 2 4 8 11 12 16 18 19 32 34 38 41
1 2 4 8 11 12 16 18 19 31 34 38 41
1 2 4 8 11 12 16 19 32 38 39 41
1 2 4 8 11 12 16 19 31 38 39 41
1 2 4 6 8 11 12 16 19 31 39 41
1 2 4 5 8 11 12 16 19 31 39 41
1 2 4 6 8 11 12 16 19 32 39 41
1 2 4 5 8 11 12 16 19 32 39 41
2 4 8 11 12 16 20 39 40 41 44
2 4 8 11 12 16 20 38 40 41 44
2 4 8 9 11 12 16 20 40 41 44
2 4 7 8 11 12 16 18 20 34 40 41 44
2 4 7 8 11 12 16 20 32 40 41 44
2 4 7 8 10 11 12 16 20 40 41 44
1 2 4 6 7 8 10 11 12 16 20 31 40 41
1 2 4 5 7 8 10 11 12 16 20 31 40 41
1 2 4 6 7 8 11 12 16 20 32 40 41
1 2 4 5 7 8 11 12 16 20 32 40 41
2 4 7 8 11 12 16 18 19 20 34 41 44
1 2 4 6 7 8 11 12 16 18 19 20 32 34 41
1 2 4 5 7 8 11 12 16 18 19 20 32 34 41
1 2 4 5 7 8 11 12 16 18 19 20 31 34 41
1 2 4 6 7 8 11 12 16 18 19 20 31 34 41
1 2 4 6 7 8 11 12 16 18 20 32 34 40 41
1 2 4 5 7 8 11 12 16 18 20 32 34 40 41
1 2 4 5 7 8 11 12 16 18 20 31 34 40 41
1 2 4 6 7 8 11 12 16 18 20 31 34 40 41
2 4 8 9 11 12 16 18 19 20 34 41 44
1 2 4 6 8 9 11 12 16 18 19 20 32 34 41
1 2 4 5 8 9 11 12 16 18 19 20 32 34 41
1 2 4 5 8 9 11 12 16 18 19 20 31 34 41
1 2 4 6 8 9 11 12 16 18 19 20 31 34 41
1 2 4 6 8 9 11 12 16 20 32 40 41
1 2 4 5 8 9 11 12 16 20 32 40 41
1 2 4 5 8 9 11 12 16 20 31 40 41
1 2 4 6 8 9 11 12 16 20 31 40 41
2 4 8 11 12 16 18 19 20 34 38 41 44
1 2 4 8 11 12 16 18 19 20 32 34 38 41
1 2 4 8 11 12 16 18 19 20 31 34 38 41
1 2 4 8 11 12 16 20 32 38 40 41
1 2 4 8 11 12 16 20 31 38 40 41
2 4 8 11 12 16 19 20 39 41 44
1 2 4 8 11 12 16 19 20 32 38 39 41
1 2 4 8 11 12 16 19 20 31 38 39 41
1 2 4 6 8 11 12 16 19 20 31 39 41
1 2 4 5 8 11 12 16 19 20 31 39 41
1 2 4 6 8 11 12 16 19 20 32 39 41
1 2 4 5 8 11 12 16 19 20 32 39 41
1 2 4 8 11 12 16 20 32 38 39 40 41
1 2 4 8 11 12 16 20 31 38 39 40 41
1 2 4 6 8 11 12 16 20 31 39 40 41
1 2 4 5 8 11 12 16 20 31 39 40 41
1 2 4 6 8 11 12 16 20 32 39 40 41
1 2 4 5 8 11 12 16 20 32 39 40 41
2 4 7 8 12 16 20 36 40 41 44
1 2 4 6 7 8 12 16 20 32 36 40 41
1 2 4 5 7 8 12 16 20 32 36 40 41
1 2 4 5 7 8 12 16 20 31 36 40 41
1 2 4 6 7 8 12 16 20 31 36 40 41
1 2 4 6 7 12 16 32 41 43
1 2 4 5 7 12 16 32 41 43
1 2 4 5 7 8 12 16 32 41 43
1 2 4 5 7 8 12 16 20 32 40 41 43
1 2 4 6 7 8 12 16 32 41 43
1 2 4 6 7 8 12 16 20 32 40 41 43
3 4 7 12 16 30 36 44
3 4 11 12 16 30 44
3 4 11 12 16 30 31
3 4 7 11 12 16 18 30 34 44
3 4 7 11 12 16 30 32
3 4 7 11 12 16 18 30 32 34
3 4 7 11 12 16 18 30 31 34
3 4 7 12 16 30 32 36
3 4 7 12 16 30 31 36
3 4 8 11 12 16 30 38 44
3 4 8 9 11 12 16 30 44
3 4 7 8 11 12 16 18 30 34 44
3 4 7 8 11 12 16 30 32
3 4 7 8 10 11 12 16 30 44
3 4 7 8 10 11 12 16 30 31
3 4 7 8 11 12 16 18 30 32 34
3 4 7 8 11 12 16 18 30 31 34
3 4 8 9 11 12 16 30 32
3 4 8 9 11 12 16 30 31
1 3 4 8 11 12 16 30 32 38
1 3 4 8 11 12 16 30 31 38
3 4 7 8 12 16 30 36 44
3 4 7 8 12 16 30 32 36
3 4 7 8 12 16 30 31 36
3 4 8 11 12 16 19 30 39 44
3 4 8 11 12 16 18 19 30 34 38 44
3 4 8 9 11 12 16 18 19 30 34 44
3 4 7 8 11 12 16 18 19 30 34 44
3 4 7 8 11 12 16 18 19 30 32 34
3 4 7 8 11 12 16 18 19 30 31 34
3 4 8 9 11 12 16 18 19 30 32 34
3 4 8 9 11 12 16 18 19 30 31 34
1 3 4 8 11 12 16 18 19 30 32 34 38
1 3 4 8 11 12 16 18 19 30 31 34 38
3 4 8 11 12 16 19 30 32 39
3 4 8 11 12 16 19 30 31 39
3 4 8 11 12 16 20 30 39 40 44
3 4 8 11 12 16 20 30 38 40 44
3 4 8 9 11 12 16 20 30 40 44
3 4 7 8 11 12 16 18 20 30 34 40 44
3 4 7 8 11 12 16 20 30 32 40
3 4 7 8 10 11 12 16 20 30 40 44
3 4 7 8 10 11 12 16 20 30 31 40
3 4 7 8 11 12 16 18 19 20 30 34 44
3 4 7 8 11 12 16 18 19 20 30 32 34
3 4 7 8 11 12 16 18 19 20 30 31 34
3 4 7 8 11 12 16 18 20 30 32 34 40
3 4 7 8 11 12 16 18 20 30 31 34 40
3 4 8 9 11 12 16 18 19 20 30 34 44
3 4 8 9 11 12 16 18 19 20 30 32 34
3 4 8 9 11 12 16 18 19 20 30 31 34
3 4 8 9 11 12 16 20 30 32 40
3 4 8 9 11 12 16 20 30 31 40
3 4 8 11 12 16 18 19 20 30 34 38 44
1 3 4 8 11 12 16 18 19 20 30 32 34 38
1 3 4 8 11 12 16 18 19 20 30 31 34 38
1 3 4 8 11 12 16 20 30 32 38 40
1 3 4 8 11 12 16 20 30 31 38 40
3 4 8 11 12 16 19 20 30 39 44
3 4 8 11 12 16 19 20 30 32 39
3 4 8 11 12 16 19 20 30 31 39
3 4 8 11 12 16 20 30 32 39 40
3 4 8 11 12 16 20 30 31 39 40
3 4 7 8 12 16 20 30 36 40 44
3 4 7 8 12 16 20 30 32 36 40
3 4 7 8 12 16 20 30 31 36 40
3 4 8 12 16 20 30 32 36 39 40
3 4 8 12 16 20 30 31 36 39 40
3 4 7 12 16 30 32 43
3 4 7 8 12 16 30 32 43
3 4 7 8 12 16 20 30 32 40 43
1 3 4 6 7 12 16 30 32 43
1 3 4 5 7 12 16 30 32 43
1 3 4 5 7 8 12 16 30 32 43
1 3 4 5 7 8 12 16 20 30 32 40 43
1 3 4 6 7 8 12 16 30 32 43
1 3 4 6 7 8 12 16 20 30 32 40 43
4 7 12 16 30 36 41 44
4 11 12 16 30 41 44
4 11 12 16 30 31 41
4 7 11 12 16 18 30 34 41 44
4 7 11 12 16 30 32 41
4 7 11 12 16 18 30 32 34 41
4 7 11 12 16 18 30 31 34 41
4 7 12 16 30 32 36 41
4 7 12 16 30 31 36 41
4 8 12 16 30 36 38 41 44
4 8 11 12 16 30 38 41 44
4 8 9 11 12 16 30 41 44
4 7 8 11 12 16 18 30 34 41 44
4 7 8 11 12 16 30 32 41
4 7 8 10 11 12 16 30 41 44
4 7 8 10 11 12 16 30 31 41
4 7 8 11 12 16 18 30 32 34 41
4 7 8 11 12 16 18 30 31 34 41
4 8 9 11 12 16 30 32 41
4 8 9 11 12 16 30 31 41
1 4 8 11 12 16 30 32 38 41
1 4 8 11 12 16 30 31 38 41
4 7 8 12 16 30 36 41 44
4 7 8 12 16 30 32 36 41
4 7 8 12 16 30 31 36 41
4 8 11 12 16 19 30 39 41 44
4 8 11 12 16 18 19 30 34 38 41 44
4 8 9 11 12 16 18 19 30 34 41 44
4 7 8 11 12 16 18 19 30 34 41 44
4 7 8 11 12 16 18 19 30 32 34 41
4 7 8 11 12 16 18 19 30 31 34 41
4 8 9 11 12 16 18 19 30 32 34 41
4 8 9 11 12 16 18 19 30 31 34 41
1 4 8 11 12 16 18 19 30 32 34 38 41
1 4 8 11 12 16 18 19 30 31 34 38 41
4 8 11 12 16 19 30 32 39 41
4 8 11 12 16 19 30 31 39 41
4 8 11 12 16 20 30 39 40 41 44
4 8 11 12 16 20 30 38 40 41 44
4 8 9 11 12 16 20 30 40 41 44
4 7 8 11 12 16 18 20 30 34 40 41 44
4 7 8 11 12 16 20 30 32 40 41
4 7 8 10 11 12 16 20 30 40 41 44
4 7 8 10 11 12 16 20 30 31 40 41
4 7 8 11 12 16 18 19 20 30 34 41 44
4 7 8 11 12 16 18 19 20 30 32 34 41
4 7 8 11 12 16 18 19 20 30 31 34 41
4 7 8 11 12 16 18 20 30 32 34 40 41
4 7 8 11 12 16 18 20 30 31 34 40 41
4 8 9 11 12 16 18 19 20 30 34 41 44
4 8 9 11 12 16 18 19 20 30 32 34 41
4 8 9 11 12 16 18 19 20 30 31 34 41
4 8 9 11 12 16 20 30 32 40 41
4 8 9 11 12 16 20 30 31 40 41
4 8 11 12 16 18 19 20 30 34 38 41 44
1 4 8 11 12 16 18 19 20 30 32 34 38 41
1 4 8 11 12 16 18 19 20 30 31 34 38 41
1 4 8 11 12 16 20 30 32 38 40 41
1 4 8 11 12 16 20 30 31 38 40 41
4 8 11 12 16 19 20 30 39 41 44
4 8 11 12 16 19 20 30 32 39 41
4 8 11 12 16 19 20 30 31 39 41
4 8 11 12 16 20 30 32 39 40 41
4 8 11 12 16 20 30 31 39 40 41
4 7 8 12 16 20 30 36 40 41 44
4 7 8 12 16 20 30 32 36 40 41
4 7 8 12 16 20 30 31 36 40 41
4 8 12 16 20 30 32 36 39 40 41
4 8 12 16 20 30 31 36 39 40 41
4 7 12 16 30 32 41 43
4 7 8 12 16 30 32 41 43
4 7 8 12 16 20 30 32 40 41 43
1 4 6 7 12 16 30 32 41 43
1 4 5 7 12 16 30 32 41 43
1 4 5 7 8 12 16 30 32 41 43
1 4 5 7 8 12 16 20 30 32 40 41 43
1 4 6 7 8 12 16 30 32 41 43
1 4 6 7 8 12 16 20 30 32 40 41 43
4 12 16 21 33 41 43 44
4 7 12 16 20 21 32 40 41 43
4 11 12 16 20 21 31 40 41
4 7 11 12 16 18 19 20 21 31 34 41
4 7 11 12 16 18 20 21 31 34 40 41
4 7 11 12 16 18 19 20 21 32 34 41
4 7 12 16 20 21 32 36 40 41
4 7 11 12 16 20 21 32 40 41
4 7 8 10 11 12 16 20 21 31 40 41
4 7 8 10 11 12 16 18 20 21 24 31 40 41
4 7 8 11 12 16 18 19 20 21 31 34 41
4 7 8 11 12 16 18 20 21 31 34 40 41
4 8 9 11 12 16 18 19 20 21 31 34 41
4 8 9 11 12 16 20 21 31 40 41
4 8 11 12 16 19 20 21 31 39 41
4 8 11 12 16 20 21 31 39 40 41
4 7 8 12 16 20 21 32 40 41 43
4 7 8 11 12 16 18 19 20 21 32 34 41
4 7 8 12 16 20 21 32 36 40 41
4 7 8 11 12 16 20 21 32 40 41
4 8 9 11 12 16 18 19 20 21 32 34 41
4 8 9 11 12 16 20 21 32 40 41
4 8 11 12 16 19 20 21 32 39 41
4 8 11 12 16 20 21 32 39 40 41
1 4 6 7 12 16 20 21 32 40 41 43
1 4 5 7 12 16 20 21 32 40 41 43
1 4 5 11 12 16 20 21 31 40 41
1 4 5 7 11 12 16 18 19 20 21 31 34 41
1 4 5 7 11 12 16 18 20 21 31 34 40 41
1 4 5 7 11 12 16 18 19 20 21 32 34 41
1 4 5 7 12 16 20 21 32 36 40 41
1 4 5 7 11 12 16 20 21 32 40 41
1 4 6 11 12 16 20 21 31 40 41
1 4 6 7 11 12 16 18 19 20 21 31 34 41
1 4 6 7 11 12 16 18 20 21 31 34 40 41
1 4 6 7 11 12 16 18 19 20 21 32 34 41
1 4 6 7 12 16 20 21 32 36 40 41
1 4 6 7 11 12 16 20 21 32 40 41
1 4 5 7 8 10 11 12 16 20 21 31 40 41
1 4 5 7 8 10 11 12 16 18 20 21 24 31 40 41
1 4 5 7 8 11 12 16 18 19 20 21 31 34 41
1 4 5 7 8 11 12 16 18 20 21 31 34 40 41
1 4 5 8 9 11 12 16 18 19 20 21 31 34 41
1 4 5 8 9 11 12 16 20 21 31 40 41
1 4 5 8 11 12 16 19 20 21 31 39 41
1 4 5 8 11 12 16 20 21 31 39 40 41
1 4 6 7 8 10 11 12 16 20 21 31 40 41
1 4 6 7 8 10 11 12 16 18 20 21 24 31 40 41
1 4 6 7 8 11 12 16 18 19 20 21 31 34 41
1 4 6 7 8 11 12 16 18 20 21 31 34 40 41
1 4 6 8 9 11 12 16 18 19 20 21 31 34 41
1 4 6 8 9 11 12 16 20 21 31 40 41
1 4 6 8 11 12 16 19 20 21 31 39 41
1 4 6 8 11 12 16 20 21 31 39 40 41
1 4 8 11 12 16 18 19 20 21 31 34 38 41
1 4 8 11 12 16 19 20 21 31 38 39 41
1 4 8 11 12 16 20 21 31 38 40 41
1 4 5 7 8 12 16 20 21 32 40 41 43
1 4 5 7 8 11 12 16 18 19 20 21 32 34 41
1 4 5 7 8 12 16 20 21 32 36 40 41
1 4 5 7 8 11 12 16 20 21 32 40 41
1 4 5 8 9 11 12 16 18 19 20 21 32 34 41
1 4 5 8 9 11 12 16 20 21 32 40 41
1 4 5 8 11 12 16 19 20 21 32 39 41
1 4 5 8 11 12 16 20 21 32 39 40 41
1 4 6 7 8 12 16 20 21 32 40 41 43
1 4 6 7 8 11 12 16 18 19 20 21 32 34 41
1 4 6 7 8 12 16 20 21 32 36 40 41
1 4 6 7 8 11 12 16 20 21 32 40 41
1 4 6 8 9 11 12 16 18 19 20 21 32 34 41
1 4 6 8 9 11 12 16 20 21 32 40 41
1 4 6 8 11 12 16 19 20 21 32 39 41
1 4 6 8 11 12 16 20 21 32 39 40 41
1 4 8 11 12 16 18 19 20 21 32 34 38 41
1 4 8 11 12 16 19 20 21 32 38 39 41
1 4 8 11 12 16 20 21 32 38 40 41
2 4 7 11 12 16 18 19 20 21 34 41 44
1 2 4 6 7 11 12 16 18 19 20 21 32 34 41
1 2 4 5 7 11 12 16 18 19 20 21 32 34 41
1 2 4 5 7 11 12 16 18 19 20 21 31 34 41
1 2 4 6 7 11 12 16 18 19 20 21 31 34 41
2 4 7 8 11 12 16 18 19 20 21 34 41 44
1 2 4 6 7 8 11 12 16 18 19 20 21 32 34 41
1 2 4 5 7 8 11 12 16 18 19 20 21 32 34 41
1 2 4 5 7 8 11 12 16 18 19 20 21 31 34 41
1 2 4 6 7 8 11 12 16 18 19 20 21 31 34 41
2 4 8 9 11 12 16 18 19 20 21 34 41 44
1 2 4 6 8 9 11 12 16 18 19 20 21 32 34 41
1 2 4 5 8 9 11 12 16 18 19 20 21 32 34 41
1 2 4 5 8 9 11 12 16 18 19 20 21 31 34 41
1 2 4 6 8 9 11 12 16 18 19 20 21 31 34 41
2 4 8 11 12 16 18 19 20 21 34 38 41 44
1 2 4 8 11 12 16 18 19 20 21 32 34 38 41
1 2 4 8 11 12 16 18 19 20 21 31 34 38 41
2 4 8 11 12 16 19 20 21 39 41 44
1 2 4 8 11 12 16 19 20 21 32 38 39 41
1 2 4 8 11 12 16 19 20 21 31 38 39 41
1 2 4 6 8 11 12 16 19 20 21 31 39 41
1 2 4 5 8 11 12 16 19 20 21 31 39 41
1 2 4 6 8 11 12 16 19 20 21 32 39 41
1 2 4 5 8 11 12 16 19 20 21 32 39 41
2 3 4 7 12 16 20 21 36 40 44
2 3 4 11 12 16 20 21 40 44
1 2 3 4 6 11 12 16 20 21 31 40
1 2 3 4 5 11 12 16 20 21 31 40
2 3 4 7 11 12 16 18 20 21 34 40 44
2 3 4 7 11 12 16 20 21 32 40 44
1 2 3 4 6 7 11 12 16 20 21 32 40
1 2 3 4 5 7 11 12 16 20 21 32 40
2 3 4 7 11 12 16 18 20 21 24 32 40 44
1 2 3 4 6 7 11 12 16 18 20 21 24 32 40
1 2 3 4 5 7 11 12 16 18 20 21 24 32 40
1 2 3 4 6 7 11 12 16 18 20 21 32 34 40
1 2 3 4 5 7 11 12 16 18 20 21 32 34 40
1 2 3 4 5 7 11 12 16 18 20 21 31 34 40
1 2 3 4 6 7 11 12 16 18 20 21 31 34 40
1 2 3 4 6 7 12 16 20 21 32 36 40
1 2 3 4 5 7 12 16 20 21 32 36 40
1 2 3 4 5 7 12 16 20 21 31 36 40
1 2 3 4 6 7 12 16 20 21 31 36 40
2 3 4 8 11 12 16 20 21 39 40 44
2 3 4 8 11 12 16 20 21 38 40 44
2 3 4 8 9 11 12 16 20 21 40 44
2 3 4 7 8 11 12 16 18 20 21 34 40 44
2 3 4 7 8 11 12 16 20 21 32 40 44
2 3 4 7 8 10 11 12 16 20 21 40 44
1 2 3 4 6 7 8 10 11 12 16 20 21 31 40
1 2 3 4 5 7 8 10 11 12 16 20 21 31 40
1 2 3 4 6 7 8 11 12 16 20 21 32 40
1 2 3 4 5 7 8 11 12 16 20 21 32 40
2 3 4 7 8 11 12 16 18 20 21 24 32 40 44
2 3 4 7 8 10 11 12 16 18 20 21 24 40 44
1 2 3 4 6 7 8 10 11 12 16 18 20 21 24 31 40
1 2 3 4 5 7 8 10 11 12 16 18 20 21 24 31 40
1 2 3 4 6 7 8 11 12 16 18 20 21 24 32 40
1 2 3 4 5 7 8 11 12 16 18 20 21 24 32 40
1 2 3 4 6 7 8 11 12 16 18 20 21 32 34 40
1 2 3 4 5 7 8 11 12 16 18 20 21 32 34 40
1 2 3 4 5 7 8 11 12 16 18 20 21 31 34 40
1 2 3 4 6 7 8 11 12 16 18 20 21 31 34 40
1 2 3 4 6 8 9 11 12 16 20 21 32 40
1 2 3 4 5 8 9 11 12 16 20 21 32 40
1 2 3 4 5 8 9 11 12 16 20 21 31 40
1 2 3 4 6 8 9 11 12 16 20 21 31 40
1 2 3 4 8 11 12 16 20 21 32 38 40
1 2 3 4 8 11 12 16 20 21 31 38 40
1 2 3 4 8 11 12 16 20 21 32 38 39 40
1 2 3 4 8 11 12 16 20 21 31 38 39 40
1 2 3 4 6 8 11 12 16 20 21 31 39 40
1 2 3 4 5 8 11 12 16 20 21 31 39 40
1 2 3 4 6 8 11 12 16 20 21 32 39 40
1 2 3 4 5 8 11 12 16 20 21 32 39 40
2 3 4 7 8 12 16 20 21 36 40 44
1 2 3 4 6 7 8 12 16 20 21 32 36 40
1 2 3 4 5 7 8 12 16 20 21 32 36 40
1 2 3 4 5 7 8 12 16 20 21 31 36 40
1 2 3 4 6 7 8 12 16 20 21 31 36 40
1 2 3 4 6 7 12 16 20 21 32 40 43
1 2 3 4 5 7 12 16 20 21 32 40 43
1 2 3 4 5 7 8 12 16 20 21 32 40 43
1 2 3 4 6 7 8 12 16 20 21 32 40 43
2 4 7 12 16 20 21 36 40 41 44
2 4 11 12 16 20 21 40 41 44
1 2 4 6 11 12 16 20 21 31 40 41
1 2 4 5 11 12 16 20 21 31 40 41
2 4 7 11 12 16 18 20 21 34 40 41 44
2 4 7 11 12 16 20 21 32 40 41 44
1 2 4 6 7 11 12 16 20 21 32 40 41
1 2 4 5 7 11 12 16 20 21 32 40 41
2 4 7 11 12 16 18 20 21 24 32 40 41 44
1 2 4 6 7 11 12 16 18 20 21 24 32 40 41
1 2 4 5 7 11 12 16 18 20 21 24 32 40 41
1 2 4 6 7 11 12 16 18 20 21 32 34 40 41
1 2 4 5 7 11 12 16 18 20 21 32 34 40 41
1 2 4 5 7 11 12 16 18 20 21 31 34 40 41
1 2 4 6 7 11 12 16 18 20 21 31 34 40 41
1 2 4 6 7 12 16 20 21 32 36 40 41
1 2 4 5 7 12 16 20 21 32 36 40 41
1 2 4 5 7 12 16 20 21 31 36 40 41
1 2 4 6 7 12 16 20 21 31 36 40 41
2 4 8 11 12 16 20 21 39 40 41 44
2 4 8 11 12 16 20 21 38 40 41 44
2 4 8 9 11 12 16 20 21 40 41 44
2 4 7 8 11 12 16 18 20 21 34 40 41 44
2 4 7 8 11 12 16 20 21 32 40 41 44
2 4 7 8 10 11 12 16 20 21 40 41 44
1 2 4 6 7 8 10 11 12 16 20 21 31 40 41
1 2 4 5 7 8 10 11 12 16 20 21 31 40 41
1 2 4 6 7 8 11 12 16 20 21 32 40 41
1 2 4 5 7 8 11 12 16 20 21 32 40 41
2 4 7 8 11 12 16 18 20 21 24 32 40 41 44
2 4 7 8 10 11 12 16 18 20 21 24 40 41 44
1 2 4 6 7 8 10 11 12 16 18 20 21 24 31 40 41
1 2 4 5 7 8 10 11 12 16 18 20 21 24 31 40 41
1 2 4 6 7 8 11 12 16 18 20 21 24 32 40 41
1 2 4 5 7 8 11 12 16 18 20 21 24 32 40 41
1 2 4 6 7 8 11 12 16 18 20 21 32 34 40 41
1 2 4 5 7 8 11 12 16 18 20 21 32 34 40 41
1 2 4 5 7 8 11 12 16 18 20 21 31 34 40 41
1 2 4 6 7 8 11 12 16 18 20 21 31 34 40 41
1 2 4 6 8 9 11 12 16 20 21 32 40 41
1 2 4 5 8 9 11 12 16 20 21 32 40 41
1 2 4 5 8 9 11 12 16 20 21 31 40 41
1 2 4 6 8 9 11 12 16 20 21 31 40 41
1 2 4 8 11 12 16 20 21 32 38 40 41
1 2 4 8 11 12 16 20 21 31 38 40 41
1 2 4 8 11 12 16 20 21 32 38 39 40 41
1 2 4 8 11 12 16 20 21 31 38 39 40 41
1 2 4 6 8 11 12 16 20 21 31 39 40 41
1 2 4 5 8 11 12 16 20 21 31 39 40 41
1 2 4 6 8 11 12 16 20 21 32 39 40 41
1 2 4 5 8 11 12 16 20 21 32 39 40 41
2 4 7 8 12 16 20 21 36 40 41 44
1 2 4 6 7 8 12 16 20 21 32 36 40 41
1 2 4 5 7 8 12 16 20 21 32 36 40 41
1 2 4 5 7 8 12 16 20 21 31 36 40 41
1 2 4 6 7 8 12 16 20 21 31 36 40 41
1 2 4 6 7 12 16 20 21 32 40 41 43
1 2 4 5 7 12 16 20 21 32 40 41 43
1 2 4 5 7 8 12 16 20 21 32 40 41 43
1 2 4 6 7 8 12 16 20 21 32 40 41 43
3 4 7 11 12 16 18 19 20 21 30 34 44
3 4 7 11 12 16 18 19 20 21 30 32 34
3 4 7 11 12 16 18 19 20 21 30 31 34
4 7 11 12 16 18 19 20 21 30 34 41 44
4 7 11 12 16 18 19 20 21 30 32 34 41
4 7 11 12 16 18 19 20 21 30 31 34 41
3 4 7 8 11 12 16 18 19 20 21 30 34 44
3 4 7 8 11 12 16 18 19 20 21 30 32 34
3 4 7 8 11 12 16 18 19 20 21 30 31 34
4 7 8 11 12 16 18 19 20 21 30 34 41 44
4 7 8 11 12 16 18 19 20 21 30 32 34 41
4 7 8 11 12 16 18 19 20 21 30 31 34 41
3 4 8 9 11 12 16 18 19 20 21 30 34 44
3 4 8 9 11 12 16 18 19 20 21 30 32 34
3 4 8 9 11 12 16 18 19 20 21 30 31 34
4 8 9 11 12 16 18 19 20 21 30 34 41 44
4 8 9 11 12 16 18 19 20 21 30 32 34 41
4 8 9 11 12 16 18 19 20 21 30 31 34 41
3 4 8 11 12 16 18 19 20 21 30 34 38 44
1 3 4 8 11 12 16 18 19 20 21 30 32 34 38
1 3 4 8 11 12 16 18 19 20 21 30 31 34 38
4 8 11 12 16 18 19 20 21 30 34 38 41 44
1 4 8 11 12 16 18 19 20 21 30 32 34 38 41
1 4 8 11 12 16 18 19 20 21 30 31 34 38 41
3 4 8 11 12 16 19 20 21 30 39 44
3 4 8 11 12 16 19 20 21 30 32 39
3 4 8 11 12 16 19 20 21 30 31 39
4 8 11 12 16 19 20 21 30 39 41 44
4 8 11 12 16 19 20 21 30 32 39 41
4 8 11 12 16 19 20 21 30 31 39 41
3 4 7 12 16 20 21 30 36 40 44
3 4 11 12 16 20 21 30 40 44
3 4 11 12 16 20 21 30 31 40
3 4 7 11 12 16 18 20 21 30 34 40 44
3 4 7 11 12 16 20 21 30 32 40
3 4 7 11 12 16 18 20 21 24 30 32 40
3 4 7 11 12 16 18 20 21 30 32 34 40
3 4 7 11 12 16 18 20 21 30 31 34 40
3 4 7 12 16 20 21 30 32 36 40
3 4 7 12 16 20 21 30 31 36 40
3 4 8 11 12 16 20 21 30 39 40 44
3 4 8 11 12 16 20 21 30 38 40 44
3 4 8 9 11 12 16 20 21 30 40 44
3 4 7 8 11 12 16 18 20 21 30 34 40 44
3 4 7 8 11 12 16 20 21 30 32 40
3 4 7 8 10 11 12 16 20 21 30 40 44
3 4 7 8 10 11 12 16 20 21 30 31 40
3 4 7 8 11 12 16 18 20 21 24 30 32 40
3 4 7 8 10 11 12 16 18 20 21 24 30 40 44
3 4 7 8 10 11 12 16 18 20 21 24 30 31 40
3 4 7 8 11 12 16 18 20 21 30 32 34 40
3 4 7 8 11 12 16 18 20 21 30 31 34 40
3 4 8 9 11 12 16 20 21 30 32 40
3 4 8 9 11 12 16 20 21 30 31 40
1 3 4 8 11 12 16 20 21 30 32 38 40
1 3 4 8 11 12 16 20 21 30 31 38 40
3 4 8 11 12 16 20 21 30 32 39 40
3 4 8 11 12 16 20 21 30 31 39 40
3 4 7 8 12 16 20 21 30 36 40 44
3 4 7 8 12 16 20 21 30 32 36 40
3 4 7 8 12 16 20 21 30 31 36 40
3 4 8 12 16 20 21 30 32 36 39 40
3 4 8 12 16 20 21 30 31 36 39 40
3 4 7 12 16 20 21 30 32 40 43
3 4 7 8 12 16 20 21 30 32 40 43
1 3 4 6 7 12 16 20 21 30 32 40 43
1 3 4 5 7 12 16 20 21 30 32 40 43
1 3 4 5 7 8 12 16 20 21 30 32 40 43
1 3 4 6 7 8 12 16 20 21 30 32 40 43
4 7 12 16 20 21 30 36 40 41 44
4 11 12 16 20 21 30 40 41 44
4 11 12 16 20 21 30 31 40 41
4 7 11 12 16 18 20 21 30 34 40 41 44
4 7 11 12 16 20 21 30 32 40 41
4 7 11 12 16 18 20 21 24 30 32 40 41
4 7 11 12 16 18 20 21 30 32 34 40 41
4 7 11 12 16 18 20 21 30 31 34 40 41
4 7 12 16 20 21 30 32 36 40 41
4 7 12 16 20 21 30 31 36 40 41
4 8 11 12 16 20 21 30 39 40 41 44
4 8 11 12 16 20 21 30 38 40 41 44
4 8 9 11 12 16 20 21 30 40 41 44
4 7 8 11 12 16 18 20 21 30 34 40 41 44
4 7 8 11 12 16 20 21 30 32 40 41
4 7 8 10 11 12 16 20 21 30 40 41 44
4 7 8 10 11 12 16 20 21 30 31 40 41
4 7 8 11 12 16 18 20 21 24 30 32 40 41
4 7 8 10 11 12 16 18 20 21 24 30 40 41 44
4 7 8 10 11 12 16 18 20 21 24 30 31 40 41
4 7 8 11 12 16 18 20 21 30 32 34 40 41
4 7 8 11 12 16 18 20 21 30 31 34 40 41
4 8 9 11 12 16 20 21 30 32 40 41
4 8 9 11 12 16 20 21 30 31 40 41
1 4 8 11 12 16 20 21 30 32 38 40 41
1 4 8 11 12 16 20 21 30 31 38 40 41
4 8 11 12 16 20 21 30 32 39 40 41
4 8 11 12 16 20 21 30 31 39 40 41
4 7 8 12 16 20 21 30 36 40 41 44
4 7 8 12 16 20 21 30 32 36 40 41
4 7 8 12 16 20 21 30 31 36 40 41
4 8 12 16 20 21 30 32 36 39 40 41
4 8 12 16 20 21 30 31 36 39 40 41
4 7 12 16 20 21 30 32 40 41 43
4 7 8 12 16 20 21 30 32 40 41 43
1 4 6 7 12 16 20 21 30 32 40 41 43
1 4 5 7 12 16 20 21 30 32 40 41 43
1 4 5 7 8 12 16 20 21 30 32 40 41 43
1 4 6 7 8 12 16 20 21 30 32 40 41 43
3 4 7 12 16 21 33 36 44
3 4 7 12 16 21 32 33 36
3 4 7 12 16 21 31 33 36
3 4 8 11 12 16 21 33 39 40 44
3 4 8 11 12 16 21 32 33 39 40
3 4 8 11 12 16 21 31 33 39 40
3 4 7 8 12 16 21 33 36 44
3 4 7 8 12 16 21 32 33 36
3 4 7 8 12 16 21 31 33 36
3 4 7 12 16 21 32 33 43
3 4 7 8 12 16 21 32 33 43
1 3 4 6 7 12 16 21 32 33 43
1 3 4 5 7 12 16 21 32 33 43
1 3 4 5 7 8 12 16 21 32 33 43
1 3 4 6 7 8 12 16 21 32 33 43
4 7 12 16 21 33 36 41 44
4 11 12 16 21 33 41 44
4 11 12 16 21 31 33 41
4 7 11 12 16 18 21 33 34 41 44
4 7 11 12 16 21 32 33 41
4 7 11 12 16 18 21 24 32 33 41
4 7 11 12 16 18 21 32 33 34 41
4 7 11 12 16 18 21 31 33 34 41
4 7 12 16 21 32 33 36 41
4 7 12 16 21 31 33 36 41
4 8 11 12 16 21 33 39 40 41 44
4 8 11 12 16 21 33 38 41 44
4 8 9 11 12 16 21 33 41 44
4 7 8 11 12 16 18 21 33 34 41 44
4 7 8 11 12 16 21 32 33 41
4 7 8 10 11 12 16 21 33 41 44
4 7 8 10 11 12 16 21 31 33 41
4 7 8 11 12 16 18 21 24 32 33 41
4 7 8 10 11 12 16 18 21 24 33 41 44
4 7 8 10 11 12 16 18 21 24 31 33 41
4 7 8 11 12 16 18 21 32 33 34 41
4 7 8 11 12 16 18 21 31 33 34 41
4 8 9 11 12 16 21 32 33 41
4 8 9 11 12 16 21 31 33 41
1 4 8 11 12 16 21 32 33 38 41
1 4 8 11 12 16 21 31 33 38 41
4 8 11 12 16 21 23 33 39 41 44
4 8 11 12 16 19 21 33 39 41 44
4 8 11 12 16 19 21 32 33 39 41
4 8 11 12 16 19 21 31 33 39 41
4 8 11 12 16 21 23 32 33 39 41
4 8 11 12 16 21 23 31 33 39 41
4 8 11 12 16 21 32 33 39 40 41
4 8 11 12 16 21 31 33 39 40 41
4 8 12 16 21 33 36 38 41 44
4 7 8 12 16 21 33 36 41 44
4 7 8 12 16 21 32 33 36 41
4 7 8 12 16 21 31 33 36 41
4 8 12 16 21 23 32 33 36 39 41
4 8 12 16 21 23 31 33 36 39 41
4 8 12 16 21 32 33 36 39 40 41
4 8 12 16 21 31 33 36 39 40 41
4 8 12 16 21 32 33 39 40 41 43
4 7 12 16 21 32 33 41 43
4 7 8 12 16 21 32 33 41 43
4 8 12 16 21 23 32 33 39 41 43
1 4 6 7 12 16 21 32 33 41 43
1 4 5 7 12 16 21 32 33 41 43
1 4 5 7 8 12 16 21 32 33 41 43
1 4 6 7 8 12 16 21 32 33 41 43
3 4 7 12 16 21 36 37 44
3 4 7 12 16 21 32 36 37
3 4 7 12 16 21 31 36 37
3 4 8 11 12 16 21 37 39 40 44
3 4 8 11 12 16 21 32 37 39 40
3 4 8 11 12 16 21 31 37 39 40
3 4 7 8 12 16 21 36 37 44
3 4 7 8 12 16 21 32 36 37
3 4 7 8 12 16 21 31 36 37
3 4 7 12 16 21 32 37 43
3 4 7 8 12 16 21 32 37 43
1 3 4 6 7 12 16 21 32 37 43
1 3 4 5 7 12 16 21 32 37 43
1 3 4 5 7 8 12 16 21 32 37 43
1 3 4 6 7 8 12 16 21 32 37 43
4 7 12 16 21 36 37 41 44
4 11 12 16 21 37 41 44
4 11 12 16 21 31 37 41
4 7 11 12 16 18 21 34 37 41 44
4 7 11 12 16 21 32 37 41
4 7 11 12 16 18 21 24 32 37 41
4 7 11 12 16 18 21 32 34 37 41
4 7 11 12 16 18 21 31 34 37 41
4 7 12 16 21 32 36 37 41
4 7 12 16 21 31 36 37 41
4 8 11 12 16 21 37 39 40 41 44
4 8 11 12 16 21 37 38 41 44
4 8 9 11 12 16 21 37 41 44
4 7 8 11 12 16 18 21 34 37 41 44
4 7 8 11 12 16 21 32 37 41
4 7 8 10 11 12 16 21 37 41 44
4 7 8 10 11 12 16 21 31 37 41
4 7 8 11 12 16 18 21 24 32 37 41
4 7 8 10 11 12 16 18 21 24 37 41 44
4 7 8 10 11 12 16 18 21 24 31 37 41
4 7 8 11 12 16 18 21 32 34 37 41
4 7 8 11 12 16 18 21 31 34 37 41
4 8 9 11 12 16 21 32 37 41
4 8 9 11 12 16 21 31 37 41
1 4 8 11 12 16 21 32 37 38 41
1 4 8 11 12 16 21 31 37 38 41
4 8 11 12 16 21 23 37 39 41 44
4 8 11 12 16 19 21 37 39 41 44
4 8 11 12 16 19 21 32 37 39 41
4 8 11 12 16 19 21 31 37 39 41
4 8 11 12 16 21 23 32 37 39 41
4 8 11 12 16 21 23 31 37 39 41
4 8 11 12 16 21 32 37 39 40 41
4 8 11 12 16 21 31 37 39 40 41
4 8 12 16 21 36 37 38 41 44
4 7 8 12 16 21 36 37 41 44
4 7 8 12 16 21 32 36 37 41
4 7 8 12 16 21 31 36 37 41
4 8 12 16 21 23 32 36 37 39 41
4 8 12 16 21 23 31 36 37 39 41
4 8 12 16 21 32 36 37 39 40 41
4 8 12 16 21 31 36 37 39 40 41
4 8 12 16 21 32 37 39 40 41 43
4 7 12 16 21 32 37 41 43
4 7 8 12 16 21 32 37 41 43
4 8 12 16 21 23 32 37 39 41 43
1 4 6 7 12 16 21 32 37 41 43
1 4 5 7 12 16 21 32 37 41 43
1 4 5 7 8 12 16 21 32 37 41 43
1 4 6 7 8 12 16 21 32 37 41 43
 Minimal traps 
11 25 42
25 28
12 15 43
7 18 34
8 19 39
20 23
1 5
2 16 44
15 16 17
3 21 37
21 22
3 21 33
1 2 3 4 6
3 20 21 37
18 19 20 21 24
3 20 21 33
1 8 38
8 9
1 5 8 9
1 2 8 9 16 44
3 8 9 19 20 21 37
3 8 9 19 20 21 33
7 16 32
1 7 8 38
7 8 10
7 8 9
1 5 7 8 10
1 5 7 8 9
1 7 8 16 38 44
7 8 10 15 16 17
7 8 9 15 16 17
2 7 8 10 16 44
2 7 8 9 16 44
1 2 7 8 10 16 44
1 2 7 8 9 16 44
1 5 7 8 10 16 44
1 5 7 8 9 16 44
1 5 7 8 9 15 16 17
1 5 7 8 10 15 16 17
7 12 36
8 12 35
7 8 12 35
1 7 8 12 16 35 38 44
2 7 8 12 16 35 44
1 5 7 8 12 16 35 44
1 2 7 8 12 16 35 44
1 7 12 15 16 36 38 44
2 7 12 15 16 36 44
7 12 15 16 32 36
7 12 15 16 32 35
2 8 12 15 16 35 44
2 7 8 12 15 16 35 44
1 8 12 15 16 35 38 44
1 5 8 12 15 16 35 44
1 2 8 12 15 16 35 44
1 7 8 12 15 16 35 38 44
1 5 7 8 12 15 16 35 44
1 2 7 8 12 15 16 35 44
1 5 7 12 15 16 36 44
1 2 7 12 15 16 36 44
1 5 7 12 15 16 32 36
1 7 12 15 16 32 36 38
25 26 27 29
11 20 40
2 11 15 21 37 41 43 44
4 11 41
11 15 31 43
11 16 31
11 13
11 12 14
11 13 15 43
11 12 15 43
11 12 14 15 16 17
11 13 15 16 17
11 15 16 31
3 11 30
2 11 15 30 43 44
2 11 15 21 33 41 43 44
1 4 5 11 41
1 5 11 13
1 5 11 12 14
1 4 5 6 11 13
1 4 5 6 11 12 14
4 8 11 35 41
8 11 15 31 35 43
8 11 16 31 35
8 11 13 35
8 11 12 35
8 9 11 12 14
8 9 11 13
8 9 11 16 31
8 11 13 15 35 43
8 11 12 15 35 43
8 9 11 12 15 43
8 9 11 12 14 15 16 17
8 11 12 15 16 17 35
8 9 11 13 15 43
8 9 11 13 15 16 17
8 11 13 15 16 17 35
8 9 11 15 31 43
8 9 11 15 16 31
8 11 15 16 31 35
4 8 9 11 41
1 4 8 11 38 41
1 8 11 13 38
1 8 11 12 35 38
1 8 11 12 14 38
1 5 8 9 11 12 14
1 5 8 11 12 35
1 5 8 11 13 35
1 5 8 9 11 13
1 4 5 8 11 35 41
1 4 5 8 9 11 41
1 4 5 6 8 9 11 13
1 4 5 6 8 9 11 12 14
1 4 5 6 8 11 13 35
1 4 5 6 8 11 12 35
1 4 6 8 11 13 38
1 4 6 8 11 12 35 38
1 4 6 8 11 12 14 38
7 11 19 36 39 40
1 7 11 15 21 36 37 38 41 43 44
4 7 11 36 41
7 11 15 31 36 43
7 11 16 31 36
7 11 13 36
7 11 12 36
7 8 11 12 35
7 8 10 11 12 14
7 8 9 11 12 14
7 8 11 13 35
7 8 10 11 13
7 8 9 11 13
7 11 13 16 32
7 11 12 16 32 36
7 11 12 16 32 35
7 11 12 14 16 32
7 11 16 31 32
7 8 11 16 31 35
7 8 10 11 16 31
7 8 9 11 16 31
7 11 13 15 36 43
7 11 12 15 36 43
7 11 12 15 32 43
7 8 11 12 15 35 43
7 8 10 11 12 15 43
7 8 9 11 12 15 43
7 8 9 11 12 14 15 16 17
7 8 10 11 12 14 15 16 17
7 8 11 12 15 16 17 35
7 11 12 15 16 32 35
7 11 12 14 15 16 32
7 11 12 15 16 32 36
7 11 12 15 16 17 36
7 11 13 15 32 43
7 8 11 13 15 35 43
7 8 10 11 13 15 43
7 8 9 11 13 15 43
7 8 9 11 13 15 16 17
7 8 10 11 13 15 16 17
7 8 11 13 15 16 17 35
7 11 13 15 16 32
7 11 13 15 16 32 36
7 11 13 15 16 17 36
7 11 15 31 32 43
7 8 11 15 31 35 43
7 8 10 11 15 31 43
7 8 9 11 15 31 43
7 8 9 11 15 16 31
7 8 10 11 15 16 31
7 8 11 15 16 31 35
7 11 15 16 31 32
7 11 15 16 31 36
4 7 11 15 32 41 43
4 7 11 16 32 41
4 7 8 11 35 41
4 7 8 10 11 41
4 7 8 9 11 41
4 7 8 11 16 31 35 41
4 7 8 10 11 16 31 41
4 7 8 9 11 16 31 41
4 7 8 11 15 35 41 43
4 7 8 10 11 15 41 43
4 7 8 9 11 15 41 43
4 7 8 9 11 15 16 31 41
4 7 8 9 11 15 16 17 41
4 7 8 10 11 15 16 31 41
4 7 8 10 11 15 16 17 41
4 7 8 11 15 16 31 35 41
4 7 8 11 15 16 17 35 41
4 7 11 15 16 32 41
1 7 11 16 21 36 37 38 41 44
1 4 7 11 36 38 41
1 7 11 13 36 38
1 7 11 12 36 38
1 7 8 11 12 35 38
1 7 8 11 12 14 38
1 5 7 8 10 11 12 14
1 5 7 8 9 11 12 14
1 5 7 8 11 12 35
1 5 7 11 12 36
1 7 8 11 13 38
1 5 7 8 11 13 35
1 5 7 8 10 11 13
1 5 7 8 9 11 13
1 5 7 11 13 36
1 4 7 8 11 38 41
1 4 5 7 8 11 35 41
1 4 5 7 8 10 11 41
1 4 5 7 8 9 11 41
1 4 5 6 7 8 9 11 13
1 4 5 6 7 8 9 11 12 14
1 4 5 6 7 8 10 11 13
1 4 5 6 7 8 10 11 12 14
1 4 5 6 7 8 11 13 35
1 4 5 6 7 8 11 12 35
1 4 6 7 8 11 13 38
1 4 6 7 8 11 12 35 38
1 4 6 7 8 11 12 14 38
1 4 5 7 11 36 41
1 4 5 6 7 11 13 36
1 4 5 6 7 11 12 36
1 4 6 7 11 13 36 38
1 4 6 7 11 12 36 38
1 7 11 16 30 36 38 44
1 7 11 16 21 33 36 38 41 44
1 7 11 15 30 36 38 43 44
1 7 11 15 30 32 38 43 44
1 7 11 15 21 32 37 38 41 43 44
1 7 11 15 21 32 33 38 41 43 44
1 7 11 15 21 33 36 38 41 43 44
7 11 15 19 32 39 40 43
1 7 11 15 19 23 32 37 38 39 41 43 44
2 7 11 15 19 23 32 37 39 41 43 44
3 7 11 15 19 23 32 37 39 41 43
3 7 11 15 19 23 32 33 39 41 43
2 7 11 15 19 23 32 33 39 41 43 44
1 7 11 15 19 23 32 33 38 39 41 43 44
1 7 11 15 19 23 36 37 38 39 41 43 44
2 7 11 15 19 23 36 37 39 41 43 44
3 7 11 19 23 36 37 39 41
3 7 11 19 23 33 36 39 41
2 7 11 15 19 23 33 36 39 41 43 44
1 7 11 16 19 23 36 37 38 39 41 44
1 7 11 16 19 23 33 36 38 39 41 44
1 7 11 15 19 23 33 36 38 39 41 43 44
 Analysis time: 237.473s