 Minimal siphons 
3 8 13 17 26
8 9
2 7 13 19 24 27
1 7 13 24
13 15
17 20
11 16
11 12 13 14 17 18 19 21 22 23
11 12 13 16
1 28 6 21
2 6 13 19 27
2 6 25
2 6 11 12 13 16 25
2 7 13 24 25
2 6 7 11 12 13 16 25
6 7 8 10
2 6 7 8 11 12 13 16 25
3 4
1 2 3 5
2 3 6 11 12 13 16 25
2 3 6 7 11 12 13 16 25
1 2 3 5 8 9
1 2 3 5 6 7 8 10
1 2 3 5 6 8 9 10
3 4 6 7 8 10
1 3 4 5 6 7 8 10
 Minimal traps 
11 16
1 28 6 21
2 6 13 19 27
3 8 13 17 26
17 20
13 15
6 7 8 10
8 9
3 4
3 4 6 7 8 10
3 4 8 9
3 4 6 7 8 9
2 3 4
2 3 4 8 9
2 6 25
2 3 4 6 7 8 10
2 3 4 6 7 8 9
2 6 13 15 25
1 6 13 19 24 27
1 7 13 24
1 2 3 5
1 2 3 4
1 2 3 5 8 9
1 2 3 4 8 9
1 2 3 5 7 8 9
1 2 3 4 7 8 9
1 2 6 25
1 2 3 5 6 7 8 10
1 2 3 4 6 7 8 10
1 2 3 4 6 7 8 9
1 2 3 5 6 7 8 9
1 6 13 24 25
1 2 6 13 15 25
11 12 13 15
11 12 13 14 17 18 19 21 22 23
3 4 11 12 13 15
2 3 4 11 12 13 15
2 6 11 12 13 15 25
1 2 3 5 11 12 13 15
1 2 3 4 11 12 13 15
1 2 6 11 12 13 15 25
 Analysis time: 1.834s