 Minimal siphons 
17 18
2 5 7 11 16 24 27 29
1 5 7 11 16 24 27
16 19
15 20
10 12
7 8
1 4 7 26
1 4 7 22
1 4 7 10 15 25
1 4 7 11 15 27
1 5 6 10 16 24
1 31 4 5 6 13
1 31 4 5 6 10 12 13
1 31 4 5 6 9 10 13
1 5 7 10 16 24 26
1 4 5 7 26
1 4 5 7 22
1 31 4 5 7 8 13
1 31 4 5 6 7 13
1 5 7 10 16 24 25
1 5 7 10 16 22 24
1 35 4 5 6 7 9 10 11 13 14 15
1 34 4 5 6 7 9 10 11 13 14 15
1 33 4 5 6 7 9 10 11 13 14 15
1 32 4 5 6 7 9 10 11 13 14 15
1 30 4 5 6 7 9 10 11 13 14 15
2 4 28
1 2 3
1 2 4 7 26
1 2 4 7 22
2 5 6 29
2 4 5 28
2 5 6 10 16 24 28
2 4 5 6 13 28
1 31 2 4 5 6 13
2 4 5 6 10 12 13 28
2 4 5 6 9 10 13 28
1 31 2 4 5 6 9 10 13
1 31 2 4 5 6 10 12 13
2 5 7 26 29
2 5 7 10 16 24 25 29
2 5 7 23
2 5 7 22 29
2 5 7 8 29
2 5 6 7 29
2 4 5 6 7 13 28
1 31 2 4 5 6 7 13
2 4 5 7 8 28
1 31 2 4 5 7 8 13
2 4 5 7 22 28
1 2 4 5 7 22
2 5 7 10 15 25 29
2 5 7 10 16 22 24 28
2 5 7 10 16 24 25 28
2 5 7 10 16 24 26 28
2 5 7 23 26
2 4 5 7 26 28
1 2 4 5 7 26
2 5 7 11 15 27 29
2 5 7 11 16 24 27 28
4 5 6 7 9 10 11 13 14 15 16 17 21
 Minimal traps 
1 4 6 10 15 25 29
15 20
16 19
10 12
2 4 28
17 18
7 8
2 5 6 29
2 5 7 23
2 5 6 7 23
2 4 16 17 21 28
2 4 5 6 16 17 21 29
2 4 5 7 16 17 21 23
2 4 5 6 7 16 17 21 23
2 4 15 16 17 21 28
4 5 6 7 9 10 11 13 14 15 16 17 21
2 4 5 6 15 16 17 21 29
2 4 5 7 15 16 17 21 23
2 4 5 6 7 15 16 17 21 23
1 2 3
1 2 5 7 23
1 2 5 6 29
1 2 5 6 7 23
1 5 6 10 16 24
1 2 5 6 10 12 29
1 2 5 6 7 10 12 23
1 2 3 5 6 7 8 9 10 12 13
1 4 7 10 15 25
1 31 4 10 15 25
1 35 4 10 15 25
1 2 4 28
1 30 4 28
1 32 4 28
1 33 4 28
1 34 4 28
1 35 4 11 15 27
1 35 4 28
1 35 4 26
1 35 4 22
1 35 4 5 23
1 31 4 11 15 27
1 31 4 28
1 31 4 26
1 31 4 22
1 31 4 5 23
1 31 4 10 12 28
1 31 4 10 12 26
1 31 4 10 12 22
1 31 4 5 10 12 23
1 4 7 11 15 27
1 4 7 26
1 4 7 22
1 2 4 7 23 28
1 31 4 7 23 28
1 34 4 5 7 23
1 33 4 5 7 23
1 32 4 5 7 23
1 31 4 7 8 28
1 31 4 5 7 23
1 30 4 5 7 23
1 2 4 7 8 28
1 2 4 5 7 23
1 30 4 7 11 14 15 28
1 32 4 7 11 14 15 28
1 33 4 7 11 14 15 28
1 34 4 7 11 14 15 28
1 4 7 10 12 26
1 4 7 10 12 22
1 2 4 7 10 12 23 28
1 31 4 7 10 12 23 28
1 31 4 7 8 10 12 28
1 31 4 5 7 10 12 23
1 2 4 7 8 10 12 28
1 2 4 5 7 10 12 23
1 30 4 7 10 11 14 15 28
1 32 4 7 10 11 14 15 28
1 33 4 7 10 11 14 15 28
1 34 4 7 10 11 14 15 28
1 4 6 11 15 27 29
1 4 6 26 29
1 4 6 22 29
1 31 4 6 28
1 2 4 6 28 29
1 35 4 5 6 29
1 34 4 5 6 29
1 33 4 5 6 29
1 32 4 5 6 29
1 30 4 5 6 29
1 2 4 5 6 29
1 2 4 5 6 7 23
1 2 4 6 7 23 28
1 2 4 6 7 8 28
1 31 4 5 6 29
1 31 4 5 6 23
1 31 4 5 6 13
1 31 4 6 22
1 4 6 7 22
1 35 4 6 22
1 31 4 6 26
1 4 6 7 26
1 35 4 6 26
1 30 4 6 11 14 15 28 29
1 32 4 6 11 14 15 28 29
1 33 4 6 11 14 15 28 29
1 34 4 6 11 14 15 28 29
1 35 4 6 11 14 15 28
1 35 4 6 11 14 15 26
1 35 4 6 11 14 15 22
1 34 4 6 7 11 14 15 28
1 33 4 6 7 11 14 15 28
1 32 4 6 7 11 14 15 28
1 30 4 6 7 11 14 15 28
1 31 4 6 11 14 15 16 17 21 22
1 35 4 6 11 14 15 16 17 21 22
1 31 4 6 11 14 15 16 17 21 26
1 35 4 6 11 14 15 16 17 21 26
1 35 4 6 11 14 15 16 19 22
1 35 4 6 11 14 15 16 19 26
1 35 4 6 11 14 15 20 22
1 35 4 6 11 14 15 20 26
1 4 6 10 16 24 28
1 35 4 5 6 10 24
1 34 4 6 10 24 26
1 34 4 6 10 22 24
1 34 4 5 6 10 24
1 33 4 6 10 24 26
1 33 4 6 10 22 24
1 33 4 5 6 10 24
1 32 4 6 10 24 26
1 32 4 6 10 22 24
1 32 4 5 6 10 24
1 30 4 6 10 24 26
1 30 4 6 10 22 24
1 30 4 5 6 10 24
1 4 6 10 16 24 26
1 4 6 10 16 22 24
1 4 6 10 15 24 27
1 30 4 6 10 11 14 15 28 29
1 32 4 6 10 11 14 15 28 29
1 33 4 6 10 11 14 15 28 29
1 34 4 6 10 11 14 15 28 29
1 35 4 6 10 11 14 15 28
1 35 4 6 10 11 14 15 26
1 35 4 6 10 11 14 15 22
1 35 4 5 6 9 10 11 13 14 15
1 34 4 5 6 7 9 10 11 13 14 15
1 34 4 6 7 10 11 14 15 28
1 33 4 5 6 7 9 10 11 13 14 15
1 33 4 6 7 10 11 14 15 28
1 32 4 5 6 7 9 10 11 13 14 15
1 32 4 6 7 10 11 14 15 28
1 30 4 5 6 7 9 10 11 13 14 15
1 30 4 6 7 10 11 14 15 28
1 31 4 6 10 11 14 15 16 17 21 22
1 35 4 6 10 11 14 15 16 17 21 22
1 31 4 6 10 11 14 15 16 17 21 26
1 35 4 6 10 11 14 15 16 17 21 26
1 35 4 6 10 11 14 15 16 19 22
1 35 4 6 10 11 14 15 16 19 26
1 35 4 6 10 11 14 15 20 22
1 35 4 6 10 11 14 15 20 26
1 4 6 10 15 24 25
 Analysis time: 3.686s