18/09/2021 20:27:37[DEBUG] pflow_file:  ../test_networks/20210918-201424_15/net.pflow  
18/09/2021 20:27:37[DEBUG] output_folder:  ../test_networks/20210918-201424_15/  
18/09/2021 20:27:37[DEBUG] html_path:  ../test_networks/20210918-201424_15/  
18/09/2021 20:27:37[DEBUG] txt_path:  ../test_networks/20210918-201424_15/txt_info  

--------------------------------------------------------------------------   
18/09/2021 20:27:37[INFO] Ejecutando petrinator para conocer estado de la red...   
--------------------------------------------------------------------------
   
18/09/2021 20:27:40[INFO] SIFONES   
+----+-----+-----------------------------------+
| ID | Nro |               Plazas              |
+----+-----+-----------------------------------+
| 0  |  12 | ['P2', 'P8', 'P11', 'P21', 'P22'] |
| 1  |  13 | ['P2', 'P8', 'P11', 'P19', 'P21'] |
+----+-----+-----------------------------------+ 

18/09/2021 20:27:40[INFO] T INVARIANTES   
+----+----+----+----+----+----+----+----+----+----+-----+-----+-----+-----+
| T0 | T1 | T2 | T3 | T4 | T5 | T6 | T7 | T8 | T9 | T10 | T11 | T12 | T13 |
+----+----+----+----+----+----+----+----+----+----+-----+-----+-----+-----+
| 1  | 1  | 1  | 0  | 0  | 0  | 0  | 0  | 0  | 0  |  0  |  0  |  0  |  0  |
| 0  | 0  | 0  | 1  | 1  | 1  | 1  | 1  | 0  | 0  |  0  |  0  |  1  |  1  |
| 0  | 0  | 0  | 0  | 0  | 0  | 0  | 0  | 1  | 1  |  1  |  1  |  1  |  1  |
+----+----+----+----+----+----+----+----+----+----+-----+-----+-----+-----+ 

18/09/2021 20:27:40[INFO] Supervisores para agregar   
+-----+---------+---------------+--------------+-----------------------------------+
|  ID | Marcado |  T - Entrada  |  T - Salida  |         Sifon a controlar         |
+-----+---------+---------------+--------------+-----------------------------------+
| P24 |    1    | ['T2', 'T10'] | ['T1', 'T9'] | ['P2', 'P8', 'P11', 'P21', 'P22'] |
| P24 |    1    | ['T2', 'T10'] | ['T1', 'T9'] | ['P2', 'P8', 'P11', 'P19', 'P21'] |
+-----+---------+---------------+--------------+-----------------------------------+ 

18/09/2021 20:27:40[INFO] Supervisores agregados   
+-----+-------+---------+-------------+------------+----------------+
| Nro | Plaza | Marcado | T - Entrada | T - Salida | MAL supervisor |
+-----+-------+---------+-------------+------------+----------------+
+-----+-------+---------+-------------+------------+----------------+ 

18/09/2021 20:27:40[INFO] Supervisores eliminados   
+-----+-------+---------+-------------+------------+----------------+
| Nro | Plaza | Marcado | T - Entrada | T - Salida | MAL supervisor |
+-----+-------+---------+-------------+------------+----------------+
+-----+-------+---------+-------------+------------+----------------+ 

18/09/2021 20:27:40[INFO] Ejecutando accion...   
18/09/2021 20:27:40[ACTION] Agrego supervisor con menor numero de arcos de salida (MNAS)   
18/09/2021 20:27:40[INFO] Supervisor con menor cantidad de arcos de salida agregado 1   

--------------------------------------------------------------------------   
18/09/2021 20:27:40[INFO] Ejecutando petrinator para conocer estado de la red...   
--------------------------------------------------------------------------
   
--------------------------------------------------------------------------
   
18/09/2021 20:27:44[INFO] Calculando recompensa..   
18/09/2021 20:27:44[REWARD] No hay mas deadlock, recompensa 100   

--------------------------------------------------------------------------
   
18/09/2021 20:27:44[STATE] Se llego al estado deseado, NO HAY MAS DEADLOCK   

--------------------------------------------------------------------------
   
+--------+---------+-------------------+----------------+---------+---------+------------------------+
| Plazas | Estados | Tokens trabajando | Sifones vacios | Sifones | Trampas | Supervisores agregados |
+--------+---------+-------------------+----------------+---------+---------+------------------------+
|   24   |   107   |        263        |       0        |    18   |    19   |           1            |
+--------+---------+-------------------+----------------+---------+---------+------------------------+ 
+------------------------------+------------+-----------------+--------------------+-----------------------+
|       Estados/Acciones       | + sup MNAS | + sup aleatorio | - sup MAL agregado | - ultimo sup agregado |
+------------------------------+------------+-----------------+--------------------+-----------------------+
|            Start             |   100.0    |       0.0       |        0.0         |          0.0          |
| + sifónes vacíos en deadlock |    0.0     |       0.0       |        0.0         |          0.0          |
| - sifónes vacíos en deadlock |    0.0     |       0.0       |        0.0         |          0.0          |
| = sifónes vacíos en deadlock |    0.0     |       0.0       |        0.0         |          0.0          |
|             End              |    0.0     |       0.0       |        0.0         |          0.0          |
+------------------------------+------------+-----------------+--------------------+-----------------------+ 

18/09/2021 20:27:44[INFO] Comienza proceso de eliminacion de supervisores redundantes   
18/09/2021 20:27:44[INFO] Supervisor a eliminar   
+-----+-------+---------+---------------+--------------+----------------+
| Nro | Plaza | Marcado |  T - Entrada  |  T - Salida  | MAL supervisor |
+-----+-------+---------+---------------+--------------+----------------+
|  1  |  P24  |    1    | ['T2', 'T10'] | ['T1', 'T9'] |     False      |
+-----+-------+---------+---------------+--------------+----------------+ 
18/09/2021 20:27:44[INFO] Eliminando supervisor ...   

--------------------------------------------------------------------------   
18/09/2021 20:27:44[INFO] Ejecutando petrinator para conocer estado de la red...   
--------------------------------------------------------------------------
   
18/09/2021 20:27:47[INFO] El supervisor eliminado no era redundante, volviendo a agregar supervisor   
18/09/2021 20:27:47[INFO] Se volvio a agregar correctamente el supervisor eliminado   

--------------------------------------------------------------------------   
18/09/2021 20:27:47[INFO] Ejecutando petrinator para conocer estado de la red...   
--------------------------------------------------------------------------
   
18/09/2021 20:27:51[INFO] Se eliminaron todos los supervisores redundantes   
+--------+---------+-------------------+----------------+---------+---------+------------------------+-------------------------+
| Plazas | Estados | Tokens trabajando | Sifones vacios | Sifones | Trampas | Supervisores agregados | Supervisores eliminados |
+--------+---------+-------------------+----------------+---------+---------+------------------------+-------------------------+
|   24   |   107   |        263        |       0        |    18   |    19   |           1            |            0            |
+--------+---------+-------------------+----------------+---------+---------+------------------------+-------------------------+ 
