 Minimal siphons 
3 9 15 19 20 29 30 31
2 9 15 19 27 30 31
19 22
18 20
17 21
1 8 26
8 11
7 10
7 8 9 12
1 7 15 28
1 5
13 14 15 16 17 18 19 23 24 25
2 8 27
2 7 15 19 30
1 2 5
1 2 5 7 10
1 2 7 15 28
2 8 15 19 26 30
1 2 8 26
1 32 2 8 11 13 14 23
1 33 2 8 11 13 14 23
1 2 5 8 11
1 2 5 7 8 10
1 33 2 7 8 13 14 23
1 32 2 7 8 13 14 23
1 2 8 15 26 28
1 2 8 11 15 28
1 2 7 8 15 28
1 32 2 7 8 13 14 15 23
1 33 2 7 8 13 14 15 23
1 43 2 7 8 13 14 15 16 17 18 23
1 42 2 7 8 13 14 15 16 17 18 23
1 41 2 7 8 13 14 15 16 17 18 23
1 40 2 7 8 13 14 15 16 17 18 23
1 39 2 7 8 13 14 15 16 17 18 23
1 38 2 7 8 13 14 15 16 17 18 23
1 37 2 7 8 13 14 15 16 17 18 23
1 36 2 7 8 13 14 15 16 17 18 23
1 35 2 7 8 13 14 15 16 17 18 23
1 34 2 7 8 13 14 15 16 17 18 23
1 32 2 8 11 13 14 15 23
1 33 2 8 11 13 14 15 23
1 32 2 8 13 14 15 23 26
1 33 2 8 13 14 15 23 26
2 9 14 31
2 8 9 27
1 2 8 9 26
1 2 5 8 9 11
1 2 5 7 8 9 12
1 2 5 7 8 9 10
32 2 8 9 13 14 23 27
33 2 8 9 13 14 23 27
1 33 2 8 9 13 14 23 26
1 33 2 8 9 11 13 14 23
1 33 2 7 8 9 13 14 23
1 32 2 8 9 13 14 23 26
1 32 2 8 9 11 13 14 23
1 32 2 7 8 9 13 14 23
2 9 15 27 28 31
2 9 15 26 28 31
2 9 11 15 28 31
2 7 9 15 28 31
2 9 14 15 31
32 2 7 9 14 15 23 31
33 2 7 9 14 15 23 31
2 7 9 12 14 15 31
2 7 9 10 14 15 31
1 33 2 7 8 9 13 14 15 23
1 32 2 7 8 9 13 14 15 23
1 2 7 8 9 15 28
2 9 11 14 15 31
1 32 2 8 9 11 13 14 15 23
1 33 2 8 9 11 13 14 15 23
1 2 8 9 11 15 28
2 9 14 15 26 31
1 32 2 8 9 13 14 15 23 26
1 33 2 8 9 13 14 15 23 26
1 2 8 9 15 26 28
2 9 14 15 27 31
32 2 8 9 13 14 15 23 27
33 2 8 9 13 14 15 23 27
2 8 9 15 27 28
2 9 15 19 26 30 31
2 9 11 15 19 30 31
3 8 15 19 20 29 30
1 2 3 4 6
1 2 3 5
1 2 3 4 5
1 2 3 4 6 7 10
1 2 3 5 7 10
1 2 3 4 5 7 10
1 2 3 7 15 28
2 3 8 27
1 2 3 8 26
1 32 2 3 8 11 13 14 23
1 33 2 3 8 11 13 14 23
1 2 3 4 6 8 11
1 2 3 5 8 11
1 2 3 5 7 8 10
1 2 3 4 5 8 11
1 2 3 4 5 7 8 10
1 2 3 4 6 7 8 10
1 33 2 3 7 8 13 14 23
1 32 2 3 7 8 13 14 23
3 8 15 17 29
2 3 9 14 31
2 3 8 9 27
1 2 3 8 9 26
1 2 3 4 6 8 9 11
1 2 3 5 8 9 11
1 2 3 5 7 8 9 12
1 2 3 5 7 8 9 10
1 2 3 4 5 8 9 11
1 2 3 4 5 7 8 9 12
1 2 3 4 5 7 8 9 10
1 2 3 4 6 7 8 9 12
1 2 3 4 6 7 8 9 10
32 2 3 8 9 13 14 23 27
33 2 3 8 9 13 14 23 27
1 33 2 3 8 9 13 14 23 26
1 33 2 3 8 9 11 13 14 23
1 33 2 3 7 8 9 13 14 23
1 32 2 3 8 9 13 14 23 26
1 32 2 3 8 9 11 13 14 23
1 32 2 3 7 8 9 13 14 23
3 9 15 17 29 31
 Minimal traps 
1 7 14 17 28 29 31
2 7 14 17 20 29 30 31
7 10
3 8 15 17 29
17 21
18 20
19 22
8 11
13 14 15 16 17 18 19 23 24 25
7 8 11
7 8 9 12
2 8 14 17 29 31
2 9 14 31
2 8 27
2 8 14 27 31
2 8 11 14 31
2 8 9 14 31
2 7 15 17 20 29 30
2 7 10 27
2 7 8 27
2 7 15 19 30
2 7 14 19 27 30 31
2 7 11 14 19 30 31
2 7 14 17 19 29 30 31
1 8 26
1 5
1 2 9 14 31
1 2 3 4 6
1 2 3 4 6 8 11
1 2 8 14 27 31
1 2 8 11 14 31
1 2 8 9 14 31
1 5 8 11
1 3 4 5 6 8 11
1 5 8 14 27 31
1 5 8 11 14 31
1 5 8 9 14 31
1 7 15 28
1 7 10 26
1 7 8 26
1 5 7 8 27
1 2 7 8 27
1 2 3 4 6 7 8 11
1 2 3 4 6 7 8 9 12
1 5 7 8 11
1 5 7 8 9 12
1 5 7 10
1 2 7 10 27
1 2 3 4 6 7 10
1 7 15 17 20 26 29 30
1 7 15 19 26 30
1 32 7 13 14 23 28
1 33 7 13 14 23 28
1 7 14 27 28 31
1 7 14 19 26 30 31
1 7 14 26 28 31
1 7 11 14 28 31
1 7 9 14 28 31
1 7 14 15 19 26 30
1 7 14 15 18 19 26 30
1 7 14 15 27 28
1 33 7 13 14 19 23 26 30
1 34 33 7 13 14 23 26 30
1 35 33 7 13 14 23 26 30
1 36 33 7 13 14 23 26 30
1 37 33 7 13 14 23 26 30
1 38 33 7 13 14 23 26 30
1 39 33 7 13 14 23 26 30
1 40 33 7 13 14 23 26 30
1 41 33 7 13 14 23 26 30
1 42 33 7 13 14 23 26 30
1 43 33 7 13 14 23 26 30
1 33 2 7 8 13 14 23
1 43 33 2 7 13 14 23 30
1 42 33 2 7 13 14 23 30
1 41 33 2 7 13 14 23 30
1 40 33 2 7 13 14 23 30
1 39 33 2 7 13 14 23 30
1 38 33 2 7 13 14 23 30
1 37 33 2 7 13 14 23 30
1 36 33 2 7 13 14 23 30
1 35 33 2 7 13 14 23 30
1 34 33 2 7 13 14 23 30
1 33 2 7 13 14 19 23 30
1 32 7 13 14 19 23 26 30
1 34 32 7 13 14 23 26 30
1 35 32 7 13 14 23 26 30
1 36 32 7 13 14 23 26 30
1 37 32 7 13 14 23 26 30
1 38 32 7 13 14 23 26 30
1 39 32 7 13 14 23 26 30
1 40 32 7 13 14 23 26 30
1 41 32 7 13 14 23 26 30
1 42 32 7 13 14 23 26 30
1 43 32 7 13 14 23 26 30
1 32 2 7 8 13 14 23
1 43 32 2 7 13 14 23 30
1 42 32 2 7 13 14 23 30
1 41 32 2 7 13 14 23 30
1 40 32 2 7 13 14 23 30
1 39 32 2 7 13 14 23 30
1 38 32 2 7 13 14 23 30
1 37 32 2 7 13 14 23 30
1 36 32 2 7 13 14 23 30
1 35 32 2 7 13 14 23 30
1 34 32 2 7 13 14 23 30
1 32 2 7 13 14 19 23 30
1 7 14 17 20 26 29 30 31
1 34 7 13 14 16 17 23 26 29 30 31
1 35 7 13 14 16 17 23 26 29 30 31
1 36 7 13 14 16 17 23 26 29 30 31
1 37 7 13 14 16 17 23 26 29 30 31
1 38 7 13 14 16 17 23 26 29 30 31
1 39 7 13 14 16 17 23 26 29 30 31
1 40 7 13 14 16 17 23 26 29 30 31
1 41 7 13 14 16 17 23 26 29 30 31
1 42 7 13 14 16 17 23 26 29 30 31
1 43 7 13 14 16 17 23 26 29 30 31
1 43 2 7 13 14 16 17 23 29 30 31
1 43 2 7 13 14 16 17 18 23 30 31
1 43 2 7 8 13 14 16 17 18 23 31
1 43 2 7 8 13 14 15 16 17 18 23
1 43 2 7 13 14 15 16 17 18 23 30
1 43 2 7 8 13 14 15 16 17 23 29
1 43 2 7 13 14 15 16 17 23 29 30
1 43 7 13 14 16 17 18 23 26 30 31
1 43 7 13 14 15 16 17 18 23 26 30
1 43 7 13 14 15 16 17 23 26 29 30
1 42 2 7 13 14 16 17 23 29 30 31
1 42 2 7 13 14 16 17 18 23 30 31
1 42 2 7 8 13 14 16 17 18 23 31
1 42 2 7 8 13 14 15 16 17 18 23
1 42 2 7 13 14 15 16 17 18 23 30
1 42 2 7 8 13 14 15 16 17 23 29
1 42 2 7 13 14 15 16 17 23 29 30
1 42 7 13 14 16 17 18 23 26 30 31
1 42 7 13 14 15 16 17 18 23 26 30
1 42 7 13 14 15 16 17 23 26 29 30
1 41 2 7 13 14 16 17 23 29 30 31
1 41 2 7 13 14 16 17 18 23 30 31
1 41 2 7 8 13 14 16 17 18 23 31
1 41 2 7 8 13 14 15 16 17 18 23
1 41 2 7 13 14 15 16 17 18 23 30
1 41 2 7 8 13 14 15 16 17 23 29
1 41 2 7 13 14 15 16 17 23 29 30
1 41 7 13 14 16 17 18 23 26 30 31
1 41 7 13 14 15 16 17 18 23 26 30
1 41 7 13 14 15 16 17 23 26 29 30
1 40 2 7 13 14 16 17 23 29 30 31
1 40 2 7 13 14 16 17 18 23 30 31
1 40 2 7 8 13 14 16 17 18 23 31
1 40 2 7 8 13 14 15 16 17 18 23
1 40 2 7 13 14 15 16 17 18 23 30
1 40 2 7 8 13 14 15 16 17 23 29
1 40 2 7 13 14 15 16 17 23 29 30
1 40 7 13 14 16 17 18 23 26 30 31
1 40 7 13 14 15 16 17 18 23 26 30
1 40 7 13 14 15 16 17 23 26 29 30
1 39 2 7 13 14 16 17 23 29 30 31
1 39 2 7 13 14 16 17 18 23 30 31
1 39 2 7 8 13 14 16 17 18 23 31
1 39 2 7 8 13 14 15 16 17 18 23
1 39 2 7 13 14 15 16 17 18 23 30
1 39 2 7 8 13 14 15 16 17 23 29
1 39 2 7 13 14 15 16 17 23 29 30
1 39 7 13 14 16 17 18 23 26 30 31
1 39 7 13 14 15 16 17 18 23 26 30
1 39 7 13 14 15 16 17 23 26 29 30
1 38 2 7 13 14 16 17 23 29 30 31
1 38 2 7 13 14 16 17 18 23 30 31
1 38 2 7 8 13 14 16 17 18 23 31
1 38 2 7 8 13 14 15 16 17 18 23
1 38 2 7 13 14 15 16 17 18 23 30
1 38 2 7 8 13 14 15 16 17 23 29
1 38 2 7 13 14 15 16 17 23 29 30
1 38 7 13 14 16 17 18 23 26 30 31
1 38 7 13 14 15 16 17 18 23 26 30
1 38 7 13 14 15 16 17 23 26 29 30
1 37 2 7 13 14 16 17 23 29 30 31
1 37 2 7 13 14 16 17 18 23 30 31
1 37 2 7 8 13 14 16 17 18 23 31
1 37 2 7 8 13 14 15 16 17 18 23
1 37 2 7 13 14 15 16 17 18 23 30
1 37 2 7 8 13 14 15 16 17 23 29
1 37 2 7 13 14 15 16 17 23 29 30
1 37 7 13 14 16 17 18 23 26 30 31
1 37 7 13 14 15 16 17 18 23 26 30
1 37 7 13 14 15 16 17 23 26 29 30
1 36 2 7 13 14 16 17 23 29 30 31
1 36 2 7 13 14 16 17 18 23 30 31
1 36 2 7 8 13 14 16 17 18 23 31
1 36 2 7 8 13 14 15 16 17 18 23
1 36 2 7 13 14 15 16 17 18 23 30
1 36 2 7 8 13 14 15 16 17 23 29
1 36 2 7 13 14 15 16 17 23 29 30
1 36 7 13 14 16 17 18 23 26 30 31
1 36 7 13 14 15 16 17 18 23 26 30
1 36 7 13 14 15 16 17 23 26 29 30
1 35 2 7 13 14 16 17 23 29 30 31
1 35 2 7 13 14 16 17 18 23 30 31
1 35 2 7 8 13 14 16 17 18 23 31
1 35 2 7 8 13 14 15 16 17 18 23
1 35 2 7 13 14 15 16 17 18 23 30
1 35 2 7 8 13 14 15 16 17 23 29
1 35 2 7 13 14 15 16 17 23 29 30
1 35 7 13 14 16 17 18 23 26 30 31
1 35 7 13 14 15 16 17 18 23 26 30
1 35 7 13 14 15 16 17 23 26 29 30
1 34 2 7 13 14 16 17 23 29 30 31
1 34 2 7 13 14 16 17 18 23 30 31
1 34 2 7 8 13 14 16 17 18 23 31
1 34 2 7 8 13 14 15 16 17 18 23
1 34 2 7 13 14 15 16 17 18 23 30
1 34 2 7 8 13 14 15 16 17 23 29
1 34 2 7 13 14 15 16 17 23 29 30
1 34 7 13 14 16 17 18 23 26 30 31
1 34 7 13 14 15 16 17 18 23 26 30
1 34 7 13 14 15 16 17 23 26 29 30
1 33 2 7 8 13 14 17 18 19 22 23
1 32 2 7 8 13 14 17 18 19 22 23
1 2 7 8 9 13 14 16 17 18 19 22 23 31
1 2 7 8 11 13 14 16 17 18 19 22 23 31
1 32 2 7 13 14 17 20 23 29 30
1 33 2 7 13 14 17 20 23 29 30
1 32 7 13 14 17 20 23 26 29 30
1 33 7 13 14 17 20 23 26 29 30
1 34 7 13 14 16 17 18 23 28 31
1 35 7 13 14 16 17 18 23 28 31
1 36 7 13 14 16 17 18 23 28 31
1 37 7 13 14 16 17 18 23 28 31
1 38 7 13 14 16 17 18 23 28 31
1 39 7 13 14 16 17 18 23 28 31
1 40 7 13 14 16 17 18 23 28 31
1 41 7 13 14 16 17 18 23 28 31
1 42 7 13 14 16 17 18 23 28 31
1 43 7 13 14 16 17 18 23 28 31
 Analysis time: 18.429s