21/06/2021 17:50:46[DEBUG] pflow_file:  ../analisis_4_21062021/gen_nets/20210621-134757_6/net.pflow  
21/06/2021 17:50:46[DEBUG] output_folder:  ../analisis_4_21062021/gen_nets/20210621-134757_6/  
21/06/2021 17:50:46[DEBUG] html_path:  ../analisis_4_21062021/gen_nets/20210621-134757_6/  
21/06/2021 17:50:46[DEBUG] txt_path:  ../analisis_4_21062021/gen_nets/20210621-134757_6/txt_info  

--------------------------------------------------------------------------   
21/06/2021 17:50:46[INFO] Ejecutando petrinator para conocer estado de la red...   
--------------------------------------------------------------------------
   
21/06/2021 17:50:49[ERROR] La red ingresada no tiene deadlock, cerrando analisis 
  
