 Minimal siphons 
2 6 11 13 19 21 22
1 6 10 13 22
13 14
12 15
6 7
4 8
4 5 6 9
10 11 12 13 16 17 18
1 25 4 10 12 16
1 5 10 12 19
1 23 4 5 10 12 16
1 24 4 5 10 12 16
1 6 20
1 2 3
1 2 3 4 8
2 4 11 12 21
1 2 3 4 5 8
2 5 11 12 19 21
1 2 6 20
1 2 3 6 7
1 2 3 4 5 6 9
1 2 3 4 5 6 8
2 6 11 12 19 20 21
2 4 6 11 13 21 22
1 24 2 4 6 10 11 12 13 16 20
1 23 2 4 6 10 11 12 13 16 20
 Minimal traps 
1 4 10 12 19 21
2 4 11 12 21
12 15
13 14
4 8
6 7
4 5 6 9
10 11 12 13 16 17 18
1 5 10 12 19
1 2 3
1 6 20
1 2 3 6 7
1 6 10 13 22
1 5 6 20
1 2 3 5 6 7
1 2 3 4 8
1 4 6 8 20
1 4 5 6 20
1 2 3 4 5 6 9
1 2 3 4 5 6 7
1 2 3 4 6 8 9
1 2 3 4 6 7 8
1 4 6 10 12 21 22
1 23 4 10 12 16 21
1 24 4 10 12 16 21
1 25 4 10 12 16
1 24 4 5 10 12 16
1 23 4 5 10 12 16
 Analysis time: 0.447s