 p 25 
 t 15 
 Reachable states from S0 [0, 0, 3, 0, 0, 0, 1, 1, 1, 0, 0, 0, 0, 1, 1, 0, 0, 3, 1, 1, 1, 1, 2, 2, 1] 
 T1 => S1 [1, 0, 2, 0, 0, 0, 1, 1, 1, 0, 0, 0, 0, 1, 1, 0, 0, 3, 0, 0, 1, 0, 1, 1, 0] 
 T14 => S5 [0, 0, 3, 0, 0, 0, 1, 1, 1, 0, 0, 0, 0, 1, 1, 1, 0, 2, 1, 1, 1, 1, 1, 1, 0] 
 T4 => S76 [0, 0, 3, 1, 0, 0, 1, 0, 0, 0, 0, 0, 0, 1, 1, 0, 0, 3, 1, 1, 0, 1, 1, 1, 0] 
 
 Reachable states from S1 [1, 0, 2, 0, 0, 0, 1, 1, 1, 0, 0, 0, 0, 1, 1, 0, 0, 3, 0, 0, 1, 0, 1, 1, 0] 
 T2 => S2 [0, 1, 2, 0, 0, 0, 1, 1, 1, 0, 0, 0, 0, 1, 1, 0, 0, 3, 1, 1, 0, 1, 2, 2, 1] 
 
 Reachable states from S2 [0, 1, 2, 0, 0, 0, 1, 1, 1, 0, 0, 0, 0, 1, 1, 0, 0, 3, 1, 1, 0, 1, 2, 2, 1] 
 T3 => S0 [0, 0, 3, 0, 0, 0, 1, 1, 1, 0, 0, 0, 0, 1, 1, 0, 0, 3, 1, 1, 1, 1, 2, 2, 1] 
 T1 => S3 [1, 1, 1, 0, 0, 0, 1, 1, 1, 0, 0, 0, 0, 1, 1, 0, 0, 3, 0, 0, 0, 0, 1, 1, 0] 
 T14 => S4 [0, 1, 2, 0, 0, 0, 1, 1, 1, 0, 0, 0, 0, 1, 1, 1, 0, 2, 1, 1, 0, 1, 1, 1, 0] 
 
 Reachable states from S3 [1, 1, 1, 0, 0, 0, 1, 1, 1, 0, 0, 0, 0, 1, 1, 0, 0, 3, 0, 0, 0, 0, 1, 1, 0] 
 T3 => S1 [1, 0, 2, 0, 0, 0, 1, 1, 1, 0, 0, 0, 0, 1, 1, 0, 0, 3, 0, 0, 1, 0, 1, 1, 0] 
 
 Reachable states from S4 [0, 1, 2, 0, 0, 0, 1, 1, 1, 0, 0, 0, 0, 1, 1, 1, 0, 2, 1, 1, 0, 1, 1, 1, 0] 
 T3 => S5 [0, 0, 3, 0, 0, 0, 1, 1, 1, 0, 0, 0, 0, 1, 1, 1, 0, 2, 1, 1, 1, 1, 1, 1, 0] 
 T8 => S68 [0, 1, 2, 0, 0, 0, 1, 1, 1, 1, 0, 0, 0, 1, 1, 0, 0, 2, 0, 1, 0, 0, 1, 1, 0] 
 
 Reachable states from S5 [0, 0, 3, 0, 0, 0, 1, 1, 1, 0, 0, 0, 0, 1, 1, 1, 0, 2, 1, 1, 1, 1, 1, 1, 0] 
 T8 => S6 [0, 0, 3, 0, 0, 0, 1, 1, 1, 1, 0, 0, 0, 1, 1, 0, 0, 2, 0, 1, 1, 0, 1, 1, 0] 
 T11 => S51 [0, 0, 3, 0, 0, 0, 1, 1, 1, 0, 0, 1, 0, 1, 0, 0, 0, 2, 0, 1, 0, 1, 1, 1, 0] 
 
 Reachable states from S6 [0, 0, 3, 0, 0, 0, 1, 1, 1, 1, 0, 0, 0, 1, 1, 0, 0, 2, 0, 1, 1, 0, 1, 1, 0] 
 T9 => S7 [0, 0, 3, 0, 0, 0, 1, 1, 1, 0, 1, 0, 0, 1, 1, 0, 0, 2, 1, 1, 0, 1, 2, 2, 1] 
 
 Reachable states from S7 [0, 0, 3, 0, 0, 0, 1, 1, 1, 0, 1, 0, 0, 1, 1, 0, 0, 2, 1, 1, 0, 1, 2, 2, 1] 
 T1 => S8 [1, 0, 2, 0, 0, 0, 1, 1, 1, 0, 1, 0, 0, 1, 1, 0, 0, 2, 0, 0, 0, 0, 1, 1, 0] 
 T10 => S12 [0, 0, 3, 0, 0, 0, 1, 1, 1, 0, 0, 0, 0, 1, 1, 0, 1, 2, 1, 1, 1, 1, 2, 2, 1] 
 T14 => S73 [0, 0, 3, 0, 0, 0, 1, 1, 1, 0, 1, 0, 0, 1, 1, 1, 0, 1, 1, 1, 0, 1, 1, 1, 0] 
 
 Reachable states from S8 [1, 0, 2, 0, 0, 0, 1, 1, 1, 0, 1, 0, 0, 1, 1, 0, 0, 2, 0, 0, 0, 0, 1, 1, 0] 
 T10 => S9 [1, 0, 2, 0, 0, 0, 1, 1, 1, 0, 0, 0, 0, 1, 1, 0, 1, 2, 0, 0, 1, 0, 1, 1, 0] 
 
 Reachable states from S9 [1, 0, 2, 0, 0, 0, 1, 1, 1, 0, 0, 0, 0, 1, 1, 0, 1, 2, 0, 0, 1, 0, 1, 1, 0] 
 T15 => S1 [1, 0, 2, 0, 0, 0, 1, 1, 1, 0, 0, 0, 0, 1, 1, 0, 0, 3, 0, 0, 1, 0, 1, 1, 0] 
 T2 => S10 [0, 1, 2, 0, 0, 0, 1, 1, 1, 0, 0, 0, 0, 1, 1, 0, 1, 2, 1, 1, 0, 1, 2, 2, 1] 
 
 Reachable states from S10 [0, 1, 2, 0, 0, 0, 1, 1, 1, 0, 0, 0, 0, 1, 1, 0, 1, 2, 1, 1, 0, 1, 2, 2, 1] 
 T15 => S2 [0, 1, 2, 0, 0, 0, 1, 1, 1, 0, 0, 0, 0, 1, 1, 0, 0, 3, 1, 1, 0, 1, 2, 2, 1] 
 T1 => S11 [1, 1, 1, 0, 0, 0, 1, 1, 1, 0, 0, 0, 0, 1, 1, 0, 1, 2, 0, 0, 0, 0, 1, 1, 0] 
 T3 => S12 [0, 0, 3, 0, 0, 0, 1, 1, 1, 0, 0, 0, 0, 1, 1, 0, 1, 2, 1, 1, 1, 1, 2, 2, 1] 
 T14 => S69 [0, 1, 2, 0, 0, 0, 1, 1, 1, 0, 0, 0, 0, 1, 1, 1, 1, 1, 1, 1, 0, 1, 1, 1, 0] 
 
 Reachable states from S11 [1, 1, 1, 0, 0, 0, 1, 1, 1, 0, 0, 0, 0, 1, 1, 0, 1, 2, 0, 0, 0, 0, 1, 1, 0] 
 T15 => S3 [1, 1, 1, 0, 0, 0, 1, 1, 1, 0, 0, 0, 0, 1, 1, 0, 0, 3, 0, 0, 0, 0, 1, 1, 0] 
 T3 => S9 [1, 0, 2, 0, 0, 0, 1, 1, 1, 0, 0, 0, 0, 1, 1, 0, 1, 2, 0, 0, 1, 0, 1, 1, 0] 
 
 Reachable states from S12 [0, 0, 3, 0, 0, 0, 1, 1, 1, 0, 0, 0, 0, 1, 1, 0, 1, 2, 1, 1, 1, 1, 2, 2, 1] 
 T15 => S0 [0, 0, 3, 0, 0, 0, 1, 1, 1, 0, 0, 0, 0, 1, 1, 0, 0, 3, 1, 1, 1, 1, 2, 2, 1] 
 T1 => S9 [1, 0, 2, 0, 0, 0, 1, 1, 1, 0, 0, 0, 0, 1, 1, 0, 1, 2, 0, 0, 1, 0, 1, 1, 0] 
 T4 => S13 [0, 0, 3, 1, 0, 0, 1, 0, 0, 0, 0, 0, 0, 1, 1, 0, 1, 2, 1, 1, 0, 1, 1, 1, 0] 
 T14 => S17 [0, 0, 3, 0, 0, 0, 1, 1, 1, 0, 0, 0, 0, 1, 1, 1, 1, 1, 1, 1, 1, 1, 1, 1, 0] 
 
 Reachable states from S13 [0, 0, 3, 1, 0, 0, 1, 0, 0, 0, 0, 0, 0, 1, 1, 0, 1, 2, 1, 1, 0, 1, 1, 1, 0] 
 T5 => S14 [0, 0, 3, 0, 1, 0, 1, 1, 0, 0, 0, 0, 0, 1, 1, 0, 1, 2, 0, 1, 1, 1, 1, 1, 1] 
 T15 => S76 [0, 0, 3, 1, 0, 0, 1, 0, 0, 0, 0, 0, 0, 1, 1, 0, 0, 3, 1, 1, 0, 1, 1, 1, 0] 
 
 Reachable states from S14 [0, 0, 3, 0, 1, 0, 1, 1, 0, 0, 0, 0, 0, 1, 1, 0, 1, 2, 0, 1, 1, 1, 1, 1, 1] 
 T6 => S15 [0, 0, 3, 0, 0, 1, 0, 1, 0, 0, 0, 0, 0, 1, 1, 0, 1, 2, 1, 0, 1, 0, 2, 2, 1] 
 T14 => S47 [0, 0, 3, 0, 1, 0, 1, 1, 0, 0, 0, 0, 0, 1, 1, 1, 1, 1, 0, 1, 1, 1, 0, 0, 0] 
 T15 => S75 [0, 0, 3, 0, 1, 0, 1, 1, 0, 0, 0, 0, 0, 1, 1, 0, 0, 3, 0, 1, 1, 1, 1, 1, 1] 
 
 Reachable states from S15 [0, 0, 3, 0, 0, 1, 0, 1, 0, 0, 0, 0, 0, 1, 1, 0, 1, 2, 1, 0, 1, 0, 2, 2, 1] 
 T7 => S12 [0, 0, 3, 0, 0, 0, 1, 1, 1, 0, 0, 0, 0, 1, 1, 0, 1, 2, 1, 1, 1, 1, 2, 2, 1] 
 T14 => S16 [0, 0, 3, 0, 0, 1, 0, 1, 0, 0, 0, 0, 0, 1, 1, 1, 1, 1, 1, 0, 1, 0, 1, 1, 0] 
 T15 => S74 [0, 0, 3, 0, 0, 1, 0, 1, 0, 0, 0, 0, 0, 1, 1, 0, 0, 3, 1, 0, 1, 0, 2, 2, 1] 
 
 Reachable states from S16 [0, 0, 3, 0, 0, 1, 0, 1, 0, 0, 0, 0, 0, 1, 1, 1, 1, 1, 1, 0, 1, 0, 1, 1, 0] 
 T7 => S17 [0, 0, 3, 0, 0, 0, 1, 1, 1, 0, 0, 0, 0, 1, 1, 1, 1, 1, 1, 1, 1, 1, 1, 1, 0] 
 T15 => S49 [0, 0, 3, 0, 0, 1, 0, 1, 0, 0, 0, 0, 0, 1, 1, 1, 0, 2, 1, 0, 1, 0, 1, 1, 0] 
 T11 => S64 [0, 0, 3, 0, 0, 1, 0, 1, 0, 0, 0, 1, 0, 1, 0, 0, 1, 1, 0, 0, 0, 0, 1, 1, 0] 
 
 Reachable states from S17 [0, 0, 3, 0, 0, 0, 1, 1, 1, 0, 0, 0, 0, 1, 1, 1, 1, 1, 1, 1, 1, 1, 1, 1, 0] 
 T15 => S5 [0, 0, 3, 0, 0, 0, 1, 1, 1, 0, 0, 0, 0, 1, 1, 1, 0, 2, 1, 1, 1, 1, 1, 1, 0] 
 T8 => S18 [0, 0, 3, 0, 0, 0, 1, 1, 1, 1, 0, 0, 0, 1, 1, 0, 1, 1, 0, 1, 1, 0, 1, 1, 0] 
 T11 => S58 [0, 0, 3, 0, 0, 0, 1, 1, 1, 0, 0, 1, 0, 1, 0, 0, 1, 1, 0, 1, 0, 1, 1, 1, 0] 
 
 Reachable states from S18 [0, 0, 3, 0, 0, 0, 1, 1, 1, 1, 0, 0, 0, 1, 1, 0, 1, 1, 0, 1, 1, 0, 1, 1, 0] 
 T15 => S6 [0, 0, 3, 0, 0, 0, 1, 1, 1, 1, 0, 0, 0, 1, 1, 0, 0, 2, 0, 1, 1, 0, 1, 1, 0] 
 T9 => S19 [0, 0, 3, 0, 0, 0, 1, 1, 1, 0, 1, 0, 0, 1, 1, 0, 1, 1, 1, 1, 0, 1, 2, 2, 1] 
 
 Reachable states from S19 [0, 0, 3, 0, 0, 0, 1, 1, 1, 0, 1, 0, 0, 1, 1, 0, 1, 1, 1, 1, 0, 1, 2, 2, 1] 
 T15 => S7 [0, 0, 3, 0, 0, 0, 1, 1, 1, 0, 1, 0, 0, 1, 1, 0, 0, 2, 1, 1, 0, 1, 2, 2, 1] 
 T1 => S20 [1, 0, 2, 0, 0, 0, 1, 1, 1, 0, 1, 0, 0, 1, 1, 0, 1, 1, 0, 0, 0, 0, 1, 1, 0] 
 T10 => S24 [0, 0, 3, 0, 0, 0, 1, 1, 1, 0, 0, 0, 0, 1, 1, 0, 2, 1, 1, 1, 1, 1, 2, 2, 1] 
 T14 => S70 [0, 0, 3, 0, 0, 0, 1, 1, 1, 0, 1, 0, 0, 1, 1, 1, 1, 0, 1, 1, 0, 1, 1, 1, 0] 
 
 Reachable states from S20 [1, 0, 2, 0, 0, 0, 1, 1, 1, 0, 1, 0, 0, 1, 1, 0, 1, 1, 0, 0, 0, 0, 1, 1, 0] 
 T15 => S8 [1, 0, 2, 0, 0, 0, 1, 1, 1, 0, 1, 0, 0, 1, 1, 0, 0, 2, 0, 0, 0, 0, 1, 1, 0] 
 T10 => S21 [1, 0, 2, 0, 0, 0, 1, 1, 1, 0, 0, 0, 0, 1, 1, 0, 2, 1, 0, 0, 1, 0, 1, 1, 0] 
 
 Reachable states from S21 [1, 0, 2, 0, 0, 0, 1, 1, 1, 0, 0, 0, 0, 1, 1, 0, 2, 1, 0, 0, 1, 0, 1, 1, 0] 
 T15 => S9 [1, 0, 2, 0, 0, 0, 1, 1, 1, 0, 0, 0, 0, 1, 1, 0, 1, 2, 0, 0, 1, 0, 1, 1, 0] 
 T2 => S22 [0, 1, 2, 0, 0, 0, 1, 1, 1, 0, 0, 0, 0, 1, 1, 0, 2, 1, 1, 1, 0, 1, 2, 2, 1] 
 
 Reachable states from S22 [0, 1, 2, 0, 0, 0, 1, 1, 1, 0, 0, 0, 0, 1, 1, 0, 2, 1, 1, 1, 0, 1, 2, 2, 1] 
 T15 => S10 [0, 1, 2, 0, 0, 0, 1, 1, 1, 0, 0, 0, 0, 1, 1, 0, 1, 2, 1, 1, 0, 1, 2, 2, 1] 
 T1 => S23 [1, 1, 1, 0, 0, 0, 1, 1, 1, 0, 0, 0, 0, 1, 1, 0, 2, 1, 0, 0, 0, 0, 1, 1, 0] 
 T3 => S24 [0, 0, 3, 0, 0, 0, 1, 1, 1, 0, 0, 0, 0, 1, 1, 0, 2, 1, 1, 1, 1, 1, 2, 2, 1] 
 T14 => S65 [0, 1, 2, 0, 0, 0, 1, 1, 1, 0, 0, 0, 0, 1, 1, 1, 2, 0, 1, 1, 0, 1, 1, 1, 0] 
 
 Reachable states from S23 [1, 1, 1, 0, 0, 0, 1, 1, 1, 0, 0, 0, 0, 1, 1, 0, 2, 1, 0, 0, 0, 0, 1, 1, 0] 
 T15 => S11 [1, 1, 1, 0, 0, 0, 1, 1, 1, 0, 0, 0, 0, 1, 1, 0, 1, 2, 0, 0, 0, 0, 1, 1, 0] 
 T3 => S21 [1, 0, 2, 0, 0, 0, 1, 1, 1, 0, 0, 0, 0, 1, 1, 0, 2, 1, 0, 0, 1, 0, 1, 1, 0] 
 
 Reachable states from S24 [0, 0, 3, 0, 0, 0, 1, 1, 1, 0, 0, 0, 0, 1, 1, 0, 2, 1, 1, 1, 1, 1, 2, 2, 1] 
 T15 => S12 [0, 0, 3, 0, 0, 0, 1, 1, 1, 0, 0, 0, 0, 1, 1, 0, 1, 2, 1, 1, 1, 1, 2, 2, 1] 
 T1 => S21 [1, 0, 2, 0, 0, 0, 1, 1, 1, 0, 0, 0, 0, 1, 1, 0, 2, 1, 0, 0, 1, 0, 1, 1, 0] 
 T4 => S25 [0, 0, 3, 1, 0, 0, 1, 0, 0, 0, 0, 0, 0, 1, 1, 0, 2, 1, 1, 1, 0, 1, 1, 1, 0] 
 T14 => S29 [0, 0, 3, 0, 0, 0, 1, 1, 1, 0, 0, 0, 0, 1, 1, 1, 2, 0, 1, 1, 1, 1, 1, 1, 0] 
 
 Reachable states from S25 [0, 0, 3, 1, 0, 0, 1, 0, 0, 0, 0, 0, 0, 1, 1, 0, 2, 1, 1, 1, 0, 1, 1, 1, 0] 
 T15 => S13 [0, 0, 3, 1, 0, 0, 1, 0, 0, 0, 0, 0, 0, 1, 1, 0, 1, 2, 1, 1, 0, 1, 1, 1, 0] 
 T5 => S26 [0, 0, 3, 0, 1, 0, 1, 1, 0, 0, 0, 0, 0, 1, 1, 0, 2, 1, 0, 1, 1, 1, 1, 1, 1] 
 
 Reachable states from S26 [0, 0, 3, 0, 1, 0, 1, 1, 0, 0, 0, 0, 0, 1, 1, 0, 2, 1, 0, 1, 1, 1, 1, 1, 1] 
 T15 => S14 [0, 0, 3, 0, 1, 0, 1, 1, 0, 0, 0, 0, 0, 1, 1, 0, 1, 2, 0, 1, 1, 1, 1, 1, 1] 
 T6 => S27 [0, 0, 3, 0, 0, 1, 0, 1, 0, 0, 0, 0, 0, 1, 1, 0, 2, 1, 1, 0, 1, 0, 2, 2, 1] 
 T14 => S46 [0, 0, 3, 0, 1, 0, 1, 1, 0, 0, 0, 0, 0, 1, 1, 1, 2, 0, 0, 1, 1, 1, 0, 0, 0] 
 
 Reachable states from S27 [0, 0, 3, 0, 0, 1, 0, 1, 0, 0, 0, 0, 0, 1, 1, 0, 2, 1, 1, 0, 1, 0, 2, 2, 1] 
 T15 => S15 [0, 0, 3, 0, 0, 1, 0, 1, 0, 0, 0, 0, 0, 1, 1, 0, 1, 2, 1, 0, 1, 0, 2, 2, 1] 
 T7 => S24 [0, 0, 3, 0, 0, 0, 1, 1, 1, 0, 0, 0, 0, 1, 1, 0, 2, 1, 1, 1, 1, 1, 2, 2, 1] 
 T14 => S28 [0, 0, 3, 0, 0, 1, 0, 1, 0, 0, 0, 0, 0, 1, 1, 1, 2, 0, 1, 0, 1, 0, 1, 1, 0] 
 
 Reachable states from S28 [0, 0, 3, 0, 0, 1, 0, 1, 0, 0, 0, 0, 0, 1, 1, 1, 2, 0, 1, 0, 1, 0, 1, 1, 0] 
 T15 => S16 [0, 0, 3, 0, 0, 1, 0, 1, 0, 0, 0, 0, 0, 1, 1, 1, 1, 1, 1, 0, 1, 0, 1, 1, 0] 
 T7 => S29 [0, 0, 3, 0, 0, 0, 1, 1, 1, 0, 0, 0, 0, 1, 1, 1, 2, 0, 1, 1, 1, 1, 1, 1, 0] 
 T11 => S63 [0, 0, 3, 0, 0, 1, 0, 1, 0, 0, 0, 1, 0, 1, 0, 0, 2, 0, 0, 0, 0, 0, 1, 1, 0] 
 
 Reachable states from S29 [0, 0, 3, 0, 0, 0, 1, 1, 1, 0, 0, 0, 0, 1, 1, 1, 2, 0, 1, 1, 1, 1, 1, 1, 0] 
 T15 => S17 [0, 0, 3, 0, 0, 0, 1, 1, 1, 0, 0, 0, 0, 1, 1, 1, 1, 1, 1, 1, 1, 1, 1, 1, 0] 
 T8 => S30 [0, 0, 3, 0, 0, 0, 1, 1, 1, 1, 0, 0, 0, 1, 1, 0, 2, 0, 0, 1, 1, 0, 1, 1, 0] 
 T11 => S40 [0, 0, 3, 0, 0, 0, 1, 1, 1, 0, 0, 1, 0, 1, 0, 0, 2, 0, 0, 1, 0, 1, 1, 1, 0] 
 
 Reachable states from S30 [0, 0, 3, 0, 0, 0, 1, 1, 1, 1, 0, 0, 0, 1, 1, 0, 2, 0, 0, 1, 1, 0, 1, 1, 0] 
 T15 => S18 [0, 0, 3, 0, 0, 0, 1, 1, 1, 1, 0, 0, 0, 1, 1, 0, 1, 1, 0, 1, 1, 0, 1, 1, 0] 
 T9 => S31 [0, 0, 3, 0, 0, 0, 1, 1, 1, 0, 1, 0, 0, 1, 1, 0, 2, 0, 1, 1, 0, 1, 2, 2, 1] 
 
 Reachable states from S31 [0, 0, 3, 0, 0, 0, 1, 1, 1, 0, 1, 0, 0, 1, 1, 0, 2, 0, 1, 1, 0, 1, 2, 2, 1] 
 T15 => S19 [0, 0, 3, 0, 0, 0, 1, 1, 1, 0, 1, 0, 0, 1, 1, 0, 1, 1, 1, 1, 0, 1, 2, 2, 1] 
 T1 => S32 [1, 0, 2, 0, 0, 0, 1, 1, 1, 0, 1, 0, 0, 1, 1, 0, 2, 0, 0, 0, 0, 0, 1, 1, 0] 
 T10 => S36 [0, 0, 3, 0, 0, 0, 1, 1, 1, 0, 0, 0, 0, 1, 1, 0, 3, 0, 1, 1, 1, 1, 2, 2, 1] 
 
 Reachable states from S32 [1, 0, 2, 0, 0, 0, 1, 1, 1, 0, 1, 0, 0, 1, 1, 0, 2, 0, 0, 0, 0, 0, 1, 1, 0] 
 T15 => S20 [1, 0, 2, 0, 0, 0, 1, 1, 1, 0, 1, 0, 0, 1, 1, 0, 1, 1, 0, 0, 0, 0, 1, 1, 0] 
 T10 => S33 [1, 0, 2, 0, 0, 0, 1, 1, 1, 0, 0, 0, 0, 1, 1, 0, 3, 0, 0, 0, 1, 0, 1, 1, 0] 
 
 Reachable states from S33 [1, 0, 2, 0, 0, 0, 1, 1, 1, 0, 0, 0, 0, 1, 1, 0, 3, 0, 0, 0, 1, 0, 1, 1, 0] 
 T15 => S21 [1, 0, 2, 0, 0, 0, 1, 1, 1, 0, 0, 0, 0, 1, 1, 0, 2, 1, 0, 0, 1, 0, 1, 1, 0] 
 T2 => S34 [0, 1, 2, 0, 0, 0, 1, 1, 1, 0, 0, 0, 0, 1, 1, 0, 3, 0, 1, 1, 0, 1, 2, 2, 1] 
 
 Reachable states from S34 [0, 1, 2, 0, 0, 0, 1, 1, 1, 0, 0, 0, 0, 1, 1, 0, 3, 0, 1, 1, 0, 1, 2, 2, 1] 
 T15 => S22 [0, 1, 2, 0, 0, 0, 1, 1, 1, 0, 0, 0, 0, 1, 1, 0, 2, 1, 1, 1, 0, 1, 2, 2, 1] 
 T1 => S35 [1, 1, 1, 0, 0, 0, 1, 1, 1, 0, 0, 0, 0, 1, 1, 0, 3, 0, 0, 0, 0, 0, 1, 1, 0] 
 T3 => S36 [0, 0, 3, 0, 0, 0, 1, 1, 1, 0, 0, 0, 0, 1, 1, 0, 3, 0, 1, 1, 1, 1, 2, 2, 1] 
 
 Reachable states from S35 [1, 1, 1, 0, 0, 0, 1, 1, 1, 0, 0, 0, 0, 1, 1, 0, 3, 0, 0, 0, 0, 0, 1, 1, 0] 
 T15 => S23 [1, 1, 1, 0, 0, 0, 1, 1, 1, 0, 0, 0, 0, 1, 1, 0, 2, 1, 0, 0, 0, 0, 1, 1, 0] 
 T3 => S33 [1, 0, 2, 0, 0, 0, 1, 1, 1, 0, 0, 0, 0, 1, 1, 0, 3, 0, 0, 0, 1, 0, 1, 1, 0] 
 
 Reachable states from S36 [0, 0, 3, 0, 0, 0, 1, 1, 1, 0, 0, 0, 0, 1, 1, 0, 3, 0, 1, 1, 1, 1, 2, 2, 1] 
 T15 => S24 [0, 0, 3, 0, 0, 0, 1, 1, 1, 0, 0, 0, 0, 1, 1, 0, 2, 1, 1, 1, 1, 1, 2, 2, 1] 
 T1 => S33 [1, 0, 2, 0, 0, 0, 1, 1, 1, 0, 0, 0, 0, 1, 1, 0, 3, 0, 0, 0, 1, 0, 1, 1, 0] 
 T4 => S37 [0, 0, 3, 1, 0, 0, 1, 0, 0, 0, 0, 0, 0, 1, 1, 0, 3, 0, 1, 1, 0, 1, 1, 1, 0] 
 
 Reachable states from S37 [0, 0, 3, 1, 0, 0, 1, 0, 0, 0, 0, 0, 0, 1, 1, 0, 3, 0, 1, 1, 0, 1, 1, 1, 0] 
 T15 => S25 [0, 0, 3, 1, 0, 0, 1, 0, 0, 0, 0, 0, 0, 1, 1, 0, 2, 1, 1, 1, 0, 1, 1, 1, 0] 
 T5 => S38 [0, 0, 3, 0, 1, 0, 1, 1, 0, 0, 0, 0, 0, 1, 1, 0, 3, 0, 0, 1, 1, 1, 1, 1, 1] 
 
 Reachable states from S38 [0, 0, 3, 0, 1, 0, 1, 1, 0, 0, 0, 0, 0, 1, 1, 0, 3, 0, 0, 1, 1, 1, 1, 1, 1] 
 T15 => S26 [0, 0, 3, 0, 1, 0, 1, 1, 0, 0, 0, 0, 0, 1, 1, 0, 2, 1, 0, 1, 1, 1, 1, 1, 1] 
 T6 => S39 [0, 0, 3, 0, 0, 1, 0, 1, 0, 0, 0, 0, 0, 1, 1, 0, 3, 0, 1, 0, 1, 0, 2, 2, 1] 
 
 Reachable states from S39 [0, 0, 3, 0, 0, 1, 0, 1, 0, 0, 0, 0, 0, 1, 1, 0, 3, 0, 1, 0, 1, 0, 2, 2, 1] 
 T15 => S27 [0, 0, 3, 0, 0, 1, 0, 1, 0, 0, 0, 0, 0, 1, 1, 0, 2, 1, 1, 0, 1, 0, 2, 2, 1] 
 T7 => S36 [0, 0, 3, 0, 0, 0, 1, 1, 1, 0, 0, 0, 0, 1, 1, 0, 3, 0, 1, 1, 1, 1, 2, 2, 1] 
 
 Reachable states from S40 [0, 0, 3, 0, 0, 0, 1, 1, 1, 0, 0, 1, 0, 1, 0, 0, 2, 0, 0, 1, 0, 1, 1, 1, 0] 
 T12 => S41 [0, 0, 3, 0, 0, 0, 1, 1, 1, 0, 0, 0, 1, 0, 1, 0, 2, 0, 1, 1, 1, 0, 2, 2, 1] 
 T15 => S58 [0, 0, 3, 0, 0, 0, 1, 1, 1, 0, 0, 1, 0, 1, 0, 0, 1, 1, 0, 1, 0, 1, 1, 1, 0] 
 
 Reachable states from S41 [0, 0, 3, 0, 0, 0, 1, 1, 1, 0, 0, 0, 1, 0, 1, 0, 2, 0, 1, 1, 1, 0, 2, 2, 1] 
 T13 => S36 [0, 0, 3, 0, 0, 0, 1, 1, 1, 0, 0, 0, 0, 1, 1, 0, 3, 0, 1, 1, 1, 1, 2, 2, 1] 
 T4 => S42 [0, 0, 3, 1, 0, 0, 1, 0, 0, 0, 0, 0, 1, 0, 1, 0, 2, 0, 1, 1, 0, 0, 1, 1, 0] 
 T15 => S59 [0, 0, 3, 0, 0, 0, 1, 1, 1, 0, 0, 0, 1, 0, 1, 0, 1, 1, 1, 1, 1, 0, 2, 2, 1] 
 
 Reachable states from S42 [0, 0, 3, 1, 0, 0, 1, 0, 0, 0, 0, 0, 1, 0, 1, 0, 2, 0, 1, 1, 0, 0, 1, 1, 0] 
 T13 => S37 [0, 0, 3, 1, 0, 0, 1, 0, 0, 0, 0, 0, 0, 1, 1, 0, 3, 0, 1, 1, 0, 1, 1, 1, 0] 
 T5 => S43 [0, 0, 3, 0, 1, 0, 1, 1, 0, 0, 0, 0, 1, 0, 1, 0, 2, 0, 0, 1, 1, 0, 1, 1, 1] 
 T15 => S60 [0, 0, 3, 1, 0, 0, 1, 0, 0, 0, 0, 0, 1, 0, 1, 0, 1, 1, 1, 1, 0, 0, 1, 1, 0] 
 
 Reachable states from S43 [0, 0, 3, 0, 1, 0, 1, 1, 0, 0, 0, 0, 1, 0, 1, 0, 2, 0, 0, 1, 1, 0, 1, 1, 1] 
 T13 => S38 [0, 0, 3, 0, 1, 0, 1, 1, 0, 0, 0, 0, 0, 1, 1, 0, 3, 0, 0, 1, 1, 1, 1, 1, 1] 
 T15 => S44 [0, 0, 3, 0, 1, 0, 1, 1, 0, 0, 0, 0, 1, 0, 1, 0, 1, 1, 0, 1, 1, 0, 1, 1, 1] 
 
 Reachable states from S44 [0, 0, 3, 0, 1, 0, 1, 1, 0, 0, 0, 0, 1, 0, 1, 0, 1, 1, 0, 1, 1, 0, 1, 1, 1] 
 T13 => S26 [0, 0, 3, 0, 1, 0, 1, 1, 0, 0, 0, 0, 0, 1, 1, 0, 2, 1, 0, 1, 1, 1, 1, 1, 1] 
 T14 => S45 [0, 0, 3, 0, 1, 0, 1, 1, 0, 0, 0, 0, 1, 0, 1, 1, 1, 0, 0, 1, 1, 0, 0, 0, 0] 
 T15 => S54 [0, 0, 3, 0, 1, 0, 1, 1, 0, 0, 0, 0, 1, 0, 1, 0, 0, 2, 0, 1, 1, 0, 1, 1, 1] 
 
 Reachable states from S45 [0, 0, 3, 0, 1, 0, 1, 1, 0, 0, 0, 0, 1, 0, 1, 1, 1, 0, 0, 1, 1, 0, 0, 0, 0] 
 T13 => S46 [0, 0, 3, 0, 1, 0, 1, 1, 0, 0, 0, 0, 0, 1, 1, 1, 2, 0, 0, 1, 1, 1, 0, 0, 0] 
 T15 => S55 [0, 0, 3, 0, 1, 0, 1, 1, 0, 0, 0, 0, 1, 0, 1, 1, 0, 1, 0, 1, 1, 0, 0, 0, 0] 
 
 Reachable states from S46 [0, 0, 3, 0, 1, 0, 1, 1, 0, 0, 0, 0, 0, 1, 1, 1, 2, 0, 0, 1, 1, 1, 0, 0, 0] 
 T6 => S28 [0, 0, 3, 0, 0, 1, 0, 1, 0, 0, 0, 0, 0, 1, 1, 1, 2, 0, 1, 0, 1, 0, 1, 1, 0] 
 T15 => S47 [0, 0, 3, 0, 1, 0, 1, 1, 0, 0, 0, 0, 0, 1, 1, 1, 1, 1, 0, 1, 1, 1, 0, 0, 0] 
 
 Reachable states from S47 [0, 0, 3, 0, 1, 0, 1, 1, 0, 0, 0, 0, 0, 1, 1, 1, 1, 1, 0, 1, 1, 1, 0, 0, 0] 
 T6 => S16 [0, 0, 3, 0, 0, 1, 0, 1, 0, 0, 0, 0, 0, 1, 1, 1, 1, 1, 1, 0, 1, 0, 1, 1, 0] 
 T15 => S48 [0, 0, 3, 0, 1, 0, 1, 1, 0, 0, 0, 0, 0, 1, 1, 1, 0, 2, 0, 1, 1, 1, 0, 0, 0] 
 
 Reachable states from S48 [0, 0, 3, 0, 1, 0, 1, 1, 0, 0, 0, 0, 0, 1, 1, 1, 0, 2, 0, 1, 1, 1, 0, 0, 0] 
 T6 => S49 [0, 0, 3, 0, 0, 1, 0, 1, 0, 0, 0, 0, 0, 1, 1, 1, 0, 2, 1, 0, 1, 0, 1, 1, 0] 
 
 Reachable states from S49 [0, 0, 3, 0, 0, 1, 0, 1, 0, 0, 0, 0, 0, 1, 1, 1, 0, 2, 1, 0, 1, 0, 1, 1, 0] 
 T7 => S5 [0, 0, 3, 0, 0, 0, 1, 1, 1, 0, 0, 0, 0, 1, 1, 1, 0, 2, 1, 1, 1, 1, 1, 1, 0] 
 T11 => S50 [0, 0, 3, 0, 0, 1, 0, 1, 0, 0, 0, 1, 0, 1, 0, 0, 0, 2, 0, 0, 0, 0, 1, 1, 0] 
 
 Reachable states from S50 [0, 0, 3, 0, 0, 1, 0, 1, 0, 0, 0, 1, 0, 1, 0, 0, 0, 2, 0, 0, 0, 0, 1, 1, 0] 
 T7 => S51 [0, 0, 3, 0, 0, 0, 1, 1, 1, 0, 0, 1, 0, 1, 0, 0, 0, 2, 0, 1, 0, 1, 1, 1, 0] 
 
 Reachable states from S51 [0, 0, 3, 0, 0, 0, 1, 1, 1, 0, 0, 1, 0, 1, 0, 0, 0, 2, 0, 1, 0, 1, 1, 1, 0] 
 T12 => S52 [0, 0, 3, 0, 0, 0, 1, 1, 1, 0, 0, 0, 1, 0, 1, 0, 0, 2, 1, 1, 1, 0, 2, 2, 1] 
 
 Reachable states from S52 [0, 0, 3, 0, 0, 0, 1, 1, 1, 0, 0, 0, 1, 0, 1, 0, 0, 2, 1, 1, 1, 0, 2, 2, 1] 
 T13 => S12 [0, 0, 3, 0, 0, 0, 1, 1, 1, 0, 0, 0, 0, 1, 1, 0, 1, 2, 1, 1, 1, 1, 2, 2, 1] 
 T4 => S53 [0, 0, 3, 1, 0, 0, 1, 0, 0, 0, 0, 0, 1, 0, 1, 0, 0, 2, 1, 1, 0, 0, 1, 1, 0] 
 T14 => S56 [0, 0, 3, 0, 0, 0, 1, 1, 1, 0, 0, 0, 1, 0, 1, 1, 0, 1, 1, 1, 1, 0, 1, 1, 0] 
 
 Reachable states from S53 [0, 0, 3, 1, 0, 0, 1, 0, 0, 0, 0, 0, 1, 0, 1, 0, 0, 2, 1, 1, 0, 0, 1, 1, 0] 
 T13 => S13 [0, 0, 3, 1, 0, 0, 1, 0, 0, 0, 0, 0, 0, 1, 1, 0, 1, 2, 1, 1, 0, 1, 1, 1, 0] 
 T5 => S54 [0, 0, 3, 0, 1, 0, 1, 1, 0, 0, 0, 0, 1, 0, 1, 0, 0, 2, 0, 1, 1, 0, 1, 1, 1] 
 
 Reachable states from S54 [0, 0, 3, 0, 1, 0, 1, 1, 0, 0, 0, 0, 1, 0, 1, 0, 0, 2, 0, 1, 1, 0, 1, 1, 1] 
 T13 => S14 [0, 0, 3, 0, 1, 0, 1, 1, 0, 0, 0, 0, 0, 1, 1, 0, 1, 2, 0, 1, 1, 1, 1, 1, 1] 
 T14 => S55 [0, 0, 3, 0, 1, 0, 1, 1, 0, 0, 0, 0, 1, 0, 1, 1, 0, 1, 0, 1, 1, 0, 0, 0, 0] 
 
 Reachable states from S55 [0, 0, 3, 0, 1, 0, 1, 1, 0, 0, 0, 0, 1, 0, 1, 1, 0, 1, 0, 1, 1, 0, 0, 0, 0] 
 T13 => S47 [0, 0, 3, 0, 1, 0, 1, 1, 0, 0, 0, 0, 0, 1, 1, 1, 1, 1, 0, 1, 1, 1, 0, 0, 0] 
 
 Reachable states from S56 [0, 0, 3, 0, 0, 0, 1, 1, 1, 0, 0, 0, 1, 0, 1, 1, 0, 1, 1, 1, 1, 0, 1, 1, 0] 
 T13 => S17 [0, 0, 3, 0, 0, 0, 1, 1, 1, 0, 0, 0, 0, 1, 1, 1, 1, 1, 1, 1, 1, 1, 1, 1, 0] 
 T11 => S57 [0, 0, 3, 0, 0, 0, 1, 1, 1, 0, 0, 1, 1, 0, 0, 0, 0, 1, 0, 1, 0, 0, 1, 1, 0] 
 
 Reachable states from S57 [0, 0, 3, 0, 0, 0, 1, 1, 1, 0, 0, 1, 1, 0, 0, 0, 0, 1, 0, 1, 0, 0, 1, 1, 0] 
 T13 => S58 [0, 0, 3, 0, 0, 0, 1, 1, 1, 0, 0, 1, 0, 1, 0, 0, 1, 1, 0, 1, 0, 1, 1, 1, 0] 
 
 Reachable states from S58 [0, 0, 3, 0, 0, 0, 1, 1, 1, 0, 0, 1, 0, 1, 0, 0, 1, 1, 0, 1, 0, 1, 1, 1, 0] 
 T15 => S51 [0, 0, 3, 0, 0, 0, 1, 1, 1, 0, 0, 1, 0, 1, 0, 0, 0, 2, 0, 1, 0, 1, 1, 1, 0] 
 T12 => S59 [0, 0, 3, 0, 0, 0, 1, 1, 1, 0, 0, 0, 1, 0, 1, 0, 1, 1, 1, 1, 1, 0, 2, 2, 1] 
 
 Reachable states from S59 [0, 0, 3, 0, 0, 0, 1, 1, 1, 0, 0, 0, 1, 0, 1, 0, 1, 1, 1, 1, 1, 0, 2, 2, 1] 
 T13 => S24 [0, 0, 3, 0, 0, 0, 1, 1, 1, 0, 0, 0, 0, 1, 1, 0, 2, 1, 1, 1, 1, 1, 2, 2, 1] 
 T15 => S52 [0, 0, 3, 0, 0, 0, 1, 1, 1, 0, 0, 0, 1, 0, 1, 0, 0, 2, 1, 1, 1, 0, 2, 2, 1] 
 T4 => S60 [0, 0, 3, 1, 0, 0, 1, 0, 0, 0, 0, 0, 1, 0, 1, 0, 1, 1, 1, 1, 0, 0, 1, 1, 0] 
 T14 => S61 [0, 0, 3, 0, 0, 0, 1, 1, 1, 0, 0, 0, 1, 0, 1, 1, 1, 0, 1, 1, 1, 0, 1, 1, 0] 
 
 Reachable states from S60 [0, 0, 3, 1, 0, 0, 1, 0, 0, 0, 0, 0, 1, 0, 1, 0, 1, 1, 1, 1, 0, 0, 1, 1, 0] 
 T13 => S25 [0, 0, 3, 1, 0, 0, 1, 0, 0, 0, 0, 0, 0, 1, 1, 0, 2, 1, 1, 1, 0, 1, 1, 1, 0] 
 T5 => S44 [0, 0, 3, 0, 1, 0, 1, 1, 0, 0, 0, 0, 1, 0, 1, 0, 1, 1, 0, 1, 1, 0, 1, 1, 1] 
 T15 => S53 [0, 0, 3, 1, 0, 0, 1, 0, 0, 0, 0, 0, 1, 0, 1, 0, 0, 2, 1, 1, 0, 0, 1, 1, 0] 
 
 Reachable states from S61 [0, 0, 3, 0, 0, 0, 1, 1, 1, 0, 0, 0, 1, 0, 1, 1, 1, 0, 1, 1, 1, 0, 1, 1, 0] 
 T13 => S29 [0, 0, 3, 0, 0, 0, 1, 1, 1, 0, 0, 0, 0, 1, 1, 1, 2, 0, 1, 1, 1, 1, 1, 1, 0] 
 T15 => S56 [0, 0, 3, 0, 0, 0, 1, 1, 1, 0, 0, 0, 1, 0, 1, 1, 0, 1, 1, 1, 1, 0, 1, 1, 0] 
 T11 => S62 [0, 0, 3, 0, 0, 0, 1, 1, 1, 0, 0, 1, 1, 0, 0, 0, 1, 0, 0, 1, 0, 0, 1, 1, 0] 
 
 Reachable states from S62 [0, 0, 3, 0, 0, 0, 1, 1, 1, 0, 0, 1, 1, 0, 0, 0, 1, 0, 0, 1, 0, 0, 1, 1, 0] 
 T13 => S40 [0, 0, 3, 0, 0, 0, 1, 1, 1, 0, 0, 1, 0, 1, 0, 0, 2, 0, 0, 1, 0, 1, 1, 1, 0] 
 T15 => S57 [0, 0, 3, 0, 0, 0, 1, 1, 1, 0, 0, 1, 1, 0, 0, 0, 0, 1, 0, 1, 0, 0, 1, 1, 0] 
 
 Reachable states from S63 [0, 0, 3, 0, 0, 1, 0, 1, 0, 0, 0, 1, 0, 1, 0, 0, 2, 0, 0, 0, 0, 0, 1, 1, 0] 
 T7 => S40 [0, 0, 3, 0, 0, 0, 1, 1, 1, 0, 0, 1, 0, 1, 0, 0, 2, 0, 0, 1, 0, 1, 1, 1, 0] 
 T15 => S64 [0, 0, 3, 0, 0, 1, 0, 1, 0, 0, 0, 1, 0, 1, 0, 0, 1, 1, 0, 0, 0, 0, 1, 1, 0] 
 
 Reachable states from S64 [0, 0, 3, 0, 0, 1, 0, 1, 0, 0, 0, 1, 0, 1, 0, 0, 1, 1, 0, 0, 0, 0, 1, 1, 0] 
 T15 => S50 [0, 0, 3, 0, 0, 1, 0, 1, 0, 0, 0, 1, 0, 1, 0, 0, 0, 2, 0, 0, 0, 0, 1, 1, 0] 
 T7 => S58 [0, 0, 3, 0, 0, 0, 1, 1, 1, 0, 0, 1, 0, 1, 0, 0, 1, 1, 0, 1, 0, 1, 1, 1, 0] 
 
 Reachable states from S65 [0, 1, 2, 0, 0, 0, 1, 1, 1, 0, 0, 0, 0, 1, 1, 1, 2, 0, 1, 1, 0, 1, 1, 1, 0] 
 T3 => S29 [0, 0, 3, 0, 0, 0, 1, 1, 1, 0, 0, 0, 0, 1, 1, 1, 2, 0, 1, 1, 1, 1, 1, 1, 0] 
 T8 => S66 [0, 1, 2, 0, 0, 0, 1, 1, 1, 1, 0, 0, 0, 1, 1, 0, 2, 0, 0, 1, 0, 0, 1, 1, 0] 
 T15 => S69 [0, 1, 2, 0, 0, 0, 1, 1, 1, 0, 0, 0, 0, 1, 1, 1, 1, 1, 1, 1, 0, 1, 1, 1, 0] 
 
 Reachable states from S66 [0, 1, 2, 0, 0, 0, 1, 1, 1, 1, 0, 0, 0, 1, 1, 0, 2, 0, 0, 1, 0, 0, 1, 1, 0] 
 T3 => S30 [0, 0, 3, 0, 0, 0, 1, 1, 1, 1, 0, 0, 0, 1, 1, 0, 2, 0, 0, 1, 1, 0, 1, 1, 0] 
 T15 => S67 [0, 1, 2, 0, 0, 0, 1, 1, 1, 1, 0, 0, 0, 1, 1, 0, 1, 1, 0, 1, 0, 0, 1, 1, 0] 
 
 Reachable states from S67 [0, 1, 2, 0, 0, 0, 1, 1, 1, 1, 0, 0, 0, 1, 1, 0, 1, 1, 0, 1, 0, 0, 1, 1, 0] 
 T3 => S18 [0, 0, 3, 0, 0, 0, 1, 1, 1, 1, 0, 0, 0, 1, 1, 0, 1, 1, 0, 1, 1, 0, 1, 1, 0] 
 T15 => S68 [0, 1, 2, 0, 0, 0, 1, 1, 1, 1, 0, 0, 0, 1, 1, 0, 0, 2, 0, 1, 0, 0, 1, 1, 0] 
 
 Reachable states from S68 [0, 1, 2, 0, 0, 0, 1, 1, 1, 1, 0, 0, 0, 1, 1, 0, 0, 2, 0, 1, 0, 0, 1, 1, 0] 
 T3 => S6 [0, 0, 3, 0, 0, 0, 1, 1, 1, 1, 0, 0, 0, 1, 1, 0, 0, 2, 0, 1, 1, 0, 1, 1, 0] 
 
 Reachable states from S69 [0, 1, 2, 0, 0, 0, 1, 1, 1, 0, 0, 0, 0, 1, 1, 1, 1, 1, 1, 1, 0, 1, 1, 1, 0] 
 T15 => S4 [0, 1, 2, 0, 0, 0, 1, 1, 1, 0, 0, 0, 0, 1, 1, 1, 0, 2, 1, 1, 0, 1, 1, 1, 0] 
 T3 => S17 [0, 0, 3, 0, 0, 0, 1, 1, 1, 0, 0, 0, 0, 1, 1, 1, 1, 1, 1, 1, 1, 1, 1, 1, 0] 
 T8 => S67 [0, 1, 2, 0, 0, 0, 1, 1, 1, 1, 0, 0, 0, 1, 1, 0, 1, 1, 0, 1, 0, 0, 1, 1, 0] 
 
 Reachable states from S70 [0, 0, 3, 0, 0, 0, 1, 1, 1, 0, 1, 0, 0, 1, 1, 1, 1, 0, 1, 1, 0, 1, 1, 1, 0] 
 T10 => S29 [0, 0, 3, 0, 0, 0, 1, 1, 1, 0, 0, 0, 0, 1, 1, 1, 2, 0, 1, 1, 1, 1, 1, 1, 0] 
 T8 => S71 [0, 0, 3, 0, 0, 0, 1, 1, 1, 1, 1, 0, 0, 1, 1, 0, 1, 0, 0, 1, 0, 0, 1, 1, 0] 
 T15 => S73 [0, 0, 3, 0, 0, 0, 1, 1, 1, 0, 1, 0, 0, 1, 1, 1, 0, 1, 1, 1, 0, 1, 1, 1, 0] 
 
 Reachable states from S71 [0, 0, 3, 0, 0, 0, 1, 1, 1, 1, 1, 0, 0, 1, 1, 0, 1, 0, 0, 1, 0, 0, 1, 1, 0] 
 T10 => S30 [0, 0, 3, 0, 0, 0, 1, 1, 1, 1, 0, 0, 0, 1, 1, 0, 2, 0, 0, 1, 1, 0, 1, 1, 0] 
 T15 => S72 [0, 0, 3, 0, 0, 0, 1, 1, 1, 1, 1, 0, 0, 1, 1, 0, 0, 1, 0, 1, 0, 0, 1, 1, 0] 
 
 Reachable states from S72 [0, 0, 3, 0, 0, 0, 1, 1, 1, 1, 1, 0, 0, 1, 1, 0, 0, 1, 0, 1, 0, 0, 1, 1, 0] 
 T10 => S18 [0, 0, 3, 0, 0, 0, 1, 1, 1, 1, 0, 0, 0, 1, 1, 0, 1, 1, 0, 1, 1, 0, 1, 1, 0] 
 
 Reachable states from S73 [0, 0, 3, 0, 0, 0, 1, 1, 1, 0, 1, 0, 0, 1, 1, 1, 0, 1, 1, 1, 0, 1, 1, 1, 0] 
 T10 => S17 [0, 0, 3, 0, 0, 0, 1, 1, 1, 0, 0, 0, 0, 1, 1, 1, 1, 1, 1, 1, 1, 1, 1, 1, 0] 
 T8 => S72 [0, 0, 3, 0, 0, 0, 1, 1, 1, 1, 1, 0, 0, 1, 1, 0, 0, 1, 0, 1, 0, 0, 1, 1, 0] 
 
 Reachable states from S74 [0, 0, 3, 0, 0, 1, 0, 1, 0, 0, 0, 0, 0, 1, 1, 0, 0, 3, 1, 0, 1, 0, 2, 2, 1] 
 T7 => S0 [0, 0, 3, 0, 0, 0, 1, 1, 1, 0, 0, 0, 0, 1, 1, 0, 0, 3, 1, 1, 1, 1, 2, 2, 1] 
 T14 => S49 [0, 0, 3, 0, 0, 1, 0, 1, 0, 0, 0, 0, 0, 1, 1, 1, 0, 2, 1, 0, 1, 0, 1, 1, 0] 
 
 Reachable states from S75 [0, 0, 3, 0, 1, 0, 1, 1, 0, 0, 0, 0, 0, 1, 1, 0, 0, 3, 0, 1, 1, 1, 1, 1, 1] 
 T14 => S48 [0, 0, 3, 0, 1, 0, 1, 1, 0, 0, 0, 0, 0, 1, 1, 1, 0, 2, 0, 1, 1, 1, 0, 0, 0] 
 T6 => S74 [0, 0, 3, 0, 0, 1, 0, 1, 0, 0, 0, 0, 0, 1, 1, 0, 0, 3, 1, 0, 1, 0, 2, 2, 1] 
 
 Reachable states from S76 [0, 0, 3, 1, 0, 0, 1, 0, 0, 0, 0, 0, 0, 1, 1, 0, 0, 3, 1, 1, 0, 1, 1, 1, 0] 
 T5 => S75 [0, 0, 3, 0, 1, 0, 1, 1, 0, 0, 0, 0, 0, 1, 1, 0, 0, 3, 0, 1, 1, 1, 1, 1, 1] 
