 Minimal siphons 
22 24
20 23
2 7 9 13 15 19 30 31 32
19 25
13 16
9 11
1 7 8 32
8 10
1 6 8 27
1 7 8 28
1 33 5 6 7 8 17
2 6 9 13 15 19 30 31
2 5 9 15 30
2 3
1 2 4
1 34 2 9 11 13 16
1 34 2 8 10 13 16
1 34 2 8 9 10 13 16
34 2 3 5 8 10 13 16
1 34 2 5 8 10 13 16
34 2 3 5 9 11 13 16
1 34 2 5 9 11 13 16
1 34 2 5 8 9 10 13 16
34 2 3 5 8 9 10 13 16
34 2 3 5 9 11 13 14 15 16
1 34 2 5 9 11 13 14 15 16
1 34 2 5 8 9 10 13 14 15 16
34 2 3 5 8 9 10 13 14 15 16
2 6 8 13 19 31
2 3 6 8 27
1 2 6 8 27
2 6 9 15 27 30
2 3 6 9 11 27
1 2 6 9 11 27
1 2 6 8 9 27
2 3 6 8 9 27
2 5 6 9 15 30
2 7 8 13 19 31 32
2 7 8 12 29
2 3 7 8 32
1 2 7 8 32
1 2 7 8 28
1 2 6 7 8 27
1 33 2 5 6 7 8 17
2 3 7 8 28
2 3 6 7 8 27
33 2 3 5 6 7 8 17
2 3 7 8 12 17 32
1 2 7 8 12 17 32
1 2 7 8 12 17 28
1 2 6 7 8 12 17 27
1 33 2 5 6 7 8 12 17
1 34 2 5 6 7 8 12 17
2 3 7 8 12 17 28
2 3 6 7 8 12 17 27
33 2 3 5 6 7 8 12 17
34 2 3 5 6 7 8 12 17
2 7 8 13 19 29 31
2 7 8 13 19 28 31
2 7 9 12 15 27 29 30
2 7 9 15 27 30 32
2 3 7 9 11 32
1 2 7 9 11 32
1 2 7 8 9 32
1 2 7 8 9 28
1 2 6 7 8 9 27
1 33 2 5 6 7 8 9 17
1 2 7 9 11 28
1 2 6 7 9 11 27
1 33 2 5 6 7 9 11 17
2 3 7 8 9 32
2 3 7 8 9 28
2 3 6 7 8 9 27
33 2 3 5 6 7 8 9 17
2 3 7 9 11 28
2 3 6 7 9 11 27
33 2 3 5 6 7 9 11 17
2 5 7 9 15 30 32
2 5 7 9 15 28 30
2 5 6 7 9 15 30
2 7 9 15 27 28 30
2 6 7 9 15 27 30
2 7 9 11 12 29
2 7 8 9 12 29
2 3 7 8 9 12 17 32
1 2 7 8 9 12 17 32
1 2 7 8 9 12 17 28
1 2 6 7 8 9 12 17 27
1 33 2 5 6 7 8 9 12 17
1 34 2 5 6 7 8 9 12 17
2 3 7 8 9 12 17 28
2 3 6 7 8 9 12 17 27
33 2 3 5 6 7 8 9 12 17
34 2 3 5 6 7 8 9 12 17
2 3 7 9 11 12 17 32
1 2 7 9 11 12 17 32
1 2 7 9 11 12 17 28
1 2 6 7 9 11 12 17 27
1 33 2 5 6 7 9 11 12 17
1 34 2 5 6 7 9 11 12 17
2 3 7 9 11 12 17 28
2 3 6 7 9 11 12 17 27
33 2 3 5 6 7 9 11 12 17
34 2 3 5 6 7 9 11 12 17
2 5 7 9 12 15 29 30
2 5 7 9 12 15 17 30 32
2 5 7 9 12 15 17 28 30
2 5 6 7 9 12 15 17 30
2 7 9 12 15 17 27 30 32
2 7 9 12 15 17 27 28 30
2 6 7 9 12 15 17 27 30
2 7 9 13 15 19 29 30 31
2 7 9 13 15 19 28 30 31
2 5 9 15 18 19 20 30
5 6 7 8 9 12 13 14 15 17 18 19 20 21 22 26
2 5 9 15 18 19 20 21 22 30
 Minimal traps 
1 5 8 12 15 19 29 30 31 32
2 5 8 12 15 19 29 30 31
19 25
20 23
13 16
22 24
8 10
9 11
5 6 7 8 9 12 13 14 15 17 18 19 20 21 22 26
2 6 8 12 19 29 31
2 7 8 12 29
2 3
2 3 7 8 10 12 13 16 17
2 3 7 8 9 12 13 16 17 18 19 25
2 3 7 8 9 12 13 14 15 17 18 19 25
2 3 7 8 9 12 13 14 15 17 18 19 20 23
2 3 7 8 9 11 12 13 16 17
2 3 7 8 9 12 13 16 17 18 19 20 23
2 3 7 8 10 12 13 14 15 17 18 19 25
2 3 7 8 10 12 13 14 15 17 18 19 20 23
2 6 8 13 19 31
2 6 7 8 12 29
2 3 6 7 8 10 12 13 16 17
2 3 6 7 8 9 11 12 13 16 17
2 6 8 12 13 19 31
2 3 6 7 8 10 12 13 16 17 19 25
2 3 6 7 8 9 12 13 16 17 18 19 25
2 3 6 7 8 9 12 13 14 15 17 18 19 25
2 3 6 7 8 9 12 13 14 15 17 18 19 20 23
2 3 6 7 8 9 11 12 13 16 17 19 25
2 3 6 7 8 9 11 12 13 16 17 19 20 23
2 3 6 7 8 9 12 13 16 17 18 19 20 23
2 3 6 7 8 10 12 13 14 15 17 18 19 25
2 3 6 7 8 10 12 13 14 15 17 18 19 20 23
2 3 6 7 8 10 12 13 16 17 19 20 23
2 6 7 8 12 19 25 29
2 6 7 8 12 19 20 23 29
2 5 9 15 30
2 5 8 13 15 19 30 31
2 5 8 10 15 30
2 5 8 9 15 30
2 5 8 10 13 15 16 30
2 5 8 9 13 15 16 30
2 5 8 9 13 14 15 30
2 5 8 10 13 14 15 30
2 5 6 7 8 12 29
2 3 5 6 7 8 10 12 13 16 17
2 3 5 6 7 8 9 11 12 13 16 17
2 5 7 8 12 15 29 30
2 5 8 10 12 13 15 16 30
2 5 8 9 12 13 15 16 30
2 5 8 9 12 13 14 15 30
2 5 8 10 12 13 14 15 30
2 5 7 8 10 12 13 15 16 17 30
2 5 7 8 9 12 13 15 16 17 30
2 5 7 8 9 12 13 14 15 17 30
2 5 7 8 10 12 13 14 15 17 30
1 6 8 12 19 29 31 32
1 7 8 32
1 2 4
1 2 3
1 7 8 28
1 2 7 8 12 29
1 2 4 7 8 10 12 13 16 17
1 2 3 7 8 10 12 13 16 17
1 2 3 7 8 9 12 13 16 17 18 19 25
1 2 3 7 8 9 12 13 14 15 17 18 19 25
1 2 3 7 8 9 12 13 14 15 17 18 19 20 23
1 2 3 7 8 9 11 12 13 16 17
1 2 3 7 8 9 12 13 16 17 18 19 20 23
1 2 3 7 8 10 12 13 14 15 17 18 19 25
1 2 3 7 8 10 12 13 14 15 17 18 19 20 23
1 2 4 7 8 9 12 13 16 17 18 19 25
1 2 4 7 8 9 12 13 14 15 17 18 19 25
1 2 4 7 8 9 12 13 14 15 17 18 19 20 23
1 2 4 7 8 9 11 12 13 16 17
1 2 4 7 8 9 12 13 16 17 18 19 20 23
1 2 4 7 8 10 12 13 14 15 17 18 19 25
1 2 4 7 8 10 12 13 14 15 17 18 19 20 23
1 6 8 13 19 31 32
1 6 8 27
1 6 7 8 32
1 6 7 8 28
1 6 8 13 16 27
1 6 7 8 13 16 32
1 6 7 8 13 16 28
1 6 8 13 16 19 25 27
1 6 8 13 14 15 18 19 25 27
1 6 8 13 14 15 18 19 20 23 27
1 6 7 8 13 14 15 18 19 20 23 32
1 6 7 8 13 14 15 18 19 20 23 28
1 6 7 8 13 14 15 18 19 25 32
1 6 7 8 13 14 15 18 19 25 28
1 6 8 13 16 19 20 23 27
1 6 7 8 13 16 19 20 23 32
1 6 7 8 13 16 19 20 23 28
1 6 7 8 13 16 19 25 32
1 6 7 8 13 16 19 25 28
1 6 8 13 19 28 31
1 6 8 13 19 27 31
1 2 6 8 13 19 31
1 6 8 12 27 29
1 6 7 8 12 29 32
1 6 7 8 12 13 16 32
1 6 7 8 12 13 16 28
1 2 4 6 7 8 10 12 13 16 17
1 2 3 6 7 8 10 12 13 16 17
1 2 3 6 7 8 9 11 12 13 16 17
1 2 4 6 7 8 9 11 12 13 16 17
1 6 7 8 12 28 29
1 2 6 7 8 12 29
1 6 8 12 13 16 27
1 6 8 12 13 19 31 32
1 6 8 12 13 16 19 25 27
1 6 8 12 13 14 15 18 19 25 27
1 6 8 12 13 14 15 18 19 20 23 27
1 6 7 8 12 13 14 15 18 19 20 23 32
1 6 7 8 12 13 14 15 18 19 20 23 28
1 2 4 6 7 8 10 12 13 14 15 17 18 19 20 23
1 2 3 6 7 8 10 12 13 14 15 17 18 19 20 23
1 2 3 6 7 8 9 12 13 14 15 17 18 19 20 23
1 2 4 6 7 8 9 12 13 14 15 17 18 19 20 23
1 6 7 8 12 13 14 15 18 19 25 32
1 6 7 8 12 13 14 15 18 19 25 28
1 2 4 6 7 8 10 12 13 14 15 17 18 19 25
1 2 3 6 7 8 10 12 13 14 15 17 18 19 25
1 2 3 6 7 8 9 12 13 14 15 17 18 19 25
1 2 4 6 7 8 9 12 13 14 15 17 18 19 25
1 6 8 12 13 16 19 20 23 27
1 6 7 8 12 13 16 19 20 23 32
1 6 7 8 12 13 16 19 20 23 28
1 2 4 6 7 8 10 12 13 16 17 19 20 23
1 2 3 6 7 8 10 12 13 16 17 19 20 23
1 2 3 6 7 8 9 12 13 16 17 18 19 20 23
1 2 3 6 7 8 9 11 12 13 16 17 19 20 23
1 2 4 6 7 8 9 12 13 16 17 18 19 20 23
1 2 4 6 7 8 9 11 12 13 16 17 19 20 23
1 6 7 8 12 13 16 19 25 32
1 6 7 8 12 13 16 19 25 28
1 2 4 6 7 8 10 12 13 16 17 19 25
1 2 3 6 7 8 10 12 13 16 17 19 25
1 2 3 6 7 8 9 12 13 16 17 18 19 25
1 2 3 6 7 8 9 11 12 13 16 17 19 25
1 2 4 6 7 8 9 12 13 16 17 18 19 25
1 2 4 6 7 8 9 11 12 13 16 17 19 25
1 6 8 12 13 19 28 31
1 6 8 12 13 19 27 31
1 2 6 8 12 13 19 31
1 6 8 12 19 25 27 29
1 6 8 12 19 20 23 27 29
1 6 7 8 12 19 20 23 29 32
1 6 7 8 12 19 20 23 28 29
1 2 6 7 8 12 19 20 23 29
1 6 7 8 12 19 25 29 32
1 6 7 8 12 19 25 28 29
1 2 6 7 8 12 19 25 29
1 6 8 12 19 28 29 31
1 6 8 12 19 27 29 31
1 2 6 8 12 19 29 31
1 2 5 9 15 30
1 33 5 15 30
1 33 2 5 15 30
1 34 2 5 15 30
1 5 8 13 15 19 30 31 32
1 34 5 8 15 19 30 31 32
1 5 8 15 27 30
1 5 6 8 27
1 5 6 7 8 32
1 5 6 7 8 28
1 5 7 8 15 30 32
1 2 5 8 10 15 30
1 2 5 8 9 15 30
1 5 7 8 15 28 30
1 34 5 6 8 19 31 32
1 34 5 6 8 27
1 34 5 6 7 8 32
1 34 5 6 7 8 28
1 34 5 6 8 19 28 31
1 34 2 5 6 8 19 31
1 34 5 8 15 27 30
1 34 5 7 8 15 30 32
1 34 2 5 8 15 30
1 34 5 7 8 15 28 30
1 34 5 8 15 19 28 30 31
1 5 6 8 13 16 27
1 5 6 7 8 13 16 32
1 5 6 7 8 13 16 28
1 5 8 13 15 16 27 30
1 5 8 13 14 15 27 30
1 5 7 8 13 14 15 30 32
1 2 5 8 10 13 14 15 30
1 2 5 8 9 13 14 15 30
1 34 2 5 8 13 14 15 30
1 5 7 8 13 14 15 28 30
1 5 7 8 13 15 16 30 32
1 2 5 8 10 13 15 16 30
1 2 5 8 9 13 15 16 30
1 34 2 5 8 13 15 16 30
1 5 7 8 13 15 16 28 30
1 5 8 13 15 19 28 30 31
1 33 5 6 8 19 29 31
1 33 5 6 8 27
1 33 5 6 7 8 32
1 33 5 6 7 8 29
1 33 5 6 7 8 28
1 33 5 6 7 8 17
1 33 5 6 8 13 19 31
1 34 33 5 6 8 19 31
1 33 5 6 7 8 19 20 21 22 26 29
1 33 5 6 8 13 15 18 19 31
1 34 33 5 6 8 15 18 19 31
1 33 5 6 7 8 15 18 19 20 21 22 26 29
1 5 6 8 12 27 29
1 5 6 7 8 12 29 32
1 5 6 7 8 12 13 16 32
1 34 5 6 7 8 12 32
1 34 5 6 7 8 12 28
1 34 2 5 6 7 8 12 17
1 34 33 5 6 7 8 12 17
1 5 6 7 8 12 13 16 28
1 2 4 5 6 7 8 10 12 13 16 17
1 33 5 6 7 8 12 13 16 17
1 2 3 5 6 7 8 10 12 13 16 17
1 34 2 5 6 7 8 12 13 16 17
1 2 3 5 6 7 8 9 11 12 13 16 17
1 33 2 3 5 6 7 8 12 13 16 17
1 34 2 3 5 6 7 8 12 13 16 17
1 2 4 5 6 7 8 9 11 12 13 16 17
1 33 2 4 5 6 7 8 12 13 16 17
1 34 2 4 5 6 7 8 12 13 16 17
1 5 6 7 8 12 28 29
1 2 5 6 7 8 12 29
1 33 5 6 7 8 12 29
1 5 6 8 12 13 16 27
1 34 5 6 8 12 27
1 5 8 12 15 27 29 30
1 5 7 8 12 15 29 30 32
1 2 5 8 10 12 13 15 16 30
1 33 5 8 12 13 15 16 30
1 34 33 5 8 12 15 30
1 33 5 8 12 13 14 15 30
1 2 5 8 9 12 13 15 16 30
1 33 2 5 8 12 13 15 16 30
1 34 2 5 8 12 15 30
1 34 33 2 5 8 12 15 30
1 33 2 5 8 12 13 14 15 30
1 34 2 5 8 9 12 15 30
1 2 5 8 9 12 13 14 15 30
1 34 2 5 8 10 12 15 30
1 2 5 8 10 12 13 14 15 30
1 5 7 8 12 13 15 16 30 32
1 34 5 7 8 12 15 30 32
1 34 5 7 8 12 15 28 30
1 34 2 5 7 8 12 15 17 30
1 34 33 5 7 8 12 15 17 30
1 5 7 8 12 13 14 15 30 32
1 5 7 8 12 13 14 15 28 30
1 2 5 7 8 10 12 13 14 15 17 30
1 33 5 7 8 12 13 14 15 17 30
1 2 5 7 8 9 12 13 14 15 17 30
1 33 2 5 7 8 12 13 14 15 17 30
1 34 2 5 7 8 12 13 14 15 17 30
1 5 7 8 12 13 15 16 28 30
1 2 5 7 8 10 12 13 15 16 17 30
1 33 5 7 8 12 13 15 16 17 30
1 2 5 7 8 9 12 13 15 16 17 30
1 33 2 5 7 8 12 13 15 16 17 30
1 34 2 5 7 8 12 13 15 16 17 30
1 5 7 8 12 15 28 29 30
1 2 5 7 8 12 15 29 30
1 33 5 7 8 12 15 29 30
1 5 8 12 13 15 16 27 30
1 34 5 8 12 15 27 30
1 5 8 12 13 14 15 27 30
1 5 8 12 15 19 28 29 30 31
 Analysis time: 3.43s