 p 37 
 t 14 
 Reachable states from S0 [0, 0, 0, 1, 1, 3, 0, 0, 0, 0, 1, 1, 2, 0, 0, 0, 0, 1, 1, 1, 2, 1, 1, 1, 1, 1, 1, 1, 1, 1, 1, 1, 1, 1, 1, 1, 1] 
 T1 => S1 [1, 0, 0, 1, 1, 2, 0, 0, 0, 0, 1, 1, 2, 0, 0, 0, 0, 1, 1, 1, 2, 1, 1, 1, 1, 1, 1, 1, 0, 1, 0, 1, 0, 0, 1, 0, 1] 
 T10 => S7 [0, 0, 0, 1, 1, 3, 0, 0, 0, 0, 1, 1, 2, 1, 0, 0, 0, 1, 1, 0, 1, 1, 1, 1, 1, 1, 1, 1, 0, 1, 1, 0, 1, 1, 1, 1, 0] 
 T5 => S16 [0, 0, 0, 1, 1, 3, 1, 0, 0, 0, 1, 1, 1, 0, 0, 0, 0, 1, 1, 1, 2, 1, 1, 1, 1, 0, 1, 1, 1, 0, 1, 1, 0, 1, 0, 1, 0] 
 
 Reachable states from S1 [1, 0, 0, 1, 1, 2, 0, 0, 0, 0, 1, 1, 2, 0, 0, 0, 0, 1, 1, 1, 2, 1, 1, 1, 1, 1, 1, 1, 0, 1, 0, 1, 0, 0, 1, 0, 1] 
 T2 => S2 [0, 1, 0, 0, 1, 2, 0, 0, 0, 0, 1, 1, 2, 0, 0, 0, 0, 1, 1, 1, 2, 1, 0, 0, 0, 0, 1, 1, 1, 1, 1, 0, 1, 1, 1, 0, 1] 
 
 Reachable states from S2 [0, 1, 0, 0, 1, 2, 0, 0, 0, 0, 1, 1, 2, 0, 0, 0, 0, 1, 1, 1, 2, 1, 0, 0, 0, 0, 1, 1, 1, 1, 1, 0, 1, 1, 1, 0, 1] 
 T3 => S3 [0, 0, 1, 1, 0, 2, 0, 0, 0, 0, 1, 1, 2, 0, 0, 0, 0, 1, 1, 1, 2, 1, 1, 1, 1, 1, 0, 0, 1, 0, 1, 1, 1, 1, 1, 1, 1] 
 
 Reachable states from S3 [0, 0, 1, 1, 0, 2, 0, 0, 0, 0, 1, 1, 2, 0, 0, 0, 0, 1, 1, 1, 2, 1, 1, 1, 1, 1, 0, 0, 1, 0, 1, 1, 1, 1, 1, 1, 1] 
 T4 => S0 [0, 0, 0, 1, 1, 3, 0, 0, 0, 0, 1, 1, 2, 0, 0, 0, 0, 1, 1, 1, 2, 1, 1, 1, 1, 1, 1, 1, 1, 1, 1, 1, 1, 1, 1, 1, 1] 
 T1 => S4 [1, 0, 1, 1, 0, 1, 0, 0, 0, 0, 1, 1, 2, 0, 0, 0, 0, 1, 1, 1, 2, 1, 1, 1, 1, 1, 0, 0, 0, 0, 0, 1, 0, 0, 1, 0, 1] 
 T10 => S6 [0, 0, 1, 1, 0, 2, 0, 0, 0, 0, 1, 1, 2, 1, 0, 0, 0, 1, 1, 0, 1, 1, 1, 1, 1, 1, 0, 0, 0, 0, 1, 0, 1, 1, 1, 1, 0] 
 
 Reachable states from S4 [1, 0, 1, 1, 0, 1, 0, 0, 0, 0, 1, 1, 2, 0, 0, 0, 0, 1, 1, 1, 2, 1, 1, 1, 1, 1, 0, 0, 0, 0, 0, 1, 0, 0, 1, 0, 1] 
 T4 => S1 [1, 0, 0, 1, 1, 2, 0, 0, 0, 0, 1, 1, 2, 0, 0, 0, 0, 1, 1, 1, 2, 1, 1, 1, 1, 1, 1, 1, 0, 1, 0, 1, 0, 0, 1, 0, 1] 
 T2 => S5 [0, 1, 1, 0, 0, 1, 0, 0, 0, 0, 1, 1, 2, 0, 0, 0, 0, 1, 1, 1, 2, 1, 0, 0, 0, 0, 0, 0, 1, 0, 1, 0, 1, 1, 1, 0, 1] 
 
 Reachable states from S5 [0, 1, 1, 0, 0, 1, 0, 0, 0, 0, 1, 1, 2, 0, 0, 0, 0, 1, 1, 1, 2, 1, 0, 0, 0, 0, 0, 0, 1, 0, 1, 0, 1, 1, 1, 0, 1] 
 T4 => S2 [0, 1, 0, 0, 1, 2, 0, 0, 0, 0, 1, 1, 2, 0, 0, 0, 0, 1, 1, 1, 2, 1, 0, 0, 0, 0, 1, 1, 1, 1, 1, 0, 1, 1, 1, 0, 1] 
 
 Reachable states from S6 [0, 0, 1, 1, 0, 2, 0, 0, 0, 0, 1, 1, 2, 1, 0, 0, 0, 1, 1, 0, 1, 1, 1, 1, 1, 1, 0, 0, 0, 0, 1, 0, 1, 1, 1, 1, 0] 
 T4 => S7 [0, 0, 0, 1, 1, 3, 0, 0, 0, 0, 1, 1, 2, 1, 0, 0, 0, 1, 1, 0, 1, 1, 1, 1, 1, 1, 1, 1, 0, 1, 1, 0, 1, 1, 1, 1, 0] 
 
 Reachable states from S7 [0, 0, 0, 1, 1, 3, 0, 0, 0, 0, 1, 1, 2, 1, 0, 0, 0, 1, 1, 0, 1, 1, 1, 1, 1, 1, 1, 1, 0, 1, 1, 0, 1, 1, 1, 1, 0] 
 T11 => S8 [0, 0, 0, 1, 1, 3, 0, 0, 0, 0, 1, 1, 2, 0, 1, 0, 0, 0, 1, 1, 1, 1, 1, 0, 1, 1, 0, 1, 1, 1, 1, 1, 1, 1, 1, 0, 0] 
 
 Reachable states from S8 [0, 0, 0, 1, 1, 3, 0, 0, 0, 0, 1, 1, 2, 0, 1, 0, 0, 0, 1, 1, 1, 1, 1, 0, 1, 1, 0, 1, 1, 1, 1, 1, 1, 1, 1, 0, 0] 
 T12 => S9 [0, 0, 0, 1, 1, 3, 0, 0, 0, 0, 1, 1, 2, 0, 0, 1, 0, 1, 0, 1, 1, 0, 1, 1, 0, 1, 1, 1, 1, 1, 1, 1, 1, 0, 0, 1, 1] 
 
 Reachable states from S9 [0, 0, 0, 1, 1, 3, 0, 0, 0, 0, 1, 1, 2, 0, 0, 1, 0, 1, 0, 1, 1, 0, 1, 1, 0, 1, 1, 1, 1, 1, 1, 1, 1, 0, 0, 1, 1] 
 T10 => S10 [0, 0, 0, 1, 1, 3, 0, 0, 0, 0, 1, 1, 2, 1, 0, 1, 0, 1, 0, 0, 0, 0, 1, 1, 0, 1, 1, 1, 0, 1, 1, 0, 1, 0, 0, 1, 0] 
 T13 => S15 [0, 0, 0, 1, 1, 3, 0, 0, 0, 0, 1, 1, 2, 0, 0, 0, 1, 1, 1, 1, 1, 1, 1, 1, 1, 1, 1, 0, 1, 0, 0, 1, 1, 1, 1, 1, 1] 
 
 Reachable states from S10 [0, 0, 0, 1, 1, 3, 0, 0, 0, 0, 1, 1, 2, 1, 0, 1, 0, 1, 0, 0, 0, 0, 1, 1, 0, 1, 1, 1, 0, 1, 1, 0, 1, 0, 0, 1, 0] 
 T11 => S11 [0, 0, 0, 1, 1, 3, 0, 0, 0, 0, 1, 1, 2, 0, 1, 1, 0, 0, 0, 1, 0, 0, 1, 0, 0, 1, 0, 1, 1, 1, 1, 1, 1, 0, 0, 0, 0] 
 T13 => S14 [0, 0, 0, 1, 1, 3, 0, 0, 0, 0, 1, 1, 2, 1, 0, 0, 1, 1, 1, 0, 0, 1, 1, 1, 1, 1, 1, 0, 0, 0, 0, 0, 1, 1, 1, 1, 0] 
 
 Reachable states from S11 [0, 0, 0, 1, 1, 3, 0, 0, 0, 0, 1, 1, 2, 0, 1, 1, 0, 0, 0, 1, 0, 0, 1, 0, 0, 1, 0, 1, 1, 1, 1, 1, 1, 0, 0, 0, 0] 
 T13 => S12 [0, 0, 0, 1, 1, 3, 0, 0, 0, 0, 1, 1, 2, 0, 1, 0, 1, 0, 1, 1, 0, 1, 1, 0, 1, 1, 0, 0, 1, 0, 0, 1, 1, 1, 1, 0, 0] 
 
 Reachable states from S12 [0, 0, 0, 1, 1, 3, 0, 0, 0, 0, 1, 1, 2, 0, 1, 0, 1, 0, 1, 1, 0, 1, 1, 0, 1, 1, 0, 0, 1, 0, 0, 1, 1, 1, 1, 0, 0] 
 T14 => S8 [0, 0, 0, 1, 1, 3, 0, 0, 0, 0, 1, 1, 2, 0, 1, 0, 0, 0, 1, 1, 1, 1, 1, 0, 1, 1, 0, 1, 1, 1, 1, 1, 1, 1, 1, 0, 0] 
 T12 => S13 [0, 0, 0, 1, 1, 3, 0, 0, 0, 0, 1, 1, 2, 0, 0, 1, 1, 1, 0, 1, 0, 0, 1, 1, 0, 1, 1, 0, 1, 0, 0, 1, 1, 0, 0, 1, 1] 
 
 Reachable states from S13 [0, 0, 0, 1, 1, 3, 0, 0, 0, 0, 1, 1, 2, 0, 0, 1, 1, 1, 0, 1, 0, 0, 1, 1, 0, 1, 1, 0, 1, 0, 0, 1, 1, 0, 0, 1, 1] 
 T14 => S9 [0, 0, 0, 1, 1, 3, 0, 0, 0, 0, 1, 1, 2, 0, 0, 1, 0, 1, 0, 1, 1, 0, 1, 1, 0, 1, 1, 1, 1, 1, 1, 1, 1, 0, 0, 1, 1] 
 
 Reachable states from S14 [0, 0, 0, 1, 1, 3, 0, 0, 0, 0, 1, 1, 2, 1, 0, 0, 1, 1, 1, 0, 0, 1, 1, 1, 1, 1, 1, 0, 0, 0, 0, 0, 1, 1, 1, 1, 0] 
 T14 => S7 [0, 0, 0, 1, 1, 3, 0, 0, 0, 0, 1, 1, 2, 1, 0, 0, 0, 1, 1, 0, 1, 1, 1, 1, 1, 1, 1, 1, 0, 1, 1, 0, 1, 1, 1, 1, 0] 
 T11 => S12 [0, 0, 0, 1, 1, 3, 0, 0, 0, 0, 1, 1, 2, 0, 1, 0, 1, 0, 1, 1, 0, 1, 1, 0, 1, 1, 0, 0, 1, 0, 0, 1, 1, 1, 1, 0, 0] 
 
 Reachable states from S15 [0, 0, 0, 1, 1, 3, 0, 0, 0, 0, 1, 1, 2, 0, 0, 0, 1, 1, 1, 1, 1, 1, 1, 1, 1, 1, 1, 0, 1, 0, 0, 1, 1, 1, 1, 1, 1] 
 T14 => S0 [0, 0, 0, 1, 1, 3, 0, 0, 0, 0, 1, 1, 2, 0, 0, 0, 0, 1, 1, 1, 2, 1, 1, 1, 1, 1, 1, 1, 1, 1, 1, 1, 1, 1, 1, 1, 1] 
 T10 => S14 [0, 0, 0, 1, 1, 3, 0, 0, 0, 0, 1, 1, 2, 1, 0, 0, 1, 1, 1, 0, 0, 1, 1, 1, 1, 1, 1, 0, 0, 0, 0, 0, 1, 1, 1, 1, 0] 
 
 Reachable states from S16 [0, 0, 0, 1, 1, 3, 1, 0, 0, 0, 1, 1, 1, 0, 0, 0, 0, 1, 1, 1, 2, 1, 1, 1, 1, 0, 1, 1, 1, 0, 1, 1, 0, 1, 0, 1, 0] 
 T6 => S17 [0, 0, 0, 1, 1, 3, 0, 1, 0, 0, 0, 1, 1, 0, 0, 0, 0, 1, 1, 1, 2, 0, 1, 1, 1, 1, 1, 1, 0, 1, 1, 1, 1, 1, 1, 1, 1] 
 
 Reachable states from S17 [0, 0, 0, 1, 1, 3, 0, 1, 0, 0, 0, 1, 1, 0, 0, 0, 0, 1, 1, 1, 2, 0, 1, 1, 1, 1, 1, 1, 0, 1, 1, 1, 1, 1, 1, 1, 1] 
 T5 => S18 [0, 0, 0, 1, 1, 3, 1, 1, 0, 0, 0, 1, 0, 0, 0, 0, 0, 1, 1, 1, 2, 0, 1, 1, 1, 0, 1, 1, 0, 0, 1, 1, 0, 1, 0, 1, 0] 
 T7 => S23 [0, 0, 0, 1, 1, 3, 0, 0, 1, 0, 1, 1, 1, 0, 0, 0, 0, 1, 1, 1, 2, 1, 0, 1, 1, 1, 1, 1, 1, 1, 0, 1, 1, 1, 1, 1, 1] 
 
 Reachable states from S18 [0, 0, 0, 1, 1, 3, 1, 1, 0, 0, 0, 1, 0, 0, 0, 0, 0, 1, 1, 1, 2, 0, 1, 1, 1, 0, 1, 1, 0, 0, 1, 1, 0, 1, 0, 1, 0] 
 T7 => S19 [0, 0, 0, 1, 1, 3, 1, 0, 1, 0, 1, 1, 0, 0, 0, 0, 0, 1, 1, 1, 2, 1, 0, 1, 1, 0, 1, 1, 1, 0, 0, 1, 0, 1, 0, 1, 0] 
 
 Reachable states from S19 [0, 0, 0, 1, 1, 3, 1, 0, 1, 0, 1, 1, 0, 0, 0, 0, 0, 1, 1, 1, 2, 1, 0, 1, 1, 0, 1, 1, 1, 0, 0, 1, 0, 1, 0, 1, 0] 
 T6 => S20 [0, 0, 0, 1, 1, 3, 0, 1, 1, 0, 0, 1, 0, 0, 0, 0, 0, 1, 1, 1, 2, 0, 0, 1, 1, 1, 1, 1, 0, 1, 0, 1, 1, 1, 1, 1, 1] 
 T8 => S26 [0, 0, 0, 1, 1, 3, 1, 0, 0, 1, 1, 0, 0, 0, 0, 0, 0, 1, 1, 1, 2, 1, 1, 1, 1, 0, 1, 1, 1, 0, 1, 0, 0, 1, 0, 1, 0] 
 
 Reachable states from S20 [0, 0, 0, 1, 1, 3, 0, 1, 1, 0, 0, 1, 0, 0, 0, 0, 0, 1, 1, 1, 2, 0, 0, 1, 1, 1, 1, 1, 0, 1, 0, 1, 1, 1, 1, 1, 1] 
 T8 => S21 [0, 0, 0, 1, 1, 3, 0, 1, 0, 1, 0, 0, 0, 0, 0, 0, 0, 1, 1, 1, 2, 0, 1, 1, 1, 1, 1, 1, 0, 1, 1, 0, 1, 1, 1, 1, 1] 
 
 Reachable states from S21 [0, 0, 0, 1, 1, 3, 0, 1, 0, 1, 0, 0, 0, 0, 0, 0, 0, 1, 1, 1, 2, 0, 1, 1, 1, 1, 1, 1, 0, 1, 1, 0, 1, 1, 1, 1, 1] 
 T9 => S17 [0, 0, 0, 1, 1, 3, 0, 1, 0, 0, 0, 1, 1, 0, 0, 0, 0, 1, 1, 1, 2, 0, 1, 1, 1, 1, 1, 1, 0, 1, 1, 1, 1, 1, 1, 1, 1] 
 T7 => S22 [0, 0, 0, 1, 1, 3, 0, 0, 1, 1, 1, 0, 0, 0, 0, 0, 0, 1, 1, 1, 2, 1, 0, 1, 1, 1, 1, 1, 1, 1, 0, 0, 1, 1, 1, 1, 1] 
 
 Reachable states from S22 [0, 0, 0, 1, 1, 3, 0, 0, 1, 1, 1, 0, 0, 0, 0, 0, 0, 1, 1, 1, 2, 1, 0, 1, 1, 1, 1, 1, 1, 1, 0, 0, 1, 1, 1, 1, 1] 
 T9 => S23 [0, 0, 0, 1, 1, 3, 0, 0, 1, 0, 1, 1, 1, 0, 0, 0, 0, 1, 1, 1, 2, 1, 0, 1, 1, 1, 1, 1, 1, 1, 0, 1, 1, 1, 1, 1, 1] 
 
 Reachable states from S23 [0, 0, 0, 1, 1, 3, 0, 0, 1, 0, 1, 1, 1, 0, 0, 0, 0, 1, 1, 1, 2, 1, 0, 1, 1, 1, 1, 1, 1, 1, 0, 1, 1, 1, 1, 1, 1] 
 T5 => S19 [0, 0, 0, 1, 1, 3, 1, 0, 1, 0, 1, 1, 0, 0, 0, 0, 0, 1, 1, 1, 2, 1, 0, 1, 1, 0, 1, 1, 1, 0, 0, 1, 0, 1, 0, 1, 0] 
 T8 => S24 [0, 0, 0, 1, 1, 3, 0, 0, 0, 1, 1, 0, 1, 0, 0, 0, 0, 1, 1, 1, 2, 1, 1, 1, 1, 1, 1, 1, 1, 1, 1, 0, 1, 1, 1, 1, 1] 
 T10 => S27 [0, 0, 0, 1, 1, 3, 0, 0, 1, 0, 1, 1, 1, 1, 0, 0, 0, 1, 1, 0, 1, 1, 0, 1, 1, 1, 1, 1, 0, 1, 0, 0, 1, 1, 1, 1, 0] 
 
 Reachable states from S24 [0, 0, 0, 1, 1, 3, 0, 0, 0, 1, 1, 0, 1, 0, 0, 0, 0, 1, 1, 1, 2, 1, 1, 1, 1, 1, 1, 1, 1, 1, 1, 0, 1, 1, 1, 1, 1] 
 T9 => S0 [0, 0, 0, 1, 1, 3, 0, 0, 0, 0, 1, 1, 2, 0, 0, 0, 0, 1, 1, 1, 2, 1, 1, 1, 1, 1, 1, 1, 1, 1, 1, 1, 1, 1, 1, 1, 1] 
 T1 => S25 [1, 0, 0, 1, 1, 2, 0, 0, 0, 1, 1, 0, 1, 0, 0, 0, 0, 1, 1, 1, 2, 1, 1, 1, 1, 1, 1, 1, 0, 1, 0, 0, 0, 0, 1, 0, 1] 
 T5 => S26 [0, 0, 0, 1, 1, 3, 1, 0, 0, 1, 1, 0, 0, 0, 0, 0, 0, 1, 1, 1, 2, 1, 1, 1, 1, 0, 1, 1, 1, 0, 1, 0, 0, 1, 0, 1, 0] 
 
 Reachable states from S25 [1, 0, 0, 1, 1, 2, 0, 0, 0, 1, 1, 0, 1, 0, 0, 0, 0, 1, 1, 1, 2, 1, 1, 1, 1, 1, 1, 1, 0, 1, 0, 0, 0, 0, 1, 0, 1] 
 T9 => S1 [1, 0, 0, 1, 1, 2, 0, 0, 0, 0, 1, 1, 2, 0, 0, 0, 0, 1, 1, 1, 2, 1, 1, 1, 1, 1, 1, 1, 0, 1, 0, 1, 0, 0, 1, 0, 1] 
 
 Reachable states from S26 [0, 0, 0, 1, 1, 3, 1, 0, 0, 1, 1, 0, 0, 0, 0, 0, 0, 1, 1, 1, 2, 1, 1, 1, 1, 0, 1, 1, 1, 0, 1, 0, 0, 1, 0, 1, 0] 
 T9 => S16 [0, 0, 0, 1, 1, 3, 1, 0, 0, 0, 1, 1, 1, 0, 0, 0, 0, 1, 1, 1, 2, 1, 1, 1, 1, 0, 1, 1, 1, 0, 1, 1, 0, 1, 0, 1, 0] 
 T6 => S21 [0, 0, 0, 1, 1, 3, 0, 1, 0, 1, 0, 0, 0, 0, 0, 0, 0, 1, 1, 1, 2, 0, 1, 1, 1, 1, 1, 1, 0, 1, 1, 0, 1, 1, 1, 1, 1] 
 
 Reachable states from S27 [0, 0, 0, 1, 1, 3, 0, 0, 1, 0, 1, 1, 1, 1, 0, 0, 0, 1, 1, 0, 1, 1, 0, 1, 1, 1, 1, 1, 0, 1, 0, 0, 1, 1, 1, 1, 0] 
 T11 => S28 [0, 0, 0, 1, 1, 3, 0, 0, 1, 0, 1, 1, 1, 0, 1, 0, 0, 0, 1, 1, 1, 1, 0, 0, 1, 1, 0, 1, 1, 1, 0, 1, 1, 1, 1, 0, 0] 
 
 Reachable states from S28 [0, 0, 0, 1, 1, 3, 0, 0, 1, 0, 1, 1, 1, 0, 1, 0, 0, 0, 1, 1, 1, 1, 0, 0, 1, 1, 0, 1, 1, 1, 0, 1, 1, 1, 1, 0, 0] 
 T8 => S29 [0, 0, 0, 1, 1, 3, 0, 0, 0, 1, 1, 0, 1, 0, 1, 0, 0, 0, 1, 1, 1, 1, 1, 0, 1, 1, 0, 1, 1, 1, 1, 0, 1, 1, 1, 0, 0] 
 T12 => S32 [0, 0, 0, 1, 1, 3, 0, 0, 1, 0, 1, 1, 1, 0, 0, 1, 0, 1, 0, 1, 1, 0, 0, 1, 0, 1, 1, 1, 1, 1, 0, 1, 1, 0, 0, 1, 1] 
 
 Reachable states from S29 [0, 0, 0, 1, 1, 3, 0, 0, 0, 1, 1, 0, 1, 0, 1, 0, 0, 0, 1, 1, 1, 1, 1, 0, 1, 1, 0, 1, 1, 1, 1, 0, 1, 1, 1, 0, 0] 
 T9 => S8 [0, 0, 0, 1, 1, 3, 0, 0, 0, 0, 1, 1, 2, 0, 1, 0, 0, 0, 1, 1, 1, 1, 1, 0, 1, 1, 0, 1, 1, 1, 1, 1, 1, 1, 1, 0, 0] 
 T12 => S30 [0, 0, 0, 1, 1, 3, 0, 0, 0, 1, 1, 0, 1, 0, 0, 1, 0, 1, 0, 1, 1, 0, 1, 1, 0, 1, 1, 1, 1, 1, 1, 0, 1, 0, 0, 1, 1] 
 
 Reachable states from S30 [0, 0, 0, 1, 1, 3, 0, 0, 0, 1, 1, 0, 1, 0, 0, 1, 0, 1, 0, 1, 1, 0, 1, 1, 0, 1, 1, 1, 1, 1, 1, 0, 1, 0, 0, 1, 1] 
 T9 => S9 [0, 0, 0, 1, 1, 3, 0, 0, 0, 0, 1, 1, 2, 0, 0, 1, 0, 1, 0, 1, 1, 0, 1, 1, 0, 1, 1, 1, 1, 1, 1, 1, 1, 0, 0, 1, 1] 
 T13 => S31 [0, 0, 0, 1, 1, 3, 0, 0, 0, 1, 1, 0, 1, 0, 0, 0, 1, 1, 1, 1, 1, 1, 1, 1, 1, 1, 1, 0, 1, 0, 0, 0, 1, 1, 1, 1, 1] 
 
 Reachable states from S31 [0, 0, 0, 1, 1, 3, 0, 0, 0, 1, 1, 0, 1, 0, 0, 0, 1, 1, 1, 1, 1, 1, 1, 1, 1, 1, 1, 0, 1, 0, 0, 0, 1, 1, 1, 1, 1] 
 T9 => S15 [0, 0, 0, 1, 1, 3, 0, 0, 0, 0, 1, 1, 2, 0, 0, 0, 1, 1, 1, 1, 1, 1, 1, 1, 1, 1, 1, 0, 1, 0, 0, 1, 1, 1, 1, 1, 1] 
 T14 => S24 [0, 0, 0, 1, 1, 3, 0, 0, 0, 1, 1, 0, 1, 0, 0, 0, 0, 1, 1, 1, 2, 1, 1, 1, 1, 1, 1, 1, 1, 1, 1, 0, 1, 1, 1, 1, 1] 
 
 Reachable states from S32 [0, 0, 0, 1, 1, 3, 0, 0, 1, 0, 1, 1, 1, 0, 0, 1, 0, 1, 0, 1, 1, 0, 0, 1, 0, 1, 1, 1, 1, 1, 0, 1, 1, 0, 0, 1, 1] 
 T8 => S30 [0, 0, 0, 1, 1, 3, 0, 0, 0, 1, 1, 0, 1, 0, 0, 1, 0, 1, 0, 1, 1, 0, 1, 1, 0, 1, 1, 1, 1, 1, 1, 0, 1, 0, 0, 1, 1] 
 T10 => S33 [0, 0, 0, 1, 1, 3, 0, 0, 1, 0, 1, 1, 1, 1, 0, 1, 0, 1, 0, 0, 0, 0, 0, 1, 0, 1, 1, 1, 0, 1, 0, 0, 1, 0, 0, 1, 0] 
 
 Reachable states from S33 [0, 0, 0, 1, 1, 3, 0, 0, 1, 0, 1, 1, 1, 1, 0, 1, 0, 1, 0, 0, 0, 0, 0, 1, 0, 1, 1, 1, 0, 1, 0, 0, 1, 0, 0, 1, 0] 
 T11 => S34 [0, 0, 0, 1, 1, 3, 0, 0, 1, 0, 1, 1, 1, 0, 1, 1, 0, 0, 0, 1, 0, 0, 0, 0, 0, 1, 0, 1, 1, 1, 0, 1, 1, 0, 0, 0, 0] 
 
 Reachable states from S34 [0, 0, 0, 1, 1, 3, 0, 0, 1, 0, 1, 1, 1, 0, 1, 1, 0, 0, 0, 1, 0, 0, 0, 0, 0, 1, 0, 1, 1, 1, 0, 1, 1, 0, 0, 0, 0] 
 T8 => S35 [0, 0, 0, 1, 1, 3, 0, 0, 0, 1, 1, 0, 1, 0, 1, 1, 0, 0, 0, 1, 0, 0, 1, 0, 0, 1, 0, 1, 1, 1, 1, 0, 1, 0, 0, 0, 0] 
 
 Reachable states from S35 [0, 0, 0, 1, 1, 3, 0, 0, 0, 1, 1, 0, 1, 0, 1, 1, 0, 0, 0, 1, 0, 0, 1, 0, 0, 1, 0, 1, 1, 1, 1, 0, 1, 0, 0, 0, 0] 
 T9 => S11 [0, 0, 0, 1, 1, 3, 0, 0, 0, 0, 1, 1, 2, 0, 1, 1, 0, 0, 0, 1, 0, 0, 1, 0, 0, 1, 0, 1, 1, 1, 1, 1, 1, 0, 0, 0, 0] 
 T13 => S36 [0, 0, 0, 1, 1, 3, 0, 0, 0, 1, 1, 0, 1, 0, 1, 0, 1, 0, 1, 1, 0, 1, 1, 0, 1, 1, 0, 0, 1, 0, 0, 0, 1, 1, 1, 0, 0] 
 
 Reachable states from S36 [0, 0, 0, 1, 1, 3, 0, 0, 0, 1, 1, 0, 1, 0, 1, 0, 1, 0, 1, 1, 0, 1, 1, 0, 1, 1, 0, 0, 1, 0, 0, 0, 1, 1, 1, 0, 0] 
 T9 => S12 [0, 0, 0, 1, 1, 3, 0, 0, 0, 0, 1, 1, 2, 0, 1, 0, 1, 0, 1, 1, 0, 1, 1, 0, 1, 1, 0, 0, 1, 0, 0, 1, 1, 1, 1, 0, 0] 
 T14 => S29 [0, 0, 0, 1, 1, 3, 0, 0, 0, 1, 1, 0, 1, 0, 1, 0, 0, 0, 1, 1, 1, 1, 1, 0, 1, 1, 0, 1, 1, 1, 1, 0, 1, 1, 1, 0, 0] 
 T12 => S37 [0, 0, 0, 1, 1, 3, 0, 0, 0, 1, 1, 0, 1, 0, 0, 1, 1, 1, 0, 1, 0, 0, 1, 1, 0, 1, 1, 0, 1, 0, 0, 0, 1, 0, 0, 1, 1] 
 
 Reachable states from S37 [0, 0, 0, 1, 1, 3, 0, 0, 0, 1, 1, 0, 1, 0, 0, 1, 1, 1, 0, 1, 0, 0, 1, 1, 0, 1, 1, 0, 1, 0, 0, 0, 1, 0, 0, 1, 1] 
 T9 => S13 [0, 0, 0, 1, 1, 3, 0, 0, 0, 0, 1, 1, 2, 0, 0, 1, 1, 1, 0, 1, 0, 0, 1, 1, 0, 1, 1, 0, 1, 0, 0, 1, 1, 0, 0, 1, 1] 
 T14 => S30 [0, 0, 0, 1, 1, 3, 0, 0, 0, 1, 1, 0, 1, 0, 0, 1, 0, 1, 0, 1, 1, 0, 1, 1, 0, 1, 1, 1, 1, 1, 1, 0, 1, 0, 0, 1, 1] 
