11/09/2021 18:11:13[DEBUG] pflow_file:  ../analysis/analisis_23/20210910-223944_3/net.pflow  
11/09/2021 18:11:13[DEBUG] output_folder:  ../analysis/analisis_23/20210910-223944_3/  
11/09/2021 18:11:13[DEBUG] html_path:  ../analysis/analisis_23/20210910-223944_3/  
11/09/2021 18:11:13[DEBUG] txt_path:  ../analysis/analisis_23/20210910-223944_3/txt_info  

--------------------------------------------------------------------------   
11/09/2021 18:11:13[INFO] Ejecutando petrinator para conocer estado de la red...   
--------------------------------------------------------------------------
   
11/09/2021 18:11:22[INFO] SIFONES   
+----+-----+-------------------------------------------------------------+
| ID | Nro |                            Plazas                           |
+----+-----+-------------------------------------------------------------+
| 0  |  21 |           ['P1', 'P3', 'P9', 'P15', 'P29', 'P30']           |
| 1  |  22 |           ['P3', 'P5', 'P9', 'P15', 'P29', 'P30']           |
| 2  |  25 |           ['P3', 'P9', 'P15', 'P17', 'P28', 'P30']          |
| 3  |  26 |              ['P3', 'P9', 'P17', 'P22', 'P28']              |
| 4  |  28 |       ['P3', 'P9', 'P15', 'P17', 'P26', 'P29', 'P30']       |
| 5  |  12 |              ['P1', 'P9', 'P17', 'P19', 'P27']              |
| 6  |  31 |        ['P1', 'P3', 'P9', 'P17', 'P19', 'P22', 'P27']       |
| 7  |  32 |        ['P1', 'P2', 'P3', 'P9', 'P17', 'P19', 'P27']        |
| 8  |  37 |    ['P1', 'P3', 'P9', 'P10', 'P17', 'P19', 'P22', 'P27']    |
| 9  |  38 |     ['P1', 'P2', 'P3', 'P9', 'P10', 'P17', 'P19', 'P27']    |
| 10 |  45 |     ['P1', 'P3', 'P4', 'P9', 'P17', 'P19', 'P22', 'P27']    |
| 11 |  46 |     ['P1', 'P2', 'P3', 'P4', 'P9', 'P17', 'P19', 'P27']     |
| 12 |  51 | ['P1', 'P3', 'P4', 'P9', 'P10', 'P17', 'P19', 'P22', 'P27'] |
| 13 |  52 |  ['P1', 'P2', 'P3', 'P4', 'P9', 'P10', 'P17', 'P19', 'P27'] |
| 14 |  17 |           ['P3', 'P9', 'P17', 'P27', 'P28', 'P30']          |
| 15 |  29 |           ['P3', 'P9', 'P17', 'P26', 'P27', 'P30']          |
| 16 |  33 |        ['P3', 'P5', 'P9', 'P17', 'P19', 'P27', 'P30']       |
| 17 |  34 |        ['P3', 'P5', 'P9', 'P17', 'P19', 'P22', 'P27']       |
| 18 |  36 |           ['P3', 'P9', 'P17', 'P22', 'P26', 'P27']          |
| 19 |  39 |    ['P3', 'P5', 'P9', 'P10', 'P17', 'P19', 'P22', 'P27']    |
| 20 |  41 |       ['P3', 'P9', 'P10', 'P17', 'P22', 'P26', 'P27']       |
| 21 |  47 |     ['P3', 'P4', 'P5', 'P9', 'P17', 'P19', 'P22', 'P27']    |
| 22 |  49 |        ['P3', 'P4', 'P9', 'P17', 'P22', 'P26', 'P27']       |
| 23 |  53 | ['P3', 'P4', 'P5', 'P9', 'P10', 'P17', 'P19', 'P22', 'P27'] |
| 24 |  55 |    ['P3', 'P4', 'P9', 'P10', 'P17', 'P22', 'P26', 'P27']    |
+----+-----+-------------------------------------------------------------+ 

11/09/2021 18:11:22[INFO] T INVARIANTES   
+----+----+----+----+----+----+----+----+----+----+-----+-----+-----+-----+
| T0 | T1 | T2 | T3 | T4 | T5 | T6 | T7 | T8 | T9 | T10 | T11 | T12 | T13 |
+----+----+----+----+----+----+----+----+----+----+-----+-----+-----+-----+
| 1  | 1  | 1  | 1  | 1  | 0  | 0  | 0  | 0  | 0  |  0  |  0  |  0  |  0  |
| 0  | 0  | 0  | 0  | 0  | 1  | 1  | 1  | 1  | 0  |  0  |  0  |  0  |  0  |
| 0  | 0  | 0  | 0  | 0  | 0  | 0  | 0  | 0  | 1  |  1  |  1  |  1  |  1  |
+----+----+----+----+----+----+----+----+----+----+-----+-----+-----+-----+ 

11/09/2021 18:11:22[INFO] Supervisores para agregar   
+-----+---------+---------------------+---------------------+-------------------------------------------------------------+
|  ID | Marcado |     T - Entrada     |      T - Salida     |                      Sifon a controlar                      |
+-----+---------+---------------------+---------------------+-------------------------------------------------------------+
| P31 |    1    |    ['T7', 'T11']    |    ['T6', 'T10']    |           ['P1', 'P3', 'P9', 'P15', 'P29', 'P30']           |
| P31 |    2    | ['T3', 'T7', 'T11'] | ['T1', 'T6', 'T10'] |           ['P3', 'P5', 'P9', 'P15', 'P29', 'P30']           |
| P31 |    1    |     ['T3', 'T7']    |     ['T2', 'T6']    |           ['P3', 'P9', 'P15', 'P17', 'P28', 'P30']          |
| P31 |    1    |     ['T3', 'T7']    |     ['T2', 'T6']    |              ['P3', 'P9', 'P17', 'P22', 'P28']              |
| P31 |    2    | ['T3', 'T7', 'T11'] | ['T1', 'T6', 'T10'] |       ['P3', 'P9', 'P15', 'P17', 'P26', 'P29', 'P30']       |
| P31 |    1    |    ['T7', 'T13']    |    ['T6', 'T12']    |              ['P1', 'P9', 'P17', 'P19', 'P27']              |
| P31 |    2    |    ['T7', 'T13']    |    ['T6', 'T12']    |        ['P1', 'P3', 'P9', 'P17', 'P19', 'P22', 'P27']       |
| P31 |    1    | ['T2', 'T7', 'T13'] | ['T4', 'T6', 'T12'] |        ['P1', 'P2', 'P3', 'P9', 'P17', 'P19', 'P27']        |
| P31 |    2    |    ['T7', 'T13']    |    ['T6', 'T12']    |    ['P1', 'P3', 'P9', 'P10', 'P17', 'P19', 'P22', 'P27']    |
| P31 |    1    | ['T2', 'T7', 'T13'] | ['T4', 'T6', 'T12'] |     ['P1', 'P2', 'P3', 'P9', 'P10', 'P17', 'P19', 'P27']    |
| P31 |    2    | ['T4', 'T7', 'T13'] | ['T5', 'T6', 'T12'] |     ['P1', 'P3', 'P4', 'P9', 'P17', 'P19', 'P22', 'P27']    |
| P31 |    1    | ['T2', 'T7', 'T13'] | ['T5', 'T6', 'T12'] |     ['P1', 'P2', 'P3', 'P4', 'P9', 'P17', 'P19', 'P27']     |
| P31 |    2    | ['T4', 'T7', 'T13'] | ['T5', 'T6', 'T12'] | ['P1', 'P3', 'P4', 'P9', 'P10', 'P17', 'P19', 'P22', 'P27'] |
| P31 |    1    | ['T2', 'T7', 'T13'] | ['T5', 'T6', 'T12'] |  ['P1', 'P2', 'P3', 'P4', 'P9', 'P10', 'P17', 'P19', 'P27'] |
| P31 |    2    | ['T3', 'T8', 'T13'] | ['T1', 'T6', 'T11'] |           ['P3', 'P9', 'P17', 'P27', 'P28', 'P30']          |
| P31 |    2    | ['T3', 'T7', 'T13'] | ['T1', 'T6', 'T11'] |           ['P3', 'P9', 'P17', 'P26', 'P27', 'P30']          |
| P31 |    3    | ['T3', 'T7', 'T13'] | ['T1', 'T6', 'T11'] |        ['P3', 'P5', 'P9', 'P17', 'P19', 'P27', 'P30']       |
| P31 |    3    | ['T3', 'T7', 'T13'] | ['T1', 'T6', 'T12'] |        ['P3', 'P5', 'P9', 'P17', 'P19', 'P22', 'P27']       |
| P31 |    2    | ['T3', 'T7', 'T13'] | ['T1', 'T6', 'T12'] |           ['P3', 'P9', 'P17', 'P22', 'P26', 'P27']          |
| P31 |    3    | ['T3', 'T7', 'T13'] | ['T1', 'T6', 'T12'] |    ['P3', 'P5', 'P9', 'P10', 'P17', 'P19', 'P22', 'P27']    |
| P31 |    2    | ['T3', 'T7', 'T13'] | ['T1', 'T6', 'T12'] |       ['P3', 'P9', 'P10', 'P17', 'P22', 'P26', 'P27']       |
| P31 |    3    | ['T3', 'T7', 'T13'] | ['T1', 'T6', 'T12'] |     ['P3', 'P4', 'P5', 'P9', 'P17', 'P19', 'P22', 'P27']    |
| P31 |    2    | ['T3', 'T7', 'T13'] | ['T1', 'T6', 'T12'] |        ['P3', 'P4', 'P9', 'P17', 'P22', 'P26', 'P27']       |
| P31 |    3    | ['T3', 'T7', 'T13'] | ['T1', 'T6', 'T12'] | ['P3', 'P4', 'P5', 'P9', 'P10', 'P17', 'P19', 'P22', 'P27'] |
| P31 |    2    | ['T3', 'T7', 'T13'] | ['T1', 'T6', 'T12'] |    ['P3', 'P4', 'P9', 'P10', 'P17', 'P22', 'P26', 'P27']    |
+-----+---------+---------------------+---------------------+-------------------------------------------------------------+ 

11/09/2021 18:11:22[INFO] Supervisores agregados   
+-----+-------+---------+-------------+------------+----------------+
| Nro | Plaza | Marcado | T - Entrada | T - Salida | MAL supervisor |
+-----+-------+---------+-------------+------------+----------------+
+-----+-------+---------+-------------+------------+----------------+ 

11/09/2021 18:11:22[INFO] Supervisores eliminados   
+-----+-------+---------+-------------+------------+----------------+
| Nro | Plaza | Marcado | T - Entrada | T - Salida | MAL supervisor |
+-----+-------+---------+-------------+------------+----------------+
+-----+-------+---------+-------------+------------+----------------+ 

11/09/2021 18:11:22[INFO] Ejecutando accion...   
11/09/2021 18:11:22[ACTION] Agrego supervisor con menor numero de arcos de salida (MNAS)   
11/09/2021 18:11:22[INFO] Supervisor con menor cantidad de arcos de salida agregado 0   

--------------------------------------------------------------------------   
11/09/2021 18:11:22[INFO] Ejecutando petrinator para conocer estado de la red...   
--------------------------------------------------------------------------
   
--------------------------------------------------------------------------
   
11/09/2021 18:11:30[INFO] Calculando recompensa..   
11/09/2021 18:11:30[REWARD] Agregue un supervisor que genero menos sifones vacios en deadlock, recompensa -1   

--------------------------------------------------------------------------
   
11/09/2021 18:11:30[STATE] Cambie al estado 2: Hay menos sifones vacios en deadlock   
+--------+---------+-------------------+----------------+---------+---------+------------------------------------+
| Plazas | Estados | Tokens trabajando | Sifones vacios | Sifones | Trampas | Cantidad de supervisores agregados |
+--------+---------+-------------------+----------------+---------+---------+------------------------------------+
|   31   |    85   |        216        |       22       |    57   |    39   |                 1                  |
+--------+---------+-------------------+----------------+---------+---------+------------------------------------+ 
+-----------------------------------------------------+------------------+-----------------------+---------------------------+------------------------------+
|                   Estados/Acciones                  | Agregar sup MNAS | Agregar sup aleatorio | Eliminar sup MAL agregado | Eliminar ultimo sup agregado |
+-----------------------------------------------------+------------------+-----------------------+---------------------------+------------------------------+
|                        Start                        |       -1.0       |          0.0          |            0.0            |             0.0              |
|        Más sifónes vacíos en estado deadlock        |       0.0        |          0.0          |            0.0            |             0.0              |
|       Menos sifónes vacíos en estado deadlock       |       0.0        |          0.0          |            0.0            |             0.0              |
| Igual cantidad de sifónes vacíos en estado deadlock |       0.0        |          0.0          |            0.0            |             0.0              |
|                         End                         |       0.0        |          0.0          |            0.0            |             0.0              |
+-----------------------------------------------------+------------------+-----------------------+---------------------------+------------------------------+ 

11/09/2021 18:11:30[INFO] SIFONES   
+----+-----+-------------------------------------------------------------+
| ID | Nro |                            Plazas                           |
+----+-----+-------------------------------------------------------------+
| 25 |  27 |           ['P3', 'P9', 'P15', 'P17', 'P28', 'P30']          |
| 26 |  28 |              ['P3', 'P9', 'P17', 'P22', 'P28']              |
| 27 |  13 |              ['P1', 'P9', 'P17', 'P19', 'P27']              |
| 28 |  33 |        ['P1', 'P3', 'P9', 'P17', 'P19', 'P22', 'P27']       |
| 29 |  34 |        ['P1', 'P2', 'P3', 'P9', 'P17', 'P19', 'P27']        |
| 30 |  39 |    ['P1', 'P3', 'P9', 'P10', 'P17', 'P19', 'P22', 'P27']    |
| 31 |  40 |     ['P1', 'P2', 'P3', 'P9', 'P10', 'P17', 'P19', 'P27']    |
| 32 |  47 |     ['P1', 'P3', 'P4', 'P9', 'P17', 'P19', 'P22', 'P27']    |
| 33 |  48 |     ['P1', 'P2', 'P3', 'P4', 'P9', 'P17', 'P19', 'P27']     |
| 34 |  53 | ['P1', 'P3', 'P4', 'P9', 'P10', 'P17', 'P19', 'P22', 'P27'] |
| 35 |  54 |  ['P1', 'P2', 'P3', 'P4', 'P9', 'P10', 'P17', 'P19', 'P27'] |
| 36 |  19 |           ['P3', 'P9', 'P17', 'P27', 'P28', 'P30']          |
| 37 |  31 |           ['P3', 'P9', 'P17', 'P26', 'P27', 'P30']          |
| 38 |  35 |        ['P3', 'P5', 'P9', 'P17', 'P19', 'P27', 'P30']       |
| 39 |  36 |        ['P3', 'P5', 'P9', 'P17', 'P19', 'P22', 'P27']       |
| 40 |  38 |           ['P3', 'P9', 'P17', 'P22', 'P26', 'P27']          |
| 41 |  41 |    ['P3', 'P5', 'P9', 'P10', 'P17', 'P19', 'P22', 'P27']    |
| 42 |  43 |       ['P3', 'P9', 'P10', 'P17', 'P22', 'P26', 'P27']       |
| 43 |  49 |     ['P3', 'P4', 'P5', 'P9', 'P17', 'P19', 'P22', 'P27']    |
| 44 |  51 |        ['P3', 'P4', 'P9', 'P17', 'P22', 'P26', 'P27']       |
| 45 |  55 | ['P3', 'P4', 'P5', 'P9', 'P10', 'P17', 'P19', 'P22', 'P27'] |
| 46 |  57 |    ['P3', 'P4', 'P9', 'P10', 'P17', 'P22', 'P26', 'P27']    |
+----+-----+-------------------------------------------------------------+ 

11/09/2021 18:11:30[INFO] T INVARIANTES   
+----+----+----+----+----+----+----+----+----+----+-----+-----+-----+-----+
| T0 | T1 | T2 | T3 | T4 | T5 | T6 | T7 | T8 | T9 | T10 | T11 | T12 | T13 |
+----+----+----+----+----+----+----+----+----+----+-----+-----+-----+-----+
| 1  | 1  | 1  | 1  | 1  | 0  | 0  | 0  | 0  | 0  |  0  |  0  |  0  |  0  |
| 0  | 0  | 0  | 0  | 0  | 1  | 1  | 1  | 1  | 0  |  0  |  0  |  0  |  0  |
| 0  | 0  | 0  | 0  | 0  | 0  | 0  | 0  | 0  | 1  |  1  |  1  |  1  |  1  |
+----+----+----+----+----+----+----+----+----+----+-----+-----+-----+-----+ 

11/09/2021 18:11:30[INFO] Supervisores para agregar   
+-----+---------+---------------------+---------------------+-------------------------------------------------------------+
|  ID | Marcado |     T - Entrada     |      T - Salida     |                      Sifon a controlar                      |
+-----+---------+---------------------+---------------------+-------------------------------------------------------------+
| P32 |    1    |     ['T3', 'T7']    |     ['T2', 'T6']    |           ['P3', 'P9', 'P15', 'P17', 'P28', 'P30']          |
| P32 |    1    |     ['T3', 'T7']    |     ['T2', 'T6']    |              ['P3', 'P9', 'P17', 'P22', 'P28']              |
| P32 |    1    |    ['T7', 'T13']    |    ['T6', 'T12']    |              ['P1', 'P9', 'P17', 'P19', 'P27']              |
| P32 |    2    |    ['T7', 'T13']    |    ['T6', 'T12']    |        ['P1', 'P3', 'P9', 'P17', 'P19', 'P22', 'P27']       |
| P32 |    1    | ['T2', 'T7', 'T13'] | ['T4', 'T6', 'T12'] |        ['P1', 'P2', 'P3', 'P9', 'P17', 'P19', 'P27']        |
| P32 |    2    |    ['T7', 'T13']    |    ['T6', 'T12']    |    ['P1', 'P3', 'P9', 'P10', 'P17', 'P19', 'P22', 'P27']    |
| P32 |    1    | ['T2', 'T7', 'T13'] | ['T4', 'T6', 'T12'] |     ['P1', 'P2', 'P3', 'P9', 'P10', 'P17', 'P19', 'P27']    |
| P32 |    2    | ['T4', 'T7', 'T13'] | ['T5', 'T6', 'T12'] |     ['P1', 'P3', 'P4', 'P9', 'P17', 'P19', 'P22', 'P27']    |
| P32 |    1    | ['T2', 'T7', 'T13'] | ['T5', 'T6', 'T12'] |     ['P1', 'P2', 'P3', 'P4', 'P9', 'P17', 'P19', 'P27']     |
| P32 |    2    | ['T4', 'T7', 'T13'] | ['T5', 'T6', 'T12'] | ['P1', 'P3', 'P4', 'P9', 'P10', 'P17', 'P19', 'P22', 'P27'] |
| P32 |    1    | ['T2', 'T7', 'T13'] | ['T5', 'T6', 'T12'] |  ['P1', 'P2', 'P3', 'P4', 'P9', 'P10', 'P17', 'P19', 'P27'] |
| P32 |    2    | ['T3', 'T8', 'T13'] | ['T1', 'T6', 'T11'] |           ['P3', 'P9', 'P17', 'P27', 'P28', 'P30']          |
| P32 |    2    | ['T3', 'T7', 'T13'] | ['T1', 'T6', 'T11'] |           ['P3', 'P9', 'P17', 'P26', 'P27', 'P30']          |
| P32 |    3    | ['T3', 'T7', 'T13'] | ['T1', 'T6', 'T11'] |        ['P3', 'P5', 'P9', 'P17', 'P19', 'P27', 'P30']       |
| P32 |    3    | ['T3', 'T7', 'T13'] | ['T1', 'T6', 'T12'] |        ['P3', 'P5', 'P9', 'P17', 'P19', 'P22', 'P27']       |
| P32 |    2    | ['T3', 'T7', 'T13'] | ['T1', 'T6', 'T12'] |           ['P3', 'P9', 'P17', 'P22', 'P26', 'P27']          |
| P32 |    3    | ['T3', 'T7', 'T13'] | ['T1', 'T6', 'T12'] |    ['P3', 'P5', 'P9', 'P10', 'P17', 'P19', 'P22', 'P27']    |
| P32 |    2    | ['T3', 'T7', 'T13'] | ['T1', 'T6', 'T12'] |       ['P3', 'P9', 'P10', 'P17', 'P22', 'P26', 'P27']       |
| P32 |    3    | ['T3', 'T7', 'T13'] | ['T1', 'T6', 'T12'] |     ['P3', 'P4', 'P5', 'P9', 'P17', 'P19', 'P22', 'P27']    |
| P32 |    2    | ['T3', 'T7', 'T13'] | ['T1', 'T6', 'T12'] |        ['P3', 'P4', 'P9', 'P17', 'P22', 'P26', 'P27']       |
| P32 |    3    | ['T3', 'T7', 'T13'] | ['T1', 'T6', 'T12'] | ['P3', 'P4', 'P5', 'P9', 'P10', 'P17', 'P19', 'P22', 'P27'] |
| P32 |    2    | ['T3', 'T7', 'T13'] | ['T1', 'T6', 'T12'] |    ['P3', 'P4', 'P9', 'P10', 'P17', 'P22', 'P26', 'P27']    |
+-----+---------+---------------------+---------------------+-------------------------------------------------------------+ 

11/09/2021 18:11:30[INFO] Supervisores agregados   
+-----+-------+---------+---------------+---------------+----------------+
| Nro | Plaza | Marcado |  T - Entrada  |   T - Salida  | MAL supervisor |
+-----+-------+---------+---------------+---------------+----------------+
|  1  |  P31  |    1    | ['T7', 'T11'] | ['T6', 'T10'] |     False      |
+-----+-------+---------+---------------+---------------+----------------+ 

11/09/2021 18:11:30[INFO] Supervisores eliminados   
+-----+-------+---------+-------------+------------+----------------+
| Nro | Plaza | Marcado | T - Entrada | T - Salida | MAL supervisor |
+-----+-------+---------+-------------+------------+----------------+
+-----+-------+---------+-------------+------------+----------------+ 

11/09/2021 18:11:30[INFO] Ejecutando accion...   
11/09/2021 18:11:30[ACTION] Agrego supervisor con menor numero de arcos de salida (MNAS)   
11/09/2021 18:11:30[INFO] Supervisor con menor cantidad de arcos de salida agregado 5   

--------------------------------------------------------------------------   
11/09/2021 18:11:30[INFO] Ejecutando petrinator para conocer estado de la red...   
--------------------------------------------------------------------------
   
--------------------------------------------------------------------------
   
11/09/2021 18:11:38[INFO] Calculando recompensa..   
11/09/2021 18:11:38[REWARD] Sigue existiendo el sifon del diablo que se quiso controlar, recompensa -30   

--------------------------------------------------------------------------
   
11/09/2021 18:11:38[STATE] Cambie al estado 1: Hay mas sifones vacios en deadlock   
+--------+---------+-------------------+----------------+---------+---------+------------------------------------+
| Plazas | Estados | Tokens trabajando | Sifones vacios | Sifones | Trampas | Cantidad de supervisores agregados |
+--------+---------+-------------------+----------------+---------+---------+------------------------------------+
|   31   |    85   |        216        |       22       |    57   |    39   |                 1                  |
|   32   |    85   |        216        |       23       |    76   |    47   |                 2                  |
+--------+---------+-------------------+----------------+---------+---------+------------------------------------+ 
+-----------------------------------------------------+------------------+-----------------------+---------------------------+------------------------------+
|                   Estados/Acciones                  | Agregar sup MNAS | Agregar sup aleatorio | Eliminar sup MAL agregado | Eliminar ultimo sup agregado |
+-----------------------------------------------------+------------------+-----------------------+---------------------------+------------------------------+
|                        Start                        |       -1.0       |          0.0          |            0.0            |             0.0              |
|        Más sifónes vacíos en estado deadlock        |       0.0        |          0.0          |            0.0            |             0.0              |
|       Menos sifónes vacíos en estado deadlock       |      -30.0       |          0.0          |            0.0            |             0.0              |
| Igual cantidad de sifónes vacíos en estado deadlock |       0.0        |          0.0          |            0.0            |             0.0              |
|                         End                         |       0.0        |          0.0          |            0.0            |             0.0              |
+-----------------------------------------------------+------------------+-----------------------+---------------------------+------------------------------+ 

11/09/2021 18:11:38[INFO] SIFONES   
+----+-----+-------------------------------------------------------------+
| ID | Nro |                            Plazas                           |
+----+-----+-------------------------------------------------------------+
| 47 |  34 |           ['P3', 'P9', 'P15', 'P17', 'P28', 'P30']          |
| 48 |  36 |              ['P3', 'P9', 'P17', 'P22', 'P28']              |
| 49 |  14 |              ['P1', 'P9', 'P17', 'P19', 'P27']              |
| 50 |  45 |        ['P1', 'P3', 'P9', 'P17', 'P19', 'P22', 'P27']       |
| 51 |  46 |        ['P1', 'P2', 'P3', 'P9', 'P17', 'P19', 'P27']        |
| 52 |  52 |    ['P1', 'P3', 'P9', 'P10', 'P17', 'P19', 'P22', 'P27']    |
| 53 |  53 |     ['P1', 'P2', 'P3', 'P9', 'P10', 'P17', 'P19', 'P27']    |
| 54 |  64 |     ['P1', 'P3', 'P4', 'P9', 'P17', 'P19', 'P22', 'P27']    |
| 55 |  65 |     ['P1', 'P2', 'P3', 'P4', 'P9', 'P17', 'P19', 'P27']     |
| 56 |  72 | ['P1', 'P3', 'P4', 'P9', 'P10', 'P17', 'P19', 'P22', 'P27'] |
| 57 |  73 |  ['P1', 'P2', 'P3', 'P4', 'P9', 'P10', 'P17', 'P19', 'P27'] |
| 58 |  20 |           ['P3', 'P9', 'P17', 'P27', 'P28', 'P30']          |
| 59 |  43 |           ['P3', 'P9', 'P17', 'P26', 'P27', 'P30']          |
| 60 |  35 |           ['P3', 'P9', 'P17', 'P28', 'P30', 'P32']          |
| 61 |  47 |        ['P3', 'P5', 'P9', 'P17', 'P19', 'P27', 'P30']       |
| 62 |  48 |        ['P3', 'P5', 'P9', 'P17', 'P19', 'P22', 'P27']       |
| 63 |  50 |           ['P3', 'P9', 'P17', 'P22', 'P26', 'P27']          |
| 64 |  54 |    ['P3', 'P5', 'P9', 'P10', 'P17', 'P19', 'P22', 'P27']    |
| 65 |  56 |       ['P3', 'P9', 'P10', 'P17', 'P22', 'P26', 'P27']       |
| 66 |  66 |     ['P3', 'P4', 'P5', 'P9', 'P17', 'P19', 'P22', 'P27']    |
| 67 |  68 |        ['P3', 'P4', 'P9', 'P17', 'P22', 'P26', 'P27']       |
| 68 |  74 | ['P3', 'P4', 'P5', 'P9', 'P10', 'P17', 'P19', 'P22', 'P27'] |
| 69 |  76 |    ['P3', 'P4', 'P9', 'P10', 'P17', 'P22', 'P26', 'P27']    |
+----+-----+-------------------------------------------------------------+ 

11/09/2021 18:11:38[INFO] T INVARIANTES   
+----+----+----+----+----+----+----+----+----+----+-----+-----+-----+-----+
| T0 | T1 | T2 | T3 | T4 | T5 | T6 | T7 | T8 | T9 | T10 | T11 | T12 | T13 |
+----+----+----+----+----+----+----+----+----+----+-----+-----+-----+-----+
| 1  | 1  | 1  | 1  | 1  | 0  | 0  | 0  | 0  | 0  |  0  |  0  |  0  |  0  |
| 0  | 0  | 0  | 0  | 0  | 1  | 1  | 1  | 1  | 0  |  0  |  0  |  0  |  0  |
| 0  | 0  | 0  | 0  | 0  | 0  | 0  | 0  | 0  | 1  |  1  |  1  |  1  |  1  |
+----+----+----+----+----+----+----+----+----+----+-----+-----+-----+-----+ 

11/09/2021 18:11:38[INFO] Supervisores para agregar   
+-----+---------+---------------------+---------------------+-------------------------------------------------------------+
|  ID | Marcado |     T - Entrada     |      T - Salida     |                      Sifon a controlar                      |
+-----+---------+---------------------+---------------------+-------------------------------------------------------------+
| P33 |    1    |     ['T3', 'T7']    |     ['T2', 'T6']    |           ['P3', 'P9', 'P15', 'P17', 'P28', 'P30']          |
| P33 |    1    |     ['T3', 'T7']    |     ['T2', 'T6']    |              ['P3', 'P9', 'P17', 'P22', 'P28']              |
| P33 |    1    |    ['T7', 'T13']    |    ['T6', 'T12']    |              ['P1', 'P9', 'P17', 'P19', 'P27']              |
| P33 |    2    |    ['T7', 'T13']    |    ['T6', 'T12']    |        ['P1', 'P3', 'P9', 'P17', 'P19', 'P22', 'P27']       |
| P33 |    1    | ['T2', 'T7', 'T13'] | ['T4', 'T6', 'T12'] |        ['P1', 'P2', 'P3', 'P9', 'P17', 'P19', 'P27']        |
| P33 |    2    |    ['T7', 'T13']    |    ['T6', 'T12']    |    ['P1', 'P3', 'P9', 'P10', 'P17', 'P19', 'P22', 'P27']    |
| P33 |    1    | ['T2', 'T7', 'T13'] | ['T4', 'T6', 'T12'] |     ['P1', 'P2', 'P3', 'P9', 'P10', 'P17', 'P19', 'P27']    |
| P33 |    2    | ['T4', 'T7', 'T13'] | ['T5', 'T6', 'T12'] |     ['P1', 'P3', 'P4', 'P9', 'P17', 'P19', 'P22', 'P27']    |
| P33 |    1    | ['T2', 'T7', 'T13'] | ['T5', 'T6', 'T12'] |     ['P1', 'P2', 'P3', 'P4', 'P9', 'P17', 'P19', 'P27']     |
| P33 |    2    | ['T4', 'T7', 'T13'] | ['T5', 'T6', 'T12'] | ['P1', 'P3', 'P4', 'P9', 'P10', 'P17', 'P19', 'P22', 'P27'] |
| P33 |    1    | ['T2', 'T7', 'T13'] | ['T5', 'T6', 'T12'] |  ['P1', 'P2', 'P3', 'P4', 'P9', 'P10', 'P17', 'P19', 'P27'] |
| P33 |    2    | ['T3', 'T8', 'T13'] | ['T1', 'T6', 'T11'] |           ['P3', 'P9', 'P17', 'P27', 'P28', 'P30']          |
| P33 |    2    | ['T3', 'T7', 'T13'] | ['T1', 'T6', 'T11'] |           ['P3', 'P9', 'P17', 'P26', 'P27', 'P30']          |
| P33 |    1    | ['T3', 'T7', 'T13'] | ['T2', 'T6', 'T11'] |           ['P3', 'P9', 'P17', 'P28', 'P30', 'P32']          |
| P33 |    3    | ['T3', 'T7', 'T13'] | ['T1', 'T6', 'T11'] |        ['P3', 'P5', 'P9', 'P17', 'P19', 'P27', 'P30']       |
| P33 |    3    | ['T3', 'T7', 'T13'] | ['T1', 'T6', 'T12'] |        ['P3', 'P5', 'P9', 'P17', 'P19', 'P22', 'P27']       |
| P33 |    2    | ['T3', 'T7', 'T13'] | ['T1', 'T6', 'T12'] |           ['P3', 'P9', 'P17', 'P22', 'P26', 'P27']          |
| P33 |    3    | ['T3', 'T7', 'T13'] | ['T1', 'T6', 'T12'] |    ['P3', 'P5', 'P9', 'P10', 'P17', 'P19', 'P22', 'P27']    |
| P33 |    2    | ['T3', 'T7', 'T13'] | ['T1', 'T6', 'T12'] |       ['P3', 'P9', 'P10', 'P17', 'P22', 'P26', 'P27']       |
| P33 |    3    | ['T3', 'T7', 'T13'] | ['T1', 'T6', 'T12'] |     ['P3', 'P4', 'P5', 'P9', 'P17', 'P19', 'P22', 'P27']    |
| P33 |    2    | ['T3', 'T7', 'T13'] | ['T1', 'T6', 'T12'] |        ['P3', 'P4', 'P9', 'P17', 'P22', 'P26', 'P27']       |
| P33 |    3    | ['T3', 'T7', 'T13'] | ['T1', 'T6', 'T12'] | ['P3', 'P4', 'P5', 'P9', 'P10', 'P17', 'P19', 'P22', 'P27'] |
| P33 |    2    | ['T3', 'T7', 'T13'] | ['T1', 'T6', 'T12'] |    ['P3', 'P4', 'P9', 'P10', 'P17', 'P22', 'P26', 'P27']    |
+-----+---------+---------------------+---------------------+-------------------------------------------------------------+ 

11/09/2021 18:11:38[INFO] Supervisores agregados   
+-----+-------+---------+---------------+---------------+----------------+
| Nro | Plaza | Marcado |  T - Entrada  |   T - Salida  | MAL supervisor |
+-----+-------+---------+---------------+---------------+----------------+
|  1  |  P31  |    1    | ['T7', 'T11'] | ['T6', 'T10'] |     False      |
|  2  |  P32  |    2    | ['T7', 'T13'] | ['T6', 'T12'] |      True      |
+-----+-------+---------+---------------+---------------+----------------+ 

11/09/2021 18:11:38[INFO] Supervisores eliminados   
+-----+-------+---------+-------------+------------+----------------+
| Nro | Plaza | Marcado | T - Entrada | T - Salida | MAL supervisor |
+-----+-------+---------+-------------+------------+----------------+
+-----+-------+---------+-------------+------------+----------------+ 

11/09/2021 18:11:38[INFO] Ejecutando accion...   
11/09/2021 18:11:38[ACTION] Agrego supervisor con menor numero de arcos de salida (MNAS)   
11/09/2021 18:11:38[INFO] Supervisor con menor cantidad de arcos de salida agregado 3   

--------------------------------------------------------------------------   
11/09/2021 18:11:38[INFO] Ejecutando petrinator para conocer estado de la red...   
--------------------------------------------------------------------------
   
--------------------------------------------------------------------------
   
11/09/2021 18:11:47[INFO] Calculando recompensa..   
11/09/2021 18:11:47[REWARD] Sigue existiendo el sifon del diablo que se quiso controlar, recompensa -30   

--------------------------------------------------------------------------
   
11/09/2021 18:11:47[STATE] Cambie al estado 1: Hay mas sifones vacios en deadlock   
+--------+---------+-------------------+----------------+---------+---------+------------------------------------+
| Plazas | Estados | Tokens trabajando | Sifones vacios | Sifones | Trampas | Cantidad de supervisores agregados |
+--------+---------+-------------------+----------------+---------+---------+------------------------------------+
|   31   |    85   |        216        |       22       |    57   |    39   |                 1                  |
|   32   |    85   |        216        |       23       |    76   |    47   |                 2                  |
|   33   |    85   |        216        |       24       |    95   |    55   |                 3                  |
+--------+---------+-------------------+----------------+---------+---------+------------------------------------+ 
+-----------------------------------------------------+------------------+-----------------------+---------------------------+------------------------------+
|                   Estados/Acciones                  | Agregar sup MNAS | Agregar sup aleatorio | Eliminar sup MAL agregado | Eliminar ultimo sup agregado |
+-----------------------------------------------------+------------------+-----------------------+---------------------------+------------------------------+
|                        Start                        |       -1.0       |          0.0          |            0.0            |             0.0              |
|        Más sifónes vacíos en estado deadlock        |      -30.0       |          0.0          |            0.0            |             0.0              |
|       Menos sifónes vacíos en estado deadlock       |      -30.0       |          0.0          |            0.0            |             0.0              |
| Igual cantidad de sifónes vacíos en estado deadlock |       0.0        |          0.0          |            0.0            |             0.0              |
|                         End                         |       0.0        |          0.0          |            0.0            |             0.0              |
+-----------------------------------------------------+------------------+-----------------------+---------------------------+------------------------------+ 

11/09/2021 18:11:47[INFO] SIFONES   
+----+-----+-------------------------------------------------------------+
| ID | Nro |                            Plazas                           |
+----+-----+-------------------------------------------------------------+
| 70 |  41 |           ['P3', 'P9', 'P15', 'P17', 'P28', 'P30']          |
| 71 |  44 |              ['P3', 'P9', 'P17', 'P22', 'P28']              |
| 72 |  15 |              ['P1', 'P9', 'P17', 'P19', 'P27']              |
| 73 |  57 |        ['P1', 'P3', 'P9', 'P17', 'P19', 'P22', 'P27']       |
| 74 |  58 |        ['P1', 'P2', 'P3', 'P9', 'P17', 'P19', 'P27']        |
| 75 |  65 |    ['P1', 'P3', 'P9', 'P10', 'P17', 'P19', 'P22', 'P27']    |
| 76 |  66 |     ['P1', 'P2', 'P3', 'P9', 'P10', 'P17', 'P19', 'P27']    |
| 77 |  81 |     ['P1', 'P3', 'P4', 'P9', 'P17', 'P19', 'P22', 'P27']    |
| 78 |  82 |     ['P1', 'P2', 'P3', 'P4', 'P9', 'P17', 'P19', 'P27']     |
| 79 |  91 | ['P1', 'P3', 'P4', 'P9', 'P10', 'P17', 'P19', 'P22', 'P27'] |
| 80 |  92 |  ['P1', 'P2', 'P3', 'P4', 'P9', 'P10', 'P17', 'P19', 'P27'] |
| 81 |  21 |           ['P3', 'P9', 'P17', 'P27', 'P28', 'P30']          |
| 82 |  55 |           ['P3', 'P9', 'P17', 'P26', 'P27', 'P30']          |
| 83 |  42 |           ['P3', 'P9', 'P17', 'P28', 'P30', 'P32']          |
| 84 |  43 |           ['P3', 'P9', 'P17', 'P28', 'P30', 'P33']          |
| 85 |  59 |        ['P3', 'P5', 'P9', 'P17', 'P19', 'P27', 'P30']       |
| 86 |  60 |        ['P3', 'P5', 'P9', 'P17', 'P19', 'P22', 'P27']       |
| 87 |  62 |           ['P3', 'P9', 'P17', 'P22', 'P26', 'P27']          |
| 88 |  67 |    ['P3', 'P5', 'P9', 'P10', 'P17', 'P19', 'P22', 'P27']    |
| 89 |  69 |       ['P3', 'P9', 'P10', 'P17', 'P22', 'P26', 'P27']       |
| 90 |  83 |     ['P3', 'P4', 'P5', 'P9', 'P17', 'P19', 'P22', 'P27']    |
| 91 |  85 |        ['P3', 'P4', 'P9', 'P17', 'P22', 'P26', 'P27']       |
| 92 |  93 | ['P3', 'P4', 'P5', 'P9', 'P10', 'P17', 'P19', 'P22', 'P27'] |
| 93 |  95 |    ['P3', 'P4', 'P9', 'P10', 'P17', 'P22', 'P26', 'P27']    |
+----+-----+-------------------------------------------------------------+ 

11/09/2021 18:11:47[INFO] T INVARIANTES   
+----+----+----+----+----+----+----+----+----+----+-----+-----+-----+-----+
| T0 | T1 | T2 | T3 | T4 | T5 | T6 | T7 | T8 | T9 | T10 | T11 | T12 | T13 |
+----+----+----+----+----+----+----+----+----+----+-----+-----+-----+-----+
| 1  | 1  | 1  | 1  | 1  | 0  | 0  | 0  | 0  | 0  |  0  |  0  |  0  |  0  |
| 0  | 0  | 0  | 0  | 0  | 1  | 1  | 1  | 1  | 0  |  0  |  0  |  0  |  0  |
| 0  | 0  | 0  | 0  | 0  | 0  | 0  | 0  | 0  | 1  |  1  |  1  |  1  |  1  |
+----+----+----+----+----+----+----+----+----+----+-----+-----+-----+-----+ 

11/09/2021 18:11:47[INFO] Supervisores para agregar   
+-----+---------+---------------------+---------------------+-------------------------------------------------------------+
|  ID | Marcado |     T - Entrada     |      T - Salida     |                      Sifon a controlar                      |
+-----+---------+---------------------+---------------------+-------------------------------------------------------------+
| P34 |    1    |     ['T3', 'T7']    |     ['T2', 'T6']    |           ['P3', 'P9', 'P15', 'P17', 'P28', 'P30']          |
| P34 |    1    |     ['T3', 'T7']    |     ['T2', 'T6']    |              ['P3', 'P9', 'P17', 'P22', 'P28']              |
| P34 |    1    |    ['T7', 'T13']    |    ['T6', 'T12']    |              ['P1', 'P9', 'P17', 'P19', 'P27']              |
| P34 |    2    |    ['T7', 'T13']    |    ['T6', 'T12']    |        ['P1', 'P3', 'P9', 'P17', 'P19', 'P22', 'P27']       |
| P34 |    1    | ['T2', 'T7', 'T13'] | ['T4', 'T6', 'T12'] |        ['P1', 'P2', 'P3', 'P9', 'P17', 'P19', 'P27']        |
| P34 |    2    |    ['T7', 'T13']    |    ['T6', 'T12']    |    ['P1', 'P3', 'P9', 'P10', 'P17', 'P19', 'P22', 'P27']    |
| P34 |    1    | ['T2', 'T7', 'T13'] | ['T4', 'T6', 'T12'] |     ['P1', 'P2', 'P3', 'P9', 'P10', 'P17', 'P19', 'P27']    |
| P34 |    2    | ['T4', 'T7', 'T13'] | ['T5', 'T6', 'T12'] |     ['P1', 'P3', 'P4', 'P9', 'P17', 'P19', 'P22', 'P27']    |
| P34 |    1    | ['T2', 'T7', 'T13'] | ['T5', 'T6', 'T12'] |     ['P1', 'P2', 'P3', 'P4', 'P9', 'P17', 'P19', 'P27']     |
| P34 |    2    | ['T4', 'T7', 'T13'] | ['T5', 'T6', 'T12'] | ['P1', 'P3', 'P4', 'P9', 'P10', 'P17', 'P19', 'P22', 'P27'] |
| P34 |    1    | ['T2', 'T7', 'T13'] | ['T5', 'T6', 'T12'] |  ['P1', 'P2', 'P3', 'P4', 'P9', 'P10', 'P17', 'P19', 'P27'] |
| P34 |    2    | ['T3', 'T8', 'T13'] | ['T1', 'T6', 'T11'] |           ['P3', 'P9', 'P17', 'P27', 'P28', 'P30']          |
| P34 |    2    | ['T3', 'T7', 'T13'] | ['T1', 'T6', 'T11'] |           ['P3', 'P9', 'P17', 'P26', 'P27', 'P30']          |
| P34 |    1    | ['T3', 'T7', 'T13'] | ['T2', 'T6', 'T11'] |           ['P3', 'P9', 'P17', 'P28', 'P30', 'P32']          |
| P34 |    1    | ['T3', 'T7', 'T13'] | ['T2', 'T6', 'T11'] |           ['P3', 'P9', 'P17', 'P28', 'P30', 'P33']          |
| P34 |    3    | ['T3', 'T7', 'T13'] | ['T1', 'T6', 'T11'] |        ['P3', 'P5', 'P9', 'P17', 'P19', 'P27', 'P30']       |
| P34 |    3    | ['T3', 'T7', 'T13'] | ['T1', 'T6', 'T12'] |        ['P3', 'P5', 'P9', 'P17', 'P19', 'P22', 'P27']       |
| P34 |    2    | ['T3', 'T7', 'T13'] | ['T1', 'T6', 'T12'] |           ['P3', 'P9', 'P17', 'P22', 'P26', 'P27']          |
| P34 |    3    | ['T3', 'T7', 'T13'] | ['T1', 'T6', 'T12'] |    ['P3', 'P5', 'P9', 'P10', 'P17', 'P19', 'P22', 'P27']    |
| P34 |    2    | ['T3', 'T7', 'T13'] | ['T1', 'T6', 'T12'] |       ['P3', 'P9', 'P10', 'P17', 'P22', 'P26', 'P27']       |
| P34 |    3    | ['T3', 'T7', 'T13'] | ['T1', 'T6', 'T12'] |     ['P3', 'P4', 'P5', 'P9', 'P17', 'P19', 'P22', 'P27']    |
| P34 |    2    | ['T3', 'T7', 'T13'] | ['T1', 'T6', 'T12'] |        ['P3', 'P4', 'P9', 'P17', 'P22', 'P26', 'P27']       |
| P34 |    3    | ['T3', 'T7', 'T13'] | ['T1', 'T6', 'T12'] | ['P3', 'P4', 'P5', 'P9', 'P10', 'P17', 'P19', 'P22', 'P27'] |
| P34 |    2    | ['T3', 'T7', 'T13'] | ['T1', 'T6', 'T12'] |    ['P3', 'P4', 'P9', 'P10', 'P17', 'P22', 'P26', 'P27']    |
+-----+---------+---------------------+---------------------+-------------------------------------------------------------+ 

11/09/2021 18:11:47[INFO] Supervisores agregados   
+-----+-------+---------+---------------+---------------+----------------+
| Nro | Plaza | Marcado |  T - Entrada  |   T - Salida  | MAL supervisor |
+-----+-------+---------+---------------+---------------+----------------+
|  1  |  P31  |    1    | ['T7', 'T11'] | ['T6', 'T10'] |     False      |
|  2  |  P32  |    2    | ['T7', 'T13'] | ['T6', 'T12'] |      True      |
|  3  |  P33  |    2    | ['T7', 'T13'] | ['T6', 'T12'] |      True      |
+-----+-------+---------+---------------+---------------+----------------+ 

11/09/2021 18:11:47[INFO] Supervisores eliminados   
+-----+-------+---------+-------------+------------+----------------+
| Nro | Plaza | Marcado | T - Entrada | T - Salida | MAL supervisor |
+-----+-------+---------+-------------+------------+----------------+
+-----+-------+---------+-------------+------------+----------------+ 

11/09/2021 18:11:47[INFO] Ejecutando accion...   
11/09/2021 18:11:47[ACTION] Agrego supervisor con menor numero de arcos de salida (MNAS)   
11/09/2021 18:11:47[INFO] Supervisor con menor cantidad de arcos de salida agregado 1   

--------------------------------------------------------------------------   
11/09/2021 18:11:47[INFO] Ejecutando petrinator para conocer estado de la red...   
--------------------------------------------------------------------------
   
--------------------------------------------------------------------------
   
11/09/2021 18:11:57[INFO] Calculando recompensa..   
11/09/2021 18:11:57[REWARD] Agregue un supervisor que genero menos sifones vacios en deadlock, recompensa -1   

--------------------------------------------------------------------------
   
11/09/2021 18:11:57[STATE] Cambie al estado 2: Hay menos sifones vacios en deadlock   
+--------+---------+-------------------+----------------+---------+---------+------------------------------------+
| Plazas | Estados | Tokens trabajando | Sifones vacios | Sifones | Trampas | Cantidad de supervisores agregados |
+--------+---------+-------------------+----------------+---------+---------+------------------------------------+
|   31   |    85   |        216        |       22       |    57   |    39   |                 1                  |
|   32   |    85   |        216        |       23       |    76   |    47   |                 2                  |
|   33   |    85   |        216        |       24       |    95   |    55   |                 3                  |
|   34   |    81   |        204        |       21       |   142   |    61   |                 4                  |
+--------+---------+-------------------+----------------+---------+---------+------------------------------------+ 
+-----------------------------------------------------+------------------+-----------------------+---------------------------+------------------------------+
|                   Estados/Acciones                  | Agregar sup MNAS | Agregar sup aleatorio | Eliminar sup MAL agregado | Eliminar ultimo sup agregado |
+-----------------------------------------------------+------------------+-----------------------+---------------------------+------------------------------+
|                        Start                        |       -1.0       |          0.0          |            0.0            |             0.0              |
|        Más sifónes vacíos en estado deadlock        |       -1.0       |          0.0          |            0.0            |             0.0              |
|       Menos sifónes vacíos en estado deadlock       |      -30.0       |          0.0          |            0.0            |             0.0              |
| Igual cantidad de sifónes vacíos en estado deadlock |       0.0        |          0.0          |            0.0            |             0.0              |
|                         End                         |       0.0        |          0.0          |            0.0            |             0.0              |
+-----------------------------------------------------+------------------+-----------------------+---------------------------+------------------------------+ 

11/09/2021 18:11:57[INFO] SIFONES   
+-----+-----+--------------------------------------------------------------+
|  ID | Nro |                            Plazas                            |
+-----+-----+--------------------------------------------------------------+
|  94 |  15 |              ['P1', 'P9', 'P17', 'P19', 'P27']               |
|  95 |  23 |           ['P2', 'P9', 'P17', 'P19', 'P27', 'P34']           |
|  96 |  79 |        ['P1', 'P3', 'P9', 'P17', 'P19', 'P22', 'P27']        |
|  97 |  80 |        ['P1', 'P2', 'P3', 'P9', 'P17', 'P19', 'P27']         |
|  98 |  81 |       ['P3', 'P9', 'P17', 'P19', 'P27', 'P30', 'P34']        |
|  99 |  82 |       ['P3', 'P9', 'P17', 'P19', 'P22', 'P27', 'P34']        |
| 100 |  83 |        ['P2', 'P3', 'P9', 'P17', 'P19', 'P27', 'P34']        |
| 101 |  94 |    ['P1', 'P3', 'P9', 'P10', 'P17', 'P19', 'P22', 'P27']     |
| 102 |  95 |     ['P1', 'P2', 'P3', 'P9', 'P10', 'P17', 'P19', 'P27']     |
| 103 |  96 |    ['P3', 'P9', 'P10', 'P17', 'P19', 'P22', 'P27', 'P34']    |
| 104 |  97 |    ['P2', 'P3', 'P9', 'P10', 'P17', 'P19', 'P27', 'P34']     |
| 105 | 118 |     ['P1', 'P3', 'P4', 'P9', 'P17', 'P19', 'P22', 'P27']     |
| 106 | 119 |     ['P1', 'P2', 'P3', 'P4', 'P9', 'P17', 'P19', 'P27']      |
| 107 | 120 |    ['P3', 'P4', 'P9', 'P17', 'P19', 'P22', 'P27', 'P34']     |
| 108 | 121 |     ['P2', 'P3', 'P4', 'P9', 'P17', 'P19', 'P27', 'P34']     |
| 109 | 134 | ['P1', 'P3', 'P4', 'P9', 'P10', 'P17', 'P19', 'P22', 'P27']  |
| 110 | 135 |  ['P1', 'P2', 'P3', 'P4', 'P9', 'P10', 'P17', 'P19', 'P27']  |
| 111 | 136 | ['P3', 'P4', 'P9', 'P10', 'P17', 'P19', 'P22', 'P27', 'P34'] |
| 112 | 137 | ['P2', 'P3', 'P4', 'P9', 'P10', 'P17', 'P19', 'P27', 'P34']  |
| 113 |  26 |           ['P3', 'P9', 'P17', 'P27', 'P28', 'P30']           |
| 114 |  76 |           ['P3', 'P9', 'P17', 'P26', 'P27', 'P30']           |
+-----+-----+--------------------------------------------------------------+ 

11/09/2021 18:11:57[INFO] T INVARIANTES   
+----+----+----+----+----+----+----+----+----+----+-----+-----+-----+-----+
| T0 | T1 | T2 | T3 | T4 | T5 | T6 | T7 | T8 | T9 | T10 | T11 | T12 | T13 |
+----+----+----+----+----+----+----+----+----+----+-----+-----+-----+-----+
| 1  | 1  | 1  | 1  | 1  | 0  | 0  | 0  | 0  | 0  |  0  |  0  |  0  |  0  |
| 0  | 0  | 0  | 0  | 0  | 1  | 1  | 1  | 1  | 0  |  0  |  0  |  0  |  0  |
| 0  | 0  | 0  | 0  | 0  | 0  | 0  | 0  | 0  | 1  |  1  |  1  |  1  |  1  |
+----+----+----+----+----+----+----+----+----+----+-----+-----+-----+-----+ 

11/09/2021 18:11:57[INFO] Supervisores para agregar   
+-----+---------+---------------------+---------------------+--------------------------------------------------------------+
|  ID | Marcado |     T - Entrada     |      T - Salida     |                      Sifon a controlar                       |
+-----+---------+---------------------+---------------------+--------------------------------------------------------------+
| P35 |    1    |    ['T7', 'T13']    |    ['T6', 'T12']    |              ['P1', 'P9', 'P17', 'P19', 'P27']               |
| P35 |    1    | ['T2', 'T7', 'T13'] | ['T1', 'T6', 'T12'] |           ['P2', 'P9', 'P17', 'P19', 'P27', 'P34']           |
| P35 |    2    |    ['T7', 'T13']    |    ['T6', 'T12']    |        ['P1', 'P3', 'P9', 'P17', 'P19', 'P22', 'P27']        |
| P35 |    1    | ['T2', 'T7', 'T13'] | ['T4', 'T6', 'T12'] |        ['P1', 'P2', 'P3', 'P9', 'P17', 'P19', 'P27']         |
| P35 |    2    | ['T3', 'T7', 'T13'] | ['T1', 'T6', 'T11'] |       ['P3', 'P9', 'P17', 'P19', 'P27', 'P30', 'P34']        |
| P35 |    2    | ['T3', 'T7', 'T13'] | ['T1', 'T6', 'T12'] |       ['P3', 'P9', 'P17', 'P19', 'P22', 'P27', 'P34']        |
| P35 |    1    | ['T2', 'T7', 'T13'] | ['T1', 'T6', 'T12'] |        ['P2', 'P3', 'P9', 'P17', 'P19', 'P27', 'P34']        |
| P35 |    2    |    ['T7', 'T13']    |    ['T6', 'T12']    |    ['P1', 'P3', 'P9', 'P10', 'P17', 'P19', 'P22', 'P27']     |
| P35 |    1    | ['T2', 'T7', 'T13'] | ['T4', 'T6', 'T12'] |     ['P1', 'P2', 'P3', 'P9', 'P10', 'P17', 'P19', 'P27']     |
| P35 |    2    | ['T3', 'T7', 'T13'] | ['T1', 'T6', 'T12'] |    ['P3', 'P9', 'P10', 'P17', 'P19', 'P22', 'P27', 'P34']    |
| P35 |    1    | ['T2', 'T7', 'T13'] | ['T1', 'T6', 'T12'] |    ['P2', 'P3', 'P9', 'P10', 'P17', 'P19', 'P27', 'P34']     |
| P35 |    2    | ['T4', 'T7', 'T13'] | ['T5', 'T6', 'T12'] |     ['P1', 'P3', 'P4', 'P9', 'P17', 'P19', 'P22', 'P27']     |
| P35 |    1    | ['T2', 'T7', 'T13'] | ['T5', 'T6', 'T12'] |     ['P1', 'P2', 'P3', 'P4', 'P9', 'P17', 'P19', 'P27']      |
| P35 |    2    | ['T3', 'T7', 'T13'] | ['T1', 'T6', 'T12'] |    ['P3', 'P4', 'P9', 'P17', 'P19', 'P22', 'P27', 'P34']     |
| P35 |    1    | ['T2', 'T7', 'T13'] | ['T1', 'T6', 'T12'] |     ['P2', 'P3', 'P4', 'P9', 'P17', 'P19', 'P27', 'P34']     |
| P35 |    2    | ['T4', 'T7', 'T13'] | ['T5', 'T6', 'T12'] | ['P1', 'P3', 'P4', 'P9', 'P10', 'P17', 'P19', 'P22', 'P27']  |
| P35 |    1    | ['T2', 'T7', 'T13'] | ['T5', 'T6', 'T12'] |  ['P1', 'P2', 'P3', 'P4', 'P9', 'P10', 'P17', 'P19', 'P27']  |
| P35 |    2    | ['T3', 'T7', 'T13'] | ['T1', 'T6', 'T12'] | ['P3', 'P4', 'P9', 'P10', 'P17', 'P19', 'P22', 'P27', 'P34'] |
| P35 |    1    | ['T2', 'T7', 'T13'] | ['T1', 'T6', 'T12'] | ['P2', 'P3', 'P4', 'P9', 'P10', 'P17', 'P19', 'P27', 'P34']  |
| P35 |    2    | ['T3', 'T8', 'T13'] | ['T1', 'T6', 'T11'] |           ['P3', 'P9', 'P17', 'P27', 'P28', 'P30']           |
| P35 |    2    | ['T3', 'T7', 'T13'] | ['T1', 'T6', 'T11'] |           ['P3', 'P9', 'P17', 'P26', 'P27', 'P30']           |
+-----+---------+---------------------+---------------------+--------------------------------------------------------------+ 

11/09/2021 18:11:57[INFO] Supervisores agregados   
+-----+-------+---------+---------------+---------------+----------------+
| Nro | Plaza | Marcado |  T - Entrada  |   T - Salida  | MAL supervisor |
+-----+-------+---------+---------------+---------------+----------------+
|  1  |  P31  |    1    | ['T7', 'T11'] | ['T6', 'T10'] |     False      |
|  2  |  P32  |    2    | ['T7', 'T13'] | ['T6', 'T12'] |      True      |
|  3  |  P33  |    2    | ['T7', 'T13'] | ['T6', 'T12'] |      True      |
|  4  |  P34  |    1    |  ['T3', 'T7'] |  ['T2', 'T6'] |     False      |
+-----+-------+---------+---------------+---------------+----------------+ 

11/09/2021 18:11:57[INFO] Supervisores eliminados   
+-----+-------+---------+-------------+------------+----------------+
| Nro | Plaza | Marcado | T - Entrada | T - Salida | MAL supervisor |
+-----+-------+---------+-------------+------------+----------------+
+-----+-------+---------+-------------+------------+----------------+ 

11/09/2021 18:11:57[INFO] Ejecutando accion...   
11/09/2021 18:11:57[ACTION] Agrego supervisor aleatorio Numero: 3  

--------------------------------------------------------------------------   
11/09/2021 18:11:57[INFO] Ejecutando petrinator para conocer estado de la red...   
--------------------------------------------------------------------------
   
--------------------------------------------------------------------------
   
11/09/2021 18:12:12[INFO] Calculando recompensa..   
11/09/2021 18:12:12[REWARD] Agregue un supervisor que genero menos sifones vacios en deadlock, recompensa -1   

--------------------------------------------------------------------------
   
11/09/2021 18:12:12[STATE] Cambie al estado 2: Hay menos sifones vacios en deadlock   
+--------+---------+-------------------+----------------+---------+---------+------------------------------------+
| Plazas | Estados | Tokens trabajando | Sifones vacios | Sifones | Trampas | Cantidad de supervisores agregados |
+--------+---------+-------------------+----------------+---------+---------+------------------------------------+
|   31   |    85   |        216        |       22       |    57   |    39   |                 1                  |
|   32   |    85   |        216        |       23       |    76   |    47   |                 2                  |
|   33   |    85   |        216        |       24       |    95   |    55   |                 3                  |
|   34   |    81   |        204        |       21       |   142   |    61   |                 4                  |
|   35   |    78   |        196        |       2        |   308   |   163   |                 5                  |
+--------+---------+-------------------+----------------+---------+---------+------------------------------------+ 
+-----------------------------------------------------+------------------+-----------------------+---------------------------+------------------------------+
|                   Estados/Acciones                  | Agregar sup MNAS | Agregar sup aleatorio | Eliminar sup MAL agregado | Eliminar ultimo sup agregado |
+-----------------------------------------------------+------------------+-----------------------+---------------------------+------------------------------+
|                        Start                        |       -1.0       |          0.0          |            0.0            |             0.0              |
|        Más sifónes vacíos en estado deadlock        |       -1.0       |          0.0          |            0.0            |             0.0              |
|       Menos sifónes vacíos en estado deadlock       |      -30.0       |          -1.0         |            0.0            |             0.0              |
| Igual cantidad de sifónes vacíos en estado deadlock |       0.0        |          0.0          |            0.0            |             0.0              |
|                         End                         |       0.0        |          0.0          |            0.0            |             0.0              |
+-----------------------------------------------------+------------------+-----------------------+---------------------------+------------------------------+ 

11/09/2021 18:12:12[INFO] SIFONES   
+-----+-----+------------------------------------------+
|  ID | Nro |                  Plazas                  |
+-----+-----+------------------------------------------+
| 115 | 124 | ['P3', 'P9', 'P17', 'P27', 'P28', 'P30'] |
| 116 | 184 | ['P3', 'P9', 'P17', 'P26', 'P27', 'P30'] |
+-----+-----+------------------------------------------+ 

11/09/2021 18:12:12[INFO] T INVARIANTES   
+----+----+----+----+----+----+----+----+----+----+-----+-----+-----+-----+
| T0 | T1 | T2 | T3 | T4 | T5 | T6 | T7 | T8 | T9 | T10 | T11 | T12 | T13 |
+----+----+----+----+----+----+----+----+----+----+-----+-----+-----+-----+
| 1  | 1  | 1  | 1  | 1  | 0  | 0  | 0  | 0  | 0  |  0  |  0  |  0  |  0  |
| 0  | 0  | 0  | 0  | 0  | 1  | 1  | 1  | 1  | 0  |  0  |  0  |  0  |  0  |
| 0  | 0  | 0  | 0  | 0  | 0  | 0  | 0  | 0  | 1  |  1  |  1  |  1  |  1  |
+----+----+----+----+----+----+----+----+----+----+-----+-----+-----+-----+ 

11/09/2021 18:12:12[INFO] Supervisores para agregar   
+-----+---------+---------------------+---------------------+------------------------------------------+
|  ID | Marcado |     T - Entrada     |      T - Salida     |            Sifon a controlar             |
+-----+---------+---------------------+---------------------+------------------------------------------+
| P36 |    2    | ['T3', 'T8', 'T13'] | ['T1', 'T6', 'T11'] | ['P3', 'P9', 'P17', 'P27', 'P28', 'P30'] |
| P36 |    2    | ['T3', 'T7', 'T13'] | ['T1', 'T6', 'T11'] | ['P3', 'P9', 'P17', 'P26', 'P27', 'P30'] |
+-----+---------+---------------------+---------------------+------------------------------------------+ 

11/09/2021 18:12:12[INFO] Supervisores agregados   
+-----+-------+---------+---------------------+---------------------+----------------+
| Nro | Plaza | Marcado |     T - Entrada     |      T - Salida     | MAL supervisor |
+-----+-------+---------+---------------------+---------------------+----------------+
|  1  |  P31  |    1    |    ['T7', 'T11']    |    ['T6', 'T10']    |     False      |
|  2  |  P32  |    2    |    ['T7', 'T13']    |    ['T6', 'T12']    |      True      |
|  3  |  P33  |    2    |    ['T7', 'T13']    |    ['T6', 'T12']    |      True      |
|  4  |  P34  |    1    |     ['T3', 'T7']    |     ['T2', 'T6']    |     False      |
|  5  |  P35  |    1    | ['T2', 'T7', 'T13'] | ['T4', 'T6', 'T12'] |     False      |
+-----+-------+---------+---------------------+---------------------+----------------+ 

11/09/2021 18:12:12[INFO] Supervisores eliminados   
+-----+-------+---------+-------------+------------+----------------+
| Nro | Plaza | Marcado | T - Entrada | T - Salida | MAL supervisor |
+-----+-------+---------+-------------+------------+----------------+
+-----+-------+---------+-------------+------------+----------------+ 

11/09/2021 18:12:12[INFO] Ejecutando accion...   
11/09/2021 18:12:12[ACTION] Eliminar un supervisor mal agregado   
11/09/2021 18:12:12[INFO] Indice de supervisor 1  

--------------------------------------------------------------------------   
11/09/2021 18:12:12[INFO] Ejecutando petrinator para conocer estado de la red...   
--------------------------------------------------------------------------
   
--------------------------------------------------------------------------
   
11/09/2021 18:12:24[INFO] Calculando recompensa..   
11/09/2021 18:12:24[INFO] Se elimino correctamente supervisor mal agregado, recompensa -1    
11/09/2021 18:12:24[REWARD] Hay menos o igual cantidad de sifones vacios que en el estado anterior, recompensa -1   

--------------------------------------------------------------------------
   
11/09/2021 18:12:24[STATE] Cambie al estado 3: Hay igual cantidad de sifones vacios en deadlock   
+--------+---------+-------------------+----------------+---------+---------+------------------------------------+
| Plazas | Estados | Tokens trabajando | Sifones vacios | Sifones | Trampas | Cantidad de supervisores agregados |
+--------+---------+-------------------+----------------+---------+---------+------------------------------------+
|   31   |    85   |        216        |       22       |    57   |    39   |                 1                  |
|   32   |    85   |        216        |       23       |    76   |    47   |                 2                  |
|   33   |    85   |        216        |       24       |    95   |    55   |                 3                  |
|   34   |    81   |        204        |       21       |   142   |    61   |                 4                  |
|   35   |    78   |        196        |       2        |   308   |   163   |                 5                  |
|   34   |    78   |        196        |       2        |   279   |   149   |                 4                  |
+--------+---------+-------------------+----------------+---------+---------+------------------------------------+ 
+-----------------------------------------------------+------------------+-----------------------+---------------------------+------------------------------+
|                   Estados/Acciones                  | Agregar sup MNAS | Agregar sup aleatorio | Eliminar sup MAL agregado | Eliminar ultimo sup agregado |
+-----------------------------------------------------+------------------+-----------------------+---------------------------+------------------------------+
|                        Start                        |       -1.0       |          0.0          |            0.0            |             0.0              |
|        Más sifónes vacíos en estado deadlock        |       -1.0       |          0.0          |            0.0            |             0.0              |
|       Menos sifónes vacíos en estado deadlock       |      -30.0       |          -1.0         |            -2.0           |             0.0              |
| Igual cantidad de sifónes vacíos en estado deadlock |       0.0        |          0.0          |            0.0            |             0.0              |
|                         End                         |       0.0        |          0.0          |            0.0            |             0.0              |
+-----------------------------------------------------+------------------+-----------------------+---------------------------+------------------------------+ 

11/09/2021 18:12:24[INFO] SIFONES   
+-----+-----+------------------------------------------+
|  ID | Nro |                  Plazas                  |
+-----+-----+------------------------------------------+
| 117 | 123 | ['P3', 'P9', 'P17', 'P27', 'P28', 'P30'] |
| 118 | 166 | ['P3', 'P9', 'P17', 'P26', 'P27', 'P30'] |
+-----+-----+------------------------------------------+ 

11/09/2021 18:12:24[INFO] T INVARIANTES   
+----+----+----+----+----+----+----+----+----+----+-----+-----+-----+-----+
| T0 | T1 | T2 | T3 | T4 | T5 | T6 | T7 | T8 | T9 | T10 | T11 | T12 | T13 |
+----+----+----+----+----+----+----+----+----+----+-----+-----+-----+-----+
| 1  | 1  | 1  | 1  | 1  | 0  | 0  | 0  | 0  | 0  |  0  |  0  |  0  |  0  |
| 0  | 0  | 0  | 0  | 0  | 1  | 1  | 1  | 1  | 0  |  0  |  0  |  0  |  0  |
| 0  | 0  | 0  | 0  | 0  | 0  | 0  | 0  | 0  | 1  |  1  |  1  |  1  |  1  |
+----+----+----+----+----+----+----+----+----+----+-----+-----+-----+-----+ 

11/09/2021 18:12:24[INFO] Supervisores para agregar   
+-----+---------+---------------------+---------------------+------------------------------------------+
|  ID | Marcado |     T - Entrada     |      T - Salida     |            Sifon a controlar             |
+-----+---------+---------------------+---------------------+------------------------------------------+
| P36 |    2    | ['T3', 'T8', 'T13'] | ['T1', 'T6', 'T11'] | ['P3', 'P9', 'P17', 'P27', 'P28', 'P30'] |
| P36 |    2    | ['T3', 'T7', 'T13'] | ['T1', 'T6', 'T11'] | ['P3', 'P9', 'P17', 'P26', 'P27', 'P30'] |
+-----+---------+---------------------+---------------------+------------------------------------------+ 

11/09/2021 18:12:24[INFO] Supervisores agregados   
+-----+-------+---------+---------------------+---------------------+----------------+
| Nro | Plaza | Marcado |     T - Entrada     |      T - Salida     | MAL supervisor |
+-----+-------+---------+---------------------+---------------------+----------------+
|  1  |  P31  |    1    |    ['T7', 'T11']    |    ['T6', 'T10']    |     False      |
|  3  |  P33  |    2    |    ['T7', 'T13']    |    ['T6', 'T12']    |      True      |
|  4  |  P34  |    1    |     ['T3', 'T7']    |     ['T2', 'T6']    |     False      |
|  5  |  P35  |    1    | ['T2', 'T7', 'T13'] | ['T4', 'T6', 'T12'] |     False      |
+-----+-------+---------+---------------------+---------------------+----------------+ 

11/09/2021 18:12:24[INFO] Supervisores eliminados   
+-----+-------+---------+---------------+---------------+----------------+
| Nro | Plaza | Marcado |  T - Entrada  |   T - Salida  | MAL supervisor |
+-----+-------+---------+---------------+---------------+----------------+
|  2  |  P32  |    2    | ['T7', 'T13'] | ['T6', 'T12'] |      True      |
+-----+-------+---------+---------------+---------------+----------------+ 

11/09/2021 18:12:24[INFO] Ejecutando accion...   
11/09/2021 18:12:24[ACTION] Agrego supervisor con menor numero de arcos de salida (MNAS)   
11/09/2021 18:12:24[INFO] Supervisor con menor cantidad de arcos de salida agregado 1   

--------------------------------------------------------------------------   
11/09/2021 18:12:24[INFO] Ejecutando petrinator para conocer estado de la red...   
--------------------------------------------------------------------------
   
--------------------------------------------------------------------------
   
11/09/2021 18:12:39[INFO] Calculando recompensa..   
11/09/2021 18:12:39[REWARD] No hay mas deadlock, recompensa 100   

--------------------------------------------------------------------------
   
11/09/2021 18:12:39[STATE] Se llego al estado deseado, NO HAY MAS DEADLOCK   

--------------------------------------------------------------------------
   
+--------+---------+-------------------+----------------+---------+---------+------------------------------------+
| Plazas | Estados | Tokens trabajando | Sifones vacios | Sifones | Trampas | Cantidad de supervisores agregados |
+--------+---------+-------------------+----------------+---------+---------+------------------------------------+
|   31   |    85   |        216        |       22       |    57   |    39   |                 1                  |
|   32   |    85   |        216        |       23       |    76   |    47   |                 2                  |
|   33   |    85   |        216        |       24       |    95   |    55   |                 3                  |
|   34   |    81   |        204        |       21       |   142   |    61   |                 4                  |
|   35   |    78   |        196        |       2        |   308   |   163   |                 5                  |
|   34   |    78   |        196        |       2        |   279   |   149   |                 4                  |
|   35   |    74   |        180        |       0        |   356   |   181   |                 5                  |
+--------+---------+-------------------+----------------+---------+---------+------------------------------------+ 
+-----------------------------------------------------+------------------+-----------------------+---------------------------+------------------------------+
|                   Estados/Acciones                  | Agregar sup MNAS | Agregar sup aleatorio | Eliminar sup MAL agregado | Eliminar ultimo sup agregado |
+-----------------------------------------------------+------------------+-----------------------+---------------------------+------------------------------+
|                        Start                        |       -1.0       |          0.0          |            0.0            |             0.0              |
|        Más sifónes vacíos en estado deadlock        |       -1.0       |          0.0          |            0.0            |             0.0              |
|       Menos sifónes vacíos en estado deadlock       |      -30.0       |          -1.0         |            -2.0           |             0.0              |
| Igual cantidad de sifónes vacíos en estado deadlock |      100.0       |          0.0          |            0.0            |             0.0              |
|                         End                         |       0.0        |          0.0          |            0.0            |             0.0              |
+-----------------------------------------------------+------------------+-----------------------+---------------------------+------------------------------+ 

+-----+-------+---------+---------------+---------------+----------------+
| Nro | Plaza | Marcado |  T - Entrada  |   T - Salida  | MAL supervisor |
+-----+-------+---------+---------------+---------------+----------------+
|  1  |  P31  |    1    | ['T7', 'T11'] | ['T6', 'T10'] |     False      |
+-----+-------+---------+---------------+---------------+----------------+ 

--------------------------------------------------------------------------   
11/09/2021 18:12:40[INFO] Ejecutando petrinator para conocer estado de la red...   
--------------------------------------------------------------------------
   

--------------------------------------------------------------------------   
11/09/2021 18:12:52[INFO] Ejecutando petrinator para conocer estado de la red...   
--------------------------------------------------------------------------
   
+-----+-------+---------+---------------+---------------+----------------+
| Nro | Plaza | Marcado |  T - Entrada  |   T - Salida  | MAL supervisor |
+-----+-------+---------+---------------+---------------+----------------+
|  3  |  P33  |    2    | ['T7', 'T13'] | ['T6', 'T12'] |      True      |
+-----+-------+---------+---------------+---------------+----------------+ 

--------------------------------------------------------------------------   
11/09/2021 18:13:06[INFO] Ejecutando petrinator para conocer estado de la red...   
--------------------------------------------------------------------------
   
+-----+-------+---------+--------------+--------------+----------------+
| Nro | Plaza | Marcado | T - Entrada  |  T - Salida  | MAL supervisor |
+-----+-------+---------+--------------+--------------+----------------+
|  4  |  P34  |    1    | ['T3', 'T7'] | ['T2', 'T6'] |     False      |
+-----+-------+---------+--------------+--------------+----------------+ 

--------------------------------------------------------------------------   
11/09/2021 18:13:18[INFO] Ejecutando petrinator para conocer estado de la red...   
--------------------------------------------------------------------------
   

--------------------------------------------------------------------------   
11/09/2021 18:13:29[INFO] Ejecutando petrinator para conocer estado de la red...   
--------------------------------------------------------------------------
   
+-----+-------+---------+---------------------+---------------------+----------------+
| Nro | Plaza | Marcado |     T - Entrada     |      T - Salida     | MAL supervisor |
+-----+-------+---------+---------------------+---------------------+----------------+
|  5  |  P35  |    1    | ['T2', 'T7', 'T13'] | ['T4', 'T6', 'T12'] |     False      |
+-----+-------+---------+---------------------+---------------------+----------------+ 

--------------------------------------------------------------------------   
11/09/2021 18:13:42[INFO] Ejecutando petrinator para conocer estado de la red...   
--------------------------------------------------------------------------
   

--------------------------------------------------------------------------   
11/09/2021 18:13:53[INFO] Ejecutando petrinator para conocer estado de la red...   
--------------------------------------------------------------------------
   
+-----+-------+---------+---------------------+---------------------+----------------+
| Nro | Plaza | Marcado |     T - Entrada     |      T - Salida     | MAL supervisor |
+-----+-------+---------+---------------------+---------------------+----------------+
|  6  |  P36  |    2    | ['T3', 'T7', 'T13'] | ['T1', 'T6', 'T11'] |     False      |
+-----+-------+---------+---------------------+---------------------+----------------+ 

--------------------------------------------------------------------------   
11/09/2021 18:14:05[INFO] Ejecutando petrinator para conocer estado de la red...   
--------------------------------------------------------------------------
   

--------------------------------------------------------------------------   
11/09/2021 18:14:16[INFO] Ejecutando petrinator para conocer estado de la red...   
--------------------------------------------------------------------------
   
+--------+---------+-------------------+----------------+---------+---------+------------------------------------+
| Plazas | Estados | Tokens trabajando | Sifones vacios | Sifones | Trampas | Cantidad de supervisores agregados |
+--------+---------+-------------------+----------------+---------+---------+------------------------------------+
|   34   |    74   |        180        |       0        |   322   |   167   |                 5                  |
+--------+---------+-------------------+----------------+---------+---------+------------------------------------+ 
