 Minimal siphons 
3 14 29
14 15
2 7 13 21 25 31 33
11 16
1 7 13 21 24 31
21 22 23 24 25 26 27 28
7 13 30
13 17
7 10
1 4
1 4 7 10
1 2 4
2 6 12 25 33
1 2 4 7 10
1 2 4 7 13 30
1 2 7 13 21 24 31
1 2 7 13 21 24 25 31
7 13 14 30
13 14 17
11 12 13 14 16
7 10 13 14 17
6 7 8 9 13 14 17 18 19 20
6 7 8 9 11 12 13 14 18 19 20
7 8 9 10 11 12 13 14 18 19 20
7 10 11 12 13 14 16
7 8 10 11 12 13 14 16
7 8 9 10 11 12 13 14 16
1 4 13 14 17
1 4 11 12 13 14 16
1 2 4 13 14 17
1 2 4 11 12 13 14 16
3 7 13 22 25 31 32 33
1 2 3 5
1 2 3 4
3 6 12 22 25 32 33
3 6 11 22 25 32
1 2 3 5 7 10
1 2 3 4 7 10
1 2 3 5 7 13 30
1 2 3 4 7 13 30
1 2 3 7 13 21 24 31
1 2 3 7 13 21 24 25 31
1 2 3 7 13 21 22 24 31
1 2 3 7 13 21 22 24 25 31
1 3 7 11 13 22 25 31 32
1 2 3 5 14 15
1 2 3 4 14 15
1 2 3 4 13 14 17
1 2 3 4 11 12 13 14 16
1 2 3 5 13 14 17
1 2 3 5 11 12 13 14 16
 Minimal traps 
1 6 11 21 24 31 32 33
2 6 11 22 25 32 33
3 6 11 22 25 32
21 22 23 24 25 26 27 28
11 16
7 13 30
13 17
14 15
7 10
6 7 8 9 11 12 13 14 18 19 20
3 7 13 29 30
3 13 17 29
3 14 29
3 13 14 29
3 7 10 14 29
3 7 10 13 17 29
3 7 10 13 14 29
3 6 7 13 29 30
3 6 7 10 14 29
3 6 7 10 13 17 29
3 6 7 10 13 14 29
2 3 7 13 29 30
2 3 13 17 29
2 3 14 29
2 3 13 14 29
2 3 7 10 14 29
2 3 7 10 13 17 29
2 3 7 10 13 14 29
2 6 12 25 33
2 3 6 7 13 29 30
2 3 6 7 10 14 29
2 3 6 7 10 13 17 29
2 3 6 7 10 13 14 29
1 7 13 21 24 31
1 4
1 2 3 13 17 29
1 2 3 14 29
1 2 3 5
1 2 3 5 14 15
1 2 3 13 14 29
1 2 3 5 13 14 15
1 2 3 5 13 17
1 4 7 10
1 2 3 7 10 14 29
1 2 3 5 7 10
1 2 3 5 7 10 14 15
1 4 7 13 30
1 2 3 7 13 29 30
1 2 3 5 7 13 30
1 2 3 7 10 13 14 29
1 3 4 7 10 13 14 29
1 6 12 21 24 31 33
1 4 6 7 10
1 2 3 6 7 10 14 29
1 2 3 5 6 7 10
1 2 3 5 6 7 10 14 15
1 3 6 11 13 21 24 31 32
 Analysis time: 2.399s