25/07/2021 16:42:43[DEBUG] pflow_file:  ../analysis/analisis_15_25072021/gen_nets/20210725-164143_14/net.pflow  
25/07/2021 16:42:43[DEBUG] output_folder:  ../analysis/analisis_15_25072021/gen_nets/20210725-164143_14/  
25/07/2021 16:42:43[DEBUG] html_path:  ../analysis/analisis_15_25072021/gen_nets/20210725-164143_14/  
25/07/2021 16:42:43[DEBUG] txt_path:  ../analysis/analisis_15_25072021/gen_nets/20210725-164143_14/txt_info  

--------------------------------------------------------------------------   
25/07/2021 16:42:43[INFO] Ejecutando petrinator para conocer estado de la red...   
--------------------------------------------------------------------------
   
25/07/2021 16:42:47[INFO] Leyendo archivos...   
25/07/2021 16:42:47[ERROR] Se produjo un error inesperado en la ejecucion del petrinator, abandonando analisis 
  
