21/07/2021 09:29:31[DEBUG] pflow_file:  ../analysis/analisis_12_20072021/gen_nets1/20210720-191422_9/net.pflow  
21/07/2021 09:29:31[DEBUG] output_folder:  ../analysis/analisis_12_20072021/gen_nets1/20210720-191422_9/  
21/07/2021 09:29:31[DEBUG] html_path:  ../analysis/analisis_12_20072021/gen_nets1/20210720-191422_9/  
21/07/2021 09:29:31[DEBUG] txt_path:  ../analysis/analisis_12_20072021/gen_nets1/20210720-191422_9/txt_info  

--------------------------------------------------------------------------   
21/07/2021 09:29:31[INFO] Ejecutando petrinator para conocer estado de la red...   
--------------------------------------------------------------------------
   
21/07/2021 09:29:35[ERROR] La red ingresada no tiene deadlock, cerrando analisis 
  
