21/06/2021 12:45:31[DEBUG] pflow_file:  ../analisis_3_20062021/gen_nets/20210621-121849_2/net.pflow  
21/06/2021 12:45:31[DEBUG] output_folder:  ../analisis_3_20062021/gen_nets/20210621-121849_2/  
21/06/2021 12:45:31[DEBUG] html_path:  ../analisis_3_20062021/gen_nets/20210621-121849_2/  
21/06/2021 12:45:31[DEBUG] txt_path:  ../analisis_3_20062021/gen_nets/20210621-121849_2/txt_info  

--------------------------------------------------------------------------   
21/06/2021 12:45:31[INFO] Ejecutando petrinator para conocer estado de la red...   
--------------------------------------------------------------------------
   
21/06/2021 12:45:33[ERROR] La red ingresada no es S3PR, cerrando analisis 
  
