18/07/2021 14:31:47[DEBUG] pflow_file:  ../analysis/analisis_8_08072021/gen_nets/20210708-094213_6/net.pflow  
18/07/2021 14:31:47[DEBUG] output_folder:  ../analysis/analisis_8_08072021/gen_nets/20210708-094213_6/  
18/07/2021 14:31:47[DEBUG] html_path:  ../analysis/analisis_8_08072021/gen_nets/20210708-094213_6/  
18/07/2021 14:31:47[DEBUG] txt_path:  ../analysis/analisis_8_08072021/gen_nets/20210708-094213_6/txt_info  

--------------------------------------------------------------------------   
18/07/2021 14:31:47[INFO] Ejecutando petrinator para conocer estado de la red...   
--------------------------------------------------------------------------
   
18/07/2021 14:31:50[ERROR] La red ingresada no tiene deadlock, cerrando analisis 
  
