 Minimal siphons 
4 9 13 21 25
3 5
2 9 13 21 23
1 9 13 14 21 24
8 14 22
12 13 14 15 17 18 19
14 16
8 13 21
26 8 12
8 9 11
8 10
1 8 20
1 9 12 14 24
1 8 9 20
1 2 8 20
2 9 12 23
1 2 8 9 20
1 2 3 8 20
1 2 3 8 9 20
4 6
3 4 5
1 2 3 4 8 20
1 2 3 4 7
4 9 12 25
1 2 3 4 8 9 20
26 4 6 8 9 12
26 3 4 5 8 9 12
26 4 5 6 8 9 12
4 6 8 9 13 21
3 4 5 8 9 13 21
4 5 6 8 9 13 21
 Minimal traps 
8 14 22
1 9 12 14 24
14 16
2 9 12 23
3 5
4 9 12 25
4 6
12 13 14 15 17 18 19
1 2 3 5
1 2 3 4 7
1 2 3 4 6
1 8 20
2 8 12 21 23
4 8 12 21 25
8 13 21
26 8 12
8 10
8 9 11
1 8 12 14 21 24
 Analysis time: 0.592s