14/07/2021 15:35:58[DEBUG] pflow_file:  ../prueba/gen_nets/20210713-184900_8/net.pflow  
14/07/2021 15:35:58[DEBUG] output_folder:  ../prueba/gen_nets/20210713-184900_8/  
14/07/2021 15:35:58[DEBUG] html_path:  ../prueba/gen_nets/20210713-184900_8/  
14/07/2021 15:35:58[DEBUG] txt_path:  ../prueba/gen_nets/20210713-184900_8/txt_info  

--------------------------------------------------------------------------   
14/07/2021 15:35:58[INFO] Ejecutando petrinator para conocer estado de la red...   
--------------------------------------------------------------------------
   
14/07/2021 15:35:59[ERROR] La red ingresada no tiene deadlock, cerrando analisis 
  
