 Minimal siphons 
3 8 10 13 15 22 23 25
2 8 10 13 15 21 25
1 10 12 24
12 13 14 15 16 17 18 19 20
7 8 9 10 11
1 8 12 15 21
1 5
1 8 12 23
2 10 13 14 25
2 4
1 26 2 7 12 14 15 18
1 2 5
1 27 2 12 14 18
3 7 10 13 15 22 25
2 3 4
1 2 3 6
1 2 3 5
3 7 12 15 22
3 4 8 12 15 22 23
3 4 8 12 15 21 22
3 8 10 13 15 21 22 25
 Minimal traps 
1 10 12 24
2 7 10 12 14 22 25
3 7 12 15 22
12 13 14 15 16 17 18 19 20
7 8 9 10 11
2 10 13 14 25
2 4
1 4 7 12 15 22 23
1 26 7 12 14 15 18 23
1 27 7 12 14 18 22 23
1 8 12 15 21
1 5
1 8 12 23
1 27 8 12 14 18 23
1 27 5 12 14 18
1 27 2 12 14 18
1 27 8 12 14 18 21
1 27 7 8 12 14 18 23
1 27 7 8 12 14 18 21
1 27 7 12 14 18 21 22
1 27 26 7 12 14 18 23
1 27 26 7 12 14 18 21
1 26 7 12 14 15 18 21
1 26 2 7 12 14 15 18
1 3 5 6
1 2 3 6
1 4 5
1 2 4
1 4 7 12 15 21 22
1 7 10 12 14 22 23 25
1 8 10 12 14 21 25
1 26 7 10 12 14 18 23 25
1 26 7 10 12 14 18 21 25
1 26 2 7 10 12 14 18 25
1 7 10 12 14 21 22 25
 Analysis time: 1.215s