 Minimal siphons 
14 15
3 8 11 21 22 23
2 8 21 23
1 8 21
6 7 8 9
1 7 11 13 20
2 7 23
2 4
1 24 2 6 7 10 11 16
2 8 11 13 19
3 7 11 22 23
3 6 11 22
1 2 3 5
3 4 7 11 13 20 22
3 8 11 13 19 22 23
3 8 11 13 19 20 22
3 4 8 11 13 20 21 22
10 11 12 13 14 16 17 18
3 8 11 13 14 19 20 22
 Minimal traps 
1 6 11 13 20 22 23
2 6 11 22 23
3 6 11 22
10 11 12 13 14 16 17 18
14 15
6 7 8 9
2 7 23
2 8 11 13 19
2 4
2 6 7 23
2 4 6 7 8 9
2 4 6 8 9 11 22
2 3 6 8 9 11 22
1 7 11 13 20
1 8 21
1 2 4
1 2 3 5
1 7 21 23
1 2 7 23
1 7 8 21
1 6 7 21 23
1 2 6 7 23
1 2 4 6 7 8 9
1 2 3 5 6 7 8 9
1 6 7 8 21
1 6 11 21 22 23
1 2 6 11 22 23
1 2 4 6 11 22
1 2 3 6 11 22
1 4 6 8 11 21 22
1 3 6 8 11 21 22
1 24 6 10 11 13 14 16 17 18 22
1 24 6 7 10 11 13 14 16 17 18
1 24 6 10 11 13 16 19 22
1 24 6 7 10 11 13 16 19
1 6 11 13 19 20 22
1 4 6 11 13 20 22
1 24 6 10 11 13 16 20 22
 Analysis time: 0.418s