18/07/2021 14:29:53[DEBUG] pflow_file:  ../analysis/analisis_8_08072021/gen_nets/20210708-094213_36/net.pflow  
18/07/2021 14:29:53[DEBUG] output_folder:  ../analysis/analisis_8_08072021/gen_nets/20210708-094213_36/  
18/07/2021 14:29:53[DEBUG] html_path:  ../analysis/analisis_8_08072021/gen_nets/20210708-094213_36/  
18/07/2021 14:29:53[DEBUG] txt_path:  ../analysis/analisis_8_08072021/gen_nets/20210708-094213_36/txt_info  

--------------------------------------------------------------------------   
18/07/2021 14:29:53[INFO] Ejecutando petrinator para conocer estado de la red...   
--------------------------------------------------------------------------
   
+----+-----+-------------------------------------------------------+
| ID | Nro |                         Plazas                        |
+----+-----+-------------------------------------------------------+
| 0  |  29 |     ['P3', 'P6', 'P9', 'P12', 'P19', 'P26', 'P27']    |
| 1  |  36 |     ['P3', 'P6', 'P9', 'P12', 'P19', 'P25', 'P27']    |
| 2  |  3  | ['P2', 'P6', 'P9', 'P13', 'P18', 'P23', 'P24', 'P26'] |
| 3  |  11 |     ['P2', 'P6', 'P9', 'P12', 'P18', 'P24', 'P26']    |
+----+-----+-------------------------------------------------------+
+----+----+----+----+----+----+----+----+----+----+-----+-----+-----+-----+-----+-----+-----+-----+
| T0 | T1 | T2 | T3 | T4 | T5 | T6 | T7 | T8 | T9 | T10 | T11 | T12 | T13 | T14 | T15 | T16 | T17 |
+----+----+----+----+----+----+----+----+----+----+-----+-----+-----+-----+-----+-----+-----+-----+
| 1  | 1  | 1  | 1  | 0  | 0  | 0  | 0  | 0  | 0  |  0  |  0  |  0  |  0  |  0  |  0  |  0  |  0  |
| 0  | 0  | 0  | 0  | 1  | 1  | 1  | 1  | 1  | 1  |  0  |  0  |  0  |  0  |  0  |  1  |  1  |  1  |
| 0  | 0  | 0  | 0  | 1  | 1  | 1  | 0  | 0  | 0  |  1  |  1  |  1  |  1  |  1  |  1  |  1  |  1  |
+----+----+----+----+----+----+----+----+----+----+-----+-----+-----+-----+-----+-----+-----+-----+
18/07/2021 14:30:01[INFO] Supervisores para agregar   
+-----+---------+----------------------------+--------------+
|  ID | Marcado |        T - Entrada         |  T - Salida  |
+-----+---------+----------------------------+--------------+
| P28 |    1    | ['T3', 'T6', 'T10', 'T13'] | ['T1', 'T5'] |
| P28 |    1    |    ['T3', 'T6', 'T10']     | ['T1', 'T5'] |
| P28 |    2    | ['T2', 'T7', 'T9', 'T14']  | ['T1', 'T5'] |
| P28 |    1    | ['T2', 'T6', 'T9', 'T13']  | ['T1', 'T5'] |
+-----+---------+----------------------------+--------------+
18/07/2021 14:30:01[INFO] Supervisores agregados   
+-----+---------+-------------+------------+
| Nro | Marcado | T - Entrada | T - Salida |
+-----+---------+-------------+------------+
+-----+---------+-------------+------------+
18/07/2021 14:30:01[INFO] Ejecutando accion...   
18/07/2021 14:30:01[INFO] Ejecutando accion...   
18/07/2021 14:30:01[ACTION] Agrego supervisor aleatorio Numero: 1  

--------------------------------------------------------------------------   
18/07/2021 14:30:01[INFO] Ejecutando petrinator para conocer estado de la red...   
--------------------------------------------------------------------------
   

--------------------------------------------------------------------------
   
18/07/2021 14:30:10[INFO] Calculando recompensa..   
18/07/2021 14:30:10[REWARD] El sifon se controlo correctamente, recompensa -1   

--------------------------------------------------------------------------
   
18/07/2021 14:30:10[STATE] Cambie al estado 3: Hay igual cantidad de sifones vacios en deadlock   
+-----------------------------------------------------+--------------------+------------------------+
|                   Estados/Acciones                  | Agregar supervisor | Agregar o quitar arcos |
+-----------------------------------------------------+--------------------+------------------------+
|                        Start                        |        -1.0        |          0.0           |
|        Más sifónes vacíos en estado deadlock        |        0.0         |          0.0           |
|       Menos sifónes vacíos en estado deadlock       |        0.0         |          0.0           |
| Igual cantidad de sifónes vacíos en estado deadlock |        0.0         |          0.0           |
|                         End                         |        0.0         |          0.0           |
+-----------------------------------------------------+--------------------+------------------------+
+----+-----+-------------------------------------------------------+
| ID | Nro |                         Plazas                        |
+----+-----+-------------------------------------------------------+
| 4  |  33 |     ['P3', 'P6', 'P9', 'P12', 'P19', 'P26', 'P27']    |
| 5  |  46 |     ['P3', 'P6', 'P9', 'P12', 'P19', 'P25', 'P27']    |
| 6  |  3  | ['P2', 'P6', 'P9', 'P13', 'P18', 'P23', 'P24', 'P26'] |
| 7  |  11 |     ['P2', 'P6', 'P9', 'P12', 'P18', 'P24', 'P26']    |
+----+-----+-------------------------------------------------------+
+----+----+----+----+----+----+----+----+----+----+-----+-----+-----+-----+-----+-----+-----+-----+
| T0 | T1 | T2 | T3 | T4 | T5 | T6 | T7 | T8 | T9 | T10 | T11 | T12 | T13 | T14 | T15 | T16 | T17 |
+----+----+----+----+----+----+----+----+----+----+-----+-----+-----+-----+-----+-----+-----+-----+
| 1  | 1  | 1  | 1  | 0  | 0  | 0  | 0  | 0  | 0  |  0  |  0  |  0  |  0  |  0  |  0  |  0  |  0  |
| 0  | 0  | 0  | 0  | 1  | 1  | 1  | 0  | 0  | 0  |  1  |  1  |  1  |  1  |  1  |  1  |  1  |  1  |
+----+----+----+----+----+----+----+----+----+----+-----+-----+-----+-----+-----+-----+-----+-----+
18/07/2021 14:30:10[INFO] Supervisores para agregar   
+-----+---------+----------------------------+--------------+
|  ID | Marcado |        T - Entrada         |  T - Salida  |
+-----+---------+----------------------------+--------------+
| P29 |    1    | ['T3', 'T6', 'T10', 'T13'] | ['T1', 'T5'] |
| P29 |    1    |    ['T3', 'T6', 'T10']     | ['T1', 'T5'] |
| P29 |    2    | ['T2', 'T7', 'T9', 'T14']  | ['T1', 'T5'] |
| P29 |    1    | ['T2', 'T6', 'T9', 'T13']  | ['T1', 'T5'] |
+-----+---------+----------------------------+--------------+
18/07/2021 14:30:10[INFO] Supervisores agregados   
+-----+---------+---------------------+--------------+
| Nro | Marcado |     T - Entrada     |  T - Salida  |
+-----+---------+---------------------+--------------+
|  1  |    1    | ['T3', 'T6', 'T10'] | ['T1', 'T5'] |
+-----+---------+---------------------+--------------+
18/07/2021 14:30:10[INFO] Ejecutando accion...   
18/07/2021 14:30:10[ACTION] Agregar o quitar arcos   
18/07/2021 14:30:10[ACTION] Eliminar arco desde T6 hasta P28   
18/07/2021 14:30:10[INFO] Se elimino el arco con metodo 2 desde T6 hasta P28   
18/07/2021 14:30:10[ACTION] La transicion en conflicto T11 le tiene que devolver un token al supervisor P28   
18/07/2021 14:30:10[INFO] Se agrego un arco desde T11 hasta P28   

--------------------------------------------------------------------------   
18/07/2021 14:30:10[INFO] Ejecutando petrinator para conocer estado de la red...   
--------------------------------------------------------------------------
   

--------------------------------------------------------------------------
   
18/07/2021 14:30:15[INFO] Calculando recompensa..   
18/07/2021 14:30:15[REWARD] Hay menos o igual cantidad de sifones vacios que en el estado anterior, recompensa -1   

--------------------------------------------------------------------------
   
18/07/2021 14:30:15[STATE] Cambie al estado 2: Hay menos sifones vacios en deadlock   
+-----------------------------------------------------+--------------------+------------------------+
|                   Estados/Acciones                  | Agregar supervisor | Agregar o quitar arcos |
+-----------------------------------------------------+--------------------+------------------------+
|                        Start                        |        -1.0        |          0.0           |
|        Más sifónes vacíos en estado deadlock        |        0.0         |          0.0           |
|       Menos sifónes vacíos en estado deadlock       |        0.0         |          0.0           |
| Igual cantidad de sifónes vacíos en estado deadlock |        0.0         |          -1.0          |
|                         End                         |        0.0         |          0.0           |
+-----------------------------------------------------+--------------------+------------------------+
+----+-----+-------------------------------------------------------+
| ID | Nro |                         Plazas                        |
+----+-----+-------------------------------------------------------+
| 8  |  3  | ['P2', 'P6', 'P9', 'P13', 'P18', 'P23', 'P24', 'P26'] |
| 9  |  11 |     ['P2', 'P6', 'P9', 'P12', 'P18', 'P24', 'P26']    |
| 10 |  33 |     ['P3', 'P6', 'P9', 'P12', 'P19', 'P26', 'P27']    |
+----+-----+-------------------------------------------------------+
+----+----+----+----+----+----+----+----+----+----+-----+-----+-----+-----+-----+-----+-----+-----+
| T0 | T1 | T2 | T3 | T4 | T5 | T6 | T7 | T8 | T9 | T10 | T11 | T12 | T13 | T14 | T15 | T16 | T17 |
+----+----+----+----+----+----+----+----+----+----+-----+-----+-----+-----+-----+-----+-----+-----+
| 1  | 1  | 1  | 1  | 0  | 0  | 0  | 0  | 0  | 0  |  0  |  0  |  0  |  0  |  0  |  0  |  0  |  0  |
| 0  | 0  | 0  | 0  | 1  | 1  | 1  | 1  | 1  | 1  |  0  |  0  |  0  |  0  |  0  |  1  |  1  |  1  |
| 0  | 0  | 0  | 0  | 1  | 1  | 1  | 0  | 0  | 0  |  1  |  1  |  1  |  1  |  1  |  1  |  1  |  1  |
+----+----+----+----+----+----+----+----+----+----+-----+-----+-----+-----+-----+-----+-----+-----+
18/07/2021 14:30:15[INFO] Supervisores para agregar   
+-----+---------+----------------------------+--------------+
|  ID | Marcado |        T - Entrada         |  T - Salida  |
+-----+---------+----------------------------+--------------+
| P29 |    2    | ['T2', 'T7', 'T9', 'T14']  | ['T1', 'T5'] |
| P29 |    1    | ['T2', 'T6', 'T9', 'T13']  | ['T1', 'T5'] |
| P29 |    1    | ['T3', 'T6', 'T10', 'T13'] | ['T1', 'T5'] |
+-----+---------+----------------------------+--------------+
18/07/2021 14:30:15[INFO] Supervisores agregados   
+-----+---------+---------------------+--------------+
| Nro | Marcado |     T - Entrada     |  T - Salida  |
+-----+---------+---------------------+--------------+
|  1  |    1    | ['T3', 'T6', 'T10'] | ['T1', 'T5'] |
+-----+---------+---------------------+--------------+
18/07/2021 14:30:15[INFO] Ejecutando accion...   
18/07/2021 14:30:15[ACTION] Agregar o quitar arcos   

--------------------------------------------------------------------------   
18/07/2021 14:30:15[INFO] Ejecutando petrinator para conocer estado de la red...   
--------------------------------------------------------------------------
   

--------------------------------------------------------------------------
   
18/07/2021 14:30:23[INFO] Calculando recompensa..   
18/07/2021 14:30:23[REWARD] Hay menos o igual cantidad de sifones vacios que en el estado anterior, recompensa -1   

--------------------------------------------------------------------------
   
18/07/2021 14:30:23[STATE] Cambie al estado 3: Hay igual cantidad de sifones vacios en deadlock   
+-----------------------------------------------------+--------------------+------------------------+
|                   Estados/Acciones                  | Agregar supervisor | Agregar o quitar arcos |
+-----------------------------------------------------+--------------------+------------------------+
|                        Start                        |        -1.0        |          0.0           |
|        Más sifónes vacíos en estado deadlock        |        0.0         |          0.0           |
|       Menos sifónes vacíos en estado deadlock       |        0.0         |          -1.0          |
| Igual cantidad de sifónes vacíos en estado deadlock |        0.0         |          -1.0          |
|                         End                         |        0.0         |          0.0           |
+-----------------------------------------------------+--------------------+------------------------+
+----+-----+-------------------------------------------------------+
| ID | Nro |                         Plazas                        |
+----+-----+-------------------------------------------------------+
| 11 |  3  | ['P2', 'P6', 'P9', 'P13', 'P18', 'P23', 'P24', 'P26'] |
| 12 |  11 |     ['P2', 'P6', 'P9', 'P12', 'P18', 'P24', 'P26']    |
| 13 |  33 |     ['P3', 'P6', 'P9', 'P12', 'P19', 'P26', 'P27']    |
+----+-----+-------------------------------------------------------+
+----+----+----+----+----+----+----+----+----+----+-----+-----+-----+-----+-----+-----+-----+-----+
| T0 | T1 | T2 | T3 | T4 | T5 | T6 | T7 | T8 | T9 | T10 | T11 | T12 | T13 | T14 | T15 | T16 | T17 |
+----+----+----+----+----+----+----+----+----+----+-----+-----+-----+-----+-----+-----+-----+-----+
| 1  | 1  | 1  | 1  | 0  | 0  | 0  | 0  | 0  | 0  |  0  |  0  |  0  |  0  |  0  |  0  |  0  |  0  |
| 0  | 0  | 0  | 0  | 1  | 1  | 1  | 1  | 1  | 1  |  0  |  0  |  0  |  0  |  0  |  1  |  1  |  1  |
| 0  | 0  | 0  | 0  | 1  | 1  | 1  | 0  | 0  | 0  |  1  |  1  |  1  |  1  |  1  |  1  |  1  |  1  |
+----+----+----+----+----+----+----+----+----+----+-----+-----+-----+-----+-----+-----+-----+-----+
18/07/2021 14:30:23[INFO] Supervisores para agregar   
+-----+---------+----------------------------+--------------+
|  ID | Marcado |        T - Entrada         |  T - Salida  |
+-----+---------+----------------------------+--------------+
| P29 |    2    | ['T2', 'T7', 'T9', 'T14']  | ['T1', 'T5'] |
| P29 |    1    | ['T2', 'T6', 'T9', 'T13']  | ['T1', 'T5'] |
| P29 |    1    | ['T3', 'T6', 'T10', 'T13'] | ['T1', 'T5'] |
+-----+---------+----------------------------+--------------+
18/07/2021 14:30:23[INFO] Supervisores agregados   
+-----+---------+---------------------+--------------+
| Nro | Marcado |     T - Entrada     |  T - Salida  |
+-----+---------+---------------------+--------------+
|  1  |    1    | ['T3', 'T6', 'T10'] | ['T1', 'T5'] |
+-----+---------+---------------------+--------------+
18/07/2021 14:30:23[INFO] Ejecutando accion...   
18/07/2021 14:30:23[INFO] Ejecutando accion...   
18/07/2021 14:30:23[ACTION] Agrego supervisor aleatorio Numero: 1  

--------------------------------------------------------------------------   
18/07/2021 14:30:23[INFO] Ejecutando petrinator para conocer estado de la red...   
--------------------------------------------------------------------------
   

--------------------------------------------------------------------------
   
18/07/2021 14:30:31[INFO] Calculando recompensa..   
18/07/2021 14:30:31[REWARD] El sifon se controlo correctamente, recompensa -1   

--------------------------------------------------------------------------
   
18/07/2021 14:30:31[STATE] Cambie al estado 3: Hay igual cantidad de sifones vacios en deadlock   
+-----------------------------------------------------+--------------------+------------------------+
|                   Estados/Acciones                  | Agregar supervisor | Agregar o quitar arcos |
+-----------------------------------------------------+--------------------+------------------------+
|                        Start                        |        -1.0        |          0.0           |
|        Más sifónes vacíos en estado deadlock        |        0.0         |          0.0           |
|       Menos sifónes vacíos en estado deadlock       |        0.0         |          -1.0          |
| Igual cantidad de sifónes vacíos en estado deadlock |        -1.0        |          -1.0          |
|                         End                         |        0.0         |          0.0           |
+-----------------------------------------------------+--------------------+------------------------+
+----+-----+-------------------------------------------------------+
| ID | Nro |                         Plazas                        |
+----+-----+-------------------------------------------------------+
| 14 |  3  | ['P2', 'P6', 'P9', 'P13', 'P18', 'P23', 'P24', 'P26'] |
| 15 |  15 |     ['P2', 'P6', 'P9', 'P12', 'P18', 'P24', 'P26']    |
| 16 |  42 |     ['P3', 'P6', 'P9', 'P12', 'P19', 'P26', 'P27']    |
+----+-----+-------------------------------------------------------+
+----+----+----+----+----+----+----+----+----+----+-----+-----+-----+-----+-----+-----+-----+-----+
| T0 | T1 | T2 | T3 | T4 | T5 | T6 | T7 | T8 | T9 | T10 | T11 | T12 | T13 | T14 | T15 | T16 | T17 |
+----+----+----+----+----+----+----+----+----+----+-----+-----+-----+-----+-----+-----+-----+-----+
| 1  | 1  | 1  | 1  | 0  | 0  | 0  | 0  | 0  | 0  |  0  |  0  |  0  |  0  |  0  |  0  |  0  |  0  |
+----+----+----+----+----+----+----+----+----+----+-----+-----+-----+-----+-----+-----+-----+-----+
18/07/2021 14:30:31[INFO] Supervisores para agregar   
+-----+---------+----------------------------+--------------+
|  ID | Marcado |        T - Entrada         |  T - Salida  |
+-----+---------+----------------------------+--------------+
| P30 |    2    | ['T2', 'T7', 'T9', 'T14']  | ['T1', 'T5'] |
| P30 |    1    | ['T2', 'T6', 'T9', 'T13']  | ['T1', 'T5'] |
| P30 |    1    | ['T3', 'T6', 'T10', 'T13'] | ['T1', 'T5'] |
+-----+---------+----------------------------+--------------+
18/07/2021 14:30:31[INFO] Supervisores agregados   
+-----+---------+---------------------------+--------------+
| Nro | Marcado |        T - Entrada        |  T - Salida  |
+-----+---------+---------------------------+--------------+
|  1  |    1    |    ['T3', 'T6', 'T10']    | ['T1', 'T5'] |
|  2  |    1    | ['T2', 'T6', 'T9', 'T13'] | ['T1', 'T5'] |
+-----+---------+---------------------------+--------------+
18/07/2021 14:30:31[INFO] Ejecutando accion...   
18/07/2021 14:30:31[ACTION] Agregar o quitar arcos   
18/07/2021 14:30:31[ACTION] Eliminar arco desde T6 hasta P29   
18/07/2021 14:30:31[INFO] Se elimino el arco con metodo 2 desde T6 hasta P29   

--------------------------------------------------------------------------   
18/07/2021 14:30:31[INFO] Ejecutando petrinator para conocer estado de la red...   
--------------------------------------------------------------------------
   

--------------------------------------------------------------------------
   
18/07/2021 14:30:38[INFO] Calculando recompensa..   
18/07/2021 14:30:38[REWARD] No hay mas deadlock, recompensa 100   

--------------------------------------------------------------------------
   
18/07/2021 14:30:38[STATE] Se llego al estado deseado, NO HAY MAS DEADLOCK   

--------------------------------------------------------------------------
   
18/07/2021 14:30:38[STATE] Cambie al estado 2: Hay menos sifones vacios en deadlock   
+-----------------------------------------------------+--------------------+------------------------+
|                   Estados/Acciones                  | Agregar supervisor | Agregar o quitar arcos |
+-----------------------------------------------------+--------------------+------------------------+
|                        Start                        |        -1.0        |          0.0           |
|        Más sifónes vacíos en estado deadlock        |        0.0         |          0.0           |
|       Menos sifónes vacíos en estado deadlock       |        0.0         |          -1.0          |
| Igual cantidad de sifónes vacíos en estado deadlock |        -1.0        |         100.0          |
|                         End                         |        0.0         |          0.0           |
+-----------------------------------------------------+--------------------+------------------------+
