19/06/2021 18:10:31[DEBUG] pflow_file:  ../Prueba/gen_nets/20210619-175223_39/net.pflow  
19/06/2021 18:10:31[DEBUG] output_folder:  ../Prueba/gen_nets/20210619-175223_39/  
19/06/2021 18:10:31[DEBUG] html_path:  ../Prueba/gen_nets/20210619-175223_39/  
19/06/2021 18:10:31[DEBUG] txt_path:  ../Prueba/gen_nets/20210619-175223_39/txt_info  

--------------------------------------------------------------------------   
19/06/2021 18:10:31[INFO] Ejecutando petrinator para conocer estado de la red...   
--------------------------------------------------------------------------
   
19/06/2021 18:10:35[INFO] Leyendo archivos...   
19/06/2021 18:10:35[INFO] Cantidad de estados 81  
19/06/2021 18:10:35[INFO] Cantidad de transiciones 15  
19/06/2021 18:10:35[INFO] Cantidad de plazas 24  
19/06/2021 18:10:35[INFO] Cantidad de sifones 34  
19/06/2021 18:10:35[INFO] Cantidad de trampas 29  

--------------------------------------------------------------------------
   
19/06/2021 18:10:35[INFO] Cantidad de entrenamientos a realizar:  1  
19/06/2021 18:10:35[INFO] Entrenamiento numero : 0 
 
19/06/2021 18:10:35[INFO] Q-TABLE   
+-----------------------------------------------------+--------------------+------------------------+
|                   Estados/Acciones                  | Agregar supervisor | Agregar o quitar arcos |
+-----------------------------------------------------+--------------------+------------------------+
|                        Start                        |        0.0         |          0.0           |
|        Más sifónes vacíos en estado deadlock        |        0.0         |          0.0           |
|       Menos sifónes vacíos en estado deadlock       |        0.0         |          0.0           |
| Igual cantidad de sifónes vacíos en estado deadlock |        0.0         |          0.0           |
|                         End                         |        0.0         |          0.0           |
+-----------------------------------------------------+--------------------+------------------------+

--------------------------------------------------------------------------   
19/06/2021 18:10:35[INFO] Ejecutando petrinator para conocer estado de la red...   
--------------------------------------------------------------------------
   
19/06/2021 18:10:39[INFO] Importando datos desde html...   
19/06/2021 18:10:39[INFO] Analizando cantidad de supervisores que se pueden agregar...   
19/06/2021 18:10:39[ERROR] marcado: 2 t_in: 4   
19/06/2021 18:10:39[ERROR] marcado: 3 t_in: 4   
19/06/2021 18:10:39[INFO] Cantidad de transiciones: 15  
19/06/2021 18:10:39[INFO] Estados de deadlock : [19]  
19/06/2021 18:10:39[INFO] Cantidad de sifones: 34  
19/06/2021 18:10:39[INFO] Cantidad de sifones vacios en estado de deadlock: 2 
 
19/06/2021 18:10:39[INFO] SIFONES   
+----+-----+--------------------------------------------------------+
| ID | Nro |                         Plazas                         |
+----+-----+--------------------------------------------------------+
| 0  |  10 |    ['P1', 'P7', 'P10', 'P14', 'P16', 'P20', 'P21']     |
| 1  |  33 | ['P2', 'P7', 'P10', 'P14', 'P16', 'P20', 'P21', 'P22'] |
+----+-----+--------------------------------------------------------+
19/06/2021 18:10:39[INFO] T INVARIANTES   
+----+----+----+----+----+----+----+----+----+----+-----+-----+-----+-----+-----+
| T0 | T1 | T2 | T3 | T4 | T5 | T6 | T7 | T8 | T9 | T10 | T11 | T12 | T13 | T14 |
+----+----+----+----+----+----+----+----+----+----+-----+-----+-----+-----+-----+
| 1  | 1  | 1  | 0  | 0  | 0  | 0  | 0  | 0  | 0  |  0  |  0  |  0  |  0  |  0  |
| 0  | 0  | 0  | 1  | 1  | 1  | 0  | 0  | 0  | 0  |  0  |  0  |  0  |  0  |  0  |
| 0  | 0  | 0  | 0  | 0  | 0  | 1  | 1  | 1  | 0  |  0  |  0  |  0  |  1  |  1  |
| 0  | 0  | 0  | 0  | 0  | 0  | 0  | 0  | 0  | 1  |  1  |  1  |  1  |  1  |  1  |
+----+----+----+----+----+----+----+----+----+----+-----+-----+-----+-----+-----+
19/06/2021 18:10:39[INFO] POSIBLES SUPERVISORES A AGREGAR   
+-----+---------+---------------------------+---------------------+
|  ID | Marcado |        T - Entrada        |      T - Salida     |
+-----+---------+---------------------------+---------------------+
| P25 |    2    | ['T2', 'T5', 'T8', 'T12'] | ['T1', 'T4', 'T14'] |
| P25 |    3    | ['T2', 'T5', 'T8', 'T12'] | ['T1', 'T4', 'T14'] |
+-----+---------+---------------------------+---------------------+

--------------------------------------------------------------------------
   
19/06/2021 18:10:39[INFO] Ejecutando accion...   
19/06/2021 18:10:39[ACTION] Agregar supervisor    
19/06/2021 18:10:39[ACTION] Agrego supervisor Numero: 0  

--------------------------------------------------------------------------   
19/06/2021 18:10:39[INFO] Ejecutando petrinator para conocer estado de la red...   
--------------------------------------------------------------------------
   
19/06/2021 18:10:42[INFO] Importando datos desde html...   
19/06/2021 18:10:42[INFO] Analizando cantidad de supervisores que se pueden agregar...   
19/06/2021 18:10:42[INFO] Cantidad de sifones vacios en estado de deadlock ANTES: 2  
19/06/2021 18:10:42[INFO] Cantidad de sifones vacioes en estado de deadlock AHORA: 0  
19/06/2021 18:10:42[INFO] Cantidad de transiciones: 15  
19/06/2021 18:10:42[INFO] Estados de deadlock : []  
19/06/2021 18:10:42[INFO] Cantidad de sifones: 35  
19/06/2021 18:10:42[INFO] Cantidad de sifones vacios en estado de deadlock: 0 
 
19/06/2021 18:10:42[INFO] SIFONES   
+----+-----+--------+
| ID | Nro | Plazas |
+----+-----+--------+
+----+-----+--------+
19/06/2021 18:10:42[INFO] T INVARIANTES   
+----+----+----+----+----+----+----+----+----+----+-----+-----+-----+-----+-----+
| T0 | T1 | T2 | T3 | T4 | T5 | T6 | T7 | T8 | T9 | T10 | T11 | T12 | T13 | T14 |
+----+----+----+----+----+----+----+----+----+----+-----+-----+-----+-----+-----+
| 1  | 1  | 1  | 0  | 0  | 0  | 0  | 0  | 0  | 0  |  0  |  0  |  0  |  0  |  0  |
| 0  | 0  | 0  | 1  | 1  | 1  | 0  | 0  | 0  | 0  |  0  |  0  |  0  |  0  |  0  |
| 0  | 0  | 0  | 0  | 0  | 0  | 1  | 1  | 1  | 0  |  0  |  0  |  0  |  1  |  1  |
| 0  | 0  | 0  | 0  | 0  | 0  | 0  | 0  | 0  | 1  |  1  |  1  |  1  |  1  |  1  |
+----+----+----+----+----+----+----+----+----+----+-----+-----+-----+-----+-----+
19/06/2021 18:10:42[INFO] POSIBLES SUPERVISORES A AGREGAR   
+----+---------+-------------+------------+
| ID | Marcado | T - Entrada | T - Salida |
+----+---------+-------------+------------+
+----+---------+-------------+------------+
19/06/2021 18:10:42[INFO] Actualizando estado de la red..   
19/06/2021 18:10:42[STATE] Cambie al estado 2: Hay menos sifones vacios en deadlock   

--------------------------------------------------------------------------
   
19/06/2021 18:10:42[INFO] Calculando recompensa..   
19/06/2021 18:10:42[REWARD] No hay mas deadlock, recompensa 100   

--------------------------------------------------------------------------
   
19/06/2021 18:10:42[INFO] NEW Q-TABLE   
+-----------------------------------------------------+--------------------+------------------------+
|                   Estados/Acciones                  | Agregar supervisor | Agregar o quitar arcos |
+-----------------------------------------------------+--------------------+------------------------+
|                        Start                        |        90.0        |          0.0           |
|        Más sifónes vacíos en estado deadlock        |        0.0         |          0.0           |
|       Menos sifónes vacíos en estado deadlock       |        0.0         |          0.0           |
| Igual cantidad de sifónes vacíos en estado deadlock |        0.0         |          0.0           |
|                         End                         |        0.0         |          0.0           |
+-----------------------------------------------------+--------------------+------------------------+

--------------------------------------------------------------------------
   
19/06/2021 18:10:42[STATE] Se llego al estado deseado, NO HAY MAS DEADLOCK   

--------------------------------------------------------------------------
   
19/06/2021 18:10:42[INFO] Training complete! 
  
