21/07/2021 09:27:52[DEBUG] pflow_file:  ../analysis/analisis_12_20072021/gen_nets1/20210720-191422_15/net.pflow  
21/07/2021 09:27:52[DEBUG] output_folder:  ../analysis/analisis_12_20072021/gen_nets1/20210720-191422_15/  
21/07/2021 09:27:52[DEBUG] html_path:  ../analysis/analisis_12_20072021/gen_nets1/20210720-191422_15/  
21/07/2021 09:27:52[DEBUG] txt_path:  ../analysis/analisis_12_20072021/gen_nets1/20210720-191422_15/txt_info  

--------------------------------------------------------------------------   
21/07/2021 09:27:52[INFO] Ejecutando petrinator para conocer estado de la red...   
--------------------------------------------------------------------------
   
21/07/2021 09:27:56[ERROR] La red ingresada no tiene deadlock, cerrando analisis 
  
