 Minimal siphons 
16 19
2 7 8 12 14 18 25 27
1 7 12 18 25
11 14
10 13
6 8
4 5 6 7 9
1 5 12 26
1 29 10 11 20
1 5 24
1 5 6 24
1 28 4 5 6 10 11 20
1 6 8 24
1 6 7 8 24
1 5 6 7 24
2 5 12 14 26 27
1 2 3
2 5 10 27
2 5 10 23
2 5 12 14 23 26
2 5 7 12 14 18 25 27
2 5 7 12 14 18 23 25
2 7 8 10 12 18 25 27
2 7 8 10 12 18 23 25
2 7 8 12 14 18 23 25
10 11 12 15 16 17 18 20 21 22
 Minimal traps 
16 19
1 28 4 5 10 20 27
2 5 10 27
10 13
11 14
6 8
4 5 6 7 9
2 5 10 23
1 29 5 10 20 27
1 5 8 10 14 18 25 27
1 2 3
1 7 12 18 25
1 5 7 10 14 18 25 27
1 5 10 14 26 27
1 5 12 26
1 5 24
1 5 10 14 23 26
1 5 7 10 14 18 23 25
1 5 8 10 12 18 25 27
1 5 8 10 12 18 23 25
1 5 8 10 14 18 23 25
1 29 10 11 20
1 29 5 10 20 23
1 28 4 5 10 20 23
1 28 4 5 10 11 20 26
1 28 4 5 6 10 11 20
10 11 12 15 16 17 18 20 21 22
1 28 4 5 10 16 17 18 20 21 22 27
1 28 4 5 10 16 17 18 20 21 22 23
1 28 4 5 10 11 16 17 18 20 21 22 26
1 28 4 5 10 11 16 17 18 20 21 22 24
 Analysis time: 1.377s