 Minimal siphons 
7 11 14
2 6 10 16 21
1 6 10 21
25 6 9
9 10 11 12
1 10 18
1 4
1 6 20
1 6 19
1 6 17
2 10 16 18
2 9 16
2 3
1 2 5
2 7 10 16 22
1 7 10 22
7 9 13
6 7 8
1 7 9 24
1 7 15
1 7 9 23
1 7 10 21 24
1 7 10 21 23
1 7 10 13 21
2 7 10 16 21 24
2 7 10 16 21 23
2 7 10 15 16 21
2 7 10 13 16 21
 Minimal traps 
1 6 9 21 24
7 11 14
2 9 16
25 6 9
9 10 11 12
2 3
7 9 13
6 7 8
1 7 9 24
1 9 16 18
1 10 18
1 4
1 2 5
1 7 10 22
1 7 15
1 7 9 23
1 7 9 16 22
1 7 9 13 15
1 4 7 9 13
1 2 5 7 9 13
1 2 3 7 9 13
1 6 10 21
1 6 20
1 6 19
1 6 17
1 6 7 15
1 6 7 9 13 15
1 4 6 7 9 13
1 2 5 6 7 9 13
1 2 3 6 7 9 13
1 6 9 21 23
1 6 9 16 21
1 6 9 13 21
 Analysis time: 0.326s