19/07/2021 16:13:35[DEBUG] pflow_file:  ../analysis/analisis_11_18072021/gen_nets/20210719-151114_25/net.pflow  
19/07/2021 16:13:35[DEBUG] output_folder:  ../analysis/analisis_11_18072021/gen_nets/20210719-151114_25/  
19/07/2021 16:13:35[DEBUG] html_path:  ../analysis/analisis_11_18072021/gen_nets/20210719-151114_25/  
19/07/2021 16:13:35[DEBUG] txt_path:  ../analysis/analisis_11_18072021/gen_nets/20210719-151114_25/txt_info  

--------------------------------------------------------------------------   
19/07/2021 16:13:35[INFO] Ejecutando petrinator para conocer estado de la red...   
--------------------------------------------------------------------------
   
19/07/2021 16:13:39[ERROR] La red ingresada no tiene deadlock, cerrando analisis 
  
