21/07/2021 09:28:17[DEBUG] pflow_file:  ../analysis/analisis_12_20072021/gen_nets1/20210720-191422_2/net.pflow  
21/07/2021 09:28:17[DEBUG] output_folder:  ../analysis/analisis_12_20072021/gen_nets1/20210720-191422_2/  
21/07/2021 09:28:17[DEBUG] html_path:  ../analysis/analisis_12_20072021/gen_nets1/20210720-191422_2/  
21/07/2021 09:28:17[DEBUG] txt_path:  ../analysis/analisis_12_20072021/gen_nets1/20210720-191422_2/txt_info  

--------------------------------------------------------------------------   
21/07/2021 09:28:17[INFO] Ejecutando petrinator para conocer estado de la red...   
--------------------------------------------------------------------------
   
21/07/2021 09:28:23[INFO] Leyendo archivos...   
21/07/2021 09:28:23[ERROR] Se produjo un error inesperado en la ejecucion del petrinator, abandonando analisis 
  
