18/07/2021 14:30:38[DEBUG] pflow_file:  ../analysis/analisis_8_08072021/gen_nets/20210708-094213_4/net.pflow  
18/07/2021 14:30:38[DEBUG] output_folder:  ../analysis/analisis_8_08072021/gen_nets/20210708-094213_4/  
18/07/2021 14:30:38[DEBUG] html_path:  ../analysis/analisis_8_08072021/gen_nets/20210708-094213_4/  
18/07/2021 14:30:38[DEBUG] txt_path:  ../analysis/analisis_8_08072021/gen_nets/20210708-094213_4/txt_info  

--------------------------------------------------------------------------   
18/07/2021 14:30:38[INFO] Ejecutando petrinator para conocer estado de la red...   
--------------------------------------------------------------------------
   
18/07/2021 14:30:40[ERROR] La red ingresada no tiene deadlock, cerrando analisis 
  
