21/06/2021 18:58:03[DEBUG] pflow_file:  ../analisis_5_21062021/gen_nets/20210621-175515_29/net.pflow  
21/06/2021 18:58:03[DEBUG] output_folder:  ../analisis_5_21062021/gen_nets/20210621-175515_29/  
21/06/2021 18:58:03[DEBUG] html_path:  ../analisis_5_21062021/gen_nets/20210621-175515_29/  
21/06/2021 18:58:03[DEBUG] txt_path:  ../analisis_5_21062021/gen_nets/20210621-175515_29/txt_info  

--------------------------------------------------------------------------   
21/06/2021 18:58:03[INFO] Ejecutando petrinator para conocer estado de la red...   
--------------------------------------------------------------------------
   
21/06/2021 18:58:11[INFO] Leyendo archivos...   
21/06/2021 18:58:12[INFO] Cantidad de estados: 282  
21/06/2021 18:58:12[INFO] Cantidad de transiciones: 16  
21/06/2021 18:58:12[INFO] Cantidad de plazas: 25  
21/06/2021 18:58:12[INFO] Cantidad de sifones: 34  
21/06/2021 18:58:12[INFO] Cantidad de trampas: 33  

--------------------------------------------------------------------------
   
21/06/2021 18:58:12[INFO] Cantidad de entrenamientos a realizar:  1  
21/06/2021 18:58:12[INFO] Entrenamiento numero: 0 
 
21/06/2021 18:58:12[INFO] Q-TABLE   
+-----------------------------------------------------+--------------------+------------------------+
|                   Estados/Acciones                  | Agregar supervisor | Agregar o quitar arcos |
+-----------------------------------------------------+--------------------+------------------------+
|                        Start                        |        0.0         |          0.0           |
|        Más sifónes vacíos en estado deadlock        |        0.0         |          0.0           |
|       Menos sifónes vacíos en estado deadlock       |        0.0         |          0.0           |
| Igual cantidad de sifónes vacíos en estado deadlock |        0.0         |          0.0           |
|                         End                         |        0.0         |          0.0           |
+-----------------------------------------------------+--------------------+------------------------+

--------------------------------------------------------------------------   
21/06/2021 18:58:12[INFO] Ejecutando petrinator para conocer estado de la red...   
--------------------------------------------------------------------------
   
21/06/2021 18:58:21[INFO] Importando datos desde html...   
21/06/2021 18:58:21[INFO] Analizando cantidad de supervisores que se pueden agregar...   
21/06/2021 18:58:21[INFO] Cantidad de transiciones: 16  
21/06/2021 18:58:21[INFO] Estados de deadlock: [50]  
21/06/2021 18:58:21[INFO] Cantidad de sifones: 34  
21/06/2021 18:58:21[INFO] Cantidad de sifones vacios en estado de deadlock: 4 
 
21/06/2021 18:58:21[INFO] SIFONES   
+----+-----+--------------------------------------------------------+
| ID | Nro |                         Plazas                         |
+----+-----+--------------------------------------------------------+
| 0  |  10 |    ['P2', 'P5', 'P11', 'P15', 'P22', 'P23', 'P24']     |
| 1  |  15 |        ['P2', 'P5', 'P10', 'P14', 'P22', 'P23']        |
| 2  |  31 |    ['P2', 'P6', 'P10', 'P14', 'P20', 'P22', 'P23']     |
| 3  |  32 | ['P2', 'P6', 'P11', 'P15', 'P20', 'P22', 'P23', 'P24'] |
+----+-----+--------------------------------------------------------+
21/06/2021 18:58:21[INFO] T INVARIANTES   
+----+----+----+----+----+----+----+----+----+----+-----+-----+-----+-----+-----+-----+
| T0 | T1 | T2 | T3 | T4 | T5 | T6 | T7 | T8 | T9 | T10 | T11 | T12 | T13 | T14 | T15 |
+----+----+----+----+----+----+----+----+----+----+-----+-----+-----+-----+-----+-----+
| 1  | 1  | 1  | 0  | 0  | 0  | 0  | 0  | 0  | 0  |  0  |  0  |  0  |  0  |  0  |  0  |
| 0  | 0  | 0  | 1  | 1  | 1  | 1  | 0  | 0  | 0  |  0  |  0  |  0  |  0  |  0  |  0  |
| 0  | 0  | 0  | 0  | 0  | 0  | 0  | 1  | 1  | 1  |  1  |  0  |  0  |  0  |  1  |  1  |
| 0  | 0  | 0  | 0  | 0  | 0  | 0  | 0  | 0  | 0  |  0  |  1  |  1  |  1  |  1  |  1  |
+----+----+----+----+----+----+----+----+----+----+-----+-----+-----+-----+-----+-----+
21/06/2021 18:58:21[INFO] POSIBLES SUPERVISORES A AGREGAR   
+-----+---------+----------------------------------------+---------------------+
|  ID | Marcado |              T - Entrada               |      T - Salida     |
+-----+---------+----------------------------------------+---------------------+
| P26 |    2    |       ['T3', 'T5', 'T10', 'T13']       | ['T1', 'T4', 'T15'] |
| P26 |    1    |           ['T3', 'T5', 'T9']           | ['T1', 'T4', 'T15'] |
| P26 |    2    |           ['T3', 'T6', 'T9']           | ['T1', 'T4', 'T15'] |
| P26 |    3    | ['T3', 'T5', 'T6', 'T9', 'T10', 'T13'] | ['T1', 'T4', 'T15'] |
+-----+---------+----------------------------------------+---------------------+

--------------------------------------------------------------------------
   
21/06/2021 18:58:21[INFO] Ejecutando accion...   
21/06/2021 18:58:21[ACTION] Agregar supervisor    
21/06/2021 18:58:21[ACTION] Agrego supervisor Numero: 2  

--------------------------------------------------------------------------   
21/06/2021 18:58:21[INFO] Ejecutando petrinator para conocer estado de la red...   
--------------------------------------------------------------------------
   
21/06/2021 18:58:35[INFO] Importando datos desde html...   
21/06/2021 18:58:35[INFO] Analizando cantidad de supervisores que se pueden agregar...   
21/06/2021 18:58:35[INFO] Cantidad de sifones vacios en estado de deadlock ANTES: 4  
21/06/2021 18:58:35[INFO] Cantidad de sifones vacioes en estado de deadlock AHORA: 6  
21/06/2021 18:58:35[INFO] Cantidad de transiciones: 16  
21/06/2021 18:58:35[INFO] Estados de deadlock: [15, 25, 99]  
21/06/2021 18:58:35[INFO] Cantidad de sifones: 32  
21/06/2021 18:58:35[INFO] Cantidad de sifones vacios en estado de deadlock: 6 
 
21/06/2021 18:58:35[INFO] SIFONES   
+----+-----+--------------------------------------------------------+
| ID | Nro |                         Plazas                         |
+----+-----+--------------------------------------------------------+
| 4  |  21 |            ['P2', 'P6', 'P9', 'P21', 'P23']            |
| 5  |  10 |    ['P2', 'P5', 'P11', 'P15', 'P22', 'P23', 'P24']     |
| 6  |  15 |        ['P2', 'P5', 'P10', 'P14', 'P22', 'P23']        |
| 7  |  29 |    ['P2', 'P6', 'P10', 'P14', 'P20', 'P22', 'P23']     |
| 8  |  30 | ['P2', 'P6', 'P11', 'P15', 'P20', 'P22', 'P23', 'P24'] |
| 9  |  18 |      ['P1', 'P2', 'P4', 'P5', 'P9', 'P17', 'P26']      |
+----+-----+--------------------------------------------------------+
21/06/2021 18:58:35[INFO] T INVARIANTES   
+----+----+----+----+----+----+----+----+----+----+-----+-----+-----+-----+-----+-----+
| T0 | T1 | T2 | T3 | T4 | T5 | T6 | T7 | T8 | T9 | T10 | T11 | T12 | T13 | T14 | T15 |
+----+----+----+----+----+----+----+----+----+----+-----+-----+-----+-----+-----+-----+
| 1  | 1  | 1  | 0  | 0  | 0  | 0  | 0  | 0  | 0  |  0  |  0  |  0  |  0  |  0  |  0  |
| 0  | 0  | 0  | 1  | 1  | 1  | 1  | 0  | 0  | 0  |  0  |  0  |  0  |  0  |  0  |  0  |
| 0  | 0  | 0  | 0  | 0  | 0  | 0  | 1  | 1  | 1  |  1  |  0  |  0  |  0  |  1  |  1  |
+----+----+----+----+----+----+----+----+----+----+-----+-----+-----+-----+-----+-----+
21/06/2021 18:58:35[INFO] POSIBLES SUPERVISORES A AGREGAR   
+-----+---------+----------------------------------------+---------------------+
|  ID | Marcado |              T - Entrada               |      T - Salida     |
+-----+---------+----------------------------------------+---------------------+
| P27 |    1    |              ['T2', 'T6']              | ['T1', 'T4', 'T15'] |
| P27 |    2    |       ['T3', 'T5', 'T10', 'T13']       | ['T1', 'T4', 'T15'] |
| P27 |    1    |           ['T3', 'T5', 'T9']           | ['T1', 'T4', 'T15'] |
| P27 |    2    |           ['T3', 'T6', 'T9']           | ['T1', 'T4', 'T15'] |
| P27 |    3    | ['T3', 'T5', 'T6', 'T9', 'T10', 'T13'] | ['T1', 'T4', 'T15'] |
+-----+---------+----------------------------------------+---------------------+
21/06/2021 18:58:35[INFO] Actualizando estado de la red..   
21/06/2021 18:58:35[STATE] Cambie al estado 1: Hay mas sifones vacios en deadlock   

--------------------------------------------------------------------------
   
21/06/2021 18:58:35[INFO] Calculando recompensa..   
21/06/2021 18:58:35[REWARD] El sifon se controlo correctamente, recompensa -1   

--------------------------------------------------------------------------
   
21/06/2021 18:58:35[INFO] NEW Q-TABLE   
+-----------------------------------------------------+--------------------+------------------------+
|                   Estados/Acciones                  | Agregar supervisor | Agregar o quitar arcos |
+-----------------------------------------------------+--------------------+------------------------+
|                        Start                        |        -0.9        |          0.0           |
|        Más sifónes vacíos en estado deadlock        |        0.0         |          0.0           |
|       Menos sifónes vacíos en estado deadlock       |        0.0         |          0.0           |
| Igual cantidad de sifónes vacíos en estado deadlock |        0.0         |          0.0           |
|                         End                         |        0.0         |          0.0           |
+-----------------------------------------------------+--------------------+------------------------+

--------------------------------------------------------------------------
   
21/06/2021 18:58:35[INFO] Ejecutando accion...   
21/06/2021 18:58:35[ACTION] Agregar o quitar arcos   
21/06/2021 18:58:35[ACTION] La transicion en conflicto T12 le tiene que devolver un token al supervisor P26   
21/06/2021 18:58:35[INFO] Se agrego un arco desde T12 hasta P26   

--------------------------------------------------------------------------   
21/06/2021 18:58:35[INFO] Ejecutando petrinator para conocer estado de la red...   
--------------------------------------------------------------------------
   
21/06/2021 18:58:44[INFO] Importando datos desde html...   
21/06/2021 18:58:44[INFO] Analizando cantidad de supervisores que se pueden agregar...   
21/06/2021 18:58:44[INFO] Cantidad de sifones vacios en estado de deadlock ANTES: 6  
21/06/2021 18:58:44[INFO] Cantidad de sifones vacioes en estado de deadlock AHORA: 5  
21/06/2021 18:58:44[INFO] Cantidad de transiciones: 16  
21/06/2021 18:58:44[INFO] Estados de deadlock: [15, 25]  
21/06/2021 18:58:44[INFO] Cantidad de sifones: 32  
21/06/2021 18:58:44[INFO] Cantidad de sifones vacios en estado de deadlock: 5 
 
21/06/2021 18:58:44[INFO] SIFONES   
+----+-----+--------------------------------------------------------+
| ID | Nro |                         Plazas                         |
+----+-----+--------------------------------------------------------+
| 10 |  21 |            ['P2', 'P6', 'P9', 'P21', 'P23']            |
| 11 |  10 |    ['P2', 'P5', 'P11', 'P15', 'P22', 'P23', 'P24']     |
| 12 |  15 |        ['P2', 'P5', 'P10', 'P14', 'P22', 'P23']        |
| 13 |  29 |    ['P2', 'P6', 'P10', 'P14', 'P20', 'P22', 'P23']     |
| 14 |  30 | ['P2', 'P6', 'P11', 'P15', 'P20', 'P22', 'P23', 'P24'] |
+----+-----+--------------------------------------------------------+
21/06/2021 18:58:44[INFO] T INVARIANTES   
+----+----+----+----+----+----+----+----+----+----+-----+-----+-----+-----+-----+-----+
| T0 | T1 | T2 | T3 | T4 | T5 | T6 | T7 | T8 | T9 | T10 | T11 | T12 | T13 | T14 | T15 |
+----+----+----+----+----+----+----+----+----+----+-----+-----+-----+-----+-----+-----+
| 1  | 1  | 1  | 0  | 0  | 0  | 0  | 0  | 0  | 0  |  0  |  0  |  0  |  0  |  0  |  0  |
| 0  | 0  | 0  | 1  | 1  | 1  | 1  | 0  | 0  | 0  |  0  |  0  |  0  |  0  |  0  |  0  |
| 0  | 0  | 0  | 0  | 0  | 0  | 0  | 1  | 1  | 1  |  1  |  0  |  0  |  0  |  1  |  1  |
| 0  | 0  | 0  | 0  | 0  | 0  | 0  | 0  | 0  | 0  |  0  |  1  |  1  |  1  |  1  |  1  |
+----+----+----+----+----+----+----+----+----+----+-----+-----+-----+-----+-----+-----+
21/06/2021 18:58:44[INFO] POSIBLES SUPERVISORES A AGREGAR   
+-----+---------+----------------------------------------+---------------------+
|  ID | Marcado |              T - Entrada               |      T - Salida     |
+-----+---------+----------------------------------------+---------------------+
| P27 |    1    |              ['T2', 'T6']              | ['T1', 'T4', 'T15'] |
| P27 |    2    |       ['T3', 'T5', 'T10', 'T13']       | ['T1', 'T4', 'T15'] |
| P27 |    1    |           ['T3', 'T5', 'T9']           | ['T1', 'T4', 'T15'] |
| P27 |    2    |           ['T3', 'T6', 'T9']           | ['T1', 'T4', 'T15'] |
| P27 |    3    | ['T3', 'T5', 'T6', 'T9', 'T10', 'T13'] | ['T1', 'T4', 'T15'] |
+-----+---------+----------------------------------------+---------------------+
21/06/2021 18:58:44[INFO] Actualizando estado de la red..   
21/06/2021 18:58:44[STATE] Cambie al estado 2: Hay menos sifones vacios en deadlock   

--------------------------------------------------------------------------
   
21/06/2021 18:58:44[INFO] Calculando recompensa..   
21/06/2021 18:58:44[REWARD] Hay menos o igual cantidad de sifones vacios que en el estado anterior, recompensa -1   

--------------------------------------------------------------------------
   
21/06/2021 18:58:44[INFO] NEW Q-TABLE   
+-----------------------------------------------------+--------------------+------------------------+
|                   Estados/Acciones                  | Agregar supervisor | Agregar o quitar arcos |
+-----------------------------------------------------+--------------------+------------------------+
|                        Start                        |        -0.9        |          0.0           |
|        Más sifónes vacíos en estado deadlock        |        0.0         |          -0.9          |
|       Menos sifónes vacíos en estado deadlock       |        0.0         |          0.0           |
| Igual cantidad de sifónes vacíos en estado deadlock |        0.0         |          0.0           |
|                         End                         |        0.0         |          0.0           |
+-----------------------------------------------------+--------------------+------------------------+

--------------------------------------------------------------------------
   
21/06/2021 18:58:44[INFO] Ejecutando accion...   
21/06/2021 18:58:44[ACTION] Agregar o quitar arcos   

--------------------------------------------------------------------------   
21/06/2021 18:58:44[INFO] Ejecutando petrinator para conocer estado de la red...   
--------------------------------------------------------------------------
   
21/06/2021 18:58:53[INFO] Importando datos desde html...   
21/06/2021 18:58:53[INFO] Analizando cantidad de supervisores que se pueden agregar...   
21/06/2021 18:58:53[INFO] Cantidad de sifones vacios en estado de deadlock ANTES: 5  
21/06/2021 18:58:53[INFO] Cantidad de sifones vacioes en estado de deadlock AHORA: 5  
21/06/2021 18:58:53[INFO] Cantidad de transiciones: 16  
21/06/2021 18:58:53[INFO] Estados de deadlock: [15, 25]  
21/06/2021 18:58:53[INFO] Cantidad de sifones: 32  
21/06/2021 18:58:53[INFO] Cantidad de sifones vacios en estado de deadlock: 5 
 
21/06/2021 18:58:53[INFO] SIFONES   
+----+-----+--------------------------------------------------------+
| ID | Nro |                         Plazas                         |
+----+-----+--------------------------------------------------------+
| 15 |  21 |            ['P2', 'P6', 'P9', 'P21', 'P23']            |
| 16 |  10 |    ['P2', 'P5', 'P11', 'P15', 'P22', 'P23', 'P24']     |
| 17 |  15 |        ['P2', 'P5', 'P10', 'P14', 'P22', 'P23']        |
| 18 |  29 |    ['P2', 'P6', 'P10', 'P14', 'P20', 'P22', 'P23']     |
| 19 |  30 | ['P2', 'P6', 'P11', 'P15', 'P20', 'P22', 'P23', 'P24'] |
+----+-----+--------------------------------------------------------+
21/06/2021 18:58:53[INFO] T INVARIANTES   
+----+----+----+----+----+----+----+----+----+----+-----+-----+-----+-----+-----+-----+
| T0 | T1 | T2 | T3 | T4 | T5 | T6 | T7 | T8 | T9 | T10 | T11 | T12 | T13 | T14 | T15 |
+----+----+----+----+----+----+----+----+----+----+-----+-----+-----+-----+-----+-----+
| 1  | 1  | 1  | 0  | 0  | 0  | 0  | 0  | 0  | 0  |  0  |  0  |  0  |  0  |  0  |  0  |
| 0  | 0  | 0  | 1  | 1  | 1  | 1  | 0  | 0  | 0  |  0  |  0  |  0  |  0  |  0  |  0  |
| 0  | 0  | 0  | 0  | 0  | 0  | 0  | 1  | 1  | 1  |  1  |  0  |  0  |  0  |  1  |  1  |
| 0  | 0  | 0  | 0  | 0  | 0  | 0  | 0  | 0  | 0  |  0  |  1  |  1  |  1  |  1  |  1  |
+----+----+----+----+----+----+----+----+----+----+-----+-----+-----+-----+-----+-----+
21/06/2021 18:58:53[INFO] POSIBLES SUPERVISORES A AGREGAR   
+-----+---------+----------------------------------------+---------------------+
|  ID | Marcado |              T - Entrada               |      T - Salida     |
+-----+---------+----------------------------------------+---------------------+
| P27 |    1    |              ['T2', 'T6']              | ['T1', 'T4', 'T15'] |
| P27 |    2    |       ['T3', 'T5', 'T10', 'T13']       | ['T1', 'T4', 'T15'] |
| P27 |    1    |           ['T3', 'T5', 'T9']           | ['T1', 'T4', 'T15'] |
| P27 |    2    |           ['T3', 'T6', 'T9']           | ['T1', 'T4', 'T15'] |
| P27 |    3    | ['T3', 'T5', 'T6', 'T9', 'T10', 'T13'] | ['T1', 'T4', 'T15'] |
+-----+---------+----------------------------------------+---------------------+
21/06/2021 18:58:53[INFO] Actualizando estado de la red..   
21/06/2021 18:58:53[STATE] Cambie al estado 3: Hay igual cantidad de sifones vacios en deadlock   

--------------------------------------------------------------------------
   
21/06/2021 18:58:53[INFO] Calculando recompensa..   
21/06/2021 18:58:53[REWARD] Hay menos o igual cantidad de sifones vacios que en el estado anterior, recompensa -1   

--------------------------------------------------------------------------
   
21/06/2021 18:58:53[INFO] NEW Q-TABLE   
+-----------------------------------------------------+--------------------+------------------------+
|                   Estados/Acciones                  | Agregar supervisor | Agregar o quitar arcos |
+-----------------------------------------------------+--------------------+------------------------+
|                        Start                        |        -0.9        |          0.0           |
|        Más sifónes vacíos en estado deadlock        |        0.0         |          -0.9          |
|       Menos sifónes vacíos en estado deadlock       |        0.0         |          -0.9          |
| Igual cantidad de sifónes vacíos en estado deadlock |        0.0         |          0.0           |
|                         End                         |        0.0         |          0.0           |
+-----------------------------------------------------+--------------------+------------------------+

--------------------------------------------------------------------------
   
21/06/2021 18:58:53[INFO] Ejecutando accion...   
21/06/2021 18:58:53[ACTION] Agregar supervisor    
21/06/2021 18:58:53[ACTION] Agrego supervisor Numero: 3  

--------------------------------------------------------------------------   
21/06/2021 18:58:53[INFO] Ejecutando petrinator para conocer estado de la red...   
--------------------------------------------------------------------------
   
21/06/2021 18:59:06[INFO] Importando datos desde html...   
21/06/2021 18:59:06[INFO] Analizando cantidad de supervisores que se pueden agregar...   
21/06/2021 18:59:06[INFO] Cantidad de sifones vacios en estado de deadlock ANTES: 5  
21/06/2021 18:59:06[INFO] Cantidad de sifones vacioes en estado de deadlock AHORA: 6  
21/06/2021 18:59:06[INFO] Cantidad de transiciones: 16  
21/06/2021 18:59:06[INFO] Estados de deadlock: [15, 25, 99]  
21/06/2021 18:59:06[INFO] Cantidad de sifones: 33  
21/06/2021 18:59:06[INFO] Cantidad de sifones vacios en estado de deadlock: 6 
 
21/06/2021 18:59:06[INFO] SIFONES   
+----+-----+--------------------------------------------------------+
| ID | Nro |                         Plazas                         |
+----+-----+--------------------------------------------------------+
| 20 |  22 |            ['P2', 'P6', 'P9', 'P21', 'P23']            |
| 21 |  10 |    ['P2', 'P5', 'P11', 'P15', 'P22', 'P23', 'P24']     |
| 22 |  15 |        ['P2', 'P5', 'P10', 'P14', 'P22', 'P23']        |
| 23 |  30 |    ['P2', 'P6', 'P10', 'P14', 'P20', 'P22', 'P23']     |
| 24 |  31 | ['P2', 'P6', 'P11', 'P15', 'P20', 'P22', 'P23', 'P24'] |
| 25 |  19 |      ['P1', 'P2', 'P4', 'P5', 'P9', 'P17', 'P27']      |
+----+-----+--------------------------------------------------------+
21/06/2021 18:59:06[INFO] T INVARIANTES   
+----+----+----+----+----+----+----+----+----+----+-----+-----+-----+-----+-----+-----+
| T0 | T1 | T2 | T3 | T4 | T5 | T6 | T7 | T8 | T9 | T10 | T11 | T12 | T13 | T14 | T15 |
+----+----+----+----+----+----+----+----+----+----+-----+-----+-----+-----+-----+-----+
| 1  | 1  | 1  | 0  | 0  | 0  | 0  | 0  | 0  | 0  |  0  |  0  |  0  |  0  |  0  |  0  |
| 0  | 0  | 0  | 1  | 1  | 1  | 1  | 0  | 0  | 0  |  0  |  0  |  0  |  0  |  0  |  0  |
| 0  | 0  | 0  | 0  | 0  | 0  | 0  | 1  | 1  | 1  |  1  |  0  |  0  |  0  |  1  |  1  |
+----+----+----+----+----+----+----+----+----+----+-----+-----+-----+-----+-----+-----+
21/06/2021 18:59:06[INFO] POSIBLES SUPERVISORES A AGREGAR   
+-----+---------+----------------------------------------+---------------------+
|  ID | Marcado |              T - Entrada               |      T - Salida     |
+-----+---------+----------------------------------------+---------------------+
| P28 |    1    |              ['T2', 'T6']              | ['T1', 'T4', 'T15'] |
| P28 |    2    |       ['T3', 'T5', 'T10', 'T13']       | ['T1', 'T4', 'T15'] |
| P28 |    1    |           ['T3', 'T5', 'T9']           | ['T1', 'T4', 'T15'] |
| P28 |    2    |           ['T3', 'T6', 'T9']           | ['T1', 'T4', 'T15'] |
| P28 |    3    | ['T3', 'T5', 'T6', 'T9', 'T10', 'T13'] | ['T1', 'T4', 'T15'] |
+-----+---------+----------------------------------------+---------------------+
21/06/2021 18:59:06[INFO] Actualizando estado de la red..   
21/06/2021 18:59:06[STATE] Cambie al estado 1: Hay mas sifones vacios en deadlock   

--------------------------------------------------------------------------
   
21/06/2021 18:59:06[INFO] Calculando recompensa..   
21/06/2021 18:59:06[REWARD] El sifon se controlo correctamente, recompensa -1   

--------------------------------------------------------------------------
   
21/06/2021 18:59:06[INFO] NEW Q-TABLE   
+-----------------------------------------------------+--------------------+------------------------+
|                   Estados/Acciones                  | Agregar supervisor | Agregar o quitar arcos |
+-----------------------------------------------------+--------------------+------------------------+
|                        Start                        |        -0.9        |          0.0           |
|        Más sifónes vacíos en estado deadlock        |        0.0         |          -0.9          |
|       Menos sifónes vacíos en estado deadlock       |        0.0         |          -0.9          |
| Igual cantidad de sifónes vacíos en estado deadlock |        -0.9        |          0.0           |
|                         End                         |        0.0         |          0.0           |
+-----------------------------------------------------+--------------------+------------------------+

--------------------------------------------------------------------------
   
21/06/2021 18:59:06[INFO] Ejecutando accion...   
21/06/2021 18:59:06[ACTION] Agregar supervisor    
21/06/2021 18:59:06[ACTION] Agrego supervisor Numero: 0  

--------------------------------------------------------------------------   
21/06/2021 18:59:06[INFO] Ejecutando petrinator para conocer estado de la red...   
--------------------------------------------------------------------------
   
21/06/2021 18:59:17[INFO] Importando datos desde html...   
21/06/2021 18:59:17[INFO] Analizando cantidad de supervisores que se pueden agregar...   
21/06/2021 18:59:17[INFO] Cantidad de sifones vacios en estado de deadlock ANTES: 6  
21/06/2021 18:59:17[INFO] Cantidad de sifones vacioes en estado de deadlock AHORA: 25  
21/06/2021 18:59:17[INFO] Cantidad de transiciones: 16  
21/06/2021 18:59:17[INFO] Estados de deadlock: [9, 13]  
21/06/2021 18:59:17[INFO] Cantidad de sifones: 54  
21/06/2021 18:59:17[INFO] Cantidad de sifones vacios en estado de deadlock: 25 
 
21/06/2021 18:59:17[INFO] SIFONES   
+----+-----+---------------------------------------------------------------------------------------+
| ID | Nro |                                         Plazas                                        |
+----+-----+---------------------------------------------------------------------------------------+
| 26 |  9  |                               ['P1', 'P4', 'P5', 'P28']                               |
| 27 |  10 |                     ['P1', 'P4', 'P5', 'P9', 'P10', 'P17', 'P28']                     |
| 28 |  11 |                  ['P1', 'P4', 'P5', 'P6', 'P9', 'P10', 'P17', 'P28']                  |
| 29 |  13 |                  ['P1', 'P4', 'P5', 'P9', 'P10', 'P11', 'P17', 'P28']                 |
| 30 |  14 |               ['P1', 'P4', 'P5', 'P6', 'P9', 'P10', 'P11', 'P17', 'P28']              |
| 31 |  15 |              ['P1', 'P4', 'P5', 'P9', 'P10', 'P11', 'P14', 'P17', 'P28']              |
| 32 |  16 |           ['P1', 'P4', 'P5', 'P6', 'P9', 'P10', 'P11', 'P14', 'P17', 'P28']           |
| 33 |  17 |           ['P1', 'P4', 'P5', 'P9', 'P10', 'P11', 'P14', 'P15', 'P17', 'P28']          |
| 34 |  18 |        ['P1', 'P4', 'P5', 'P6', 'P9', 'P10', 'P11', 'P14', 'P15', 'P17', 'P28']       |
| 35 |  19 |       ['P1', 'P4', 'P5', 'P9', 'P10', 'P11', 'P14', 'P15', 'P17', 'P18', 'P28']       |
| 36 |  20 |    ['P1', 'P4', 'P5', 'P6', 'P9', 'P10', 'P11', 'P14', 'P15', 'P17', 'P18', 'P28']    |
| 37 |  30 |                      ['P1', 'P2', 'P4', 'P5', 'P9', 'P17', 'P28']                     |
| 38 |  31 |                  ['P1', 'P2', 'P4', 'P5', 'P9', 'P10', 'P17', 'P28']                  |
| 39 |  32 |               ['P1', 'P2', 'P4', 'P5', 'P9', 'P10', 'P14', 'P17', 'P28']              |
| 40 |  33 |               ['P1', 'P2', 'P4', 'P5', 'P9', 'P10', 'P11', 'P17', 'P28']              |
| 41 |  34 |           ['P1', 'P2', 'P4', 'P5', 'P9', 'P10', 'P11', 'P14', 'P17', 'P28']           |
| 42 |  36 |        ['P1', 'P2', 'P4', 'P5', 'P9', 'P10', 'P11', 'P14', 'P15', 'P17', 'P28']       |
| 43 |  37 |    ['P1', 'P2', 'P4', 'P5', 'P9', 'P10', 'P11', 'P14', 'P15', 'P17', 'P18', 'P28']    |
| 44 |  44 |                   ['P1', 'P2', 'P4', 'P5', 'P6', 'P9', 'P17', 'P28']                  |
| 45 |  45 |               ['P1', 'P2', 'P4', 'P5', 'P6', 'P9', 'P10', 'P17', 'P28']               |
| 46 |  47 |            ['P1', 'P2', 'P4', 'P5', 'P6', 'P9', 'P10', 'P14', 'P17', 'P28']           |
| 47 |  48 |            ['P1', 'P2', 'P4', 'P5', 'P6', 'P9', 'P10', 'P11', 'P17', 'P28']           |
| 48 |  49 |        ['P1', 'P2', 'P4', 'P5', 'P6', 'P9', 'P10', 'P11', 'P14', 'P17', 'P28']        |
| 49 |  51 |     ['P1', 'P2', 'P4', 'P5', 'P6', 'P9', 'P10', 'P11', 'P14', 'P15', 'P17', 'P28']    |
| 50 |  52 | ['P1', 'P2', 'P4', 'P5', 'P6', 'P9', 'P10', 'P11', 'P14', 'P15', 'P17', 'P18', 'P28'] |
+----+-----+---------------------------------------------------------------------------------------+
21/06/2021 18:59:17[INFO] T INVARIANTES   
+----+----+----+----+----+----+----+----+----+----+-----+-----+-----+-----+-----+-----+
| T0 | T1 | T2 | T3 | T4 | T5 | T6 | T7 | T8 | T9 | T10 | T11 | T12 | T13 | T14 | T15 |
+----+----+----+----+----+----+----+----+----+----+-----+-----+-----+-----+-----+-----+
| 1  | 1  | 1  | 0  | 0  | 0  | 0  | 0  | 0  | 0  |  0  |  0  |  0  |  0  |  0  |  0  |
| 0  | 0  | 0  | 1  | 1  | 1  | 1  | 0  | 0  | 0  |  0  |  0  |  0  |  0  |  0  |  0  |
+----+----+----+----+----+----+----+----+----+----+-----+-----+-----+-----+-----+-----+
21/06/2021 18:59:17[INFO] POSIBLES SUPERVISORES A AGREGAR   
+----+---------+-------------+------------+
| ID | Marcado | T - Entrada | T - Salida |
+----+---------+-------------+------------+
+----+---------+-------------+------------+
21/06/2021 18:59:17[INFO] Actualizando estado de la red..   
21/06/2021 18:59:17[STATE] Cambie al estado 1: Hay mas sifones vacios en deadlock   

--------------------------------------------------------------------------
   
21/06/2021 18:59:17[INFO] Calculando recompensa..   
21/06/2021 18:59:17[REWARD] El sifon se controlo correctamente, recompensa -1   

--------------------------------------------------------------------------
   
21/06/2021 18:59:17[INFO] NEW Q-TABLE   
+-----------------------------------------------------+--------------------+------------------------+
|                   Estados/Acciones                  | Agregar supervisor | Agregar o quitar arcos |
+-----------------------------------------------------+--------------------+------------------------+
|                        Start                        |        -0.9        |          0.0           |
|        Más sifónes vacíos en estado deadlock        |        -0.9        |          -0.9          |
|       Menos sifónes vacíos en estado deadlock       |        0.0         |          -0.9          |
| Igual cantidad de sifónes vacíos en estado deadlock |        -0.9        |          0.0           |
|                         End                         |        0.0         |          0.0           |
+-----------------------------------------------------+--------------------+------------------------+

--------------------------------------------------------------------------
   
21/06/2021 18:59:17[INFO] Ejecutando accion...   
21/06/2021 18:59:17[ACTION] Agregar o quitar arcos   
21/06/2021 18:59:17[ACTION] La transicion en conflicto T8 le tiene que devolver un token al supervisor P28   
21/06/2021 18:59:17[INFO] Se agrego un arco desde T8 hasta P28   
21/06/2021 18:59:17[ACTION] La transicion en conflicto T12 le tiene que devolver un token al supervisor P27   
21/06/2021 18:59:17[INFO] Se agrego un arco desde T12 hasta P27   
21/06/2021 18:59:17[ACTION] La transicion en conflicto T12 le tiene que devolver un token al supervisor P28   
21/06/2021 18:59:17[INFO] Se agrego un arco desde T12 hasta P28   

--------------------------------------------------------------------------   
21/06/2021 18:59:17[INFO] Ejecutando petrinator para conocer estado de la red...   
--------------------------------------------------------------------------
   
21/06/2021 18:59:29[INFO] Importando datos desde html...   
21/06/2021 18:59:29[INFO] Analizando cantidad de supervisores que se pueden agregar...   
21/06/2021 18:59:29[INFO] Cantidad de sifones vacios en estado de deadlock ANTES: 25  
21/06/2021 18:59:29[INFO] Cantidad de sifones vacioes en estado de deadlock AHORA: 4  
21/06/2021 18:59:29[INFO] Cantidad de transiciones: 16  
21/06/2021 18:59:29[INFO] Estados de deadlock: [59]  
21/06/2021 18:59:29[INFO] Cantidad de sifones: 35  
21/06/2021 18:59:29[INFO] Cantidad de sifones vacios en estado de deadlock: 4 
 
21/06/2021 18:59:29[INFO] SIFONES   
+----+-----+--------------------------------------------------------+
| ID | Nro |                         Plazas                         |
+----+-----+--------------------------------------------------------+
| 51 |  13 |    ['P2', 'P5', 'P11', 'P15', 'P22', 'P23', 'P24']     |
| 52 |  18 |        ['P2', 'P5', 'P10', 'P14', 'P22', 'P23']        |
| 53 |  32 |    ['P2', 'P6', 'P10', 'P14', 'P20', 'P22', 'P23']     |
| 54 |  33 | ['P2', 'P6', 'P11', 'P15', 'P20', 'P22', 'P23', 'P24'] |
+----+-----+--------------------------------------------------------+
21/06/2021 18:59:29[INFO] T INVARIANTES   
+----+----+----+----+----+----+----+----+----+----+-----+-----+-----+-----+-----+-----+
| T0 | T1 | T2 | T3 | T4 | T5 | T6 | T7 | T8 | T9 | T10 | T11 | T12 | T13 | T14 | T15 |
+----+----+----+----+----+----+----+----+----+----+-----+-----+-----+-----+-----+-----+
| 1  | 1  | 1  | 0  | 0  | 0  | 0  | 0  | 0  | 0  |  0  |  0  |  0  |  0  |  0  |  0  |
| 0  | 0  | 0  | 1  | 1  | 1  | 1  | 0  | 0  | 0  |  0  |  0  |  0  |  0  |  0  |  0  |
| 0  | 0  | 0  | 0  | 0  | 0  | 0  | 1  | 1  | 1  |  1  |  0  |  0  |  0  |  1  |  1  |
| 0  | 0  | 0  | 0  | 0  | 0  | 0  | 0  | 0  | 0  |  0  |  1  |  1  |  1  |  1  |  1  |
+----+----+----+----+----+----+----+----+----+----+-----+-----+-----+-----+-----+-----+
21/06/2021 18:59:29[INFO] POSIBLES SUPERVISORES A AGREGAR   
+-----+---------+----------------------------------------+---------------------+
|  ID | Marcado |              T - Entrada               |      T - Salida     |
+-----+---------+----------------------------------------+---------------------+
| P29 |    2    |       ['T3', 'T5', 'T10', 'T13']       | ['T1', 'T4', 'T15'] |
| P29 |    1    |           ['T3', 'T5', 'T9']           | ['T1', 'T4', 'T15'] |
| P29 |    2    |           ['T3', 'T6', 'T9']           | ['T1', 'T4', 'T15'] |
| P29 |    3    | ['T3', 'T5', 'T6', 'T9', 'T10', 'T13'] | ['T1', 'T4', 'T15'] |
+-----+---------+----------------------------------------+---------------------+
21/06/2021 18:59:29[INFO] Actualizando estado de la red..   
21/06/2021 18:59:29[STATE] Cambie al estado 2: Hay menos sifones vacios en deadlock   

--------------------------------------------------------------------------
   
21/06/2021 18:59:29[INFO] Calculando recompensa..   
21/06/2021 18:59:29[REWARD] Hay menos o igual cantidad de sifones vacios que en el estado anterior, recompensa -1   

--------------------------------------------------------------------------
   
21/06/2021 18:59:29[INFO] NEW Q-TABLE   
+-----------------------------------------------------+--------------------+------------------------+
|                   Estados/Acciones                  | Agregar supervisor | Agregar o quitar arcos |
+-----------------------------------------------------+--------------------+------------------------+
|                        Start                        |        -0.9        |          0.0           |
|        Más sifónes vacíos en estado deadlock        |        -0.9        |         -0.99          |
|       Menos sifónes vacíos en estado deadlock       |        0.0         |          -0.9          |
| Igual cantidad de sifónes vacíos en estado deadlock |        -0.9        |          0.0           |
|                         End                         |        0.0         |          0.0           |
+-----------------------------------------------------+--------------------+------------------------+

--------------------------------------------------------------------------
   
21/06/2021 18:59:29[INFO] Ejecutando accion...   
21/06/2021 18:59:29[ACTION] Agregar supervisor    
21/06/2021 18:59:29[ACTION] Agrego supervisor Numero: 1  

--------------------------------------------------------------------------   
21/06/2021 18:59:29[INFO] Ejecutando petrinator para conocer estado de la red...   
--------------------------------------------------------------------------
   
21/06/2021 18:59:42[INFO] Importando datos desde html...   
21/06/2021 18:59:42[INFO] Analizando cantidad de supervisores que se pueden agregar...   
21/06/2021 18:59:42[INFO] Cantidad de sifones vacios en estado de deadlock ANTES: 4  
21/06/2021 18:59:42[INFO] Cantidad de sifones vacioes en estado de deadlock AHORA: 1  
21/06/2021 18:59:42[INFO] Cantidad de transiciones: 16  
21/06/2021 18:59:42[INFO] Estados de deadlock: [71]  
21/06/2021 18:59:42[INFO] Cantidad de sifones: 36  
21/06/2021 18:59:42[INFO] Cantidad de sifones vacios en estado de deadlock: 1 
 
21/06/2021 18:59:42[INFO] SIFONES   
+----+-----+----------------------------------------+
| ID | Nro |                 Plazas                 |
+----+-----+----------------------------------------+
| 55 |  17 | ['P1', 'P2', 'P4', 'P9', 'P17', 'P29'] |
+----+-----+----------------------------------------+
21/06/2021 18:59:42[INFO] T INVARIANTES   
+----+----+----+----+----+----+----+----+----+----+-----+-----+-----+-----+-----+-----+
| T0 | T1 | T2 | T3 | T4 | T5 | T6 | T7 | T8 | T9 | T10 | T11 | T12 | T13 | T14 | T15 |
+----+----+----+----+----+----+----+----+----+----+-----+-----+-----+-----+-----+-----+
| 1  | 1  | 1  | 0  | 0  | 0  | 0  | 0  | 0  | 0  |  0  |  0  |  0  |  0  |  0  |  0  |
| 0  | 0  | 0  | 1  | 1  | 1  | 1  | 0  | 0  | 0  |  0  |  0  |  0  |  0  |  0  |  0  |
| 0  | 0  | 0  | 0  | 0  | 0  | 0  | 1  | 1  | 1  |  1  |  0  |  0  |  0  |  1  |  1  |
+----+----+----+----+----+----+----+----+----+----+-----+-----+-----+-----+-----+-----+
21/06/2021 18:59:42[INFO] POSIBLES SUPERVISORES A AGREGAR   
+----+---------+-------------+------------+
| ID | Marcado | T - Entrada | T - Salida |
+----+---------+-------------+------------+
+----+---------+-------------+------------+
21/06/2021 18:59:42[INFO] Actualizando estado de la red..   
21/06/2021 18:59:42[STATE] Cambie al estado 2: Hay menos sifones vacios en deadlock   

--------------------------------------------------------------------------
   
21/06/2021 18:59:42[INFO] Calculando recompensa..   
21/06/2021 18:59:42[REWARD] El sifon se controlo correctamente, recompensa -1   

--------------------------------------------------------------------------
   
21/06/2021 18:59:42[INFO] NEW Q-TABLE   
+-----------------------------------------------------+--------------------+------------------------+
|                   Estados/Acciones                  | Agregar supervisor | Agregar o quitar arcos |
+-----------------------------------------------------+--------------------+------------------------+
|                        Start                        |        -0.9        |          0.0           |
|        Más sifónes vacíos en estado deadlock        |        -0.9        |         -0.99          |
|       Menos sifónes vacíos en estado deadlock       |        -0.9        |          -0.9          |
| Igual cantidad de sifónes vacíos en estado deadlock |        -0.9        |          0.0           |
|                         End                         |        0.0         |          0.0           |
+-----------------------------------------------------+--------------------+------------------------+

--------------------------------------------------------------------------
   
21/06/2021 18:59:42[INFO] Ejecutando accion...   
21/06/2021 18:59:42[ACTION] Agregar o quitar arcos   
21/06/2021 18:59:42[ACTION] La transicion en conflicto T12 le tiene que devolver un token al supervisor P29   
21/06/2021 18:59:42[INFO] Se agrego un arco desde T12 hasta P29   

--------------------------------------------------------------------------   
21/06/2021 18:59:42[INFO] Ejecutando petrinator para conocer estado de la red...   
--------------------------------------------------------------------------
   
21/06/2021 18:59:53[INFO] Importando datos desde html...   
21/06/2021 18:59:54[INFO] Analizando cantidad de supervisores que se pueden agregar...   
21/06/2021 18:59:54[INFO] Cantidad de sifones vacios en estado de deadlock ANTES: 1  
21/06/2021 18:59:54[INFO] Cantidad de sifones vacioes en estado de deadlock AHORA: 0  
21/06/2021 18:59:54[INFO] Cantidad de transiciones: 16  
21/06/2021 18:59:54[INFO] Estados de deadlock: []  
21/06/2021 18:59:54[INFO] Cantidad de sifones: 36  
21/06/2021 18:59:54[INFO] Cantidad de sifones vacios en estado de deadlock: 0 
 
21/06/2021 18:59:54[INFO] SIFONES   
+----+-----+--------+
| ID | Nro | Plazas |
+----+-----+--------+
+----+-----+--------+
21/06/2021 18:59:54[INFO] T INVARIANTES   
+----+----+----+----+----+----+----+----+----+----+-----+-----+-----+-----+-----+-----+
| T0 | T1 | T2 | T3 | T4 | T5 | T6 | T7 | T8 | T9 | T10 | T11 | T12 | T13 | T14 | T15 |
+----+----+----+----+----+----+----+----+----+----+-----+-----+-----+-----+-----+-----+
| 1  | 1  | 1  | 0  | 0  | 0  | 0  | 0  | 0  | 0  |  0  |  0  |  0  |  0  |  0  |  0  |
| 0  | 0  | 0  | 1  | 1  | 1  | 1  | 0  | 0  | 0  |  0  |  0  |  0  |  0  |  0  |  0  |
| 0  | 0  | 0  | 0  | 0  | 0  | 0  | 1  | 1  | 1  |  1  |  0  |  0  |  0  |  1  |  1  |
| 0  | 0  | 0  | 0  | 0  | 0  | 0  | 0  | 0  | 0  |  0  |  1  |  1  |  1  |  1  |  1  |
+----+----+----+----+----+----+----+----+----+----+-----+-----+-----+-----+-----+-----+
21/06/2021 18:59:54[INFO] POSIBLES SUPERVISORES A AGREGAR   
+----+---------+-------------+------------+
| ID | Marcado | T - Entrada | T - Salida |
+----+---------+-------------+------------+
+----+---------+-------------+------------+
21/06/2021 18:59:54[INFO] Actualizando estado de la red..   
21/06/2021 18:59:54[STATE] Cambie al estado 2: Hay menos sifones vacios en deadlock   

--------------------------------------------------------------------------
   
21/06/2021 18:59:54[INFO] Calculando recompensa..   
21/06/2021 18:59:54[REWARD] No hay mas deadlock, recompensa 100   

--------------------------------------------------------------------------
   
21/06/2021 18:59:54[INFO] NEW Q-TABLE   
+-----------------------------------------------------+--------------------+------------------------+
|                   Estados/Acciones                  | Agregar supervisor | Agregar o quitar arcos |
+-----------------------------------------------------+--------------------+------------------------+
|                        Start                        |        -0.9        |          0.0           |
|        Más sifónes vacíos en estado deadlock        |        -0.9        |         -0.99          |
|       Menos sifónes vacíos en estado deadlock       |        -0.9        |         89.181         |
| Igual cantidad de sifónes vacíos en estado deadlock |        -0.9        |          0.0           |
|                         End                         |        0.0         |          0.0           |
+-----------------------------------------------------+--------------------+------------------------+

--------------------------------------------------------------------------
   
21/06/2021 18:59:54[STATE] Se llego al estado deseado, NO HAY MAS DEADLOCK   

--------------------------------------------------------------------------
   
21/06/2021 18:59:54[INFO] Training complete! 
  
