19/06/2021 18:01:59[DEBUG] pflow_file:  ../Prueba/gen_nets/20210619-175223_18/net.pflow  
19/06/2021 18:01:59[DEBUG] output_folder:  ../Prueba/gen_nets/20210619-175223_18/  
19/06/2021 18:01:59[DEBUG] html_path:  ../Prueba/gen_nets/20210619-175223_18/  
19/06/2021 18:01:59[DEBUG] txt_path:  ../Prueba/gen_nets/20210619-175223_18/txt_info  

--------------------------------------------------------------------------   
19/06/2021 18:01:59[INFO] Ejecutando petrinator para conocer estado de la red...   
--------------------------------------------------------------------------
   
19/06/2021 18:02:01[ERROR] La red ingresada no tiene deadlock, cerrando analisis 
  
