20/09/2021 20:10:53[DEBUG] pflow_file:  ../test_networks/20210910-223922_10/net.pflow  
20/09/2021 20:10:53[DEBUG] output_folder:  ../test_networks/20210910-223922_10/  
20/09/2021 20:10:53[DEBUG] html_path:  ../test_networks/20210910-223922_10/  
20/09/2021 20:10:53[DEBUG] txt_path:  ../test_networks/20210910-223922_10/txt_info  

--------------------------------------------------------------------------   
20/09/2021 20:10:53[INFO] Ejecutando petrinator para conocer estado de la red...   
--------------------------------------------------------------------------
   
20/09/2021 20:11:22[INFO] SIFONES   
+----+-----+---------------------------------------------------------------------+
| ID | Nro |                                Plazas                               |
+----+-----+---------------------------------------------------------------------+
| 0  |  6  |              ['P6', 'P18', 'P19', 'P22', 'P31', 'P36']              |
| 1  |  22 |           ['P1', 'P6', 'P18', 'P22', 'P31', 'P36', 'P38']           |
| 2  |  30 |        ['P1', 'P2', 'P6', 'P18', 'P22', 'P31', 'P36', 'P38']        |
| 3  |  86 |     ['P1', 'P2', 'P6', 'P18', 'P19', 'P22', 'P30', 'P31', 'P36']    |
| 4  | 244 |     ['P1', 'P3', 'P6', 'P18', 'P22', 'P31', 'P32', 'P36', 'P38']    |
| 5  | 245 |        ['P3', 'P6', 'P18', 'P19', 'P22', 'P31', 'P32', 'P36']       |
| 6  | 380 |     ['P1', 'P2', 'P3', 'P6', 'P18', 'P22', 'P31', 'P36', 'P38']     |
| 7  | 385 |  ['P1', 'P2', 'P3', 'P6', 'P18', 'P19', 'P22', 'P30', 'P31', 'P36'] |
| 8  | 393 | ['P1', 'P3', 'P6', 'P18', 'P19', 'P22', 'P30', 'P31', 'P32', 'P36'] |
| 9  |  19 |                  ['P7', 'P16', 'P22', 'P33', 'P36']                 |
+----+-----+---------------------------------------------------------------------+ 

20/09/2021 20:11:22[INFO] T INVARIANTES   
+----+----+----+----+----+----+----+----+----+----+-----+-----+-----+-----+-----+-----+-----+-----+-----+-----+-----+-----+-----+
| T0 | T1 | T2 | T3 | T4 | T5 | T6 | T7 | T8 | T9 | T10 | T11 | T12 | T13 | T14 | T15 | T16 | T17 | T18 | T19 | T20 | T21 | T22 |
+----+----+----+----+----+----+----+----+----+----+-----+-----+-----+-----+-----+-----+-----+-----+-----+-----+-----+-----+-----+
| 1  | 1  | 1  | 1  | 0  | 0  | 0  | 0  | 0  | 1  |  1  |  0  |  0  |  0  |  0  |  0  |  0  |  0  |  0  |  0  |  0  |  0  |  0  |
| 0  | 0  | 0  | 0  | 1  | 1  | 1  | 1  | 1  | 1  |  1  |  0  |  0  |  0  |  0  |  0  |  0  |  0  |  0  |  0  |  0  |  0  |  0  |
| 0  | 0  | 0  | 0  | 0  | 0  | 0  | 0  | 0  | 0  |  0  |  1  |  1  |  1  |  1  |  1  |  0  |  0  |  0  |  0  |  0  |  1  |  1  |
| 0  | 0  | 0  | 0  | 0  | 0  | 0  | 0  | 0  | 0  |  0  |  0  |  0  |  0  |  0  |  0  |  1  |  1  |  1  |  1  |  1  |  1  |  1  |
+----+----+----+----+----+----+----+----+----+----+-----+-----+-----+-----+-----+-----+-----+-----+-----+-----+-----+-----+-----+ 

20/09/2021 20:11:22[INFO] Supervisores para agregar   
+-----+---------+---------------------+---------------------+---------------------------------------------------------------------+
|  ID | Marcado |     T - Entrada     |      T - Salida     |                          Sifon a controlar                          |
+-----+---------+---------------------+---------------------+---------------------------------------------------------------------+
| P39 |    2    |    ['T6', 'T15']    |    ['T5', 'T13']    |              ['P6', 'P18', 'P19', 'P22', 'P31', 'P36']              |
| P39 |    2    |    ['T6', 'T15']    |    ['T5', 'T13']    |           ['P1', 'P6', 'P18', 'P22', 'P31', 'P36', 'P38']           |
| P39 |    2    | ['T2', 'T6', 'T15'] | ['T3', 'T5', 'T13'] |        ['P1', 'P2', 'P6', 'P18', 'P22', 'P31', 'P36', 'P38']        |
| P39 |    3    | ['T2', 'T6', 'T15'] | ['T3', 'T5', 'T13'] |     ['P1', 'P2', 'P6', 'P18', 'P19', 'P22', 'P30', 'P31', 'P36']    |
| P39 |    3    |    ['T6', 'T19']    |    ['T5', 'T13']    |     ['P1', 'P3', 'P6', 'P18', 'P22', 'P31', 'P32', 'P36', 'P38']    |
| P39 |    3    |    ['T6', 'T14']    |    ['T5', 'T13']    |        ['P3', 'P6', 'P18', 'P19', 'P22', 'P31', 'P32', 'P36']       |
| P39 |    2    | ['T2', 'T6', 'T15'] | ['T4', 'T5', 'T13'] |     ['P1', 'P2', 'P3', 'P6', 'P18', 'P22', 'P31', 'P36', 'P38']     |
| P39 |    3    | ['T2', 'T6', 'T15'] | ['T4', 'T5', 'T13'] |  ['P1', 'P2', 'P3', 'P6', 'P18', 'P19', 'P22', 'P30', 'P31', 'P36'] |
| P39 |    4    |    ['T6', 'T14']    |    ['T5', 'T13']    | ['P1', 'P3', 'P6', 'P18', 'P19', 'P22', 'P30', 'P31', 'P32', 'P36'] |
| P39 |    1    |    ['T7', 'T18']    |    ['T6', 'T17']    |                  ['P7', 'P16', 'P22', 'P33', 'P36']                 |
+-----+---------+---------------------+---------------------+---------------------------------------------------------------------+ 

20/09/2021 20:11:22[INFO] Supervisores agregados   
+-----+-------+---------+-------------+------------+----------------+
| Nro | Plaza | Marcado | T - Entrada | T - Salida | MAL supervisor |
+-----+-------+---------+-------------+------------+----------------+
+-----+-------+---------+-------------+------------+----------------+ 

20/09/2021 20:11:22[INFO] Supervisores eliminados   
+-----+-------+---------+-------------+------------+----------------+
| Nro | Plaza | Marcado | T - Entrada | T - Salida | MAL supervisor |
+-----+-------+---------+-------------+------------+----------------+
+-----+-------+---------+-------------+------------+----------------+ 

20/09/2021 20:11:22[INFO] Ejecutando accion...   
20/09/2021 20:11:22[ACTION] Agrego supervisor con menor numero de arcos de salida (MNAS)   
20/09/2021 20:11:22[INFO] Supervisor con menor cantidad de arcos de salida agregado 5   

--------------------------------------------------------------------------   
20/09/2021 20:11:22[INFO] Ejecutando petrinator para conocer estado de la red...   
--------------------------------------------------------------------------
   
--------------------------------------------------------------------------
   
20/09/2021 20:11:59[INFO] Calculando recompensa..   
20/09/2021 20:11:59[REWARD] Sigue existiendo el sifon del diablo que se quiso controlar, recompensa -30   

--------------------------------------------------------------------------
   
20/09/2021 20:11:59[STATE] Cambie al estado 3: Hay igual cantidad de sifones vacios en deadlock   
+--------+---------+-------------------+----------------+---------+---------+------------------------+
| Plazas | Estados | Tokens trabajando | Sifones vacios | Sifones | Trampas | Supervisores agregados |
+--------+---------+-------------------+----------------+---------+---------+------------------------+
|   39   |   491   |        1305       |       10       |   741   |   551   |           1            |
+--------+---------+-------------------+----------------+---------+---------+------------------------+ 
+------------------------------+------------+-----------------+--------------------+-----------------------+
|       Estados/Acciones       | + sup MNAS | + sup aleatorio | - sup MAL agregado | - ultimo sup agregado |
+------------------------------+------------+-----------------+--------------------+-----------------------+
|            Start             |   -30.0    |       0.0       |        0.0         |          0.0          |
| + sifónes vacíos en deadlock |    0.0     |       0.0       |        0.0         |          0.0          |
| - sifónes vacíos en deadlock |    0.0     |       0.0       |        0.0         |          0.0          |
| = sifónes vacíos en deadlock |    0.0     |       0.0       |        0.0         |          0.0          |
|             End              |    0.0     |       0.0       |        0.0         |          0.0          |
+------------------------------+------------+-----------------+--------------------+-----------------------+ 

20/09/2021 20:11:59[INFO] SIFONES   
+----+-----+---------------------------------------------------------------------+
| ID | Nro |                                Plazas                               |
+----+-----+---------------------------------------------------------------------+
| 10 |  6  |              ['P6', 'P18', 'P19', 'P22', 'P31', 'P36']              |
| 11 |  23 |           ['P1', 'P6', 'P18', 'P22', 'P31', 'P36', 'P38']           |
| 12 |  31 |        ['P1', 'P2', 'P6', 'P18', 'P22', 'P31', 'P36', 'P38']        |
| 13 | 107 |     ['P1', 'P2', 'P6', 'P18', 'P19', 'P22', 'P30', 'P31', 'P36']    |
| 14 | 330 |     ['P1', 'P3', 'P6', 'P18', 'P22', 'P31', 'P32', 'P36', 'P38']    |
| 15 | 331 |        ['P3', 'P6', 'P18', 'P19', 'P22', 'P31', 'P32', 'P36']       |
| 16 | 502 |     ['P1', 'P2', 'P3', 'P6', 'P18', 'P22', 'P31', 'P36', 'P38']     |
| 17 | 507 |  ['P1', 'P2', 'P3', 'P6', 'P18', 'P19', 'P22', 'P30', 'P31', 'P36'] |
| 18 | 515 | ['P1', 'P3', 'P6', 'P18', 'P19', 'P22', 'P30', 'P31', 'P32', 'P36'] |
| 19 |  20 |                  ['P7', 'P16', 'P22', 'P33', 'P36']                 |
+----+-----+---------------------------------------------------------------------+ 

20/09/2021 20:11:59[INFO] T INVARIANTES   
+----+----+----+----+----+----+----+----+----+----+-----+-----+-----+-----+-----+-----+-----+-----+-----+-----+-----+-----+-----+
| T0 | T1 | T2 | T3 | T4 | T5 | T6 | T7 | T8 | T9 | T10 | T11 | T12 | T13 | T14 | T15 | T16 | T17 | T18 | T19 | T20 | T21 | T22 |
+----+----+----+----+----+----+----+----+----+----+-----+-----+-----+-----+-----+-----+-----+-----+-----+-----+-----+-----+-----+
| 1  | 1  | 1  | 1  | 0  | 0  | 0  | 0  | 0  | 1  |  1  |  0  |  0  |  0  |  0  |  0  |  0  |  0  |  0  |  0  |  0  |  0  |  0  |
| 0  | 0  | 0  | 0  | 1  | 1  | 1  | 1  | 1  | 1  |  1  |  0  |  0  |  0  |  0  |  0  |  0  |  0  |  0  |  0  |  0  |  0  |  0  |
| 0  | 0  | 0  | 0  | 0  | 0  | 0  | 0  | 0  | 0  |  0  |  1  |  1  |  1  |  1  |  1  |  0  |  0  |  0  |  0  |  0  |  1  |  1  |
| 0  | 0  | 0  | 0  | 0  | 0  | 0  | 0  | 0  | 0  |  0  |  0  |  0  |  0  |  0  |  0  |  1  |  1  |  1  |  1  |  1  |  1  |  1  |
+----+----+----+----+----+----+----+----+----+----+-----+-----+-----+-----+-----+-----+-----+-----+-----+-----+-----+-----+-----+ 

20/09/2021 20:11:59[INFO] Supervisores para agregar   
+-----+---------+---------------------+---------------------+---------------------------------------------------------------------+
|  ID | Marcado |     T - Entrada     |      T - Salida     |                          Sifon a controlar                          |
+-----+---------+---------------------+---------------------+---------------------------------------------------------------------+
| P40 |    2    |    ['T6', 'T15']    |    ['T5', 'T13']    |              ['P6', 'P18', 'P19', 'P22', 'P31', 'P36']              |
| P40 |    2    |    ['T6', 'T15']    |    ['T5', 'T13']    |           ['P1', 'P6', 'P18', 'P22', 'P31', 'P36', 'P38']           |
| P40 |    2    | ['T2', 'T6', 'T15'] | ['T3', 'T5', 'T13'] |        ['P1', 'P2', 'P6', 'P18', 'P22', 'P31', 'P36', 'P38']        |
| P40 |    3    | ['T2', 'T6', 'T15'] | ['T3', 'T5', 'T13'] |     ['P1', 'P2', 'P6', 'P18', 'P19', 'P22', 'P30', 'P31', 'P36']    |
| P40 |    3    |    ['T6', 'T19']    |    ['T5', 'T13']    |     ['P1', 'P3', 'P6', 'P18', 'P22', 'P31', 'P32', 'P36', 'P38']    |
| P40 |    3    |    ['T6', 'T14']    |    ['T5', 'T13']    |        ['P3', 'P6', 'P18', 'P19', 'P22', 'P31', 'P32', 'P36']       |
| P40 |    2    | ['T2', 'T6', 'T15'] | ['T4', 'T5', 'T13'] |     ['P1', 'P2', 'P3', 'P6', 'P18', 'P22', 'P31', 'P36', 'P38']     |
| P40 |    3    | ['T2', 'T6', 'T15'] | ['T4', 'T5', 'T13'] |  ['P1', 'P2', 'P3', 'P6', 'P18', 'P19', 'P22', 'P30', 'P31', 'P36'] |
| P40 |    4    |    ['T6', 'T14']    |    ['T5', 'T13']    | ['P1', 'P3', 'P6', 'P18', 'P19', 'P22', 'P30', 'P31', 'P32', 'P36'] |
| P40 |    1    |    ['T7', 'T18']    |    ['T6', 'T17']    |                  ['P7', 'P16', 'P22', 'P33', 'P36']                 |
+-----+---------+---------------------+---------------------+---------------------------------------------------------------------+ 

20/09/2021 20:11:59[INFO] Supervisores agregados   
+-----+-------+---------+---------------+---------------+----------------+
| Nro | Plaza | Marcado |  T - Entrada  |   T - Salida  | MAL supervisor |
+-----+-------+---------+---------------+---------------+----------------+
|  1  |  P39  |    3    | ['T6', 'T14'] | ['T5', 'T13'] |      True      |
+-----+-------+---------+---------------+---------------+----------------+ 

20/09/2021 20:11:59[INFO] Supervisores eliminados   
+-----+-------+---------+-------------+------------+----------------+
| Nro | Plaza | Marcado | T - Entrada | T - Salida | MAL supervisor |
+-----+-------+---------+-------------+------------+----------------+
+-----+-------+---------+-------------+------------+----------------+ 

20/09/2021 20:11:59[INFO] Ejecutando accion...   
20/09/2021 20:11:59[ACTION] Agrego supervisor con menor numero de arcos de salida (MNAS)   
20/09/2021 20:11:59[INFO] Supervisor con menor cantidad de arcos de salida agregado 9   

--------------------------------------------------------------------------   
20/09/2021 20:11:59[INFO] Ejecutando petrinator para conocer estado de la red...   
--------------------------------------------------------------------------
   
--------------------------------------------------------------------------
   
20/09/2021 20:12:49[INFO] Calculando recompensa..   
20/09/2021 20:12:49[REWARD] Agregue un supervisor que genero mas sifones vacios en deadlock, recompensa -10   

--------------------------------------------------------------------------
   
20/09/2021 20:12:49[STATE] Cambie al estado 1: Hay mas sifones vacios en deadlock   
+--------+---------+-------------------+----------------+---------+---------+------------------------+
| Plazas | Estados | Tokens trabajando | Sifones vacios | Sifones | Trampas | Supervisores agregados |
+--------+---------+-------------------+----------------+---------+---------+------------------------+
|   39   |   491   |        1305       |       10       |   741   |   551   |           1            |
|   40   |   483   |        1282       |       13       |   929   |   705   |           2            |
+--------+---------+-------------------+----------------+---------+---------+------------------------+ 
+------------------------------+------------+-----------------+--------------------+-----------------------+
|       Estados/Acciones       | + sup MNAS | + sup aleatorio | - sup MAL agregado | - ultimo sup agregado |
+------------------------------+------------+-----------------+--------------------+-----------------------+
|            Start             |   -30.0    |       0.0       |        0.0         |          0.0          |
| + sifónes vacíos en deadlock |    0.0     |       0.0       |        0.0         |          0.0          |
| - sifónes vacíos en deadlock |    0.0     |       0.0       |        0.0         |          0.0          |
| = sifónes vacíos en deadlock |   -10.0    |       0.0       |        0.0         |          0.0          |
|             End              |    0.0     |       0.0       |        0.0         |          0.0          |
+------------------------------+------------+-----------------+--------------------+-----------------------+ 

20/09/2021 20:12:49[INFO] SIFONES   
+----+-----+---------------------------------------------------------------------+
| ID | Nro |                                Plazas                               |
+----+-----+---------------------------------------------------------------------+
| 20 |  6  |              ['P6', 'P18', 'P19', 'P22', 'P31', 'P36']              |
| 21 |  24 |           ['P1', 'P6', 'P18', 'P22', 'P31', 'P36', 'P38']           |
| 22 |  34 |        ['P1', 'P2', 'P6', 'P18', 'P22', 'P31', 'P36', 'P38']        |
| 23 | 138 |     ['P1', 'P2', 'P6', 'P18', 'P19', 'P22', 'P30', 'P31', 'P36']    |
| 24 | 361 |     ['P1', 'P3', 'P6', 'P18', 'P22', 'P31', 'P32', 'P36', 'P38']    |
| 25 | 362 |        ['P3', 'P6', 'P18', 'P19', 'P22', 'P31', 'P32', 'P36']       |
| 26 | 615 |     ['P1', 'P2', 'P3', 'P6', 'P18', 'P22', 'P31', 'P36', 'P38']     |
| 27 | 623 |  ['P1', 'P2', 'P3', 'P6', 'P18', 'P19', 'P22', 'P30', 'P31', 'P36'] |
| 28 | 636 | ['P1', 'P3', 'P6', 'P18', 'P19', 'P22', 'P30', 'P31', 'P32', 'P36'] |
| 29 |  29 |           ['P1', 'P6', 'P18', 'P22', 'P31', 'P38', 'P40']           |
| 30 |  31 |        ['P1', 'P7', 'P18', 'P22', 'P31', 'P33', 'P38', 'P40']       |
| 31 | 133 |        ['P1', 'P2', 'P6', 'P18', 'P22', 'P31', 'P38', 'P40']        |
| 32 | 618 |     ['P1', 'P2', 'P3', 'P6', 'P18', 'P22', 'P31', 'P38', 'P40']     |
+----+-----+---------------------------------------------------------------------+ 

20/09/2021 20:12:49[INFO] T INVARIANTES   
+----+----+----+----+----+----+----+----+----+----+-----+-----+-----+-----+-----+-----+-----+-----+-----+-----+-----+-----+-----+
| T0 | T1 | T2 | T3 | T4 | T5 | T6 | T7 | T8 | T9 | T10 | T11 | T12 | T13 | T14 | T15 | T16 | T17 | T18 | T19 | T20 | T21 | T22 |
+----+----+----+----+----+----+----+----+----+----+-----+-----+-----+-----+-----+-----+-----+-----+-----+-----+-----+-----+-----+
| 1  | 1  | 1  | 1  | 0  | 0  | 0  | 0  | 0  | 1  |  1  |  0  |  0  |  0  |  0  |  0  |  0  |  0  |  0  |  0  |  0  |  0  |  0  |
| 0  | 0  | 0  | 0  | 1  | 1  | 1  | 1  | 1  | 1  |  1  |  0  |  0  |  0  |  0  |  0  |  0  |  0  |  0  |  0  |  0  |  0  |  0  |
| 0  | 0  | 0  | 0  | 0  | 0  | 0  | 0  | 0  | 0  |  0  |  1  |  1  |  1  |  1  |  1  |  0  |  0  |  0  |  0  |  0  |  1  |  1  |
| 0  | 0  | 0  | 0  | 0  | 0  | 0  | 0  | 0  | 0  |  0  |  0  |  0  |  0  |  0  |  0  |  1  |  1  |  1  |  1  |  1  |  1  |  1  |
+----+----+----+----+----+----+----+----+----+----+-----+-----+-----+-----+-----+-----+-----+-----+-----+-----+-----+-----+-----+ 

20/09/2021 20:12:49[INFO] Supervisores para agregar   
+-----+---------+----------------------------+----------------------------+---------------------------------------------------------------------+
|  ID | Marcado |        T - Entrada         |         T - Salida         |                          Sifon a controlar                          |
+-----+---------+----------------------------+----------------------------+---------------------------------------------------------------------+
| P41 |    2    |       ['T6', 'T15']        |       ['T5', 'T13']        |              ['P6', 'P18', 'P19', 'P22', 'P31', 'P36']              |
| P41 |    2    |       ['T6', 'T15']        |       ['T5', 'T13']        |           ['P1', 'P6', 'P18', 'P22', 'P31', 'P36', 'P38']           |
| P41 |    2    |    ['T2', 'T6', 'T15']     |    ['T3', 'T5', 'T13']     |        ['P1', 'P2', 'P6', 'P18', 'P22', 'P31', 'P36', 'P38']        |
| P41 |    3    |    ['T2', 'T6', 'T15']     |    ['T3', 'T5', 'T13']     |     ['P1', 'P2', 'P6', 'P18', 'P19', 'P22', 'P30', 'P31', 'P36']    |
| P41 |    3    |       ['T6', 'T19']        |       ['T5', 'T13']        |     ['P1', 'P3', 'P6', 'P18', 'P22', 'P31', 'P32', 'P36', 'P38']    |
| P41 |    3    |       ['T6', 'T14']        |       ['T5', 'T13']        |        ['P3', 'P6', 'P18', 'P19', 'P22', 'P31', 'P32', 'P36']       |
| P41 |    2    |    ['T2', 'T6', 'T15']     |    ['T4', 'T5', 'T13']     |     ['P1', 'P2', 'P3', 'P6', 'P18', 'P22', 'P31', 'P36', 'P38']     |
| P41 |    3    |    ['T2', 'T6', 'T15']     |    ['T4', 'T5', 'T13']     |  ['P1', 'P2', 'P3', 'P6', 'P18', 'P19', 'P22', 'P30', 'P31', 'P36'] |
| P41 |    4    |       ['T6', 'T14']        |       ['T5', 'T13']        | ['P1', 'P3', 'P6', 'P18', 'P19', 'P22', 'P30', 'P31', 'P32', 'P36'] |
| P41 |    1    |    ['T6', 'T15', 'T18']    |    ['T5', 'T14', 'T17']    |           ['P1', 'P6', 'P18', 'P22', 'P31', 'P38', 'P40']           |
| P41 |    2    |    ['T7', 'T15', 'T18']    |    ['T5', 'T14', 'T17']    |        ['P1', 'P7', 'P18', 'P22', 'P31', 'P33', 'P38', 'P40']       |
| P41 |    1    | ['T2', 'T6', 'T15', 'T18'] | ['T3', 'T5', 'T14', 'T17'] |        ['P1', 'P2', 'P6', 'P18', 'P22', 'P31', 'P38', 'P40']        |
| P41 |    1    | ['T2', 'T6', 'T15', 'T18'] | ['T4', 'T5', 'T14', 'T17'] |     ['P1', 'P2', 'P3', 'P6', 'P18', 'P22', 'P31', 'P38', 'P40']     |
+-----+---------+----------------------------+----------------------------+---------------------------------------------------------------------+ 

20/09/2021 20:12:49[INFO] Supervisores agregados   
+-----+-------+---------+---------------+---------------+----------------+
| Nro | Plaza | Marcado |  T - Entrada  |   T - Salida  | MAL supervisor |
+-----+-------+---------+---------------+---------------+----------------+
|  1  |  P39  |    3    | ['T6', 'T14'] | ['T5', 'T13'] |      True      |
|  2  |  P40  |    1    | ['T7', 'T18'] | ['T6', 'T17'] |     False      |
+-----+-------+---------+---------------+---------------+----------------+ 

20/09/2021 20:12:49[INFO] Supervisores eliminados   
+-----+-------+---------+-------------+------------+----------------+
| Nro | Plaza | Marcado | T - Entrada | T - Salida | MAL supervisor |
+-----+-------+---------+-------------+------------+----------------+
+-----+-------+---------+-------------+------------+----------------+ 

20/09/2021 20:12:49[INFO] Ejecutando accion...   
20/09/2021 20:12:49[ACTION] Agrego supervisor con menor numero de arcos de salida (MNAS)   
20/09/2021 20:12:49[INFO] Supervisor con menor cantidad de arcos de salida agregado 1   

--------------------------------------------------------------------------   
20/09/2021 20:12:49[INFO] Ejecutando petrinator para conocer estado de la red...   
--------------------------------------------------------------------------
   
--------------------------------------------------------------------------
   
20/09/2021 20:13:48[INFO] Calculando recompensa..   
20/09/2021 20:13:48[REWARD] Agregue un supervisor que genero menos sifones vacios en deadlock, recompensa -1   

--------------------------------------------------------------------------
   
20/09/2021 20:13:48[STATE] Cambie al estado 2: Hay menos sifones vacios en deadlock   
+--------+---------+-------------------+----------------+---------+---------+------------------------+
| Plazas | Estados | Tokens trabajando | Sifones vacios | Sifones | Trampas | Supervisores agregados |
+--------+---------+-------------------+----------------+---------+---------+------------------------+
|   39   |   491   |        1305       |       10       |   741   |   551   |           1            |
|   40   |   483   |        1282       |       13       |   929   |   705   |           2            |
|   41   |   482   |        1279       |       4        |   1117  |   820   |           3            |
+--------+---------+-------------------+----------------+---------+---------+------------------------+ 
+------------------------------+------------+-----------------+--------------------+-----------------------+
|       Estados/Acciones       | + sup MNAS | + sup aleatorio | - sup MAL agregado | - ultimo sup agregado |
+------------------------------+------------+-----------------+--------------------+-----------------------+
|            Start             |   -30.0    |       0.0       |        0.0         |          0.0          |
| + sifónes vacíos en deadlock |    -1.0    |       0.0       |        0.0         |          0.0          |
| - sifónes vacíos en deadlock |    0.0     |       0.0       |        0.0         |          0.0          |
| = sifónes vacíos en deadlock |   -10.0    |       0.0       |        0.0         |          0.0          |
|             End              |    0.0     |       0.0       |        0.0         |          0.0          |
+------------------------------+------------+-----------------+--------------------+-----------------------+ 

20/09/2021 20:13:48[INFO] SIFONES   
+----+-----+-------------------------------------------------------------+
| ID | Nro |                            Plazas                           |
+----+-----+-------------------------------------------------------------+
| 33 |  31 |       ['P1', 'P6', 'P18', 'P22', 'P31', 'P38', 'P40']       |
| 34 |  33 |    ['P1', 'P7', 'P18', 'P22', 'P31', 'P33', 'P38', 'P40']   |
| 35 | 157 |    ['P1', 'P2', 'P6', 'P18', 'P22', 'P31', 'P38', 'P40']    |
| 36 | 739 | ['P1', 'P2', 'P3', 'P6', 'P18', 'P22', 'P31', 'P38', 'P40'] |
+----+-----+-------------------------------------------------------------+ 

20/09/2021 20:13:48[INFO] T INVARIANTES   
+----+----+----+----+----+----+----+----+----+----+-----+-----+-----+-----+-----+-----+-----+-----+-----+-----+-----+-----+-----+
| T0 | T1 | T2 | T3 | T4 | T5 | T6 | T7 | T8 | T9 | T10 | T11 | T12 | T13 | T14 | T15 | T16 | T17 | T18 | T19 | T20 | T21 | T22 |
+----+----+----+----+----+----+----+----+----+----+-----+-----+-----+-----+-----+-----+-----+-----+-----+-----+-----+-----+-----+
| 1  | 1  | 1  | 1  | 0  | 0  | 0  | 0  | 0  | 1  |  1  |  0  |  0  |  0  |  0  |  0  |  0  |  0  |  0  |  0  |  0  |  0  |  0  |
| 0  | 0  | 0  | 0  | 1  | 1  | 1  | 1  | 1  | 1  |  1  |  0  |  0  |  0  |  0  |  0  |  0  |  0  |  0  |  0  |  0  |  0  |  0  |
| 0  | 0  | 0  | 0  | 0  | 0  | 0  | 0  | 0  | 0  |  0  |  1  |  1  |  1  |  1  |  1  |  0  |  0  |  0  |  0  |  0  |  1  |  1  |
| 0  | 0  | 0  | 0  | 0  | 0  | 0  | 0  | 0  | 0  |  0  |  0  |  0  |  0  |  0  |  0  |  1  |  1  |  1  |  1  |  1  |  1  |  1  |
+----+----+----+----+----+----+----+----+----+----+-----+-----+-----+-----+-----+-----+-----+-----+-----+-----+-----+-----+-----+ 

20/09/2021 20:13:48[INFO] Supervisores para agregar   
+-----+---------+----------------------------+----------------------------+-------------------------------------------------------------+
|  ID | Marcado |        T - Entrada         |         T - Salida         |                      Sifon a controlar                      |
+-----+---------+----------------------------+----------------------------+-------------------------------------------------------------+
| P42 |    1    |    ['T6', 'T15', 'T18']    |    ['T5', 'T14', 'T17']    |       ['P1', 'P6', 'P18', 'P22', 'P31', 'P38', 'P40']       |
| P42 |    2    |    ['T7', 'T15', 'T18']    |    ['T5', 'T14', 'T17']    |    ['P1', 'P7', 'P18', 'P22', 'P31', 'P33', 'P38', 'P40']   |
| P42 |    1    | ['T2', 'T6', 'T15', 'T18'] | ['T3', 'T5', 'T14', 'T17'] |    ['P1', 'P2', 'P6', 'P18', 'P22', 'P31', 'P38', 'P40']    |
| P42 |    1    | ['T2', 'T6', 'T15', 'T18'] | ['T4', 'T5', 'T14', 'T17'] | ['P1', 'P2', 'P3', 'P6', 'P18', 'P22', 'P31', 'P38', 'P40'] |
+-----+---------+----------------------------+----------------------------+-------------------------------------------------------------+ 

20/09/2021 20:13:48[INFO] Supervisores agregados   
+-----+-------+---------+---------------+---------------+----------------+
| Nro | Plaza | Marcado |  T - Entrada  |   T - Salida  | MAL supervisor |
+-----+-------+---------+---------------+---------------+----------------+
|  1  |  P39  |    3    | ['T6', 'T14'] | ['T5', 'T13'] |      True      |
|  2  |  P40  |    1    | ['T7', 'T18'] | ['T6', 'T17'] |     False      |
|  3  |  P41  |    2    | ['T6', 'T15'] | ['T5', 'T13'] |     False      |
+-----+-------+---------+---------------+---------------+----------------+ 

20/09/2021 20:13:48[INFO] Supervisores eliminados   
+-----+-------+---------+-------------+------------+----------------+
| Nro | Plaza | Marcado | T - Entrada | T - Salida | MAL supervisor |
+-----+-------+---------+-------------+------------+----------------+
+-----+-------+---------+-------------+------------+----------------+ 

20/09/2021 20:13:48[INFO] Ejecutando accion...   
20/09/2021 20:13:48[ACTION] Agrego supervisor con menor numero de arcos de salida (MNAS)   
20/09/2021 20:13:48[INFO] Supervisor con menor cantidad de arcos de salida agregado 0   

--------------------------------------------------------------------------   
20/09/2021 20:13:48[INFO] Ejecutando petrinator para conocer estado de la red...   
--------------------------------------------------------------------------
   
--------------------------------------------------------------------------
   
20/09/2021 20:15:07[INFO] Calculando recompensa..   
20/09/2021 20:15:07[REWARD] Agregue un supervisor que genero mas sifones vacios en deadlock, recompensa -10   

--------------------------------------------------------------------------
   
20/09/2021 20:15:07[STATE] Cambie al estado 1: Hay mas sifones vacios en deadlock   
+--------+---------+-------------------+----------------+---------+---------+------------------------+
| Plazas | Estados | Tokens trabajando | Sifones vacios | Sifones | Trampas | Supervisores agregados |
+--------+---------+-------------------+----------------+---------+---------+------------------------+
|   39   |   491   |        1305       |       10       |   741   |   551   |           1            |
|   40   |   483   |        1282       |       13       |   929   |   705   |           2            |
|   41   |   482   |        1279       |       4        |   1117  |   820   |           3            |
|   42   |   449   |        1185       |       18       |   1690  |   978   |           4            |
+--------+---------+-------------------+----------------+---------+---------+------------------------+ 
+------------------------------+------------+-----------------+--------------------+-----------------------+
|       Estados/Acciones       | + sup MNAS | + sup aleatorio | - sup MAL agregado | - ultimo sup agregado |
+------------------------------+------------+-----------------+--------------------+-----------------------+
|            Start             |   -30.0    |       0.0       |        0.0         |          0.0          |
| + sifónes vacíos en deadlock |    -1.0    |       0.0       |        0.0         |          0.0          |
| - sifónes vacíos en deadlock |   -10.0    |       0.0       |        0.0         |          0.0          |
| = sifónes vacíos en deadlock |   -10.0    |       0.0       |        0.0         |          0.0          |
|             End              |    0.0     |       0.0       |        0.0         |          0.0          |
+------------------------------+------------+-----------------+--------------------+-----------------------+ 

20/09/2021 20:15:07[INFO] SIFONES   
+----+------+---------------------------------------------------------------------+
| ID | Nro  |                                Plazas                               |
+----+------+---------------------------------------------------------------------+
| 37 |  19  |                  ['P6', 'P17', 'P22', 'P36', 'P42']                 |
| 38 |  22  |              ['P6', 'P18', 'P22', 'P31', 'P36', 'P42']              |
| 39 | 167  |        ['P1', 'P2', 'P6', 'P17', 'P22', 'P30', 'P36', 'P42']        |
| 40 | 233  |     ['P1', 'P2', 'P6', 'P17', 'P18', 'P22', 'P30', 'P36', 'P42']    |
| 41 | 257  |     ['P1', 'P2', 'P6', 'P18', 'P22', 'P30', 'P31', 'P36', 'P42']    |
| 42 | 696  |           ['P3', 'P6', 'P17', 'P22', 'P32', 'P36', 'P42']           |
| 43 | 737  |        ['P3', 'P6', 'P18', 'P22', 'P31', 'P32', 'P36', 'P42']       |
| 44 | 748  |        ['P3', 'P6', 'P17', 'P18', 'P22', 'P32', 'P36', 'P42']       |
| 45 | 916  |     ['P1', 'P2', 'P3', 'P6', 'P17', 'P22', 'P30', 'P36', 'P42']     |
| 46 | 940  |     ['P1', 'P3', 'P6', 'P17', 'P22', 'P30', 'P32', 'P36', 'P42']    |
| 47 | 1052 |  ['P1', 'P2', 'P3', 'P6', 'P17', 'P18', 'P22', 'P30', 'P36', 'P42'] |
| 48 | 1076 | ['P1', 'P3', 'P6', 'P17', 'P18', 'P22', 'P30', 'P32', 'P36', 'P42'] |
| 49 | 1126 |  ['P1', 'P2', 'P3', 'P6', 'P18', 'P22', 'P30', 'P31', 'P36', 'P42'] |
| 50 | 1146 | ['P1', 'P3', 'P6', 'P18', 'P22', 'P30', 'P31', 'P32', 'P36', 'P42'] |
| 51 |  33  |              ['P7', 'P17', 'P22', 'P33', 'P36', 'P42']              |
| 52 | 1281 |        ['P3', 'P4', 'P6', 'P17', 'P22', 'P32', 'P36', 'P42']        |
| 53 | 1484 |     ['P3', 'P4', 'P6', 'P17', 'P18', 'P22', 'P32', 'P36', 'P42']    |
| 54 | 1642 |    ['P3', 'P7', 'P17', 'P22', 'P24', 'P32', 'P36', 'P37', 'P42']    |
+----+------+---------------------------------------------------------------------+ 

20/09/2021 20:15:07[INFO] T INVARIANTES   
+----+----+----+----+----+----+----+----+----+----+-----+-----+-----+-----+-----+-----+-----+-----+-----+-----+-----+-----+-----+
| T0 | T1 | T2 | T3 | T4 | T5 | T6 | T7 | T8 | T9 | T10 | T11 | T12 | T13 | T14 | T15 | T16 | T17 | T18 | T19 | T20 | T21 | T22 |
+----+----+----+----+----+----+----+----+----+----+-----+-----+-----+-----+-----+-----+-----+-----+-----+-----+-----+-----+-----+
| 1  | 1  | 1  | 1  | 0  | 0  | 0  | 0  | 0  | 1  |  1  |  0  |  0  |  0  |  0  |  0  |  0  |  0  |  0  |  0  |  0  |  0  |  0  |
| 0  | 0  | 0  | 0  | 1  | 1  | 1  | 1  | 1  | 1  |  1  |  0  |  0  |  0  |  0  |  0  |  0  |  0  |  0  |  0  |  0  |  0  |  0  |
| 0  | 0  | 0  | 0  | 0  | 0  | 0  | 0  | 0  | 0  |  0  |  1  |  1  |  1  |  1  |  1  |  0  |  0  |  0  |  0  |  0  |  1  |  1  |
| 0  | 0  | 0  | 0  | 0  | 0  | 0  | 0  | 0  | 0  |  0  |  0  |  0  |  0  |  0  |  0  |  1  |  1  |  1  |  1  |  1  |  1  |  1  |
+----+----+----+----+----+----+----+----+----+----+-----+-----+-----+-----+-----+-----+-----+-----+-----+-----+-----+-----+-----+ 

20/09/2021 20:15:07[INFO] Supervisores para agregar   
+-----+---------+----------------------------+----------------------------+---------------------------------------------------------------------+
|  ID | Marcado |        T - Entrada         |         T - Salida         |                          Sifon a controlar                          |
+-----+---------+----------------------------+----------------------------+---------------------------------------------------------------------+
| P43 |    1    |    ['T6', 'T15', 'T18']    |    ['T5', 'T13', 'T17']    |              ['P6', 'P18', 'P22', 'P31', 'P36', 'P42']              |
| P43 |    1    | ['T2', 'T6', 'T14', 'T18'] | ['T3', 'T5', 'T13', 'T17'] |        ['P1', 'P2', 'P6', 'P17', 'P22', 'P30', 'P36', 'P42']        |
| P43 |    1    | ['T2', 'T6', 'T14', 'T18'] | ['T3', 'T5', 'T13', 'T17'] |     ['P1', 'P2', 'P6', 'P17', 'P18', 'P22', 'P30', 'P36', 'P42']    |
| P43 |    2    | ['T2', 'T6', 'T15', 'T18'] | ['T3', 'T5', 'T13', 'T17'] |     ['P1', 'P2', 'P6', 'P18', 'P22', 'P30', 'P31', 'P36', 'P42']    |
| P43 |    1    |    ['T6', 'T14', 'T18']    |    ['T5', 'T13', 'T17']    |           ['P3', 'P6', 'P17', 'P22', 'P32', 'P36', 'P42']           |
| P43 |    2    |    ['T6', 'T14', 'T18']    |    ['T5', 'T13', 'T17']    |        ['P3', 'P6', 'P18', 'P22', 'P31', 'P32', 'P36', 'P42']       |
| P43 |    1    |    ['T6', 'T14', 'T18']    |    ['T5', 'T13', 'T17']    |        ['P3', 'P6', 'P17', 'P18', 'P22', 'P32', 'P36', 'P42']       |
| P43 |    1    | ['T2', 'T6', 'T14', 'T18'] | ['T4', 'T5', 'T13', 'T17'] |     ['P1', 'P2', 'P3', 'P6', 'P17', 'P22', 'P30', 'P36', 'P42']     |
| P43 |    2    |    ['T6', 'T14', 'T18']    |    ['T5', 'T13', 'T17']    |     ['P1', 'P3', 'P6', 'P17', 'P22', 'P30', 'P32', 'P36', 'P42']    |
| P43 |    1    | ['T2', 'T6', 'T14', 'T18'] | ['T4', 'T5', 'T13', 'T17'] |  ['P1', 'P2', 'P3', 'P6', 'P17', 'P18', 'P22', 'P30', 'P36', 'P42'] |
| P43 |    2    |    ['T6', 'T14', 'T18']    |    ['T5', 'T13', 'T17']    | ['P1', 'P3', 'P6', 'P17', 'P18', 'P22', 'P30', 'P32', 'P36', 'P42'] |
| P43 |    2    | ['T2', 'T6', 'T15', 'T18'] | ['T4', 'T5', 'T13', 'T17'] |  ['P1', 'P2', 'P3', 'P6', 'P18', 'P22', 'P30', 'P31', 'P36', 'P42'] |
| P43 |    3    |    ['T6', 'T14', 'T18']    |    ['T5', 'T13', 'T17']    | ['P1', 'P3', 'P6', 'P18', 'P22', 'P30', 'P31', 'P32', 'P36', 'P42'] |
| P43 |    1    |    ['T7', 'T14', 'T18']    |    ['T5', 'T13', 'T17']    |              ['P7', 'P17', 'P22', 'P33', 'P36', 'P42']              |
| P43 |    2    | ['T3', 'T6', 'T14', 'T18'] | ['T2', 'T5', 'T13', 'T17'] |        ['P3', 'P4', 'P6', 'P17', 'P22', 'P32', 'P36', 'P42']        |
| P43 |    2    | ['T3', 'T6', 'T14', 'T18'] | ['T2', 'T5', 'T13', 'T17'] |     ['P3', 'P4', 'P6', 'P17', 'P18', 'P22', 'P32', 'P36', 'P42']    |
| P43 |    2    | ['T3', 'T7', 'T14', 'T18'] | ['T2', 'T5', 'T13', 'T17'] |    ['P3', 'P7', 'P17', 'P22', 'P24', 'P32', 'P36', 'P37', 'P42']    |
+-----+---------+----------------------------+----------------------------+---------------------------------------------------------------------+ 

20/09/2021 20:15:07[INFO] Supervisores agregados   
+-----+-------+---------+----------------------+----------------------+----------------+
| Nro | Plaza | Marcado |     T - Entrada      |      T - Salida      | MAL supervisor |
+-----+-------+---------+----------------------+----------------------+----------------+
|  1  |  P39  |    3    |    ['T6', 'T14']     |    ['T5', 'T13']     |      True      |
|  2  |  P40  |    1    |    ['T7', 'T18']     |    ['T6', 'T17']     |     False      |
|  3  |  P41  |    2    |    ['T6', 'T15']     |    ['T5', 'T13']     |     False      |
|  4  |  P42  |    1    | ['T6', 'T15', 'T18'] | ['T5', 'T14', 'T17'] |     False      |
+-----+-------+---------+----------------------+----------------------+----------------+ 

20/09/2021 20:15:07[INFO] Supervisores eliminados   
+-----+-------+---------+-------------+------------+----------------+
| Nro | Plaza | Marcado | T - Entrada | T - Salida | MAL supervisor |
+-----+-------+---------+-------------+------------+----------------+
+-----+-------+---------+-------------+------------+----------------+ 

20/09/2021 20:15:07[INFO] Ejecutando accion...   
20/09/2021 20:15:07[ACTION] Agrego supervisor aleatorio Numero: 1  

--------------------------------------------------------------------------   
20/09/2021 20:15:07[INFO] Ejecutando petrinator para conocer estado de la red...   
--------------------------------------------------------------------------
   
--------------------------------------------------------------------------
   
20/09/2021 20:17:09[INFO] Calculando recompensa..   
20/09/2021 20:17:09[REWARD] Agregue un supervisor que genero menos sifones vacios en deadlock, recompensa -1   

--------------------------------------------------------------------------
   
20/09/2021 20:17:09[STATE] Cambie al estado 2: Hay menos sifones vacios en deadlock   
+--------+---------+-------------------+----------------+---------+---------+------------------------+
| Plazas | Estados | Tokens trabajando | Sifones vacios | Sifones | Trampas | Supervisores agregados |
+--------+---------+-------------------+----------------+---------+---------+------------------------+
|   39   |   491   |        1305       |       10       |   741   |   551   |           1            |
|   40   |   483   |        1282       |       13       |   929   |   705   |           2            |
|   41   |   482   |        1279       |       4        |   1117  |   820   |           3            |
|   42   |   449   |        1185       |       18       |   1690  |   978   |           4            |
|   43   |   438   |        1154       |       12       |   2927  |   1417  |           5            |
+--------+---------+-------------------+----------------+---------+---------+------------------------+ 
+------------------------------+------------+-----------------+--------------------+-----------------------+
|       Estados/Acciones       | + sup MNAS | + sup aleatorio | - sup MAL agregado | - ultimo sup agregado |
+------------------------------+------------+-----------------+--------------------+-----------------------+
|            Start             |   -30.0    |       0.0       |        0.0         |          0.0          |
| + sifónes vacíos en deadlock |    -1.0    |       -1.0      |        0.0         |          0.0          |
| - sifónes vacíos en deadlock |   -10.0    |       0.0       |        0.0         |          0.0          |
| = sifónes vacíos en deadlock |   -10.0    |       0.0       |        0.0         |          0.0          |
|             End              |    0.0     |       0.0       |        0.0         |          0.0          |
+------------------------------+------------+-----------------+--------------------+-----------------------+ 

20/09/2021 20:17:09[INFO] SIFONES   
+----+------+---------------------------------------------------------------+
| ID | Nro  |                             Plazas                            |
+----+------+---------------------------------------------------------------+
| 55 |  20  |               ['P6', 'P17', 'P22', 'P36', 'P42']              |
| 56 |  34  |           ['P7', 'P17', 'P22', 'P33', 'P36', 'P42']           |
| 57 | 345  |        ['P4', 'P6', 'P17', 'P22', 'P36', 'P42', 'P43']        |
| 58 | 398  |     ['P4', 'P6', 'P17', 'P18', 'P22', 'P36', 'P42', 'P43']    |
| 59 | 472  |    ['P7', 'P17', 'P22', 'P24', 'P36', 'P37', 'P42', 'P43']    |
| 60 | 1423 |        ['P3', 'P6', 'P17', 'P22', 'P32', 'P36', 'P42']        |
| 61 | 1475 |     ['P3', 'P6', 'P17', 'P18', 'P22', 'P32', 'P36', 'P42']    |
| 62 | 2191 |     ['P3', 'P4', 'P6', 'P17', 'P22', 'P36', 'P42', 'P43']     |
| 63 | 2286 |     ['P3', 'P4', 'P6', 'P17', 'P22', 'P32', 'P36', 'P42']     |
| 64 | 2477 |  ['P3', 'P4', 'P6', 'P17', 'P18', 'P22', 'P36', 'P42', 'P43'] |
| 65 | 2600 |  ['P3', 'P4', 'P6', 'P17', 'P18', 'P22', 'P32', 'P36', 'P42'] |
| 66 | 2870 | ['P3', 'P7', 'P17', 'P22', 'P24', 'P32', 'P36', 'P37', 'P42'] |
+----+------+---------------------------------------------------------------+ 

20/09/2021 20:17:09[INFO] T INVARIANTES   
+----+----+----+----+----+----+----+----+----+----+-----+-----+-----+-----+-----+-----+-----+-----+-----+-----+-----+-----+-----+
| T0 | T1 | T2 | T3 | T4 | T5 | T6 | T7 | T8 | T9 | T10 | T11 | T12 | T13 | T14 | T15 | T16 | T17 | T18 | T19 | T20 | T21 | T22 |
+----+----+----+----+----+----+----+----+----+----+-----+-----+-----+-----+-----+-----+-----+-----+-----+-----+-----+-----+-----+
| 1  | 1  | 1  | 1  | 0  | 0  | 0  | 0  | 0  | 1  |  1  |  0  |  0  |  0  |  0  |  0  |  0  |  0  |  0  |  0  |  0  |  0  |  0  |
| 0  | 0  | 0  | 0  | 1  | 1  | 1  | 1  | 1  | 1  |  1  |  0  |  0  |  0  |  0  |  0  |  0  |  0  |  0  |  0  |  0  |  0  |  0  |
| 0  | 0  | 0  | 0  | 0  | 0  | 0  | 0  | 0  | 0  |  0  |  1  |  1  |  1  |  1  |  1  |  0  |  0  |  0  |  0  |  0  |  1  |  1  |
| 0  | 0  | 0  | 0  | 0  | 0  | 0  | 0  | 0  | 0  |  0  |  0  |  0  |  0  |  0  |  0  |  1  |  1  |  1  |  1  |  1  |  1  |  1  |
+----+----+----+----+----+----+----+----+----+----+-----+-----+-----+-----+-----+-----+-----+-----+-----+-----+-----+-----+-----+ 

20/09/2021 20:17:09[INFO] Supervisores para agregar   
+-----+---------+----------------------------+----------------------------+---------------------------------------------------------------+
|  ID | Marcado |        T - Entrada         |         T - Salida         |                       Sifon a controlar                       |
+-----+---------+----------------------------+----------------------------+---------------------------------------------------------------+
| P44 |    1    |    ['T7', 'T14', 'T18']    |    ['T5', 'T13', 'T17']    |           ['P7', 'P17', 'P22', 'P33', 'P36', 'P42']           |
| P44 |    1    |    ['T6', 'T14', 'T18']    |    ['T5', 'T13', 'T17']    |        ['P4', 'P6', 'P17', 'P22', 'P36', 'P42', 'P43']        |
| P44 |    1    |    ['T6', 'T14', 'T18']    |    ['T5', 'T13', 'T17']    |     ['P4', 'P6', 'P17', 'P18', 'P22', 'P36', 'P42', 'P43']    |
| P44 |    1    |    ['T6', 'T14', 'T18']    |    ['T5', 'T13', 'T17']    |    ['P7', 'P17', 'P22', 'P24', 'P36', 'P37', 'P42', 'P43']    |
| P44 |    1    |    ['T6', 'T14', 'T18']    |    ['T5', 'T13', 'T17']    |        ['P3', 'P6', 'P17', 'P22', 'P32', 'P36', 'P42']        |
| P44 |    1    |    ['T6', 'T14', 'T18']    |    ['T5', 'T13', 'T17']    |     ['P3', 'P6', 'P17', 'P18', 'P22', 'P32', 'P36', 'P42']    |
| P44 |    1    | ['T3', 'T6', 'T14', 'T18'] | ['T4', 'T5', 'T13', 'T17'] |     ['P3', 'P4', 'P6', 'P17', 'P22', 'P36', 'P42', 'P43']     |
| P44 |    2    | ['T3', 'T6', 'T14', 'T18'] | ['T2', 'T5', 'T13', 'T17'] |     ['P3', 'P4', 'P6', 'P17', 'P22', 'P32', 'P36', 'P42']     |
| P44 |    1    | ['T3', 'T6', 'T14', 'T18'] | ['T4', 'T5', 'T13', 'T17'] |  ['P3', 'P4', 'P6', 'P17', 'P18', 'P22', 'P36', 'P42', 'P43'] |
| P44 |    2    | ['T3', 'T6', 'T14', 'T18'] | ['T2', 'T5', 'T13', 'T17'] |  ['P3', 'P4', 'P6', 'P17', 'P18', 'P22', 'P32', 'P36', 'P42'] |
| P44 |    2    | ['T3', 'T7', 'T14', 'T18'] | ['T2', 'T5', 'T13', 'T17'] | ['P3', 'P7', 'P17', 'P22', 'P24', 'P32', 'P36', 'P37', 'P42'] |
+-----+---------+----------------------------+----------------------------+---------------------------------------------------------------+ 

20/09/2021 20:17:09[INFO] Supervisores agregados   
+-----+-------+---------+----------------------------+----------------------------+----------------+
| Nro | Plaza | Marcado |        T - Entrada         |         T - Salida         | MAL supervisor |
+-----+-------+---------+----------------------------+----------------------------+----------------+
|  1  |  P39  |    3    |       ['T6', 'T14']        |       ['T5', 'T13']        |      True      |
|  2  |  P40  |    1    |       ['T7', 'T18']        |       ['T6', 'T17']        |     False      |
|  3  |  P41  |    2    |       ['T6', 'T15']        |       ['T5', 'T13']        |     False      |
|  4  |  P42  |    1    |    ['T6', 'T15', 'T18']    |    ['T5', 'T14', 'T17']    |     False      |
|  5  |  P43  |    1    | ['T2', 'T6', 'T14', 'T18'] | ['T3', 'T5', 'T13', 'T17'] |     False      |
+-----+-------+---------+----------------------------+----------------------------+----------------+ 

20/09/2021 20:17:09[INFO] Supervisores eliminados   
+-----+-------+---------+-------------+------------+----------------+
| Nro | Plaza | Marcado | T - Entrada | T - Salida | MAL supervisor |
+-----+-------+---------+-------------+------------+----------------+
+-----+-------+---------+-------------+------------+----------------+ 

20/09/2021 20:17:09[INFO] Ejecutando accion...   
20/09/2021 20:17:09[ACTION] Agrego supervisor aleatorio Numero: 1  

--------------------------------------------------------------------------   
20/09/2021 20:17:09[INFO] Ejecutando petrinator para conocer estado de la red...   
--------------------------------------------------------------------------
   
--------------------------------------------------------------------------
   
20/09/2021 20:19:37[INFO] Calculando recompensa..   
20/09/2021 20:19:37[REWARD] No hay mas deadlock, recompensa 100   

--------------------------------------------------------------------------
   
20/09/2021 20:19:37[STATE] Se llego al estado deseado, NO HAY MAS DEADLOCK   

--------------------------------------------------------------------------
   
+--------+---------+-------------------+----------------+---------+---------+------------------------+
| Plazas | Estados | Tokens trabajando | Sifones vacios | Sifones | Trampas | Supervisores agregados |
+--------+---------+-------------------+----------------+---------+---------+------------------------+
|   39   |   491   |        1305       |       10       |   741   |   551   |           1            |
|   40   |   483   |        1282       |       13       |   929   |   705   |           2            |
|   41   |   482   |        1279       |       4        |   1117  |   820   |           3            |
|   42   |   449   |        1185       |       18       |   1690  |   978   |           4            |
|   43   |   438   |        1154       |       12       |   2927  |   1417  |           5            |
|   44   |   437   |        1151       |       0        |   3351  |   1643  |           6            |
+--------+---------+-------------------+----------------+---------+---------+------------------------+ 
+------------------------------+------------+-----------------+--------------------+-----------------------+
|       Estados/Acciones       | + sup MNAS | + sup aleatorio | - sup MAL agregado | - ultimo sup agregado |
+------------------------------+------------+-----------------+--------------------+-----------------------+
|            Start             |   -30.0    |       0.0       |        0.0         |          0.0          |
| + sifónes vacíos en deadlock |    -1.0    |       -1.0      |        0.0         |          0.0          |
| - sifónes vacíos en deadlock |   -10.0    |      100.0      |        0.0         |          0.0          |
| = sifónes vacíos en deadlock |   -10.0    |       0.0       |        0.0         |          0.0          |
|             End              |    0.0     |       0.0       |        0.0         |          0.0          |
+------------------------------+------------+-----------------+--------------------+-----------------------+ 

20/09/2021 20:19:37[INFO] Comienza proceso de eliminacion de supervisores redundantes   
20/09/2021 20:19:37[INFO] Supervisor a eliminar   
+-----+-------+---------+---------------+---------------+----------------+
| Nro | Plaza | Marcado |  T - Entrada  |   T - Salida  | MAL supervisor |
+-----+-------+---------+---------------+---------------+----------------+
|  1  |  P39  |    3    | ['T6', 'T14'] | ['T5', 'T13'] |      True      |
+-----+-------+---------+---------------+---------------+----------------+ 
20/09/2021 20:19:37[INFO] Eliminando supervisor ...   

--------------------------------------------------------------------------   
20/09/2021 20:19:37[INFO] Ejecutando petrinator para conocer estado de la red...   
--------------------------------------------------------------------------
   
20/09/2021 20:21:38[INFO] Se elimino correctamente supervisor redundante   
20/09/2021 20:21:38[INFO] Supervisor a eliminar   
+-----+-------+---------+---------------+---------------+----------------+
| Nro | Plaza | Marcado |  T - Entrada  |   T - Salida  | MAL supervisor |
+-----+-------+---------+---------------+---------------+----------------+
|  2  |  P40  |    1    | ['T7', 'T18'] | ['T6', 'T17'] |     False      |
+-----+-------+---------+---------------+---------------+----------------+ 
20/09/2021 20:21:38[INFO] Eliminando supervisor ...   

--------------------------------------------------------------------------   
20/09/2021 20:21:38[INFO] Ejecutando petrinator para conocer estado de la red...   
--------------------------------------------------------------------------
   
20/09/2021 20:23:09[INFO] El supervisor eliminado no era redundante, volviendo a agregar supervisor   
20/09/2021 20:23:09[INFO] Se volvio a agregar correctamente el supervisor eliminado   

--------------------------------------------------------------------------   
20/09/2021 20:23:09[INFO] Ejecutando petrinator para conocer estado de la red...   
--------------------------------------------------------------------------
   
20/09/2021 20:25:05[INFO] Supervisor a eliminar   
+-----+-------+---------+---------------+---------------+----------------+
| Nro | Plaza | Marcado |  T - Entrada  |   T - Salida  | MAL supervisor |
+-----+-------+---------+---------------+---------------+----------------+
|  3  |  P41  |    2    | ['T6', 'T15'] | ['T5', 'T13'] |     False      |
+-----+-------+---------+---------------+---------------+----------------+ 
20/09/2021 20:25:05[INFO] Eliminando supervisor ...   

--------------------------------------------------------------------------   
20/09/2021 20:25:05[INFO] Ejecutando petrinator para conocer estado de la red...   
--------------------------------------------------------------------------
   
20/09/2021 20:26:38[INFO] Se elimino correctamente supervisor redundante   
20/09/2021 20:26:38[INFO] Supervisor a eliminar   
+-----+-------+---------+----------------------+----------------------+----------------+
| Nro | Plaza | Marcado |     T - Entrada      |      T - Salida      | MAL supervisor |
+-----+-------+---------+----------------------+----------------------+----------------+
|  4  |  P42  |    1    | ['T6', 'T15', 'T18'] | ['T5', 'T14', 'T17'] |     False      |
+-----+-------+---------+----------------------+----------------------+----------------+ 
20/09/2021 20:26:38[INFO] Eliminando supervisor ...   

--------------------------------------------------------------------------   
20/09/2021 20:26:38[INFO] Ejecutando petrinator para conocer estado de la red...   
--------------------------------------------------------------------------
   
20/09/2021 20:27:44[INFO] Se elimino correctamente supervisor redundante   
20/09/2021 20:27:44[INFO] Supervisor a eliminar   
+-----+-------+---------+----------------------------+----------------------------+----------------+
| Nro | Plaza | Marcado |        T - Entrada         |         T - Salida         | MAL supervisor |
+-----+-------+---------+----------------------------+----------------------------+----------------+
|  5  |  P43  |    1    | ['T2', 'T6', 'T14', 'T18'] | ['T3', 'T5', 'T13', 'T17'] |     False      |
+-----+-------+---------+----------------------------+----------------------------+----------------+ 
20/09/2021 20:27:44[INFO] Eliminando supervisor ...   

--------------------------------------------------------------------------   
20/09/2021 20:27:44[INFO] Ejecutando petrinator para conocer estado de la red...   
--------------------------------------------------------------------------
   
20/09/2021 20:28:28[INFO] Se elimino correctamente supervisor redundante   
20/09/2021 20:28:28[INFO] Supervisor a eliminar   
+-----+-------+---------+----------------------+----------------------+----------------+
| Nro | Plaza | Marcado |     T - Entrada      |      T - Salida      | MAL supervisor |
+-----+-------+---------+----------------------+----------------------+----------------+
|  6  |  P44  |    1    | ['T6', 'T14', 'T18'] | ['T5', 'T13', 'T17'] |     False      |
+-----+-------+---------+----------------------+----------------------+----------------+ 
20/09/2021 20:28:28[INFO] Eliminando supervisor ...   

--------------------------------------------------------------------------   
20/09/2021 20:28:28[INFO] Ejecutando petrinator para conocer estado de la red...   
--------------------------------------------------------------------------
   
20/09/2021 20:29:00[INFO] El supervisor eliminado no era redundante, volviendo a agregar supervisor   
20/09/2021 20:29:00[INFO] Se volvio a agregar correctamente el supervisor eliminado   

--------------------------------------------------------------------------   
20/09/2021 20:29:00[INFO] Ejecutando petrinator para conocer estado de la red...   
--------------------------------------------------------------------------
   
20/09/2021 20:29:47[INFO] Se eliminaron todos los supervisores redundantes   
+--------+---------+-------------------+----------------+---------+---------+------------------------+-------------------------+
| Plazas | Estados | Tokens trabajando | Sifones vacios | Sifones | Trampas | Supervisores agregados | Supervisores eliminados |
+--------+---------+-------------------+----------------+---------+---------+------------------------+-------------------------+
|   40   |   461   |        1219       |       0        |   1024  |   620   |           2            |            4            |
+--------+---------+-------------------+----------------+---------+---------+------------------------+-------------------------+ 
