11/09/2021 15:24:51[INFO] Iniciando la ejecucion serial de todos los casos... 
  
11/09/2021 18:36:15[INFO] Clasificando los resultados... 
  
11/09/2021 18:36:25[INFO] Generando estadisticas... 
  
11/09/2021 18:36:25[RESULT] Se analizaron 25 redes de petri, de las cuales:   
11/09/2021 18:36:25[RESULT] 21 se pudieron desbloquear   
+--------------------+-------------------+---------------+-----------------+-------------------+------------------+------------------------+-------------------+
|        Red         | Duracion Analisis | N Iteraciones | N Sup Agregados | N Sifones Inicial | N Plazas Inicial | N Transiciones Inicial | N Estados Inicial |
+--------------------+-------------------+---------------+-----------------+-------------------+------------------+------------------------+-------------------+
| 20210910-223944_12 |    00h:00m:22s    |       4       |        1        |         27        |        24        |           10           |         23        |
| 20210910-223944_8  |    00h:00m:26s    |       4       |        1        |         40        |        30        |           11           |         21        |
| 20210910-223944_16 |    00h:00m:27s    |       4       |        1        |         24        |        29        |           12           |         29        |
| 20210910-223944_28 |    00h:00m:35s    |       6       |        2        |         27        |        24        |           12           |         30        |
| 20210910-223944_19 |    00h:00m:58s    |       6       |        2        |         65        |        31        |           13           |         57        |
| 20210910-223944_6  |    00h:01m:00s    |       9       |        3        |         41        |        29        |           12           |         89        |
| 20210910-223944_24 |    00h:01m:05s    |       8       |        3        |         35        |        31        |           14           |         72        |
| 20210910-223944_13 |    00h:01m:23s    |       16      |        3        |         52        |        24        |           11           |         17        |
| 20210910-223944_7  |    00h:02m:01s    |       14      |        4        |        172        |        30        |           12           |         25        |
| 20210910-223944_4  |    00h:03m:01s    |       19      |        6        |         54        |        29        |           12           |         30        |
| 20210910-223944_0  |    00h:03m:08s    |       13      |        3        |         93        |        32        |           13           |         71        |
| 20210910-223944_3  |    00h:03m:16s    |       17      |        5        |         55        |        30        |           14           |         78        |
| 20210910-223944_14 |    00h:03m:41s    |       17      |        6        |        123        |        32        |           12           |         26        |
| 20210910-223944_23 |    00h:03m:42s    |       12      |        4        |        167        |        33        |           13           |         31        |
| 20210910-223944_1  |    00h:05m:14s    |       56      |        5        |         32        |        23        |           11           |         18        |
| 20210910-223944_25 |    00h:06m:38s    |       31      |        3        |         78        |        31        |           14           |         73        |
| 20210910-223944_26 |    00h:07m:47s    |       50      |        4        |        104        |        30        |           13           |         62        |
| 20210910-223944_2  |    00h:12m:46s    |       22      |        6        |        190        |        32        |           14           |         53        |
| 20210910-223944_11 |    00h:13m:02s    |       52      |        5        |         84        |        30        |           14           |         99        |
| 20210910-223944_5  |    00h:15m:15s    |       33      |        6        |        127        |        32        |           14           |        131        |
| 20210910-223944_29 |    00h:19m:20s    |       21      |        7        |        116        |        39        |           14           |         62        |
+--------------------+-------------------+---------------+-----------------+-------------------+------------------+------------------------+-------------------+ 

11/09/2021 18:36:25[RESULT] 0 no contenian deadlock inicialmente   
11/09/2021 18:36:25[RESULT] 0 no eran del tipo s3pr   
11/09/2021 18:36:25[RESULT] 4 no pudieron destrabarse debido a corte por timeout del petrinator o limite de iteraciones   
+--------------------+-------------------+---------------+-----------------+-------------------+------------------+------------------------+-------------------+
|        Red         | Duracion Analisis | N Iteraciones | N Sup Agregados | N Sifones Inicial | N Plazas Inicial | N Transiciones Inicial | N Estados Inicial |
+--------------------+-------------------+---------------+-----------------+-------------------+------------------+------------------------+-------------------+
| 20210910-223944_18 |    00h:07m:21s    |       76      |        0        |         40        |        26        |           11           |         13        |
| 20210910-223944_27 |    00h:23m:13s    |       76      |        3        |        215        |        31        |           14           |        180        |
| 20210910-223944_10 |    00h:27m:15s    |       76      |        9        |         96        |        31        |           15           |        261        |
| 20210910-223944_17 |    00h:28m:14s    |       76      |        0        |        172        |        33        |           13           |         59        |
+--------------------+-------------------+---------------+-----------------+-------------------+------------------+------------------------+-------------------+ 

11/09/2021 18:36:25[RESULT] 0 expirementaron fallas inesperadas durante el analisis   
11/09/2021 18:36:25[RESULT] Del set de redes propuesto, observar los siguientes indicadores:   
11/09/2021 18:36:25[RESULT] - 84.00% de las redes validas pudo ser desbloqueado -- Calidad del Algoritmo   
11/09/2021 18:36:25[RESULT] - 0.00% no cumplian condiciones iniciales (S3PR y DEADLOCK) -- Calidad del Generador/Muestra   
11/09/2021 18:36:25[RESULT] - 16.00% se debieron descartar por problemas petrinator y/o algoritmo py original -- Incidencias debido a factores externos   
[INFO] La ejecucion masiva ha concluido exitosamente, luego de 03h:11m:33s
   
