24/07/2021 18:48:08[DEBUG] pflow_file:  ../prueba/Ezpeleta/net.pflow  
24/07/2021 18:48:08[DEBUG] output_folder:  ../prueba/Ezpeleta/  
24/07/2021 18:48:08[DEBUG] html_path:  ../prueba/Ezpeleta/  
24/07/2021 18:48:08[DEBUG] txt_path:  ../prueba/Ezpeleta/txt_info  

--------------------------------------------------------------------------   
24/07/2021 18:48:08[INFO] Ejecutando petrinator para conocer estado de la red...   
--------------------------------------------------------------------------
   
24/07/2021 18:48:11[INFO] SIFONES   
+----+-----+-----------------------------------+
| ID | Nro |               Plazas              |
+----+-----+-----------------------------------+
| 0  |  10 |    ['P10', 'P11', 'P13', 'P14']   |
| 1  |  11 | ['P7', 'P8', 'P10', 'P13', 'P14'] |
+----+-----+-----------------------------------+ 

24/07/2021 18:48:11[INFO] T INVARIANTES   
+----+----+----+----+----+----+----+----+----+----+-----+
| T0 | T1 | T2 | T3 | T4 | T5 | T6 | T7 | T8 | T9 | T10 |
+----+----+----+----+----+----+----+----+----+----+-----+
| 1  | 1  | 0  | 0  | 0  | 0  | 0  | 0  | 0  | 0  |  1  |
| 1  | 0  | 1  | 1  | 1  | 1  | 0  | 0  | 0  | 0  |  0  |
| 0  | 0  | 0  | 0  | 0  | 0  | 1  | 1  | 1  | 1  |  0  |
+----+----+----+----+----+----+----+----+----+----+-----+ 

24/07/2021 18:48:11[INFO] Supervisores para agregar   
+-----+---------+--------------+--------------+-----------------------------------+
|  ID | Marcado | T - Entrada  |  T - Salida  |         Sifon a controlar         |
+-----+---------+--------------+--------------+-----------------------------------+
| P16 |    2    | ['T5', 'T8'] | ['T4', 'T7'] |    ['P10', 'P11', 'P13', 'P14']   |
| P16 |    4    | ['T5', 'T9'] | ['T3', 'T7'] | ['P7', 'P8', 'P10', 'P13', 'P14'] |
+-----+---------+--------------+--------------+-----------------------------------+ 

24/07/2021 18:48:11[INFO] Supervisores agregados   
+-----+-------+---------+-------------+------------+
| Nro | Plaza | Marcado | T - Entrada | T - Salida |
+-----+-------+---------+-------------+------------+
+-----+-------+---------+-------------+------------+ 

24/07/2021 18:48:11[INFO] Supervisores eliminados   
+-----+-------+---------+-------------+------------+
| Nro | Plaza | Marcado | T - Entrada | T - Salida |
+-----+-------+---------+-------------+------------+
+-----+-------+---------+-------------+------------+ 

24/07/2021 18:48:11[INFO] Ejecutando accion...   
24/07/2021 18:48:11[ACTION] Agrego supervisor con menor numero de arcos de salida (MNAS)   
24/07/2021 18:48:11[INFO] Supervisor con menor cantidad de arcos de salida agregado0   

--------------------------------------------------------------------------   
24/07/2021 18:48:11[INFO] Ejecutando petrinator para conocer estado de la red...   
--------------------------------------------------------------------------
   
--------------------------------------------------------------------------
   
24/07/2021 18:48:14[INFO] Calculando recompensa..   
24/07/2021 18:48:14[REWARD] No hay mas deadlock, recompensa 100   

--------------------------------------------------------------------------
   
24/07/2021 18:48:14[STATE] Se llego al estado deseado, NO HAY MAS DEADLOCK   

--------------------------------------------------------------------------
   
+-----------------------------------------------------+-------------------------+------------------------+---------------------+--------------------+
|                   Estados/Acciones                  | Agregar supervisor MNAS | Agregar o quitar arcos | Eliminar supervisor | Agregar supervisor |
+-----------------------------------------------------+-------------------------+------------------------+---------------------+--------------------+
|                        Start                        |          100.0          |          0.0           |         0.0         |        0.0         |
|        Más sifónes vacíos en estado deadlock        |           0.0           |          0.0           |         0.0         |        0.0         |
|       Menos sifónes vacíos en estado deadlock       |           0.0           |          0.0           |         0.0         |        0.0         |
| Igual cantidad de sifónes vacíos en estado deadlock |           0.0           |          0.0           |         0.0         |        0.0         |
|                         End                         |           0.0           |          0.0           |         0.0         |        0.0         |
+-----------------------------------------------------+-------------------------+------------------------+---------------------+--------------------+ 

