
Petri Net Matrices Forwards incidence matrix I +
T1 T2 T3 T4 T5 T6 T7 T8 T9 T10 T11 
P1 0 0 0 0 0 1 0 0 0 0 1 
P2 1 0 0 0 0 0 0 0 0 0 0 
P3 0 1 1 0 0 0 0 0 0 0 0 
P4 0 0 0 0 0 0 0 0 0 0 1 
P5 0 1 0 0 0 0 0 0 0 0 0 
P6 0 0 1 0 0 0 0 0 0 0 0 
P7 0 0 0 1 0 0 0 0 0 1 0 
P8 0 0 0 0 0 0 0 0 1 0 0 
P9 0 0 0 1 0 0 0 0 0 0 0 
P10 0 0 0 0 1 0 0 0 1 0 0 
P11 0 0 0 0 0 0 0 1 0 0 0 
P12 0 0 0 0 0 0 0 0 0 1 0 
P13 0 0 0 0 1 0 0 0 0 0 0 
P14 0 0 0 0 0 1 0 1 0 0 0 
P15 0 0 0 0 0 0 1 0 0 0 0 
P16 0 0 0 0 1 0 0 1 0 0 0 
Backwards incidence matrix I -
T1 T2 T3 T4 T5 T6 T7 T8 T9 T10 T11 
P1 1 0 0 0 0 0 0 0 0 0 0 
P2 0 1 1 0 0 0 0 0 0 0 0 
P3 1 0 0 0 0 0 0 0 0 0 0 
P4 0 1 0 0 0 0 0 0 0 0 0 
P5 0 0 0 0 0 0 0 0 0 0 1 
P6 0 0 0 1 0 0 0 0 0 0 0 
P7 0 0 1 0 0 0 0 0 1 0 0 
P8 0 0 0 0 0 0 0 0 0 1 0 
P9 0 0 0 0 1 0 0 0 0 0 0 
P10 0 0 0 1 0 0 0 1 0 0 0 
P11 0 0 0 0 0 0 0 0 1 0 0 
P12 0 0 0 0 0 0 1 0 0 0 0 
P13 0 0 0 0 0 1 0 0 0 0 0 
P14 0 0 0 0 1 0 1 0 0 0 0 
P15 0 0 0 0 0 0 0 1 0 0 0 
P16 0 0 0 1 0 0 1 0 0 0 0 
Initial 3 0 1 1 0 0 2 0 0 1 0 3 0 2 0 2 
