 p 13 
 t 9 
 Reachable states from S0 [1, 0, 0, 1, 0, 0, 1, 0, 0, 1, 1, 1, 2] 
 T1 => S1 [0, 1, 0, 1, 0, 0, 1, 0, 0, 1, 1, 0, 1] 
 T7 => S4 [1, 0, 0, 1, 0, 0, 0, 1, 0, 1, 0, 1, 1] 
 T4 => S8 [1, 0, 0, 0, 1, 0, 1, 0, 0, 0, 1, 1, 1] 
 
 Reachable states from S1 [0, 1, 0, 1, 0, 0, 1, 0, 0, 1, 1, 0, 1] 
 T2 => S2 [0, 0, 1, 1, 0, 0, 1, 0, 0, 0, 1, 0, 1] 
 T7 => S5 [0, 1, 0, 1, 0, 0, 0, 1, 0, 1, 0, 0, 0] 
 T4 => S9 [0, 1, 0, 0, 1, 0, 1, 0, 0, 0, 1, 0, 0] 
 
 Reachable states from S2 [0, 0, 1, 1, 0, 0, 1, 0, 0, 0, 1, 0, 1] 
 T3 => S0 [1, 0, 0, 1, 0, 0, 1, 0, 0, 1, 1, 1, 2] 
 T7 => S3 [0, 0, 1, 1, 0, 0, 0, 1, 0, 0, 0, 0, 0] 
 
 Reachable states from S3 [0, 0, 1, 1, 0, 0, 0, 1, 0, 0, 0, 0, 0] 
 T3 => S4 [1, 0, 0, 1, 0, 0, 0, 1, 0, 1, 0, 1, 1] 
 
 Reachable states from S4 [1, 0, 0, 1, 0, 0, 0, 1, 0, 1, 0, 1, 1] 
 T1 => S5 [0, 1, 0, 1, 0, 0, 0, 1, 0, 1, 0, 0, 0] 
 T4 => S6 [1, 0, 0, 0, 1, 0, 0, 1, 0, 0, 0, 1, 0] 
 T8 => S12 [1, 0, 0, 1, 0, 0, 0, 0, 1, 1, 0, 0, 1] 
 
 Reachable states from S5 [0, 1, 0, 1, 0, 0, 0, 1, 0, 1, 0, 0, 0] 
 T2 => S3 [0, 0, 1, 1, 0, 0, 0, 1, 0, 0, 0, 0, 0] 
 
 Reachable states from S6 [1, 0, 0, 0, 1, 0, 0, 1, 0, 0, 0, 1, 0] 
 T8 => S7 [1, 0, 0, 0, 1, 0, 0, 0, 1, 0, 0, 0, 0] 
 
 Reachable states from S7 [1, 0, 0, 0, 1, 0, 0, 0, 1, 0, 0, 0, 0] 
 T9 => S8 [1, 0, 0, 0, 1, 0, 1, 0, 0, 0, 1, 1, 1] 
 
 Reachable states from S8 [1, 0, 0, 0, 1, 0, 1, 0, 0, 0, 1, 1, 1] 
 T7 => S6 [1, 0, 0, 0, 1, 0, 0, 1, 0, 0, 0, 1, 0] 
 T1 => S9 [0, 1, 0, 0, 1, 0, 1, 0, 0, 0, 1, 0, 0] 
 T5 => S11 [1, 0, 0, 0, 0, 1, 1, 0, 0, 0, 0, 1, 1] 
 
 Reachable states from S9 [0, 1, 0, 0, 1, 0, 1, 0, 0, 0, 1, 0, 0] 
 T5 => S10 [0, 1, 0, 0, 0, 1, 1, 0, 0, 0, 0, 0, 0] 
 
 Reachable states from S10 [0, 1, 0, 0, 0, 1, 1, 0, 0, 0, 0, 0, 0] 
 T6 => S1 [0, 1, 0, 1, 0, 0, 1, 0, 0, 1, 1, 0, 1] 
 
 Reachable states from S11 [1, 0, 0, 0, 0, 1, 1, 0, 0, 0, 0, 1, 1] 
 T6 => S0 [1, 0, 0, 1, 0, 0, 1, 0, 0, 1, 1, 1, 2] 
 T1 => S10 [0, 1, 0, 0, 0, 1, 1, 0, 0, 0, 0, 0, 0] 
 
 Reachable states from S12 [1, 0, 0, 1, 0, 0, 0, 0, 1, 1, 0, 0, 1] 
 T9 => S0 [1, 0, 0, 1, 0, 0, 1, 0, 0, 1, 1, 1, 2] 
 T4 => S7 [1, 0, 0, 0, 1, 0, 0, 0, 1, 0, 0, 0, 0] 
